%!PS-Adobe-3.0 EPSF-3.0
%%Creator: (MATLAB, The Mathworks, Inc. Version 9.0.0.341360 \(R2016a\). Operating System: Linux)
%%Title: report/figures/lm_softmax_unifprio_ratio.eps
%%CreationDate: 2017-02-04T23:56:19
%%Pages: (atend)
%%BoundingBox:    59     4   920   325
%%LanguageLevel: 3
%%EndComments
%%BeginProlog
%%BeginResource: procset (Apache XML Graphics Std ProcSet) 1.2 0
%%Version: 1.2 0
%%Copyright: (Copyright 2001-2003,2010 The Apache Software Foundation. License terms: http://www.apache.org/licenses/LICENSE-2.0)
/bd{bind def}bind def
/ld{load def}bd
/GR/grestore ld
/M/moveto ld
/LJ/setlinejoin ld
/C/curveto ld
/f/fill ld
/LW/setlinewidth ld
/GC/setgray ld
/t/show ld
/N/newpath ld
/CT/concat ld
/cp/closepath ld
/S/stroke ld
/L/lineto ld
/CC/setcmykcolor ld
/A/ashow ld
/GS/gsave ld
/RC/setrgbcolor ld
/RM/rmoveto ld
/ML/setmiterlimit ld
/re {4 2 roll M
1 index 0 rlineto
0 exch rlineto
neg 0 rlineto
cp } bd
/_ctm matrix def
/_tm matrix def
/BT { _ctm currentmatrix pop matrix _tm copy pop 0 0 moveto } bd
/ET { _ctm setmatrix } bd
/iTm { _ctm setmatrix _tm concat } bd
/Tm { _tm astore pop iTm 0 0 moveto } bd
/ux 0.0 def
/uy 0.0 def
/F {
  /Tp exch def
  /Tf exch def
  Tf findfont Tp scalefont setfont
  /cf Tf def  /cs Tp def
} bd
/ULS {currentpoint /uy exch def /ux exch def} bd
/ULE {
  /Tcx currentpoint pop def
  gsave
  newpath
  cf findfont cs scalefont dup
  /FontMatrix get 0 get /Ts exch def /FontInfo get dup
  /UnderlinePosition get Ts mul /To exch def
  /UnderlineThickness get Ts mul /Tt exch def
  ux uy To add moveto  Tcx uy To add lineto
  Tt setlinewidth stroke
  grestore
} bd
/OLE {
  /Tcx currentpoint pop def
  gsave
  newpath
  cf findfont cs scalefont dup
  /FontMatrix get 0 get /Ts exch def /FontInfo get dup
  /UnderlinePosition get Ts mul /To exch def
  /UnderlineThickness get Ts mul /Tt exch def
  ux uy To add cs add moveto Tcx uy To add cs add lineto
  Tt setlinewidth stroke
  grestore
} bd
/SOE {
  /Tcx currentpoint pop def
  gsave
  newpath
  cf findfont cs scalefont dup
  /FontMatrix get 0 get /Ts exch def /FontInfo get dup
  /UnderlinePosition get Ts mul /To exch def
  /UnderlineThickness get Ts mul /Tt exch def
  ux uy To add cs 10 mul 26 idiv add moveto Tcx uy To add cs 10 mul 26 idiv add lineto
  Tt setlinewidth stroke
  grestore
} bd
/QT {
/Y22 exch store
/X22 exch store
/Y21 exch store
/X21 exch store
currentpoint
/Y21 load 2 mul add 3 div exch
/X21 load 2 mul add 3 div exch
/X21 load 2 mul /X22 load add 3 div
/Y21 load 2 mul /Y22 load add 3 div
/X22 load /Y22 load curveto
} bd
/SSPD {
dup length /d exch dict def
{
/v exch def
/k exch def
currentpagedevice k known {
/cpdv currentpagedevice k get def
v cpdv ne {
/upd false def
/nullv v type /nulltype eq def
/nullcpdv cpdv type /nulltype eq def
nullv nullcpdv or
{
/upd true def
} {
/sametype v type cpdv type eq def
sametype {
v type /arraytype eq {
/vlen v length def
/cpdvlen cpdv length def
vlen cpdvlen eq {
0 1 vlen 1 sub {
/i exch def
/obj v i get def
/cpdobj cpdv i get def
obj cpdobj ne {
/upd true def
exit
} if
} for
} {
/upd true def
} ifelse
} {
v type /dicttype eq {
v {
/dv exch def
/dk exch def
/cpddv cpdv dk get def
dv cpddv ne {
/upd true def
exit
} if
} forall
} {
/upd true def
} ifelse
} ifelse
} if
} ifelse
upd true eq {
d k v put
} if
} if
} if
} forall
d length 0 gt {
d setpagedevice
} if
} bd
%%EndResource
%%BeginResource: procset (Apache XML Graphics EPS ProcSet) 1.0 0
%%Version: 1.0 0
%%Copyright: (Copyright 2002-2003 The Apache Software Foundation. License terms: http://www.apache.org/licenses/LICENSE-2.0)
/BeginEPSF { %def
/b4_Inc_state save def         % Save state for cleanup
/dict_count countdictstack def % Count objects on dict stack
/op_count count 1 sub def      % Count objects on operand stack
userdict begin                 % Push userdict on dict stack
/showpage { } def              % Redefine showpage, { } = null proc
0 setgray 0 setlinecap         % Prepare graphics state
1 setlinewidth 0 setlinejoin
10 setmiterlimit [ ] 0 setdash newpath
/languagelevel where           % If level not equal to 1 then
{pop languagelevel             % set strokeadjust and
1 ne                           % overprint to their defaults.
{false setstrokeadjust false setoverprint
} if
} if
} bd
/EndEPSF { %def
count op_count sub {pop} repeat            % Clean up stacks
countdictstack dict_count sub {end} repeat
b4_Inc_state restore
} bd
%%EndResource
%%EndProlog
%%Page: 1 1
%%PageBoundingBox: 0 0 1000 350
%%BeginPageSetup
[1 0 0 -1 0 350] CT
%%EndPageSetup
GS
1 GC
N
0 0 1000 350 re
f
GR
GS
1 GC
N
0 0 1000 350 re
f
GR
GS
1 GC
N
130 289 M
905 289 L
905 26 L
130 26 L
cp
f
GR
GS
0.873 GC
1 LJ
0.5 LW
N
130 289 M
130 26 L
S
GR
GS
0.873 GC
1 LJ
0.5 LW
N
240.714 289 M
240.714 26 L
S
GR
GS
0.873 GC
1 LJ
0.5 LW
N
351.429 289 M
351.429 26 L
S
GR
GS
0.873 GC
1 LJ
0.5 LW
N
462.143 289 M
462.143 26 L
S
GR
GS
0.873 GC
1 LJ
0.5 LW
N
572.857 289 M
572.857 26 L
S
GR
GS
0.873 GC
1 LJ
0.5 LW
N
683.571 289 M
683.571 26 L
S
GR
GS
0.873 GC
1 LJ
0.5 LW
N
794.286 289 M
794.286 26 L
S
GR
GS
0.873 GC
1 LJ
0.5 LW
N
905 289 M
905 26 L
S
GR
GS
0.873 GC
1 LJ
0.5 LW
N
905 289 M
130 289 L
S
GR
GS
0.873 GC
1 LJ
0.5 LW
N
905 238.905 M
130 238.905 L
S
GR
GS
0.873 GC
1 LJ
0.5 LW
N
905 188.81 M
130 188.81 L
S
GR
GS
0.873 GC
1 LJ
0.5 LW
N
905 138.714 M
130 138.714 L
S
GR
GS
0.873 GC
1 LJ
0.5 LW
N
905 88.619 M
130 88.619 L
S
GR
GS
0.873 GC
1 LJ
0.5 LW
N
905 38.524 M
130 38.524 L
S
GR
GS
0.149 GC
2 setlinecap
1 LJ
0.5 LW
N
130 289 M
905 289 L
S
GR
GS
0.149 GC
2 setlinecap
1 LJ
0.5 LW
N
130 289 M
130 281.25 L
S
GR
GS
0.149 GC
2 setlinecap
1 LJ
0.5 LW
N
240.714 289 M
240.714 281.25 L
S
GR
GS
0.149 GC
2 setlinecap
1 LJ
0.5 LW
N
351.429 289 M
351.429 281.25 L
S
GR
GS
0.149 GC
2 setlinecap
1 LJ
0.5 LW
N
462.143 289 M
462.143 281.25 L
S
GR
GS
0.149 GC
2 setlinecap
1 LJ
0.5 LW
N
572.857 289 M
572.857 281.25 L
S
GR
GS
0.149 GC
2 setlinecap
1 LJ
0.5 LW
N
683.571 289 M
683.571 281.25 L
S
GR
GS
0.149 GC
2 setlinecap
1 LJ
0.5 LW
N
794.286 289 M
794.286 281.25 L
S
GR
GS
0.149 GC
2 setlinecap
1 LJ
0.5 LW
N
905 289 M
905 281.25 L
S
GR
GS
[1 0 0 1 130 295] CT
0.149 GC
N
-2.656 17.344 M
4.219 17.344 L
4.219 19 L
-5.031 19 L
-5.031 17.344 L
-3.906 16.172 -1.969 14.219 QT
-0.031 12.266 0.469 11.688 QT
1.406 10.625 1.781 9.891 QT
2.156 9.156 2.156 8.438 QT
2.156 7.281 1.344 6.547 QT
0.531 5.813 -0.781 5.813 QT
-1.703 5.813 -2.734 6.133 QT
-3.766 6.453 -4.938 7.109 QT
-4.938 5.125 L
-3.75 4.641 -2.711 4.398 QT
-1.672 4.156 -0.813 4.156 QT
1.453 4.156 2.797 5.289 QT
4.141 6.422 4.141 8.313 QT
4.141 9.219 3.805 10.023 QT
3.469 10.828 2.578 11.922 QT
2.344 12.203 1.031 13.555 QT
-0.281 14.906 -2.656 17.344 QT
cp
f
GR
GS
[1 0 0 1 240.71428 295] CT
0.149 GC
N
-12.156 17.344 M
-5.281 17.344 L
-5.281 19 L
-14.531 19 L
-14.531 17.344 L
-13.406 16.172 -11.469 14.219 QT
-9.531 12.266 -9.031 11.688 QT
-8.094 10.625 -7.719 9.891 QT
-7.344 9.156 -7.344 8.438 QT
-7.344 7.281 -8.156 6.547 QT
-8.969 5.813 -10.281 5.813 QT
-11.203 5.813 -12.234 6.133 QT
-13.266 6.453 -14.438 7.109 QT
-14.438 5.125 L
-13.25 4.641 -12.211 4.398 QT
-11.172 4.156 -10.313 4.156 QT
-8.047 4.156 -6.703 5.289 QT
-5.359 6.422 -5.359 8.313 QT
-5.359 9.219 -5.695 10.023 QT
-6.031 10.828 -6.922 11.922 QT
-7.156 12.203 -8.469 13.555 QT
-9.781 14.906 -12.156 17.344 QT
cp
-1.135 16.516 M
0.928 16.516 L
0.928 19 L
-1.135 19 L
-1.135 16.516 L
cp
6.926 17.344 M
13.801 17.344 L
13.801 19 L
4.551 19 L
4.551 17.344 L
5.676 16.172 7.613 14.219 QT
9.551 12.266 10.051 11.688 QT
10.988 10.625 11.363 9.891 QT
11.738 9.156 11.738 8.438 QT
11.738 7.281 10.926 6.547 QT
10.113 5.813 8.801 5.813 QT
7.879 5.813 6.848 6.133 QT
5.816 6.453 4.645 7.109 QT
4.645 5.125 L
5.832 4.641 6.871 4.398 QT
7.91 4.156 8.77 4.156 QT
11.035 4.156 12.379 5.289 QT
13.723 6.422 13.723 8.313 QT
13.723 9.219 13.387 10.023 QT
13.051 10.828 12.16 11.922 QT
11.926 12.203 10.613 13.555 QT
9.301 14.906 6.926 17.344 QT
cp
f
GR
GS
[1 0 0 1 351.42856 295] CT
0.149 GC
N
-12.156 17.344 M
-5.281 17.344 L
-5.281 19 L
-14.531 19 L
-14.531 17.344 L
-13.406 16.172 -11.469 14.219 QT
-9.531 12.266 -9.031 11.688 QT
-8.094 10.625 -7.719 9.891 QT
-7.344 9.156 -7.344 8.438 QT
-7.344 7.281 -8.156 6.547 QT
-8.969 5.813 -10.281 5.813 QT
-11.203 5.813 -12.234 6.133 QT
-13.266 6.453 -14.438 7.109 QT
-14.438 5.125 L
-13.25 4.641 -12.211 4.398 QT
-11.172 4.156 -10.313 4.156 QT
-8.047 4.156 -6.703 5.289 QT
-5.359 6.422 -5.359 8.313 QT
-5.359 9.219 -5.695 10.023 QT
-6.031 10.828 -6.922 11.922 QT
-7.156 12.203 -8.469 13.555 QT
-9.781 14.906 -12.156 17.344 QT
cp
-1.135 16.516 M
0.928 16.516 L
0.928 19 L
-1.135 19 L
-1.135 16.516 L
cp
10.645 6.141 M
5.66 13.922 L
10.645 13.922 L
10.645 6.141 L
cp
10.129 4.422 M
12.598 4.422 L
12.598 13.922 L
14.691 13.922 L
14.691 15.563 L
12.598 15.563 L
12.598 19 L
10.645 19 L
10.645 15.563 L
4.066 15.563 L
4.066 13.656 L
10.129 4.422 L
cp
f
GR
GS
[1 0 0 1 462.14285 295] CT
0.149 GC
N
-12.156 17.344 M
-5.281 17.344 L
-5.281 19 L
-14.531 19 L
-14.531 17.344 L
-13.406 16.172 -11.469 14.219 QT
-9.531 12.266 -9.031 11.688 QT
-8.094 10.625 -7.719 9.891 QT
-7.344 9.156 -7.344 8.438 QT
-7.344 7.281 -8.156 6.547 QT
-8.969 5.813 -10.281 5.813 QT
-11.203 5.813 -12.234 6.133 QT
-13.266 6.453 -14.438 7.109 QT
-14.438 5.125 L
-13.25 4.641 -12.211 4.398 QT
-11.172 4.156 -10.313 4.156 QT
-8.047 4.156 -6.703 5.289 QT
-5.359 6.422 -5.359 8.313 QT
-5.359 9.219 -5.695 10.023 QT
-6.031 10.828 -6.922 11.922 QT
-7.156 12.203 -8.469 13.555 QT
-9.781 14.906 -12.156 17.344 QT
cp
-1.135 16.516 M
0.928 16.516 L
0.928 19 L
-1.135 19 L
-1.135 16.516 L
cp
9.691 10.922 M
8.363 10.922 7.582 11.828 QT
6.801 12.734 6.801 14.328 QT
6.801 15.891 7.582 16.805 QT
8.363 17.719 9.691 17.719 QT
11.02 17.719 11.793 16.805 QT
12.566 15.891 12.566 14.328 QT
12.566 12.734 11.793 11.828 QT
11.02 10.922 9.691 10.922 QT
cp
13.598 4.734 M
13.598 6.531 L
12.863 6.188 12.105 6 QT
11.348 5.813 10.598 5.813 QT
8.645 5.813 7.613 7.133 QT
6.582 8.453 6.441 11.125 QT
7.02 10.266 7.887 9.813 QT
8.754 9.359 9.801 9.359 QT
12.004 9.359 13.277 10.695 QT
14.551 12.031 14.551 14.328 QT
14.551 16.563 13.223 17.922 QT
11.895 19.281 9.691 19.281 QT
7.16 19.281 5.816 17.344 QT
4.473 15.406 4.473 11.719 QT
4.473 8.266 6.113 6.211 QT
7.754 4.156 10.52 4.156 QT
11.27 4.156 12.027 4.305 QT
12.785 4.453 13.598 4.734 QT
cp
f
GR
GS
[1 0 0 1 572.85712 295] CT
0.149 GC
N
-12.156 17.344 M
-5.281 17.344 L
-5.281 19 L
-14.531 19 L
-14.531 17.344 L
-13.406 16.172 -11.469 14.219 QT
-9.531 12.266 -9.031 11.688 QT
-8.094 10.625 -7.719 9.891 QT
-7.344 9.156 -7.344 8.438 QT
-7.344 7.281 -8.156 6.547 QT
-8.969 5.813 -10.281 5.813 QT
-11.203 5.813 -12.234 6.133 QT
-13.266 6.453 -14.438 7.109 QT
-14.438 5.125 L
-13.25 4.641 -12.211 4.398 QT
-11.172 4.156 -10.313 4.156 QT
-8.047 4.156 -6.703 5.289 QT
-5.359 6.422 -5.359 8.313 QT
-5.359 9.219 -5.695 10.023 QT
-6.031 10.828 -6.922 11.922 QT
-7.156 12.203 -8.469 13.555 QT
-9.781 14.906 -12.156 17.344 QT
cp
-1.135 16.516 M
0.928 16.516 L
0.928 19 L
-1.135 19 L
-1.135 16.516 L
cp
9.441 12.078 M
8.035 12.078 7.23 12.828 QT
6.426 13.578 6.426 14.891 QT
6.426 16.219 7.23 16.969 QT
8.035 17.719 9.441 17.719 QT
10.848 17.719 11.66 16.961 QT
12.473 16.203 12.473 14.891 QT
12.473 13.578 11.668 12.828 QT
10.863 12.078 9.441 12.078 QT
cp
7.473 11.234 M
6.191 10.922 5.488 10.055 QT
4.785 9.188 4.785 7.938 QT
4.785 6.188 6.027 5.172 QT
7.27 4.156 9.441 4.156 QT
11.613 4.156 12.855 5.172 QT
14.098 6.188 14.098 7.938 QT
14.098 9.188 13.387 10.055 QT
12.676 10.922 11.426 11.234 QT
12.848 11.563 13.645 12.531 QT
14.441 13.5 14.441 14.891 QT
14.441 17.016 13.145 18.148 QT
11.848 19.281 9.441 19.281 QT
7.035 19.281 5.738 18.148 QT
4.441 17.016 4.441 14.891 QT
4.441 13.5 5.238 12.531 QT
6.035 11.563 7.473 11.234 QT
cp
6.738 8.125 M
6.738 9.25 7.449 9.883 QT
8.16 10.516 9.441 10.516 QT
10.707 10.516 11.426 9.883 QT
12.145 9.25 12.145 8.125 QT
12.145 6.984 11.426 6.352 QT
10.707 5.719 9.441 5.719 QT
8.16 5.719 7.449 6.352 QT
6.738 6.984 6.738 8.125 QT
cp
f
GR
GS
[1 0 0 1 683.57141 295] CT
0.149 GC
N
1.609 11.141 M
3.031 11.438 3.828 12.398 QT
4.625 13.359 4.625 14.766 QT
4.625 16.922 3.141 18.102 QT
1.656 19.281 -1.078 19.281 QT
-2 19.281 -2.969 19.102 QT
-3.938 18.922 -4.969 18.563 QT
-4.969 16.656 L
-4.156 17.141 -3.18 17.383 QT
-2.203 17.625 -1.141 17.625 QT
0.719 17.625 1.688 16.891 QT
2.656 16.156 2.656 14.766 QT
2.656 13.469 1.758 12.742 QT
0.859 12.016 -0.75 12.016 QT
-2.453 12.016 L
-2.453 10.391 L
-0.672 10.391 L
0.781 10.391 1.547 9.813 QT
2.313 9.234 2.313 8.141 QT
2.313 7.016 1.523 6.414 QT
0.734 5.813 -0.75 5.813 QT
-1.563 5.813 -2.492 5.992 QT
-3.422 6.172 -4.531 6.531 QT
-4.531 4.781 L
-3.406 4.469 -2.43 4.313 QT
-1.453 4.156 -0.578 4.156 QT
1.672 4.156 2.977 5.18 QT
4.281 6.203 4.281 7.938 QT
4.281 9.141 3.586 9.977 QT
2.891 10.813 1.609 11.141 QT
cp
f
GR
GS
[1 0 0 1 794.28571 295] CT
0.149 GC
N
-7.891 11.141 M
-6.469 11.438 -5.672 12.398 QT
-4.875 13.359 -4.875 14.766 QT
-4.875 16.922 -6.359 18.102 QT
-7.844 19.281 -10.578 19.281 QT
-11.5 19.281 -12.469 19.102 QT
-13.438 18.922 -14.469 18.563 QT
-14.469 16.656 L
-13.656 17.141 -12.68 17.383 QT
-11.703 17.625 -10.641 17.625 QT
-8.781 17.625 -7.813 16.891 QT
-6.844 16.156 -6.844 14.766 QT
-6.844 13.469 -7.742 12.742 QT
-8.641 12.016 -10.25 12.016 QT
-11.953 12.016 L
-11.953 10.391 L
-10.172 10.391 L
-8.719 10.391 -7.953 9.813 QT
-7.188 9.234 -7.188 8.141 QT
-7.188 7.016 -7.977 6.414 QT
-8.766 5.813 -10.25 5.813 QT
-11.063 5.813 -11.992 5.992 QT
-12.922 6.172 -14.031 6.531 QT
-14.031 4.781 L
-12.906 4.469 -11.93 4.313 QT
-10.953 4.156 -10.078 4.156 QT
-7.828 4.156 -6.523 5.18 QT
-5.219 6.203 -5.219 7.938 QT
-5.219 9.141 -5.914 9.977 QT
-6.609 10.813 -7.891 11.141 QT
cp
-1.135 16.516 M
0.928 16.516 L
0.928 19 L
-1.135 19 L
-1.135 16.516 L
cp
6.926 17.344 M
13.801 17.344 L
13.801 19 L
4.551 19 L
4.551 17.344 L
5.676 16.172 7.613 14.219 QT
9.551 12.266 10.051 11.688 QT
10.988 10.625 11.363 9.891 QT
11.738 9.156 11.738 8.438 QT
11.738 7.281 10.926 6.547 QT
10.113 5.813 8.801 5.813 QT
7.879 5.813 6.848 6.133 QT
5.816 6.453 4.645 7.109 QT
4.645 5.125 L
5.832 4.641 6.871 4.398 QT
7.91 4.156 8.77 4.156 QT
11.035 4.156 12.379 5.289 QT
13.723 6.422 13.723 8.313 QT
13.723 9.219 13.387 10.023 QT
13.051 10.828 12.16 11.922 QT
11.926 12.203 10.613 13.555 QT
9.301 14.906 6.926 17.344 QT
cp
f
GR
GS
[1 0 0 1 905 295] CT
0.149 GC
N
-7.891 11.141 M
-6.469 11.438 -5.672 12.398 QT
-4.875 13.359 -4.875 14.766 QT
-4.875 16.922 -6.359 18.102 QT
-7.844 19.281 -10.578 19.281 QT
-11.5 19.281 -12.469 19.102 QT
-13.438 18.922 -14.469 18.563 QT
-14.469 16.656 L
-13.656 17.141 -12.68 17.383 QT
-11.703 17.625 -10.641 17.625 QT
-8.781 17.625 -7.813 16.891 QT
-6.844 16.156 -6.844 14.766 QT
-6.844 13.469 -7.742 12.742 QT
-8.641 12.016 -10.25 12.016 QT
-11.953 12.016 L
-11.953 10.391 L
-10.172 10.391 L
-8.719 10.391 -7.953 9.813 QT
-7.188 9.234 -7.188 8.141 QT
-7.188 7.016 -7.977 6.414 QT
-8.766 5.813 -10.25 5.813 QT
-11.063 5.813 -11.992 5.992 QT
-12.922 6.172 -14.031 6.531 QT
-14.031 4.781 L
-12.906 4.469 -11.93 4.313 QT
-10.953 4.156 -10.078 4.156 QT
-7.828 4.156 -6.523 5.18 QT
-5.219 6.203 -5.219 7.938 QT
-5.219 9.141 -5.914 9.977 QT
-6.609 10.813 -7.891 11.141 QT
cp
-1.135 16.516 M
0.928 16.516 L
0.928 19 L
-1.135 19 L
-1.135 16.516 L
cp
10.645 6.141 M
5.66 13.922 L
10.645 13.922 L
10.645 6.141 L
cp
10.129 4.422 M
12.598 4.422 L
12.598 13.922 L
14.691 13.922 L
14.691 15.563 L
12.598 15.563 L
12.598 19 L
10.645 19 L
10.645 15.563 L
4.066 15.563 L
4.066 13.656 L
10.129 4.422 L
cp
f
GR
GS
[1 0 0 1 517.50037 320] CT
0.149 GC
N
-14.25 9.328 M
-14.25 11.188 L
-15.094 10.766 -16 10.547 QT
-16.906 10.328 -17.859 10.328 QT
-19.344 10.328 -20.078 10.781 QT
-20.813 11.234 -20.813 12.141 QT
-20.813 12.828 -20.281 13.219 QT
-19.75 13.609 -18.172 13.969 QT
-17.484 14.109 L
-15.391 14.563 -14.5 15.383 QT
-13.609 16.203 -13.609 17.688 QT
-13.609 19.359 -14.938 20.336 QT
-16.266 21.313 -18.578 21.313 QT
-19.547 21.313 -20.594 21.125 QT
-21.641 20.938 -22.813 20.563 QT
-22.813 18.516 L
-21.719 19.094 -20.648 19.375 QT
-19.578 19.656 -18.547 19.656 QT
-17.141 19.656 -16.391 19.18 QT
-15.641 18.703 -15.641 17.828 QT
-15.641 17.031 -16.188 16.602 QT
-16.734 16.172 -18.563 15.766 QT
-19.25 15.609 L
-21.094 15.219 -21.906 14.422 QT
-22.719 13.625 -22.719 12.219 QT
-22.719 10.531 -21.516 9.602 QT
-20.313 8.672 -18.109 8.672 QT
-17 8.672 -16.039 8.836 QT
-15.078 9 -14.25 9.328 QT
cp
-8.507 5.547 M
-8.507 8.969 L
-4.444 8.969 L
-4.444 10.5 L
-8.507 10.5 L
-8.507 17.031 L
-8.507 18.5 -8.108 18.922 QT
-7.71 19.344 -6.476 19.344 QT
-4.444 19.344 L
-4.444 21 L
-6.476 21 L
-8.757 21 -9.624 20.148 QT
-10.491 19.297 -10.491 17.031 QT
-10.491 10.5 L
-11.944 10.5 L
-11.944 8.969 L
-10.491 8.969 L
-10.491 5.547 L
-8.507 5.547 L
cp
8.447 14.484 M
8.447 15.453 L
-0.631 15.453 L
-0.506 17.5 0.596 18.57 QT
1.697 19.641 3.666 19.641 QT
4.807 19.641 5.869 19.359 QT
6.932 19.078 7.994 18.516 QT
7.994 20.391 L
6.932 20.844 5.814 21.078 QT
4.697 21.313 3.541 21.313 QT
0.666 21.313 -1.014 19.633 QT
-2.693 17.953 -2.693 15.109 QT
-2.693 12.141 -1.1 10.406 QT
0.494 8.672 3.197 8.672 QT
5.635 8.672 7.041 10.234 QT
8.447 11.797 8.447 14.484 QT
cp
6.479 13.906 M
6.447 12.281 5.564 11.32 QT
4.682 10.359 3.229 10.359 QT
1.572 10.359 0.572 11.289 QT
-0.428 12.219 -0.568 13.922 QT
6.479 13.906 L
cp
13.607 19.188 M
13.607 25.578 L
11.623 25.578 L
11.623 8.969 L
13.607 8.969 L
13.607 10.797 L
14.232 9.719 15.186 9.195 QT
16.139 8.672 17.451 8.672 QT
19.639 8.672 21.014 10.414 QT
22.389 12.156 22.389 15 QT
22.389 17.828 21.014 19.57 QT
19.639 21.313 17.451 21.313 QT
16.139 21.313 15.186 20.789 QT
14.232 20.266 13.607 19.188 QT
cp
20.326 15 M
20.326 12.813 19.436 11.57 QT
18.545 10.328 16.967 10.328 QT
15.404 10.328 14.506 11.57 QT
13.607 12.813 13.607 15 QT
13.607 17.172 14.506 18.414 QT
15.404 19.656 16.967 19.656 QT
18.545 19.656 19.436 18.414 QT
20.326 17.172 20.326 15 QT
cp
f
GR
GS
[1 0 0 1 852 345] CT
0.149 GC
N
2.938 -0.578 M
2.938 -0.734 3.031 -0.859 QT
7.203 -5 L
3.031 -9.156 L
2.938 -9.266 2.938 -9.422 QT
2.938 -9.578 3.055 -9.703 QT
3.172 -9.828 3.344 -9.828 QT
3.484 -9.828 3.641 -9.703 QT
7.781 -5.563 L
11.906 -9.703 L
12.078 -9.828 12.203 -9.828 QT
12.359 -9.828 12.477 -9.711 QT
12.594 -9.594 12.594 -9.422 QT
12.594 -9.266 12.5 -9.156 QT
8.344 -5 L
12.5 -0.859 L
12.594 -0.734 12.594 -0.578 QT
12.594 -0.406 12.477 -0.289 QT
12.359 -0.172 12.203 -0.172 QT
12.047 -0.172 11.906 -0.328 QT
7.781 -4.438 L
3.641 -0.328 L
3.5 -0.172 3.344 -0.172 QT
3.172 -0.172 3.055 -0.305 QT
2.938 -0.438 2.938 -0.578 QT
cp
f
GR
GS
[1 0 0 1 868 345] CT
0.149 GC
N
2.484 -1.656 M
5.703 -1.656 L
5.703 -12.781 L
2.203 -12.078 L
2.203 -13.875 L
5.688 -14.578 L
7.656 -14.578 L
7.656 -1.656 L
10.875 -1.656 L
10.875 0 L
2.484 0 L
2.484 -1.656 L
cp
19.084 -13.281 M
17.553 -13.281 16.787 -11.781 QT
16.021 -10.281 16.021 -7.281 QT
16.021 -4.281 16.787 -2.781 QT
17.553 -1.281 19.084 -1.281 QT
20.615 -1.281 21.381 -2.781 QT
22.146 -4.281 22.146 -7.281 QT
22.146 -10.281 21.381 -11.781 QT
20.615 -13.281 19.084 -13.281 QT
cp
19.084 -14.844 M
21.537 -14.844 22.826 -12.906 QT
24.115 -10.969 24.115 -7.281 QT
24.115 -3.594 22.826 -1.656 QT
21.537 0.281 19.084 0.281 QT
16.631 0.281 15.334 -1.656 QT
14.037 -3.594 14.037 -7.281 QT
14.037 -10.969 15.334 -12.906 QT
16.631 -14.844 19.084 -14.844 QT
cp
f
GR
GS
[1 0 0 1 894 335] CT
0.149 GC
N
1.734 -11.672 M
7.922 -11.672 L
7.922 -10.344 L
3.172 -10.344 L
3.172 -7.484 L
3.516 -7.594 3.859 -7.656 QT
4.203 -7.719 4.547 -7.719 QT
6.5 -7.719 7.641 -6.648 QT
8.781 -5.578 8.781 -3.75 QT
8.781 -1.859 7.609 -0.813 QT
6.438 0.234 4.313 0.234 QT
3.578 0.234 2.813 0.102 QT
2.047 -0.031 1.234 -0.281 QT
1.234 -1.859 L
1.938 -1.484 2.688 -1.297 QT
3.438 -1.109 4.281 -1.109 QT
5.625 -1.109 6.414 -1.82 QT
7.203 -2.531 7.203 -3.75 QT
7.203 -4.969 6.414 -5.68 QT
5.625 -6.391 4.281 -6.391 QT
3.641 -6.391 3.016 -6.25 QT
2.391 -6.109 1.734 -5.813 QT
1.734 -11.672 L
cp
f
GR
GS
0.149 GC
2 setlinecap
1 LJ
0.5 LW
N
130 289 M
130 26 L
S
GR
GS
0.149 GC
2 setlinecap
1 LJ
0.5 LW
N
130 289 M
137.75 289 L
S
GR
GS
0.149 GC
2 setlinecap
1 LJ
0.5 LW
N
130 238.905 M
137.75 238.905 L
S
GR
GS
0.149 GC
2 setlinecap
1 LJ
0.5 LW
N
130 188.81 M
137.75 188.81 L
S
GR
GS
0.149 GC
2 setlinecap
1 LJ
0.5 LW
N
130 138.714 M
137.75 138.714 L
S
GR
GS
0.149 GC
2 setlinecap
1 LJ
0.5 LW
N
130 88.619 M
137.75 88.619 L
S
GR
GS
0.149 GC
2 setlinecap
1 LJ
0.5 LW
N
130 38.524 M
137.75 38.524 L
S
GR
GS
[1 0 0 1 123.99998 289] CT
0.149 GC
N
-6.641 -6.281 M
-8.172 -6.281 -8.938 -4.781 QT
-9.703 -3.281 -9.703 -0.281 QT
-9.703 2.719 -8.938 4.219 QT
-8.172 5.719 -6.641 5.719 QT
-5.109 5.719 -4.344 4.219 QT
-3.578 2.719 -3.578 -0.281 QT
-3.578 -3.281 -4.344 -4.781 QT
-5.109 -6.281 -6.641 -6.281 QT
cp
-6.641 -7.844 M
-4.188 -7.844 -2.898 -5.906 QT
-1.609 -3.969 -1.609 -0.281 QT
-1.609 3.406 -2.898 5.344 QT
-4.188 7.281 -6.641 7.281 QT
-9.094 7.281 -10.391 5.344 QT
-11.688 3.406 -11.688 -0.281 QT
-11.688 -3.969 -10.391 -5.906 QT
-9.094 -7.844 -6.641 -7.844 QT
cp
f
GR
GS
[1 0 0 1 123.99998 238.90475] CT
0.149 GC
N
-22.156 5.344 M
-15.281 5.344 L
-15.281 7 L
-24.531 7 L
-24.531 5.344 L
-23.406 4.172 -21.469 2.219 QT
-19.531 0.266 -19.031 -0.313 QT
-18.094 -1.375 -17.719 -2.109 QT
-17.344 -2.844 -17.344 -3.563 QT
-17.344 -4.719 -18.156 -5.453 QT
-18.969 -6.188 -20.281 -6.188 QT
-21.203 -6.188 -22.234 -5.867 QT
-23.266 -5.547 -24.438 -4.891 QT
-24.438 -6.875 L
-23.25 -7.359 -22.211 -7.602 QT
-21.172 -7.844 -20.313 -7.844 QT
-18.047 -7.844 -16.703 -6.711 QT
-15.359 -5.578 -15.359 -3.688 QT
-15.359 -2.781 -15.695 -1.977 QT
-16.031 -1.172 -16.922 -0.078 QT
-17.156 0.203 -18.469 1.555 QT
-19.781 2.906 -22.156 5.344 QT
cp
-6.916 -6.281 M
-8.447 -6.281 -9.213 -4.781 QT
-9.979 -3.281 -9.979 -0.281 QT
-9.979 2.719 -9.213 4.219 QT
-8.447 5.719 -6.916 5.719 QT
-5.385 5.719 -4.619 4.219 QT
-3.854 2.719 -3.854 -0.281 QT
-3.854 -3.281 -4.619 -4.781 QT
-5.385 -6.281 -6.916 -6.281 QT
cp
-6.916 -7.844 M
-4.463 -7.844 -3.174 -5.906 QT
-1.885 -3.969 -1.885 -0.281 QT
-1.885 3.406 -3.174 5.344 QT
-4.463 7.281 -6.916 7.281 QT
-9.369 7.281 -10.666 5.344 QT
-11.963 3.406 -11.963 -0.281 QT
-11.963 -3.969 -10.666 -5.906 QT
-9.369 -7.844 -6.916 -7.844 QT
cp
f
GR
GS
[1 0 0 1 123.99998 188.80952] CT
0.149 GC
N
-18.438 -5.859 M
-23.422 1.922 L
-18.438 1.922 L
-18.438 -5.859 L
cp
-18.953 -7.578 M
-16.484 -7.578 L
-16.484 1.922 L
-14.391 1.922 L
-14.391 3.563 L
-16.484 3.563 L
-16.484 7 L
-18.438 7 L
-18.438 3.563 L
-25.016 3.563 L
-25.016 1.656 L
-18.953 -7.578 L
cp
-6.916 -6.281 M
-8.447 -6.281 -9.213 -4.781 QT
-9.979 -3.281 -9.979 -0.281 QT
-9.979 2.719 -9.213 4.219 QT
-8.447 5.719 -6.916 5.719 QT
-5.385 5.719 -4.619 4.219 QT
-3.854 2.719 -3.854 -0.281 QT
-3.854 -3.281 -4.619 -4.781 QT
-5.385 -6.281 -6.916 -6.281 QT
cp
-6.916 -7.844 M
-4.463 -7.844 -3.174 -5.906 QT
-1.885 -3.969 -1.885 -0.281 QT
-1.885 3.406 -3.174 5.344 QT
-4.463 7.281 -6.916 7.281 QT
-9.369 7.281 -10.666 5.344 QT
-11.963 3.406 -11.963 -0.281 QT
-11.963 -3.969 -10.666 -5.906 QT
-9.369 -7.844 -6.916 -7.844 QT
cp
f
GR
GS
[1 0 0 1 123.99998 138.71428] CT
0.149 GC
N
-19.391 -1.078 M
-20.719 -1.078 -21.5 -0.172 QT
-22.281 0.734 -22.281 2.328 QT
-22.281 3.891 -21.5 4.805 QT
-20.719 5.719 -19.391 5.719 QT
-18.063 5.719 -17.289 4.805 QT
-16.516 3.891 -16.516 2.328 QT
-16.516 0.734 -17.289 -0.172 QT
-18.063 -1.078 -19.391 -1.078 QT
cp
-15.484 -7.266 M
-15.484 -5.469 L
-16.219 -5.813 -16.977 -6 QT
-17.734 -6.188 -18.484 -6.188 QT
-20.438 -6.188 -21.469 -4.867 QT
-22.5 -3.547 -22.641 -0.875 QT
-22.063 -1.734 -21.195 -2.188 QT
-20.328 -2.641 -19.281 -2.641 QT
-17.078 -2.641 -15.805 -1.305 QT
-14.531 0.031 -14.531 2.328 QT
-14.531 4.563 -15.859 5.922 QT
-17.188 7.281 -19.391 7.281 QT
-21.922 7.281 -23.266 5.344 QT
-24.609 3.406 -24.609 -0.281 QT
-24.609 -3.734 -22.969 -5.789 QT
-21.328 -7.844 -18.563 -7.844 QT
-17.813 -7.844 -17.055 -7.695 QT
-16.297 -7.547 -15.484 -7.266 QT
cp
-6.916 -6.281 M
-8.447 -6.281 -9.213 -4.781 QT
-9.979 -3.281 -9.979 -0.281 QT
-9.979 2.719 -9.213 4.219 QT
-8.447 5.719 -6.916 5.719 QT
-5.385 5.719 -4.619 4.219 QT
-3.854 2.719 -3.854 -0.281 QT
-3.854 -3.281 -4.619 -4.781 QT
-5.385 -6.281 -6.916 -6.281 QT
cp
-6.916 -7.844 M
-4.463 -7.844 -3.174 -5.906 QT
-1.885 -3.969 -1.885 -0.281 QT
-1.885 3.406 -3.174 5.344 QT
-4.463 7.281 -6.916 7.281 QT
-9.369 7.281 -10.666 5.344 QT
-11.963 3.406 -11.963 -0.281 QT
-11.963 -3.969 -10.666 -5.906 QT
-9.369 -7.844 -6.916 -7.844 QT
cp
f
GR
GS
[1 0 0 1 123.99998 88.61905] CT
0.149 GC
N
-19.641 0.078 M
-21.047 0.078 -21.852 0.828 QT
-22.656 1.578 -22.656 2.891 QT
-22.656 4.219 -21.852 4.969 QT
-21.047 5.719 -19.641 5.719 QT
-18.234 5.719 -17.422 4.961 QT
-16.609 4.203 -16.609 2.891 QT
-16.609 1.578 -17.414 0.828 QT
-18.219 0.078 -19.641 0.078 QT
cp
-21.609 -0.766 M
-22.891 -1.078 -23.594 -1.945 QT
-24.297 -2.813 -24.297 -4.063 QT
-24.297 -5.813 -23.055 -6.828 QT
-21.813 -7.844 -19.641 -7.844 QT
-17.469 -7.844 -16.227 -6.828 QT
-14.984 -5.813 -14.984 -4.063 QT
-14.984 -2.813 -15.695 -1.945 QT
-16.406 -1.078 -17.656 -0.766 QT
-16.234 -0.438 -15.438 0.531 QT
-14.641 1.5 -14.641 2.891 QT
-14.641 5.016 -15.938 6.148 QT
-17.234 7.281 -19.641 7.281 QT
-22.047 7.281 -23.344 6.148 QT
-24.641 5.016 -24.641 2.891 QT
-24.641 1.5 -23.844 0.531 QT
-23.047 -0.438 -21.609 -0.766 QT
cp
-22.344 -3.875 M
-22.344 -2.75 -21.633 -2.117 QT
-20.922 -1.484 -19.641 -1.484 QT
-18.375 -1.484 -17.656 -2.117 QT
-16.938 -2.75 -16.938 -3.875 QT
-16.938 -5.016 -17.656 -5.648 QT
-18.375 -6.281 -19.641 -6.281 QT
-20.922 -6.281 -21.633 -5.648 QT
-22.344 -5.016 -22.344 -3.875 QT
cp
-6.916 -6.281 M
-8.447 -6.281 -9.213 -4.781 QT
-9.979 -3.281 -9.979 -0.281 QT
-9.979 2.719 -9.213 4.219 QT
-8.447 5.719 -6.916 5.719 QT
-5.385 5.719 -4.619 4.219 QT
-3.854 2.719 -3.854 -0.281 QT
-3.854 -3.281 -4.619 -4.781 QT
-5.385 -6.281 -6.916 -6.281 QT
cp
-6.916 -7.844 M
-4.463 -7.844 -3.174 -5.906 QT
-1.885 -3.969 -1.885 -0.281 QT
-1.885 3.406 -3.174 5.344 QT
-4.463 7.281 -6.916 7.281 QT
-9.369 7.281 -10.666 5.344 QT
-11.963 3.406 -11.963 -0.281 QT
-11.963 -3.969 -10.666 -5.906 QT
-9.369 -7.844 -6.916 -7.844 QT
cp
f
GR
GS
[1 0 0 1 123.99998 38.52381] CT
0.149 GC
N
-36.516 5.344 M
-33.297 5.344 L
-33.297 -5.781 L
-36.797 -5.078 L
-36.797 -6.875 L
-33.313 -7.578 L
-31.344 -7.578 L
-31.344 5.344 L
-28.125 5.344 L
-28.125 7 L
-36.516 7 L
-36.516 5.344 L
cp
-19.916 -6.281 M
-21.447 -6.281 -22.213 -4.781 QT
-22.979 -3.281 -22.979 -0.281 QT
-22.979 2.719 -22.213 4.219 QT
-21.447 5.719 -19.916 5.719 QT
-18.385 5.719 -17.619 4.219 QT
-16.854 2.719 -16.854 -0.281 QT
-16.854 -3.281 -17.619 -4.781 QT
-18.385 -6.281 -19.916 -6.281 QT
cp
-19.916 -7.844 M
-17.463 -7.844 -16.174 -5.906 QT
-14.885 -3.969 -14.885 -0.281 QT
-14.885 3.406 -16.174 5.344 QT
-17.463 7.281 -19.916 7.281 QT
-22.369 7.281 -23.666 5.344 QT
-24.963 3.406 -24.963 -0.281 QT
-24.963 -3.969 -23.666 -5.906 QT
-22.369 -7.844 -19.916 -7.844 QT
cp
-7.191 -6.281 M
-8.723 -6.281 -9.488 -4.781 QT
-10.254 -3.281 -10.254 -0.281 QT
-10.254 2.719 -9.488 4.219 QT
-8.723 5.719 -7.191 5.719 QT
-5.66 5.719 -4.895 4.219 QT
-4.129 2.719 -4.129 -0.281 QT
-4.129 -3.281 -4.895 -4.781 QT
-5.66 -6.281 -7.191 -6.281 QT
cp
-7.191 -7.844 M
-4.738 -7.844 -3.449 -5.906 QT
-2.16 -3.969 -2.16 -0.281 QT
-2.16 3.406 -3.449 5.344 QT
-4.738 7.281 -7.191 7.281 QT
-9.645 7.281 -10.941 5.344 QT
-12.238 3.406 -12.238 -0.281 QT
-12.238 -3.969 -10.941 -5.906 QT
-9.645 -7.844 -7.191 -7.844 QT
cp
f
GR
GS
[0 -1 1 0 81.99999 157.49988] CT
0.149 GC
N
-113.063 -22.031 M
-99.5 -22.031 L
-99.5 -20.219 L
-105.188 -20.219 L
-105.188 -6 L
-107.375 -6 L
-107.375 -20.219 L
-113.063 -20.219 L
-113.063 -22.031 L
cp
-92.015 -12.047 M
-94.421 -12.047 -95.343 -11.5 QT
-96.265 -10.953 -96.265 -9.625 QT
-96.265 -8.578 -95.569 -7.961 QT
-94.874 -7.344 -93.687 -7.344 QT
-92.046 -7.344 -91.054 -8.508 QT
-90.062 -9.672 -90.062 -11.609 QT
-90.062 -12.047 L
-92.015 -12.047 L
cp
-88.077 -12.859 M
-88.077 -6 L
-90.062 -6 L
-90.062 -7.828 L
-90.733 -6.734 -91.741 -6.211 QT
-92.749 -5.688 -94.218 -5.688 QT
-96.062 -5.688 -97.147 -6.727 QT
-98.233 -7.766 -98.233 -9.5 QT
-98.233 -11.531 -96.874 -12.563 QT
-95.515 -13.594 -92.827 -13.594 QT
-90.062 -13.594 L
-90.062 -13.781 L
-90.062 -15.156 -90.952 -15.898 QT
-91.843 -16.641 -93.468 -16.641 QT
-94.499 -16.641 -95.476 -16.398 QT
-96.452 -16.156 -97.358 -15.656 QT
-97.358 -17.484 L
-96.28 -17.906 -95.257 -18.117 QT
-94.233 -18.328 -93.265 -18.328 QT
-90.655 -18.328 -89.366 -16.969 QT
-88.077 -15.609 -88.077 -12.859 QT
cp
-77.033 -16.188 M
-77.361 -16.375 -77.76 -16.469 QT
-78.158 -16.563 -78.627 -16.563 QT
-80.299 -16.563 -81.197 -15.469 QT
-82.096 -14.375 -82.096 -12.344 QT
-82.096 -6 L
-84.08 -6 L
-84.08 -18.031 L
-82.096 -18.031 L
-82.096 -16.156 L
-81.471 -17.266 -80.471 -17.797 QT
-79.471 -18.328 -78.049 -18.328 QT
-77.846 -18.328 -77.596 -18.297 QT
-77.346 -18.266 -77.049 -18.219 QT
-77.033 -16.188 L
cp
-67.051 -12.156 M
-67.051 -14.297 -67.934 -15.484 QT
-68.816 -16.672 -70.41 -16.672 QT
-72.004 -16.672 -72.895 -15.484 QT
-73.785 -14.297 -73.785 -12.156 QT
-73.785 -10.016 -72.895 -8.836 QT
-72.004 -7.656 -70.41 -7.656 QT
-68.816 -7.656 -67.934 -8.836 QT
-67.051 -10.016 -67.051 -12.156 QT
cp
-65.066 -7.5 M
-65.066 -4.422 -66.434 -2.922 QT
-67.801 -1.422 -70.613 -1.422 QT
-71.66 -1.422 -72.582 -1.578 QT
-73.504 -1.734 -74.363 -2.063 QT
-74.363 -3.984 L
-73.504 -3.5 -72.652 -3.281 QT
-71.801 -3.063 -70.926 -3.063 QT
-68.973 -3.063 -68.012 -4.078 QT
-67.051 -5.094 -67.051 -7.141 QT
-67.051 -8.109 L
-67.66 -7.047 -68.613 -6.523 QT
-69.566 -6 -70.895 -6 QT
-73.113 -6 -74.465 -7.688 QT
-75.816 -9.375 -75.816 -12.156 QT
-75.816 -14.953 -74.465 -16.641 QT
-73.113 -18.328 -70.895 -18.328 QT
-69.566 -18.328 -68.613 -17.797 QT
-67.66 -17.266 -67.051 -16.203 QT
-67.051 -18.031 L
-65.066 -18.031 L
-65.066 -7.5 L
cp
-50.711 -12.516 M
-50.711 -11.547 L
-59.789 -11.547 L
-59.664 -9.5 -58.563 -8.43 QT
-57.461 -7.359 -55.492 -7.359 QT
-54.352 -7.359 -53.289 -7.641 QT
-52.227 -7.922 -51.164 -8.484 QT
-51.164 -6.609 L
-52.227 -6.156 -53.344 -5.922 QT
-54.461 -5.688 -55.617 -5.688 QT
-58.492 -5.688 -60.172 -7.367 QT
-61.852 -9.047 -61.852 -11.891 QT
-61.852 -14.859 -60.258 -16.594 QT
-58.664 -18.328 -55.961 -18.328 QT
-53.523 -18.328 -52.117 -16.766 QT
-50.711 -15.203 -50.711 -12.516 QT
cp
-52.68 -13.094 M
-52.711 -14.719 -53.594 -15.68 QT
-54.477 -16.641 -55.93 -16.641 QT
-57.586 -16.641 -58.586 -15.711 QT
-59.586 -14.781 -59.727 -13.078 QT
-52.68 -13.094 L
cp
-45.504 -21.453 M
-45.504 -18.031 L
-41.441 -18.031 L
-41.441 -16.5 L
-45.504 -16.5 L
-45.504 -9.969 L
-45.504 -8.5 -45.105 -8.078 QT
-44.707 -7.656 -43.473 -7.656 QT
-41.441 -7.656 L
-41.441 -6 L
-43.473 -6 L
-45.754 -6 -46.621 -6.852 QT
-47.488 -7.703 -47.488 -9.969 QT
-47.488 -16.5 L
-48.941 -16.5 L
-48.941 -18.031 L
-47.488 -18.031 L
-47.488 -21.453 L
-45.504 -21.453 L
cp
-31.159 -17.672 M
-31.159 -15.813 L
-32.003 -16.234 -32.909 -16.453 QT
-33.815 -16.672 -34.769 -16.672 QT
-36.253 -16.672 -36.987 -16.219 QT
-37.722 -15.766 -37.722 -14.859 QT
-37.722 -14.172 -37.19 -13.781 QT
-36.659 -13.391 -35.081 -13.031 QT
-34.394 -12.891 L
-32.3 -12.438 -31.409 -11.617 QT
-30.519 -10.797 -30.519 -9.313 QT
-30.519 -7.641 -31.847 -6.664 QT
-33.175 -5.688 -35.487 -5.688 QT
-36.456 -5.688 -37.503 -5.875 QT
-38.55 -6.063 -39.722 -6.438 QT
-39.722 -8.484 L
-38.628 -7.906 -37.558 -7.625 QT
-36.487 -7.344 -35.456 -7.344 QT
-34.05 -7.344 -33.3 -7.82 QT
-32.55 -8.297 -32.55 -9.172 QT
-32.55 -9.969 -33.097 -10.398 QT
-33.644 -10.828 -35.472 -11.234 QT
-36.159 -11.391 L
-38.003 -11.781 -38.815 -12.578 QT
-39.628 -13.375 -39.628 -14.781 QT
-39.628 -16.469 -38.425 -17.398 QT
-37.222 -18.328 -35.019 -18.328 QT
-33.909 -18.328 -32.948 -18.164 QT
-31.987 -18 -31.159 -17.672 QT
cp
-13.407 -16.188 M
-13.735 -16.375 -14.134 -16.469 QT
-14.532 -16.563 -15.001 -16.563 QT
-16.673 -16.563 -17.571 -15.469 QT
-18.47 -14.375 -18.47 -12.344 QT
-18.47 -6 L
-20.454 -6 L
-20.454 -18.031 L
-18.47 -18.031 L
-18.47 -16.156 L
-17.845 -17.266 -16.845 -17.797 QT
-15.845 -18.328 -14.423 -18.328 QT
-14.22 -18.328 -13.97 -18.297 QT
-13.72 -18.266 -13.423 -18.219 QT
-13.407 -16.188 L
cp
-1.05 -12.516 M
-1.05 -11.547 L
-10.128 -11.547 L
-10.003 -9.5 -8.901 -8.43 QT
-7.8 -7.359 -5.831 -7.359 QT
-4.69 -7.359 -3.628 -7.641 QT
-2.565 -7.922 -1.503 -8.484 QT
-1.503 -6.609 L
-2.565 -6.156 -3.683 -5.922 QT
-4.8 -5.688 -5.956 -5.688 QT
-8.831 -5.688 -10.511 -7.367 QT
-12.19 -9.047 -12.19 -11.891 QT
-12.19 -14.859 -10.597 -16.594 QT
-9.003 -18.328 -6.3 -18.328 QT
-3.862 -18.328 -2.456 -16.766 QT
-1.05 -15.203 -1.05 -12.516 QT
cp
-3.019 -13.094 M
-3.05 -14.719 -3.933 -15.68 QT
-4.815 -16.641 -6.269 -16.641 QT
-7.925 -16.641 -8.925 -15.711 QT
-9.925 -14.781 -10.065 -13.078 QT
-3.019 -13.094 L
cp
7.673 -12.047 M
5.267 -12.047 4.345 -11.5 QT
3.423 -10.953 3.423 -9.625 QT
3.423 -8.578 4.118 -7.961 QT
4.813 -7.344 6.001 -7.344 QT
7.642 -7.344 8.634 -8.508 QT
9.626 -9.672 9.626 -11.609 QT
9.626 -12.047 L
7.673 -12.047 L
cp
11.61 -12.859 M
11.61 -6 L
9.626 -6 L
9.626 -7.828 L
8.954 -6.734 7.946 -6.211 QT
6.938 -5.688 5.47 -5.688 QT
3.626 -5.688 2.54 -6.727 QT
1.454 -7.766 1.454 -9.5 QT
1.454 -11.531 2.813 -12.563 QT
4.173 -13.594 6.86 -13.594 QT
9.626 -13.594 L
9.626 -13.781 L
9.626 -15.156 8.735 -15.898 QT
7.845 -16.641 6.22 -16.641 QT
5.188 -16.641 4.212 -16.398 QT
3.235 -16.156 2.329 -15.656 QT
2.329 -17.484 L
3.407 -17.906 4.431 -18.117 QT
5.454 -18.328 6.423 -18.328 QT
9.032 -18.328 10.321 -16.969 QT
11.61 -15.609 11.61 -12.859 QT
cp
24.342 -17.563 M
24.342 -15.719 L
23.498 -16.188 22.654 -16.414 QT
21.811 -16.641 20.951 -16.641 QT
19.029 -16.641 17.967 -15.422 QT
16.904 -14.203 16.904 -12 QT
16.904 -9.797 17.967 -8.578 QT
19.029 -7.359 20.951 -7.359 QT
21.811 -7.359 22.654 -7.594 QT
23.498 -7.828 24.342 -8.281 QT
24.342 -6.469 L
23.514 -6.078 22.623 -5.883 QT
21.732 -5.688 20.748 -5.688 QT
18.029 -5.688 16.428 -7.398 QT
14.826 -9.109 14.826 -12 QT
14.826 -14.953 16.443 -16.641 QT
18.061 -18.328 20.873 -18.328 QT
21.779 -18.328 22.654 -18.141 QT
23.529 -17.953 24.342 -17.563 QT
cp
37.781 -13.266 M
37.781 -6 L
35.797 -6 L
35.797 -13.203 L
35.797 -14.906 35.133 -15.758 QT
34.469 -16.609 33.141 -16.609 QT
31.531 -16.609 30.609 -15.586 QT
29.688 -14.563 29.688 -12.797 QT
29.688 -6 L
27.703 -6 L
27.703 -22.719 L
29.688 -22.719 L
29.688 -16.156 L
30.391 -17.25 31.359 -17.789 QT
32.328 -18.328 33.578 -18.328 QT
35.656 -18.328 36.719 -17.039 QT
37.781 -15.75 37.781 -13.266 QT
cp
52.006 -12.516 M
52.006 -11.547 L
42.928 -11.547 L
43.053 -9.5 44.154 -8.43 QT
45.256 -7.359 47.225 -7.359 QT
48.365 -7.359 49.428 -7.641 QT
50.49 -7.922 51.553 -8.484 QT
51.553 -6.609 L
50.49 -6.156 49.373 -5.922 QT
48.256 -5.688 47.1 -5.688 QT
44.225 -5.688 42.545 -7.367 QT
40.865 -9.047 40.865 -11.891 QT
40.865 -14.859 42.459 -16.594 QT
44.053 -18.328 46.756 -18.328 QT
49.193 -18.328 50.6 -16.766 QT
52.006 -15.203 52.006 -12.516 QT
cp
50.037 -13.094 M
50.006 -14.719 49.123 -15.68 QT
48.24 -16.641 46.787 -16.641 QT
45.131 -16.641 44.131 -15.711 QT
43.131 -14.781 42.99 -13.078 QT
50.037 -13.094 L
cp
63.166 -16.203 M
63.166 -22.719 L
65.15 -22.719 L
65.15 -6 L
63.166 -6 L
63.166 -7.813 L
62.557 -6.734 61.604 -6.211 QT
60.65 -5.688 59.322 -5.688 QT
57.135 -5.688 55.768 -7.43 QT
54.4 -9.172 54.4 -12 QT
54.4 -14.844 55.768 -16.586 QT
57.135 -18.328 59.322 -18.328 QT
60.65 -18.328 61.604 -17.805 QT
62.557 -17.281 63.166 -16.203 QT
cp
56.432 -12 M
56.432 -9.828 57.33 -8.586 QT
58.229 -7.344 59.807 -7.344 QT
61.369 -7.344 62.268 -8.586 QT
63.166 -9.828 63.166 -12 QT
63.166 -14.188 62.268 -15.43 QT
61.369 -16.672 59.807 -16.672 QT
58.229 -16.672 57.33 -15.43 QT
56.432 -14.188 56.432 -12 QT
cp
76.03 -22.719 M
80.593 -22.719 L
80.593 -21.172 L
78.015 -21.172 L
78.015 -4.641 L
80.593 -4.641 L
80.593 -3.094 L
76.03 -3.094 L
76.03 -22.719 L
cp
98.723 -13.063 M
97.785 -13.063 97.254 -12.266 QT
96.723 -11.469 96.723 -10.047 QT
96.723 -8.656 97.254 -7.852 QT
97.785 -7.047 98.723 -7.047 QT
99.629 -7.047 100.16 -7.852 QT
100.691 -8.656 100.691 -10.047 QT
100.691 -11.453 100.16 -12.258 QT
99.629 -13.063 98.723 -13.063 QT
cp
98.723 -14.422 M
100.41 -14.422 101.41 -13.242 QT
102.41 -12.063 102.41 -10.047 QT
102.41 -8.047 101.41 -6.867 QT
100.41 -5.688 98.723 -5.688 QT
97.004 -5.688 96.004 -6.867 QT
95.004 -8.047 95.004 -10.047 QT
95.004 -12.063 96.004 -13.242 QT
97.004 -14.422 98.723 -14.422 QT
cp
87.629 -20.969 M
86.707 -20.969 86.176 -20.164 QT
85.645 -19.359 85.645 -17.969 QT
85.645 -16.547 86.168 -15.75 QT
86.691 -14.953 87.629 -14.953 QT
88.566 -14.953 89.098 -15.75 QT
89.629 -16.547 89.629 -17.969 QT
89.629 -19.359 89.09 -20.164 QT
88.551 -20.969 87.629 -20.969 QT
cp
97.332 -22.328 M
99.051 -22.328 L
89.02 -5.688 L
87.301 -5.688 L
97.332 -22.328 L
cp
87.629 -22.328 M
89.332 -22.328 90.34 -21.148 QT
91.348 -19.969 91.348 -17.969 QT
91.348 -15.938 90.348 -14.766 QT
89.348 -13.594 87.629 -13.594 QT
85.926 -13.594 84.934 -14.773 QT
83.941 -15.953 83.941 -17.969 QT
83.941 -19.969 84.941 -21.148 QT
85.941 -22.328 87.629 -22.328 QT
cp
110.314 -22.719 M
110.314 -3.094 L
105.768 -3.094 L
105.768 -4.641 L
108.33 -4.641 L
108.33 -21.172 L
105.768 -21.172 L
105.768 -22.719 L
110.314 -22.719 L
cp
f
GR
GS
0 0.447 0.741 RC
1 LJ
0.5 LW
N
141.071 289 M
146.607 289 L
152.143 263.952 L
157.679 266.229 L
163.214 247.254 L
168.75 289 L
174.286 289 L
179.821 289 L
185.357 289 L
190.893 263.952 L
196.429 289 L
201.964 247.254 L
207.5 263.952 L
213.036 289 L
218.571 243.459 L
224.107 289 L
229.643 289 L
235.179 243.459 L
240.714 289 L
246.25 266.229 L
251.786 289 L
257.321 243.459 L
262.857 266.229 L
268.393 289 L
273.929 289 L
279.464 289 L
285 263.952 L
290.536 243.459 L
296.071 266.229 L
301.607 266.229 L
307.143 266.229 L
312.679 289 L
318.214 289 L
323.75 231.198 L
329.286 243.459 L
334.821 263.952 L
340.357 289 L
345.893 266.229 L
351.429 289 L
356.964 289 L
362.5 289 L
368.036 289 L
373.571 289 L
379.107 289 L
384.643 263.952 L
390.179 266.229 L
395.714 243.459 L
401.25 263.952 L
406.786 247.254 L
412.321 289 L
417.857 266.229 L
423.393 289 L
428.929 289 L
434.464 243.459 L
440 263.952 L
445.536 289 L
451.071 266.229 L
456.607 289 L
462.143 289 L
467.679 263.952 L
473.214 243.459 L
478.75 289 L
484.286 243.459 L
489.821 289 L
495.357 243.459 L
500.893 243.459 L
506.429 289 L
511.964 266.229 L
517.5 263.952 L
523.036 231.198 L
528.571 289 L
534.107 213.857 L
539.643 266.229 L
545.179 247.254 L
550.714 226.381 L
556.25 266.229 L
561.786 289 L
567.321 289 L
572.857 289 L
578.393 289 L
583.929 289 L
589.464 263.952 L
595 243.459 L
600.536 238.905 L
606.071 289 L
611.607 289 L
617.143 289 L
622.679 266.229 L
628.214 289 L
633.75 289 L
639.286 289 L
644.821 263.952 L
650.357 247.254 L
655.893 220.688 L
661.429 289 L
666.964 226.381 L
672.5 266.229 L
678.036 263.952 L
683.571 289 L
689.107 266.229 L
694.643 266.229 L
700.179 289 L
705.714 289 L
711.25 289 L
716.786 289 L
722.321 266.229 L
727.857 289 L
733.393 289 L
738.929 289 L
744.464 266.229 L
750 266.229 L
755.536 289 L
761.071 226.381 L
766.607 266.229 L
772.143 289 L
777.679 263.952 L
783.214 243.459 L
788.75 289 L
794.286 243.459 L
799.821 226.381 L
805.357 247.254 L
810.893 238.905 L
816.429 266.229 L
821.964 266.229 L
827.5 263.952 L
833.036 263.952 L
838.571 289 L
S
GR
GS
1 0 0 RC
1 LJ
0.5 LW
N
141.071 275.017 M
146.607 274.607 L
152.143 273.494 L
157.679 273.244 L
163.214 273.01 L
168.75 272.791 L
174.286 273.298 L
179.821 273.774 L
185.357 272.521 L
190.893 271.691 L
196.429 271.476 L
201.964 271.95 L
207.5 271.799 L
213.036 272.24 L
218.571 272.659 L
224.107 273.058 L
229.643 273.437 L
235.179 273.799 L
240.714 274.145 L
246.25 273.918 L
251.786 273.751 L
257.321 273.107 L
262.857 272.916 L
268.393 272.392 L
273.929 272.724 L
279.464 272.597 L
285 272.597 L
290.536 272.597 L
296.071 272.195 L
301.607 272.15 L
307.143 272.969 L
312.679 272.523 L
318.214 272.523 L
323.75 272.523 L
329.286 272.031 L
334.821 271.63 L
340.357 271.63 L
345.893 271.555 L
351.429 272.046 L
356.964 271.153 L
362.5 271.153 L
368.036 271.153 L
373.571 270.707 L
379.107 271.109 L
384.643 269.975 L
390.179 270.422 L
395.714 268.948 L
401.25 269.395 L
406.786 269.023 L
412.321 267.795 L
417.857 267.349 L
423.393 267.349 L
428.929 267.84 L
434.464 268.733 L
440 269.179 L
445.536 269.626 L
451.071 269.581 L
456.607 268.688 L
462.143 267.706 L
467.679 268.839 L
473.214 269.732 L
478.75 270.223 L
484.286 269.777 L
489.821 270.223 L
495.357 270.223 L
500.893 270.223 L
506.429 269.732 L
511.964 268.913 L
517.5 267.574 L
523.036 267.574 L
528.571 266.837 L
534.107 266.837 L
539.643 267.239 L
545.179 267.73 L
550.714 268.102 L
556.25 267.656 L
561.786 268.102 L
567.321 268.102 L
572.857 268.102 L
578.393 268.995 L
583.929 269.04 L
589.464 269.04 L
595 269.486 L
600.536 269.486 L
606.071 269.04 L
611.607 269.085 L
617.143 269.978 L
622.679 268.75 L
628.214 269.196 L
633.75 269.196 L
639.286 269.598 L
644.821 269.598 L
650.357 269.598 L
655.893 269.152 L
661.429 268.415 L
666.964 268.73 L
672.5 267.747 L
678.036 268.774 L
683.571 268.774 L
689.107 269.102 L
694.643 269.839 L
700.179 270.285 L
705.714 269.911 L
711.25 269.521 L
716.786 269.115 L
722.321 268.692 L
727.857 268.251 L
733.393 268.346 L
738.929 268.912 L
744.464 269.61 L
750 269.148 L
755.536 268.664 L
761.071 268.155 L
766.607 268.205 L
772.143 267.658 L
777.679 267.081 L
783.214 266.472 L
788.75 266.544 L
794.286 267.111 L
799.821 268.518 L
805.357 267.878 L
810.893 269.217 L
816.429 269.316 L
821.964 269.501 L
827.5 268.805 L
833.036 268.9 L
838.571 269.003 L
S
GR
%%Trailer
%%Pages: 1
%%EOF
