%!PS-Adobe-3.0 EPSF-3.0
%%Creator: (MATLAB, The Mathworks, Inc. Version 9.0.0.341360 \(R2016a\). Operating System: Linux)
%%Title: report/figures/sm_base_lin_unifprio1_ratio.eps
%%CreationDate: 2017-02-04T23:56:29
%%Pages: (atend)
%%BoundingBox:    59     4   910   325
%%LanguageLevel: 3
%%EndComments
%%BeginProlog
%%BeginResource: procset (Apache XML Graphics Std ProcSet) 1.2 0
%%Version: 1.2 0
%%Copyright: (Copyright 2001-2003,2010 The Apache Software Foundation. License terms: http://www.apache.org/licenses/LICENSE-2.0)
/bd{bind def}bind def
/ld{load def}bd
/GR/grestore ld
/M/moveto ld
/LJ/setlinejoin ld
/C/curveto ld
/f/fill ld
/LW/setlinewidth ld
/GC/setgray ld
/t/show ld
/N/newpath ld
/CT/concat ld
/cp/closepath ld
/S/stroke ld
/L/lineto ld
/CC/setcmykcolor ld
/A/ashow ld
/GS/gsave ld
/RC/setrgbcolor ld
/RM/rmoveto ld
/ML/setmiterlimit ld
/re {4 2 roll M
1 index 0 rlineto
0 exch rlineto
neg 0 rlineto
cp } bd
/_ctm matrix def
/_tm matrix def
/BT { _ctm currentmatrix pop matrix _tm copy pop 0 0 moveto } bd
/ET { _ctm setmatrix } bd
/iTm { _ctm setmatrix _tm concat } bd
/Tm { _tm astore pop iTm 0 0 moveto } bd
/ux 0.0 def
/uy 0.0 def
/F {
  /Tp exch def
  /Tf exch def
  Tf findfont Tp scalefont setfont
  /cf Tf def  /cs Tp def
} bd
/ULS {currentpoint /uy exch def /ux exch def} bd
/ULE {
  /Tcx currentpoint pop def
  gsave
  newpath
  cf findfont cs scalefont dup
  /FontMatrix get 0 get /Ts exch def /FontInfo get dup
  /UnderlinePosition get Ts mul /To exch def
  /UnderlineThickness get Ts mul /Tt exch def
  ux uy To add moveto  Tcx uy To add lineto
  Tt setlinewidth stroke
  grestore
} bd
/OLE {
  /Tcx currentpoint pop def
  gsave
  newpath
  cf findfont cs scalefont dup
  /FontMatrix get 0 get /Ts exch def /FontInfo get dup
  /UnderlinePosition get Ts mul /To exch def
  /UnderlineThickness get Ts mul /Tt exch def
  ux uy To add cs add moveto Tcx uy To add cs add lineto
  Tt setlinewidth stroke
  grestore
} bd
/SOE {
  /Tcx currentpoint pop def
  gsave
  newpath
  cf findfont cs scalefont dup
  /FontMatrix get 0 get /Ts exch def /FontInfo get dup
  /UnderlinePosition get Ts mul /To exch def
  /UnderlineThickness get Ts mul /Tt exch def
  ux uy To add cs 10 mul 26 idiv add moveto Tcx uy To add cs 10 mul 26 idiv add lineto
  Tt setlinewidth stroke
  grestore
} bd
/QT {
/Y22 exch store
/X22 exch store
/Y21 exch store
/X21 exch store
currentpoint
/Y21 load 2 mul add 3 div exch
/X21 load 2 mul add 3 div exch
/X21 load 2 mul /X22 load add 3 div
/Y21 load 2 mul /Y22 load add 3 div
/X22 load /Y22 load curveto
} bd
/SSPD {
dup length /d exch dict def
{
/v exch def
/k exch def
currentpagedevice k known {
/cpdv currentpagedevice k get def
v cpdv ne {
/upd false def
/nullv v type /nulltype eq def
/nullcpdv cpdv type /nulltype eq def
nullv nullcpdv or
{
/upd true def
} {
/sametype v type cpdv type eq def
sametype {
v type /arraytype eq {
/vlen v length def
/cpdvlen cpdv length def
vlen cpdvlen eq {
0 1 vlen 1 sub {
/i exch def
/obj v i get def
/cpdobj cpdv i get def
obj cpdobj ne {
/upd true def
exit
} if
} for
} {
/upd true def
} ifelse
} {
v type /dicttype eq {
v {
/dv exch def
/dk exch def
/cpddv cpdv dk get def
dv cpddv ne {
/upd true def
exit
} if
} forall
} {
/upd true def
} ifelse
} ifelse
} if
} ifelse
upd true eq {
d k v put
} if
} if
} if
} forall
d length 0 gt {
d setpagedevice
} if
} bd
%%EndResource
%%BeginResource: procset (Apache XML Graphics EPS ProcSet) 1.0 0
%%Version: 1.0 0
%%Copyright: (Copyright 2002-2003 The Apache Software Foundation. License terms: http://www.apache.org/licenses/LICENSE-2.0)
/BeginEPSF { %def
/b4_Inc_state save def         % Save state for cleanup
/dict_count countdictstack def % Count objects on dict stack
/op_count count 1 sub def      % Count objects on operand stack
userdict begin                 % Push userdict on dict stack
/showpage { } def              % Redefine showpage, { } = null proc
0 setgray 0 setlinecap         % Prepare graphics state
1 setlinewidth 0 setlinejoin
10 setmiterlimit [ ] 0 setdash newpath
/languagelevel where           % If level not equal to 1 then
{pop languagelevel             % set strokeadjust and
1 ne                           % overprint to their defaults.
{false setstrokeadjust false setoverprint
} if
} if
} bd
/EndEPSF { %def
count op_count sub {pop} repeat            % Clean up stacks
countdictstack dict_count sub {end} repeat
b4_Inc_state restore
} bd
%%EndResource
%%EndProlog
%%Page: 1 1
%%PageBoundingBox: 0 0 1000 350
%%BeginPageSetup
[1 0 0 -1 0 350] CT
%%EndPageSetup
GS
1 GC
N
0 0 1000 350 re
f
GR
GS
1 GC
N
0 0 1000 350 re
f
GR
GS
1 GC
N
130 289 M
905 289 L
905 26 L
130 26 L
cp
f
GR
GS
0.873 GC
1 LJ
0.5 LW
N
130 289 M
130 26 L
S
GR
GS
0.873 GC
1 LJ
0.5 LW
N
323.75 289 M
323.75 26 L
S
GR
GS
0.873 GC
1 LJ
0.5 LW
N
517.5 289 M
517.5 26 L
S
GR
GS
0.873 GC
1 LJ
0.5 LW
N
711.25 289 M
711.25 26 L
S
GR
GS
0.873 GC
1 LJ
0.5 LW
N
905 289 M
905 26 L
S
GR
GS
0.873 GC
1 LJ
0.5 LW
N
905 289 M
130 289 L
S
GR
GS
0.873 GC
1 LJ
0.5 LW
N
905 238.905 M
130 238.905 L
S
GR
GS
0.873 GC
1 LJ
0.5 LW
N
905 188.81 M
130 188.81 L
S
GR
GS
0.873 GC
1 LJ
0.5 LW
N
905 138.714 M
130 138.714 L
S
GR
GS
0.873 GC
1 LJ
0.5 LW
N
905 88.619 M
130 88.619 L
S
GR
GS
0.873 GC
1 LJ
0.5 LW
N
905 38.524 M
130 38.524 L
S
GR
GS
0.149 GC
2 setlinecap
1 LJ
0.5 LW
N
130 289 M
905 289 L
S
GR
GS
0.149 GC
2 setlinecap
1 LJ
0.5 LW
N
130 289 M
130 281.25 L
S
GR
GS
0.149 GC
2 setlinecap
1 LJ
0.5 LW
N
323.75 289 M
323.75 281.25 L
S
GR
GS
0.149 GC
2 setlinecap
1 LJ
0.5 LW
N
517.5 289 M
517.5 281.25 L
S
GR
GS
0.149 GC
2 setlinecap
1 LJ
0.5 LW
N
711.25 289 M
711.25 281.25 L
S
GR
GS
0.149 GC
2 setlinecap
1 LJ
0.5 LW
N
905 289 M
905 281.25 L
S
GR
GS
[1 0 0 1 130 295] CT
0.149 GC
N
-0.141 5.719 M
-1.672 5.719 -2.438 7.219 QT
-3.203 8.719 -3.203 11.719 QT
-3.203 14.719 -2.438 16.219 QT
-1.672 17.719 -0.141 17.719 QT
1.391 17.719 2.156 16.219 QT
2.922 14.719 2.922 11.719 QT
2.922 8.719 2.156 7.219 QT
1.391 5.719 -0.141 5.719 QT
cp
-0.141 4.156 M
2.313 4.156 3.602 6.094 QT
4.891 8.031 4.891 11.719 QT
4.891 15.406 3.602 17.344 QT
2.313 19.281 -0.141 19.281 QT
-2.594 19.281 -3.891 17.344 QT
-5.188 15.406 -5.188 11.719 QT
-5.188 8.031 -3.891 6.094 QT
-2.594 4.156 -0.141 4.156 QT
cp
f
GR
GS
[1 0 0 1 323.75 295] CT
0.149 GC
N
-9.641 5.719 M
-11.172 5.719 -11.938 7.219 QT
-12.703 8.719 -12.703 11.719 QT
-12.703 14.719 -11.938 16.219 QT
-11.172 17.719 -9.641 17.719 QT
-8.109 17.719 -7.344 16.219 QT
-6.578 14.719 -6.578 11.719 QT
-6.578 8.719 -7.344 7.219 QT
-8.109 5.719 -9.641 5.719 QT
cp
-9.641 4.156 M
-7.188 4.156 -5.898 6.094 QT
-4.609 8.031 -4.609 11.719 QT
-4.609 15.406 -5.898 17.344 QT
-7.188 19.281 -9.641 19.281 QT
-12.094 19.281 -13.391 17.344 QT
-14.688 15.406 -14.688 11.719 QT
-14.688 8.031 -13.391 6.094 QT
-12.094 4.156 -9.641 4.156 QT
cp
-1.135 16.516 M
0.928 16.516 L
0.928 19 L
-1.135 19 L
-1.135 16.516 L
cp
5.238 4.422 M
12.988 4.422 L
12.988 6.078 L
7.051 6.078 L
7.051 9.656 L
7.473 9.5 7.902 9.43 QT
8.332 9.359 8.77 9.359 QT
11.207 9.359 12.637 10.695 QT
14.066 12.031 14.066 14.328 QT
14.066 16.672 12.598 17.977 QT
11.129 19.281 8.457 19.281 QT
7.551 19.281 6.598 19.125 QT
5.645 18.969 4.629 18.656 QT
4.629 16.672 L
5.504 17.156 6.441 17.391 QT
7.379 17.625 8.426 17.625 QT
10.113 17.625 11.098 16.734 QT
12.082 15.844 12.082 14.328 QT
12.082 12.797 11.098 11.906 QT
10.113 11.016 8.426 11.016 QT
7.629 11.016 6.848 11.195 QT
6.066 11.375 5.238 11.75 QT
5.238 4.422 L
cp
f
GR
GS
[1 0 0 1 517.5 295] CT
0.149 GC
N
-4.016 17.344 M
-0.797 17.344 L
-0.797 6.219 L
-4.297 6.922 L
-4.297 5.125 L
-0.813 4.422 L
1.156 4.422 L
1.156 17.344 L
4.375 17.344 L
4.375 19 L
-4.016 19 L
-4.016 17.344 L
cp
f
GR
GS
[1 0 0 1 711.25 295] CT
0.149 GC
N
-13.516 17.344 M
-10.297 17.344 L
-10.297 6.219 L
-13.797 6.922 L
-13.797 5.125 L
-10.313 4.422 L
-8.344 4.422 L
-8.344 17.344 L
-5.125 17.344 L
-5.125 19 L
-13.516 19 L
-13.516 17.344 L
cp
-1.135 16.516 M
0.928 16.516 L
0.928 19 L
-1.135 19 L
-1.135 16.516 L
cp
5.238 4.422 M
12.988 4.422 L
12.988 6.078 L
7.051 6.078 L
7.051 9.656 L
7.473 9.5 7.902 9.43 QT
8.332 9.359 8.77 9.359 QT
11.207 9.359 12.637 10.695 QT
14.066 12.031 14.066 14.328 QT
14.066 16.672 12.598 17.977 QT
11.129 19.281 8.457 19.281 QT
7.551 19.281 6.598 19.125 QT
5.645 18.969 4.629 18.656 QT
4.629 16.672 L
5.504 17.156 6.441 17.391 QT
7.379 17.625 8.426 17.625 QT
10.113 17.625 11.098 16.734 QT
12.082 15.844 12.082 14.328 QT
12.082 12.797 11.098 11.906 QT
10.113 11.016 8.426 11.016 QT
7.629 11.016 6.848 11.195 QT
6.066 11.375 5.238 11.75 QT
5.238 4.422 L
cp
f
GR
GS
[1 0 0 1 905 295] CT
0.149 GC
N
-2.656 17.344 M
4.219 17.344 L
4.219 19 L
-5.031 19 L
-5.031 17.344 L
-3.906 16.172 -1.969 14.219 QT
-0.031 12.266 0.469 11.688 QT
1.406 10.625 1.781 9.891 QT
2.156 9.156 2.156 8.438 QT
2.156 7.281 1.344 6.547 QT
0.531 5.813 -0.781 5.813 QT
-1.703 5.813 -2.734 6.133 QT
-3.766 6.453 -4.938 7.109 QT
-4.938 5.125 L
-3.75 4.641 -2.711 4.398 QT
-1.672 4.156 -0.813 4.156 QT
1.453 4.156 2.797 5.289 QT
4.141 6.422 4.141 8.313 QT
4.141 9.219 3.805 10.023 QT
3.469 10.828 2.578 11.922 QT
2.344 12.203 1.031 13.555 QT
-0.281 14.906 -2.656 17.344 QT
cp
f
GR
GS
[1 0 0 1 517.50037 320] CT
0.149 GC
N
-14.25 9.328 M
-14.25 11.188 L
-15.094 10.766 -16 10.547 QT
-16.906 10.328 -17.859 10.328 QT
-19.344 10.328 -20.078 10.781 QT
-20.813 11.234 -20.813 12.141 QT
-20.813 12.828 -20.281 13.219 QT
-19.75 13.609 -18.172 13.969 QT
-17.484 14.109 L
-15.391 14.563 -14.5 15.383 QT
-13.609 16.203 -13.609 17.688 QT
-13.609 19.359 -14.938 20.336 QT
-16.266 21.313 -18.578 21.313 QT
-19.547 21.313 -20.594 21.125 QT
-21.641 20.938 -22.813 20.563 QT
-22.813 18.516 L
-21.719 19.094 -20.648 19.375 QT
-19.578 19.656 -18.547 19.656 QT
-17.141 19.656 -16.391 19.18 QT
-15.641 18.703 -15.641 17.828 QT
-15.641 17.031 -16.188 16.602 QT
-16.734 16.172 -18.563 15.766 QT
-19.25 15.609 L
-21.094 15.219 -21.906 14.422 QT
-22.719 13.625 -22.719 12.219 QT
-22.719 10.531 -21.516 9.602 QT
-20.313 8.672 -18.109 8.672 QT
-17 8.672 -16.039 8.836 QT
-15.078 9 -14.25 9.328 QT
cp
-8.507 5.547 M
-8.507 8.969 L
-4.444 8.969 L
-4.444 10.5 L
-8.507 10.5 L
-8.507 17.031 L
-8.507 18.5 -8.108 18.922 QT
-7.71 19.344 -6.476 19.344 QT
-4.444 19.344 L
-4.444 21 L
-6.476 21 L
-8.757 21 -9.624 20.148 QT
-10.491 19.297 -10.491 17.031 QT
-10.491 10.5 L
-11.944 10.5 L
-11.944 8.969 L
-10.491 8.969 L
-10.491 5.547 L
-8.507 5.547 L
cp
8.447 14.484 M
8.447 15.453 L
-0.631 15.453 L
-0.506 17.5 0.596 18.57 QT
1.697 19.641 3.666 19.641 QT
4.807 19.641 5.869 19.359 QT
6.932 19.078 7.994 18.516 QT
7.994 20.391 L
6.932 20.844 5.814 21.078 QT
4.697 21.313 3.541 21.313 QT
0.666 21.313 -1.014 19.633 QT
-2.693 17.953 -2.693 15.109 QT
-2.693 12.141 -1.1 10.406 QT
0.494 8.672 3.197 8.672 QT
5.635 8.672 7.041 10.234 QT
8.447 11.797 8.447 14.484 QT
cp
6.479 13.906 M
6.447 12.281 5.564 11.32 QT
4.682 10.359 3.229 10.359 QT
1.572 10.359 0.572 11.289 QT
-0.428 12.219 -0.568 13.922 QT
6.479 13.906 L
cp
13.607 19.188 M
13.607 25.578 L
11.623 25.578 L
11.623 8.969 L
13.607 8.969 L
13.607 10.797 L
14.232 9.719 15.186 9.195 QT
16.139 8.672 17.451 8.672 QT
19.639 8.672 21.014 10.414 QT
22.389 12.156 22.389 15 QT
22.389 17.828 21.014 19.57 QT
19.639 21.313 17.451 21.313 QT
16.139 21.313 15.186 20.789 QT
14.232 20.266 13.607 19.188 QT
cp
20.326 15 M
20.326 12.813 19.436 11.57 QT
18.545 10.328 16.967 10.328 QT
15.404 10.328 14.506 11.57 QT
13.607 12.813 13.607 15 QT
13.607 17.172 14.506 18.414 QT
15.404 19.656 16.967 19.656 QT
18.545 19.656 19.436 18.414 QT
20.326 17.172 20.326 15 QT
cp
f
GR
GS
[1 0 0 1 852 345] CT
0.149 GC
N
2.938 -0.578 M
2.938 -0.734 3.031 -0.859 QT
7.203 -5 L
3.031 -9.156 L
2.938 -9.266 2.938 -9.422 QT
2.938 -9.578 3.055 -9.703 QT
3.172 -9.828 3.344 -9.828 QT
3.484 -9.828 3.641 -9.703 QT
7.781 -5.563 L
11.906 -9.703 L
12.078 -9.828 12.203 -9.828 QT
12.359 -9.828 12.477 -9.711 QT
12.594 -9.594 12.594 -9.422 QT
12.594 -9.266 12.5 -9.156 QT
8.344 -5 L
12.5 -0.859 L
12.594 -0.734 12.594 -0.578 QT
12.594 -0.406 12.477 -0.289 QT
12.359 -0.172 12.203 -0.172 QT
12.047 -0.172 11.906 -0.328 QT
7.781 -4.438 L
3.641 -0.328 L
3.5 -0.172 3.344 -0.172 QT
3.172 -0.172 3.055 -0.305 QT
2.938 -0.438 2.938 -0.578 QT
cp
f
GR
GS
[1 0 0 1 868 345] CT
0.149 GC
N
2.484 -1.656 M
5.703 -1.656 L
5.703 -12.781 L
2.203 -12.078 L
2.203 -13.875 L
5.688 -14.578 L
7.656 -14.578 L
7.656 -1.656 L
10.875 -1.656 L
10.875 0 L
2.484 0 L
2.484 -1.656 L
cp
19.084 -13.281 M
17.553 -13.281 16.787 -11.781 QT
16.021 -10.281 16.021 -7.281 QT
16.021 -4.281 16.787 -2.781 QT
17.553 -1.281 19.084 -1.281 QT
20.615 -1.281 21.381 -2.781 QT
22.146 -4.281 22.146 -7.281 QT
22.146 -10.281 21.381 -11.781 QT
20.615 -13.281 19.084 -13.281 QT
cp
19.084 -14.844 M
21.537 -14.844 22.826 -12.906 QT
24.115 -10.969 24.115 -7.281 QT
24.115 -3.594 22.826 -1.656 QT
21.537 0.281 19.084 0.281 QT
16.631 0.281 15.334 -1.656 QT
14.037 -3.594 14.037 -7.281 QT
14.037 -10.969 15.334 -12.906 QT
16.631 -14.844 19.084 -14.844 QT
cp
f
GR
GS
[1 0 0 1 894 335] CT
0.149 GC
N
5.281 -6.469 M
4.219 -6.469 3.602 -5.742 QT
2.984 -5.016 2.984 -3.75 QT
2.984 -2.484 3.602 -1.758 QT
4.219 -1.031 5.281 -1.031 QT
6.344 -1.031 6.969 -1.758 QT
7.594 -2.484 7.594 -3.75 QT
7.594 -5.016 6.969 -5.742 QT
6.344 -6.469 5.281 -6.469 QT
cp
8.422 -11.406 M
8.422 -9.969 L
7.828 -10.25 7.219 -10.398 QT
6.609 -10.547 6.016 -10.547 QT
4.453 -10.547 3.633 -9.492 QT
2.813 -8.438 2.688 -6.313 QT
3.156 -6.984 3.852 -7.352 QT
4.547 -7.719 5.375 -7.719 QT
7.141 -7.719 8.156 -6.648 QT
9.172 -5.578 9.172 -3.75 QT
9.172 -1.953 8.109 -0.859 QT
7.047 0.234 5.281 0.234 QT
3.266 0.234 2.195 -1.32 QT
1.125 -2.875 1.125 -5.828 QT
1.125 -8.594 2.438 -10.234 QT
3.75 -11.875 5.953 -11.875 QT
6.547 -11.875 7.156 -11.758 QT
7.766 -11.641 8.422 -11.406 QT
cp
f
GR
GS
0.149 GC
2 setlinecap
1 LJ
0.5 LW
N
130 289 M
130 26 L
S
GR
GS
0.149 GC
2 setlinecap
1 LJ
0.5 LW
N
130 289 M
137.75 289 L
S
GR
GS
0.149 GC
2 setlinecap
1 LJ
0.5 LW
N
130 238.905 M
137.75 238.905 L
S
GR
GS
0.149 GC
2 setlinecap
1 LJ
0.5 LW
N
130 188.81 M
137.75 188.81 L
S
GR
GS
0.149 GC
2 setlinecap
1 LJ
0.5 LW
N
130 138.714 M
137.75 138.714 L
S
GR
GS
0.149 GC
2 setlinecap
1 LJ
0.5 LW
N
130 88.619 M
137.75 88.619 L
S
GR
GS
0.149 GC
2 setlinecap
1 LJ
0.5 LW
N
130 38.524 M
137.75 38.524 L
S
GR
GS
[1 0 0 1 124 289] CT
0.149 GC
N
-6.641 -6.281 M
-8.172 -6.281 -8.938 -4.781 QT
-9.703 -3.281 -9.703 -0.281 QT
-9.703 2.719 -8.938 4.219 QT
-8.172 5.719 -6.641 5.719 QT
-5.109 5.719 -4.344 4.219 QT
-3.578 2.719 -3.578 -0.281 QT
-3.578 -3.281 -4.344 -4.781 QT
-5.109 -6.281 -6.641 -6.281 QT
cp
-6.641 -7.844 M
-4.188 -7.844 -2.898 -5.906 QT
-1.609 -3.969 -1.609 -0.281 QT
-1.609 3.406 -2.898 5.344 QT
-4.188 7.281 -6.641 7.281 QT
-9.094 7.281 -10.391 5.344 QT
-11.688 3.406 -11.688 -0.281 QT
-11.688 -3.969 -10.391 -5.906 QT
-9.094 -7.844 -6.641 -7.844 QT
cp
f
GR
GS
[1 0 0 1 124 238.90475] CT
0.149 GC
N
-22.156 5.344 M
-15.281 5.344 L
-15.281 7 L
-24.531 7 L
-24.531 5.344 L
-23.406 4.172 -21.469 2.219 QT
-19.531 0.266 -19.031 -0.313 QT
-18.094 -1.375 -17.719 -2.109 QT
-17.344 -2.844 -17.344 -3.563 QT
-17.344 -4.719 -18.156 -5.453 QT
-18.969 -6.188 -20.281 -6.188 QT
-21.203 -6.188 -22.234 -5.867 QT
-23.266 -5.547 -24.438 -4.891 QT
-24.438 -6.875 L
-23.25 -7.359 -22.211 -7.602 QT
-21.172 -7.844 -20.313 -7.844 QT
-18.047 -7.844 -16.703 -6.711 QT
-15.359 -5.578 -15.359 -3.688 QT
-15.359 -2.781 -15.695 -1.977 QT
-16.031 -1.172 -16.922 -0.078 QT
-17.156 0.203 -18.469 1.555 QT
-19.781 2.906 -22.156 5.344 QT
cp
-6.916 -6.281 M
-8.447 -6.281 -9.213 -4.781 QT
-9.979 -3.281 -9.979 -0.281 QT
-9.979 2.719 -9.213 4.219 QT
-8.447 5.719 -6.916 5.719 QT
-5.385 5.719 -4.619 4.219 QT
-3.854 2.719 -3.854 -0.281 QT
-3.854 -3.281 -4.619 -4.781 QT
-5.385 -6.281 -6.916 -6.281 QT
cp
-6.916 -7.844 M
-4.463 -7.844 -3.174 -5.906 QT
-1.885 -3.969 -1.885 -0.281 QT
-1.885 3.406 -3.174 5.344 QT
-4.463 7.281 -6.916 7.281 QT
-9.369 7.281 -10.666 5.344 QT
-11.963 3.406 -11.963 -0.281 QT
-11.963 -3.969 -10.666 -5.906 QT
-9.369 -7.844 -6.916 -7.844 QT
cp
f
GR
GS
[1 0 0 1 124 188.80952] CT
0.149 GC
N
-18.438 -5.859 M
-23.422 1.922 L
-18.438 1.922 L
-18.438 -5.859 L
cp
-18.953 -7.578 M
-16.484 -7.578 L
-16.484 1.922 L
-14.391 1.922 L
-14.391 3.563 L
-16.484 3.563 L
-16.484 7 L
-18.438 7 L
-18.438 3.563 L
-25.016 3.563 L
-25.016 1.656 L
-18.953 -7.578 L
cp
-6.916 -6.281 M
-8.447 -6.281 -9.213 -4.781 QT
-9.979 -3.281 -9.979 -0.281 QT
-9.979 2.719 -9.213 4.219 QT
-8.447 5.719 -6.916 5.719 QT
-5.385 5.719 -4.619 4.219 QT
-3.854 2.719 -3.854 -0.281 QT
-3.854 -3.281 -4.619 -4.781 QT
-5.385 -6.281 -6.916 -6.281 QT
cp
-6.916 -7.844 M
-4.463 -7.844 -3.174 -5.906 QT
-1.885 -3.969 -1.885 -0.281 QT
-1.885 3.406 -3.174 5.344 QT
-4.463 7.281 -6.916 7.281 QT
-9.369 7.281 -10.666 5.344 QT
-11.963 3.406 -11.963 -0.281 QT
-11.963 -3.969 -10.666 -5.906 QT
-9.369 -7.844 -6.916 -7.844 QT
cp
f
GR
GS
[1 0 0 1 124 138.71428] CT
0.149 GC
N
-19.391 -1.078 M
-20.719 -1.078 -21.5 -0.172 QT
-22.281 0.734 -22.281 2.328 QT
-22.281 3.891 -21.5 4.805 QT
-20.719 5.719 -19.391 5.719 QT
-18.063 5.719 -17.289 4.805 QT
-16.516 3.891 -16.516 2.328 QT
-16.516 0.734 -17.289 -0.172 QT
-18.063 -1.078 -19.391 -1.078 QT
cp
-15.484 -7.266 M
-15.484 -5.469 L
-16.219 -5.813 -16.977 -6 QT
-17.734 -6.188 -18.484 -6.188 QT
-20.438 -6.188 -21.469 -4.867 QT
-22.5 -3.547 -22.641 -0.875 QT
-22.063 -1.734 -21.195 -2.188 QT
-20.328 -2.641 -19.281 -2.641 QT
-17.078 -2.641 -15.805 -1.305 QT
-14.531 0.031 -14.531 2.328 QT
-14.531 4.563 -15.859 5.922 QT
-17.188 7.281 -19.391 7.281 QT
-21.922 7.281 -23.266 5.344 QT
-24.609 3.406 -24.609 -0.281 QT
-24.609 -3.734 -22.969 -5.789 QT
-21.328 -7.844 -18.563 -7.844 QT
-17.813 -7.844 -17.055 -7.695 QT
-16.297 -7.547 -15.484 -7.266 QT
cp
-6.916 -6.281 M
-8.447 -6.281 -9.213 -4.781 QT
-9.979 -3.281 -9.979 -0.281 QT
-9.979 2.719 -9.213 4.219 QT
-8.447 5.719 -6.916 5.719 QT
-5.385 5.719 -4.619 4.219 QT
-3.854 2.719 -3.854 -0.281 QT
-3.854 -3.281 -4.619 -4.781 QT
-5.385 -6.281 -6.916 -6.281 QT
cp
-6.916 -7.844 M
-4.463 -7.844 -3.174 -5.906 QT
-1.885 -3.969 -1.885 -0.281 QT
-1.885 3.406 -3.174 5.344 QT
-4.463 7.281 -6.916 7.281 QT
-9.369 7.281 -10.666 5.344 QT
-11.963 3.406 -11.963 -0.281 QT
-11.963 -3.969 -10.666 -5.906 QT
-9.369 -7.844 -6.916 -7.844 QT
cp
f
GR
GS
[1 0 0 1 124 88.61905] CT
0.149 GC
N
-19.641 0.078 M
-21.047 0.078 -21.852 0.828 QT
-22.656 1.578 -22.656 2.891 QT
-22.656 4.219 -21.852 4.969 QT
-21.047 5.719 -19.641 5.719 QT
-18.234 5.719 -17.422 4.961 QT
-16.609 4.203 -16.609 2.891 QT
-16.609 1.578 -17.414 0.828 QT
-18.219 0.078 -19.641 0.078 QT
cp
-21.609 -0.766 M
-22.891 -1.078 -23.594 -1.945 QT
-24.297 -2.813 -24.297 -4.063 QT
-24.297 -5.813 -23.055 -6.828 QT
-21.813 -7.844 -19.641 -7.844 QT
-17.469 -7.844 -16.227 -6.828 QT
-14.984 -5.813 -14.984 -4.063 QT
-14.984 -2.813 -15.695 -1.945 QT
-16.406 -1.078 -17.656 -0.766 QT
-16.234 -0.438 -15.438 0.531 QT
-14.641 1.5 -14.641 2.891 QT
-14.641 5.016 -15.938 6.148 QT
-17.234 7.281 -19.641 7.281 QT
-22.047 7.281 -23.344 6.148 QT
-24.641 5.016 -24.641 2.891 QT
-24.641 1.5 -23.844 0.531 QT
-23.047 -0.438 -21.609 -0.766 QT
cp
-22.344 -3.875 M
-22.344 -2.75 -21.633 -2.117 QT
-20.922 -1.484 -19.641 -1.484 QT
-18.375 -1.484 -17.656 -2.117 QT
-16.938 -2.75 -16.938 -3.875 QT
-16.938 -5.016 -17.656 -5.648 QT
-18.375 -6.281 -19.641 -6.281 QT
-20.922 -6.281 -21.633 -5.648 QT
-22.344 -5.016 -22.344 -3.875 QT
cp
-6.916 -6.281 M
-8.447 -6.281 -9.213 -4.781 QT
-9.979 -3.281 -9.979 -0.281 QT
-9.979 2.719 -9.213 4.219 QT
-8.447 5.719 -6.916 5.719 QT
-5.385 5.719 -4.619 4.219 QT
-3.854 2.719 -3.854 -0.281 QT
-3.854 -3.281 -4.619 -4.781 QT
-5.385 -6.281 -6.916 -6.281 QT
cp
-6.916 -7.844 M
-4.463 -7.844 -3.174 -5.906 QT
-1.885 -3.969 -1.885 -0.281 QT
-1.885 3.406 -3.174 5.344 QT
-4.463 7.281 -6.916 7.281 QT
-9.369 7.281 -10.666 5.344 QT
-11.963 3.406 -11.963 -0.281 QT
-11.963 -3.969 -10.666 -5.906 QT
-9.369 -7.844 -6.916 -7.844 QT
cp
f
GR
GS
[1 0 0 1 124 38.52381] CT
0.149 GC
N
-36.516 5.344 M
-33.297 5.344 L
-33.297 -5.781 L
-36.797 -5.078 L
-36.797 -6.875 L
-33.313 -7.578 L
-31.344 -7.578 L
-31.344 5.344 L
-28.125 5.344 L
-28.125 7 L
-36.516 7 L
-36.516 5.344 L
cp
-19.916 -6.281 M
-21.447 -6.281 -22.213 -4.781 QT
-22.979 -3.281 -22.979 -0.281 QT
-22.979 2.719 -22.213 4.219 QT
-21.447 5.719 -19.916 5.719 QT
-18.385 5.719 -17.619 4.219 QT
-16.854 2.719 -16.854 -0.281 QT
-16.854 -3.281 -17.619 -4.781 QT
-18.385 -6.281 -19.916 -6.281 QT
cp
-19.916 -7.844 M
-17.463 -7.844 -16.174 -5.906 QT
-14.885 -3.969 -14.885 -0.281 QT
-14.885 3.406 -16.174 5.344 QT
-17.463 7.281 -19.916 7.281 QT
-22.369 7.281 -23.666 5.344 QT
-24.963 3.406 -24.963 -0.281 QT
-24.963 -3.969 -23.666 -5.906 QT
-22.369 -7.844 -19.916 -7.844 QT
cp
-7.191 -6.281 M
-8.723 -6.281 -9.488 -4.781 QT
-10.254 -3.281 -10.254 -0.281 QT
-10.254 2.719 -9.488 4.219 QT
-8.723 5.719 -7.191 5.719 QT
-5.66 5.719 -4.895 4.219 QT
-4.129 2.719 -4.129 -0.281 QT
-4.129 -3.281 -4.895 -4.781 QT
-5.66 -6.281 -7.191 -6.281 QT
cp
-7.191 -7.844 M
-4.738 -7.844 -3.449 -5.906 QT
-2.16 -3.969 -2.16 -0.281 QT
-2.16 3.406 -3.449 5.344 QT
-4.738 7.281 -7.191 7.281 QT
-9.645 7.281 -10.941 5.344 QT
-12.238 3.406 -12.238 -0.281 QT
-12.238 -3.969 -10.941 -5.906 QT
-9.645 -7.844 -7.191 -7.844 QT
cp
f
GR
GS
[0 -1 1 0 82 157.49988] CT
0.149 GC
N
-113.063 -22.031 M
-99.5 -22.031 L
-99.5 -20.219 L
-105.188 -20.219 L
-105.188 -6 L
-107.375 -6 L
-107.375 -20.219 L
-113.063 -20.219 L
-113.063 -22.031 L
cp
-92.015 -12.047 M
-94.421 -12.047 -95.343 -11.5 QT
-96.265 -10.953 -96.265 -9.625 QT
-96.265 -8.578 -95.569 -7.961 QT
-94.874 -7.344 -93.687 -7.344 QT
-92.046 -7.344 -91.054 -8.508 QT
-90.062 -9.672 -90.062 -11.609 QT
-90.062 -12.047 L
-92.015 -12.047 L
cp
-88.077 -12.859 M
-88.077 -6 L
-90.062 -6 L
-90.062 -7.828 L
-90.733 -6.734 -91.741 -6.211 QT
-92.749 -5.688 -94.218 -5.688 QT
-96.062 -5.688 -97.147 -6.727 QT
-98.233 -7.766 -98.233 -9.5 QT
-98.233 -11.531 -96.874 -12.563 QT
-95.515 -13.594 -92.827 -13.594 QT
-90.062 -13.594 L
-90.062 -13.781 L
-90.062 -15.156 -90.952 -15.898 QT
-91.843 -16.641 -93.468 -16.641 QT
-94.499 -16.641 -95.476 -16.398 QT
-96.452 -16.156 -97.358 -15.656 QT
-97.358 -17.484 L
-96.28 -17.906 -95.257 -18.117 QT
-94.233 -18.328 -93.265 -18.328 QT
-90.655 -18.328 -89.366 -16.969 QT
-88.077 -15.609 -88.077 -12.859 QT
cp
-77.033 -16.188 M
-77.361 -16.375 -77.76 -16.469 QT
-78.158 -16.563 -78.627 -16.563 QT
-80.299 -16.563 -81.197 -15.469 QT
-82.096 -14.375 -82.096 -12.344 QT
-82.096 -6 L
-84.08 -6 L
-84.08 -18.031 L
-82.096 -18.031 L
-82.096 -16.156 L
-81.471 -17.266 -80.471 -17.797 QT
-79.471 -18.328 -78.049 -18.328 QT
-77.846 -18.328 -77.596 -18.297 QT
-77.346 -18.266 -77.049 -18.219 QT
-77.033 -16.188 L
cp
-67.051 -12.156 M
-67.051 -14.297 -67.934 -15.484 QT
-68.816 -16.672 -70.41 -16.672 QT
-72.004 -16.672 -72.895 -15.484 QT
-73.785 -14.297 -73.785 -12.156 QT
-73.785 -10.016 -72.895 -8.836 QT
-72.004 -7.656 -70.41 -7.656 QT
-68.816 -7.656 -67.934 -8.836 QT
-67.051 -10.016 -67.051 -12.156 QT
cp
-65.066 -7.5 M
-65.066 -4.422 -66.434 -2.922 QT
-67.801 -1.422 -70.613 -1.422 QT
-71.66 -1.422 -72.582 -1.578 QT
-73.504 -1.734 -74.363 -2.063 QT
-74.363 -3.984 L
-73.504 -3.5 -72.652 -3.281 QT
-71.801 -3.063 -70.926 -3.063 QT
-68.973 -3.063 -68.012 -4.078 QT
-67.051 -5.094 -67.051 -7.141 QT
-67.051 -8.109 L
-67.66 -7.047 -68.613 -6.523 QT
-69.566 -6 -70.895 -6 QT
-73.113 -6 -74.465 -7.688 QT
-75.816 -9.375 -75.816 -12.156 QT
-75.816 -14.953 -74.465 -16.641 QT
-73.113 -18.328 -70.895 -18.328 QT
-69.566 -18.328 -68.613 -17.797 QT
-67.66 -17.266 -67.051 -16.203 QT
-67.051 -18.031 L
-65.066 -18.031 L
-65.066 -7.5 L
cp
-50.711 -12.516 M
-50.711 -11.547 L
-59.789 -11.547 L
-59.664 -9.5 -58.563 -8.43 QT
-57.461 -7.359 -55.492 -7.359 QT
-54.352 -7.359 -53.289 -7.641 QT
-52.227 -7.922 -51.164 -8.484 QT
-51.164 -6.609 L
-52.227 -6.156 -53.344 -5.922 QT
-54.461 -5.688 -55.617 -5.688 QT
-58.492 -5.688 -60.172 -7.367 QT
-61.852 -9.047 -61.852 -11.891 QT
-61.852 -14.859 -60.258 -16.594 QT
-58.664 -18.328 -55.961 -18.328 QT
-53.523 -18.328 -52.117 -16.766 QT
-50.711 -15.203 -50.711 -12.516 QT
cp
-52.68 -13.094 M
-52.711 -14.719 -53.594 -15.68 QT
-54.477 -16.641 -55.93 -16.641 QT
-57.586 -16.641 -58.586 -15.711 QT
-59.586 -14.781 -59.727 -13.078 QT
-52.68 -13.094 L
cp
-45.504 -21.453 M
-45.504 -18.031 L
-41.441 -18.031 L
-41.441 -16.5 L
-45.504 -16.5 L
-45.504 -9.969 L
-45.504 -8.5 -45.105 -8.078 QT
-44.707 -7.656 -43.473 -7.656 QT
-41.441 -7.656 L
-41.441 -6 L
-43.473 -6 L
-45.754 -6 -46.621 -6.852 QT
-47.488 -7.703 -47.488 -9.969 QT
-47.488 -16.5 L
-48.941 -16.5 L
-48.941 -18.031 L
-47.488 -18.031 L
-47.488 -21.453 L
-45.504 -21.453 L
cp
-31.159 -17.672 M
-31.159 -15.813 L
-32.003 -16.234 -32.909 -16.453 QT
-33.815 -16.672 -34.769 -16.672 QT
-36.253 -16.672 -36.987 -16.219 QT
-37.722 -15.766 -37.722 -14.859 QT
-37.722 -14.172 -37.19 -13.781 QT
-36.659 -13.391 -35.081 -13.031 QT
-34.394 -12.891 L
-32.3 -12.438 -31.409 -11.617 QT
-30.519 -10.797 -30.519 -9.313 QT
-30.519 -7.641 -31.847 -6.664 QT
-33.175 -5.688 -35.487 -5.688 QT
-36.456 -5.688 -37.503 -5.875 QT
-38.55 -6.063 -39.722 -6.438 QT
-39.722 -8.484 L
-38.628 -7.906 -37.558 -7.625 QT
-36.487 -7.344 -35.456 -7.344 QT
-34.05 -7.344 -33.3 -7.82 QT
-32.55 -8.297 -32.55 -9.172 QT
-32.55 -9.969 -33.097 -10.398 QT
-33.644 -10.828 -35.472 -11.234 QT
-36.159 -11.391 L
-38.003 -11.781 -38.815 -12.578 QT
-39.628 -13.375 -39.628 -14.781 QT
-39.628 -16.469 -38.425 -17.398 QT
-37.222 -18.328 -35.019 -18.328 QT
-33.909 -18.328 -32.948 -18.164 QT
-31.987 -18 -31.159 -17.672 QT
cp
-13.407 -16.188 M
-13.735 -16.375 -14.134 -16.469 QT
-14.532 -16.563 -15.001 -16.563 QT
-16.673 -16.563 -17.571 -15.469 QT
-18.47 -14.375 -18.47 -12.344 QT
-18.47 -6 L
-20.454 -6 L
-20.454 -18.031 L
-18.47 -18.031 L
-18.47 -16.156 L
-17.845 -17.266 -16.845 -17.797 QT
-15.845 -18.328 -14.423 -18.328 QT
-14.22 -18.328 -13.97 -18.297 QT
-13.72 -18.266 -13.423 -18.219 QT
-13.407 -16.188 L
cp
-1.05 -12.516 M
-1.05 -11.547 L
-10.128 -11.547 L
-10.003 -9.5 -8.901 -8.43 QT
-7.8 -7.359 -5.831 -7.359 QT
-4.69 -7.359 -3.628 -7.641 QT
-2.565 -7.922 -1.503 -8.484 QT
-1.503 -6.609 L
-2.565 -6.156 -3.683 -5.922 QT
-4.8 -5.688 -5.956 -5.688 QT
-8.831 -5.688 -10.511 -7.367 QT
-12.19 -9.047 -12.19 -11.891 QT
-12.19 -14.859 -10.597 -16.594 QT
-9.003 -18.328 -6.3 -18.328 QT
-3.862 -18.328 -2.456 -16.766 QT
-1.05 -15.203 -1.05 -12.516 QT
cp
-3.019 -13.094 M
-3.05 -14.719 -3.933 -15.68 QT
-4.815 -16.641 -6.269 -16.641 QT
-7.925 -16.641 -8.925 -15.711 QT
-9.925 -14.781 -10.065 -13.078 QT
-3.019 -13.094 L
cp
7.673 -12.047 M
5.267 -12.047 4.345 -11.5 QT
3.423 -10.953 3.423 -9.625 QT
3.423 -8.578 4.118 -7.961 QT
4.813 -7.344 6.001 -7.344 QT
7.642 -7.344 8.634 -8.508 QT
9.626 -9.672 9.626 -11.609 QT
9.626 -12.047 L
7.673 -12.047 L
cp
11.61 -12.859 M
11.61 -6 L
9.626 -6 L
9.626 -7.828 L
8.954 -6.734 7.946 -6.211 QT
6.938 -5.688 5.47 -5.688 QT
3.626 -5.688 2.54 -6.727 QT
1.454 -7.766 1.454 -9.5 QT
1.454 -11.531 2.813 -12.563 QT
4.173 -13.594 6.86 -13.594 QT
9.626 -13.594 L
9.626 -13.781 L
9.626 -15.156 8.735 -15.898 QT
7.845 -16.641 6.22 -16.641 QT
5.188 -16.641 4.212 -16.398 QT
3.235 -16.156 2.329 -15.656 QT
2.329 -17.484 L
3.407 -17.906 4.431 -18.117 QT
5.454 -18.328 6.423 -18.328 QT
9.032 -18.328 10.321 -16.969 QT
11.61 -15.609 11.61 -12.859 QT
cp
24.342 -17.563 M
24.342 -15.719 L
23.498 -16.188 22.654 -16.414 QT
21.811 -16.641 20.951 -16.641 QT
19.029 -16.641 17.967 -15.422 QT
16.904 -14.203 16.904 -12 QT
16.904 -9.797 17.967 -8.578 QT
19.029 -7.359 20.951 -7.359 QT
21.811 -7.359 22.654 -7.594 QT
23.498 -7.828 24.342 -8.281 QT
24.342 -6.469 L
23.514 -6.078 22.623 -5.883 QT
21.732 -5.688 20.748 -5.688 QT
18.029 -5.688 16.428 -7.398 QT
14.826 -9.109 14.826 -12 QT
14.826 -14.953 16.443 -16.641 QT
18.061 -18.328 20.873 -18.328 QT
21.779 -18.328 22.654 -18.141 QT
23.529 -17.953 24.342 -17.563 QT
cp
37.781 -13.266 M
37.781 -6 L
35.797 -6 L
35.797 -13.203 L
35.797 -14.906 35.133 -15.758 QT
34.469 -16.609 33.141 -16.609 QT
31.531 -16.609 30.609 -15.586 QT
29.688 -14.563 29.688 -12.797 QT
29.688 -6 L
27.703 -6 L
27.703 -22.719 L
29.688 -22.719 L
29.688 -16.156 L
30.391 -17.25 31.359 -17.789 QT
32.328 -18.328 33.578 -18.328 QT
35.656 -18.328 36.719 -17.039 QT
37.781 -15.75 37.781 -13.266 QT
cp
52.006 -12.516 M
52.006 -11.547 L
42.928 -11.547 L
43.053 -9.5 44.154 -8.43 QT
45.256 -7.359 47.225 -7.359 QT
48.365 -7.359 49.428 -7.641 QT
50.49 -7.922 51.553 -8.484 QT
51.553 -6.609 L
50.49 -6.156 49.373 -5.922 QT
48.256 -5.688 47.1 -5.688 QT
44.225 -5.688 42.545 -7.367 QT
40.865 -9.047 40.865 -11.891 QT
40.865 -14.859 42.459 -16.594 QT
44.053 -18.328 46.756 -18.328 QT
49.193 -18.328 50.6 -16.766 QT
52.006 -15.203 52.006 -12.516 QT
cp
50.037 -13.094 M
50.006 -14.719 49.123 -15.68 QT
48.24 -16.641 46.787 -16.641 QT
45.131 -16.641 44.131 -15.711 QT
43.131 -14.781 42.99 -13.078 QT
50.037 -13.094 L
cp
63.166 -16.203 M
63.166 -22.719 L
65.15 -22.719 L
65.15 -6 L
63.166 -6 L
63.166 -7.813 L
62.557 -6.734 61.604 -6.211 QT
60.65 -5.688 59.322 -5.688 QT
57.135 -5.688 55.768 -7.43 QT
54.4 -9.172 54.4 -12 QT
54.4 -14.844 55.768 -16.586 QT
57.135 -18.328 59.322 -18.328 QT
60.65 -18.328 61.604 -17.805 QT
62.557 -17.281 63.166 -16.203 QT
cp
56.432 -12 M
56.432 -9.828 57.33 -8.586 QT
58.229 -7.344 59.807 -7.344 QT
61.369 -7.344 62.268 -8.586 QT
63.166 -9.828 63.166 -12 QT
63.166 -14.188 62.268 -15.43 QT
61.369 -16.672 59.807 -16.672 QT
58.229 -16.672 57.33 -15.43 QT
56.432 -14.188 56.432 -12 QT
cp
76.03 -22.719 M
80.593 -22.719 L
80.593 -21.172 L
78.015 -21.172 L
78.015 -4.641 L
80.593 -4.641 L
80.593 -3.094 L
76.03 -3.094 L
76.03 -22.719 L
cp
98.723 -13.063 M
97.785 -13.063 97.254 -12.266 QT
96.723 -11.469 96.723 -10.047 QT
96.723 -8.656 97.254 -7.852 QT
97.785 -7.047 98.723 -7.047 QT
99.629 -7.047 100.16 -7.852 QT
100.691 -8.656 100.691 -10.047 QT
100.691 -11.453 100.16 -12.258 QT
99.629 -13.063 98.723 -13.063 QT
cp
98.723 -14.422 M
100.41 -14.422 101.41 -13.242 QT
102.41 -12.063 102.41 -10.047 QT
102.41 -8.047 101.41 -6.867 QT
100.41 -5.688 98.723 -5.688 QT
97.004 -5.688 96.004 -6.867 QT
95.004 -8.047 95.004 -10.047 QT
95.004 -12.063 96.004 -13.242 QT
97.004 -14.422 98.723 -14.422 QT
cp
87.629 -20.969 M
86.707 -20.969 86.176 -20.164 QT
85.645 -19.359 85.645 -17.969 QT
85.645 -16.547 86.168 -15.75 QT
86.691 -14.953 87.629 -14.953 QT
88.566 -14.953 89.098 -15.75 QT
89.629 -16.547 89.629 -17.969 QT
89.629 -19.359 89.09 -20.164 QT
88.551 -20.969 87.629 -20.969 QT
cp
97.332 -22.328 M
99.051 -22.328 L
89.02 -5.688 L
87.301 -5.688 L
97.332 -22.328 L
cp
87.629 -22.328 M
89.332 -22.328 90.34 -21.148 QT
91.348 -19.969 91.348 -17.969 QT
91.348 -15.938 90.348 -14.766 QT
89.348 -13.594 87.629 -13.594 QT
85.926 -13.594 84.934 -14.773 QT
83.941 -15.953 83.941 -17.969 QT
83.941 -19.969 84.941 -21.148 QT
85.941 -22.328 87.629 -22.328 QT
cp
110.314 -22.719 M
110.314 -3.094 L
105.768 -3.094 L
105.768 -4.641 L
108.33 -4.641 L
108.33 -21.172 L
105.768 -21.172 L
105.768 -22.719 L
110.314 -22.719 L
cp
f
GR
GS
0 0.447 0.741 RC
1 LJ
0.5 LW
N
169.525 78.073 M
169.913 105.317 L
170.3 115.593 L
170.688 142.889 L
171.075 122.016 L
171.462 101.143 L
171.85 97.459 L
172.238 66.355 L
172.625 127.98 L
173.012 112.193 L
173.4 122.016 L
173.788 78.073 L
174.175 82.725 L
174.563 94.185 L
174.95 122.016 L
175.337 116.798 L
175.725 88.619 L
176.113 85.488 L
176.5 77.059 L
176.887 91.256 L
177.275 82.725 L
177.663 62.379 L
178.05 115.593 L
178.438 96.326 L
178.825 80.27 L
179.212 48.158 L
179.6 49.909 L
179.988 48.543 L
180.375 38.524 L
180.762 51.048 L
181.15 82.725 L
181.538 38.524 L
181.925 48.543 L
182.313 64.89 L
182.7 38.524 L
183.087 63.571 L
183.475 47.469 L
183.863 67.992 L
184.25 60.304 L
184.637 47.161 L
185.025 59.397 L
185.413 57.791 L
185.8 49.909 L
186.188 45.293 L
186.575 46.604 L
186.962 38.524 L
187.35 46.873 L
187.738 48.543 L
188.125 38.524 L
188.512 38.524 L
188.9 38.524 L
189.288 45.293 L
189.675 43.435 L
190.063 38.524 L
190.45 38.524 L
190.837 38.524 L
191.225 44.786 L
191.613 38.524 L
192 38.524 L
192.387 38.524 L
192.775 38.524 L
193.163 38.524 L
193.55 38.524 L
193.938 38.524 L
194.325 44.216 L
194.712 38.524 L
195.1 44.786 L
195.488 38.524 L
195.875 38.524 L
196.262 38.524 L
196.65 38.524 L
197.038 38.524 L
197.425 38.524 L
197.813 38.524 L
198.2 38.524 L
198.587 38.524 L
198.975 38.524 L
199.363 38.524 L
199.75 38.524 L
200.137 38.524 L
200.525 38.524 L
200.913 38.524 L
201.3 38.524 L
201.688 47.469 L
202.075 50.451 L
202.462 38.524 L
202.85 38.524 L
203.238 38.524 L
203.625 38.524 L
204.012 38.524 L
204.4 48.96 L
204.788 47.469 L
205.175 48.158 L
205.563 38.524 L
205.95 38.524 L
206.337 38.524 L
206.725 38.524 L
207.113 38.524 L
207.5 38.524 L
207.887 38.524 L
208.275 38.524 L
208.663 38.524 L
209.05 38.524 L
209.438 38.524 L
209.825 38.524 L
210.212 49.414 L
210.6 38.524 L
210.988 38.524 L
211.375 48.158 L
211.762 51.707 L
212.15 38.524 L
212.538 38.524 L
212.925 48.158 L
213.313 38.524 L
213.7 38.524 L
214.087 38.524 L
214.475 49.909 L
214.863 38.524 L
215.25 38.524 L
215.637 58.562 L
216.025 51.707 L
216.413 38.524 L
216.8 47.469 L
217.188 38.524 L
217.575 38.524 L
217.962 46.873 L
218.35 52.439 L
218.738 38.524 L
219.125 50.451 L
219.512 38.524 L
219.9 38.524 L
220.288 38.524 L
220.675 38.524 L
221.063 47.801 L
221.45 38.524 L
221.837 38.524 L
222.225 38.524 L
222.613 51.048 L
223 38.524 L
223.387 38.524 L
223.775 38.524 L
224.163 38.524 L
224.55 48.96 L
224.938 56.415 L
225.325 38.524 L
225.712 38.524 L
226.1 49.909 L
226.488 38.524 L
226.875 76.095 L
227.262 38.524 L
227.65 38.524 L
228.038 38.524 L
228.425 38.524 L
228.813 38.524 L
229.2 38.524 L
229.587 47.801 L
229.975 38.524 L
230.363 38.524 L
230.75 63.571 L
231.137 38.524 L
231.525 38.524 L
231.913 38.524 L
232.3 38.524 L
232.688 38.524 L
233.075 38.524 L
233.462 38.524 L
233.85 38.524 L
234.238 49.414 L
234.625 48.96 L
235.012 38.524 L
235.4 38.524 L
235.788 38.524 L
236.175 49.414 L
236.563 48.543 L
236.95 53.258 L
237.337 69.833 L
237.725 38.524 L
238.113 51.048 L
238.5 38.524 L
238.887 38.524 L
239.275 38.524 L
239.663 38.524 L
240.05 53.258 L
240.438 38.524 L
240.825 38.524 L
241.212 38.524 L
241.6 38.524 L
241.988 49.414 L
242.375 49.414 L
242.762 60.304 L
243.15 49.414 L
243.538 38.524 L
243.925 49.414 L
244.313 38.524 L
244.7 38.524 L
245.087 38.524 L
245.475 38.524 L
245.863 38.524 L
246.25 38.524 L
246.637 50.451 L
247.025 51.048 L
247.413 49.414 L
247.8 60.304 L
248.188 38.524 L
248.575 38.524 L
248.962 38.524 L
249.35 50.451 L
249.738 38.524 L
250.125 38.524 L
250.512 38.524 L
250.9 38.524 L
251.288 38.524 L
251.675 69.833 L
252.063 105.317 L
252.45 52.439 L
252.837 53.258 L
253.225 38.524 L
253.613 51.707 L
254 53.258 L
254.387 50.451 L
254.775 38.524 L
255.163 38.524 L
255.55 38.524 L
255.938 38.524 L
256.325 38.524 L
256.712 38.524 L
257.1 63.571 L
257.487 58.562 L
257.875 38.524 L
258.263 38.524 L
258.65 56.415 L
259.038 80.27 L
259.425 53.258 L
259.813 74.306 L
260.2 138.714 L
260.587 38.524 L
260.975 54.179 L
261.362 47.469 L
261.75 64.89 L
262.138 82.725 L
262.525 63.571 L
262.913 49.909 L
263.3 38.524 L
263.688 71.921 L
264.075 52.439 L
264.462 96.326 L
264.85 48.158 L
265.237 66.355 L
265.625 88.619 L
266.013 48.158 L
266.4 51.048 L
266.788 92.197 L
267.175 52.439 L
267.563 101.143 L
267.95 61.294 L
268.337 58.562 L
268.725 47.469 L
269.112 38.524 L
269.5 51.048 L
269.888 38.524 L
270.275 101.143 L
270.663 67.992 L
271.05 69.833 L
271.438 52.439 L
271.825 38.524 L
272.212 96.326 L
272.6 63.571 L
272.987 101.143 L
273.375 113.667 L
273.763 78.073 L
274.15 88.619 L
274.538 71.921 L
274.925 71.921 L
275.313 53.258 L
275.7 115.593 L
276.087 55.222 L
276.475 52.439 L
276.862 110.088 L
277.25 74.306 L
277.638 101.143 L
278.025 110.088 L
278.413 106.836 L
278.8 51.048 L
279.188 56.415 L
279.575 71.921 L
279.962 62.379 L
280.35 51.707 L
280.737 80.27 L
281.125 92.197 L
281.513 105.317 L
281.9 106.836 L
282.288 54.179 L
282.675 88.619 L
283.063 110.088 L
283.45 116.798 L
283.837 106.836 L
284.225 82.725 L
284.612 101.143 L
285 85.488 L
285.388 85.488 L
285.775 122.016 L
286.163 175.147 L
286.55 78.073 L
286.938 52.439 L
287.325 110.088 L
287.712 88.619 L
288.1 115.593 L
288.487 152.377 L
288.875 71.921 L
289.263 92.197 L
289.65 195.071 L
290.038 138.714 L
290.425 105.317 L
290.813 152.377 L
291.2 66.355 L
291.587 78.073 L
291.975 142.889 L
292.362 88.619 L
292.75 195.071 L
293.138 122.016 L
293.525 84.065 L
293.913 129.606 L
294.3 78.073 L
294.688 101.143 L
295.075 92.197 L
295.462 149.847 L
295.85 77.059 L
296.237 92.197 L
296.625 92.197 L
297.013 154.128 L
297.4 101.143 L
297.788 92.197 L
298.175 69.833 L
298.563 92.197 L
298.95 195.071 L
299.337 97.459 L
299.725 142.889 L
300.112 88.619 L
300.5 64.89 L
300.888 129.606 L
301.275 88.619 L
301.663 94.185 L
302.05 88.619 L
302.438 152.377 L
302.825 115.593 L
303.212 129.606 L
303.6 88.619 L
303.987 106.836 L
304.375 142.889 L
304.763 129.606 L
305.15 85.488 L
305.538 129.606 L
305.925 88.619 L
306.313 142.889 L
306.7 163.762 L
307.087 63.571 L
307.475 110.088 L
307.862 122.016 L
308.25 163.762 L
308.638 129.606 L
309.025 188.81 L
309.413 96.326 L
309.8 55.222 L
310.188 163.762 L
310.575 177.677 L
310.962 122.016 L
311.35 134.861 L
311.737 177.677 L
312.125 142.889 L
312.513 226.381 L
312.9 92.197 L
313.288 101.143 L
313.675 205.508 L
314.063 115.593 L
314.45 110.088 L
314.837 138.714 L
315.225 74.306 L
315.612 163.762 L
316 84.065 L
316.388 152.377 L
316.775 96.326 L
317.163 177.677 L
317.55 85.488 L
317.938 138.714 L
318.325 71.921 L
318.712 96.326 L
319.1 88.619 L
319.487 152.377 L
319.875 247.254 L
320.263 116.798 L
320.65 92.197 L
321.038 51.048 L
321.425 195.071 L
321.813 101.143 L
322.2 69.833 L
322.587 92.197 L
322.975 129.606 L
323.362 101.143 L
323.75 129.606 L
324.138 163.762 L
324.525 122.016 L
324.913 88.619 L
325.3 77.059 L
325.688 195.071 L
326.075 142.889 L
326.462 69.833 L
326.85 105.317 L
327.237 96.326 L
327.625 177.677 L
328.013 74.306 L
328.4 69.833 L
328.788 129.606 L
329.175 71.921 L
329.563 97.459 L
329.95 82.725 L
330.337 77.059 L
330.725 205.508 L
331.112 92.197 L
331.5 105.317 L
331.888 110.088 L
332.275 110.088 L
332.663 129.606 L
333.05 105.317 L
333.438 129.606 L
333.825 142.889 L
334.212 92.197 L
334.6 205.508 L
334.987 138.714 L
335.375 134.861 L
335.763 106.836 L
336.15 74.306 L
336.538 129.606 L
336.925 149.847 L
337.313 177.677 L
337.7 188.81 L
338.087 163.762 L
338.475 115.593 L
338.862 122.016 L
339.25 122.016 L
339.638 101.143 L
340.025 175.147 L
340.413 116.798 L
340.8 106.836 L
341.188 88.619 L
341.575 127.98 L
341.962 101.143 L
342.35 85.488 L
342.737 101.143 L
343.125 101.143 L
343.513 188.81 L
343.9 77.059 L
344.288 149.847 L
344.675 177.677 L
345.063 163.762 L
345.45 195.071 L
345.837 163.762 L
346.225 152.377 L
346.612 177.677 L
347 253.218 L
347.388 122.016 L
347.775 195.071 L
348.163 122.016 L
348.55 69.833 L
348.938 163.762 L
349.325 106.836 L
349.712 226.381 L
350.1 85.488 L
350.487 163.762 L
350.875 163.762 L
351.263 129.606 L
351.65 175.147 L
352.038 129.606 L
352.425 115.593 L
352.813 57.791 L
353.2 205.508 L
353.587 195.071 L
353.975 129.606 L
354.362 96.326 L
354.75 129.606 L
355.138 163.762 L
355.525 177.677 L
355.913 106.836 L
356.3 88.619 L
356.688 88.619 L
357.075 142.889 L
357.462 101.143 L
357.85 110.088 L
358.237 88.619 L
358.625 84.065 L
359.013 115.593 L
359.4 96.326 L
359.788 113.667 L
360.175 188.81 L
360.563 101.143 L
360.95 112.193 L
361.337 110.088 L
361.725 289 L
362.112 113.667 L
362.5 88.619 L
362.888 80.27 L
363.275 106.836 L
363.663 177.677 L
364.05 188.81 L
364.438 122.016 L
364.825 177.677 L
365.212 122.016 L
365.6 106.836 L
365.987 163.762 L
366.375 226.381 L
366.763 122.016 L
367.15 142.889 L
367.538 177.677 L
367.925 80.27 L
368.313 105.317 L
368.7 113.667 L
369.087 142.889 L
369.475 113.667 L
369.862 129.606 L
370.25 289 L
370.638 163.762 L
371.025 101.143 L
371.413 106.836 L
371.8 175.147 L
372.188 84.065 L
372.575 88.619 L
372.962 122.016 L
373.35 96.326 L
373.737 96.326 L
374.125 96.326 L
374.513 175.147 L
374.9 129.606 L
375.288 115.593 L
375.675 122.016 L
376.063 175.147 L
376.45 122.016 L
376.837 226.381 L
377.225 205.508 L
377.612 195.071 L
378 122.016 L
378.388 205.508 L
378.775 74.306 L
379.163 138.714 L
379.55 96.326 L
379.938 71.921 L
380.325 129.606 L
380.712 91.256 L
381.1 92.197 L
381.487 115.593 L
381.875 113.667 L
382.263 163.762 L
382.65 138.714 L
383.038 163.762 L
383.425 129.606 L
383.813 115.593 L
384.2 77.059 L
384.587 177.677 L
384.975 84.065 L
385.362 152.377 L
385.75 115.593 L
386.138 74.306 L
386.525 138.714 L
386.913 106.836 L
387.3 106.836 L
387.688 138.714 L
388.075 113.667 L
388.462 101.143 L
388.85 115.593 L
389.237 127.98 L
389.625 142.889 L
390.013 195.071 L
390.4 115.593 L
390.788 77.059 L
391.175 129.606 L
391.563 80.27 L
391.95 71.921 L
392.337 127.98 L
392.725 138.714 L
393.112 129.606 L
393.5 163.762 L
393.888 71.921 L
394.275 122.016 L
394.663 110.088 L
395.05 195.071 L
395.438 142.889 L
395.825 163.762 L
396.212 92.197 L
396.6 152.377 L
396.987 106.836 L
397.375 122.016 L
397.763 96.326 L
398.15 96.326 L
398.538 152.377 L
398.925 177.677 L
399.313 127.98 L
399.7 177.677 L
400.087 122.016 L
400.475 213.857 L
400.862 106.836 L
401.25 138.714 L
401.638 205.508 L
402.025 163.762 L
402.413 163.762 L
402.8 113.667 L
403.188 253.218 L
403.575 138.714 L
403.962 106.836 L
404.35 142.889 L
404.737 205.508 L
405.125 217.435 L
405.513 122.016 L
405.9 106.836 L
406.288 163.762 L
406.675 129.606 L
407.063 163.762 L
407.45 177.677 L
407.837 134.861 L
408.225 138.714 L
408.612 96.326 L
409 152.377 L
409.388 101.143 L
409.775 149.847 L
410.163 163.762 L
410.55 226.381 L
410.938 105.317 L
411.325 138.714 L
411.712 101.143 L
412.1 115.593 L
412.487 113.667 L
412.875 138.714 L
413.263 115.593 L
413.65 163.762 L
414.038 101.143 L
414.425 92.197 L
414.813 129.606 L
415.2 152.377 L
415.587 163.762 L
415.975 138.714 L
416.362 106.836 L
416.75 122.016 L
417.138 163.762 L
417.525 88.619 L
417.913 106.836 L
418.3 149.847 L
418.688 138.714 L
419.075 226.381 L
419.462 129.606 L
419.85 163.762 L
420.237 122.016 L
420.625 149.847 L
421.013 152.377 L
421.4 175.147 L
421.788 134.861 L
422.175 152.377 L
422.563 138.714 L
422.95 101.143 L
423.337 195.071 L
423.725 175.147 L
424.112 77.059 L
424.5 149.847 L
424.888 129.606 L
425.275 188.81 L
425.663 96.326 L
426.05 56.415 L
426.438 138.714 L
426.825 129.606 L
427.212 152.377 L
427.6 129.606 L
427.987 177.677 L
428.375 80.27 L
428.763 67.992 L
429.15 163.762 L
429.538 138.714 L
429.925 163.762 L
430.313 84.065 L
430.7 96.326 L
431.087 129.606 L
431.475 163.762 L
431.862 115.593 L
432.25 149.847 L
432.638 101.143 L
433.025 138.714 L
433.413 113.667 L
433.8 71.921 L
434.188 101.143 L
434.575 110.088 L
434.962 122.016 L
435.35 115.593 L
435.737 122.016 L
436.125 122.016 L
436.513 188.81 L
436.9 195.071 L
437.288 142.889 L
437.675 113.667 L
438.063 149.847 L
438.45 122.016 L
438.837 110.088 L
439.225 115.593 L
439.612 163.762 L
440 85.488 L
440.388 106.836 L
440.775 163.762 L
441.163 129.606 L
441.55 163.762 L
441.938 80.27 L
442.325 175.147 L
442.712 149.847 L
443.1 134.861 L
443.487 149.847 L
443.875 115.593 L
444.263 88.619 L
444.65 116.798 L
445.038 77.059 L
445.425 122.016 L
445.813 71.921 L
446.2 142.889 L
446.587 96.326 L
446.975 96.326 L
447.362 134.861 L
447.75 106.836 L
448.138 106.836 L
448.525 101.143 L
448.913 127.98 L
449.3 149.847 L
449.688 134.861 L
450.075 74.306 L
450.462 96.326 L
450.85 71.921 L
451.237 142.889 L
451.625 149.847 L
452.013 142.889 L
452.4 188.81 L
452.788 152.377 L
453.175 149.847 L
453.563 106.836 L
453.95 149.847 L
454.337 163.762 L
454.725 149.847 L
455.112 163.762 L
455.5 163.762 L
455.888 149.847 L
456.275 152.377 L
456.663 96.326 L
457.05 163.762 L
457.438 110.088 L
457.825 115.593 L
458.212 101.143 L
458.6 80.27 L
458.987 115.593 L
459.375 149.847 L
459.763 71.921 L
460.15 152.377 L
460.538 53.258 L
460.925 195.071 L
461.313 129.606 L
461.7 96.326 L
462.087 122.016 L
462.475 85.488 L
462.862 138.714 L
463.25 142.889 L
463.638 110.088 L
464.025 96.326 L
464.413 57.791 L
464.8 188.81 L
465.188 138.714 L
465.575 152.377 L
465.962 115.593 L
466.35 110.088 L
466.737 53.258 L
467.125 101.143 L
467.513 163.762 L
467.9 217.435 L
468.288 163.762 L
468.675 138.714 L
469.063 138.714 L
469.45 163.762 L
469.837 177.677 L
470.225 92.197 L
470.612 177.677 L
471 152.377 L
471.388 101.143 L
471.775 110.088 L
472.163 110.088 L
472.55 149.847 L
472.938 129.606 L
473.325 205.508 L
473.712 122.016 L
474.1 113.667 L
474.487 84.065 L
474.875 205.508 L
475.263 142.889 L
475.65 152.377 L
476.038 177.677 L
476.425 129.606 L
476.813 129.606 L
477.2 105.317 L
477.587 106.836 L
477.975 195.071 L
478.362 195.071 L
478.75 152.377 L
479.138 217.435 L
479.525 122.016 L
479.913 115.593 L
480.3 113.667 L
480.688 205.508 L
481.075 163.762 L
481.462 122.016 L
481.85 142.889 L
482.237 56.415 L
482.625 149.847 L
483.013 152.377 L
483.4 101.143 L
483.788 177.677 L
484.175 163.762 L
484.563 177.677 L
484.95 115.593 L
485.337 105.317 L
485.725 115.593 L
486.112 101.143 L
486.5 85.488 L
486.888 188.81 L
487.275 122.016 L
487.663 59.397 L
488.05 154.128 L
488.438 115.593 L
488.825 129.606 L
489.212 177.677 L
489.6 253.218 L
489.987 88.619 L
490.375 175.147 L
490.763 122.016 L
491.15 113.667 L
491.538 142.889 L
491.925 163.762 L
492.313 152.377 L
492.7 163.762 L
493.087 205.508 L
493.475 122.016 L
493.862 177.677 L
494.25 110.088 L
494.638 195.071 L
495.025 177.677 L
495.413 163.762 L
495.8 122.016 L
496.188 129.606 L
496.575 152.377 L
496.962 152.377 L
497.35 138.714 L
497.737 115.593 L
498.125 122.016 L
498.513 101.143 L
498.9 149.847 L
499.288 188.81 L
499.675 96.326 L
500.063 195.071 L
500.45 177.677 L
500.837 115.593 L
501.225 96.326 L
501.612 122.016 L
502 177.677 L
502.388 122.016 L
502.775 152.377 L
503.163 129.606 L
503.55 163.762 L
503.938 92.197 L
504.325 110.088 L
504.712 84.065 L
505.1 195.071 L
505.487 142.889 L
505.875 177.677 L
506.263 129.606 L
506.65 138.714 L
507.038 142.889 L
507.425 110.088 L
507.813 115.593 L
508.2 129.606 L
508.587 77.059 L
508.975 175.147 L
509.362 149.847 L
509.75 134.861 L
510.138 122.016 L
510.525 152.377 L
510.913 101.143 L
511.3 177.677 L
511.688 138.714 L
512.075 115.593 L
512.463 134.861 L
512.85 177.677 L
513.237 205.508 L
513.625 122.016 L
514.013 188.81 L
514.4 101.143 L
514.787 188.81 L
515.175 253.218 L
515.563 149.847 L
515.95 113.667 L
516.338 163.762 L
516.725 163.762 L
517.112 205.508 L
517.5 106.836 L
517.888 138.714 L
518.275 142.889 L
518.662 149.847 L
519.05 205.508 L
519.438 134.861 L
519.825 113.667 L
520.213 88.619 L
520.6 129.606 L
520.987 101.143 L
521.375 115.593 L
521.763 152.377 L
522.15 129.606 L
522.537 149.847 L
522.925 253.218 L
523.313 149.847 L
523.7 226.381 L
524.088 205.508 L
524.475 105.317 L
524.862 122.016 L
525.25 101.143 L
525.638 96.326 L
526.025 188.81 L
526.412 195.071 L
526.8 175.147 L
527.188 205.508 L
527.575 163.762 L
527.963 115.593 L
528.35 122.016 L
528.737 188.81 L
529.125 77.059 L
529.513 110.088 L
529.9 122.016 L
530.287 205.508 L
530.675 138.714 L
531.063 80.27 L
531.45 122.016 L
531.838 163.762 L
532.225 152.377 L
532.612 195.071 L
533 138.714 L
533.388 163.762 L
533.775 205.508 L
534.162 110.088 L
534.55 152.377 L
534.938 92.197 L
535.325 129.606 L
535.713 253.218 L
536.1 101.143 L
536.487 149.847 L
536.875 129.606 L
537.263 142.889 L
537.65 80.27 L
538.037 152.377 L
538.425 138.714 L
538.813 127.98 L
539.2 195.071 L
539.588 115.593 L
539.975 115.593 L
540.362 105.317 L
540.75 110.088 L
541.138 116.798 L
541.525 152.377 L
541.912 129.606 L
542.3 92.197 L
542.688 92.197 L
543.075 96.326 L
543.463 177.677 L
543.85 115.593 L
544.237 88.619 L
544.625 122.016 L
545.013 127.98 L
545.4 195.071 L
545.787 163.762 L
546.175 106.836 L
546.563 138.714 L
546.95 142.889 L
547.338 142.889 L
547.725 163.762 L
548.112 80.27 L
548.5 149.847 L
548.888 138.714 L
549.275 110.088 L
549.662 149.847 L
550.05 163.762 L
550.438 77.059 L
550.825 205.508 L
551.213 106.836 L
551.6 152.377 L
551.987 188.81 L
552.375 149.847 L
552.763 96.326 L
553.15 142.889 L
553.537 92.197 L
553.925 115.593 L
554.313 177.677 L
554.7 77.059 L
555.088 129.606 L
555.475 88.619 L
555.862 101.143 L
556.25 188.81 L
556.638 113.667 L
557.025 115.593 L
557.412 149.847 L
557.8 142.889 L
558.188 217.435 L
558.575 163.762 L
558.963 205.508 L
559.35 177.677 L
559.737 115.593 L
560.125 129.606 L
560.513 96.326 L
560.9 88.619 L
561.287 152.377 L
561.675 84.065 L
562.063 69.833 L
562.45 142.889 L
562.838 101.143 L
563.225 96.326 L
563.612 177.677 L
564 163.762 L
564.388 138.714 L
564.775 96.326 L
565.162 205.508 L
565.55 163.762 L
565.938 149.847 L
566.325 106.836 L
566.713 205.508 L
567.1 129.606 L
567.487 149.847 L
567.875 129.606 L
568.263 138.714 L
568.65 129.606 L
569.037 138.714 L
569.425 110.088 L
569.813 149.847 L
570.2 257.69 L
570.588 127.98 L
570.975 195.071 L
571.362 205.508 L
571.75 163.762 L
572.138 195.071 L
572.525 122.016 L
572.912 138.714 L
573.3 115.593 L
573.688 85.488 L
574.075 188.81 L
574.463 71.921 L
574.85 77.059 L
575.237 129.606 L
575.625 129.606 L
576.013 138.714 L
576.4 116.798 L
576.787 88.619 L
577.175 188.81 L
577.563 163.762 L
577.95 152.377 L
578.338 138.714 L
578.725 129.606 L
579.112 163.762 L
579.5 138.714 L
579.888 138.714 L
580.275 115.593 L
580.662 101.143 L
581.05 101.143 L
581.438 113.667 L
581.825 233.339 L
582.213 129.606 L
582.6 152.377 L
582.987 129.606 L
583.375 101.143 L
583.763 122.016 L
584.15 163.762 L
584.537 129.606 L
584.925 152.377 L
585.313 177.677 L
585.7 149.847 L
586.088 113.667 L
586.475 122.016 L
586.862 92.197 L
587.25 177.677 L
587.638 163.762 L
588.025 96.326 L
588.412 142.889 L
588.8 253.218 L
589.188 177.677 L
589.575 195.071 L
589.963 177.677 L
590.35 163.762 L
590.737 177.677 L
591.125 122.016 L
591.513 163.762 L
591.9 163.762 L
592.287 122.016 L
592.675 175.147 L
593.063 149.847 L
593.45 142.889 L
593.838 195.071 L
594.225 129.606 L
594.612 106.836 L
595 92.197 L
595.388 195.071 L
595.775 177.677 L
596.162 163.762 L
596.55 152.377 L
596.938 152.377 L
597.325 113.667 L
597.713 163.762 L
598.1 122.016 L
598.487 113.667 L
598.875 138.714 L
599.263 177.677 L
599.65 149.847 L
600.037 105.317 L
600.425 105.317 L
600.813 205.508 L
601.2 122.016 L
601.588 163.762 L
601.975 96.326 L
602.362 163.762 L
602.75 63.571 L
603.138 142.889 L
603.525 177.677 L
603.912 205.508 L
604.3 134.861 L
604.688 113.667 L
605.075 129.606 L
605.463 113.667 L
605.85 129.606 L
606.237 226.381 L
606.625 127.98 L
607.013 163.762 L
607.4 205.508 L
607.787 110.088 L
608.175 138.714 L
608.563 106.836 L
608.95 115.593 L
609.338 122.016 L
609.725 138.714 L
610.112 149.847 L
610.5 122.016 L
610.888 226.381 L
611.275 154.128 L
611.662 152.377 L
612.05 205.508 L
612.438 152.377 L
612.825 138.714 L
613.213 195.071 L
613.6 122.016 L
613.987 110.088 L
614.375 134.861 L
614.763 129.606 L
615.15 129.606 L
615.537 82.725 L
615.925 122.016 L
616.313 110.088 L
616.7 195.071 L
617.088 67.992 L
617.475 142.889 L
617.862 152.377 L
618.25 226.381 L
618.638 134.861 L
619.025 152.377 L
619.412 149.847 L
619.8 152.377 L
620.188 134.861 L
620.575 129.606 L
620.963 149.847 L
621.35 127.98 L
621.737 233.339 L
622.125 152.377 L
622.513 177.677 L
622.9 122.016 L
623.287 122.016 L
623.675 129.606 L
624.063 195.071 L
624.45 122.016 L
624.838 175.147 L
625.225 177.677 L
625.612 152.377 L
626 152.377 L
626.388 113.667 L
626.775 177.677 L
627.162 205.508 L
627.55 188.81 L
627.938 195.071 L
628.325 175.147 L
628.713 177.677 L
629.1 163.762 L
629.487 134.861 L
629.875 122.016 L
630.263 122.016 L
630.65 226.381 L
631.037 88.619 L
631.425 149.847 L
631.813 163.762 L
632.2 163.762 L
632.588 94.185 L
632.975 163.762 L
633.362 175.147 L
633.75 134.861 L
634.138 96.326 L
634.525 129.606 L
634.912 195.071 L
635.3 177.677 L
635.688 152.377 L
636.075 177.677 L
636.463 149.847 L
636.85 110.088 L
637.237 188.81 L
637.625 217.435 L
638.013 163.762 L
638.4 152.377 L
638.787 127.98 L
639.175 101.143 L
639.563 101.143 L
639.95 163.762 L
640.338 253.218 L
640.725 142.889 L
641.112 152.377 L
641.5 84.065 L
641.888 205.508 L
642.275 163.762 L
642.662 205.508 L
643.05 149.847 L
643.438 163.762 L
643.825 163.762 L
644.213 257.69 L
644.6 163.762 L
644.987 113.667 L
645.375 149.847 L
645.763 163.762 L
646.15 163.762 L
646.537 129.606 L
646.925 152.377 L
647.313 129.606 L
647.7 142.889 L
648.088 205.508 L
648.475 142.889 L
648.862 152.377 L
649.25 113.667 L
649.638 205.508 L
650.025 253.218 L
650.412 289 L
650.8 163.762 L
651.188 145.871 L
651.575 226.381 L
651.963 205.508 L
652.35 138.714 L
652.737 127.98 L
653.125 149.847 L
653.513 163.762 L
653.9 110.088 L
654.287 175.147 L
654.675 122.016 L
655.063 96.326 L
655.45 122.016 L
655.838 163.762 L
656.225 177.677 L
656.612 152.377 L
657 195.071 L
657.388 163.762 L
657.775 142.889 L
658.162 163.762 L
658.55 163.762 L
658.938 142.889 L
659.325 122.016 L
659.713 205.508 L
660.1 152.377 L
660.487 82.725 L
660.875 142.889 L
661.263 217.435 L
661.65 188.81 L
662.037 96.326 L
662.425 129.606 L
662.813 177.677 L
663.2 152.377 L
663.588 113.667 L
663.975 154.128 L
664.362 152.377 L
664.75 163.762 L
665.138 154.128 L
665.525 217.435 L
665.912 77.059 L
666.3 84.065 L
666.688 205.508 L
667.075 138.714 L
667.463 142.889 L
667.85 106.836 L
668.237 188.81 L
668.625 163.762 L
669.013 122.016 L
669.4 106.836 L
669.787 177.677 L
670.175 152.377 L
670.563 195.071 L
670.95 88.619 L
671.338 113.667 L
671.725 163.762 L
672.112 113.667 L
672.5 134.861 L
672.888 213.857 L
673.275 129.606 L
673.662 96.326 L
674.05 101.143 L
674.438 163.762 L
674.825 122.016 L
675.213 122.016 L
675.6 116.798 L
675.987 152.377 L
676.375 127.98 L
676.763 195.071 L
677.15 163.762 L
677.537 129.606 L
677.925 177.677 L
678.313 163.762 L
678.7 257.69 L
679.088 110.088 L
679.475 122.016 L
679.862 149.847 L
680.25 205.508 L
680.638 205.508 L
681.025 115.593 L
681.412 122.016 L
681.8 205.508 L
682.188 195.071 L
682.575 217.435 L
682.963 226.381 L
683.35 226.381 L
683.737 226.381 L
684.125 101.143 L
684.513 129.606 L
684.9 175.147 L
685.287 122.016 L
685.675 115.593 L
686.063 110.088 L
686.45 106.836 L
686.838 163.762 L
687.225 149.847 L
687.612 177.677 L
688 152.377 L
688.388 205.508 L
688.775 163.762 L
689.162 226.381 L
689.55 152.377 L
689.938 226.381 L
690.325 145.871 L
690.713 205.508 L
691.1 177.677 L
691.487 142.889 L
691.875 129.606 L
692.263 101.143 L
692.65 163.762 L
693.037 152.377 L
693.425 88.619 L
693.813 138.714 L
694.2 188.81 L
694.588 149.847 L
694.975 188.81 L
695.362 253.218 L
695.75 226.381 L
696.138 69.833 L
696.525 289 L
696.912 129.606 L
697.3 205.508 L
697.688 138.714 L
698.075 132.452 L
698.463 138.714 L
698.85 163.762 L
699.237 163.762 L
699.625 138.714 L
700.013 106.836 L
700.4 195.071 L
700.787 188.81 L
701.175 122.016 L
701.563 142.889 L
701.95 129.606 L
702.338 205.508 L
702.725 205.508 L
703.112 205.508 L
703.5 122.016 L
703.888 134.861 L
704.275 205.508 L
704.662 205.508 L
705.05 74.306 L
705.438 122.016 L
705.825 195.071 L
706.213 149.847 L
706.6 105.317 L
706.987 195.071 L
707.375 226.381 L
707.763 152.377 L
708.15 195.071 L
708.537 138.714 L
708.925 134.861 L
709.313 122.016 L
709.7 129.606 L
710.088 152.377 L
710.475 177.677 L
710.862 142.889 L
711.25 88.619 L
711.638 122.016 L
712.025 101.143 L
712.412 122.016 L
712.8 149.847 L
713.188 115.593 L
713.575 152.377 L
713.963 233.339 L
714.35 253.218 L
714.737 149.847 L
715.125 188.81 L
715.513 129.606 L
715.9 138.714 L
716.287 152.377 L
716.675 129.606 L
717.063 115.593 L
717.45 233.339 L
717.838 217.435 L
718.225 122.016 L
718.612 129.606 L
719 122.016 L
719.388 163.762 L
719.775 217.435 L
720.162 101.143 L
720.55 205.508 L
720.938 152.377 L
721.325 138.714 L
721.713 205.508 L
722.1 177.677 L
722.487 129.606 L
722.875 110.088 L
723.263 138.714 L
723.65 134.861 L
724.037 163.762 L
724.425 163.762 L
724.813 129.606 L
725.2 127.98 L
725.588 152.377 L
725.975 129.606 L
726.362 163.762 L
726.75 152.377 L
727.138 80.27 L
727.525 163.762 L
727.912 163.762 L
728.3 138.714 L
728.688 92.197 L
729.075 129.606 L
729.463 122.016 L
729.85 129.606 L
730.237 163.762 L
730.625 163.762 L
731.013 127.98 L
731.4 152.377 L
731.787 217.435 L
732.175 110.088 L
732.563 106.836 L
732.95 149.847 L
733.338 205.508 L
733.725 163.762 L
734.112 163.762 L
734.5 138.714 L
734.888 205.508 L
735.275 77.059 L
735.662 177.677 L
736.05 134.861 L
736.438 115.593 L
736.825 253.218 L
737.213 122.016 L
737.6 106.836 L
737.987 129.606 L
738.375 163.762 L
738.763 175.147 L
739.15 113.667 L
739.537 129.606 L
739.925 188.81 L
740.313 129.606 L
740.7 177.677 L
741.088 105.317 L
741.475 205.508 L
741.862 195.071 L
742.25 205.508 L
742.638 92.197 L
743.025 175.147 L
743.412 152.377 L
743.8 177.677 L
744.188 101.143 L
744.575 163.762 L
744.963 115.593 L
745.35 177.677 L
745.737 195.071 L
746.125 152.377 L
746.513 177.677 L
746.9 127.98 L
747.287 122.016 L
747.675 84.065 L
748.063 142.889 L
748.45 152.377 L
748.838 149.847 L
749.225 175.147 L
749.612 152.377 L
750 115.593 L
750.388 152.377 L
750.775 134.861 L
751.162 138.714 L
751.55 163.762 L
751.938 149.847 L
752.325 129.606 L
752.713 138.714 L
753.1 115.593 L
753.487 188.81 L
753.875 106.836 L
754.263 101.143 L
754.65 96.326 L
755.037 205.508 L
755.425 226.381 L
755.813 113.667 L
756.2 177.677 L
756.588 138.714 L
756.975 195.071 L
757.362 138.714 L
757.75 142.889 L
758.138 77.059 L
758.525 106.836 L
758.912 163.762 L
759.3 175.147 L
759.688 253.218 L
760.075 163.762 L
760.463 142.889 L
760.85 152.377 L
761.237 149.847 L
761.625 177.677 L
762.013 122.016 L
762.4 142.889 L
762.787 129.606 L
763.175 163.762 L
763.563 152.377 L
763.95 149.847 L
764.338 163.762 L
764.725 163.762 L
765.112 138.714 L
765.5 115.593 L
765.888 253.218 L
766.275 152.377 L
766.662 181.653 L
767.05 138.714 L
767.438 101.143 L
767.825 163.762 L
768.213 127.98 L
768.6 177.677 L
768.987 175.147 L
769.375 163.762 L
769.763 134.861 L
770.15 152.377 L
770.537 149.847 L
770.925 177.677 L
771.313 116.798 L
771.7 96.326 L
772.088 163.762 L
772.475 134.861 L
772.862 134.861 L
773.25 152.377 L
773.638 142.889 L
774.025 142.889 L
774.412 106.836 L
774.8 205.508 L
775.188 115.593 L
775.575 82.725 L
775.963 138.714 L
776.35 129.606 L
776.737 92.197 L
777.125 217.435 L
777.513 205.508 L
777.9 195.071 L
778.287 92.197 L
778.675 163.762 L
779.063 101.143 L
779.45 177.677 L
779.838 129.606 L
780.225 149.847 L
780.612 205.508 L
781 129.606 L
781.388 195.071 L
781.775 163.762 L
782.162 92.197 L
782.55 226.381 L
782.938 195.071 L
783.325 257.69 L
783.713 205.508 L
784.1 110.088 L
784.487 163.762 L
784.875 188.81 L
785.263 122.016 L
785.65 163.762 L
786.037 122.016 L
786.425 175.147 L
786.813 129.606 L
787.2 195.071 L
787.588 142.889 L
787.975 122.016 L
788.362 134.861 L
788.75 188.81 L
789.138 106.836 L
789.525 217.435 L
789.912 226.381 L
790.3 177.677 L
790.688 177.677 L
791.075 138.714 L
791.463 188.81 L
791.85 213.857 L
792.237 205.508 L
792.625 163.762 L
793.013 163.762 L
793.4 163.762 L
793.787 101.143 L
794.175 129.606 L
794.563 205.508 L
794.95 163.762 L
795.338 96.326 L
795.725 138.714 L
796.112 152.377 L
796.5 115.593 L
796.888 129.606 L
797.275 188.81 L
797.662 152.377 L
798.05 205.508 L
798.438 205.508 L
798.825 226.381 L
799.213 163.762 L
799.6 205.508 L
799.987 195.071 L
800.375 122.016 L
800.763 106.836 L
801.15 177.677 L
801.537 127.98 L
801.925 195.071 L
802.313 163.762 L
802.7 177.677 L
803.088 163.762 L
803.475 129.606 L
803.862 138.714 L
804.25 129.606 L
804.638 134.861 L
805.025 149.847 L
805.412 149.847 L
805.8 163.762 L
806.188 106.836 L
806.575 163.762 L
806.963 106.836 L
807.35 152.377 L
807.737 177.677 L
808.125 163.762 L
808.513 129.606 L
808.9 134.861 L
809.287 138.714 L
809.675 134.861 L
810.063 129.606 L
810.45 142.889 L
810.838 122.016 L
811.225 152.377 L
811.612 163.762 L
812 138.714 L
812.388 115.593 L
812.775 129.606 L
813.162 149.847 L
813.55 115.593 L
813.938 122.016 L
814.325 188.81 L
814.713 132.452 L
815.1 175.147 L
815.487 163.762 L
815.875 289 L
816.263 226.381 L
816.65 142.889 L
817.037 129.606 L
817.425 106.836 L
817.813 163.762 L
818.2 163.762 L
818.588 175.147 L
818.975 163.762 L
819.362 113.667 L
819.75 205.508 L
820.138 138.714 L
820.525 152.377 L
820.912 188.81 L
821.3 217.435 L
821.688 122.016 L
822.075 149.847 L
822.463 129.606 L
822.85 92.197 L
823.237 195.071 L
823.625 145.871 L
824.013 188.81 L
824.4 105.317 L
824.787 163.762 L
825.175 138.714 L
825.563 195.071 L
825.95 152.377 L
826.338 115.593 L
826.725 122.016 L
827.112 175.147 L
827.5 152.377 L
827.888 152.377 L
828.275 129.606 L
828.662 163.762 L
829.05 177.677 L
829.438 253.218 L
829.825 188.81 L
830.213 195.071 L
830.6 94.185 L
830.987 101.143 L
831.375 122.016 L
831.763 96.326 L
832.15 226.381 L
832.537 127.98 L
832.925 122.016 L
833.313 134.861 L
833.7 129.606 L
834.088 195.071 L
834.475 154.128 L
834.862 163.762 L
835.25 122.016 L
835.638 96.326 L
836.025 188.81 L
836.412 163.762 L
836.8 122.016 L
837.188 163.762 L
837.575 217.435 L
837.963 142.889 L
838.35 149.847 L
838.737 110.088 L
839.125 84.065 L
839.513 134.861 L
839.9 195.071 L
840.287 129.606 L
840.675 177.677 L
841.063 195.071 L
841.45 163.762 L
841.838 142.889 L
842.225 110.088 L
842.612 138.714 L
843 106.836 L
843.388 163.762 L
843.775 177.677 L
844.162 122.016 L
844.55 74.306 L
844.938 205.508 L
845.325 163.762 L
845.713 205.508 L
846.1 132.452 L
846.487 115.593 L
846.875 142.889 L
847.263 152.377 L
847.65 149.847 L
848.037 163.762 L
848.425 205.508 L
848.813 152.377 L
849.2 195.071 L
849.588 163.762 L
849.975 96.326 L
850.362 149.847 L
850.75 115.593 L
851.138 149.847 L
851.525 152.377 L
851.912 92.197 L
852.3 163.762 L
852.688 163.762 L
853.075 149.847 L
853.463 110.088 L
853.85 177.677 L
854.237 205.508 L
854.625 116.798 L
855.013 177.677 L
855.4 152.377 L
855.787 129.606 L
856.175 113.667 L
856.563 226.381 L
856.95 110.088 L
857.338 101.143 L
857.725 205.508 L
858.112 152.377 L
858.5 226.381 L
858.888 142.889 L
859.275 138.714 L
859.662 129.606 L
860.05 257.69 L
860.438 177.677 L
860.825 163.762 L
861.213 82.725 L
861.6 163.762 L
861.987 163.762 L
862.375 177.677 L
862.763 152.377 L
863.15 188.81 L
863.537 177.677 L
863.925 129.606 L
864.313 188.81 L
864.7 195.071 L
865.088 149.847 L
865.475 175.147 L
865.862 142.889 L
866.25 122.016 L
866.638 195.071 L
867.025 149.847 L
867.412 177.677 L
867.8 138.714 L
868.188 163.762 L
868.575 195.071 L
868.963 94.185 L
869.35 134.861 L
869.737 195.071 L
870.125 205.508 L
870.513 138.714 L
870.9 149.847 L
871.287 138.714 L
871.675 138.714 L
872.063 195.071 L
872.45 188.81 L
872.838 149.847 L
873.225 163.762 L
873.612 134.861 L
874 129.606 L
874.388 205.508 L
874.775 92.197 L
875.162 122.016 L
875.55 175.147 L
875.938 80.27 L
876.325 188.81 L
876.713 142.889 L
877.1 122.016 L
877.487 217.435 L
877.875 142.889 L
878.263 152.377 L
878.65 188.81 L
879.037 226.381 L
879.425 149.847 L
879.813 188.81 L
880.2 152.377 L
880.588 177.677 L
880.975 138.714 L
881.362 101.143 L
881.75 110.088 L
882.138 138.714 L
882.525 122.016 L
882.912 122.016 L
883.3 205.508 L
883.688 138.714 L
884.075 115.593 L
884.463 152.377 L
884.85 205.508 L
885.237 217.435 L
885.625 163.762 L
886.013 188.81 L
886.4 152.377 L
886.787 94.185 L
887.175 149.847 L
887.563 122.016 L
887.95 181.653 L
888.338 188.81 L
888.725 138.714 L
889.112 129.606 L
889.5 115.593 L
889.888 152.377 L
890.275 152.377 L
890.662 163.762 L
891.05 149.847 L
891.438 226.381 L
891.825 122.016 L
892.213 105.317 L
892.6 205.508 L
892.987 163.762 L
893.375 205.508 L
893.763 163.762 L
894.15 177.677 L
894.537 106.836 L
894.925 92.197 L
895.313 138.714 L
895.7 74.306 L
896.088 67.992 L
896.475 92.197 L
896.862 122.016 L
897.25 129.606 L
897.638 138.714 L
898.025 217.435 L
898.412 127.98 L
898.8 101.143 L
899.188 138.714 L
899.575 101.143 L
899.963 177.677 L
900.35 188.81 L
900.737 110.088 L
901.125 80.27 L
901.513 63.571 L
901.9 96.326 L
902.287 122.016 L
902.675 67.992 L
903.063 177.677 L
903.45 175.147 L
903.838 163.762 L
904.225 129.606 L
904.612 138.714 L
905 163.762 L
S
GR
GS
1 0 0 RC
1 LJ
0.5 LW
N
169.525 96.642 M
169.913 94.912 L
170.3 93.256 L
170.688 91.368 L
171.075 90.024 L
171.462 89.789 L
171.85 88.187 L
172.238 86.985 L
172.625 86.336 L
173.012 84.969 L
173.4 84.375 L
173.788 83.378 L
174.175 82.973 L
174.563 82.392 L
174.95 81.511 L
175.337 80.971 L
175.725 80.419 L
176.113 79.71 L
176.5 78.928 L
176.887 78.209 L
177.275 77.347 L
177.663 76.698 L
178.05 76.112 L
178.438 75.345 L
178.825 74.608 L
179.212 73.901 L
179.6 73.258 L
179.988 72.045 L
180.375 70.533 L
180.762 68.487 L
181.15 66.85 L
181.538 65.745 L
181.925 64.589 L
182.313 64.044 L
182.7 62.29 L
183.087 60.845 L
183.475 59.208 L
183.863 58.432 L
184.25 57.566 L
184.637 56.586 L
185.025 54.949 L
185.413 53.537 L
185.8 52.555 L
186.188 51.634 L
186.575 50.878 L
186.962 49.844 L
187.35 48.978 L
187.738 48.51 L
188.125 46.999 L
188.512 45.865 L
188.9 45.047 L
189.288 44.858 L
189.675 44.635 L
190.063 44.438 L
190.45 44.438 L
190.837 44.193 L
191.225 43.326 L
191.613 43.326 L
192 43.305 L
192.387 43.022 L
192.775 43.022 L
193.163 42.531 L
193.55 42.355 L
193.938 41.777 L
194.325 41.35 L
194.712 41.386 L
195.1 41.152 L
195.488 40.963 L
195.875 40.74 L
196.262 40.607 L
196.65 40.448 L
197.038 40.448 L
197.425 40.285 L
197.813 40.088 L
198.2 40.088 L
198.587 40.088 L
198.975 40.088 L
199.363 39.955 L
199.75 39.859 L
200.137 39.859 L
200.525 40.073 L
200.913 40.073 L
201.3 39.95 L
201.688 40.139 L
202.075 40.397 L
202.462 40.397 L
202.85 40.397 L
203.238 40.586 L
203.625 40.586 L
204.012 40.586 L
204.4 40.475 L
204.788 40.698 L
205.175 40.575 L
205.563 40.575 L
205.95 40.968 L
206.337 41.226 L
206.725 41.226 L
207.113 41.402 L
207.5 41.402 L
207.887 41.402 L
208.275 41.566 L
208.663 41.838 L
209.05 41.838 L
209.438 42.072 L
209.825 42.072 L
210.212 42.072 L
210.6 42.072 L
210.988 42.072 L
211.375 42.254 L
211.762 42.079 L
212.15 41.845 L
212.538 41.845 L
212.925 42.091 L
213.313 42.091 L
213.7 42.091 L
214.087 42.091 L
214.475 41.886 L
214.863 41.915 L
215.25 42.077 L
215.637 42.077 L
216.025 42.077 L
216.413 42.3 L
216.8 42.3 L
217.188 43.037 L
217.575 43.037 L
217.962 43.037 L
218.35 43.037 L
218.738 43.037 L
219.125 43.037 L
219.512 43.037 L
219.9 43.219 L
220.288 43.005 L
220.675 43.005 L
221.063 43.496 L
221.45 43.308 L
221.837 43.049 L
222.225 43.049 L
222.613 43.049 L
223 42.86 L
223.387 42.86 L
223.775 42.86 L
224.163 42.86 L
224.55 42.85 L
224.938 43.055 L
225.325 43.055 L
225.712 42.662 L
226.1 42.404 L
226.488 42.617 L
226.875 42.638 L
227.262 42.927 L
227.65 43.541 L
228.038 43.377 L
228.425 43.35 L
228.813 43.35 L
229.2 43.116 L
229.587 43.116 L
229.975 43.116 L
230.363 43.405 L
230.75 43.405 L
231.137 43.223 L
231.525 43.223 L
231.913 43.223 L
232.3 43.437 L
232.688 43.405 L
233.075 43.832 L
233.462 44.045 L
233.85 44.045 L
234.238 44.259 L
234.625 44.054 L
235.012 43.703 L
235.4 43.703 L
235.788 43.703 L
236.175 43.48 L
236.563 43.48 L
236.95 42.977 L
237.337 43.223 L
237.725 43.436 L
238.113 43.864 L
238.5 43.864 L
238.887 43.864 L
239.275 43.864 L
239.663 43.915 L
240.05 43.915 L
240.438 43.915 L
240.825 43.424 L
241.212 43.424 L
241.6 43.424 L
241.988 44.038 L
242.375 45.348 L
242.762 45.621 L
243.15 45.91 L
243.538 45.91 L
243.925 46.168 L
244.313 46.244 L
244.7 46.273 L
245.087 46.273 L
245.475 46.273 L
245.863 46.273 L
246.25 46.059 L
246.637 45.863 L
247.025 45.574 L
247.413 45.451 L
247.8 45.844 L
248.188 45.598 L
248.575 45.598 L
248.962 45.949 L
249.35 46.768 L
249.738 47.057 L
250.125 47.469 L
250.512 49.434 L
250.9 49.434 L
251.288 49.741 L
251.675 49.916 L
252.063 50.22 L
252.45 50.873 L
252.837 50.937 L
253.225 50.947 L
253.613 50.947 L
254 51.388 L
254.387 51.661 L
254.775 52.794 L
255.163 52.983 L
255.55 53.529 L
255.938 54.511 L
256.325 54.7 L
256.712 54.712 L
257.1 55.519 L
257.487 55.578 L
257.875 56.379 L
258.263 56.825 L
258.65 57.218 L
259.038 57.393 L
259.425 57.16 L
259.813 57.405 L
260.2 57.405 L
260.587 58.633 L
260.975 59.211 L
261.362 59.825 L
261.75 59.484 L
262.138 58.174 L
262.525 59.034 L
262.913 59.237 L
263.3 60.464 L
263.688 61.679 L
264.075 62.166 L
264.462 62.914 L
264.85 63.569 L
265.237 64.224 L
265.625 64.513 L
266.013 66.024 L
266.4 66.351 L
266.788 66.624 L
267.175 67.536 L
267.563 67.845 L
267.95 69.073 L
268.337 70.476 L
268.725 71.465 L
269.112 70.892 L
269.5 70.954 L
269.888 70.907 L
270.275 69.41 L
270.663 69.669 L
271.05 70.18 L
271.438 71.057 L
271.825 71.85 L
272.212 72.323 L
272.6 72.139 L
272.987 72.898 L
273.375 74.301 L
273.763 75.181 L
274.15 76.247 L
274.538 75.981 L
274.925 77.02 L
275.313 77.395 L
275.7 77.333 L
276.087 78.782 L
276.475 81.215 L
276.862 80.938 L
277.25 80.938 L
277.638 81.113 L
278.025 81.649 L
278.413 82.767 L
278.8 84.824 L
279.188 85.479 L
279.575 86.286 L
279.962 89.356 L
280.35 90.092 L
280.737 90.824 L
281.125 92.443 L
281.513 92.716 L
281.9 93.491 L
282.288 94.404 L
282.675 94.895 L
283.063 96.737 L
283.45 96.901 L
283.837 97.018 L
284.225 97.822 L
284.612 97.942 L
285 98.515 L
285.388 99.279 L
285.775 99.951 L
286.163 100.379 L
286.55 101.158 L
286.938 100.807 L
287.325 102.373 L
287.712 102.373 L
288.1 102.022 L
288.487 101.296 L
288.875 102.103 L
289.263 104.822 L
289.65 105.323 L
290.038 106.901 L
290.425 107.625 L
290.813 107.323 L
291.2 108.057 L
291.587 107.73 L
291.975 107.482 L
292.362 108.157 L
292.75 109.407 L
293.138 109.515 L
293.525 109.766 L
293.913 109.409 L
294.3 109.882 L
294.688 110.7 L
295.075 111.565 L
295.462 111.565 L
295.85 111.714 L
296.237 110.017 L
296.625 111.288 L
297.013 113.471 L
297.4 112.559 L
297.788 112.98 L
298.175 113.106 L
298.563 113.329 L
298.95 114.46 L
299.337 116.355 L
299.725 114.418 L
300.112 112.781 L
300.5 113.927 L
300.888 114.423 L
301.275 115.515 L
301.663 116.628 L
302.05 117.31 L
302.438 118.375 L
302.825 118.988 L
303.212 118.404 L
303.6 118.739 L
303.987 120.227 L
304.375 120.963 L
304.763 121.138 L
305.15 122.05 L
305.538 120.569 L
305.925 122.269 L
306.313 122.11 L
306.7 123.289 L
307.087 122.156 L
307.475 123.657 L
307.862 123.525 L
308.25 124.876 L
308.638 124.478 L
309.025 122.542 L
309.413 122.369 L
309.8 122.555 L
310.188 125.665 L
310.575 126.683 L
310.962 125.95 L
311.35 125.213 L
311.737 127.191 L
312.125 127.437 L
312.513 125.818 L
312.9 125.359 L
313.288 125.359 L
313.675 125.605 L
314.063 126.051 L
314.45 126.461 L
314.837 126.312 L
315.225 126.373 L
315.612 125.343 L
316 127.43 L
316.388 127.43 L
316.775 125.588 L
317.163 126.407 L
317.55 126.137 L
317.938 127.229 L
318.325 125.475 L
318.712 124.303 L
319.1 123.142 L
319.487 122.663 L
319.875 123.491 L
320.263 121.902 L
320.65 119.929 L
321.038 121.567 L
321.425 120.73 L
321.813 119.311 L
322.2 118.668 L
322.587 116.388 L
322.975 117.121 L
323.362 117.203 L
323.75 115.715 L
324.138 116.25 L
324.525 115.899 L
324.913 117.209 L
325.3 118.472 L
325.688 117.905 L
326.075 118.352 L
326.462 116.821 L
326.85 117.473 L
327.237 116.928 L
327.625 118.735 L
328.013 119.718 L
328.4 121.518 L
328.788 121.896 L
329.175 122.551 L
329.563 121.956 L
329.95 119.091 L
330.337 120.235 L
330.725 120.717 L
331.112 121.811 L
331.5 119.724 L
331.888 120.25 L
332.275 120.864 L
332.663 120.732 L
333.05 120.174 L
333.438 120.174 L
333.825 121.335 L
334.212 119.635 L
334.6 120.181 L
334.987 121.927 L
335.375 123.627 L
335.763 123.627 L
336.15 124.036 L
336.538 125.655 L
336.925 127.074 L
337.313 130.15 L
337.7 129.059 L
338.087 131.427 L
338.475 132.45 L
338.862 131.278 L
339.25 133.079 L
339.638 133.262 L
340.025 136.079 L
340.413 136.244 L
340.8 135.426 L
341.188 136.829 L
341.575 137.305 L
341.962 138.581 L
342.35 138.964 L
342.737 138.689 L
343.125 137.757 L
343.513 139.245 L
343.9 140.269 L
344.288 141.002 L
344.675 138.861 L
345.063 138.683 L
345.45 139.249 L
345.837 140.638 L
346.225 141.276 L
346.612 140.473 L
347 139.272 L
347.388 138.59 L
347.775 136.871 L
348.163 135.818 L
348.55 135.29 L
348.938 134.545 L
349.325 134.42 L
349.712 134.325 L
350.1 133.12 L
350.487 134.532 L
350.875 134.42 L
351.263 134.882 L
351.65 134.531 L
352.038 138.215 L
352.425 138.767 L
352.813 138.522 L
353.2 138.113 L
353.587 136.505 L
353.975 138.478 L
354.362 139.242 L
354.75 138.151 L
355.138 138.424 L
355.525 136.991 L
355.913 135.875 L
356.3 136.098 L
356.688 137.053 L
357.075 134.481 L
357.462 134.89 L
357.85 134.549 L
358.237 133.73 L
358.625 134.426 L
359.013 133.444 L
359.4 134.151 L
359.788 131.941 L
360.175 132.806 L
360.563 135.261 L
360.95 135.261 L
361.337 134.703 L
361.725 133.364 L
362.112 134.257 L
362.5 133.638 L
362.888 134.243 L
363.275 132.606 L
363.663 130.67 L
364.05 130.017 L
364.438 130.017 L
364.825 130.91 L
365.212 130.24 L
365.6 129.023 L
365.987 129.321 L
366.375 131.017 L
366.763 131.672 L
367.15 133.309 L
367.538 135.356 L
367.925 137.022 L
368.313 137.677 L
368.7 140.058 L
369.087 139.248 L
369.475 140.08 L
369.862 139.74 L
370.25 137.448 L
370.638 138.006 L
371.025 137.595 L
371.413 137.244 L
371.8 133.844 L
372.188 133.844 L
372.575 135.318 L
372.962 136.464 L
373.35 137.58 L
373.737 136.637 L
374.125 135.202 L
374.513 134.32 L
374.9 134.32 L
375.288 133.576 L
375.675 134.469 L
376.063 133.524 L
376.45 130.543 L
376.837 130.87 L
377.225 130.163 L
377.612 128.774 L
378 129.92 L
378.388 130.084 L
378.775 129.838 L
379.163 129.303 L
379.55 129.584 L
379.938 129.844 L
380.325 128.002 L
380.712 127.058 L
381.1 126.586 L
381.487 127.032 L
381.875 125.172 L
382.263 124.934 L
382.65 125.705 L
383.038 126.033 L
383.425 126.685 L
383.813 128.008 L
384.2 127.529 L
384.587 126.487 L
384.975 126.105 L
385.362 127.663 L
385.75 128.072 L
386.138 127.849 L
386.525 127.264 L
386.913 125.813 L
387.3 123.879 L
387.688 122.446 L
388.075 121.942 L
388.462 119.802 L
388.85 121.332 L
389.237 122.096 L
389.625 122.717 L
390.013 124.791 L
390.4 124.642 L
390.788 127.046 L
391.175 127.333 L
391.563 127.786 L
391.95 129.587 L
392.337 129.587 L
392.725 130.078 L
393.112 129.096 L
393.5 131.52 L
393.888 131.973 L
394.275 132.557 L
394.663 131.875 L
395.05 134.256 L
395.438 135.532 L
395.825 135.657 L
396.212 136.295 L
396.6 136.786 L
396.987 137.233 L
397.375 138.349 L
397.763 139.113 L
398.15 139.529 L
398.538 140.265 L
398.925 139.888 L
399.313 140.366 L
399.7 139.547 L
400.087 138.661 L
400.475 139.605 L
400.862 142.533 L
401.25 142.057 L
401.638 143.203 L
402.025 143.776 L
402.413 143.533 L
402.8 143.042 L
403.188 143.22 L
403.575 142.276 L
403.962 144.077 L
404.35 143.667 L
404.737 143.317 L
405.125 142.033 L
405.513 142.219 L
405.9 142.219 L
406.288 143.131 L
406.675 142.238 L
407.063 142.536 L
407.45 143.354 L
407.837 143.203 L
408.225 143.409 L
408.612 143.36 L
409 142.596 L
409.388 144.525 L
409.775 143.583 L
410.163 144.401 L
410.55 142.6 L
410.938 143.444 L
411.325 143.712 L
411.712 143.116 L
412.1 142.549 L
412.487 142.326 L
412.875 142.817 L
413.263 139.836 L
413.65 140.941 L
414.038 142.28 L
414.425 140.989 L
414.813 139.898 L
415.2 138.176 L
415.587 139.485 L
415.975 139.279 L
416.362 137.174 L
416.75 137.353 L
417.138 136.683 L
417.525 136.187 L
417.913 136.084 L
418.3 136.848 L
418.688 136.533 L
419.075 134.879 L
419.462 136.107 L
419.85 135.888 L
420.237 135.888 L
420.625 133.098 L
421.013 132.921 L
421.4 132.743 L
421.788 133.971 L
422.175 133.971 L
422.563 134.68 L
422.95 133.943 L
423.337 134.397 L
423.725 133.415 L
424.112 132.842 L
424.5 133.017 L
424.888 132.634 L
425.275 132.039 L
425.663 131.094 L
426.05 130.767 L
426.438 131.065 L
426.825 132.374 L
427.212 132.988 L
427.6 134.052 L
427.987 134.186 L
428.375 134.186 L
428.763 133.859 L
429.15 131.579 L
429.538 131.304 L
429.925 131.304 L
430.313 130.588 L
430.7 129.744 L
431.087 129.968 L
431.475 129.075 L
431.862 129.641 L
432.25 128.227 L
432.638 128.942 L
433.025 129.897 L
433.413 128.716 L
433.8 128.22 L
434.188 128.976 L
434.575 127.775 L
434.962 127.524 L
435.35 125.333 L
435.737 125.837 L
436.125 126.141 L
436.513 126.222 L
436.9 125.57 L
437.288 124.471 L
437.675 124.574 L
438.063 123.185 L
438.45 123.706 L
438.837 124.356 L
439.225 123.654 L
439.612 123.872 L
440 123.306 L
440.388 123.114 L
440.775 123.114 L
441.163 121.983 L
441.55 121.574 L
441.938 122.246 L
442.325 122.109 L
442.712 123.828 L
443.1 124.096 L
443.487 124.805 L
443.875 125.49 L
444.263 126.445 L
444.65 127.497 L
445.038 128.043 L
445.425 128.988 L
445.813 129.806 L
446.2 130.352 L
446.587 129.638 L
446.975 127.701 L
447.362 128.111 L
447.75 128.04 L
448.138 127.369 L
448.525 126.96 L
448.913 126.375 L
449.3 126.375 L
449.688 126.102 L
450.075 125.836 L
450.462 126.729 L
450.85 124.562 L
451.237 125.846 L
451.625 125.176 L
452.013 125.491 L
452.4 124.449 L
452.788 123.187 L
453.175 123.263 L
453.563 123.126 L
453.95 123.018 L
454.337 123.17 L
454.725 122.013 L
455.112 124.204 L
455.5 124.531 L
455.888 126.109 L
456.275 125.573 L
456.663 125.843 L
457.05 124.999 L
457.438 124.338 L
457.825 125.454 L
458.212 127.623 L
458.6 128.85 L
458.987 129.061 L
459.375 128.843 L
459.763 129.409 L
460.15 131.436 L
460.538 131.355 L
460.925 133.429 L
461.313 133.615 L
461.7 132.66 L
462.087 132.017 L
462.475 130.473 L
462.862 130.424 L
463.25 130.027 L
463.638 131.962 L
464.025 131.416 L
464.413 130.434 L
464.8 129.144 L
465.188 129.962 L
465.575 129.553 L
465.962 129.603 L
466.35 130.099 L
466.737 130.751 L
467.125 130.082 L
467.513 129.988 L
467.9 129.816 L
468.288 131.658 L
468.675 133.909 L
469.063 134.63 L
469.45 135.955 L
469.837 136.938 L
470.225 136.217 L
470.612 137.401 L
471 137.606 L
471.388 138.275 L
471.775 138.779 L
472.163 139.188 L
472.55 138.618 L
472.938 138.837 L
473.325 139.023 L
473.712 138.847 L
474.1 140.442 L
474.487 142.52 L
474.875 142.302 L
475.263 141.849 L
475.65 140.926 L
476.038 140.926 L
476.425 140.75 L
476.813 141.382 L
477.2 143.101 L
477.587 142.283 L
477.975 139.184 L
478.362 138.995 L
478.75 138.542 L
479.138 138.363 L
479.525 138.636 L
479.913 140.117 L
480.3 140.047 L
480.688 139.997 L
481.075 139.402 L
481.462 139.648 L
481.85 140.291 L
482.237 141.343 L
482.625 141.393 L
483.013 142.063 L
483.4 142.063 L
483.788 142.063 L
484.175 143.318 L
484.563 143.828 L
484.95 143.623 L
485.337 144.305 L
485.725 144.529 L
486.112 143.437 L
486.5 143.437 L
486.888 143.884 L
487.275 144.807 L
487.663 145.432 L
488.05 143.873 L
488.438 142.441 L
488.825 141.436 L
489.212 140.111 L
489.6 141.421 L
489.987 141.043 L
490.375 142.639 L
490.763 142.093 L
491.15 141.149 L
491.538 140.645 L
491.925 140.236 L
492.313 142.613 L
492.7 142.068 L
493.087 142.068 L
493.475 142.626 L
493.862 142.353 L
494.25 140.95 L
494.638 139.624 L
495.025 139.006 L
495.413 140.766 L
495.8 141.301 L
496.188 142.802 L
496.575 143.667 L
496.962 142.685 L
497.35 143.094 L
497.737 144.088 L
498.125 143.333 L
498.513 143.607 L
498.9 142.577 L
499.288 142.527 L
499.675 140.5 L
500.063 141.407 L
500.45 140.365 L
500.837 140.961 L
501.225 140.715 L
501.612 141.397 L
502 140.906 L
502.388 140.185 L
502.775 139.618 L
503.163 139.072 L
503.55 140.71 L
503.938 139.618 L
504.325 141.162 L
504.712 139.32 L
505.1 139.538 L
505.487 141.292 L
505.875 141.838 L
506.263 141.525 L
506.65 141.749 L
507.038 141.972 L
507.425 143.282 L
507.813 143.11 L
508.2 143.437 L
508.587 144.256 L
508.975 144.256 L
509.362 144.583 L
509.75 145.339 L
510.138 143.743 L
510.525 141.996 L
510.913 142.271 L
511.3 142.366 L
511.688 142.24 L
512.075 141.744 L
512.463 141.892 L
512.85 141.843 L
513.237 144.267 L
513.625 143.994 L
514.013 146.625 L
514.4 148.496 L
514.787 148.912 L
515.175 147.48 L
515.563 146.661 L
515.95 145.066 L
516.338 146.227 L
516.725 147.332 L
517.112 147.965 L
517.5 149.836 L
517.888 150.78 L
518.275 150.505 L
518.662 151.387 L
519.05 151.655 L
519.438 150.228 L
519.825 149.742 L
520.213 149.742 L
520.6 150.784 L
520.987 151.52 L
521.375 149.61 L
521.763 149.283 L
522.15 150.228 L
522.537 150.571 L
522.925 150.912 L
523.313 149.602 L
523.7 150.421 L
524.088 150.748 L
524.475 150.924 L
524.862 150.209 L
525.25 147.052 L
525.638 146.655 L
526.025 149.391 L
526.412 148.164 L
526.8 147.891 L
527.188 146.403 L
527.575 147.109 L
527.963 145.964 L
528.35 146.15 L
528.737 145.931 L
529.125 144.411 L
529.513 145.592 L
529.9 145.629 L
530.287 146.158 L
530.675 145.682 L
531.063 145.858 L
531.45 145.881 L
531.838 145.881 L
532.225 145.881 L
532.612 144.751 L
533 141.594 L
533.388 140.544 L
533.775 139.589 L
534.162 137.826 L
534.55 137.499 L
534.938 137.499 L
535.325 138.025 L
535.713 139.961 L
536.1 139.47 L
536.487 137.74 L
536.875 137.025 L
537.263 135.798 L
537.65 135.388 L
538.037 136.333 L
538.425 135.514 L
538.813 134.75 L
539.2 135.959 L
539.588 135.959 L
539.975 136.505 L
540.362 135.686 L
540.75 134.477 L
541.138 136.933 L
541.525 136.635 L
541.912 136.412 L
542.3 137.127 L
542.688 136.24 L
543.075 135.409 L
543.463 134.999 L
543.85 132.778 L
544.237 132.886 L
544.625 133.382 L
545.013 133.085 L
545.4 133.085 L
545.787 129.857 L
546.175 129.857 L
546.563 130.621 L
546.95 130.309 L
547.338 129.774 L
547.725 131.138 L
548.112 130.952 L
548.5 132.495 L
548.888 133.197 L
549.275 133.402 L
549.662 134.619 L
550.05 134.619 L
550.438 135.095 L
550.825 134.825 L
551.213 134.273 L
551.6 134.273 L
551.987 133.38 L
552.375 132.941 L
552.763 133.935 L
553.15 134.03 L
553.537 132.435 L
553.925 133.652 L
554.313 135.125 L
554.7 135.453 L
555.088 134.832 L
555.475 135.037 L
555.862 135.037 L
556.25 135.88 L
556.638 135.255 L
557.025 136.483 L
557.412 136.222 L
557.8 135.95 L
558.188 136.917 L
558.575 136.699 L
558.963 136.52 L
559.35 137.081 L
559.737 136.302 L
560.125 136.029 L
560.513 139.571 L
560.9 138.051 L
561.287 139.781 L
561.675 140.822 L
562.063 140.331 L
562.45 141.218 L
562.838 141.722 L
563.225 141.64 L
563.612 142.099 L
564 141.508 L
564.388 141.727 L
564.775 141.626 L
565.162 140.596 L
565.55 141.399 L
565.938 141.957 L
566.325 140.975 L
566.713 141.037 L
567.1 140.508 L
567.487 141.272 L
567.875 141.681 L
568.263 140.405 L
568.65 139.914 L
569.037 138.426 L
569.425 138.153 L
569.813 138.606 L
570.2 138.785 L
570.588 139.163 L
570.975 139.408 L
571.362 138.404 L
571.75 138.984 L
572.138 142.19 L
572.525 141.93 L
572.912 142.934 L
573.3 143.587 L
573.688 142.086 L
574.075 141.268 L
574.463 141.759 L
574.85 142.411 L
575.237 141.369 L
575.625 141.642 L
576.013 141.642 L
576.4 141.776 L
576.787 140.139 L
577.175 139.406 L
577.563 139.951 L
577.95 140.621 L
578.338 139.79 L
578.725 140.05 L
579.112 142.296 L
579.5 143.621 L
579.888 144.508 L
580.275 142.939 L
580.662 143.64 L
581.05 143.299 L
581.438 141.662 L
581.825 141.662 L
582.213 141.048 L
582.6 141.048 L
582.987 141.763 L
583.375 142.434 L
583.763 143.56 L
584.15 143.683 L
584.537 144.814 L
584.925 145.397 L
585.313 144.664 L
585.7 145.948 L
586.088 146.712 L
586.475 147.632 L
586.862 148.883 L
587.25 148.168 L
587.638 147.186 L
588.025 147.409 L
588.412 147.082 L
588.8 146.769 L
589.188 146.278 L
589.575 147.042 L
589.963 147.26 L
590.35 147.059 L
590.737 147.141 L
591.125 149.187 L
591.513 149.351 L
591.9 147.987 L
592.287 147.334 L
592.675 147.557 L
593.063 146.262 L
593.45 147.081 L
593.838 148.172 L
594.225 148.991 L
594.612 149.094 L
595 148.335 L
595.388 147.392 L
595.775 146.683 L
596.162 146.996 L
596.55 149.042 L
596.938 149.744 L
597.325 149.471 L
597.713 150.289 L
598.1 150.559 L
598.487 150.477 L
598.875 147.607 L
599.263 146.39 L
599.65 144.957 L
600.037 144.193 L
600.425 143.92 L
600.813 142.829 L
601.2 144.875 L
601.588 144.686 L
601.975 144.463 L
602.362 146.1 L
602.75 145.654 L
603.138 145.436 L
603.525 146.459 L
603.912 145.026 L
604.3 144.644 L
604.688 145.193 L
605.075 145.927 L
605.463 144.643 L
605.85 142.781 L
606.237 141.963 L
606.625 141.133 L
607.013 141.971 L
607.4 141.075 L
607.787 140.666 L
608.175 141.261 L
608.563 143.471 L
608.95 143.396 L
609.338 142.899 L
609.725 142.899 L
610.112 143.822 L
610.5 144.401 L
610.888 142.913 L
611.275 143.459 L
611.662 142.757 L
612.05 145.444 L
612.438 145.221 L
612.825 147.458 L
613.213 147.049 L
613.6 145.957 L
613.987 144.469 L
614.375 145.65 L
614.763 145.813 L
615.15 146.706 L
615.537 147.961 L
615.925 148.408 L
616.313 146.957 L
616.7 146.676 L
617.088 146.949 L
617.475 146.949 L
617.862 148.493 L
618.25 149.598 L
618.638 150.937 L
619.025 152.154 L
619.412 152.973 L
619.8 152.897 L
620.188 152.352 L
620.575 152.352 L
620.963 152.352 L
621.35 151.067 L
621.737 151.018 L
622.125 150.199 L
622.513 150.422 L
622.9 149.549 L
623.287 148.935 L
623.675 149.977 L
624.063 150.463 L
624.45 149.707 L
624.838 149.707 L
625.225 150.991 L
625.612 152.853 L
626 153.448 L
626.388 154.773 L
626.775 153.886 L
627.162 154.712 L
627.55 155.612 L
627.938 156.888 L
628.325 155.66 L
628.713 156.003 L
629.1 155.525 L
629.487 154.57 L
629.875 153.566 L
630.263 154.132 L
630.65 156.556 L
631.037 156.42 L
631.425 156.898 L
631.813 153.971 L
632.2 155.013 L
632.588 154.74 L
632.975 156.377 L
633.362 156.923 L
633.75 157.592 L
634.138 156.979 L
634.525 159.639 L
634.912 159.416 L
635.3 158.161 L
635.688 158.111 L
636.075 158.334 L
636.463 159.316 L
636.85 158.374 L
637.237 157.332 L
637.625 156.171 L
638.013 155.148 L
638.4 155.743 L
638.787 155.061 L
639.175 154.838 L
639.563 154.422 L
639.95 156.059 L
640.338 158.632 L
640.725 159.86 L
641.112 161.333 L
641.5 161.255 L
641.888 162.483 L
642.275 163.302 L
642.662 164.175 L
643.05 163.473 L
643.438 162.977 L
643.825 163.544 L
644.213 163.814 L
644.6 164.707 L
644.987 163.274 L
645.375 161.679 L
645.763 161.084 L
646.15 160.811 L
646.537 161.357 L
646.925 162.186 L
647.313 162.309 L
647.7 161.256 L
648.088 160.847 L
648.475 161.07 L
648.862 161.772 L
649.25 162.59 L
649.638 163 L
650.025 163.818 L
650.412 161.841 L
650.8 160.661 L
651.188 160.475 L
651.575 163.09 L
651.963 162.763 L
652.35 161.44 L
652.737 159.952 L
653.125 160.498 L
653.513 160.275 L
653.9 159.292 L
654.287 157.262 L
654.675 157.039 L
655.063 158.021 L
655.45 158.105 L
655.838 159.157 L
656.225 157.457 L
656.612 156.564 L
657 157.606 L
657.388 157.785 L
657.775 157.785 L
658.162 155.85 L
658.55 156.75 L
658.938 156.973 L
659.325 157.137 L
659.713 155.202 L
660.1 153.721 L
660.487 151.042 L
660.875 151.656 L
661.263 150.534 L
661.65 148.324 L
662.037 147.505 L
662.425 147.014 L
662.813 147.149 L
663.2 148.404 L
663.588 147.734 L
663.975 147.464 L
664.362 146.013 L
664.75 146.832 L
665.138 147.336 L
665.525 147.336 L
665.912 146.415 L
666.3 145.919 L
666.688 145.44 L
667.075 145.44 L
667.463 145.44 L
667.85 145.18 L
668.237 145.453 L
668.625 145.453 L
669.013 147.704 L
669.4 147.47 L
669.787 145.833 L
670.175 145.783 L
670.563 148.191 L
670.95 149.418 L
671.338 147.421 L
671.725 146.112 L
672.112 148.253 L
672.5 149.536 L
672.888 150.316 L
673.275 151.767 L
673.662 153.977 L
674.05 155.394 L
674.438 154.389 L
674.825 153.719 L
675.213 154.132 L
675.6 152.261 L
675.987 153.016 L
676.375 153.526 L
676.763 151.592 L
677.15 152.083 L
677.537 152.219 L
677.925 153.608 L
678.313 152.894 L
678.7 153.712 L
679.088 154.531 L
679.475 156.875 L
679.862 156.379 L
680.25 157.83 L
680.638 156.865 L
681.025 159.157 L
681.412 160.412 L
681.8 160.003 L
682.188 160.316 L
682.575 159.654 L
682.963 158.672 L
683.35 159.119 L
683.737 158.968 L
684.125 159.704 L
684.513 160.195 L
684.9 160.741 L
685.287 162.051 L
685.675 164.726 L
686.063 166.177 L
686.45 165.037 L
686.838 166.878 L
687.225 166.209 L
687.612 167.697 L
688 166.933 L
688.388 166.319 L
688.775 163.986 L
689.162 165.039 L
689.55 165.857 L
689.938 165.639 L
690.325 163.704 L
690.713 163.499 L
691.1 164.935 L
691.487 164.935 L
691.875 163.707 L
692.263 162.424 L
692.65 162.19 L
693.037 161.78 L
693.425 161.371 L
693.813 159.325 L
694.2 159.986 L
694.588 161.474 L
694.975 162.069 L
695.362 161.134 L
695.75 161.26 L
696.138 162.926 L
696.525 163.77 L
696.912 162.624 L
697.3 163.51 L
697.688 164.465 L
698.075 164.465 L
698.463 164.261 L
698.85 163.77 L
699.237 161.975 L
699.625 161.38 L
700.013 159.482 L
700.4 159.61 L
700.787 159.064 L
701.175 158.382 L
701.563 157.318 L
701.95 157.169 L
702.338 157.169 L
702.725 156.35 L
703.112 156.301 L
703.5 156.83 L
703.888 157.098 L
704.275 157.971 L
704.662 159.998 L
705.05 159.234 L
705.438 157.971 L
705.825 156.073 L
706.213 157.424 L
706.6 154.745 L
706.987 154.745 L
707.375 152.982 L
707.763 154.837 L
708.15 156.504 L
708.537 156.176 L
708.925 155.507 L
709.313 154.688 L
709.7 155.179 L
710.088 157.348 L
710.475 155.506 L
710.862 155.833 L
711.25 156.429 L
711.638 156.347 L
712.025 157.835 L
712.412 157.289 L
712.8 155.801 L
713.188 153.93 L
713.575 154.258 L
713.963 154.258 L
714.35 153.439 L
714.737 152.621 L
715.125 153.705 L
715.513 153.822 L
715.9 152.985 L
716.287 152.588 L
716.675 153.734 L
717.063 152.897 L
717.45 150.032 L
717.838 150.255 L
718.225 149.641 L
718.612 149.641 L
719 148.804 L
719.388 148.953 L
719.775 148.804 L
720.162 148.358 L
720.55 148.085 L
720.938 148.494 L
721.325 149.266 L
721.713 149.861 L
722.1 152.142 L
722.487 151.908 L
722.875 151.064 L
723.263 151.736 L
723.65 152.778 L
724.037 151.414 L
724.425 149.66 L
724.813 149.441 L
725.2 149.769 L
725.588 148.738 L
725.975 149.502 L
726.362 149.159 L
726.75 148.884 L
727.138 151.583 L
727.525 149.4 L
727.912 147.231 L
728.3 147.38 L
728.688 148.05 L
729.075 149.092 L
729.463 148.109 L
729.85 146.387 L
730.237 148.106 L
730.625 146.618 L
731.013 147.114 L
731.4 146.459 L
731.787 146.459 L
732.175 146.8 L
732.563 148.288 L
732.95 147.938 L
733.338 148.652 L
733.725 148.995 L
734.112 149.268 L
734.5 148.041 L
734.888 148.71 L
735.275 148.467 L
735.662 148.963 L
736.05 150.247 L
736.438 150.024 L
736.825 150.52 L
737.213 151.455 L
737.6 150.637 L
737.987 149.074 L
738.375 149.156 L
738.763 150.336 L
739.15 150.733 L
739.537 151.775 L
739.925 152.221 L
740.313 151.277 L
740.7 151.053 L
741.088 151.188 L
741.475 150.92 L
741.862 149.868 L
742.25 150.648 L
742.638 151.094 L
743.025 150.876 L
743.412 149.113 L
743.8 149.604 L
744.188 148.488 L
744.575 147.751 L
744.963 145.61 L
745.35 148.129 L
745.737 149.084 L
746.125 148.668 L
746.513 149.886 L
746.9 147.64 L
747.287 149.073 L
747.675 149.698 L
748.063 149.958 L
748.45 148.258 L
748.838 146.919 L
749.225 147.901 L
749.612 148.794 L
750 150.057 L
750.388 150.727 L
750.775 150.045 L
751.162 150.967 L
751.55 149.876 L
751.938 149.535 L
752.325 147.898 L
752.713 148.892 L
753.1 147.999 L
753.487 148.222 L
753.875 147.726 L
754.263 148.681 L
754.65 148.681 L
755.037 149.625 L
755.425 148.861 L
755.813 147.303 L
756.2 149.28 L
756.588 148.784 L
756.975 149.837 L
757.362 150.164 L
757.75 150.499 L
758.138 150.908 L
758.525 150.43 L
758.912 150.975 L
759.3 150.975 L
759.688 151.199 L
760.075 151.577 L
760.463 151.577 L
760.85 151.87 L
761.237 152.634 L
761.625 151.713 L
762.013 150.664 L
762.4 151.334 L
762.787 151.258 L
763.175 151.636 L
763.563 150.922 L
763.95 151.629 L
764.338 152.447 L
764.725 152.653 L
765.112 152.653 L
765.5 150.481 L
765.888 149.874 L
766.275 149.11 L
766.662 148.932 L
767.05 146.914 L
767.438 148.458 L
767.825 149.686 L
768.213 152 L
768.6 151.713 L
768.987 151.713 L
769.375 150.262 L
769.763 148.781 L
770.15 148.111 L
770.537 148.247 L
770.925 149.289 L
771.313 148.892 L
771.7 149.233 L
772.088 150.052 L
772.475 149.058 L
772.862 150.955 L
773.25 151.569 L
773.638 153.634 L
774.025 154.726 L
774.412 153.673 L
774.8 153.673 L
775.188 154.655 L
775.575 154.781 L
775.963 153.027 L
776.35 152.432 L
776.737 152.305 L
777.125 152.126 L
777.513 153.968 L
777.9 153.558 L
778.287 153.441 L
778.675 152.602 L
779.063 152.87 L
779.45 151.754 L
779.838 153.373 L
780.225 154.824 L
780.612 155.369 L
781 155.369 L
781.388 155.799 L
781.775 157.613 L
782.162 158.595 L
782.55 159.98 L
782.938 160.547 L
783.325 160.77 L
783.713 161.179 L
784.1 160.361 L
784.487 160.807 L
784.875 160.807 L
785.263 161.752 L
785.65 162.018 L
786.037 162.018 L
786.425 162.465 L
786.813 162.924 L
787.2 161.201 L
787.588 160.874 L
787.975 160.037 L
788.362 162.259 L
788.75 163.077 L
789.138 165.533 L
789.525 165.26 L
789.912 166.748 L
790.3 167.635 L
790.688 165.998 L
791.075 165.551 L
791.463 165.21 L
791.85 164.509 L
792.237 166.526 L
792.625 165.298 L
793.013 164.957 L
793.4 163.115 L
793.787 161.627 L
794.175 162.188 L
794.563 161.519 L
794.95 160.461 L
795.338 161.007 L
795.725 160.734 L
796.112 161.552 L
796.5 160.213 L
796.888 160.882 L
797.275 159.152 L
797.662 159.338 L
798.05 160.43 L
798.438 160.996 L
798.825 159.836 L
799.213 160.385 L
799.6 158.842 L
799.987 157.047 L
800.375 156.105 L
800.763 155.422 L
801.15 155.095 L
801.537 154.381 L
801.925 153.398 L
802.313 152.089 L
802.7 151.144 L
803.088 150.474 L
803.475 150.202 L
803.862 150.485 L
804.25 150.336 L
804.638 150.009 L
805.025 149.395 L
805.412 150.94 L
805.8 151.431 L
806.188 154.11 L
806.575 156.283 L
806.963 156.543 L
807.35 155.382 L
807.737 154.489 L
808.125 153.671 L
808.513 152.852 L
808.9 151.848 L
809.287 151.848 L
809.675 150.047 L
810.063 150.251 L
810.45 150.579 L
810.838 151.472 L
811.225 151.69 L
811.612 153.444 L
812 152.012 L
812.388 151.739 L
812.775 150.796 L
813.162 149.393 L
813.55 150.677 L
813.938 150.817 L
814.325 151.978 L
814.713 151.399 L
815.1 151.671 L
815.487 151.453 L
815.875 152.067 L
816.263 152.96 L
816.65 152.016 L
817.037 152.313 L
817.425 152.76 L
817.813 152.264 L
818.2 152.04 L
818.588 152.04 L
818.975 152.607 L
819.362 153.371 L
819.75 155.692 L
820.138 156.853 L
820.525 157.876 L
820.912 157.33 L
821.3 156.325 L
821.688 155.507 L
822.075 154.676 L
822.463 156.848 L
822.85 156.816 L
823.237 156.27 L
823.625 156.648 L
824.013 156.797 L
824.4 156.92 L
824.787 157.345 L
825.175 157.122 L
825.563 156.303 L
825.95 152.525 L
826.338 151.788 L
826.725 152.198 L
827.112 152.049 L
827.5 153.165 L
827.888 154.218 L
828.275 153.808 L
828.662 153.312 L
829.05 152.26 L
829.438 151.679 L
829.825 150.294 L
830.213 151.399 L
830.6 150.953 L
830.987 150.734 L
831.375 150.296 L
831.763 151.114 L
832.15 150.978 L
832.537 150.595 L
832.925 151.507 L
833.313 149.777 L
833.7 150.128 L
834.088 149.91 L
834.475 150.237 L
834.862 148.483 L
835.25 149.793 L
835.638 149.179 L
836.025 150.221 L
836.412 150.551 L
836.8 150.425 L
837.188 149.793 L
837.575 149.793 L
837.963 149.743 L
838.35 150.413 L
838.737 151.232 L
839.125 150.735 L
839.513 149.595 L
839.9 149.104 L
840.287 147.168 L
840.675 148.259 L
841.063 148.543 L
841.45 149.088 L
841.838 150.187 L
842.225 147.556 L
842.612 148.258 L
843 149.077 L
843.388 149.37 L
843.775 148.988 L
844.162 148.647 L
844.55 149.654 L
844.938 148.733 L
845.325 149.825 L
845.713 150.924 L
846.1 149.763 L
846.487 148.781 L
846.875 150.827 L
847.263 149.775 L
847.65 147.494 L
848.037 148.722 L
848.425 148.772 L
848.813 151.052 L
849.2 152.205 L
849.588 152.281 L
849.975 150.997 L
850.362 153.509 L
850.75 153.509 L
851.138 152.895 L
851.525 151.306 L
851.912 151.715 L
852.3 152.768 L
852.688 153.532 L
853.075 154.425 L
853.463 154.916 L
853.85 154.916 L
854.237 155.064 L
854.625 157.31 L
855.013 157.105 L
855.4 156.832 L
855.787 156.237 L
856.175 156.441 L
856.563 156.567 L
856.95 157.591 L
857.338 157.541 L
857.725 158.087 L
858.112 157.596 L
858.5 156.777 L
858.888 157.614 L
859.275 155.636 L
859.662 155.069 L
860.05 157.006 L
860.438 158.097 L
860.825 158.55 L
861.213 158.55 L
861.6 158.282 L
861.987 159.194 L
862.375 159.808 L
862.763 160.3 L
863.15 160.3 L
863.537 161.352 L
863.925 160.512 L
864.313 159.024 L
864.7 160.764 L
865.088 159.087 L
865.475 158.492 L
865.862 159.385 L
866.25 158.73 L
866.638 157.994 L
867.025 158.637 L
867.412 159.046 L
867.8 159.28 L
868.188 159.094 L
868.575 157.643 L
868.963 158.543 L
869.35 160.262 L
869.737 160.659 L
870.125 159.308 L
870.513 158.812 L
870.9 159.085 L
871.287 160.183 L
871.675 158.955 L
872.063 157.903 L
872.45 157.139 L
872.838 156.543 L
873.225 155.234 L
873.612 155.779 L
874 155.958 L
874.388 154.522 L
874.775 153.685 L
875.162 154.777 L
875.55 155.606 L
875.938 156.015 L
876.325 157.325 L
876.713 156.488 L
877.1 155.396 L
877.487 154.851 L
877.875 154.523 L
878.263 154.874 L
878.65 154.751 L
879.037 155.624 L
879.425 155.521 L
879.813 153.963 L
880.2 152.921 L
880.588 153.189 L
880.975 153.462 L
881.362 153.68 L
881.75 155.399 L
882.138 153.967 L
882.525 152.329 L
882.912 153.421 L
883.3 153.421 L
883.688 154.806 L
884.075 155.476 L
884.463 154.93 L
884.85 155.217 L
885.237 154.633 L
885.625 153.918 L
886.013 153.801 L
886.4 151.432 L
886.787 150.438 L
887.175 150.438 L
887.563 148.716 L
887.95 148.634 L
888.338 149.91 L
888.725 148.717 L
889.112 146.262 L
889.5 146.043 L
889.888 144.324 L
890.275 144.82 L
890.662 145.039 L
891.05 144.477 L
891.438 144.068 L
891.825 143.156 L
892.213 142.325 L
892.6 142.325 L
892.987 141.266 L
893.375 140.72 L
893.763 141.434 L
894.15 142.379 L
894.537 141.932 L
894.925 140.623 L
895.313 139.57 L
895.7 139.086 L
896.088 138.072 L
896.475 137.774 L
896.862 138.701 L
897.25 138.459 L
897.638 138.824 L
898.025 137.851 L
898.412 136.666 L
898.8 136.617 L
899.188 136.788 L
899.575 137.318 L
899.963 136.931 L
900.35 136.525 L
900.737 135.789 L
901.125 135.398 L
901.513 132.799 L
901.9 133.116 L
902.287 133.958 L
902.675 131.723 L
903.063 130.689 L
903.45 128.195 L
903.838 126.969 L
904.225 125.158 L
904.612 125.836 L
905 127.13 L
S
GR
%%Trailer
%%Pages: 1
%%EOF
