%!PS-Adobe-3.0 EPSF-3.0
%%Creator: (MATLAB, The Mathworks, Inc. Version 9.0.0.341360 \(R2016a\). Operating System: Linux)
%%Title: report/figures/sm_base_lin_unifprio2_ratio.eps
%%CreationDate: 2017-02-04T23:56:29
%%Pages: (atend)
%%BoundingBox:    59     4   910   325
%%LanguageLevel: 3
%%EndComments
%%BeginProlog
%%BeginResource: procset (Apache XML Graphics Std ProcSet) 1.2 0
%%Version: 1.2 0
%%Copyright: (Copyright 2001-2003,2010 The Apache Software Foundation. License terms: http://www.apache.org/licenses/LICENSE-2.0)
/bd{bind def}bind def
/ld{load def}bd
/GR/grestore ld
/M/moveto ld
/LJ/setlinejoin ld
/C/curveto ld
/f/fill ld
/LW/setlinewidth ld
/GC/setgray ld
/t/show ld
/N/newpath ld
/CT/concat ld
/cp/closepath ld
/S/stroke ld
/L/lineto ld
/CC/setcmykcolor ld
/A/ashow ld
/GS/gsave ld
/RC/setrgbcolor ld
/RM/rmoveto ld
/ML/setmiterlimit ld
/re {4 2 roll M
1 index 0 rlineto
0 exch rlineto
neg 0 rlineto
cp } bd
/_ctm matrix def
/_tm matrix def
/BT { _ctm currentmatrix pop matrix _tm copy pop 0 0 moveto } bd
/ET { _ctm setmatrix } bd
/iTm { _ctm setmatrix _tm concat } bd
/Tm { _tm astore pop iTm 0 0 moveto } bd
/ux 0.0 def
/uy 0.0 def
/F {
  /Tp exch def
  /Tf exch def
  Tf findfont Tp scalefont setfont
  /cf Tf def  /cs Tp def
} bd
/ULS {currentpoint /uy exch def /ux exch def} bd
/ULE {
  /Tcx currentpoint pop def
  gsave
  newpath
  cf findfont cs scalefont dup
  /FontMatrix get 0 get /Ts exch def /FontInfo get dup
  /UnderlinePosition get Ts mul /To exch def
  /UnderlineThickness get Ts mul /Tt exch def
  ux uy To add moveto  Tcx uy To add lineto
  Tt setlinewidth stroke
  grestore
} bd
/OLE {
  /Tcx currentpoint pop def
  gsave
  newpath
  cf findfont cs scalefont dup
  /FontMatrix get 0 get /Ts exch def /FontInfo get dup
  /UnderlinePosition get Ts mul /To exch def
  /UnderlineThickness get Ts mul /Tt exch def
  ux uy To add cs add moveto Tcx uy To add cs add lineto
  Tt setlinewidth stroke
  grestore
} bd
/SOE {
  /Tcx currentpoint pop def
  gsave
  newpath
  cf findfont cs scalefont dup
  /FontMatrix get 0 get /Ts exch def /FontInfo get dup
  /UnderlinePosition get Ts mul /To exch def
  /UnderlineThickness get Ts mul /Tt exch def
  ux uy To add cs 10 mul 26 idiv add moveto Tcx uy To add cs 10 mul 26 idiv add lineto
  Tt setlinewidth stroke
  grestore
} bd
/QT {
/Y22 exch store
/X22 exch store
/Y21 exch store
/X21 exch store
currentpoint
/Y21 load 2 mul add 3 div exch
/X21 load 2 mul add 3 div exch
/X21 load 2 mul /X22 load add 3 div
/Y21 load 2 mul /Y22 load add 3 div
/X22 load /Y22 load curveto
} bd
/SSPD {
dup length /d exch dict def
{
/v exch def
/k exch def
currentpagedevice k known {
/cpdv currentpagedevice k get def
v cpdv ne {
/upd false def
/nullv v type /nulltype eq def
/nullcpdv cpdv type /nulltype eq def
nullv nullcpdv or
{
/upd true def
} {
/sametype v type cpdv type eq def
sametype {
v type /arraytype eq {
/vlen v length def
/cpdvlen cpdv length def
vlen cpdvlen eq {
0 1 vlen 1 sub {
/i exch def
/obj v i get def
/cpdobj cpdv i get def
obj cpdobj ne {
/upd true def
exit
} if
} for
} {
/upd true def
} ifelse
} {
v type /dicttype eq {
v {
/dv exch def
/dk exch def
/cpddv cpdv dk get def
dv cpddv ne {
/upd true def
exit
} if
} forall
} {
/upd true def
} ifelse
} ifelse
} if
} ifelse
upd true eq {
d k v put
} if
} if
} if
} forall
d length 0 gt {
d setpagedevice
} if
} bd
%%EndResource
%%BeginResource: procset (Apache XML Graphics EPS ProcSet) 1.0 0
%%Version: 1.0 0
%%Copyright: (Copyright 2002-2003 The Apache Software Foundation. License terms: http://www.apache.org/licenses/LICENSE-2.0)
/BeginEPSF { %def
/b4_Inc_state save def         % Save state for cleanup
/dict_count countdictstack def % Count objects on dict stack
/op_count count 1 sub def      % Count objects on operand stack
userdict begin                 % Push userdict on dict stack
/showpage { } def              % Redefine showpage, { } = null proc
0 setgray 0 setlinecap         % Prepare graphics state
1 setlinewidth 0 setlinejoin
10 setmiterlimit [ ] 0 setdash newpath
/languagelevel where           % If level not equal to 1 then
{pop languagelevel             % set strokeadjust and
1 ne                           % overprint to their defaults.
{false setstrokeadjust false setoverprint
} if
} if
} bd
/EndEPSF { %def
count op_count sub {pop} repeat            % Clean up stacks
countdictstack dict_count sub {end} repeat
b4_Inc_state restore
} bd
%%EndResource
%%EndProlog
%%Page: 1 1
%%PageBoundingBox: 0 0 1000 350
%%BeginPageSetup
[1 0 0 -1 0 350] CT
%%EndPageSetup
GS
1 GC
N
0 0 1000 350 re
f
GR
GS
1 GC
N
0 0 1000 350 re
f
GR
GS
1 GC
N
130 289 M
905 289 L
905 26 L
130 26 L
cp
f
GR
GS
0.873 GC
1 LJ
0.5 LW
N
130 289 M
130 26 L
S
GR
GS
0.873 GC
1 LJ
0.5 LW
N
323.75 289 M
323.75 26 L
S
GR
GS
0.873 GC
1 LJ
0.5 LW
N
517.5 289 M
517.5 26 L
S
GR
GS
0.873 GC
1 LJ
0.5 LW
N
711.25 289 M
711.25 26 L
S
GR
GS
0.873 GC
1 LJ
0.5 LW
N
905 289 M
905 26 L
S
GR
GS
0.873 GC
1 LJ
0.5 LW
N
905 289 M
130 289 L
S
GR
GS
0.873 GC
1 LJ
0.5 LW
N
905 238.905 M
130 238.905 L
S
GR
GS
0.873 GC
1 LJ
0.5 LW
N
905 188.81 M
130 188.81 L
S
GR
GS
0.873 GC
1 LJ
0.5 LW
N
905 138.714 M
130 138.714 L
S
GR
GS
0.873 GC
1 LJ
0.5 LW
N
905 88.619 M
130 88.619 L
S
GR
GS
0.873 GC
1 LJ
0.5 LW
N
905 38.524 M
130 38.524 L
S
GR
GS
0.149 GC
2 setlinecap
1 LJ
0.5 LW
N
130 289 M
905 289 L
S
GR
GS
0.149 GC
2 setlinecap
1 LJ
0.5 LW
N
130 289 M
130 281.25 L
S
GR
GS
0.149 GC
2 setlinecap
1 LJ
0.5 LW
N
323.75 289 M
323.75 281.25 L
S
GR
GS
0.149 GC
2 setlinecap
1 LJ
0.5 LW
N
517.5 289 M
517.5 281.25 L
S
GR
GS
0.149 GC
2 setlinecap
1 LJ
0.5 LW
N
711.25 289 M
711.25 281.25 L
S
GR
GS
0.149 GC
2 setlinecap
1 LJ
0.5 LW
N
905 289 M
905 281.25 L
S
GR
GS
[1 0 0 1 130 295] CT
0.149 GC
N
-0.141 5.719 M
-1.672 5.719 -2.438 7.219 QT
-3.203 8.719 -3.203 11.719 QT
-3.203 14.719 -2.438 16.219 QT
-1.672 17.719 -0.141 17.719 QT
1.391 17.719 2.156 16.219 QT
2.922 14.719 2.922 11.719 QT
2.922 8.719 2.156 7.219 QT
1.391 5.719 -0.141 5.719 QT
cp
-0.141 4.156 M
2.313 4.156 3.602 6.094 QT
4.891 8.031 4.891 11.719 QT
4.891 15.406 3.602 17.344 QT
2.313 19.281 -0.141 19.281 QT
-2.594 19.281 -3.891 17.344 QT
-5.188 15.406 -5.188 11.719 QT
-5.188 8.031 -3.891 6.094 QT
-2.594 4.156 -0.141 4.156 QT
cp
f
GR
GS
[1 0 0 1 323.75 295] CT
0.149 GC
N
-9.641 5.719 M
-11.172 5.719 -11.938 7.219 QT
-12.703 8.719 -12.703 11.719 QT
-12.703 14.719 -11.938 16.219 QT
-11.172 17.719 -9.641 17.719 QT
-8.109 17.719 -7.344 16.219 QT
-6.578 14.719 -6.578 11.719 QT
-6.578 8.719 -7.344 7.219 QT
-8.109 5.719 -9.641 5.719 QT
cp
-9.641 4.156 M
-7.188 4.156 -5.898 6.094 QT
-4.609 8.031 -4.609 11.719 QT
-4.609 15.406 -5.898 17.344 QT
-7.188 19.281 -9.641 19.281 QT
-12.094 19.281 -13.391 17.344 QT
-14.688 15.406 -14.688 11.719 QT
-14.688 8.031 -13.391 6.094 QT
-12.094 4.156 -9.641 4.156 QT
cp
-1.135 16.516 M
0.928 16.516 L
0.928 19 L
-1.135 19 L
-1.135 16.516 L
cp
5.238 4.422 M
12.988 4.422 L
12.988 6.078 L
7.051 6.078 L
7.051 9.656 L
7.473 9.5 7.902 9.43 QT
8.332 9.359 8.77 9.359 QT
11.207 9.359 12.637 10.695 QT
14.066 12.031 14.066 14.328 QT
14.066 16.672 12.598 17.977 QT
11.129 19.281 8.457 19.281 QT
7.551 19.281 6.598 19.125 QT
5.645 18.969 4.629 18.656 QT
4.629 16.672 L
5.504 17.156 6.441 17.391 QT
7.379 17.625 8.426 17.625 QT
10.113 17.625 11.098 16.734 QT
12.082 15.844 12.082 14.328 QT
12.082 12.797 11.098 11.906 QT
10.113 11.016 8.426 11.016 QT
7.629 11.016 6.848 11.195 QT
6.066 11.375 5.238 11.75 QT
5.238 4.422 L
cp
f
GR
GS
[1 0 0 1 517.5 295] CT
0.149 GC
N
-4.016 17.344 M
-0.797 17.344 L
-0.797 6.219 L
-4.297 6.922 L
-4.297 5.125 L
-0.813 4.422 L
1.156 4.422 L
1.156 17.344 L
4.375 17.344 L
4.375 19 L
-4.016 19 L
-4.016 17.344 L
cp
f
GR
GS
[1 0 0 1 711.25 295] CT
0.149 GC
N
-13.516 17.344 M
-10.297 17.344 L
-10.297 6.219 L
-13.797 6.922 L
-13.797 5.125 L
-10.313 4.422 L
-8.344 4.422 L
-8.344 17.344 L
-5.125 17.344 L
-5.125 19 L
-13.516 19 L
-13.516 17.344 L
cp
-1.135 16.516 M
0.928 16.516 L
0.928 19 L
-1.135 19 L
-1.135 16.516 L
cp
5.238 4.422 M
12.988 4.422 L
12.988 6.078 L
7.051 6.078 L
7.051 9.656 L
7.473 9.5 7.902 9.43 QT
8.332 9.359 8.77 9.359 QT
11.207 9.359 12.637 10.695 QT
14.066 12.031 14.066 14.328 QT
14.066 16.672 12.598 17.977 QT
11.129 19.281 8.457 19.281 QT
7.551 19.281 6.598 19.125 QT
5.645 18.969 4.629 18.656 QT
4.629 16.672 L
5.504 17.156 6.441 17.391 QT
7.379 17.625 8.426 17.625 QT
10.113 17.625 11.098 16.734 QT
12.082 15.844 12.082 14.328 QT
12.082 12.797 11.098 11.906 QT
10.113 11.016 8.426 11.016 QT
7.629 11.016 6.848 11.195 QT
6.066 11.375 5.238 11.75 QT
5.238 4.422 L
cp
f
GR
GS
[1 0 0 1 905 295] CT
0.149 GC
N
-2.656 17.344 M
4.219 17.344 L
4.219 19 L
-5.031 19 L
-5.031 17.344 L
-3.906 16.172 -1.969 14.219 QT
-0.031 12.266 0.469 11.688 QT
1.406 10.625 1.781 9.891 QT
2.156 9.156 2.156 8.438 QT
2.156 7.281 1.344 6.547 QT
0.531 5.813 -0.781 5.813 QT
-1.703 5.813 -2.734 6.133 QT
-3.766 6.453 -4.938 7.109 QT
-4.938 5.125 L
-3.75 4.641 -2.711 4.398 QT
-1.672 4.156 -0.813 4.156 QT
1.453 4.156 2.797 5.289 QT
4.141 6.422 4.141 8.313 QT
4.141 9.219 3.805 10.023 QT
3.469 10.828 2.578 11.922 QT
2.344 12.203 1.031 13.555 QT
-0.281 14.906 -2.656 17.344 QT
cp
f
GR
GS
[1 0 0 1 517.50037 320] CT
0.149 GC
N
-14.25 9.328 M
-14.25 11.188 L
-15.094 10.766 -16 10.547 QT
-16.906 10.328 -17.859 10.328 QT
-19.344 10.328 -20.078 10.781 QT
-20.813 11.234 -20.813 12.141 QT
-20.813 12.828 -20.281 13.219 QT
-19.75 13.609 -18.172 13.969 QT
-17.484 14.109 L
-15.391 14.563 -14.5 15.383 QT
-13.609 16.203 -13.609 17.688 QT
-13.609 19.359 -14.938 20.336 QT
-16.266 21.313 -18.578 21.313 QT
-19.547 21.313 -20.594 21.125 QT
-21.641 20.938 -22.813 20.563 QT
-22.813 18.516 L
-21.719 19.094 -20.648 19.375 QT
-19.578 19.656 -18.547 19.656 QT
-17.141 19.656 -16.391 19.18 QT
-15.641 18.703 -15.641 17.828 QT
-15.641 17.031 -16.188 16.602 QT
-16.734 16.172 -18.563 15.766 QT
-19.25 15.609 L
-21.094 15.219 -21.906 14.422 QT
-22.719 13.625 -22.719 12.219 QT
-22.719 10.531 -21.516 9.602 QT
-20.313 8.672 -18.109 8.672 QT
-17 8.672 -16.039 8.836 QT
-15.078 9 -14.25 9.328 QT
cp
-8.507 5.547 M
-8.507 8.969 L
-4.444 8.969 L
-4.444 10.5 L
-8.507 10.5 L
-8.507 17.031 L
-8.507 18.5 -8.108 18.922 QT
-7.71 19.344 -6.476 19.344 QT
-4.444 19.344 L
-4.444 21 L
-6.476 21 L
-8.757 21 -9.624 20.148 QT
-10.491 19.297 -10.491 17.031 QT
-10.491 10.5 L
-11.944 10.5 L
-11.944 8.969 L
-10.491 8.969 L
-10.491 5.547 L
-8.507 5.547 L
cp
8.447 14.484 M
8.447 15.453 L
-0.631 15.453 L
-0.506 17.5 0.596 18.57 QT
1.697 19.641 3.666 19.641 QT
4.807 19.641 5.869 19.359 QT
6.932 19.078 7.994 18.516 QT
7.994 20.391 L
6.932 20.844 5.814 21.078 QT
4.697 21.313 3.541 21.313 QT
0.666 21.313 -1.014 19.633 QT
-2.693 17.953 -2.693 15.109 QT
-2.693 12.141 -1.1 10.406 QT
0.494 8.672 3.197 8.672 QT
5.635 8.672 7.041 10.234 QT
8.447 11.797 8.447 14.484 QT
cp
6.479 13.906 M
6.447 12.281 5.564 11.32 QT
4.682 10.359 3.229 10.359 QT
1.572 10.359 0.572 11.289 QT
-0.428 12.219 -0.568 13.922 QT
6.479 13.906 L
cp
13.607 19.188 M
13.607 25.578 L
11.623 25.578 L
11.623 8.969 L
13.607 8.969 L
13.607 10.797 L
14.232 9.719 15.186 9.195 QT
16.139 8.672 17.451 8.672 QT
19.639 8.672 21.014 10.414 QT
22.389 12.156 22.389 15 QT
22.389 17.828 21.014 19.57 QT
19.639 21.313 17.451 21.313 QT
16.139 21.313 15.186 20.789 QT
14.232 20.266 13.607 19.188 QT
cp
20.326 15 M
20.326 12.813 19.436 11.57 QT
18.545 10.328 16.967 10.328 QT
15.404 10.328 14.506 11.57 QT
13.607 12.813 13.607 15 QT
13.607 17.172 14.506 18.414 QT
15.404 19.656 16.967 19.656 QT
18.545 19.656 19.436 18.414 QT
20.326 17.172 20.326 15 QT
cp
f
GR
GS
[1 0 0 1 852 345] CT
0.149 GC
N
2.938 -0.578 M
2.938 -0.734 3.031 -0.859 QT
7.203 -5 L
3.031 -9.156 L
2.938 -9.266 2.938 -9.422 QT
2.938 -9.578 3.055 -9.703 QT
3.172 -9.828 3.344 -9.828 QT
3.484 -9.828 3.641 -9.703 QT
7.781 -5.563 L
11.906 -9.703 L
12.078 -9.828 12.203 -9.828 QT
12.359 -9.828 12.477 -9.711 QT
12.594 -9.594 12.594 -9.422 QT
12.594 -9.266 12.5 -9.156 QT
8.344 -5 L
12.5 -0.859 L
12.594 -0.734 12.594 -0.578 QT
12.594 -0.406 12.477 -0.289 QT
12.359 -0.172 12.203 -0.172 QT
12.047 -0.172 11.906 -0.328 QT
7.781 -4.438 L
3.641 -0.328 L
3.5 -0.172 3.344 -0.172 QT
3.172 -0.172 3.055 -0.305 QT
2.938 -0.438 2.938 -0.578 QT
cp
f
GR
GS
[1 0 0 1 868 345] CT
0.149 GC
N
2.484 -1.656 M
5.703 -1.656 L
5.703 -12.781 L
2.203 -12.078 L
2.203 -13.875 L
5.688 -14.578 L
7.656 -14.578 L
7.656 -1.656 L
10.875 -1.656 L
10.875 0 L
2.484 0 L
2.484 -1.656 L
cp
19.084 -13.281 M
17.553 -13.281 16.787 -11.781 QT
16.021 -10.281 16.021 -7.281 QT
16.021 -4.281 16.787 -2.781 QT
17.553 -1.281 19.084 -1.281 QT
20.615 -1.281 21.381 -2.781 QT
22.146 -4.281 22.146 -7.281 QT
22.146 -10.281 21.381 -11.781 QT
20.615 -13.281 19.084 -13.281 QT
cp
19.084 -14.844 M
21.537 -14.844 22.826 -12.906 QT
24.115 -10.969 24.115 -7.281 QT
24.115 -3.594 22.826 -1.656 QT
21.537 0.281 19.084 0.281 QT
16.631 0.281 15.334 -1.656 QT
14.037 -3.594 14.037 -7.281 QT
14.037 -10.969 15.334 -12.906 QT
16.631 -14.844 19.084 -14.844 QT
cp
f
GR
GS
[1 0 0 1 894 335] CT
0.149 GC
N
5.281 -6.469 M
4.219 -6.469 3.602 -5.742 QT
2.984 -5.016 2.984 -3.75 QT
2.984 -2.484 3.602 -1.758 QT
4.219 -1.031 5.281 -1.031 QT
6.344 -1.031 6.969 -1.758 QT
7.594 -2.484 7.594 -3.75 QT
7.594 -5.016 6.969 -5.742 QT
6.344 -6.469 5.281 -6.469 QT
cp
8.422 -11.406 M
8.422 -9.969 L
7.828 -10.25 7.219 -10.398 QT
6.609 -10.547 6.016 -10.547 QT
4.453 -10.547 3.633 -9.492 QT
2.813 -8.438 2.688 -6.313 QT
3.156 -6.984 3.852 -7.352 QT
4.547 -7.719 5.375 -7.719 QT
7.141 -7.719 8.156 -6.648 QT
9.172 -5.578 9.172 -3.75 QT
9.172 -1.953 8.109 -0.859 QT
7.047 0.234 5.281 0.234 QT
3.266 0.234 2.195 -1.32 QT
1.125 -2.875 1.125 -5.828 QT
1.125 -8.594 2.438 -10.234 QT
3.75 -11.875 5.953 -11.875 QT
6.547 -11.875 7.156 -11.758 QT
7.766 -11.641 8.422 -11.406 QT
cp
f
GR
GS
0.149 GC
2 setlinecap
1 LJ
0.5 LW
N
130 289 M
130 26 L
S
GR
GS
0.149 GC
2 setlinecap
1 LJ
0.5 LW
N
130 289 M
137.75 289 L
S
GR
GS
0.149 GC
2 setlinecap
1 LJ
0.5 LW
N
130 238.905 M
137.75 238.905 L
S
GR
GS
0.149 GC
2 setlinecap
1 LJ
0.5 LW
N
130 188.81 M
137.75 188.81 L
S
GR
GS
0.149 GC
2 setlinecap
1 LJ
0.5 LW
N
130 138.714 M
137.75 138.714 L
S
GR
GS
0.149 GC
2 setlinecap
1 LJ
0.5 LW
N
130 88.619 M
137.75 88.619 L
S
GR
GS
0.149 GC
2 setlinecap
1 LJ
0.5 LW
N
130 38.524 M
137.75 38.524 L
S
GR
GS
[1 0 0 1 124 289] CT
0.149 GC
N
-6.641 -6.281 M
-8.172 -6.281 -8.938 -4.781 QT
-9.703 -3.281 -9.703 -0.281 QT
-9.703 2.719 -8.938 4.219 QT
-8.172 5.719 -6.641 5.719 QT
-5.109 5.719 -4.344 4.219 QT
-3.578 2.719 -3.578 -0.281 QT
-3.578 -3.281 -4.344 -4.781 QT
-5.109 -6.281 -6.641 -6.281 QT
cp
-6.641 -7.844 M
-4.188 -7.844 -2.898 -5.906 QT
-1.609 -3.969 -1.609 -0.281 QT
-1.609 3.406 -2.898 5.344 QT
-4.188 7.281 -6.641 7.281 QT
-9.094 7.281 -10.391 5.344 QT
-11.688 3.406 -11.688 -0.281 QT
-11.688 -3.969 -10.391 -5.906 QT
-9.094 -7.844 -6.641 -7.844 QT
cp
f
GR
GS
[1 0 0 1 124 238.90475] CT
0.149 GC
N
-22.156 5.344 M
-15.281 5.344 L
-15.281 7 L
-24.531 7 L
-24.531 5.344 L
-23.406 4.172 -21.469 2.219 QT
-19.531 0.266 -19.031 -0.313 QT
-18.094 -1.375 -17.719 -2.109 QT
-17.344 -2.844 -17.344 -3.563 QT
-17.344 -4.719 -18.156 -5.453 QT
-18.969 -6.188 -20.281 -6.188 QT
-21.203 -6.188 -22.234 -5.867 QT
-23.266 -5.547 -24.438 -4.891 QT
-24.438 -6.875 L
-23.25 -7.359 -22.211 -7.602 QT
-21.172 -7.844 -20.313 -7.844 QT
-18.047 -7.844 -16.703 -6.711 QT
-15.359 -5.578 -15.359 -3.688 QT
-15.359 -2.781 -15.695 -1.977 QT
-16.031 -1.172 -16.922 -0.078 QT
-17.156 0.203 -18.469 1.555 QT
-19.781 2.906 -22.156 5.344 QT
cp
-6.916 -6.281 M
-8.447 -6.281 -9.213 -4.781 QT
-9.979 -3.281 -9.979 -0.281 QT
-9.979 2.719 -9.213 4.219 QT
-8.447 5.719 -6.916 5.719 QT
-5.385 5.719 -4.619 4.219 QT
-3.854 2.719 -3.854 -0.281 QT
-3.854 -3.281 -4.619 -4.781 QT
-5.385 -6.281 -6.916 -6.281 QT
cp
-6.916 -7.844 M
-4.463 -7.844 -3.174 -5.906 QT
-1.885 -3.969 -1.885 -0.281 QT
-1.885 3.406 -3.174 5.344 QT
-4.463 7.281 -6.916 7.281 QT
-9.369 7.281 -10.666 5.344 QT
-11.963 3.406 -11.963 -0.281 QT
-11.963 -3.969 -10.666 -5.906 QT
-9.369 -7.844 -6.916 -7.844 QT
cp
f
GR
GS
[1 0 0 1 124 188.80952] CT
0.149 GC
N
-18.438 -5.859 M
-23.422 1.922 L
-18.438 1.922 L
-18.438 -5.859 L
cp
-18.953 -7.578 M
-16.484 -7.578 L
-16.484 1.922 L
-14.391 1.922 L
-14.391 3.563 L
-16.484 3.563 L
-16.484 7 L
-18.438 7 L
-18.438 3.563 L
-25.016 3.563 L
-25.016 1.656 L
-18.953 -7.578 L
cp
-6.916 -6.281 M
-8.447 -6.281 -9.213 -4.781 QT
-9.979 -3.281 -9.979 -0.281 QT
-9.979 2.719 -9.213 4.219 QT
-8.447 5.719 -6.916 5.719 QT
-5.385 5.719 -4.619 4.219 QT
-3.854 2.719 -3.854 -0.281 QT
-3.854 -3.281 -4.619 -4.781 QT
-5.385 -6.281 -6.916 -6.281 QT
cp
-6.916 -7.844 M
-4.463 -7.844 -3.174 -5.906 QT
-1.885 -3.969 -1.885 -0.281 QT
-1.885 3.406 -3.174 5.344 QT
-4.463 7.281 -6.916 7.281 QT
-9.369 7.281 -10.666 5.344 QT
-11.963 3.406 -11.963 -0.281 QT
-11.963 -3.969 -10.666 -5.906 QT
-9.369 -7.844 -6.916 -7.844 QT
cp
f
GR
GS
[1 0 0 1 124 138.71428] CT
0.149 GC
N
-19.391 -1.078 M
-20.719 -1.078 -21.5 -0.172 QT
-22.281 0.734 -22.281 2.328 QT
-22.281 3.891 -21.5 4.805 QT
-20.719 5.719 -19.391 5.719 QT
-18.063 5.719 -17.289 4.805 QT
-16.516 3.891 -16.516 2.328 QT
-16.516 0.734 -17.289 -0.172 QT
-18.063 -1.078 -19.391 -1.078 QT
cp
-15.484 -7.266 M
-15.484 -5.469 L
-16.219 -5.813 -16.977 -6 QT
-17.734 -6.188 -18.484 -6.188 QT
-20.438 -6.188 -21.469 -4.867 QT
-22.5 -3.547 -22.641 -0.875 QT
-22.063 -1.734 -21.195 -2.188 QT
-20.328 -2.641 -19.281 -2.641 QT
-17.078 -2.641 -15.805 -1.305 QT
-14.531 0.031 -14.531 2.328 QT
-14.531 4.563 -15.859 5.922 QT
-17.188 7.281 -19.391 7.281 QT
-21.922 7.281 -23.266 5.344 QT
-24.609 3.406 -24.609 -0.281 QT
-24.609 -3.734 -22.969 -5.789 QT
-21.328 -7.844 -18.563 -7.844 QT
-17.813 -7.844 -17.055 -7.695 QT
-16.297 -7.547 -15.484 -7.266 QT
cp
-6.916 -6.281 M
-8.447 -6.281 -9.213 -4.781 QT
-9.979 -3.281 -9.979 -0.281 QT
-9.979 2.719 -9.213 4.219 QT
-8.447 5.719 -6.916 5.719 QT
-5.385 5.719 -4.619 4.219 QT
-3.854 2.719 -3.854 -0.281 QT
-3.854 -3.281 -4.619 -4.781 QT
-5.385 -6.281 -6.916 -6.281 QT
cp
-6.916 -7.844 M
-4.463 -7.844 -3.174 -5.906 QT
-1.885 -3.969 -1.885 -0.281 QT
-1.885 3.406 -3.174 5.344 QT
-4.463 7.281 -6.916 7.281 QT
-9.369 7.281 -10.666 5.344 QT
-11.963 3.406 -11.963 -0.281 QT
-11.963 -3.969 -10.666 -5.906 QT
-9.369 -7.844 -6.916 -7.844 QT
cp
f
GR
GS
[1 0 0 1 124 88.61905] CT
0.149 GC
N
-19.641 0.078 M
-21.047 0.078 -21.852 0.828 QT
-22.656 1.578 -22.656 2.891 QT
-22.656 4.219 -21.852 4.969 QT
-21.047 5.719 -19.641 5.719 QT
-18.234 5.719 -17.422 4.961 QT
-16.609 4.203 -16.609 2.891 QT
-16.609 1.578 -17.414 0.828 QT
-18.219 0.078 -19.641 0.078 QT
cp
-21.609 -0.766 M
-22.891 -1.078 -23.594 -1.945 QT
-24.297 -2.813 -24.297 -4.063 QT
-24.297 -5.813 -23.055 -6.828 QT
-21.813 -7.844 -19.641 -7.844 QT
-17.469 -7.844 -16.227 -6.828 QT
-14.984 -5.813 -14.984 -4.063 QT
-14.984 -2.813 -15.695 -1.945 QT
-16.406 -1.078 -17.656 -0.766 QT
-16.234 -0.438 -15.438 0.531 QT
-14.641 1.5 -14.641 2.891 QT
-14.641 5.016 -15.938 6.148 QT
-17.234 7.281 -19.641 7.281 QT
-22.047 7.281 -23.344 6.148 QT
-24.641 5.016 -24.641 2.891 QT
-24.641 1.5 -23.844 0.531 QT
-23.047 -0.438 -21.609 -0.766 QT
cp
-22.344 -3.875 M
-22.344 -2.75 -21.633 -2.117 QT
-20.922 -1.484 -19.641 -1.484 QT
-18.375 -1.484 -17.656 -2.117 QT
-16.938 -2.75 -16.938 -3.875 QT
-16.938 -5.016 -17.656 -5.648 QT
-18.375 -6.281 -19.641 -6.281 QT
-20.922 -6.281 -21.633 -5.648 QT
-22.344 -5.016 -22.344 -3.875 QT
cp
-6.916 -6.281 M
-8.447 -6.281 -9.213 -4.781 QT
-9.979 -3.281 -9.979 -0.281 QT
-9.979 2.719 -9.213 4.219 QT
-8.447 5.719 -6.916 5.719 QT
-5.385 5.719 -4.619 4.219 QT
-3.854 2.719 -3.854 -0.281 QT
-3.854 -3.281 -4.619 -4.781 QT
-5.385 -6.281 -6.916 -6.281 QT
cp
-6.916 -7.844 M
-4.463 -7.844 -3.174 -5.906 QT
-1.885 -3.969 -1.885 -0.281 QT
-1.885 3.406 -3.174 5.344 QT
-4.463 7.281 -6.916 7.281 QT
-9.369 7.281 -10.666 5.344 QT
-11.963 3.406 -11.963 -0.281 QT
-11.963 -3.969 -10.666 -5.906 QT
-9.369 -7.844 -6.916 -7.844 QT
cp
f
GR
GS
[1 0 0 1 124 38.52381] CT
0.149 GC
N
-36.516 5.344 M
-33.297 5.344 L
-33.297 -5.781 L
-36.797 -5.078 L
-36.797 -6.875 L
-33.313 -7.578 L
-31.344 -7.578 L
-31.344 5.344 L
-28.125 5.344 L
-28.125 7 L
-36.516 7 L
-36.516 5.344 L
cp
-19.916 -6.281 M
-21.447 -6.281 -22.213 -4.781 QT
-22.979 -3.281 -22.979 -0.281 QT
-22.979 2.719 -22.213 4.219 QT
-21.447 5.719 -19.916 5.719 QT
-18.385 5.719 -17.619 4.219 QT
-16.854 2.719 -16.854 -0.281 QT
-16.854 -3.281 -17.619 -4.781 QT
-18.385 -6.281 -19.916 -6.281 QT
cp
-19.916 -7.844 M
-17.463 -7.844 -16.174 -5.906 QT
-14.885 -3.969 -14.885 -0.281 QT
-14.885 3.406 -16.174 5.344 QT
-17.463 7.281 -19.916 7.281 QT
-22.369 7.281 -23.666 5.344 QT
-24.963 3.406 -24.963 -0.281 QT
-24.963 -3.969 -23.666 -5.906 QT
-22.369 -7.844 -19.916 -7.844 QT
cp
-7.191 -6.281 M
-8.723 -6.281 -9.488 -4.781 QT
-10.254 -3.281 -10.254 -0.281 QT
-10.254 2.719 -9.488 4.219 QT
-8.723 5.719 -7.191 5.719 QT
-5.66 5.719 -4.895 4.219 QT
-4.129 2.719 -4.129 -0.281 QT
-4.129 -3.281 -4.895 -4.781 QT
-5.66 -6.281 -7.191 -6.281 QT
cp
-7.191 -7.844 M
-4.738 -7.844 -3.449 -5.906 QT
-2.16 -3.969 -2.16 -0.281 QT
-2.16 3.406 -3.449 5.344 QT
-4.738 7.281 -7.191 7.281 QT
-9.645 7.281 -10.941 5.344 QT
-12.238 3.406 -12.238 -0.281 QT
-12.238 -3.969 -10.941 -5.906 QT
-9.645 -7.844 -7.191 -7.844 QT
cp
f
GR
GS
[0 -1 1 0 82 157.49988] CT
0.149 GC
N
-113.063 -22.031 M
-99.5 -22.031 L
-99.5 -20.219 L
-105.188 -20.219 L
-105.188 -6 L
-107.375 -6 L
-107.375 -20.219 L
-113.063 -20.219 L
-113.063 -22.031 L
cp
-92.015 -12.047 M
-94.421 -12.047 -95.343 -11.5 QT
-96.265 -10.953 -96.265 -9.625 QT
-96.265 -8.578 -95.569 -7.961 QT
-94.874 -7.344 -93.687 -7.344 QT
-92.046 -7.344 -91.054 -8.508 QT
-90.062 -9.672 -90.062 -11.609 QT
-90.062 -12.047 L
-92.015 -12.047 L
cp
-88.077 -12.859 M
-88.077 -6 L
-90.062 -6 L
-90.062 -7.828 L
-90.733 -6.734 -91.741 -6.211 QT
-92.749 -5.688 -94.218 -5.688 QT
-96.062 -5.688 -97.147 -6.727 QT
-98.233 -7.766 -98.233 -9.5 QT
-98.233 -11.531 -96.874 -12.563 QT
-95.515 -13.594 -92.827 -13.594 QT
-90.062 -13.594 L
-90.062 -13.781 L
-90.062 -15.156 -90.952 -15.898 QT
-91.843 -16.641 -93.468 -16.641 QT
-94.499 -16.641 -95.476 -16.398 QT
-96.452 -16.156 -97.358 -15.656 QT
-97.358 -17.484 L
-96.28 -17.906 -95.257 -18.117 QT
-94.233 -18.328 -93.265 -18.328 QT
-90.655 -18.328 -89.366 -16.969 QT
-88.077 -15.609 -88.077 -12.859 QT
cp
-77.033 -16.188 M
-77.361 -16.375 -77.76 -16.469 QT
-78.158 -16.563 -78.627 -16.563 QT
-80.299 -16.563 -81.197 -15.469 QT
-82.096 -14.375 -82.096 -12.344 QT
-82.096 -6 L
-84.08 -6 L
-84.08 -18.031 L
-82.096 -18.031 L
-82.096 -16.156 L
-81.471 -17.266 -80.471 -17.797 QT
-79.471 -18.328 -78.049 -18.328 QT
-77.846 -18.328 -77.596 -18.297 QT
-77.346 -18.266 -77.049 -18.219 QT
-77.033 -16.188 L
cp
-67.051 -12.156 M
-67.051 -14.297 -67.934 -15.484 QT
-68.816 -16.672 -70.41 -16.672 QT
-72.004 -16.672 -72.895 -15.484 QT
-73.785 -14.297 -73.785 -12.156 QT
-73.785 -10.016 -72.895 -8.836 QT
-72.004 -7.656 -70.41 -7.656 QT
-68.816 -7.656 -67.934 -8.836 QT
-67.051 -10.016 -67.051 -12.156 QT
cp
-65.066 -7.5 M
-65.066 -4.422 -66.434 -2.922 QT
-67.801 -1.422 -70.613 -1.422 QT
-71.66 -1.422 -72.582 -1.578 QT
-73.504 -1.734 -74.363 -2.063 QT
-74.363 -3.984 L
-73.504 -3.5 -72.652 -3.281 QT
-71.801 -3.063 -70.926 -3.063 QT
-68.973 -3.063 -68.012 -4.078 QT
-67.051 -5.094 -67.051 -7.141 QT
-67.051 -8.109 L
-67.66 -7.047 -68.613 -6.523 QT
-69.566 -6 -70.895 -6 QT
-73.113 -6 -74.465 -7.688 QT
-75.816 -9.375 -75.816 -12.156 QT
-75.816 -14.953 -74.465 -16.641 QT
-73.113 -18.328 -70.895 -18.328 QT
-69.566 -18.328 -68.613 -17.797 QT
-67.66 -17.266 -67.051 -16.203 QT
-67.051 -18.031 L
-65.066 -18.031 L
-65.066 -7.5 L
cp
-50.711 -12.516 M
-50.711 -11.547 L
-59.789 -11.547 L
-59.664 -9.5 -58.563 -8.43 QT
-57.461 -7.359 -55.492 -7.359 QT
-54.352 -7.359 -53.289 -7.641 QT
-52.227 -7.922 -51.164 -8.484 QT
-51.164 -6.609 L
-52.227 -6.156 -53.344 -5.922 QT
-54.461 -5.688 -55.617 -5.688 QT
-58.492 -5.688 -60.172 -7.367 QT
-61.852 -9.047 -61.852 -11.891 QT
-61.852 -14.859 -60.258 -16.594 QT
-58.664 -18.328 -55.961 -18.328 QT
-53.523 -18.328 -52.117 -16.766 QT
-50.711 -15.203 -50.711 -12.516 QT
cp
-52.68 -13.094 M
-52.711 -14.719 -53.594 -15.68 QT
-54.477 -16.641 -55.93 -16.641 QT
-57.586 -16.641 -58.586 -15.711 QT
-59.586 -14.781 -59.727 -13.078 QT
-52.68 -13.094 L
cp
-45.504 -21.453 M
-45.504 -18.031 L
-41.441 -18.031 L
-41.441 -16.5 L
-45.504 -16.5 L
-45.504 -9.969 L
-45.504 -8.5 -45.105 -8.078 QT
-44.707 -7.656 -43.473 -7.656 QT
-41.441 -7.656 L
-41.441 -6 L
-43.473 -6 L
-45.754 -6 -46.621 -6.852 QT
-47.488 -7.703 -47.488 -9.969 QT
-47.488 -16.5 L
-48.941 -16.5 L
-48.941 -18.031 L
-47.488 -18.031 L
-47.488 -21.453 L
-45.504 -21.453 L
cp
-31.159 -17.672 M
-31.159 -15.813 L
-32.003 -16.234 -32.909 -16.453 QT
-33.815 -16.672 -34.769 -16.672 QT
-36.253 -16.672 -36.987 -16.219 QT
-37.722 -15.766 -37.722 -14.859 QT
-37.722 -14.172 -37.19 -13.781 QT
-36.659 -13.391 -35.081 -13.031 QT
-34.394 -12.891 L
-32.3 -12.438 -31.409 -11.617 QT
-30.519 -10.797 -30.519 -9.313 QT
-30.519 -7.641 -31.847 -6.664 QT
-33.175 -5.688 -35.487 -5.688 QT
-36.456 -5.688 -37.503 -5.875 QT
-38.55 -6.063 -39.722 -6.438 QT
-39.722 -8.484 L
-38.628 -7.906 -37.558 -7.625 QT
-36.487 -7.344 -35.456 -7.344 QT
-34.05 -7.344 -33.3 -7.82 QT
-32.55 -8.297 -32.55 -9.172 QT
-32.55 -9.969 -33.097 -10.398 QT
-33.644 -10.828 -35.472 -11.234 QT
-36.159 -11.391 L
-38.003 -11.781 -38.815 -12.578 QT
-39.628 -13.375 -39.628 -14.781 QT
-39.628 -16.469 -38.425 -17.398 QT
-37.222 -18.328 -35.019 -18.328 QT
-33.909 -18.328 -32.948 -18.164 QT
-31.987 -18 -31.159 -17.672 QT
cp
-13.407 -16.188 M
-13.735 -16.375 -14.134 -16.469 QT
-14.532 -16.563 -15.001 -16.563 QT
-16.673 -16.563 -17.571 -15.469 QT
-18.47 -14.375 -18.47 -12.344 QT
-18.47 -6 L
-20.454 -6 L
-20.454 -18.031 L
-18.47 -18.031 L
-18.47 -16.156 L
-17.845 -17.266 -16.845 -17.797 QT
-15.845 -18.328 -14.423 -18.328 QT
-14.22 -18.328 -13.97 -18.297 QT
-13.72 -18.266 -13.423 -18.219 QT
-13.407 -16.188 L
cp
-1.05 -12.516 M
-1.05 -11.547 L
-10.128 -11.547 L
-10.003 -9.5 -8.901 -8.43 QT
-7.8 -7.359 -5.831 -7.359 QT
-4.69 -7.359 -3.628 -7.641 QT
-2.565 -7.922 -1.503 -8.484 QT
-1.503 -6.609 L
-2.565 -6.156 -3.683 -5.922 QT
-4.8 -5.688 -5.956 -5.688 QT
-8.831 -5.688 -10.511 -7.367 QT
-12.19 -9.047 -12.19 -11.891 QT
-12.19 -14.859 -10.597 -16.594 QT
-9.003 -18.328 -6.3 -18.328 QT
-3.862 -18.328 -2.456 -16.766 QT
-1.05 -15.203 -1.05 -12.516 QT
cp
-3.019 -13.094 M
-3.05 -14.719 -3.933 -15.68 QT
-4.815 -16.641 -6.269 -16.641 QT
-7.925 -16.641 -8.925 -15.711 QT
-9.925 -14.781 -10.065 -13.078 QT
-3.019 -13.094 L
cp
7.673 -12.047 M
5.267 -12.047 4.345 -11.5 QT
3.423 -10.953 3.423 -9.625 QT
3.423 -8.578 4.118 -7.961 QT
4.813 -7.344 6.001 -7.344 QT
7.642 -7.344 8.634 -8.508 QT
9.626 -9.672 9.626 -11.609 QT
9.626 -12.047 L
7.673 -12.047 L
cp
11.61 -12.859 M
11.61 -6 L
9.626 -6 L
9.626 -7.828 L
8.954 -6.734 7.946 -6.211 QT
6.938 -5.688 5.47 -5.688 QT
3.626 -5.688 2.54 -6.727 QT
1.454 -7.766 1.454 -9.5 QT
1.454 -11.531 2.813 -12.563 QT
4.173 -13.594 6.86 -13.594 QT
9.626 -13.594 L
9.626 -13.781 L
9.626 -15.156 8.735 -15.898 QT
7.845 -16.641 6.22 -16.641 QT
5.188 -16.641 4.212 -16.398 QT
3.235 -16.156 2.329 -15.656 QT
2.329 -17.484 L
3.407 -17.906 4.431 -18.117 QT
5.454 -18.328 6.423 -18.328 QT
9.032 -18.328 10.321 -16.969 QT
11.61 -15.609 11.61 -12.859 QT
cp
24.342 -17.563 M
24.342 -15.719 L
23.498 -16.188 22.654 -16.414 QT
21.811 -16.641 20.951 -16.641 QT
19.029 -16.641 17.967 -15.422 QT
16.904 -14.203 16.904 -12 QT
16.904 -9.797 17.967 -8.578 QT
19.029 -7.359 20.951 -7.359 QT
21.811 -7.359 22.654 -7.594 QT
23.498 -7.828 24.342 -8.281 QT
24.342 -6.469 L
23.514 -6.078 22.623 -5.883 QT
21.732 -5.688 20.748 -5.688 QT
18.029 -5.688 16.428 -7.398 QT
14.826 -9.109 14.826 -12 QT
14.826 -14.953 16.443 -16.641 QT
18.061 -18.328 20.873 -18.328 QT
21.779 -18.328 22.654 -18.141 QT
23.529 -17.953 24.342 -17.563 QT
cp
37.781 -13.266 M
37.781 -6 L
35.797 -6 L
35.797 -13.203 L
35.797 -14.906 35.133 -15.758 QT
34.469 -16.609 33.141 -16.609 QT
31.531 -16.609 30.609 -15.586 QT
29.688 -14.563 29.688 -12.797 QT
29.688 -6 L
27.703 -6 L
27.703 -22.719 L
29.688 -22.719 L
29.688 -16.156 L
30.391 -17.25 31.359 -17.789 QT
32.328 -18.328 33.578 -18.328 QT
35.656 -18.328 36.719 -17.039 QT
37.781 -15.75 37.781 -13.266 QT
cp
52.006 -12.516 M
52.006 -11.547 L
42.928 -11.547 L
43.053 -9.5 44.154 -8.43 QT
45.256 -7.359 47.225 -7.359 QT
48.365 -7.359 49.428 -7.641 QT
50.49 -7.922 51.553 -8.484 QT
51.553 -6.609 L
50.49 -6.156 49.373 -5.922 QT
48.256 -5.688 47.1 -5.688 QT
44.225 -5.688 42.545 -7.367 QT
40.865 -9.047 40.865 -11.891 QT
40.865 -14.859 42.459 -16.594 QT
44.053 -18.328 46.756 -18.328 QT
49.193 -18.328 50.6 -16.766 QT
52.006 -15.203 52.006 -12.516 QT
cp
50.037 -13.094 M
50.006 -14.719 49.123 -15.68 QT
48.24 -16.641 46.787 -16.641 QT
45.131 -16.641 44.131 -15.711 QT
43.131 -14.781 42.99 -13.078 QT
50.037 -13.094 L
cp
63.166 -16.203 M
63.166 -22.719 L
65.15 -22.719 L
65.15 -6 L
63.166 -6 L
63.166 -7.813 L
62.557 -6.734 61.604 -6.211 QT
60.65 -5.688 59.322 -5.688 QT
57.135 -5.688 55.768 -7.43 QT
54.4 -9.172 54.4 -12 QT
54.4 -14.844 55.768 -16.586 QT
57.135 -18.328 59.322 -18.328 QT
60.65 -18.328 61.604 -17.805 QT
62.557 -17.281 63.166 -16.203 QT
cp
56.432 -12 M
56.432 -9.828 57.33 -8.586 QT
58.229 -7.344 59.807 -7.344 QT
61.369 -7.344 62.268 -8.586 QT
63.166 -9.828 63.166 -12 QT
63.166 -14.188 62.268 -15.43 QT
61.369 -16.672 59.807 -16.672 QT
58.229 -16.672 57.33 -15.43 QT
56.432 -14.188 56.432 -12 QT
cp
76.03 -22.719 M
80.593 -22.719 L
80.593 -21.172 L
78.015 -21.172 L
78.015 -4.641 L
80.593 -4.641 L
80.593 -3.094 L
76.03 -3.094 L
76.03 -22.719 L
cp
98.723 -13.063 M
97.785 -13.063 97.254 -12.266 QT
96.723 -11.469 96.723 -10.047 QT
96.723 -8.656 97.254 -7.852 QT
97.785 -7.047 98.723 -7.047 QT
99.629 -7.047 100.16 -7.852 QT
100.691 -8.656 100.691 -10.047 QT
100.691 -11.453 100.16 -12.258 QT
99.629 -13.063 98.723 -13.063 QT
cp
98.723 -14.422 M
100.41 -14.422 101.41 -13.242 QT
102.41 -12.063 102.41 -10.047 QT
102.41 -8.047 101.41 -6.867 QT
100.41 -5.688 98.723 -5.688 QT
97.004 -5.688 96.004 -6.867 QT
95.004 -8.047 95.004 -10.047 QT
95.004 -12.063 96.004 -13.242 QT
97.004 -14.422 98.723 -14.422 QT
cp
87.629 -20.969 M
86.707 -20.969 86.176 -20.164 QT
85.645 -19.359 85.645 -17.969 QT
85.645 -16.547 86.168 -15.75 QT
86.691 -14.953 87.629 -14.953 QT
88.566 -14.953 89.098 -15.75 QT
89.629 -16.547 89.629 -17.969 QT
89.629 -19.359 89.09 -20.164 QT
88.551 -20.969 87.629 -20.969 QT
cp
97.332 -22.328 M
99.051 -22.328 L
89.02 -5.688 L
87.301 -5.688 L
97.332 -22.328 L
cp
87.629 -22.328 M
89.332 -22.328 90.34 -21.148 QT
91.348 -19.969 91.348 -17.969 QT
91.348 -15.938 90.348 -14.766 QT
89.348 -13.594 87.629 -13.594 QT
85.926 -13.594 84.934 -14.773 QT
83.941 -15.953 83.941 -17.969 QT
83.941 -19.969 84.941 -21.148 QT
85.941 -22.328 87.629 -22.328 QT
cp
110.314 -22.719 M
110.314 -3.094 L
105.768 -3.094 L
105.768 -4.641 L
108.33 -4.641 L
108.33 -21.172 L
105.768 -21.172 L
105.768 -22.719 L
110.314 -22.719 L
cp
f
GR
GS
0 0.447 0.741 RC
1 LJ
0.5 LW
N
169.525 163.762 M
169.913 106.836 L
170.3 106.836 L
170.688 71.921 L
171.075 51.048 L
171.462 77.059 L
171.85 115.593 L
172.238 134.861 L
172.625 82.725 L
173.012 54.179 L
173.4 84.065 L
173.788 149.847 L
174.175 67.992 L
174.563 54.179 L
174.95 63.571 L
175.337 122.016 L
175.725 116.798 L
176.113 88.619 L
176.5 91.256 L
176.887 74.306 L
177.275 91.256 L
177.663 122.016 L
178.05 113.667 L
178.438 66.355 L
178.825 76.095 L
179.212 112.193 L
179.6 46.604 L
179.988 80.27 L
180.375 48.96 L
180.762 48.543 L
181.15 47.469 L
181.538 38.524 L
181.925 57.078 L
182.313 38.524 L
182.7 47.161 L
183.087 47.161 L
183.475 61.294 L
183.863 38.524 L
184.25 38.524 L
184.637 38.524 L
185.025 38.524 L
185.413 38.524 L
185.8 38.524 L
186.188 45.68 L
186.575 44.349 L
186.962 38.524 L
187.35 38.524 L
187.738 38.524 L
188.125 38.524 L
188.512 38.524 L
188.9 38.524 L
189.288 38.524 L
189.675 38.524 L
190.063 38.524 L
190.45 38.524 L
190.837 38.524 L
191.225 38.524 L
191.613 38.524 L
192 38.524 L
192.387 38.524 L
192.775 38.524 L
193.163 38.524 L
193.55 38.524 L
193.938 46.351 L
194.325 48.158 L
194.712 38.524 L
195.1 38.524 L
195.488 38.524 L
195.875 45.115 L
196.262 38.524 L
196.65 38.524 L
197.038 38.524 L
197.425 38.524 L
197.813 46.604 L
198.2 38.524 L
198.587 38.524 L
198.975 48.158 L
199.363 38.524 L
199.75 38.524 L
200.137 38.524 L
200.525 38.524 L
200.913 47.469 L
201.3 51.048 L
201.688 38.524 L
202.075 38.524 L
202.462 38.524 L
202.85 38.524 L
203.238 38.524 L
203.625 58.562 L
204.012 38.524 L
204.4 38.524 L
204.788 38.524 L
205.175 38.524 L
205.563 47.161 L
205.95 38.524 L
206.337 38.524 L
206.725 38.524 L
207.113 49.909 L
207.5 38.524 L
207.887 38.524 L
208.275 49.414 L
208.663 38.524 L
209.05 57.791 L
209.438 38.524 L
209.825 38.524 L
210.212 38.524 L
210.6 38.524 L
210.988 38.524 L
211.375 38.524 L
211.762 38.524 L
212.15 38.524 L
212.538 38.524 L
212.925 38.524 L
213.313 48.158 L
213.7 48.543 L
214.087 38.524 L
214.475 38.524 L
214.863 49.414 L
215.25 38.524 L
215.637 49.909 L
216.025 50.451 L
216.413 47.801 L
216.8 67.992 L
217.188 52.439 L
217.575 80.27 L
217.962 49.414 L
218.35 38.524 L
218.738 50.451 L
219.125 38.524 L
219.512 38.524 L
219.9 48.543 L
220.288 49.909 L
220.675 51.707 L
221.063 38.524 L
221.45 38.524 L
221.837 38.524 L
222.225 62.379 L
222.613 38.524 L
223 57.791 L
223.387 38.524 L
223.775 52.439 L
224.163 38.524 L
224.55 69.833 L
224.938 62.379 L
225.325 38.524 L
225.712 38.524 L
226.1 38.524 L
226.488 49.909 L
226.875 38.524 L
227.262 52.439 L
227.65 38.524 L
228.038 38.524 L
228.425 61.294 L
228.813 38.524 L
229.2 51.048 L
229.587 38.524 L
229.975 38.524 L
230.363 38.524 L
230.75 51.707 L
231.137 53.258 L
231.525 38.524 L
231.913 38.524 L
232.3 38.524 L
232.688 52.439 L
233.075 38.524 L
233.462 38.524 L
233.85 38.524 L
234.238 38.524 L
234.625 61.294 L
235.012 38.524 L
235.4 38.524 L
235.788 38.524 L
236.175 48.96 L
236.563 38.524 L
236.95 53.258 L
237.337 51.707 L
237.725 38.524 L
238.113 38.524 L
238.5 38.524 L
238.887 38.524 L
239.275 38.524 L
239.663 38.524 L
240.05 49.909 L
240.438 38.524 L
240.825 38.524 L
241.212 38.524 L
241.6 38.524 L
241.988 38.524 L
242.375 49.414 L
242.762 38.524 L
243.15 38.524 L
243.538 38.524 L
243.925 38.524 L
244.313 38.524 L
244.7 38.524 L
245.087 51.048 L
245.475 38.524 L
245.863 38.524 L
246.25 38.524 L
246.637 53.258 L
247.025 88.619 L
247.413 38.524 L
247.8 49.414 L
248.188 53.258 L
248.575 38.524 L
248.962 38.524 L
249.35 38.524 L
249.738 48.96 L
250.125 38.524 L
250.512 51.048 L
250.9 38.524 L
251.288 38.524 L
251.675 67.992 L
252.063 38.524 L
252.45 38.524 L
252.837 77.059 L
253.225 64.89 L
253.613 77.059 L
254 38.524 L
254.387 38.524 L
254.775 38.524 L
255.163 50.451 L
255.55 38.524 L
255.938 51.048 L
256.325 49.414 L
256.712 51.048 L
257.1 50.451 L
257.487 77.059 L
257.875 38.524 L
258.263 38.524 L
258.65 38.524 L
259.038 64.89 L
259.425 38.524 L
259.813 80.27 L
260.2 38.524 L
260.587 64.89 L
260.975 49.909 L
261.362 54.179 L
261.75 85.488 L
262.138 67.992 L
262.525 48.158 L
262.913 67.992 L
263.3 59.397 L
263.688 66.355 L
264.075 76.095 L
264.462 54.179 L
264.85 74.306 L
265.237 51.707 L
265.625 53.258 L
266.013 48.543 L
266.4 51.707 L
266.788 71.921 L
267.175 53.258 L
267.563 57.791 L
267.95 56.415 L
268.337 38.524 L
268.725 77.059 L
269.112 63.571 L
269.5 77.059 L
269.888 57.791 L
270.275 38.524 L
270.663 88.619 L
271.05 71.921 L
271.438 59.397 L
271.825 96.326 L
272.212 64.89 L
272.6 57.791 L
272.987 51.048 L
273.375 101.143 L
273.763 84.065 L
274.15 51.048 L
274.538 53.258 L
274.925 74.306 L
275.313 152.377 L
275.7 64.89 L
276.087 56.415 L
276.475 74.306 L
276.862 92.197 L
277.25 110.088 L
277.638 74.306 L
278.025 88.619 L
278.413 48.158 L
278.8 51.707 L
279.188 71.921 L
279.575 69.833 L
279.962 101.143 L
280.35 74.306 L
280.737 80.27 L
281.125 77.059 L
281.513 54.179 L
281.9 69.833 L
282.288 96.326 L
282.675 122.016 L
283.063 57.791 L
283.45 129.606 L
283.837 77.059 L
284.225 88.619 L
284.612 101.143 L
285 96.326 L
285.388 53.258 L
285.775 38.524 L
286.163 69.833 L
286.55 138.714 L
286.938 106.836 L
287.325 77.059 L
287.712 92.197 L
288.1 92.197 L
288.487 61.294 L
288.875 53.258 L
289.263 129.606 L
289.65 67.992 L
290.038 74.306 L
290.425 71.921 L
290.813 66.355 L
291.2 142.889 L
291.587 122.016 L
291.975 85.488 L
292.362 50.451 L
292.75 84.065 L
293.138 105.317 L
293.525 163.762 L
293.913 80.27 L
294.3 106.836 L
294.688 57.791 L
295.075 122.016 L
295.462 67.992 L
295.85 188.81 L
296.237 94.185 L
296.625 122.016 L
297.013 92.197 L
297.4 110.088 L
297.788 92.197 L
298.175 52.439 L
298.563 163.762 L
298.95 38.524 L
299.337 106.836 L
299.725 115.593 L
300.112 72.68 L
300.5 115.593 L
300.888 115.593 L
301.275 152.377 L
301.663 78.073 L
302.05 122.016 L
302.438 96.326 L
302.825 92.197 L
303.212 105.317 L
303.6 129.606 L
303.987 67.992 L
304.375 77.059 L
304.763 110.088 L
305.15 80.27 L
305.538 55.222 L
305.925 138.714 L
306.313 163.762 L
306.7 74.306 L
307.087 77.059 L
307.475 122.016 L
307.862 134.861 L
308.25 101.143 L
308.638 110.088 L
309.025 66.355 L
309.413 92.197 L
309.8 88.619 L
310.188 105.317 L
310.575 92.197 L
310.962 101.143 L
311.35 74.306 L
311.737 105.317 L
312.125 96.326 L
312.513 88.619 L
312.9 149.847 L
313.288 54.179 L
313.675 53.258 L
314.063 115.593 L
314.45 101.143 L
314.837 101.143 L
315.225 106.836 L
315.612 96.326 L
316 74.306 L
316.388 77.059 L
316.775 110.088 L
317.163 129.606 L
317.55 142.889 L
317.938 88.619 L
318.325 110.088 L
318.712 149.847 L
319.1 177.677 L
319.487 122.016 L
319.875 152.377 L
320.263 66.355 L
320.65 55.222 L
321.038 115.593 L
321.425 122.016 L
321.813 101.143 L
322.2 129.606 L
322.587 115.593 L
322.975 80.27 L
323.362 152.377 L
323.75 74.306 L
324.138 110.088 L
324.525 101.143 L
324.913 85.488 L
325.3 96.326 L
325.688 84.065 L
326.075 96.326 L
326.462 163.762 L
326.85 96.326 L
327.237 38.524 L
327.625 115.593 L
328.013 55.222 L
328.4 138.714 L
328.788 115.593 L
329.175 152.377 L
329.563 106.836 L
329.95 129.606 L
330.337 80.27 L
330.725 56.415 L
331.112 106.836 L
331.5 101.143 L
331.888 88.619 L
332.275 163.762 L
332.663 85.488 L
333.05 92.197 L
333.438 129.606 L
333.825 115.593 L
334.212 122.016 L
334.6 122.016 L
334.987 96.326 L
335.375 85.488 L
335.763 138.714 L
336.15 163.762 L
336.538 92.197 L
336.925 226.381 L
337.313 129.606 L
337.7 142.889 L
338.087 101.143 L
338.475 149.847 L
338.862 163.762 L
339.25 96.326 L
339.638 96.326 L
340.025 71.921 L
340.413 80.27 L
340.8 52.439 L
341.188 129.606 L
341.575 163.762 L
341.962 59.397 L
342.35 80.27 L
342.737 67.992 L
343.125 122.016 L
343.513 77.059 L
343.9 132.452 L
344.288 205.508 L
344.675 129.606 L
345.063 122.016 L
345.45 163.762 L
345.837 101.143 L
346.225 122.016 L
346.612 69.833 L
347 129.606 L
347.388 163.762 L
347.775 113.667 L
348.163 129.606 L
348.55 149.847 L
348.938 142.889 L
349.325 127.98 L
349.712 105.317 L
350.1 115.593 L
350.487 129.606 L
350.875 149.847 L
351.263 113.667 L
351.65 138.714 L
352.038 163.762 L
352.425 113.667 L
352.813 152.377 L
353.2 138.714 L
353.587 96.326 L
353.975 138.714 L
354.362 163.762 L
354.75 80.27 L
355.138 105.317 L
355.525 205.508 L
355.913 138.714 L
356.3 195.071 L
356.688 138.714 L
357.075 129.606 L
357.462 71.921 L
357.85 82.725 L
358.237 122.016 L
358.625 177.677 L
359.013 101.143 L
359.4 226.381 L
359.788 138.714 L
360.175 106.836 L
360.563 129.606 L
360.95 152.377 L
361.337 188.81 L
361.725 96.326 L
362.112 149.847 L
362.5 138.714 L
362.888 177.677 L
363.275 129.606 L
363.663 188.81 L
364.05 142.889 L
364.438 195.071 L
364.825 213.857 L
365.212 85.488 L
365.6 138.714 L
365.987 80.27 L
366.375 129.606 L
366.763 149.847 L
367.15 177.677 L
367.538 195.071 L
367.925 213.857 L
368.313 92.197 L
368.7 69.833 L
369.087 129.606 L
369.475 92.197 L
369.862 101.143 L
370.25 101.143 L
370.638 152.377 L
371.025 129.606 L
371.413 188.81 L
371.8 149.847 L
372.188 115.593 L
372.575 177.677 L
372.962 163.762 L
373.35 177.677 L
373.737 253.218 L
374.125 149.847 L
374.513 205.508 L
374.9 138.714 L
375.288 253.218 L
375.675 149.847 L
376.063 138.714 L
376.45 217.435 L
376.837 149.847 L
377.225 115.593 L
377.612 163.762 L
378 115.593 L
378.388 142.889 L
378.775 106.836 L
379.163 205.508 L
379.55 163.762 L
379.938 149.847 L
380.325 152.377 L
380.712 195.071 L
381.1 217.435 L
381.487 163.762 L
381.875 88.619 L
382.263 217.435 L
382.65 77.059 L
383.038 177.677 L
383.425 163.762 L
383.813 152.377 L
384.2 177.677 L
384.587 115.593 L
384.975 138.714 L
385.362 154.128 L
385.75 149.847 L
386.138 129.606 L
386.525 177.677 L
386.913 115.593 L
387.3 88.619 L
387.688 149.847 L
388.075 129.606 L
388.462 138.714 L
388.85 253.218 L
389.237 163.762 L
389.625 149.847 L
390.013 127.98 L
390.4 122.016 L
390.788 177.677 L
391.175 113.667 L
391.563 129.606 L
391.95 96.326 L
392.337 113.667 L
392.725 129.606 L
393.112 71.921 L
393.5 152.377 L
393.888 115.593 L
394.275 149.847 L
394.663 122.016 L
395.05 122.016 L
395.438 188.81 L
395.825 217.435 L
396.212 66.355 L
396.6 115.593 L
396.987 149.847 L
397.375 152.377 L
397.763 122.016 L
398.15 177.677 L
398.538 142.889 L
398.925 177.677 L
399.313 177.677 L
399.7 205.508 L
400.087 88.619 L
400.475 152.377 L
400.862 138.714 L
401.25 163.762 L
401.638 129.606 L
402.025 80.27 L
402.413 115.593 L
402.8 113.667 L
403.188 96.326 L
403.575 101.143 L
403.962 205.508 L
404.35 101.143 L
404.737 163.762 L
405.125 188.81 L
405.513 129.606 L
405.9 149.847 L
406.288 129.606 L
406.675 177.677 L
407.063 77.059 L
407.45 106.836 L
407.837 122.016 L
408.225 85.488 L
408.612 188.81 L
409 138.714 L
409.388 175.147 L
409.775 181.653 L
410.163 142.889 L
410.55 96.326 L
410.938 71.921 L
411.325 188.81 L
411.712 181.653 L
412.1 110.088 L
412.487 138.714 L
412.875 96.326 L
413.263 163.762 L
413.65 85.488 L
414.038 115.593 L
414.425 195.071 L
414.813 138.714 L
415.2 163.762 L
415.587 110.088 L
415.975 149.847 L
416.362 129.606 L
416.75 113.667 L
417.138 101.143 L
417.525 152.377 L
417.913 149.847 L
418.3 163.762 L
418.688 152.377 L
419.075 113.667 L
419.462 122.016 L
419.85 195.071 L
420.237 129.606 L
420.625 113.667 L
421.013 152.377 L
421.4 74.306 L
421.788 149.847 L
422.175 163.762 L
422.563 149.847 L
422.95 142.889 L
423.337 106.836 L
423.725 163.762 L
424.112 163.762 L
424.5 195.071 L
424.888 101.143 L
425.275 188.81 L
425.663 122.016 L
426.05 226.381 L
426.438 149.847 L
426.825 163.762 L
427.212 205.508 L
427.6 96.326 L
427.987 122.016 L
428.375 163.762 L
428.763 92.197 L
429.15 138.714 L
429.538 101.143 L
429.925 110.088 L
430.313 138.714 L
430.7 74.306 L
431.087 195.071 L
431.475 138.714 L
431.862 122.016 L
432.25 134.861 L
432.638 226.381 L
433.025 138.714 L
433.413 122.016 L
433.8 129.606 L
434.188 163.762 L
434.575 138.714 L
434.962 122.016 L
435.35 113.667 L
435.737 226.381 L
436.125 149.847 L
436.513 129.606 L
436.9 101.143 L
437.288 138.714 L
437.675 129.606 L
438.063 163.762 L
438.45 163.762 L
438.837 205.508 L
439.225 149.847 L
439.612 101.143 L
440 163.762 L
440.388 138.714 L
440.775 163.762 L
441.163 110.088 L
441.55 163.762 L
441.938 53.258 L
442.325 64.89 L
442.712 175.147 L
443.1 96.326 L
443.487 226.381 L
443.875 195.071 L
444.263 122.016 L
444.65 163.762 L
445.038 122.016 L
445.425 195.071 L
445.813 122.016 L
446.2 142.889 L
446.587 101.143 L
446.975 88.619 L
447.362 163.762 L
447.75 226.381 L
448.138 106.836 L
448.525 122.016 L
448.913 177.677 L
449.3 142.889 L
449.688 149.847 L
450.075 163.762 L
450.462 96.326 L
450.85 163.762 L
451.237 226.381 L
451.625 195.071 L
452.013 129.606 L
452.4 129.606 L
452.788 188.81 L
453.175 129.606 L
453.563 163.762 L
453.95 177.677 L
454.337 195.071 L
454.725 129.606 L
455.112 163.762 L
455.5 205.508 L
455.888 122.016 L
456.275 138.714 L
456.663 177.677 L
457.05 122.016 L
457.438 110.088 L
457.825 80.27 L
458.212 195.071 L
458.6 257.69 L
458.987 122.016 L
459.375 177.677 L
459.763 149.847 L
460.15 138.714 L
460.538 177.677 L
460.925 101.143 L
461.313 122.016 L
461.7 177.677 L
462.087 257.69 L
462.475 129.606 L
462.862 205.508 L
463.25 129.606 L
463.638 77.059 L
464.025 149.847 L
464.413 163.762 L
464.8 163.762 L
465.188 195.071 L
465.575 163.762 L
465.962 142.889 L
466.35 195.071 L
466.737 152.377 L
467.125 152.377 L
467.513 129.606 L
467.9 106.836 L
468.288 163.762 L
468.675 163.762 L
469.063 205.508 L
469.45 138.714 L
469.837 113.667 L
470.225 195.071 L
470.612 217.435 L
471 163.762 L
471.388 113.667 L
471.775 129.606 L
472.163 149.847 L
472.55 175.147 L
472.938 115.593 L
473.325 134.861 L
473.712 115.593 L
474.1 152.377 L
474.487 129.606 L
474.875 113.667 L
475.263 78.073 L
475.65 129.606 L
476.038 71.921 L
476.425 152.377 L
476.813 195.071 L
477.2 188.81 L
477.587 96.326 L
477.975 152.377 L
478.362 177.677 L
478.75 122.016 L
479.138 122.016 L
479.525 122.016 L
479.913 152.377 L
480.3 163.762 L
480.688 132.452 L
481.075 163.762 L
481.462 115.593 L
481.85 113.667 L
482.237 175.147 L
482.625 74.306 L
483.013 106.836 L
483.4 101.143 L
483.788 74.306 L
484.175 113.667 L
484.563 129.606 L
484.95 91.256 L
485.337 163.762 L
485.725 226.381 L
486.112 106.836 L
486.5 122.016 L
486.888 88.619 L
487.275 152.377 L
487.663 129.606 L
488.05 122.016 L
488.438 129.606 L
488.825 80.27 L
489.212 163.762 L
489.6 152.377 L
489.987 138.714 L
490.375 195.071 L
490.763 149.847 L
491.15 205.508 L
491.538 152.377 L
491.925 115.593 L
492.313 122.016 L
492.7 217.435 L
493.087 115.593 L
493.475 129.606 L
493.862 177.677 L
494.25 163.762 L
494.638 163.762 L
495.025 80.27 L
495.413 195.071 L
495.8 226.381 L
496.188 177.677 L
496.575 115.593 L
496.962 113.667 L
497.35 115.593 L
497.737 80.27 L
498.125 113.667 L
498.513 152.377 L
498.9 80.27 L
499.288 177.677 L
499.675 129.606 L
500.063 163.762 L
500.45 96.326 L
500.837 96.326 L
501.225 106.836 L
501.612 195.071 L
502 115.593 L
502.388 138.714 L
502.775 163.762 L
503.163 129.606 L
503.55 138.714 L
503.938 149.847 L
504.325 188.81 L
504.712 101.143 L
505.1 138.714 L
505.487 163.762 L
505.875 115.593 L
506.263 115.593 L
506.65 163.762 L
507.038 163.762 L
507.425 226.381 L
507.813 134.861 L
508.2 149.847 L
508.587 142.889 L
508.975 110.088 L
509.362 195.071 L
509.75 106.836 L
510.138 92.197 L
510.525 217.435 L
510.913 115.593 L
511.3 132.452 L
511.688 80.27 L
512.075 129.606 L
512.463 195.071 L
512.85 217.435 L
513.237 177.677 L
513.625 84.065 L
514.013 122.016 L
514.4 101.143 L
514.787 142.889 L
515.175 106.836 L
515.563 88.619 L
515.95 113.667 L
516.338 177.677 L
516.725 177.677 L
517.112 106.836 L
517.5 163.762 L
517.888 129.606 L
518.275 163.762 L
518.662 105.317 L
519.05 77.059 L
519.438 177.677 L
519.825 101.143 L
520.213 122.016 L
520.6 138.714 L
520.987 92.197 L
521.375 138.714 L
521.763 138.714 L
522.15 92.197 L
522.537 106.836 L
522.925 129.606 L
523.313 88.619 L
523.7 177.677 L
524.088 129.606 L
524.475 106.836 L
524.862 101.143 L
525.25 129.606 L
525.638 149.847 L
526.025 154.128 L
526.412 96.326 L
526.8 142.889 L
527.188 106.836 L
527.575 101.143 L
527.963 106.836 L
528.35 129.606 L
528.737 195.071 L
529.125 226.381 L
529.513 57.791 L
529.9 134.861 L
530.287 163.762 L
530.675 113.667 L
531.063 163.762 L
531.45 163.762 L
531.838 101.143 L
532.225 129.606 L
532.612 113.667 L
533 226.381 L
533.388 101.143 L
533.775 101.143 L
534.162 257.69 L
534.55 101.143 L
534.938 96.326 L
535.325 149.847 L
535.713 101.143 L
536.1 122.016 L
536.487 101.143 L
536.875 177.677 L
537.263 122.016 L
537.65 74.306 L
538.037 138.714 L
538.425 115.593 L
538.813 163.762 L
539.2 257.69 L
539.588 177.677 L
539.975 82.725 L
540.362 122.016 L
540.75 92.197 L
541.138 96.326 L
541.525 163.762 L
541.912 80.27 L
542.3 101.143 L
542.688 177.677 L
543.075 122.016 L
543.463 226.381 L
543.85 138.714 L
544.237 152.377 L
544.625 71.921 L
545.013 177.677 L
545.4 122.016 L
545.787 163.762 L
546.175 122.016 L
546.563 152.377 L
546.95 138.714 L
547.338 115.593 L
547.725 115.593 L
548.112 96.326 L
548.5 163.762 L
548.888 177.677 L
549.275 122.016 L
549.662 163.762 L
550.05 122.016 L
550.438 188.81 L
550.825 106.836 L
551.213 106.836 L
551.6 88.619 L
551.987 163.762 L
552.375 122.016 L
552.763 195.071 L
553.15 80.27 L
553.537 163.762 L
553.925 205.508 L
554.313 113.667 L
554.7 80.27 L
555.088 80.27 L
555.475 217.435 L
555.862 115.593 L
556.25 152.377 L
556.638 101.143 L
557.025 115.593 L
557.412 106.836 L
557.8 122.016 L
558.188 106.836 L
558.575 289 L
558.963 92.197 L
559.35 129.606 L
559.737 138.714 L
560.125 129.606 L
560.513 101.143 L
560.9 113.667 L
561.287 67.992 L
561.675 163.762 L
562.063 175.147 L
562.45 142.889 L
562.838 226.381 L
563.225 163.762 L
563.612 115.593 L
564 77.059 L
564.388 56.415 L
564.775 122.016 L
565.162 122.016 L
565.55 149.847 L
565.938 115.593 L
566.325 138.714 L
566.713 188.81 L
567.1 177.677 L
567.487 53.258 L
567.875 134.861 L
568.263 138.714 L
568.65 84.065 L
569.037 163.762 L
569.425 101.143 L
569.813 80.27 L
570.2 92.197 L
570.588 152.377 L
570.975 105.317 L
571.362 217.435 L
571.75 134.861 L
572.138 106.836 L
572.525 163.762 L
572.912 115.593 L
573.3 149.847 L
573.688 142.889 L
574.075 152.377 L
574.463 88.619 L
574.85 92.197 L
575.237 163.762 L
575.625 122.016 L
576.013 226.381 L
576.4 152.377 L
576.787 106.836 L
577.175 71.921 L
577.563 122.016 L
577.95 205.508 L
578.338 226.381 L
578.725 195.071 L
579.112 163.762 L
579.5 80.27 L
579.888 138.714 L
580.275 115.593 L
580.662 115.593 L
581.05 195.071 L
581.438 110.088 L
581.825 127.98 L
582.213 92.197 L
582.6 175.147 L
582.987 129.606 L
583.375 163.762 L
583.763 226.381 L
584.15 177.677 L
584.537 92.197 L
584.925 129.606 L
585.313 138.714 L
585.7 66.355 L
586.088 163.762 L
586.475 142.889 L
586.862 101.143 L
587.25 142.889 L
587.638 138.714 L
588.025 115.593 L
588.412 195.071 L
588.8 97.459 L
589.188 88.619 L
589.575 129.606 L
589.963 149.847 L
590.35 122.016 L
590.737 205.508 L
591.125 101.143 L
591.513 96.326 L
591.9 129.606 L
592.287 96.326 L
592.675 205.508 L
593.063 84.065 L
593.45 205.508 L
593.838 138.714 L
594.225 101.143 L
594.612 177.677 L
595 217.435 L
595.388 129.606 L
595.775 106.836 L
596.162 138.714 L
596.55 163.762 L
596.938 195.071 L
597.325 149.847 L
597.713 69.833 L
598.1 177.677 L
598.487 188.81 L
598.875 129.606 L
599.263 188.81 L
599.65 175.147 L
600.037 101.143 L
600.425 84.065 L
600.813 152.377 L
601.2 71.921 L
601.588 163.762 L
601.975 129.606 L
602.362 195.071 L
602.75 213.857 L
603.138 149.847 L
603.525 177.677 L
603.912 129.606 L
604.3 205.508 L
604.688 175.147 L
605.075 152.377 L
605.463 101.143 L
605.85 163.762 L
606.237 195.071 L
606.625 115.593 L
607.013 138.714 L
607.4 163.762 L
607.787 129.606 L
608.175 163.762 L
608.563 134.861 L
608.95 101.143 L
609.338 134.861 L
609.725 113.667 L
610.112 92.197 L
610.5 163.762 L
610.888 50.451 L
611.275 122.016 L
611.662 106.836 L
612.05 101.143 L
612.438 127.98 L
612.825 122.016 L
613.213 78.073 L
613.6 138.714 L
613.987 188.81 L
614.375 149.847 L
614.763 188.81 L
615.15 142.889 L
615.537 163.762 L
615.925 122.016 L
616.313 129.606 L
616.7 113.667 L
617.088 205.508 L
617.475 92.197 L
617.862 69.833 L
618.25 163.762 L
618.638 115.593 L
619.025 152.377 L
619.412 101.143 L
619.8 110.088 L
620.188 129.606 L
620.575 195.071 L
620.963 163.762 L
621.35 85.488 L
621.737 101.143 L
622.125 163.762 L
622.513 96.326 L
622.9 163.762 L
623.287 175.147 L
623.675 195.071 L
624.063 92.197 L
624.45 122.016 L
624.838 122.016 L
625.225 80.27 L
625.612 205.508 L
626 177.677 L
626.388 113.667 L
626.775 129.606 L
627.162 129.606 L
627.55 88.619 L
627.938 122.016 L
628.325 149.847 L
628.713 69.833 L
629.1 177.677 L
629.487 226.381 L
629.875 106.836 L
630.263 205.508 L
630.65 106.836 L
631.037 122.016 L
631.425 149.847 L
631.813 163.762 L
632.2 115.593 L
632.588 101.143 L
632.975 92.197 L
633.362 80.27 L
633.75 106.836 L
634.138 177.677 L
634.525 122.016 L
634.912 163.762 L
635.3 113.667 L
635.688 110.088 L
636.075 152.377 L
636.463 149.847 L
636.85 85.488 L
637.237 188.81 L
637.625 149.847 L
638.013 129.606 L
638.4 142.889 L
638.787 113.667 L
639.175 122.016 L
639.563 138.714 L
639.95 106.836 L
640.338 138.714 L
640.725 129.606 L
641.112 88.619 L
641.5 77.059 L
641.888 112.193 L
642.275 129.606 L
642.662 122.016 L
643.05 69.833 L
643.438 80.27 L
643.825 80.27 L
644.213 129.606 L
644.6 149.847 L
644.987 129.606 L
645.375 163.762 L
645.763 113.667 L
646.15 66.355 L
646.537 177.677 L
646.925 142.889 L
647.313 152.377 L
647.7 134.861 L
648.088 152.377 L
648.475 110.088 L
648.862 177.677 L
649.25 175.147 L
649.638 142.889 L
650.025 106.836 L
650.412 163.762 L
650.8 122.016 L
651.188 69.833 L
651.575 122.016 L
651.963 122.016 L
652.35 88.619 L
652.737 226.381 L
653.125 152.377 L
653.513 115.593 L
653.9 142.889 L
654.287 96.326 L
654.675 115.593 L
655.063 106.836 L
655.45 122.016 L
655.838 129.606 L
656.225 163.762 L
656.612 163.762 L
657 152.377 L
657.388 138.714 L
657.775 142.889 L
658.162 122.016 L
658.55 106.836 L
658.938 177.677 L
659.325 101.143 L
659.713 106.836 L
660.1 142.889 L
660.487 188.81 L
660.875 122.016 L
661.263 122.016 L
661.65 122.016 L
662.037 101.143 L
662.425 101.143 L
662.813 101.143 L
663.2 74.306 L
663.588 134.861 L
663.975 71.921 L
664.362 122.016 L
664.75 177.677 L
665.138 122.016 L
665.525 177.677 L
665.912 96.326 L
666.3 152.377 L
666.688 138.714 L
667.075 152.377 L
667.463 106.836 L
667.85 115.593 L
668.237 96.326 L
668.625 149.847 L
669.013 163.762 L
669.4 129.606 L
669.787 177.677 L
670.175 177.677 L
670.563 152.377 L
670.95 163.762 L
671.338 115.593 L
671.725 217.435 L
672.112 142.889 L
672.5 106.836 L
672.888 152.377 L
673.275 138.714 L
673.662 152.377 L
674.05 163.762 L
674.438 152.377 L
674.825 101.143 L
675.213 115.593 L
675.6 122.016 L
675.987 188.81 L
676.375 163.762 L
676.763 92.197 L
677.15 149.847 L
677.537 84.065 L
677.925 134.861 L
678.313 195.071 L
678.7 129.606 L
679.088 149.847 L
679.475 110.088 L
679.862 122.016 L
680.25 152.377 L
680.638 177.677 L
681.025 106.836 L
681.412 149.847 L
681.8 149.847 L
682.188 163.762 L
682.575 122.016 L
682.963 154.128 L
683.35 129.606 L
683.737 149.847 L
684.125 92.197 L
684.513 177.677 L
684.9 177.677 L
685.287 101.143 L
685.675 101.143 L
686.063 129.606 L
686.45 205.508 L
686.838 163.762 L
687.225 129.606 L
687.612 122.016 L
688 163.762 L
688.388 163.762 L
688.775 149.847 L
689.162 188.81 L
689.55 80.27 L
689.938 226.381 L
690.325 129.606 L
690.713 129.606 L
691.1 152.377 L
691.487 177.677 L
691.875 163.762 L
692.263 188.81 L
692.65 129.606 L
693.037 92.197 L
693.425 106.836 L
693.813 69.833 L
694.2 106.836 L
694.588 110.088 L
694.975 122.016 L
695.362 142.889 L
695.75 217.435 L
696.138 122.016 L
696.525 110.088 L
696.912 195.071 L
697.3 122.016 L
697.688 129.606 L
698.075 152.377 L
698.463 101.143 L
698.85 122.016 L
699.237 105.317 L
699.625 96.326 L
700.013 122.016 L
700.4 226.381 L
700.787 122.016 L
701.175 96.326 L
701.563 138.714 L
701.95 127.98 L
702.338 84.065 L
702.725 217.435 L
703.112 152.377 L
703.5 226.381 L
703.888 106.836 L
704.275 177.677 L
704.662 88.619 L
705.05 129.606 L
705.438 177.677 L
705.825 188.81 L
706.213 134.861 L
706.6 195.071 L
706.987 138.714 L
707.375 115.593 L
707.763 85.488 L
708.15 205.508 L
708.537 106.836 L
708.925 138.714 L
709.313 106.836 L
709.7 163.762 L
710.088 163.762 L
710.475 138.714 L
710.862 138.714 L
711.25 115.593 L
711.638 163.762 L
712.025 129.606 L
712.412 195.071 L
712.8 106.836 L
713.188 129.606 L
713.575 163.762 L
713.963 195.071 L
714.35 88.619 L
714.737 152.377 L
715.125 152.377 L
715.513 122.016 L
715.9 96.326 L
716.287 129.606 L
716.675 195.071 L
717.063 122.016 L
717.45 129.606 L
717.838 163.762 L
718.225 138.714 L
718.612 138.714 L
719 129.606 L
719.388 149.847 L
719.775 115.593 L
720.162 205.508 L
720.55 129.606 L
720.938 163.762 L
721.325 177.677 L
721.713 152.377 L
722.1 163.762 L
722.487 142.889 L
722.875 122.016 L
723.263 122.016 L
723.65 96.326 L
724.037 129.606 L
724.425 113.667 L
724.813 110.088 L
725.2 96.326 L
725.588 113.667 L
725.975 195.071 L
726.362 152.377 L
726.75 152.377 L
727.138 163.762 L
727.525 92.197 L
727.912 177.677 L
728.3 163.762 L
728.688 101.143 L
729.075 84.065 L
729.463 163.762 L
729.85 253.218 L
730.237 163.762 L
730.625 142.889 L
731.013 138.714 L
731.4 188.81 L
731.787 152.377 L
732.175 177.677 L
732.563 138.714 L
732.95 152.377 L
733.338 138.714 L
733.725 105.317 L
734.112 195.071 L
734.5 163.762 L
734.888 188.81 L
735.275 195.071 L
735.662 138.714 L
736.05 74.306 L
736.438 226.381 L
736.825 163.762 L
737.213 205.508 L
737.6 142.889 L
737.987 152.377 L
738.375 152.377 L
738.763 92.197 L
739.15 195.071 L
739.537 226.381 L
739.925 122.016 L
740.313 149.847 L
740.7 163.762 L
741.088 142.889 L
741.475 129.606 L
741.862 142.889 L
742.25 177.677 L
742.638 122.016 L
743.025 163.762 L
743.412 138.714 L
743.8 134.861 L
744.188 106.836 L
744.575 175.147 L
744.963 177.677 L
745.35 113.667 L
745.737 129.606 L
746.125 88.619 L
746.513 149.847 L
746.9 177.677 L
747.287 129.606 L
747.675 195.071 L
748.063 177.677 L
748.45 205.508 L
748.838 129.606 L
749.225 96.326 L
749.612 152.377 L
750 110.088 L
750.388 149.847 L
750.775 138.714 L
751.162 101.143 L
751.55 163.762 L
751.938 77.059 L
752.325 152.377 L
752.713 163.762 L
753.1 110.088 L
753.487 163.762 L
753.875 142.889 L
754.263 80.27 L
754.65 106.836 L
755.037 177.677 L
755.425 66.355 L
755.813 152.377 L
756.2 101.143 L
756.588 101.143 L
756.975 88.619 L
757.362 61.294 L
757.75 253.218 L
758.138 129.606 L
758.525 226.381 L
758.912 138.714 L
759.3 142.889 L
759.688 106.836 L
760.075 122.016 L
760.463 217.435 L
760.85 177.677 L
761.237 163.762 L
761.625 134.861 L
762.013 129.606 L
762.4 129.606 L
762.787 205.508 L
763.175 226.381 L
763.563 106.836 L
763.95 149.847 L
764.338 122.016 L
764.725 129.606 L
765.112 177.677 L
765.5 177.677 L
765.888 138.714 L
766.275 115.593 L
766.662 149.847 L
767.05 195.071 L
767.438 142.889 L
767.825 77.059 L
768.213 257.69 L
768.6 122.016 L
768.987 122.016 L
769.375 113.667 L
769.763 138.714 L
770.15 113.667 L
770.537 177.677 L
770.925 115.593 L
771.313 142.889 L
771.7 96.326 L
772.088 122.016 L
772.475 82.725 L
772.862 101.143 L
773.25 52.439 L
773.638 122.016 L
774.025 129.606 L
774.412 138.714 L
774.8 122.016 L
775.188 84.065 L
775.575 122.016 L
775.963 101.143 L
776.35 257.69 L
776.737 217.435 L
777.125 122.016 L
777.513 110.088 L
777.9 138.714 L
778.287 113.667 L
778.675 116.798 L
779.063 101.143 L
779.45 88.619 L
779.838 129.606 L
780.225 106.836 L
780.612 101.143 L
781 129.606 L
781.388 163.762 L
781.775 115.593 L
782.162 80.27 L
782.55 149.847 L
782.938 253.218 L
783.325 77.059 L
783.713 101.143 L
784.1 152.377 L
784.487 106.836 L
784.875 163.762 L
785.263 129.606 L
785.65 149.847 L
786.037 113.667 L
786.425 122.016 L
786.813 149.847 L
787.2 85.488 L
787.588 84.065 L
787.975 129.606 L
788.362 115.593 L
788.75 138.714 L
789.138 177.677 L
789.525 226.381 L
789.912 122.016 L
790.3 110.088 L
790.688 177.677 L
791.075 195.071 L
791.463 115.593 L
791.85 142.889 L
792.237 129.606 L
792.625 106.836 L
793.013 138.714 L
793.4 129.606 L
793.787 101.143 L
794.175 106.836 L
794.563 129.606 L
794.95 74.306 L
795.338 122.016 L
795.725 129.606 L
796.112 205.508 L
796.5 106.836 L
796.888 115.593 L
797.275 195.071 L
797.662 163.762 L
798.05 105.317 L
798.438 77.059 L
798.825 77.059 L
799.213 53.258 L
799.6 122.016 L
799.987 138.714 L
800.375 77.059 L
800.763 67.992 L
801.15 110.088 L
801.537 69.833 L
801.925 94.185 L
802.313 88.619 L
802.7 122.016 L
803.088 163.762 L
803.475 217.435 L
803.862 88.619 L
804.25 80.27 L
804.638 188.81 L
805.025 101.143 L
805.412 149.847 L
805.8 163.762 L
806.188 110.088 L
806.575 163.762 L
806.963 127.98 L
807.35 88.619 L
807.737 96.326 L
808.125 177.677 L
808.513 38.524 L
808.9 56.415 L
809.287 55.222 L
809.675 96.326 L
810.063 129.606 L
810.45 94.185 L
810.838 188.81 L
811.225 92.197 L
811.612 88.619 L
812 96.326 L
812.388 57.791 L
812.775 154.128 L
813.162 56.415 L
813.55 122.016 L
813.938 101.143 L
814.325 163.762 L
814.713 110.088 L
815.1 129.606 L
815.487 115.593 L
815.875 71.921 L
816.263 152.377 L
816.65 106.836 L
817.037 129.606 L
817.425 138.714 L
817.813 152.377 L
818.2 101.143 L
818.588 80.27 L
818.975 69.833 L
819.362 152.377 L
819.75 59.397 L
820.138 113.667 L
820.525 138.714 L
820.912 149.847 L
821.3 80.27 L
821.688 226.381 L
822.075 106.836 L
822.463 127.98 L
822.85 177.677 L
823.237 101.143 L
823.625 110.088 L
824.013 115.593 L
824.4 129.606 L
824.787 149.847 L
825.175 71.921 L
825.563 84.065 L
825.95 217.435 L
826.338 96.326 L
826.725 122.016 L
827.112 122.016 L
827.5 84.065 L
827.888 163.762 L
828.275 106.836 L
828.662 138.714 L
829.05 149.847 L
829.438 122.016 L
829.825 92.197 L
830.213 113.667 L
830.6 129.606 L
830.987 101.143 L
831.375 134.861 L
831.763 122.016 L
832.15 152.377 L
832.537 129.606 L
832.925 177.677 L
833.313 163.762 L
833.7 122.016 L
834.088 122.016 L
834.475 106.836 L
834.862 138.714 L
835.25 80.27 L
835.638 115.593 L
836.025 101.143 L
836.412 80.27 L
836.8 138.714 L
837.188 80.27 L
837.575 96.326 L
837.963 110.088 L
838.35 96.326 L
838.737 205.508 L
839.125 113.667 L
839.513 116.798 L
839.9 115.593 L
840.287 85.488 L
840.675 177.677 L
841.063 115.593 L
841.45 122.016 L
841.838 57.791 L
842.225 122.016 L
842.612 163.762 L
843 105.317 L
843.388 152.377 L
843.775 115.593 L
844.162 101.143 L
844.55 115.593 L
844.938 51.707 L
845.325 163.762 L
845.713 101.143 L
846.1 101.143 L
846.487 105.317 L
846.875 69.833 L
847.263 195.071 L
847.65 101.143 L
848.037 188.81 L
848.425 113.667 L
848.813 96.326 L
849.2 106.836 L
849.588 77.059 L
849.975 142.889 L
850.362 96.326 L
850.75 177.677 L
851.138 80.27 L
851.525 127.98 L
851.912 110.088 L
852.3 163.762 L
852.688 67.992 L
853.075 80.27 L
853.463 69.833 L
853.85 84.065 L
854.237 106.836 L
854.625 71.921 L
855.013 77.059 L
855.4 115.593 L
855.787 115.593 L
856.175 55.222 L
856.563 85.488 L
856.95 115.593 L
857.338 163.762 L
857.725 96.326 L
858.112 59.397 L
858.5 55.222 L
858.888 74.306 L
859.275 122.016 L
859.662 77.059 L
860.05 101.143 L
860.438 66.355 L
860.825 129.606 L
861.213 101.143 L
861.6 80.27 L
861.987 56.415 L
862.375 55.222 L
862.763 69.833 L
863.15 92.197 L
863.537 92.197 L
863.925 106.836 L
864.313 106.836 L
864.7 71.921 L
865.088 77.059 L
865.475 38.524 L
865.862 149.847 L
866.25 80.27 L
866.638 67.992 L
867.025 55.222 L
867.412 84.065 L
867.8 59.397 L
868.188 101.143 L
868.575 84.065 L
868.963 38.524 L
869.35 88.619 L
869.737 38.524 L
870.125 105.317 L
870.513 52.439 L
870.9 77.059 L
871.287 59.397 L
871.675 55.222 L
872.063 54.179 L
872.45 88.619 L
872.838 53.258 L
873.225 54.179 L
873.612 66.355 L
874 38.524 L
874.388 38.524 L
874.775 66.355 L
875.162 67.992 L
875.55 57.791 L
875.938 67.992 L
876.325 129.606 L
876.713 67.992 L
877.1 55.222 L
877.487 88.619 L
877.875 138.714 L
878.263 80.27 L
878.65 57.791 L
879.037 51.048 L
879.425 38.524 L
879.813 71.921 L
880.2 54.179 L
880.588 52.439 L
880.975 59.397 L
881.362 59.397 L
881.75 38.524 L
882.138 51.048 L
882.525 71.921 L
882.912 38.524 L
883.3 56.415 L
883.688 71.921 L
884.075 38.524 L
884.463 71.921 L
884.85 71.921 L
885.237 54.179 L
885.625 71.921 L
886.013 56.415 L
886.4 74.306 L
886.787 74.306 L
887.175 74.306 L
887.563 106.836 L
887.95 56.415 L
888.338 38.524 L
888.725 61.294 L
889.112 59.397 L
889.5 67.992 L
889.888 55.222 L
890.275 84.065 L
890.662 96.326 L
891.05 67.992 L
891.438 71.921 L
891.825 38.524 L
892.213 38.524 L
892.6 53.258 L
892.987 67.992 L
893.375 105.317 L
893.763 52.439 L
894.15 61.294 L
894.537 77.059 L
894.925 55.222 L
895.313 106.836 L
895.7 113.667 L
896.088 84.065 L
896.475 69.833 L
896.862 61.294 L
897.25 85.488 L
897.638 74.306 L
898.025 38.524 L
898.412 115.593 L
898.8 101.143 L
899.188 54.179 L
899.575 59.397 L
899.963 55.222 L
900.35 69.833 L
900.737 56.415 L
901.125 67.992 L
901.513 38.524 L
901.9 80.27 L
902.287 57.791 L
902.675 67.992 L
903.063 71.921 L
903.45 54.179 L
903.838 88.619 L
904.225 56.415 L
904.612 67.992 L
905 59.397 L
S
GR
GS
1 0 0 RC
1 LJ
0.5 LW
N
169.525 94.579 M
169.913 92.802 L
170.3 92.354 L
170.688 90.858 L
171.075 89.447 L
171.462 88.093 L
171.85 86.544 L
172.238 85.651 L
172.625 84.265 L
173.012 83.205 L
173.4 82.204 L
173.788 81.639 L
174.175 80.504 L
174.563 79.428 L
174.95 78.405 L
175.337 77.432 L
175.725 76.506 L
176.113 75.623 L
176.5 74.942 L
176.887 74.262 L
177.275 73.485 L
177.663 72.742 L
178.05 72.029 L
178.438 71.345 L
178.825 70.688 L
179.212 70.058 L
179.6 67.602 L
179.988 66.263 L
180.375 64.923 L
180.762 64.268 L
181.15 64.023 L
181.538 63.267 L
181.925 61.756 L
182.313 59.867 L
182.7 59 L
183.087 58.694 L
183.475 57.801 L
183.863 55.618 L
184.25 55.193 L
184.637 55.075 L
185.025 54.584 L
185.413 52.947 L
185.8 51.412 L
186.188 50.559 L
186.575 49.525 L
186.962 48.824 L
187.35 47.79 L
187.738 46.153 L
188.125 44.838 L
188.512 44.292 L
188.9 43.555 L
189.288 42.3 L
189.675 42.141 L
190.063 41.323 L
190.45 41.118 L
190.837 40.922 L
191.225 40.922 L
191.613 41.167 L
192 40.803 L
192.387 40.803 L
192.775 40.634 L
193.163 40.465 L
193.55 40.018 L
193.938 40.411 L
194.325 40.411 L
194.712 40.411 L
195.1 40.411 L
195.488 40.411 L
195.875 40.581 L
196.262 40.44 L
196.65 40.326 L
197.038 40.326 L
197.425 40.549 L
197.813 40.549 L
198.2 40.549 L
198.587 40.763 L
198.975 40.763 L
199.363 41.141 L
199.75 41.141 L
200.137 41.141 L
200.525 41.141 L
200.913 41.141 L
201.3 41.141 L
201.688 41.141 L
202.075 41.141 L
202.462 41.141 L
202.85 41.141 L
203.238 41.141 L
203.625 41.329 L
204.012 41.372 L
204.4 41.184 L
204.788 41.184 L
205.175 41.397 L
205.563 41.397 L
205.95 41.491 L
206.337 41.725 L
206.725 41.907 L
207.113 42.485 L
207.5 42.757 L
207.887 43.418 L
208.275 43.631 L
208.663 43.631 L
209.05 43.676 L
209.438 43.676 L
209.825 43.676 L
210.212 43.873 L
210.6 44.096 L
210.988 44.179 L
211.375 43.933 L
211.762 43.933 L
212.15 43.933 L
212.538 44.401 L
212.925 44.401 L
213.313 44.779 L
213.7 44.386 L
214.087 44.659 L
214.475 44.659 L
214.863 45.273 L
215.25 45.74 L
215.637 45.571 L
216.025 45.571 L
216.413 45.571 L
216.8 45.794 L
217.188 45.571 L
217.575 45.844 L
217.962 45.844 L
218.35 45.63 L
218.738 46.077 L
219.125 45.699 L
219.512 45.945 L
219.9 45.945 L
220.288 45.945 L
220.675 45.945 L
221.063 46.203 L
221.45 46.492 L
221.837 46.492 L
222.225 46.492 L
222.613 46.492 L
223 46.765 L
223.387 46.576 L
223.775 46.38 L
224.163 46.38 L
224.55 46.38 L
224.938 46.612 L
225.325 46.612 L
225.712 46.389 L
226.1 46.155 L
226.488 46.178 L
226.875 45.6 L
227.262 45.616 L
227.65 45.056 L
228.038 44.843 L
228.425 44.843 L
228.813 44.609 L
229.2 44.609 L
229.587 44.609 L
229.975 44.412 L
230.363 44.412 L
230.75 44.154 L
231.137 44.154 L
231.525 44.154 L
231.913 44.154 L
232.3 43.686 L
232.688 43.9 L
233.075 43.522 L
233.462 43.522 L
233.85 43.249 L
234.238 43.249 L
234.625 42.635 L
235.012 42.167 L
235.4 42.413 L
235.788 42.413 L
236.175 42.413 L
236.563 42.19 L
236.95 42.479 L
237.337 43.188 L
237.725 43.188 L
238.113 43.402 L
238.5 43.244 L
238.887 43.244 L
239.275 42.998 L
239.663 42.998 L
240.05 43.203 L
240.438 43.203 L
240.825 43.19 L
241.212 42.901 L
241.6 42.901 L
241.988 43.479 L
242.375 43.479 L
242.762 43.206 L
243.15 43.962 L
243.538 44.479 L
243.925 45.234 L
244.313 45.234 L
244.7 44.788 L
245.087 44.788 L
245.475 45.022 L
245.863 45.022 L
246.25 45.063 L
246.637 45.276 L
247.025 45.233 L
247.413 45.208 L
247.8 45.964 L
248.188 45.964 L
248.575 45.964 L
248.962 45.964 L
249.35 46.481 L
249.738 46.481 L
250.125 47.076 L
250.512 47.076 L
250.9 47.593 L
251.288 47.816 L
251.675 48.123 L
252.063 49.044 L
252.45 49.408 L
252.837 49.597 L
253.225 50.175 L
253.613 50.584 L
254 51.13 L
254.387 51.867 L
254.775 52.174 L
255.163 52.63 L
255.55 52.888 L
255.938 53.177 L
256.325 53.374 L
256.712 53.343 L
257.1 53.016 L
257.487 53.305 L
257.875 53.469 L
258.263 53.531 L
258.65 53.531 L
259.038 54.287 L
259.425 54.778 L
259.813 55.329 L
260.2 55.706 L
260.587 55.461 L
260.975 56.443 L
261.362 57.098 L
261.75 56.929 L
262.138 58.063 L
262.525 58.58 L
262.913 58.202 L
263.3 57.931 L
263.688 58.403 L
264.075 59.296 L
264.462 59.541 L
264.85 59.83 L
265.237 60.298 L
265.625 62.53 L
266.013 62.802 L
266.4 62.939 L
266.788 63.395 L
267.175 64.214 L
267.563 64.861 L
267.95 65.563 L
268.337 66.545 L
268.725 66.734 L
269.112 66.476 L
269.5 67.13 L
269.888 66.926 L
270.275 68.154 L
270.663 68.338 L
271.05 68.934 L
271.438 69.382 L
271.825 68.768 L
272.212 68.804 L
272.6 69.749 L
272.987 70.808 L
273.375 70.777 L
273.763 72.017 L
274.15 72.036 L
274.538 72.711 L
274.925 73.237 L
275.313 74.112 L
275.7 74.112 L
276.087 73.916 L
276.475 74.271 L
276.862 75.581 L
277.25 76.631 L
277.638 77.009 L
278.025 77.711 L
278.413 78.763 L
278.8 78.454 L
279.188 78.252 L
279.575 79.282 L
279.962 79.482 L
280.35 80.184 L
280.737 79.856 L
281.125 79.747 L
281.513 81.384 L
281.9 81.888 L
282.288 82.292 L
282.675 82.148 L
283.063 82.795 L
283.45 82.877 L
283.837 84.44 L
284.225 85.013 L
284.612 86.064 L
285 85.74 L
285.388 85.144 L
285.775 85.205 L
286.163 87.801 L
286.55 88.191 L
286.938 88.776 L
287.325 88.425 L
287.712 89.126 L
288.1 89.197 L
288.487 89.281 L
288.875 91.478 L
289.263 90.823 L
289.65 91.548 L
290.038 91.832 L
290.425 91.8 L
290.813 92.493 L
291.2 93.248 L
291.587 95.174 L
291.975 95.335 L
292.362 95.839 L
292.75 95.335 L
293.138 96.01 L
293.525 95.533 L
293.913 96.564 L
294.3 96.159 L
294.688 95.687 L
295.075 95.957 L
295.462 96.487 L
295.85 96.814 L
296.237 98.165 L
296.625 98.656 L
297.013 98.018 L
297.4 98.018 L
297.788 98.603 L
298.175 99.439 L
298.563 100.221 L
298.95 101.335 L
299.337 100.095 L
299.725 100.569 L
300.112 100.85 L
300.5 101.505 L
300.888 102.011 L
301.275 101.193 L
301.663 100.257 L
302.05 100.646 L
302.438 101.546 L
302.825 101.635 L
303.212 102.508 L
303.6 100.359 L
303.987 99.83 L
304.375 100.002 L
304.763 100.852 L
305.15 100.442 L
305.538 101.204 L
305.925 99.391 L
306.313 99.001 L
306.7 98.119 L
307.087 98.47 L
307.475 98.853 L
307.862 99.847 L
308.25 100.556 L
308.638 99.504 L
309.025 101.686 L
309.413 103.076 L
309.8 103.201 L
310.188 104.764 L
310.575 103.799 L
310.962 102.615 L
311.35 101.894 L
311.737 102.755 L
312.125 102.346 L
312.513 102.999 L
312.9 103.457 L
313.288 102.966 L
313.675 103.413 L
314.063 103.536 L
314.45 104.184 L
314.837 104.009 L
315.225 104.111 L
315.612 104.917 L
316 103.845 L
316.388 102.523 L
316.775 104.277 L
317.163 104.655 L
317.55 103.018 L
317.938 102.64 L
318.325 101.74 L
318.712 102.301 L
319.1 103.266 L
319.487 104.446 L
319.875 104.804 L
320.263 105.28 L
320.65 105.046 L
321.038 104.169 L
321.425 104.807 L
321.813 104.725 L
322.2 104.574 L
322.587 106.047 L
322.975 104.785 L
323.362 105.531 L
323.75 107.028 L
324.138 107.028 L
324.525 107.437 L
324.913 107.846 L
325.3 107.64 L
325.688 107.428 L
326.075 108.691 L
326.462 110.391 L
326.85 110.04 L
327.237 111.937 L
327.625 111.677 L
328.013 112.741 L
328.4 112.566 L
328.788 112.566 L
329.175 112.293 L
329.563 111.789 L
329.95 110.69 L
330.337 110.799 L
330.725 111.29 L
331.112 110.052 L
331.5 110.201 L
331.888 111.429 L
332.275 110.052 L
332.663 109.359 L
333.05 109.119 L
333.438 108.523 L
333.825 108.577 L
334.212 109.016 L
334.6 111.062 L
334.987 111.927 L
335.375 112.431 L
335.763 113.994 L
336.15 114.088 L
336.538 113.27 L
336.925 112.75 L
337.313 114.536 L
337.7 115.481 L
338.087 116.627 L
338.475 116.448 L
338.862 117.12 L
339.25 116.934 L
339.638 117.348 L
340.025 116.872 L
340.413 117.565 L
340.8 119 L
341.188 119.843 L
341.575 120.089 L
341.962 121.071 L
342.35 121.071 L
342.737 121.623 L
343.125 122.803 L
343.513 122.982 L
343.9 122.604 L
344.288 122.932 L
344.675 123.75 L
345.063 123.435 L
345.45 123.824 L
345.837 125.134 L
346.225 124.643 L
346.612 126.66 L
347 124.941 L
347.388 124.941 L
347.775 123.549 L
348.163 123.188 L
348.55 122.642 L
348.938 122.915 L
349.325 123.01 L
349.712 125.56 L
350.1 126.87 L
350.487 127.39 L
350.875 128.904 L
351.263 129.35 L
351.65 129.841 L
352.038 130.565 L
352.425 131.929 L
352.813 133.316 L
353.2 134.408 L
353.587 135.438 L
353.975 136.543 L
354.362 135.315 L
354.75 136.599 L
355.138 138.4 L
355.525 136.865 L
355.913 137.602 L
356.3 136.783 L
356.688 137.955 L
357.075 138.352 L
357.462 138.625 L
357.85 140.221 L
358.237 141.873 L
358.625 140.742 L
359.013 139.31 L
359.4 139.342 L
359.788 139.085 L
360.175 138.801 L
360.563 138.243 L
360.95 138.293 L
361.337 138.605 L
361.725 139.588 L
362.112 139.315 L
362.5 139.353 L
362.888 139.849 L
363.275 140.34 L
363.663 141.935 L
364.05 144.18 L
364.438 143.907 L
364.825 146.363 L
365.212 147.018 L
365.6 147.953 L
365.987 148.171 L
366.375 147.066 L
366.763 148.61 L
367.15 149.007 L
367.538 149.863 L
367.925 151.452 L
368.313 151.326 L
368.7 150.644 L
369.087 150.756 L
369.475 150.346 L
369.862 150.838 L
370.25 151.681 L
370.638 152.127 L
371.025 152.965 L
371.413 153.526 L
371.8 154.848 L
372.188 153.648 L
372.575 155.191 L
372.962 153.218 L
373.35 154.161 L
373.737 153.67 L
374.125 153.856 L
374.513 153.515 L
374.9 151.588 L
375.288 152.632 L
375.675 152.934 L
376.063 154.298 L
376.45 154.298 L
376.837 154.844 L
377.225 153.626 L
377.612 151.539 L
378 150.284 L
378.388 151.017 L
378.775 152.368 L
379.163 154.792 L
379.55 156.195 L
379.938 157.15 L
380.325 157.676 L
380.712 157.081 L
381.1 158.023 L
381.487 156.55 L
381.875 156.153 L
382.263 155.775 L
382.65 154.52 L
383.038 153.851 L
383.425 151.777 L
383.813 149.8 L
384.2 149.128 L
384.587 148.037 L
384.975 147.709 L
385.362 145.137 L
385.75 145.901 L
386.138 147.444 L
386.525 144.482 L
386.913 143.81 L
387.3 144.482 L
387.688 144.259 L
388.075 144.384 L
388.462 145.067 L
388.85 145.774 L
389.237 145.228 L
389.625 145.501 L
390.013 146.592 L
390.4 145.342 L
390.788 144.505 L
391.175 142.961 L
391.563 142.961 L
391.95 143.765 L
392.337 141.075 L
392.725 141.831 L
393.112 140.576 L
393.5 139.254 L
393.888 138.249 L
394.275 138.795 L
394.663 138.511 L
395.05 139.002 L
395.438 139.683 L
395.825 139.286 L
396.212 139.683 L
396.6 138.74 L
396.987 139.957 L
397.375 139.731 L
397.763 138.887 L
398.15 138.738 L
398.538 137.695 L
398.925 136.432 L
399.313 135.941 L
399.7 136.437 L
400.087 137.489 L
400.475 137.899 L
400.862 136.303 L
401.25 135.485 L
401.638 136.646 L
402.025 138.319 L
402.413 138.249 L
402.8 138.427 L
403.188 138.906 L
403.575 139.129 L
403.962 138.539 L
404.35 137.867 L
404.737 139.299 L
405.125 139.627 L
405.513 139.136 L
405.9 137.031 L
406.288 138.668 L
406.675 138.943 L
407.063 138.233 L
407.45 137.229 L
407.837 137.824 L
408.225 137.278 L
408.612 137.688 L
409 137.192 L
409.388 135.937 L
409.775 134.299 L
410.163 136.387 L
410.55 135.94 L
410.938 135.449 L
411.325 135.226 L
411.712 134.142 L
412.1 135.506 L
412.487 136.45 L
412.875 137.16 L
413.263 138.073 L
413.65 138.184 L
414.038 137.366 L
414.425 138.594 L
414.813 139.207 L
415.2 137.489 L
415.587 138.649 L
415.975 138.104 L
416.362 140.001 L
416.75 139.456 L
417.138 141.156 L
417.525 143.09 L
417.913 142.587 L
418.3 143.303 L
418.688 142.812 L
419.075 141.9 L
419.462 141.185 L
419.85 139.607 L
420.237 138.963 L
420.625 139.795 L
421.013 139.841 L
421.4 139.964 L
421.788 139.122 L
422.175 139.356 L
422.563 139.281 L
422.95 141.831 L
423.337 141.34 L
423.725 142.056 L
424.112 142.331 L
424.5 141.717 L
424.888 141.717 L
425.275 140.898 L
425.663 140.968 L
426.05 142.469 L
426.438 142.866 L
426.825 143.178 L
427.212 143.178 L
427.6 142.91 L
427.987 142.514 L
428.375 142.514 L
428.763 142.737 L
429.15 144.538 L
429.538 145.083 L
429.925 143.242 L
430.313 143.911 L
430.7 144.402 L
431.087 144.626 L
431.475 145.327 L
431.862 145.6 L
432.25 143.433 L
432.638 141.768 L
433.025 142.4 L
433.413 142.194 L
433.8 143.422 L
434.188 144.036 L
434.575 142.603 L
434.962 143.831 L
435.35 142.521 L
435.737 143.954 L
436.125 141.907 L
436.513 141.771 L
436.9 140.543 L
437.288 138.251 L
437.675 139.574 L
438.063 141.62 L
438.45 140.504 L
438.837 141.088 L
439.225 141.852 L
439.612 142.671 L
440 143.451 L
440.388 143.942 L
440.775 144.373 L
441.163 143.76 L
441.55 145.478 L
441.938 146.911 L
442.325 146.808 L
442.712 144.91 L
443.1 145.893 L
443.487 146.041 L
443.875 146.711 L
444.263 146.984 L
444.65 148.089 L
445.038 148.238 L
445.425 149.22 L
445.813 148.811 L
446.2 148.265 L
446.587 148.444 L
446.975 149.944 L
447.362 149.617 L
447.75 149.234 L
448.138 147.597 L
448.525 148.211 L
448.913 149.234 L
449.3 148.689 L
449.688 150.189 L
450.075 149.916 L
450.462 149.916 L
450.85 150.189 L
451.237 150.014 L
451.625 149.195 L
452.013 151.635 L
452.4 155.415 L
452.788 154.522 L
453.175 156.663 L
453.563 154.766 L
453.95 152.452 L
454.337 152.997 L
454.725 152.997 L
455.112 153.816 L
455.5 153.816 L
455.888 154.634 L
456.275 154.634 L
456.663 156.476 L
457.05 157.726 L
457.438 157.503 L
457.825 155.606 L
458.212 155.606 L
458.6 156.424 L
458.987 156.151 L
459.375 157.379 L
459.763 157.161 L
460.15 156.179 L
460.538 158.115 L
460.925 159.167 L
461.313 157.939 L
461.7 156.343 L
462.087 156.343 L
462.475 156.74 L
462.862 156.472 L
463.25 156.197 L
463.638 155.631 L
464.025 154.413 L
464.413 153.576 L
464.8 153.576 L
465.188 152.594 L
465.575 150.095 L
465.962 150.244 L
466.35 148.934 L
466.737 148.438 L
467.125 149.871 L
467.513 151.414 L
467.9 151.729 L
468.288 150.892 L
468.675 149.323 L
469.063 149.323 L
469.45 148.232 L
469.837 147.686 L
470.225 147.954 L
470.612 147.681 L
471 148.295 L
471.388 149.113 L
471.775 147.896 L
472.163 145.072 L
472.55 145.965 L
472.938 143.393 L
473.325 142.946 L
473.712 143.418 L
474.1 141.937 L
474.487 140.955 L
474.875 140.285 L
475.263 138.25 L
475.65 138.25 L
476.038 139.887 L
476.425 138.156 L
476.813 137.561 L
477.2 136.311 L
477.587 136.758 L
477.975 137.204 L
478.362 136.385 L
478.75 135.716 L
479.138 133.26 L
479.525 133.751 L
479.913 134.51 L
480.3 133.405 L
480.688 132.967 L
481.075 132.694 L
481.462 134.495 L
481.85 134.941 L
482.237 134.27 L
482.625 133.228 L
483.013 135.225 L
483.4 134.847 L
483.788 135.122 L
484.175 135.618 L
484.563 136.287 L
484.95 137.27 L
485.337 137.313 L
485.725 138.596 L
486.112 141.625 L
486.5 142.121 L
486.888 140.563 L
487.275 139.089 L
487.663 139.467 L
488.05 138.053 L
488.438 136.798 L
488.825 137.393 L
489.212 136.575 L
489.6 137.666 L
489.987 137.22 L
490.375 137.22 L
490.763 136.511 L
491.15 135.189 L
491.538 135.017 L
491.925 136.614 L
492.313 135.446 L
492.7 136.709 L
493.087 137.825 L
493.475 138.383 L
493.862 139.646 L
494.25 140.355 L
494.638 141.516 L
495.025 141.71 L
495.413 141.219 L
495.8 139.991 L
496.188 140.163 L
496.575 140.037 L
496.962 141.51 L
497.35 141.734 L
497.737 143.631 L
498.125 143.883 L
498.513 144.28 L
498.9 145.508 L
499.288 144.455 L
499.675 145.292 L
500.063 144.667 L
500.45 142.65 L
500.837 143.976 L
501.225 142.212 L
501.612 141.822 L
502 141.129 L
502.388 141.278 L
502.775 140.84 L
503.163 142.836 L
503.55 143.779 L
503.938 141.943 L
504.325 141.125 L
504.712 139.897 L
505.1 141.125 L
505.487 139.395 L
505.875 136.694 L
506.263 135.438 L
506.65 136.656 L
507.038 137.911 L
507.425 137.739 L
507.813 139.376 L
508.2 139.689 L
508.587 139.912 L
508.975 140.403 L
509.362 138.43 L
509.75 139.373 L
510.138 138.145 L
510.525 138.649 L
510.913 139.48 L
511.3 139.193 L
511.688 138.088 L
512.075 138.541 L
512.463 137.629 L
512.85 136.513 L
513.237 136.513 L
513.625 135.531 L
514.013 136.076 L
514.4 134.915 L
514.787 135.027 L
515.175 134.29 L
515.563 133.621 L
515.95 134.292 L
516.338 135.048 L
516.725 133.726 L
517.112 133.316 L
517.5 130.972 L
517.888 130.311 L
518.275 129.468 L
518.662 129.207 L
519.05 130.874 L
519.438 131.488 L
519.825 130.526 L
520.213 131.362 L
520.6 130.31 L
520.987 130.272 L
521.375 130.886 L
521.763 132.523 L
522.15 131.965 L
522.537 130.682 L
522.925 128.647 L
523.313 129.602 L
523.7 129.937 L
524.088 129.527 L
524.475 132.597 L
524.862 131.778 L
525.25 131.572 L
525.638 132.773 L
526.025 132.527 L
526.412 131.436 L
526.8 129.935 L
527.188 131.324 L
527.575 130.506 L
527.963 129.421 L
528.35 128.93 L
528.737 129.132 L
529.125 130.832 L
529.513 132.401 L
529.9 133.901 L
530.287 133.131 L
530.675 132.804 L
531.063 132.804 L
531.45 131.972 L
531.838 132.464 L
532.225 132.23 L
532.612 132.118 L
533 133.061 L
533.388 133.716 L
533.775 134.671 L
534.162 134.849 L
534.55 135.742 L
534.938 135.169 L
535.325 136.112 L
535.713 135.566 L
536.1 135.755 L
536.487 136.259 L
536.875 136.445 L
537.263 137.07 L
537.65 137.353 L
538.037 137.525 L
538.425 136.872 L
538.813 136.258 L
539.2 135.303 L
539.588 136.563 L
539.975 137.129 L
540.362 136.311 L
540.75 137.784 L
541.138 136.668 L
541.525 135.552 L
541.912 135.306 L
542.3 135.976 L
542.688 136.14 L
543.075 135.526 L
543.463 135.116 L
543.85 136.344 L
544.237 135.321 L
544.625 135.567 L
545.013 135.252 L
545.4 133.888 L
545.787 136.168 L
546.175 136.042 L
546.563 137.046 L
546.95 135.546 L
547.338 135.42 L
547.725 136.058 L
548.112 135.73 L
548.5 135.559 L
548.888 138.014 L
549.275 134.769 L
549.662 133.827 L
550.05 134.924 L
550.438 135.073 L
550.825 135.249 L
551.213 135.589 L
551.6 133.711 L
551.987 135.348 L
552.375 136.799 L
552.763 136.117 L
553.15 138.163 L
553.537 136.935 L
553.925 136.482 L
554.313 135.005 L
554.7 134.701 L
555.088 133.61 L
555.475 133.61 L
555.862 133.337 L
556.25 133.211 L
556.638 132.943 L
557.025 133.925 L
557.412 135.143 L
557.8 133.92 L
558.188 134.676 L
558.575 134.185 L
558.963 132.349 L
559.35 133.168 L
559.737 131.94 L
560.125 131.122 L
560.513 129.227 L
560.9 130.12 L
561.287 130.09 L
561.675 132.616 L
562.063 132.05 L
562.45 131.752 L
562.838 131.138 L
563.225 131.831 L
563.612 131.558 L
564 130.33 L
564.388 131.089 L
564.775 131.253 L
565.162 131.487 L
565.55 130.434 L
565.938 130.56 L
566.325 132.011 L
566.713 133.016 L
567.1 132.844 L
567.487 132.159 L
567.875 132.159 L
568.263 134.094 L
568.65 132.866 L
569.037 134.883 L
569.425 135.553 L
569.813 134.407 L
570.2 134.586 L
570.588 134.869 L
570.975 134.907 L
571.362 137.399 L
571.75 136.346 L
572.138 135.421 L
572.525 134.427 L
572.912 133.423 L
573.3 132.753 L
573.688 133.698 L
574.075 136.626 L
574.463 139.003 L
574.85 138.419 L
575.237 138.567 L
575.625 138.349 L
576.013 137.384 L
576.4 137.875 L
576.787 136.974 L
577.175 135.474 L
577.563 137.231 L
577.95 137.307 L
578.338 136.853 L
578.725 139.03 L
579.112 137.73 L
579.5 137.484 L
579.888 138.452 L
580.275 139.582 L
580.662 138.987 L
581.05 140.951 L
581.438 138.671 L
581.825 137.915 L
582.213 138.362 L
582.6 137.04 L
582.987 138.803 L
583.375 137.513 L
583.763 138.741 L
584.15 138.473 L
584.537 138.718 L
584.925 140.394 L
585.313 141.447 L
585.7 141.596 L
586.088 139.252 L
586.475 138.984 L
586.862 140.1 L
587.25 142.515 L
587.638 143.06 L
588.025 140.4 L
588.412 139.445 L
588.8 139.322 L
589.188 138.653 L
589.575 140.781 L
589.963 141.495 L
590.35 141.212 L
590.737 140.594 L
591.125 139.757 L
591.513 139.008 L
591.9 139.71 L
592.287 140.443 L
592.675 140.834 L
593.063 142.486 L
593.45 142.213 L
593.838 141.258 L
594.225 140.315 L
594.612 142.537 L
595 143.43 L
595.388 143.698 L
595.775 144.38 L
596.162 144.38 L
596.55 145.403 L
596.938 145.687 L
597.325 145.605 L
597.713 146.096 L
598.1 146.371 L
598.487 145.757 L
598.875 146.49 L
599.263 146.736 L
599.65 146.839 L
600.037 146.129 L
600.425 145.545 L
600.813 144.726 L
601.2 143.732 L
601.588 144.236 L
601.975 143.79 L
602.362 143.884 L
602.75 142.364 L
603.138 143.108 L
603.525 140.609 L
603.912 140.609 L
604.3 142.328 L
604.688 141.782 L
605.075 141.221 L
605.463 141.482 L
605.85 142.598 L
606.237 142.27 L
606.625 141.601 L
607.013 140.005 L
607.4 141.096 L
607.787 141.534 L
608.175 139.42 L
608.563 138.929 L
608.95 138.654 L
609.338 137.94 L
609.725 136.488 L
610.112 136.664 L
610.5 137.557 L
610.888 138.394 L
611.275 140.195 L
611.662 138.66 L
612.05 138.102 L
612.438 137.488 L
612.825 135.184 L
613.213 135.456 L
613.6 135.407 L
613.987 136.69 L
614.375 134.469 L
614.763 133.427 L
615.15 132.831 L
615.537 132.422 L
615.925 133.241 L
616.313 132.9 L
616.7 132.862 L
617.088 132.683 L
617.475 132.014 L
617.862 131.21 L
618.25 130.391 L
618.638 130.685 L
619.025 130.071 L
619.412 130.911 L
619.8 133.121 L
620.188 133.408 L
620.575 134.227 L
620.963 135.332 L
621.35 135.332 L
621.737 136.175 L
622.125 137.403 L
622.513 137.16 L
622.9 136.751 L
623.287 137.028 L
623.675 135.882 L
624.063 134.275 L
624.45 134.82 L
624.838 133.511 L
625.225 133.92 L
625.612 132.938 L
626 132.704 L
626.388 133.15 L
626.775 133.86 L
627.162 131.507 L
627.55 133.401 L
627.938 134.97 L
628.325 134.3 L
628.713 134.835 L
629.1 134.076 L
629.487 134.485 L
629.875 135.047 L
630.263 134.6 L
630.65 133.495 L
631.037 132.826 L
631.425 132.887 L
631.813 132.415 L
632.2 131.404 L
632.588 132.056 L
632.975 131.238 L
633.362 129.173 L
633.75 126.922 L
634.138 126.688 L
634.525 126.837 L
634.912 127.382 L
635.3 128.35 L
635.688 127.531 L
636.075 126.276 L
636.463 125.348 L
636.85 126.291 L
637.237 126.551 L
637.625 127.801 L
638.013 128.053 L
638.4 128.103 L
638.787 128.892 L
639.175 128.892 L
639.563 127.888 L
639.95 128.595 L
640.338 126.66 L
640.725 127.776 L
641.112 127.776 L
641.5 126.207 L
641.888 125.389 L
642.275 125.514 L
642.662 125.269 L
643.05 127.9 L
643.438 129.314 L
643.825 129.486 L
644.213 128.803 L
644.6 128.3 L
644.987 127.355 L
645.375 127.221 L
645.763 127.455 L
646.15 127.009 L
646.537 127.282 L
646.925 128.816 L
647.313 128.102 L
647.7 127.884 L
648.088 128.144 L
648.475 127.735 L
648.862 127.601 L
649.25 128.692 L
649.638 127.956 L
650.025 127.956 L
650.412 128.037 L
650.8 129.198 L
651.188 129.853 L
651.575 130.735 L
651.963 130.927 L
652.35 130.369 L
652.737 129.96 L
653.125 130.574 L
653.513 130.457 L
653.9 131.527 L
654.287 130.396 L
654.675 129.85 L
655.063 130.793 L
655.45 129.974 L
655.838 131.23 L
656.225 131.817 L
656.612 131.321 L
657 131.239 L
657.388 131.239 L
657.775 130.69 L
658.162 129.969 L
658.55 129.699 L
658.938 129.153 L
659.325 128.93 L
659.713 128.669 L
660.1 130.058 L
660.487 130.331 L
660.875 130.927 L
661.263 132.768 L
661.65 132.642 L
662.037 134.513 L
662.425 135.577 L
662.813 133.233 L
663.2 133.233 L
663.588 133.687 L
663.975 133.873 L
664.362 135.195 L
664.75 135.916 L
665.138 135.805 L
665.525 135.679 L
665.912 135.53 L
666.3 136.021 L
666.688 136.021 L
667.075 134.841 L
667.463 135.059 L
667.85 133.906 L
668.237 134.158 L
668.625 135.888 L
669.013 134.945 L
669.4 135.9 L
669.787 135.964 L
670.175 135.555 L
670.563 134.84 L
670.95 135.932 L
671.338 135.634 L
671.725 136.18 L
672.112 137.135 L
672.5 138.363 L
672.888 138.772 L
673.275 140.337 L
673.662 140.234 L
674.05 141.762 L
674.438 141.177 L
674.825 141.177 L
675.213 142.269 L
675.6 140.768 L
675.987 140.863 L
676.375 140.416 L
676.763 141.726 L
677.15 141.949 L
677.537 142.395 L
677.925 142.521 L
678.313 143.844 L
678.7 144.117 L
679.088 143.844 L
679.475 145.005 L
679.862 143.095 L
680.25 144.05 L
680.638 143.603 L
681.025 142.933 L
681.412 143.655 L
681.8 142.875 L
682.188 143.284 L
682.575 144.892 L
682.963 144.445 L
683.35 143.533 L
683.737 142.64 L
684.125 140.798 L
684.513 139.905 L
684.9 140.081 L
685.287 140.207 L
685.675 140.616 L
686.063 141.177 L
686.45 140.359 L
686.838 140.71 L
687.225 141.596 L
687.612 142.34 L
688 142.237 L
688.388 141.4 L
688.775 140.842 L
689.162 140.296 L
689.55 140.203 L
689.938 139.699 L
690.325 139.104 L
690.713 140.059 L
691.1 140.356 L
691.487 139.307 L
691.875 139.089 L
692.263 138.387 L
692.65 137.643 L
693.037 138.884 L
693.425 139.331 L
693.813 140.831 L
694.2 141.119 L
694.588 141.119 L
694.975 139.372 L
695.362 139.93 L
695.75 141.431 L
696.138 142.592 L
696.525 141.207 L
696.912 141.821 L
697.3 141.999 L
697.688 141.873 L
698.075 140.338 L
698.463 141.157 L
698.85 140.314 L
699.237 139.331 L
699.625 139.852 L
700.013 138.624 L
700.4 139.294 L
700.787 139.473 L
701.175 139.205 L
701.563 137.988 L
701.95 137.988 L
702.338 136.827 L
702.725 138.11 L
703.112 138.397 L
703.5 138.844 L
703.888 140.686 L
704.275 142.416 L
704.662 141.995 L
705.05 142.59 L
705.438 142.776 L
705.825 140.905 L
706.213 140.401 L
706.6 140.784 L
706.987 140.784 L
707.375 140.784 L
707.763 140.784 L
708.15 141.007 L
708.537 141.744 L
708.925 142.071 L
709.313 142.548 L
709.7 143.597 L
710.088 143.471 L
710.475 143.062 L
710.862 143.211 L
711.25 144.533 L
711.638 145.297 L
712.025 145.775 L
712.412 147.338 L
712.8 145.876 L
713.188 145.281 L
713.575 143.235 L
713.963 143.029 L
714.35 142.086 L
714.737 142.577 L
715.125 142.194 L
715.513 140.599 L
715.9 139.126 L
716.287 140.307 L
716.675 139.469 L
717.063 139.737 L
717.45 140.682 L
717.838 140.813 L
718.225 140.268 L
718.612 141.384 L
719 140.647 L
719.388 140.201 L
719.775 140.201 L
720.162 141.955 L
720.55 142.446 L
720.938 142.528 L
721.325 142.981 L
721.713 143.472 L
722.1 143.919 L
722.487 143.578 L
722.875 144.203 L
723.263 144.649 L
723.65 144.158 L
724.037 142.398 L
724.425 144.485 L
724.813 144.709 L
725.2 145.423 L
725.588 146.855 L
725.975 147.687 L
726.362 146.602 L
726.75 147.216 L
727.138 148.035 L
727.525 149.523 L
727.912 149.114 L
728.3 149.382 L
728.688 149.65 L
729.075 148.916 L
729.463 149.803 L
729.85 151.975 L
730.237 150.338 L
730.625 150.735 L
731.013 150.735 L
731.4 150.053 L
731.787 149.606 L
732.175 149.197 L
732.563 149.879 L
732.95 149.879 L
733.338 150.698 L
733.725 151.529 L
734.112 151.632 L
734.5 151.498 L
734.888 152.774 L
735.275 154.369 L
735.662 154.369 L
736.05 153.085 L
736.438 151.835 L
736.825 151.785 L
737.213 152.058 L
737.6 152.792 L
737.987 153.133 L
738.375 153.406 L
738.763 155.452 L
739.15 156.345 L
739.537 155.023 L
739.925 153.045 L
740.313 151.993 L
740.7 152.129 L
741.088 152.129 L
741.475 150.41 L
741.862 150.634 L
742.25 148.661 L
742.638 148.929 L
743.025 149.152 L
743.412 148.591 L
743.8 149.737 L
744.188 148.713 L
744.575 147.076 L
744.963 145.469 L
745.35 145.128 L
745.737 143.709 L
746.125 145.24 L
746.513 142.784 L
746.9 141.556 L
747.287 139.264 L
747.675 137.665 L
748.063 139.642 L
748.45 139.195 L
748.838 141.826 L
749.225 140.721 L
749.612 139.084 L
750 138.787 L
750.388 138.241 L
750.775 139.293 L
751.162 139.975 L
751.55 140.645 L
751.938 140.488 L
752.325 139.545 L
752.713 139.694 L
753.1 140.513 L
753.487 142.232 L
753.875 141.682 L
754.263 142.525 L
754.65 141.484 L
755.037 140.541 L
755.425 141.796 L
755.813 142.739 L
756.2 143.721 L
756.588 143.049 L
756.975 142.504 L
757.362 143.787 L
757.75 142.764 L
758.138 140.791 L
758.525 141.814 L
758.912 141.665 L
759.3 142.169 L
759.688 141.41 L
760.075 141.971 L
760.463 141.262 L
760.85 142.026 L
761.237 142.309 L
761.625 141.9 L
762.013 142.278 L
762.4 141.683 L
762.787 140.094 L
763.175 139.918 L
763.563 137.735 L
763.95 137.326 L
764.338 138.294 L
764.725 138.919 L
765.112 137.827 L
765.5 138.174 L
765.888 137.579 L
766.275 137.579 L
766.662 140.649 L
767.05 143.175 L
767.438 144.365 L
767.825 141.559 L
768.213 141.737 L
768.6 139.527 L
768.987 139.097 L
769.375 138.279 L
769.763 137.922 L
770.15 138.071 L
770.537 135.902 L
770.925 134.401 L
771.313 133.732 L
771.7 134.298 L
772.088 134.023 L
772.475 133.056 L
772.862 131.965 L
773.25 132.491 L
773.638 131.907 L
774.025 130.952 L
774.412 131.547 L
774.8 131.101 L
775.188 130.828 L
775.575 129.885 L
775.963 130.104 L
776.35 130.066 L
776.737 129.52 L
777.125 128.634 L
777.513 127.508 L
777.9 127.645 L
778.287 125.134 L
778.675 125.008 L
779.063 125.335 L
779.45 126.591 L
779.838 128.309 L
780.225 128.473 L
780.612 127.148 L
781 128.365 L
781.388 129.388 L
781.775 129.766 L
782.162 130.176 L
782.55 131.095 L
782.938 131.206 L
783.325 132.898 L
783.713 133.047 L
784.1 132.489 L
784.487 131.864 L
784.875 132.013 L
785.263 131.821 L
785.65 131.821 L
786.037 132.379 L
786.425 131.356 L
786.813 129.187 L
787.2 129.062 L
787.588 130.728 L
787.975 131.219 L
788.362 131.055 L
788.75 130.276 L
789.138 129.804 L
789.525 129.11 L
789.912 128.962 L
790.3 129.587 L
790.688 129.114 L
791.075 127.906 L
791.463 126.854 L
791.85 125.957 L
792.237 126.23 L
792.625 125.029 L
793.013 122.456 L
793.4 124.156 L
793.787 126.437 L
794.175 125.187 L
794.563 124.666 L
794.95 125.157 L
795.338 124.599 L
795.725 124.599 L
796.112 125.581 L
796.5 125.347 L
796.888 125.62 L
797.275 126.453 L
797.662 126.542 L
798.05 125.89 L
798.438 127.107 L
798.825 125.143 L
799.213 122.765 L
799.6 119.409 L
799.987 118.905 L
800.375 119.288 L
800.763 117.651 L
801.15 117.528 L
801.537 117.069 L
801.925 116.005 L
802.313 115.353 L
802.7 114.391 L
803.088 114.693 L
803.475 113.258 L
803.862 113.667 L
804.25 113.556 L
804.638 114.225 L
805.025 114.927 L
805.412 115.076 L
805.8 114.801 L
806.188 112.182 L
806.575 113.075 L
806.963 112.903 L
807.35 111.619 L
807.737 111.128 L
808.125 112.051 L
808.513 112.523 L
808.9 112.586 L
809.287 112.911 L
809.675 113.506 L
810.063 111.951 L
810.45 112.669 L
810.838 114.056 L
811.225 114.835 L
811.612 115.04 L
812 117.632 L
812.388 117.989 L
812.775 118.106 L
813.162 118.379 L
813.55 116.099 L
813.938 116.52 L
814.325 117.212 L
814.713 116.052 L
815.1 117.006 L
815.487 115.479 L
815.875 113.916 L
816.263 116.021 L
816.65 114.698 L
817.037 114.581 L
817.425 115.236 L
817.813 114.996 L
818.2 114.723 L
818.588 116.063 L
818.975 117.676 L
819.362 119.532 L
819.75 120.035 L
820.138 119.302 L
820.525 119.684 L
820.912 118.523 L
821.3 118.698 L
821.688 119.605 L
822.075 120.109 L
822.463 121.963 L
822.85 121.483 L
823.237 123.86 L
823.625 124.679 L
824.013 125.088 L
824.4 124.27 L
824.787 124.206 L
825.175 124.384 L
825.563 123.692 L
825.95 124.548 L
826.338 123.543 L
826.725 123.023 L
827.112 123.201 L
827.5 122.055 L
827.888 120.956 L
828.275 121.132 L
828.662 121.446 L
829.05 124.107 L
829.438 123.348 L
829.825 124.473 L
830.213 124.511 L
830.6 123.467 L
830.987 124.013 L
831.375 124.706 L
831.763 122.659 L
832.15 121.698 L
832.537 121.581 L
832.925 121.308 L
833.313 121.39 L
833.7 122.219 L
834.088 122.219 L
834.475 121.661 L
834.862 120.989 L
835.25 120.593 L
835.638 122.155 L
836.025 119.875 L
836.412 119.97 L
836.8 119.642 L
837.188 118.619 L
837.575 120.796 L
837.963 119.568 L
838.35 121.175 L
838.737 120.684 L
839.125 119.635 L
839.513 119.337 L
839.9 119.04 L
840.287 119.613 L
840.675 118.961 L
841.063 120.461 L
841.45 119.391 L
841.838 119.508 L
842.225 118.679 L
842.612 119.348 L
843 117.198 L
843.388 115.56 L
843.775 114.537 L
844.162 113.793 L
844.55 113.793 L
844.938 112.483 L
845.325 112.421 L
845.713 112.421 L
846.1 112.704 L
846.487 112.213 L
846.875 111.169 L
847.263 111.862 L
847.65 113.184 L
848.037 112.914 L
848.425 112.19 L
848.813 109.243 L
849.2 108.471 L
849.588 108.574 L
849.975 107.818 L
850.362 108.125 L
850.75 105.942 L
851.138 106.217 L
851.525 105.808 L
851.912 106.249 L
852.3 104.962 L
852.688 102.834 L
853.075 102.138 L
853.463 100.958 L
853.85 100.5 L
854.237 100.611 L
854.625 100.439 L
855.013 100.836 L
855.4 99.136 L
855.787 97.908 L
856.175 98.863 L
856.563 98.372 L
856.95 98.336 L
857.338 95.594 L
857.725 95.259 L
858.112 92.721 L
858.5 92.476 L
858.888 92.235 L
859.275 90.896 L
859.662 91.122 L
860.05 89.076 L
860.438 89.252 L
860.825 86.797 L
861.213 86.734 L
861.6 85.389 L
861.987 84.313 L
862.375 82.164 L
862.763 82.569 L
863.15 82.039 L
863.537 81.732 L
863.925 81.385 L
864.313 80.046 L
864.7 79.391 L
865.088 79.181 L
865.475 78.247 L
865.862 77.114 L
866.25 77.365 L
866.638 78.23 L
867.025 77.296 L
867.412 75.168 L
867.8 75.017 L
868.188 76.572 L
868.575 77.063 L
868.963 76.739 L
869.35 75.348 L
869.737 74.592 L
870.125 74.019 L
870.513 73.781 L
870.9 72.267 L
871.287 71.449 L
871.675 71.04 L
872.063 70.689 L
872.45 70.607 L
872.838 70.648 L
873.225 69.595 L
873.612 68.894 L
874 68.209 L
874.388 66.87 L
874.775 66.87 L
875.162 66.769 L
875.55 67.076 L
875.938 65.548 L
876.325 65.08 L
876.713 65.204 L
877.1 65.578 L
877.487 65.387 L
877.875 66.317 L
878.263 65.44 L
878.65 64.547 L
879.037 64.994 L
879.425 64.421 L
879.813 64.998 L
880.2 64.016 L
880.588 64.636 L
880.975 65.014 L
881.362 65.183 L
881.75 65.51 L
882.138 65.203 L
882.525 64.221 L
882.912 64.221 L
883.3 64.492 L
883.688 65.256 L
884.075 65.529 L
884.463 65.975 L
884.85 66.185 L
885.237 65.935 L
885.625 66.896 L
886.013 67.792 L
886.4 66.899 L
886.787 66.935 L
887.175 67.054 L
887.563 66.993 L
887.95 65.73 L
888.338 64.911 L
888.725 66.045 L
889.112 67.027 L
889.5 67.334 L
889.888 67.088 L
890.275 67.109 L
890.662 67.45 L
891.05 67.391 L
891.438 67.56 L
891.825 67.56 L
892.213 68.133 L
892.6 67.856 L
892.987 68.433 L
893.375 68.738 L
893.763 68.39 L
894.15 69.372 L
894.537 69.068 L
894.925 68.991 L
895.313 69.093 L
895.7 69.037 L
896.088 69.294 L
896.475 69.19 L
896.862 69.081 L
897.25 68.967 L
897.638 68.126 L
898.025 68.392 L
898.412 69.087 L
898.8 69.272 L
899.188 69.513 L
899.575 69.551 L
899.963 69.918 L
900.35 69.546 L
900.737 68.822 L
901.125 68.845 L
901.513 68.758 L
901.9 69.647 L
902.287 70.59 L
902.675 71.132 L
903.063 71.233 L
903.45 70.097 L
903.838 70.706 L
904.225 71.042 L
904.612 70.819 L
905 71.419 L
S
GR
%%Trailer
%%Pages: 1
%%EOF
