%!PS-Adobe-3.0 EPSF-3.0
%%Creator: (MATLAB, The Mathworks, Inc. Version 9.0.0.341360 \(R2016a\). Operating System: Linux)
%%Title: report/figures/sm_base_mtgt_softmax1_ratio.eps
%%CreationDate: 2017-02-04T23:56:36
%%Pages: (atend)
%%BoundingBox:    59     4   910   325
%%LanguageLevel: 3
%%EndComments
%%BeginProlog
%%BeginResource: procset (Apache XML Graphics Std ProcSet) 1.2 0
%%Version: 1.2 0
%%Copyright: (Copyright 2001-2003,2010 The Apache Software Foundation. License terms: http://www.apache.org/licenses/LICENSE-2.0)
/bd{bind def}bind def
/ld{load def}bd
/GR/grestore ld
/M/moveto ld
/LJ/setlinejoin ld
/C/curveto ld
/f/fill ld
/LW/setlinewidth ld
/GC/setgray ld
/t/show ld
/N/newpath ld
/CT/concat ld
/cp/closepath ld
/S/stroke ld
/L/lineto ld
/CC/setcmykcolor ld
/A/ashow ld
/GS/gsave ld
/RC/setrgbcolor ld
/RM/rmoveto ld
/ML/setmiterlimit ld
/re {4 2 roll M
1 index 0 rlineto
0 exch rlineto
neg 0 rlineto
cp } bd
/_ctm matrix def
/_tm matrix def
/BT { _ctm currentmatrix pop matrix _tm copy pop 0 0 moveto } bd
/ET { _ctm setmatrix } bd
/iTm { _ctm setmatrix _tm concat } bd
/Tm { _tm astore pop iTm 0 0 moveto } bd
/ux 0.0 def
/uy 0.0 def
/F {
  /Tp exch def
  /Tf exch def
  Tf findfont Tp scalefont setfont
  /cf Tf def  /cs Tp def
} bd
/ULS {currentpoint /uy exch def /ux exch def} bd
/ULE {
  /Tcx currentpoint pop def
  gsave
  newpath
  cf findfont cs scalefont dup
  /FontMatrix get 0 get /Ts exch def /FontInfo get dup
  /UnderlinePosition get Ts mul /To exch def
  /UnderlineThickness get Ts mul /Tt exch def
  ux uy To add moveto  Tcx uy To add lineto
  Tt setlinewidth stroke
  grestore
} bd
/OLE {
  /Tcx currentpoint pop def
  gsave
  newpath
  cf findfont cs scalefont dup
  /FontMatrix get 0 get /Ts exch def /FontInfo get dup
  /UnderlinePosition get Ts mul /To exch def
  /UnderlineThickness get Ts mul /Tt exch def
  ux uy To add cs add moveto Tcx uy To add cs add lineto
  Tt setlinewidth stroke
  grestore
} bd
/SOE {
  /Tcx currentpoint pop def
  gsave
  newpath
  cf findfont cs scalefont dup
  /FontMatrix get 0 get /Ts exch def /FontInfo get dup
  /UnderlinePosition get Ts mul /To exch def
  /UnderlineThickness get Ts mul /Tt exch def
  ux uy To add cs 10 mul 26 idiv add moveto Tcx uy To add cs 10 mul 26 idiv add lineto
  Tt setlinewidth stroke
  grestore
} bd
/QT {
/Y22 exch store
/X22 exch store
/Y21 exch store
/X21 exch store
currentpoint
/Y21 load 2 mul add 3 div exch
/X21 load 2 mul add 3 div exch
/X21 load 2 mul /X22 load add 3 div
/Y21 load 2 mul /Y22 load add 3 div
/X22 load /Y22 load curveto
} bd
/SSPD {
dup length /d exch dict def
{
/v exch def
/k exch def
currentpagedevice k known {
/cpdv currentpagedevice k get def
v cpdv ne {
/upd false def
/nullv v type /nulltype eq def
/nullcpdv cpdv type /nulltype eq def
nullv nullcpdv or
{
/upd true def
} {
/sametype v type cpdv type eq def
sametype {
v type /arraytype eq {
/vlen v length def
/cpdvlen cpdv length def
vlen cpdvlen eq {
0 1 vlen 1 sub {
/i exch def
/obj v i get def
/cpdobj cpdv i get def
obj cpdobj ne {
/upd true def
exit
} if
} for
} {
/upd true def
} ifelse
} {
v type /dicttype eq {
v {
/dv exch def
/dk exch def
/cpddv cpdv dk get def
dv cpddv ne {
/upd true def
exit
} if
} forall
} {
/upd true def
} ifelse
} ifelse
} if
} ifelse
upd true eq {
d k v put
} if
} if
} if
} forall
d length 0 gt {
d setpagedevice
} if
} bd
%%EndResource
%%BeginResource: procset (Apache XML Graphics EPS ProcSet) 1.0 0
%%Version: 1.0 0
%%Copyright: (Copyright 2002-2003 The Apache Software Foundation. License terms: http://www.apache.org/licenses/LICENSE-2.0)
/BeginEPSF { %def
/b4_Inc_state save def         % Save state for cleanup
/dict_count countdictstack def % Count objects on dict stack
/op_count count 1 sub def      % Count objects on operand stack
userdict begin                 % Push userdict on dict stack
/showpage { } def              % Redefine showpage, { } = null proc
0 setgray 0 setlinecap         % Prepare graphics state
1 setlinewidth 0 setlinejoin
10 setmiterlimit [ ] 0 setdash newpath
/languagelevel where           % If level not equal to 1 then
{pop languagelevel             % set strokeadjust and
1 ne                           % overprint to their defaults.
{false setstrokeadjust false setoverprint
} if
} if
} bd
/EndEPSF { %def
count op_count sub {pop} repeat            % Clean up stacks
countdictstack dict_count sub {end} repeat
b4_Inc_state restore
} bd
%%EndResource
%%EndProlog
%%Page: 1 1
%%PageBoundingBox: 0 0 1000 350
%%BeginPageSetup
[1 0 0 -1 0 350] CT
%%EndPageSetup
GS
1 GC
N
0 0 1000 350 re
f
GR
GS
1 GC
N
0 0 1000 350 re
f
GR
GS
1 GC
N
130 289 M
905 289 L
905 26 L
130 26 L
cp
f
GR
GS
0.873 GC
1 LJ
0.5 LW
N
130 289 M
130 26 L
S
GR
GS
0.873 GC
1 LJ
0.5 LW
N
323.75 289 M
323.75 26 L
S
GR
GS
0.873 GC
1 LJ
0.5 LW
N
517.5 289 M
517.5 26 L
S
GR
GS
0.873 GC
1 LJ
0.5 LW
N
711.25 289 M
711.25 26 L
S
GR
GS
0.873 GC
1 LJ
0.5 LW
N
905 289 M
905 26 L
S
GR
GS
0.873 GC
1 LJ
0.5 LW
N
905 289 M
130 289 L
S
GR
GS
0.873 GC
1 LJ
0.5 LW
N
905 238.905 M
130 238.905 L
S
GR
GS
0.873 GC
1 LJ
0.5 LW
N
905 188.81 M
130 188.81 L
S
GR
GS
0.873 GC
1 LJ
0.5 LW
N
905 138.714 M
130 138.714 L
S
GR
GS
0.873 GC
1 LJ
0.5 LW
N
905 88.619 M
130 88.619 L
S
GR
GS
0.873 GC
1 LJ
0.5 LW
N
905 38.524 M
130 38.524 L
S
GR
GS
0.149 GC
2 setlinecap
1 LJ
0.5 LW
N
130 289 M
905 289 L
S
GR
GS
0.149 GC
2 setlinecap
1 LJ
0.5 LW
N
130 289 M
130 281.25 L
S
GR
GS
0.149 GC
2 setlinecap
1 LJ
0.5 LW
N
323.75 289 M
323.75 281.25 L
S
GR
GS
0.149 GC
2 setlinecap
1 LJ
0.5 LW
N
517.5 289 M
517.5 281.25 L
S
GR
GS
0.149 GC
2 setlinecap
1 LJ
0.5 LW
N
711.25 289 M
711.25 281.25 L
S
GR
GS
0.149 GC
2 setlinecap
1 LJ
0.5 LW
N
905 289 M
905 281.25 L
S
GR
GS
[1 0 0 1 130 295] CT
0.149 GC
N
-0.141 5.719 M
-1.672 5.719 -2.438 7.219 QT
-3.203 8.719 -3.203 11.719 QT
-3.203 14.719 -2.438 16.219 QT
-1.672 17.719 -0.141 17.719 QT
1.391 17.719 2.156 16.219 QT
2.922 14.719 2.922 11.719 QT
2.922 8.719 2.156 7.219 QT
1.391 5.719 -0.141 5.719 QT
cp
-0.141 4.156 M
2.313 4.156 3.602 6.094 QT
4.891 8.031 4.891 11.719 QT
4.891 15.406 3.602 17.344 QT
2.313 19.281 -0.141 19.281 QT
-2.594 19.281 -3.891 17.344 QT
-5.188 15.406 -5.188 11.719 QT
-5.188 8.031 -3.891 6.094 QT
-2.594 4.156 -0.141 4.156 QT
cp
f
GR
GS
[1 0 0 1 323.75 295] CT
0.149 GC
N
-9.641 5.719 M
-11.172 5.719 -11.938 7.219 QT
-12.703 8.719 -12.703 11.719 QT
-12.703 14.719 -11.938 16.219 QT
-11.172 17.719 -9.641 17.719 QT
-8.109 17.719 -7.344 16.219 QT
-6.578 14.719 -6.578 11.719 QT
-6.578 8.719 -7.344 7.219 QT
-8.109 5.719 -9.641 5.719 QT
cp
-9.641 4.156 M
-7.188 4.156 -5.898 6.094 QT
-4.609 8.031 -4.609 11.719 QT
-4.609 15.406 -5.898 17.344 QT
-7.188 19.281 -9.641 19.281 QT
-12.094 19.281 -13.391 17.344 QT
-14.688 15.406 -14.688 11.719 QT
-14.688 8.031 -13.391 6.094 QT
-12.094 4.156 -9.641 4.156 QT
cp
-1.135 16.516 M
0.928 16.516 L
0.928 19 L
-1.135 19 L
-1.135 16.516 L
cp
5.238 4.422 M
12.988 4.422 L
12.988 6.078 L
7.051 6.078 L
7.051 9.656 L
7.473 9.5 7.902 9.43 QT
8.332 9.359 8.77 9.359 QT
11.207 9.359 12.637 10.695 QT
14.066 12.031 14.066 14.328 QT
14.066 16.672 12.598 17.977 QT
11.129 19.281 8.457 19.281 QT
7.551 19.281 6.598 19.125 QT
5.645 18.969 4.629 18.656 QT
4.629 16.672 L
5.504 17.156 6.441 17.391 QT
7.379 17.625 8.426 17.625 QT
10.113 17.625 11.098 16.734 QT
12.082 15.844 12.082 14.328 QT
12.082 12.797 11.098 11.906 QT
10.113 11.016 8.426 11.016 QT
7.629 11.016 6.848 11.195 QT
6.066 11.375 5.238 11.75 QT
5.238 4.422 L
cp
f
GR
GS
[1 0 0 1 517.5 295] CT
0.149 GC
N
-4.016 17.344 M
-0.797 17.344 L
-0.797 6.219 L
-4.297 6.922 L
-4.297 5.125 L
-0.813 4.422 L
1.156 4.422 L
1.156 17.344 L
4.375 17.344 L
4.375 19 L
-4.016 19 L
-4.016 17.344 L
cp
f
GR
GS
[1 0 0 1 711.25 295] CT
0.149 GC
N
-13.516 17.344 M
-10.297 17.344 L
-10.297 6.219 L
-13.797 6.922 L
-13.797 5.125 L
-10.313 4.422 L
-8.344 4.422 L
-8.344 17.344 L
-5.125 17.344 L
-5.125 19 L
-13.516 19 L
-13.516 17.344 L
cp
-1.135 16.516 M
0.928 16.516 L
0.928 19 L
-1.135 19 L
-1.135 16.516 L
cp
5.238 4.422 M
12.988 4.422 L
12.988 6.078 L
7.051 6.078 L
7.051 9.656 L
7.473 9.5 7.902 9.43 QT
8.332 9.359 8.77 9.359 QT
11.207 9.359 12.637 10.695 QT
14.066 12.031 14.066 14.328 QT
14.066 16.672 12.598 17.977 QT
11.129 19.281 8.457 19.281 QT
7.551 19.281 6.598 19.125 QT
5.645 18.969 4.629 18.656 QT
4.629 16.672 L
5.504 17.156 6.441 17.391 QT
7.379 17.625 8.426 17.625 QT
10.113 17.625 11.098 16.734 QT
12.082 15.844 12.082 14.328 QT
12.082 12.797 11.098 11.906 QT
10.113 11.016 8.426 11.016 QT
7.629 11.016 6.848 11.195 QT
6.066 11.375 5.238 11.75 QT
5.238 4.422 L
cp
f
GR
GS
[1 0 0 1 905 295] CT
0.149 GC
N
-2.656 17.344 M
4.219 17.344 L
4.219 19 L
-5.031 19 L
-5.031 17.344 L
-3.906 16.172 -1.969 14.219 QT
-0.031 12.266 0.469 11.688 QT
1.406 10.625 1.781 9.891 QT
2.156 9.156 2.156 8.438 QT
2.156 7.281 1.344 6.547 QT
0.531 5.813 -0.781 5.813 QT
-1.703 5.813 -2.734 6.133 QT
-3.766 6.453 -4.938 7.109 QT
-4.938 5.125 L
-3.75 4.641 -2.711 4.398 QT
-1.672 4.156 -0.813 4.156 QT
1.453 4.156 2.797 5.289 QT
4.141 6.422 4.141 8.313 QT
4.141 9.219 3.805 10.023 QT
3.469 10.828 2.578 11.922 QT
2.344 12.203 1.031 13.555 QT
-0.281 14.906 -2.656 17.344 QT
cp
f
GR
GS
[1 0 0 1 517.50037 320] CT
0.149 GC
N
-14.25 9.328 M
-14.25 11.188 L
-15.094 10.766 -16 10.547 QT
-16.906 10.328 -17.859 10.328 QT
-19.344 10.328 -20.078 10.781 QT
-20.813 11.234 -20.813 12.141 QT
-20.813 12.828 -20.281 13.219 QT
-19.75 13.609 -18.172 13.969 QT
-17.484 14.109 L
-15.391 14.563 -14.5 15.383 QT
-13.609 16.203 -13.609 17.688 QT
-13.609 19.359 -14.938 20.336 QT
-16.266 21.313 -18.578 21.313 QT
-19.547 21.313 -20.594 21.125 QT
-21.641 20.938 -22.813 20.563 QT
-22.813 18.516 L
-21.719 19.094 -20.648 19.375 QT
-19.578 19.656 -18.547 19.656 QT
-17.141 19.656 -16.391 19.18 QT
-15.641 18.703 -15.641 17.828 QT
-15.641 17.031 -16.188 16.602 QT
-16.734 16.172 -18.563 15.766 QT
-19.25 15.609 L
-21.094 15.219 -21.906 14.422 QT
-22.719 13.625 -22.719 12.219 QT
-22.719 10.531 -21.516 9.602 QT
-20.313 8.672 -18.109 8.672 QT
-17 8.672 -16.039 8.836 QT
-15.078 9 -14.25 9.328 QT
cp
-8.507 5.547 M
-8.507 8.969 L
-4.444 8.969 L
-4.444 10.5 L
-8.507 10.5 L
-8.507 17.031 L
-8.507 18.5 -8.108 18.922 QT
-7.71 19.344 -6.476 19.344 QT
-4.444 19.344 L
-4.444 21 L
-6.476 21 L
-8.757 21 -9.624 20.148 QT
-10.491 19.297 -10.491 17.031 QT
-10.491 10.5 L
-11.944 10.5 L
-11.944 8.969 L
-10.491 8.969 L
-10.491 5.547 L
-8.507 5.547 L
cp
8.447 14.484 M
8.447 15.453 L
-0.631 15.453 L
-0.506 17.5 0.596 18.57 QT
1.697 19.641 3.666 19.641 QT
4.807 19.641 5.869 19.359 QT
6.932 19.078 7.994 18.516 QT
7.994 20.391 L
6.932 20.844 5.814 21.078 QT
4.697 21.313 3.541 21.313 QT
0.666 21.313 -1.014 19.633 QT
-2.693 17.953 -2.693 15.109 QT
-2.693 12.141 -1.1 10.406 QT
0.494 8.672 3.197 8.672 QT
5.635 8.672 7.041 10.234 QT
8.447 11.797 8.447 14.484 QT
cp
6.479 13.906 M
6.447 12.281 5.564 11.32 QT
4.682 10.359 3.229 10.359 QT
1.572 10.359 0.572 11.289 QT
-0.428 12.219 -0.568 13.922 QT
6.479 13.906 L
cp
13.607 19.188 M
13.607 25.578 L
11.623 25.578 L
11.623 8.969 L
13.607 8.969 L
13.607 10.797 L
14.232 9.719 15.186 9.195 QT
16.139 8.672 17.451 8.672 QT
19.639 8.672 21.014 10.414 QT
22.389 12.156 22.389 15 QT
22.389 17.828 21.014 19.57 QT
19.639 21.313 17.451 21.313 QT
16.139 21.313 15.186 20.789 QT
14.232 20.266 13.607 19.188 QT
cp
20.326 15 M
20.326 12.813 19.436 11.57 QT
18.545 10.328 16.967 10.328 QT
15.404 10.328 14.506 11.57 QT
13.607 12.813 13.607 15 QT
13.607 17.172 14.506 18.414 QT
15.404 19.656 16.967 19.656 QT
18.545 19.656 19.436 18.414 QT
20.326 17.172 20.326 15 QT
cp
f
GR
GS
[1 0 0 1 852 345] CT
0.149 GC
N
2.938 -0.578 M
2.938 -0.734 3.031 -0.859 QT
7.203 -5 L
3.031 -9.156 L
2.938 -9.266 2.938 -9.422 QT
2.938 -9.578 3.055 -9.703 QT
3.172 -9.828 3.344 -9.828 QT
3.484 -9.828 3.641 -9.703 QT
7.781 -5.563 L
11.906 -9.703 L
12.078 -9.828 12.203 -9.828 QT
12.359 -9.828 12.477 -9.711 QT
12.594 -9.594 12.594 -9.422 QT
12.594 -9.266 12.5 -9.156 QT
8.344 -5 L
12.5 -0.859 L
12.594 -0.734 12.594 -0.578 QT
12.594 -0.406 12.477 -0.289 QT
12.359 -0.172 12.203 -0.172 QT
12.047 -0.172 11.906 -0.328 QT
7.781 -4.438 L
3.641 -0.328 L
3.5 -0.172 3.344 -0.172 QT
3.172 -0.172 3.055 -0.305 QT
2.938 -0.438 2.938 -0.578 QT
cp
f
GR
GS
[1 0 0 1 868 345] CT
0.149 GC
N
2.484 -1.656 M
5.703 -1.656 L
5.703 -12.781 L
2.203 -12.078 L
2.203 -13.875 L
5.688 -14.578 L
7.656 -14.578 L
7.656 -1.656 L
10.875 -1.656 L
10.875 0 L
2.484 0 L
2.484 -1.656 L
cp
19.084 -13.281 M
17.553 -13.281 16.787 -11.781 QT
16.021 -10.281 16.021 -7.281 QT
16.021 -4.281 16.787 -2.781 QT
17.553 -1.281 19.084 -1.281 QT
20.615 -1.281 21.381 -2.781 QT
22.146 -4.281 22.146 -7.281 QT
22.146 -10.281 21.381 -11.781 QT
20.615 -13.281 19.084 -13.281 QT
cp
19.084 -14.844 M
21.537 -14.844 22.826 -12.906 QT
24.115 -10.969 24.115 -7.281 QT
24.115 -3.594 22.826 -1.656 QT
21.537 0.281 19.084 0.281 QT
16.631 0.281 15.334 -1.656 QT
14.037 -3.594 14.037 -7.281 QT
14.037 -10.969 15.334 -12.906 QT
16.631 -14.844 19.084 -14.844 QT
cp
f
GR
GS
[1 0 0 1 894 335] CT
0.149 GC
N
5.281 -6.469 M
4.219 -6.469 3.602 -5.742 QT
2.984 -5.016 2.984 -3.75 QT
2.984 -2.484 3.602 -1.758 QT
4.219 -1.031 5.281 -1.031 QT
6.344 -1.031 6.969 -1.758 QT
7.594 -2.484 7.594 -3.75 QT
7.594 -5.016 6.969 -5.742 QT
6.344 -6.469 5.281 -6.469 QT
cp
8.422 -11.406 M
8.422 -9.969 L
7.828 -10.25 7.219 -10.398 QT
6.609 -10.547 6.016 -10.547 QT
4.453 -10.547 3.633 -9.492 QT
2.813 -8.438 2.688 -6.313 QT
3.156 -6.984 3.852 -7.352 QT
4.547 -7.719 5.375 -7.719 QT
7.141 -7.719 8.156 -6.648 QT
9.172 -5.578 9.172 -3.75 QT
9.172 -1.953 8.109 -0.859 QT
7.047 0.234 5.281 0.234 QT
3.266 0.234 2.195 -1.32 QT
1.125 -2.875 1.125 -5.828 QT
1.125 -8.594 2.438 -10.234 QT
3.75 -11.875 5.953 -11.875 QT
6.547 -11.875 7.156 -11.758 QT
7.766 -11.641 8.422 -11.406 QT
cp
f
GR
GS
0.149 GC
2 setlinecap
1 LJ
0.5 LW
N
130 289 M
130 26 L
S
GR
GS
0.149 GC
2 setlinecap
1 LJ
0.5 LW
N
130 289 M
137.75 289 L
S
GR
GS
0.149 GC
2 setlinecap
1 LJ
0.5 LW
N
130 238.905 M
137.75 238.905 L
S
GR
GS
0.149 GC
2 setlinecap
1 LJ
0.5 LW
N
130 188.81 M
137.75 188.81 L
S
GR
GS
0.149 GC
2 setlinecap
1 LJ
0.5 LW
N
130 138.714 M
137.75 138.714 L
S
GR
GS
0.149 GC
2 setlinecap
1 LJ
0.5 LW
N
130 88.619 M
137.75 88.619 L
S
GR
GS
0.149 GC
2 setlinecap
1 LJ
0.5 LW
N
130 38.524 M
137.75 38.524 L
S
GR
GS
[1 0 0 1 124 289] CT
0.149 GC
N
-6.641 -6.281 M
-8.172 -6.281 -8.938 -4.781 QT
-9.703 -3.281 -9.703 -0.281 QT
-9.703 2.719 -8.938 4.219 QT
-8.172 5.719 -6.641 5.719 QT
-5.109 5.719 -4.344 4.219 QT
-3.578 2.719 -3.578 -0.281 QT
-3.578 -3.281 -4.344 -4.781 QT
-5.109 -6.281 -6.641 -6.281 QT
cp
-6.641 -7.844 M
-4.188 -7.844 -2.898 -5.906 QT
-1.609 -3.969 -1.609 -0.281 QT
-1.609 3.406 -2.898 5.344 QT
-4.188 7.281 -6.641 7.281 QT
-9.094 7.281 -10.391 5.344 QT
-11.688 3.406 -11.688 -0.281 QT
-11.688 -3.969 -10.391 -5.906 QT
-9.094 -7.844 -6.641 -7.844 QT
cp
f
GR
GS
[1 0 0 1 124 238.90475] CT
0.149 GC
N
-22.156 5.344 M
-15.281 5.344 L
-15.281 7 L
-24.531 7 L
-24.531 5.344 L
-23.406 4.172 -21.469 2.219 QT
-19.531 0.266 -19.031 -0.313 QT
-18.094 -1.375 -17.719 -2.109 QT
-17.344 -2.844 -17.344 -3.563 QT
-17.344 -4.719 -18.156 -5.453 QT
-18.969 -6.188 -20.281 -6.188 QT
-21.203 -6.188 -22.234 -5.867 QT
-23.266 -5.547 -24.438 -4.891 QT
-24.438 -6.875 L
-23.25 -7.359 -22.211 -7.602 QT
-21.172 -7.844 -20.313 -7.844 QT
-18.047 -7.844 -16.703 -6.711 QT
-15.359 -5.578 -15.359 -3.688 QT
-15.359 -2.781 -15.695 -1.977 QT
-16.031 -1.172 -16.922 -0.078 QT
-17.156 0.203 -18.469 1.555 QT
-19.781 2.906 -22.156 5.344 QT
cp
-6.916 -6.281 M
-8.447 -6.281 -9.213 -4.781 QT
-9.979 -3.281 -9.979 -0.281 QT
-9.979 2.719 -9.213 4.219 QT
-8.447 5.719 -6.916 5.719 QT
-5.385 5.719 -4.619 4.219 QT
-3.854 2.719 -3.854 -0.281 QT
-3.854 -3.281 -4.619 -4.781 QT
-5.385 -6.281 -6.916 -6.281 QT
cp
-6.916 -7.844 M
-4.463 -7.844 -3.174 -5.906 QT
-1.885 -3.969 -1.885 -0.281 QT
-1.885 3.406 -3.174 5.344 QT
-4.463 7.281 -6.916 7.281 QT
-9.369 7.281 -10.666 5.344 QT
-11.963 3.406 -11.963 -0.281 QT
-11.963 -3.969 -10.666 -5.906 QT
-9.369 -7.844 -6.916 -7.844 QT
cp
f
GR
GS
[1 0 0 1 124 188.80952] CT
0.149 GC
N
-18.438 -5.859 M
-23.422 1.922 L
-18.438 1.922 L
-18.438 -5.859 L
cp
-18.953 -7.578 M
-16.484 -7.578 L
-16.484 1.922 L
-14.391 1.922 L
-14.391 3.563 L
-16.484 3.563 L
-16.484 7 L
-18.438 7 L
-18.438 3.563 L
-25.016 3.563 L
-25.016 1.656 L
-18.953 -7.578 L
cp
-6.916 -6.281 M
-8.447 -6.281 -9.213 -4.781 QT
-9.979 -3.281 -9.979 -0.281 QT
-9.979 2.719 -9.213 4.219 QT
-8.447 5.719 -6.916 5.719 QT
-5.385 5.719 -4.619 4.219 QT
-3.854 2.719 -3.854 -0.281 QT
-3.854 -3.281 -4.619 -4.781 QT
-5.385 -6.281 -6.916 -6.281 QT
cp
-6.916 -7.844 M
-4.463 -7.844 -3.174 -5.906 QT
-1.885 -3.969 -1.885 -0.281 QT
-1.885 3.406 -3.174 5.344 QT
-4.463 7.281 -6.916 7.281 QT
-9.369 7.281 -10.666 5.344 QT
-11.963 3.406 -11.963 -0.281 QT
-11.963 -3.969 -10.666 -5.906 QT
-9.369 -7.844 -6.916 -7.844 QT
cp
f
GR
GS
[1 0 0 1 124 138.71428] CT
0.149 GC
N
-19.391 -1.078 M
-20.719 -1.078 -21.5 -0.172 QT
-22.281 0.734 -22.281 2.328 QT
-22.281 3.891 -21.5 4.805 QT
-20.719 5.719 -19.391 5.719 QT
-18.063 5.719 -17.289 4.805 QT
-16.516 3.891 -16.516 2.328 QT
-16.516 0.734 -17.289 -0.172 QT
-18.063 -1.078 -19.391 -1.078 QT
cp
-15.484 -7.266 M
-15.484 -5.469 L
-16.219 -5.813 -16.977 -6 QT
-17.734 -6.188 -18.484 -6.188 QT
-20.438 -6.188 -21.469 -4.867 QT
-22.5 -3.547 -22.641 -0.875 QT
-22.063 -1.734 -21.195 -2.188 QT
-20.328 -2.641 -19.281 -2.641 QT
-17.078 -2.641 -15.805 -1.305 QT
-14.531 0.031 -14.531 2.328 QT
-14.531 4.563 -15.859 5.922 QT
-17.188 7.281 -19.391 7.281 QT
-21.922 7.281 -23.266 5.344 QT
-24.609 3.406 -24.609 -0.281 QT
-24.609 -3.734 -22.969 -5.789 QT
-21.328 -7.844 -18.563 -7.844 QT
-17.813 -7.844 -17.055 -7.695 QT
-16.297 -7.547 -15.484 -7.266 QT
cp
-6.916 -6.281 M
-8.447 -6.281 -9.213 -4.781 QT
-9.979 -3.281 -9.979 -0.281 QT
-9.979 2.719 -9.213 4.219 QT
-8.447 5.719 -6.916 5.719 QT
-5.385 5.719 -4.619 4.219 QT
-3.854 2.719 -3.854 -0.281 QT
-3.854 -3.281 -4.619 -4.781 QT
-5.385 -6.281 -6.916 -6.281 QT
cp
-6.916 -7.844 M
-4.463 -7.844 -3.174 -5.906 QT
-1.885 -3.969 -1.885 -0.281 QT
-1.885 3.406 -3.174 5.344 QT
-4.463 7.281 -6.916 7.281 QT
-9.369 7.281 -10.666 5.344 QT
-11.963 3.406 -11.963 -0.281 QT
-11.963 -3.969 -10.666 -5.906 QT
-9.369 -7.844 -6.916 -7.844 QT
cp
f
GR
GS
[1 0 0 1 124 88.61905] CT
0.149 GC
N
-19.641 0.078 M
-21.047 0.078 -21.852 0.828 QT
-22.656 1.578 -22.656 2.891 QT
-22.656 4.219 -21.852 4.969 QT
-21.047 5.719 -19.641 5.719 QT
-18.234 5.719 -17.422 4.961 QT
-16.609 4.203 -16.609 2.891 QT
-16.609 1.578 -17.414 0.828 QT
-18.219 0.078 -19.641 0.078 QT
cp
-21.609 -0.766 M
-22.891 -1.078 -23.594 -1.945 QT
-24.297 -2.813 -24.297 -4.063 QT
-24.297 -5.813 -23.055 -6.828 QT
-21.813 -7.844 -19.641 -7.844 QT
-17.469 -7.844 -16.227 -6.828 QT
-14.984 -5.813 -14.984 -4.063 QT
-14.984 -2.813 -15.695 -1.945 QT
-16.406 -1.078 -17.656 -0.766 QT
-16.234 -0.438 -15.438 0.531 QT
-14.641 1.5 -14.641 2.891 QT
-14.641 5.016 -15.938 6.148 QT
-17.234 7.281 -19.641 7.281 QT
-22.047 7.281 -23.344 6.148 QT
-24.641 5.016 -24.641 2.891 QT
-24.641 1.5 -23.844 0.531 QT
-23.047 -0.438 -21.609 -0.766 QT
cp
-22.344 -3.875 M
-22.344 -2.75 -21.633 -2.117 QT
-20.922 -1.484 -19.641 -1.484 QT
-18.375 -1.484 -17.656 -2.117 QT
-16.938 -2.75 -16.938 -3.875 QT
-16.938 -5.016 -17.656 -5.648 QT
-18.375 -6.281 -19.641 -6.281 QT
-20.922 -6.281 -21.633 -5.648 QT
-22.344 -5.016 -22.344 -3.875 QT
cp
-6.916 -6.281 M
-8.447 -6.281 -9.213 -4.781 QT
-9.979 -3.281 -9.979 -0.281 QT
-9.979 2.719 -9.213 4.219 QT
-8.447 5.719 -6.916 5.719 QT
-5.385 5.719 -4.619 4.219 QT
-3.854 2.719 -3.854 -0.281 QT
-3.854 -3.281 -4.619 -4.781 QT
-5.385 -6.281 -6.916 -6.281 QT
cp
-6.916 -7.844 M
-4.463 -7.844 -3.174 -5.906 QT
-1.885 -3.969 -1.885 -0.281 QT
-1.885 3.406 -3.174 5.344 QT
-4.463 7.281 -6.916 7.281 QT
-9.369 7.281 -10.666 5.344 QT
-11.963 3.406 -11.963 -0.281 QT
-11.963 -3.969 -10.666 -5.906 QT
-9.369 -7.844 -6.916 -7.844 QT
cp
f
GR
GS
[1 0 0 1 124 38.52381] CT
0.149 GC
N
-36.516 5.344 M
-33.297 5.344 L
-33.297 -5.781 L
-36.797 -5.078 L
-36.797 -6.875 L
-33.313 -7.578 L
-31.344 -7.578 L
-31.344 5.344 L
-28.125 5.344 L
-28.125 7 L
-36.516 7 L
-36.516 5.344 L
cp
-19.916 -6.281 M
-21.447 -6.281 -22.213 -4.781 QT
-22.979 -3.281 -22.979 -0.281 QT
-22.979 2.719 -22.213 4.219 QT
-21.447 5.719 -19.916 5.719 QT
-18.385 5.719 -17.619 4.219 QT
-16.854 2.719 -16.854 -0.281 QT
-16.854 -3.281 -17.619 -4.781 QT
-18.385 -6.281 -19.916 -6.281 QT
cp
-19.916 -7.844 M
-17.463 -7.844 -16.174 -5.906 QT
-14.885 -3.969 -14.885 -0.281 QT
-14.885 3.406 -16.174 5.344 QT
-17.463 7.281 -19.916 7.281 QT
-22.369 7.281 -23.666 5.344 QT
-24.963 3.406 -24.963 -0.281 QT
-24.963 -3.969 -23.666 -5.906 QT
-22.369 -7.844 -19.916 -7.844 QT
cp
-7.191 -6.281 M
-8.723 -6.281 -9.488 -4.781 QT
-10.254 -3.281 -10.254 -0.281 QT
-10.254 2.719 -9.488 4.219 QT
-8.723 5.719 -7.191 5.719 QT
-5.66 5.719 -4.895 4.219 QT
-4.129 2.719 -4.129 -0.281 QT
-4.129 -3.281 -4.895 -4.781 QT
-5.66 -6.281 -7.191 -6.281 QT
cp
-7.191 -7.844 M
-4.738 -7.844 -3.449 -5.906 QT
-2.16 -3.969 -2.16 -0.281 QT
-2.16 3.406 -3.449 5.344 QT
-4.738 7.281 -7.191 7.281 QT
-9.645 7.281 -10.941 5.344 QT
-12.238 3.406 -12.238 -0.281 QT
-12.238 -3.969 -10.941 -5.906 QT
-9.645 -7.844 -7.191 -7.844 QT
cp
f
GR
GS
[0 -1 1 0 82 157.49988] CT
0.149 GC
N
-113.063 -22.031 M
-99.5 -22.031 L
-99.5 -20.219 L
-105.188 -20.219 L
-105.188 -6 L
-107.375 -6 L
-107.375 -20.219 L
-113.063 -20.219 L
-113.063 -22.031 L
cp
-92.015 -12.047 M
-94.421 -12.047 -95.343 -11.5 QT
-96.265 -10.953 -96.265 -9.625 QT
-96.265 -8.578 -95.569 -7.961 QT
-94.874 -7.344 -93.687 -7.344 QT
-92.046 -7.344 -91.054 -8.508 QT
-90.062 -9.672 -90.062 -11.609 QT
-90.062 -12.047 L
-92.015 -12.047 L
cp
-88.077 -12.859 M
-88.077 -6 L
-90.062 -6 L
-90.062 -7.828 L
-90.733 -6.734 -91.741 -6.211 QT
-92.749 -5.688 -94.218 -5.688 QT
-96.062 -5.688 -97.147 -6.727 QT
-98.233 -7.766 -98.233 -9.5 QT
-98.233 -11.531 -96.874 -12.563 QT
-95.515 -13.594 -92.827 -13.594 QT
-90.062 -13.594 L
-90.062 -13.781 L
-90.062 -15.156 -90.952 -15.898 QT
-91.843 -16.641 -93.468 -16.641 QT
-94.499 -16.641 -95.476 -16.398 QT
-96.452 -16.156 -97.358 -15.656 QT
-97.358 -17.484 L
-96.28 -17.906 -95.257 -18.117 QT
-94.233 -18.328 -93.265 -18.328 QT
-90.655 -18.328 -89.366 -16.969 QT
-88.077 -15.609 -88.077 -12.859 QT
cp
-77.033 -16.188 M
-77.361 -16.375 -77.76 -16.469 QT
-78.158 -16.563 -78.627 -16.563 QT
-80.299 -16.563 -81.197 -15.469 QT
-82.096 -14.375 -82.096 -12.344 QT
-82.096 -6 L
-84.08 -6 L
-84.08 -18.031 L
-82.096 -18.031 L
-82.096 -16.156 L
-81.471 -17.266 -80.471 -17.797 QT
-79.471 -18.328 -78.049 -18.328 QT
-77.846 -18.328 -77.596 -18.297 QT
-77.346 -18.266 -77.049 -18.219 QT
-77.033 -16.188 L
cp
-67.051 -12.156 M
-67.051 -14.297 -67.934 -15.484 QT
-68.816 -16.672 -70.41 -16.672 QT
-72.004 -16.672 -72.895 -15.484 QT
-73.785 -14.297 -73.785 -12.156 QT
-73.785 -10.016 -72.895 -8.836 QT
-72.004 -7.656 -70.41 -7.656 QT
-68.816 -7.656 -67.934 -8.836 QT
-67.051 -10.016 -67.051 -12.156 QT
cp
-65.066 -7.5 M
-65.066 -4.422 -66.434 -2.922 QT
-67.801 -1.422 -70.613 -1.422 QT
-71.66 -1.422 -72.582 -1.578 QT
-73.504 -1.734 -74.363 -2.063 QT
-74.363 -3.984 L
-73.504 -3.5 -72.652 -3.281 QT
-71.801 -3.063 -70.926 -3.063 QT
-68.973 -3.063 -68.012 -4.078 QT
-67.051 -5.094 -67.051 -7.141 QT
-67.051 -8.109 L
-67.66 -7.047 -68.613 -6.523 QT
-69.566 -6 -70.895 -6 QT
-73.113 -6 -74.465 -7.688 QT
-75.816 -9.375 -75.816 -12.156 QT
-75.816 -14.953 -74.465 -16.641 QT
-73.113 -18.328 -70.895 -18.328 QT
-69.566 -18.328 -68.613 -17.797 QT
-67.66 -17.266 -67.051 -16.203 QT
-67.051 -18.031 L
-65.066 -18.031 L
-65.066 -7.5 L
cp
-50.711 -12.516 M
-50.711 -11.547 L
-59.789 -11.547 L
-59.664 -9.5 -58.563 -8.43 QT
-57.461 -7.359 -55.492 -7.359 QT
-54.352 -7.359 -53.289 -7.641 QT
-52.227 -7.922 -51.164 -8.484 QT
-51.164 -6.609 L
-52.227 -6.156 -53.344 -5.922 QT
-54.461 -5.688 -55.617 -5.688 QT
-58.492 -5.688 -60.172 -7.367 QT
-61.852 -9.047 -61.852 -11.891 QT
-61.852 -14.859 -60.258 -16.594 QT
-58.664 -18.328 -55.961 -18.328 QT
-53.523 -18.328 -52.117 -16.766 QT
-50.711 -15.203 -50.711 -12.516 QT
cp
-52.68 -13.094 M
-52.711 -14.719 -53.594 -15.68 QT
-54.477 -16.641 -55.93 -16.641 QT
-57.586 -16.641 -58.586 -15.711 QT
-59.586 -14.781 -59.727 -13.078 QT
-52.68 -13.094 L
cp
-45.504 -21.453 M
-45.504 -18.031 L
-41.441 -18.031 L
-41.441 -16.5 L
-45.504 -16.5 L
-45.504 -9.969 L
-45.504 -8.5 -45.105 -8.078 QT
-44.707 -7.656 -43.473 -7.656 QT
-41.441 -7.656 L
-41.441 -6 L
-43.473 -6 L
-45.754 -6 -46.621 -6.852 QT
-47.488 -7.703 -47.488 -9.969 QT
-47.488 -16.5 L
-48.941 -16.5 L
-48.941 -18.031 L
-47.488 -18.031 L
-47.488 -21.453 L
-45.504 -21.453 L
cp
-31.159 -17.672 M
-31.159 -15.813 L
-32.003 -16.234 -32.909 -16.453 QT
-33.815 -16.672 -34.769 -16.672 QT
-36.253 -16.672 -36.987 -16.219 QT
-37.722 -15.766 -37.722 -14.859 QT
-37.722 -14.172 -37.19 -13.781 QT
-36.659 -13.391 -35.081 -13.031 QT
-34.394 -12.891 L
-32.3 -12.438 -31.409 -11.617 QT
-30.519 -10.797 -30.519 -9.313 QT
-30.519 -7.641 -31.847 -6.664 QT
-33.175 -5.688 -35.487 -5.688 QT
-36.456 -5.688 -37.503 -5.875 QT
-38.55 -6.063 -39.722 -6.438 QT
-39.722 -8.484 L
-38.628 -7.906 -37.558 -7.625 QT
-36.487 -7.344 -35.456 -7.344 QT
-34.05 -7.344 -33.3 -7.82 QT
-32.55 -8.297 -32.55 -9.172 QT
-32.55 -9.969 -33.097 -10.398 QT
-33.644 -10.828 -35.472 -11.234 QT
-36.159 -11.391 L
-38.003 -11.781 -38.815 -12.578 QT
-39.628 -13.375 -39.628 -14.781 QT
-39.628 -16.469 -38.425 -17.398 QT
-37.222 -18.328 -35.019 -18.328 QT
-33.909 -18.328 -32.948 -18.164 QT
-31.987 -18 -31.159 -17.672 QT
cp
-13.407 -16.188 M
-13.735 -16.375 -14.134 -16.469 QT
-14.532 -16.563 -15.001 -16.563 QT
-16.673 -16.563 -17.571 -15.469 QT
-18.47 -14.375 -18.47 -12.344 QT
-18.47 -6 L
-20.454 -6 L
-20.454 -18.031 L
-18.47 -18.031 L
-18.47 -16.156 L
-17.845 -17.266 -16.845 -17.797 QT
-15.845 -18.328 -14.423 -18.328 QT
-14.22 -18.328 -13.97 -18.297 QT
-13.72 -18.266 -13.423 -18.219 QT
-13.407 -16.188 L
cp
-1.05 -12.516 M
-1.05 -11.547 L
-10.128 -11.547 L
-10.003 -9.5 -8.901 -8.43 QT
-7.8 -7.359 -5.831 -7.359 QT
-4.69 -7.359 -3.628 -7.641 QT
-2.565 -7.922 -1.503 -8.484 QT
-1.503 -6.609 L
-2.565 -6.156 -3.683 -5.922 QT
-4.8 -5.688 -5.956 -5.688 QT
-8.831 -5.688 -10.511 -7.367 QT
-12.19 -9.047 -12.19 -11.891 QT
-12.19 -14.859 -10.597 -16.594 QT
-9.003 -18.328 -6.3 -18.328 QT
-3.862 -18.328 -2.456 -16.766 QT
-1.05 -15.203 -1.05 -12.516 QT
cp
-3.019 -13.094 M
-3.05 -14.719 -3.933 -15.68 QT
-4.815 -16.641 -6.269 -16.641 QT
-7.925 -16.641 -8.925 -15.711 QT
-9.925 -14.781 -10.065 -13.078 QT
-3.019 -13.094 L
cp
7.673 -12.047 M
5.267 -12.047 4.345 -11.5 QT
3.423 -10.953 3.423 -9.625 QT
3.423 -8.578 4.118 -7.961 QT
4.813 -7.344 6.001 -7.344 QT
7.642 -7.344 8.634 -8.508 QT
9.626 -9.672 9.626 -11.609 QT
9.626 -12.047 L
7.673 -12.047 L
cp
11.61 -12.859 M
11.61 -6 L
9.626 -6 L
9.626 -7.828 L
8.954 -6.734 7.946 -6.211 QT
6.938 -5.688 5.47 -5.688 QT
3.626 -5.688 2.54 -6.727 QT
1.454 -7.766 1.454 -9.5 QT
1.454 -11.531 2.813 -12.563 QT
4.173 -13.594 6.86 -13.594 QT
9.626 -13.594 L
9.626 -13.781 L
9.626 -15.156 8.735 -15.898 QT
7.845 -16.641 6.22 -16.641 QT
5.188 -16.641 4.212 -16.398 QT
3.235 -16.156 2.329 -15.656 QT
2.329 -17.484 L
3.407 -17.906 4.431 -18.117 QT
5.454 -18.328 6.423 -18.328 QT
9.032 -18.328 10.321 -16.969 QT
11.61 -15.609 11.61 -12.859 QT
cp
24.342 -17.563 M
24.342 -15.719 L
23.498 -16.188 22.654 -16.414 QT
21.811 -16.641 20.951 -16.641 QT
19.029 -16.641 17.967 -15.422 QT
16.904 -14.203 16.904 -12 QT
16.904 -9.797 17.967 -8.578 QT
19.029 -7.359 20.951 -7.359 QT
21.811 -7.359 22.654 -7.594 QT
23.498 -7.828 24.342 -8.281 QT
24.342 -6.469 L
23.514 -6.078 22.623 -5.883 QT
21.732 -5.688 20.748 -5.688 QT
18.029 -5.688 16.428 -7.398 QT
14.826 -9.109 14.826 -12 QT
14.826 -14.953 16.443 -16.641 QT
18.061 -18.328 20.873 -18.328 QT
21.779 -18.328 22.654 -18.141 QT
23.529 -17.953 24.342 -17.563 QT
cp
37.781 -13.266 M
37.781 -6 L
35.797 -6 L
35.797 -13.203 L
35.797 -14.906 35.133 -15.758 QT
34.469 -16.609 33.141 -16.609 QT
31.531 -16.609 30.609 -15.586 QT
29.688 -14.563 29.688 -12.797 QT
29.688 -6 L
27.703 -6 L
27.703 -22.719 L
29.688 -22.719 L
29.688 -16.156 L
30.391 -17.25 31.359 -17.789 QT
32.328 -18.328 33.578 -18.328 QT
35.656 -18.328 36.719 -17.039 QT
37.781 -15.75 37.781 -13.266 QT
cp
52.006 -12.516 M
52.006 -11.547 L
42.928 -11.547 L
43.053 -9.5 44.154 -8.43 QT
45.256 -7.359 47.225 -7.359 QT
48.365 -7.359 49.428 -7.641 QT
50.49 -7.922 51.553 -8.484 QT
51.553 -6.609 L
50.49 -6.156 49.373 -5.922 QT
48.256 -5.688 47.1 -5.688 QT
44.225 -5.688 42.545 -7.367 QT
40.865 -9.047 40.865 -11.891 QT
40.865 -14.859 42.459 -16.594 QT
44.053 -18.328 46.756 -18.328 QT
49.193 -18.328 50.6 -16.766 QT
52.006 -15.203 52.006 -12.516 QT
cp
50.037 -13.094 M
50.006 -14.719 49.123 -15.68 QT
48.24 -16.641 46.787 -16.641 QT
45.131 -16.641 44.131 -15.711 QT
43.131 -14.781 42.99 -13.078 QT
50.037 -13.094 L
cp
63.166 -16.203 M
63.166 -22.719 L
65.15 -22.719 L
65.15 -6 L
63.166 -6 L
63.166 -7.813 L
62.557 -6.734 61.604 -6.211 QT
60.65 -5.688 59.322 -5.688 QT
57.135 -5.688 55.768 -7.43 QT
54.4 -9.172 54.4 -12 QT
54.4 -14.844 55.768 -16.586 QT
57.135 -18.328 59.322 -18.328 QT
60.65 -18.328 61.604 -17.805 QT
62.557 -17.281 63.166 -16.203 QT
cp
56.432 -12 M
56.432 -9.828 57.33 -8.586 QT
58.229 -7.344 59.807 -7.344 QT
61.369 -7.344 62.268 -8.586 QT
63.166 -9.828 63.166 -12 QT
63.166 -14.188 62.268 -15.43 QT
61.369 -16.672 59.807 -16.672 QT
58.229 -16.672 57.33 -15.43 QT
56.432 -14.188 56.432 -12 QT
cp
76.03 -22.719 M
80.593 -22.719 L
80.593 -21.172 L
78.015 -21.172 L
78.015 -4.641 L
80.593 -4.641 L
80.593 -3.094 L
76.03 -3.094 L
76.03 -22.719 L
cp
98.723 -13.063 M
97.785 -13.063 97.254 -12.266 QT
96.723 -11.469 96.723 -10.047 QT
96.723 -8.656 97.254 -7.852 QT
97.785 -7.047 98.723 -7.047 QT
99.629 -7.047 100.16 -7.852 QT
100.691 -8.656 100.691 -10.047 QT
100.691 -11.453 100.16 -12.258 QT
99.629 -13.063 98.723 -13.063 QT
cp
98.723 -14.422 M
100.41 -14.422 101.41 -13.242 QT
102.41 -12.063 102.41 -10.047 QT
102.41 -8.047 101.41 -6.867 QT
100.41 -5.688 98.723 -5.688 QT
97.004 -5.688 96.004 -6.867 QT
95.004 -8.047 95.004 -10.047 QT
95.004 -12.063 96.004 -13.242 QT
97.004 -14.422 98.723 -14.422 QT
cp
87.629 -20.969 M
86.707 -20.969 86.176 -20.164 QT
85.645 -19.359 85.645 -17.969 QT
85.645 -16.547 86.168 -15.75 QT
86.691 -14.953 87.629 -14.953 QT
88.566 -14.953 89.098 -15.75 QT
89.629 -16.547 89.629 -17.969 QT
89.629 -19.359 89.09 -20.164 QT
88.551 -20.969 87.629 -20.969 QT
cp
97.332 -22.328 M
99.051 -22.328 L
89.02 -5.688 L
87.301 -5.688 L
97.332 -22.328 L
cp
87.629 -22.328 M
89.332 -22.328 90.34 -21.148 QT
91.348 -19.969 91.348 -17.969 QT
91.348 -15.938 90.348 -14.766 QT
89.348 -13.594 87.629 -13.594 QT
85.926 -13.594 84.934 -14.773 QT
83.941 -15.953 83.941 -17.969 QT
83.941 -19.969 84.941 -21.148 QT
85.941 -22.328 87.629 -22.328 QT
cp
110.314 -22.719 M
110.314 -3.094 L
105.768 -3.094 L
105.768 -4.641 L
108.33 -4.641 L
108.33 -21.172 L
105.768 -21.172 L
105.768 -22.719 L
110.314 -22.719 L
cp
f
GR
GS
0 0.447 0.741 RC
1 LJ
0.5 LW
N
169.525 157.17 M
169.913 271.109 L
170.3 205.508 L
170.688 176.286 L
171.075 200.597 L
171.462 185.863 L
171.85 255.603 L
172.238 235.327 L
172.625 183.536 L
173.012 170.353 L
173.4 176.286 L
173.788 163.762 L
174.175 226.381 L
174.563 201.333 L
174.95 205.508 L
175.337 205.508 L
175.725 238.905 L
176.113 210.726 L
176.5 205.508 L
176.887 191.593 L
177.275 200.597 L
177.663 222.206 L
178.05 226.381 L
178.438 200.597 L
178.825 163.762 L
179.212 183.536 L
179.6 163.762 L
179.988 196.719 L
180.375 238.905 L
180.762 226.381 L
181.15 147.426 L
181.538 226.381 L
181.925 175.147 L
182.313 205.508 L
182.7 200.597 L
183.087 196.719 L
183.475 205.508 L
183.863 242.036 L
184.25 181.653 L
184.637 163.762 L
185.025 215.331 L
185.413 215.331 L
185.8 196.719 L
186.188 191.593 L
186.575 147.426 L
186.962 222.206 L
187.35 226.381 L
187.738 196.719 L
188.125 210.726 L
188.512 205.508 L
188.9 143.987 L
189.288 242.036 L
189.675 170.353 L
190.063 152.377 L
190.45 222.206 L
190.837 200.597 L
191.225 142.889 L
191.613 205.508 L
192 271.109 L
192.387 138.714 L
192.775 205.508 L
193.163 222.206 L
193.55 210.726 L
193.938 181.653 L
194.325 205.508 L
194.712 200.597 L
195.1 210.726 L
195.488 191.593 L
195.875 188.81 L
196.262 238.905 L
196.65 215.331 L
197.038 200.597 L
197.425 196.719 L
197.813 145.871 L
198.2 188.81 L
198.587 210.726 L
198.975 169.726 L
199.363 230.064 L
199.75 215.331 L
200.137 219.423 L
200.525 200.597 L
200.913 215.331 L
201.3 205.508 L
201.688 191.593 L
202.075 219.423 L
202.462 200.597 L
202.85 170.353 L
203.238 163.762 L
203.625 196.719 L
204.012 183.536 L
204.4 200.597 L
204.788 219.423 L
205.175 140.57 L
205.563 200.597 L
205.95 163.762 L
206.337 209.902 L
206.725 158.317 L
207.113 205.508 L
207.5 151.238 L
207.887 200.597 L
208.275 205.508 L
208.663 191.593 L
209.05 157.798 L
209.438 242.036 L
209.825 188.81 L
210.212 200.597 L
210.6 242.036 L
210.988 196.719 L
211.375 169.726 L
211.762 238.905 L
212.15 142.889 L
212.538 157.798 L
212.925 188.81 L
213.313 226.381 L
213.7 181.653 L
214.087 163.762 L
214.475 152.377 L
214.863 188.81 L
215.25 219.423 L
215.637 226.381 L
216.025 169.207 L
216.413 176.286 L
216.8 191.593 L
217.188 140.991 L
217.575 196.719 L
217.962 215.331 L
218.35 191.593 L
218.738 215.331 L
219.125 205.508 L
219.512 188.81 L
219.9 175.147 L
220.288 193.581 L
220.675 163.762 L
221.063 157.798 L
221.45 196.719 L
221.837 219.423 L
222.225 177.677 L
222.613 181.653 L
223 169.726 L
223.387 230.064 L
223.775 188.81 L
224.163 163.762 L
224.55 191.593 L
224.938 200.597 L
225.325 163.762 L
225.712 163.762 L
226.1 163.762 L
226.488 122.016 L
226.875 200.597 L
227.262 200.597 L
227.65 145.871 L
228.038 169.726 L
228.425 210.726 L
228.813 238.905 L
229.2 170.353 L
229.587 151.238 L
229.975 152.377 L
230.363 233.339 L
230.75 181.653 L
231.137 128.695 L
231.525 138.714 L
231.913 209.902 L
232.3 152.377 L
232.688 134.861 L
233.075 205.508 L
233.462 177.677 L
233.85 191.593 L
234.238 196.719 L
234.625 176.286 L
235.012 163.762 L
235.4 169.726 L
235.788 188.81 L
236.175 200.597 L
236.563 176.286 L
236.95 196.719 L
237.337 205.508 L
237.725 163.762 L
238.113 134.861 L
238.5 177.677 L
238.887 196.719 L
239.275 191.593 L
239.663 222.206 L
240.05 201.333 L
240.438 169.207 L
240.825 158.317 L
241.212 169.207 L
241.6 145.871 L
241.988 145.871 L
242.375 145.871 L
242.762 151.238 L
243.15 219.423 L
243.538 226.381 L
243.925 118.221 L
244.313 145.871 L
244.7 148.733 L
245.087 149.847 L
245.475 176.286 L
245.863 169.726 L
246.25 205.508 L
246.637 188.81 L
247.025 157.798 L
247.413 169.726 L
247.8 157.798 L
248.188 205.508 L
248.575 175.147 L
248.962 136.536 L
249.35 200.597 L
249.738 188.81 L
250.125 119.034 L
250.512 176.286 L
250.9 158.752 L
251.288 183.536 L
251.675 142.889 L
252.063 122.016 L
252.45 140.991 L
252.837 163.762 L
253.225 183.536 L
253.613 215.331 L
254 169.726 L
254.387 196.719 L
254.775 169.726 L
255.163 169.726 L
255.55 176.286 L
255.938 152.377 L
256.325 191.593 L
256.712 170.353 L
257.1 144.495 L
257.487 151.238 L
257.875 177.677 L
258.263 169.726 L
258.65 132.452 L
259.038 163.762 L
259.425 157.798 L
259.813 169.726 L
260.2 175.147 L
260.587 157.798 L
260.975 215.331 L
261.362 185.863 L
261.75 238.905 L
262.138 122.016 L
262.525 128.695 L
262.913 181.653 L
263.3 177.677 L
263.688 226.381 L
264.075 131.293 L
264.462 230.064 L
264.85 107.621 L
265.237 196.719 L
265.625 176.286 L
266.013 140.991 L
266.4 242.036 L
266.788 140.991 L
267.175 205.508 L
267.563 177.677 L
267.95 169.726 L
268.337 152.377 L
268.725 138.714 L
269.112 181.653 L
269.5 176.286 L
269.888 132.452 L
270.275 181.653 L
270.663 191.593 L
271.05 215.331 L
271.438 181.653 L
271.825 142.889 L
272.212 152.377 L
272.6 169.207 L
272.987 147.426 L
273.375 196.719 L
273.763 169.726 L
274.15 169.207 L
274.538 188.81 L
274.925 169.726 L
275.313 183.536 L
275.7 191.593 L
276.087 163.762 L
276.475 188.81 L
276.862 188.81 L
277.25 188.81 L
277.638 177.677 L
278.025 142.889 L
278.413 170.353 L
278.8 163.762 L
279.188 215.331 L
279.575 157.798 L
279.962 163.762 L
280.35 140.57 L
280.737 163.762 L
281.125 215.331 L
281.513 181.653 L
281.9 129.606 L
282.288 183.536 L
282.675 136.925 L
283.063 122.016 L
283.45 142.889 L
283.837 176.286 L
284.225 170.353 L
284.612 219.423 L
285 124.895 L
285.388 124.895 L
285.775 175.147 L
286.163 132.452 L
286.55 134.861 L
286.938 140.991 L
287.325 188.81 L
287.712 153.325 L
288.1 169.726 L
288.487 157.798 L
288.875 176.286 L
289.263 183.536 L
289.65 128.695 L
290.038 163.762 L
290.425 133.943 L
290.813 116.258 L
291.2 215.331 L
291.587 170.353 L
291.975 230.064 L
292.362 152.377 L
292.75 140.991 L
293.138 152.377 L
293.525 158.317 L
293.913 124.895 L
294.3 115.593 L
294.688 158.317 L
295.075 215.331 L
295.462 134.861 L
295.85 210.726 L
296.237 196.719 L
296.625 125.227 L
297.013 142.889 L
297.4 110.088 L
297.788 136.536 L
298.175 148.733 L
298.563 145.871 L
298.95 147.426 L
299.337 142.889 L
299.725 183.536 L
300.112 175.147 L
300.5 153.325 L
300.888 163.762 L
301.275 163.762 L
301.663 205.508 L
302.05 153.325 L
302.438 163.762 L
302.825 122.016 L
303.212 113.667 L
303.6 112.739 L
303.987 94.185 L
304.375 183.536 L
304.763 142.889 L
305.15 215.331 L
305.538 138.714 L
305.925 195.071 L
306.313 209.902 L
306.7 175.147 L
307.087 210.726 L
307.475 153.325 L
307.862 191.593 L
308.25 169.726 L
308.638 191.593 L
309.025 131.293 L
309.413 157.798 L
309.8 95.083 L
310.188 140.991 L
310.575 136.536 L
310.962 147.426 L
311.35 200.597 L
311.737 163.762 L
312.125 122.016 L
312.513 171.129 L
312.9 169.726 L
313.288 215.331 L
313.675 193.581 L
314.063 122.016 L
314.45 163.762 L
314.837 152.377 L
315.225 191.593 L
315.612 127.98 L
316 157.798 L
316.388 149.847 L
316.775 111.579 L
317.163 142.889 L
317.55 210.726 L
317.938 125.646 L
318.325 108.657 L
318.712 158.317 L
319.1 188.81 L
319.487 183.536 L
319.875 112.739 L
320.263 138.714 L
320.65 152.377 L
321.038 122.016 L
321.425 175.147 L
321.813 153.325 L
322.2 129.606 L
322.587 105.317 L
322.975 131.293 L
323.362 185.863 L
323.75 125.646 L
324.138 98.984 L
324.525 105.317 L
324.913 185.863 L
325.3 157.798 L
325.688 238.905 L
326.075 128.695 L
326.462 122.016 L
326.85 138.714 L
327.237 136.536 L
327.625 144.495 L
328.013 163.762 L
328.4 196.719 L
328.788 163.762 L
329.175 118.676 L
329.563 138.714 L
329.95 196.719 L
330.337 119.323 L
330.725 148.733 L
331.112 210.726 L
331.5 140.991 L
331.888 183.536 L
332.275 119.034 L
332.663 163.762 L
333.05 129.606 L
333.438 118.676 L
333.825 152.377 L
334.212 136.536 L
334.6 163.762 L
334.987 134.861 L
335.375 140.57 L
335.763 122.016 L
336.15 142.889 L
336.538 122.016 L
336.925 122.016 L
337.313 226.381 L
337.7 183.536 L
338.087 158.317 L
338.475 144.495 L
338.862 127.98 L
339.25 196.719 L
339.638 148.733 L
340.025 148.733 L
340.413 163.762 L
340.8 133.943 L
341.188 128.695 L
341.575 125.646 L
341.962 107.621 L
342.35 176.286 L
342.737 153.325 L
343.125 169.726 L
343.513 144.495 L
343.9 142.889 L
344.288 127.402 L
344.675 136.925 L
345.063 157.798 L
345.45 108.97 L
345.837 177.677 L
346.225 115.593 L
346.612 111.243 L
347 163.762 L
347.388 163.762 L
347.775 125.646 L
348.163 158.752 L
348.55 131.293 L
348.938 163.762 L
349.325 107.621 L
349.712 132.452 L
350.1 176.286 L
350.487 200.597 L
350.875 153.325 L
351.263 125.646 L
351.65 118.676 L
352.038 136.536 L
352.425 169.726 L
352.813 175.147 L
353.2 183.536 L
353.587 138.714 L
353.975 140.57 L
354.362 92.975 L
354.75 101.143 L
355.138 176.286 L
355.525 152.377 L
355.913 140.991 L
356.3 152.377 L
356.688 143.987 L
357.075 145.871 L
357.462 200.597 L
357.85 138.714 L
358.237 125.646 L
358.625 147.426 L
359.013 147.426 L
359.4 116.258 L
359.788 106.836 L
360.175 152.377 L
360.563 152.377 L
360.95 131.293 L
361.337 170.353 L
361.725 99.245 L
362.112 144.495 L
362.5 176.286 L
362.888 177.677 L
363.275 175.147 L
363.663 163.762 L
364.05 99.245 L
364.438 196.719 L
364.825 193.581 L
365.212 181.653 L
365.6 183.536 L
365.987 188.81 L
366.375 191.593 L
366.763 158.317 L
367.15 200.597 L
367.538 205.508 L
367.925 131.293 L
368.313 134.861 L
368.7 152.377 L
369.087 163.762 L
369.475 138.714 L
369.862 148.733 L
370.25 148.733 L
370.638 147.426 L
371.025 188.81 L
371.413 132.452 L
371.8 200.597 L
372.188 215.331 L
372.575 222.206 L
372.962 163.762 L
373.35 138.714 L
373.737 169.207 L
374.125 158.317 L
374.513 157.798 L
374.9 183.536 L
375.288 104.826 L
375.675 153.325 L
376.063 170.353 L
376.45 140.57 L
376.837 181.653 L
377.225 115.593 L
377.612 97.847 L
378 132.452 L
378.388 163.762 L
378.775 163.762 L
379.163 119.034 L
379.55 128.695 L
379.938 163.762 L
380.325 152.377 L
380.712 205.508 L
381.1 158.752 L
381.487 157.798 L
381.875 196.719 L
382.263 122.016 L
382.65 115.593 L
383.038 163.762 L
383.425 169.207 L
383.813 183.536 L
384.2 158.317 L
384.587 169.726 L
384.975 196.719 L
385.362 134.861 L
385.75 163.762 L
386.138 205.508 L
386.525 230.064 L
386.913 242.036 L
387.3 253.218 L
387.688 158.317 L
388.075 153.325 L
388.462 119.034 L
388.85 138.714 L
389.237 170.353 L
389.625 124.625 L
390.013 163.762 L
390.4 158.317 L
390.788 134.861 L
391.175 136.536 L
391.563 147.426 L
391.95 138.714 L
392.337 191.593 L
392.725 163.762 L
393.112 144.495 L
393.5 230.064 L
393.888 163.762 L
394.275 205.508 L
394.663 195.071 L
395.05 125.227 L
395.438 142.889 L
395.825 196.719 L
396.212 191.593 L
396.6 134.861 L
396.987 136.925 L
397.375 181.653 L
397.763 142.889 L
398.15 158.317 L
398.538 169.207 L
398.925 169.726 L
399.313 170.353 L
399.7 191.593 L
400.087 196.719 L
400.475 181.653 L
400.862 154.128 L
401.25 176.286 L
401.638 136.925 L
402.025 116.258 L
402.413 116.258 L
402.8 151.238 L
403.188 183.536 L
403.575 163.762 L
403.962 158.317 L
404.35 169.726 L
404.737 138.714 L
405.125 169.726 L
405.513 124.625 L
405.9 152.377 L
406.288 191.593 L
406.675 181.653 L
407.063 183.536 L
407.45 163.762 L
407.837 175.147 L
408.225 154.128 L
408.612 170.353 L
409 169.207 L
409.388 144.495 L
409.775 200.597 L
410.163 222.206 L
410.55 175.147 L
410.938 175.147 L
411.325 154.128 L
411.712 183.536 L
412.1 112.739 L
412.487 145.871 L
412.875 112.739 L
413.263 176.286 L
413.65 163.762 L
414.038 175.147 L
414.425 188.81 L
414.813 136.536 L
415.2 148.733 L
415.587 215.331 L
415.975 169.726 L
416.362 193.581 L
416.75 253.218 L
417.138 176.286 L
417.525 181.653 L
417.913 147.426 L
418.3 176.286 L
418.688 201.333 L
419.075 205.508 L
419.462 140.991 L
419.85 124.625 L
420.237 183.536 L
420.625 144.495 L
421.013 158.752 L
421.4 153.325 L
421.788 140.57 L
422.175 158.752 L
422.563 176.286 L
422.95 163.762 L
423.337 193.581 L
423.725 148.733 L
424.112 169.726 L
424.5 153.325 L
424.888 177.677 L
425.275 157.17 L
425.663 138.714 L
426.05 176.286 L
426.438 176.286 L
426.825 200.597 L
427.212 205.508 L
427.6 177.677 L
427.987 226.381 L
428.375 180.097 L
428.763 144.495 L
429.15 215.331 L
429.538 215.331 L
429.925 163.762 L
430.313 169.207 L
430.7 201.333 L
431.087 153.325 L
431.475 163.762 L
431.862 169.207 L
432.25 174.198 L
432.638 191.593 L
433.025 230.064 L
433.413 174.198 L
433.8 205.508 L
434.188 219.423 L
434.575 175.147 L
434.962 196.719 L
435.35 188.81 L
435.737 181.653 L
436.125 157.798 L
436.513 191.593 L
436.9 111.243 L
437.288 196.719 L
437.675 169.726 L
438.063 215.331 L
438.45 176.286 L
438.837 158.317 L
439.225 242.036 L
439.612 169.207 L
440 215.331 L
440.388 205.508 L
440.775 149.847 L
441.163 147.426 L
441.55 209.902 L
441.938 230.064 L
442.325 131.293 L
442.712 149.847 L
443.1 169.726 L
443.487 163.762 L
443.875 151.238 L
444.263 191.593 L
444.65 215.331 L
445.038 230.064 L
445.425 196.719 L
445.813 219.423 L
446.2 169.726 L
446.587 230.064 L
446.975 169.726 L
447.362 147.426 L
447.75 158.317 L
448.138 158.317 L
448.525 205.508 L
448.913 147.426 L
449.3 175.147 L
449.688 138.714 L
450.075 158.317 L
450.462 170.353 L
450.85 163.762 L
451.237 196.719 L
451.625 138.714 L
452.013 145.871 L
452.4 125.227 L
452.788 201.333 L
453.175 163.762 L
453.563 158.317 L
453.95 115.593 L
454.337 193.581 L
454.725 163.762 L
455.112 153.325 L
455.5 185.863 L
455.888 205.508 L
456.275 136.536 L
456.663 215.331 L
457.05 183.536 L
457.438 205.508 L
457.825 188.81 L
458.212 169.726 L
458.6 188.81 L
458.987 177.677 L
459.375 188.81 L
459.763 210.726 L
460.15 171.129 L
460.538 196.719 L
460.925 181.653 L
461.313 223.085 L
461.7 215.331 L
462.087 124.895 L
462.475 169.207 L
462.862 158.317 L
463.25 215.331 L
463.638 181.653 L
464.025 186.532 L
464.413 183.536 L
464.8 226.381 L
465.188 118.676 L
465.575 180.097 L
465.962 136.536 L
466.35 169.207 L
466.737 209.902 L
467.125 128.695 L
467.513 148.733 L
467.9 131.293 L
468.288 158.317 L
468.675 175.147 L
469.063 128.695 L
469.45 136.925 L
469.837 169.207 L
470.225 169.726 L
470.612 181.653 L
471 134.861 L
471.388 111.243 L
471.775 157.798 L
472.163 169.726 L
472.55 163.762 L
472.938 131.293 L
473.325 153.325 L
473.712 175.147 L
474.1 163.762 L
474.487 158.317 L
474.875 163.762 L
475.263 154.816 L
475.65 152.377 L
476.038 196.719 L
476.425 180.097 L
476.813 181.653 L
477.2 201.333 L
477.587 136.925 L
477.975 125.227 L
478.362 188.81 L
478.75 158.317 L
479.138 188.81 L
479.525 176.286 L
479.913 158.752 L
480.3 163.762 L
480.688 175.147 L
481.075 169.726 L
481.462 176.286 L
481.85 145.871 L
482.237 196.719 L
482.625 114.756 L
483.013 176.286 L
483.4 169.207 L
483.788 143.987 L
484.175 127.98 L
484.563 136.925 L
484.95 188.81 L
485.337 153.325 L
485.725 176.286 L
486.112 130.365 L
486.5 128.695 L
486.888 181.653 L
487.275 169.726 L
487.663 169.726 L
488.05 152.377 L
488.438 188.81 L
488.825 230.064 L
489.212 153.325 L
489.6 169.726 L
489.987 136.925 L
490.375 117.245 L
490.763 147.426 L
491.15 193.581 L
491.538 163.762 L
491.925 169.726 L
492.313 205.508 L
492.7 119.323 L
493.087 158.317 L
493.475 122.016 L
493.862 169.726 L
494.25 169.207 L
494.638 205.508 L
495.025 169.207 L
495.413 185.863 L
495.8 131.293 L
496.188 134.861 L
496.575 183.536 L
496.962 183.536 L
497.35 177.677 L
497.737 158.317 L
498.125 177.677 L
498.513 183.536 L
498.9 169.207 L
499.288 151.238 L
499.675 191.593 L
500.063 133.943 L
500.45 142.889 L
500.837 153.325 L
501.225 191.593 L
501.612 238.905 L
502 188.81 L
502.388 169.726 L
502.775 175.147 L
503.163 176.286 L
503.55 136.536 L
503.938 176.286 L
504.325 215.331 L
504.712 205.508 L
505.1 177.677 L
505.487 210.726 L
505.875 142.889 L
506.263 158.317 L
506.65 177.677 L
507.038 177.677 L
507.425 148.733 L
507.813 191.593 L
508.2 193.581 L
508.587 181.653 L
508.975 122.016 L
509.362 122.016 L
509.75 183.536 L
510.138 196.719 L
510.525 148.733 L
510.913 163.762 L
511.3 163.762 L
511.688 196.719 L
512.075 242.036 L
512.463 157.798 L
512.85 140.991 L
513.237 215.331 L
513.625 230.064 L
514.013 176.286 L
514.4 200.597 L
514.787 153.325 L
515.175 153.325 L
515.563 188.81 L
515.95 201.333 L
516.338 196.719 L
516.725 158.317 L
517.112 183.536 L
517.5 148.733 L
517.888 196.719 L
518.275 133.532 L
518.662 191.593 L
519.05 169.726 L
519.438 134.861 L
519.825 175.147 L
520.213 158.752 L
520.6 186.532 L
520.987 188.81 L
521.375 188.81 L
521.763 136.925 L
522.15 119.323 L
522.537 188.81 L
522.925 149.847 L
523.313 201.333 L
523.7 163.762 L
524.088 210.726 L
524.475 157.798 L
524.862 209.902 L
525.25 230.064 L
525.638 242.036 L
526.025 153.325 L
526.412 127.98 L
526.8 152.377 L
527.188 193.581 L
527.575 163.762 L
527.963 174.198 L
528.35 149.847 L
528.737 186.532 L
529.125 163.762 L
529.513 215.331 L
529.9 176.286 L
530.287 181.653 L
530.675 183.536 L
531.063 158.317 L
531.45 169.726 L
531.838 183.536 L
532.225 154.128 L
532.612 209.902 L
533 158.317 L
533.388 181.653 L
533.775 181.653 L
534.162 158.752 L
534.55 140.57 L
534.938 169.726 L
535.325 138.714 L
535.713 163.762 L
536.1 163.762 L
536.487 181.653 L
536.875 130.365 L
537.263 169.726 L
537.65 149.847 L
538.037 188.81 L
538.425 157.17 L
538.813 205.508 L
539.2 230.064 L
539.588 230.064 L
539.975 136.536 L
540.362 188.81 L
540.75 205.508 L
541.138 215.331 L
541.525 176.286 L
541.912 200.597 L
542.3 191.593 L
542.688 158.752 L
543.075 130.365 L
543.463 196.719 L
543.85 140.57 L
544.237 183.536 L
544.625 170.353 L
545.013 158.752 L
545.4 176.286 L
545.787 188.81 L
546.175 169.726 L
546.563 142.889 L
546.95 191.593 L
547.338 188.81 L
547.725 134.861 L
548.112 205.508 L
548.5 205.508 L
548.888 145.871 L
549.275 138.714 L
549.662 255.603 L
550.05 188.81 L
550.438 163.762 L
550.825 144.495 L
551.213 169.726 L
551.6 201.333 L
551.987 201.333 L
552.375 168.771 L
552.763 154.128 L
553.15 188.81 L
553.537 176.286 L
553.925 193.581 L
554.313 188.81 L
554.7 205.508 L
555.088 148.733 L
555.475 125.646 L
555.862 134.861 L
556.25 158.317 L
556.638 144.495 L
557.025 144.495 L
557.412 163.762 L
557.8 147.426 L
558.188 196.719 L
558.575 142.889 L
558.963 140.57 L
559.35 175.147 L
559.737 163.762 L
560.125 163.762 L
560.513 196.719 L
560.9 215.331 L
561.287 176.286 L
561.675 131.293 L
562.063 186.532 L
562.45 138.714 L
562.838 169.726 L
563.225 183.536 L
563.612 205.508 L
564 186.532 L
564.388 188.81 L
564.775 205.508 L
565.162 183.536 L
565.55 181.653 L
565.938 181.653 L
566.325 215.331 L
566.713 181.653 L
567.1 169.207 L
567.487 158.752 L
567.875 163.762 L
568.263 131.293 L
568.65 142.169 L
569.037 181.653 L
569.425 124.895 L
569.813 158.317 L
570.2 169.207 L
570.588 196.719 L
570.975 205.508 L
571.362 169.207 L
571.75 158.317 L
572.138 193.581 L
572.525 196.719 L
572.912 210.726 L
573.3 188.81 L
573.688 176.286 L
574.075 174.198 L
574.463 147.426 L
574.85 205.508 L
575.237 183.536 L
575.625 149.847 L
576.013 191.593 L
576.4 153.325 L
576.787 193.581 L
577.175 158.317 L
577.563 153.325 L
577.95 144.495 L
578.338 181.653 L
578.725 152.377 L
579.112 205.508 L
579.5 191.593 L
579.888 163.762 L
580.275 181.653 L
580.662 151.238 L
581.05 186.532 L
581.438 158.752 L
581.825 226.381 L
582.213 142.169 L
582.6 191.593 L
582.987 175.147 L
583.375 181.653 L
583.763 188.81 L
584.15 148.733 L
584.537 219.423 L
584.925 163.762 L
585.313 183.536 L
585.7 181.653 L
586.088 142.889 L
586.475 196.719 L
586.862 169.207 L
587.25 242.036 L
587.638 163.762 L
588.025 205.508 L
588.412 215.331 L
588.8 169.726 L
589.188 200.597 L
589.575 169.726 L
589.963 196.719 L
590.35 134.861 L
590.737 176.286 L
591.125 242.036 L
591.513 144.495 L
591.9 163.762 L
592.287 136.925 L
592.675 163.762 L
593.063 158.752 L
593.45 188.81 L
593.838 142.889 L
594.225 219.423 L
594.612 138.714 L
595 158.317 L
595.388 154.128 L
595.775 163.762 L
596.162 195.071 L
596.55 181.653 L
596.938 154.128 L
597.325 175.147 L
597.713 169.207 L
598.1 154.128 L
598.487 226.381 L
598.875 163.762 L
599.263 196.719 L
599.65 215.331 L
600.037 175.147 L
600.425 154.128 L
600.813 163.762 L
601.2 133.532 L
601.588 163.762 L
601.975 158.752 L
602.362 219.423 L
602.75 191.593 L
603.138 169.207 L
603.525 158.752 L
603.912 145.871 L
604.3 205.508 L
604.688 144.495 L
605.075 140.991 L
605.463 181.653 L
605.85 191.593 L
606.237 205.508 L
606.625 152.377 L
607.013 209.902 L
607.4 169.726 L
607.787 169.726 L
608.175 183.536 L
608.563 169.726 L
608.95 175.147 L
609.338 226.381 L
609.725 193.581 L
610.112 215.331 L
610.5 158.317 L
610.888 230.064 L
611.275 200.597 L
611.662 210.726 L
612.05 215.331 L
612.438 181.653 L
612.825 177.677 L
613.213 147.426 L
613.6 215.331 L
613.987 210.726 L
614.375 131.293 L
614.763 201.333 L
615.15 157.798 L
615.537 188.81 L
615.925 163.762 L
616.313 145.871 L
616.7 153.325 L
617.088 175.147 L
617.475 122.016 L
617.862 230.064 L
618.25 163.762 L
618.638 158.752 L
619.025 186.532 L
619.412 163.762 L
619.8 176.286 L
620.188 188.81 L
620.575 188.81 L
620.963 148.733 L
621.35 116.798 L
621.737 191.593 L
622.125 158.752 L
622.513 205.508 L
622.9 163.762 L
623.287 133.532 L
623.675 163.762 L
624.063 175.147 L
624.45 205.508 L
624.838 175.147 L
625.225 163.762 L
625.612 158.317 L
626 222.206 L
626.388 140.57 L
626.775 226.381 L
627.162 149.847 L
627.55 122.016 L
627.938 158.752 L
628.325 163.762 L
628.713 149.847 L
629.1 124.625 L
629.487 163.762 L
629.875 201.333 L
630.263 183.536 L
630.65 175.147 L
631.037 131.293 L
631.425 181.653 L
631.813 157.798 L
632.2 169.207 L
632.588 169.726 L
632.975 153.325 L
633.362 181.653 L
633.75 176.286 L
634.138 242.036 L
634.525 188.81 L
634.912 255.603 L
635.3 133.532 L
635.688 163.762 L
636.075 147.426 L
636.463 116.798 L
636.85 238.905 L
637.237 140.57 L
637.625 142.889 L
638.013 186.532 L
638.4 219.423 L
638.787 183.536 L
639.175 201.333 L
639.563 163.762 L
639.95 163.762 L
640.338 169.726 L
640.725 154.128 L
641.112 163.762 L
641.5 219.423 L
641.888 175.147 L
642.275 215.331 L
642.662 130.365 L
643.05 138.714 L
643.438 142.889 L
643.825 188.81 L
644.213 186.532 L
644.6 153.325 L
644.987 196.719 L
645.375 230.064 L
645.763 193.581 L
646.15 181.653 L
646.537 176.286 L
646.925 163.762 L
647.313 152.377 L
647.7 196.719 L
648.088 191.593 L
648.475 209.902 L
648.862 140.57 L
649.25 242.036 L
649.638 205.508 L
650.025 215.331 L
650.412 144.495 L
650.8 163.762 L
651.188 154.128 L
651.575 196.719 L
651.963 148.733 L
652.35 169.726 L
652.737 185.863 L
653.125 157.798 L
653.513 176.286 L
653.9 188.81 L
654.287 138.714 L
654.675 210.726 L
655.063 186.532 L
655.45 205.508 L
655.838 175.147 L
656.225 163.762 L
656.612 140.991 L
657 181.653 L
657.388 122.016 L
657.775 205.508 L
658.162 158.317 L
658.55 149.847 L
658.938 183.536 L
659.325 142.889 L
659.713 230.064 L
660.1 145.871 L
660.487 201.333 L
660.875 158.752 L
661.263 177.677 L
661.65 176.286 L
662.037 175.147 L
662.425 196.719 L
662.813 219.423 L
663.2 158.317 L
663.588 230.064 L
663.975 215.331 L
664.362 174.198 L
664.75 169.207 L
665.138 209.902 L
665.525 163.762 L
665.912 219.423 L
666.3 181.653 L
666.688 158.752 L
667.075 188.81 L
667.463 193.581 L
667.85 183.536 L
668.237 205.508 L
668.625 201.333 L
669.013 219.423 L
669.4 152.377 L
669.787 242.036 L
670.175 219.423 L
670.563 193.581 L
670.95 205.508 L
671.338 238.905 L
671.725 149.847 L
672.112 180.097 L
672.5 169.726 L
672.888 201.333 L
673.275 205.508 L
673.662 169.207 L
674.05 181.653 L
674.438 196.719 L
674.825 196.719 L
675.213 209.902 L
675.6 126.927 L
675.987 175.147 L
676.375 183.536 L
676.763 188.81 L
677.15 209.902 L
677.537 176.286 L
677.925 230.064 L
678.313 242.036 L
678.7 209.902 L
679.088 176.286 L
679.475 238.905 L
679.862 119.034 L
680.25 226.381 L
680.638 205.508 L
681.025 183.536 L
681.412 271.109 L
681.8 163.762 L
682.188 176.286 L
682.575 255.603 L
682.963 154.128 L
683.35 175.147 L
683.737 188.81 L
684.125 200.597 L
684.513 209.902 L
684.9 158.752 L
685.287 238.905 L
685.675 114.426 L
686.063 230.064 L
686.45 176.286 L
686.838 136.925 L
687.225 158.752 L
687.612 119.034 L
688 153.325 L
688.388 215.331 L
688.775 205.508 L
689.162 144.495 L
689.55 196.719 L
689.938 111.03 L
690.325 145.871 L
690.713 116.258 L
691.1 140.57 L
691.487 158.317 L
691.875 136.925 L
692.263 183.536 L
692.65 158.752 L
693.037 130.365 L
693.425 138.714 L
693.813 188.81 L
694.2 188.81 L
694.588 201.333 L
694.975 163.762 L
695.362 183.536 L
695.75 193.581 L
696.138 163.762 L
696.525 163.762 L
696.912 209.902 L
697.3 148.733 L
697.688 163.762 L
698.075 201.333 L
698.463 142.889 L
698.85 196.719 L
699.237 145.871 L
699.625 188.81 L
700.013 196.719 L
700.4 205.508 L
700.787 209.902 L
701.175 219.423 L
701.563 242.036 L
701.95 191.593 L
702.338 205.508 L
702.725 163.762 L
703.112 163.762 L
703.5 196.719 L
703.888 186.532 L
704.275 183.536 L
704.662 148.733 L
705.05 196.719 L
705.438 163.762 L
705.825 215.331 L
706.213 253.218 L
706.6 201.333 L
706.987 169.726 L
707.375 176.286 L
707.763 158.317 L
708.15 196.719 L
708.537 222.206 L
708.925 188.81 L
709.313 196.719 L
709.7 158.317 L
710.088 163.762 L
710.475 188.81 L
710.862 219.423 L
711.25 196.719 L
711.638 255.603 L
712.025 201.333 L
712.412 200.597 L
712.8 163.762 L
713.188 152.377 L
713.575 153.325 L
713.963 193.581 L
714.35 157.798 L
714.737 158.317 L
715.125 116.258 L
715.513 200.597 L
715.9 188.81 L
716.287 209.902 L
716.675 176.286 L
717.063 170.353 L
717.45 133.532 L
717.838 181.653 L
718.225 130.365 L
718.612 230.064 L
719 183.536 L
719.388 196.719 L
719.775 183.536 L
720.162 170.353 L
720.55 205.508 L
720.938 209.902 L
721.325 176.286 L
721.713 230.064 L
722.1 148.733 L
722.487 180.097 L
722.875 152.377 L
723.263 219.423 L
723.65 215.331 L
724.037 134.861 L
724.425 188.81 L
724.813 175.147 L
725.2 186.532 L
725.588 196.719 L
725.975 169.207 L
726.362 163.762 L
726.75 186.532 L
727.138 169.726 L
727.525 186.532 L
727.912 158.317 L
728.3 163.762 L
728.688 151.238 L
729.075 152.377 L
729.463 158.317 L
729.85 188.81 L
730.237 163.762 L
730.625 175.147 L
731.013 154.128 L
731.4 169.207 L
731.787 127.98 L
732.175 153.325 L
732.563 196.719 L
732.95 169.207 L
733.338 209.902 L
733.725 163.762 L
734.112 205.508 L
734.5 188.81 L
734.888 174.198 L
735.275 188.81 L
735.662 188.81 L
736.05 226.381 L
736.438 215.331 L
736.825 158.752 L
737.213 181.653 L
737.6 174.198 L
737.987 181.653 L
738.375 163.762 L
738.763 200.597 L
739.15 176.286 L
739.537 147.426 L
739.925 219.423 L
740.313 210.726 L
740.7 169.207 L
741.088 219.423 L
741.475 188.81 L
741.862 169.726 L
742.25 158.752 L
742.638 188.81 L
743.025 196.719 L
743.412 196.719 L
743.8 205.508 L
744.188 169.207 L
744.575 215.331 L
744.963 209.902 L
745.35 176.286 L
745.737 163.762 L
746.125 169.207 L
746.513 200.597 L
746.9 219.423 L
747.287 230.064 L
747.675 209.902 L
748.063 186.532 L
748.45 176.286 L
748.838 219.423 L
749.225 201.333 L
749.612 201.333 L
750 163.762 L
750.388 149.847 L
750.775 238.905 L
751.162 188.81 L
751.55 196.719 L
751.938 154.128 L
752.325 127.402 L
752.713 253.218 L
753.1 174.198 L
753.487 188.81 L
753.875 193.581 L
754.263 219.423 L
754.65 181.653 L
755.037 188.81 L
755.425 226.381 L
755.813 205.508 L
756.2 147.426 L
756.588 196.719 L
756.975 181.653 L
757.362 158.317 L
757.75 163.762 L
758.138 170.353 L
758.525 176.286 L
758.912 176.286 L
759.3 169.207 L
759.688 140.57 L
760.075 215.331 L
760.463 163.762 L
760.85 201.333 L
761.237 200.597 L
761.625 142.169 L
762.013 147.426 L
762.4 175.147 L
762.787 205.508 L
763.175 230.064 L
763.563 196.719 L
763.95 181.653 L
764.338 200.597 L
764.725 181.653 L
765.112 196.719 L
765.5 181.653 L
765.888 147.426 L
766.275 180.097 L
766.662 205.508 L
767.05 158.317 L
767.438 163.762 L
767.825 175.147 L
768.213 138.714 L
768.6 152.377 L
768.987 169.207 L
769.375 158.752 L
769.763 188.81 L
770.15 163.762 L
770.537 191.593 L
770.925 209.902 L
771.313 176.286 L
771.7 230.064 L
772.088 163.762 L
772.475 176.286 L
772.862 142.889 L
773.25 142.169 L
773.638 215.331 L
774.025 209.902 L
774.412 238.905 L
774.8 144.495 L
775.188 133.943 L
775.575 181.653 L
775.963 196.719 L
776.35 196.719 L
776.737 158.317 L
777.125 210.726 L
777.513 215.331 L
777.9 201.333 L
778.287 169.726 L
778.675 226.381 L
779.063 175.147 L
779.45 131.293 L
779.838 153.325 L
780.225 158.752 L
780.612 188.81 L
781 215.331 L
781.388 191.593 L
781.775 176.286 L
782.162 188.81 L
782.55 136.925 L
782.938 122.016 L
783.325 140.57 L
783.713 205.508 L
784.1 181.653 L
784.487 185.863 L
784.875 119.323 L
785.263 144.495 L
785.65 175.147 L
786.037 176.286 L
786.425 181.653 L
786.813 163.762 L
787.2 158.752 L
787.588 196.719 L
787.975 183.536 L
788.362 169.726 L
788.75 186.532 L
789.138 193.581 L
789.525 205.508 L
789.912 196.719 L
790.3 196.719 L
790.688 215.331 L
791.075 175.147 L
791.463 168.771 L
791.85 191.593 L
792.237 186.532 L
792.625 188.81 L
793.013 188.81 L
793.4 144.495 L
793.787 152.377 L
794.175 226.381 L
794.563 191.593 L
794.95 186.532 L
795.338 163.762 L
795.725 128.695 L
796.112 149.847 L
796.5 181.653 L
796.888 226.381 L
797.275 163.762 L
797.662 219.423 L
798.05 151.238 L
798.438 205.508 L
798.825 169.207 L
799.213 181.653 L
799.6 226.381 L
799.987 131.293 L
800.375 176.286 L
800.763 188.81 L
801.15 181.653 L
801.537 180.097 L
801.925 188.81 L
802.313 163.762 L
802.7 191.593 L
803.088 180.097 L
803.475 226.381 L
803.862 144.495 L
804.25 181.653 L
804.638 215.331 L
805.025 183.536 L
805.412 181.653 L
805.8 230.064 L
806.188 191.593 L
806.575 196.719 L
806.963 193.581 L
807.35 149.847 L
807.737 180.097 L
808.125 215.331 L
808.513 230.064 L
808.9 169.207 L
809.287 176.286 L
809.675 175.147 L
810.063 149.847 L
810.45 169.207 L
810.838 201.333 L
811.225 153.325 L
811.612 159.123 L
812 133.532 L
812.388 226.381 L
812.775 169.207 L
813.162 193.581 L
813.55 209.902 L
813.938 180.097 L
814.325 191.593 L
814.713 163.762 L
815.1 196.719 L
815.487 140.57 L
815.875 122.016 L
816.263 209.902 L
816.65 163.762 L
817.037 168.771 L
817.425 163.762 L
817.813 142.889 L
818.2 201.333 L
818.588 175.147 L
818.975 154.128 L
819.362 159.123 L
819.75 188.81 L
820.138 188.81 L
820.525 219.423 L
820.912 177.677 L
821.3 196.719 L
821.688 219.423 L
822.075 196.719 L
822.463 196.719 L
822.85 196.719 L
823.237 175.147 L
823.625 153.325 L
824.013 209.902 L
824.4 134.861 L
824.787 226.381 L
825.175 196.719 L
825.563 193.581 L
825.95 154.128 L
826.338 163.762 L
826.725 180.097 L
827.112 205.508 L
827.5 180.097 L
827.888 201.333 L
828.275 157.798 L
828.662 169.207 L
829.05 176.286 L
829.438 163.762 L
829.825 188.81 L
830.213 230.064 L
830.6 205.508 L
830.987 223.085 L
831.375 181.653 L
831.763 186.532 L
832.15 176.286 L
832.537 271.109 L
832.925 193.581 L
833.313 142.889 L
833.7 186.532 L
834.088 191.593 L
834.475 188.81 L
834.862 188.81 L
835.25 209.902 L
835.638 191.593 L
836.025 201.333 L
836.412 186.532 L
836.8 230.064 L
837.188 175.147 L
837.575 226.381 L
837.963 170.353 L
838.35 219.423 L
838.737 205.508 L
839.125 188.81 L
839.513 158.317 L
839.9 226.381 L
840.287 142.169 L
840.675 196.719 L
841.063 219.423 L
841.45 133.532 L
841.838 183.536 L
842.225 200.597 L
842.612 191.593 L
843 158.752 L
843.388 219.423 L
843.775 242.036 L
844.162 140.991 L
844.55 169.207 L
844.938 154.128 L
845.325 176.286 L
845.713 188.81 L
846.1 176.286 L
846.487 138.714 L
846.875 153.325 L
847.263 163.762 L
847.65 226.381 L
848.037 196.719 L
848.425 205.508 L
848.813 205.508 L
849.2 188.81 L
849.588 181.653 L
849.975 176.286 L
850.362 191.593 L
850.75 219.423 L
851.138 196.719 L
851.525 175.147 L
851.912 209.902 L
852.3 215.331 L
852.688 169.726 L
853.075 188.81 L
853.463 181.653 L
853.85 205.508 L
854.237 163.762 L
854.625 144.495 L
855.013 209.902 L
855.4 180.097 L
855.787 215.331 L
856.175 238.905 L
856.563 152.377 L
856.95 201.333 L
857.338 219.423 L
857.725 205.508 L
858.112 209.902 L
858.5 200.597 L
858.888 215.331 L
859.275 157.798 L
859.662 238.905 L
860.05 159.123 L
860.438 138.714 L
860.825 201.333 L
861.213 163.762 L
861.6 188.81 L
861.987 238.905 L
862.375 153.325 L
862.763 149.847 L
863.15 176.286 L
863.537 142.889 L
863.925 125.646 L
864.313 176.286 L
864.7 188.81 L
865.088 154.128 L
865.475 181.653 L
865.862 193.581 L
866.25 169.726 L
866.638 169.726 L
867.025 169.207 L
867.412 168.771 L
867.8 201.333 L
868.188 169.207 L
868.575 181.653 L
868.963 219.423 L
869.35 169.207 L
869.737 205.508 L
870.125 175.147 L
870.513 169.207 L
870.9 188.81 L
871.287 219.423 L
871.675 215.331 L
872.063 145.871 L
872.45 125.227 L
872.838 163.762 L
873.225 188.81 L
873.612 179.417 L
874 163.762 L
874.388 157.798 L
874.775 188.81 L
875.162 186.532 L
875.55 169.207 L
875.938 205.508 L
876.325 169.726 L
876.713 174.198 L
877.1 186.532 L
877.487 169.207 L
877.875 186.532 L
878.263 201.333 L
878.65 163.762 L
879.037 219.423 L
879.425 148.733 L
879.813 175.147 L
880.2 124.895 L
880.588 169.207 L
880.975 175.147 L
881.362 144.495 L
881.75 196.719 L
882.138 188.81 L
882.525 136.925 L
882.912 169.726 L
883.3 175.147 L
883.688 196.719 L
884.075 110.088 L
884.463 230.064 L
884.85 148.733 L
885.237 170.353 L
885.625 196.719 L
886.013 183.536 L
886.4 219.423 L
886.787 230.064 L
887.175 201.333 L
887.563 153.325 L
887.95 163.762 L
888.338 230.064 L
888.725 175.147 L
889.112 158.317 L
889.5 153.325 L
889.888 186.532 L
890.275 175.147 L
890.662 175.147 L
891.05 223.085 L
891.438 153.325 L
891.825 215.331 L
892.213 163.762 L
892.6 175.147 L
892.987 191.593 L
893.375 205.508 L
893.763 209.902 L
894.15 181.653 L
894.537 124.895 L
894.925 205.508 L
895.313 196.719 L
895.7 163.762 L
896.088 188.81 L
896.475 230.064 L
896.862 176.286 L
897.25 183.536 L
897.638 226.381 L
898.025 181.653 L
898.412 242.036 L
898.8 215.331 L
899.188 132.452 L
899.575 148.733 L
899.963 142.889 L
900.35 196.719 L
900.737 188.81 L
901.125 163.762 L
901.513 134.861 L
901.9 176.286 L
902.287 205.508 L
902.675 157.798 L
903.063 196.719 L
903.45 200.597 L
903.838 186.532 L
904.225 201.333 L
904.612 205.508 L
905 219.423 L
S
GR
GS
1 0 0 RC
1 LJ
0.5 LW
N
169.525 202.459 M
169.913 201.026 L
170.3 200.872 L
170.688 202.184 L
171.075 202.99 L
171.462 201.198 L
171.85 201.985 L
172.238 201.172 L
172.625 201.299 L
173.012 201.279 L
173.4 201.152 L
173.788 201.27 L
174.175 202.343 L
174.563 201.812 L
174.95 200.861 L
175.337 201.214 L
175.725 201.55 L
176.113 201.438 L
176.5 201.214 L
176.887 200.019 L
177.275 200.501 L
177.663 201.052 L
178.05 200.961 L
178.438 201.161 L
178.825 201.248 L
179.212 200.125 L
179.6 201.789 L
179.988 199.813 L
180.375 198.772 L
180.762 199.672 L
181.15 199.672 L
181.538 198.829 L
181.925 197.847 L
182.313 198.549 L
182.7 197.67 L
183.087 198.359 L
183.475 199.26 L
183.863 200.18 L
184.25 199.303 L
184.637 199.385 L
185.025 199.289 L
185.413 199.391 L
185.8 198.464 L
186.188 198.034 L
186.575 198.689 L
186.962 199.154 L
187.35 199.154 L
187.738 198.654 L
188.125 197.076 L
188.512 196.845 L
188.9 197.766 L
189.288 197.495 L
189.675 198.795 L
190.063 199.16 L
190.45 198.778 L
190.837 198.272 L
191.225 199.604 L
191.613 199.194 L
192 199.517 L
192.387 199.79 L
192.775 199.79 L
193.163 199.273 L
193.55 198.454 L
193.938 197.566 L
194.325 197.602 L
194.712 198.325 L
195.1 198.405 L
195.488 196.939 L
195.875 197.015 L
196.262 196.469 L
196.65 197.694 L
197.038 196.442 L
197.425 196.032 L
197.813 195.141 L
198.2 194.942 L
198.587 194.942 L
198.975 195.875 L
199.363 194.224 L
199.75 195.629 L
200.137 196.344 L
200.525 195.92 L
200.913 196.732 L
201.3 197.788 L
201.688 197.086 L
202.075 196.455 L
202.462 196.537 L
202.85 195.601 L
203.238 194.946 L
203.625 195.253 L
204.012 195.253 L
204.4 194.435 L
204.788 193.489 L
205.175 193.06 L
205.563 193.605 L
205.95 194.342 L
206.337 192.975 L
206.725 192.21 L
207.113 192.033 L
207.5 190.94 L
207.887 191.938 L
208.275 192.458 L
208.663 192.082 L
209.05 192.977 L
209.438 192.495 L
209.825 191.975 L
210.212 191.107 L
210.6 190.969 L
210.988 189.958 L
211.375 189.023 L
211.762 189.123 L
212.15 189.123 L
212.538 188.674 L
212.925 188.895 L
213.313 189.012 L
213.7 189.666 L
214.087 189.77 L
214.475 189.047 L
214.863 188.502 L
215.25 189.679 L
215.637 188.956 L
216.025 188.956 L
216.413 188.052 L
216.8 187.34 L
217.188 187.244 L
217.575 188.211 L
217.962 187.138 L
218.35 186.437 L
218.738 186.812 L
219.125 188.402 L
219.512 186.997 L
219.9 186.26 L
220.288 185.314 L
220.675 185.144 L
221.063 184.849 L
221.45 184.044 L
221.837 182.079 L
222.225 183.393 L
222.613 183.287 L
223 182.229 L
223.387 181.82 L
223.775 181.742 L
224.163 182.288 L
224.55 183.157 L
224.938 182.912 L
225.325 181.82 L
225.712 180.709 L
226.1 181.094 L
226.488 181.57 L
226.875 181.27 L
227.262 182.363 L
227.65 182.535 L
228.038 181.524 L
228.425 180.412 L
228.813 179.674 L
229.2 179.501 L
229.587 179.556 L
229.975 180.479 L
230.363 180.631 L
230.75 180.737 L
231.137 180.747 L
231.525 180.208 L
231.913 178.766 L
232.3 178.142 L
232.688 177.441 L
233.075 177.078 L
233.462 176.869 L
233.85 177.606 L
234.238 176.713 L
234.625 175.817 L
235.012 174.8 L
235.4 174.527 L
235.788 174.772 L
236.175 174.889 L
236.563 176.526 L
236.95 176.295 L
237.337 175.456 L
237.725 175.924 L
238.113 175.69 L
238.5 175.588 L
238.887 174.338 L
239.275 173.674 L
239.663 174.642 L
240.05 175.357 L
240.438 173.115 L
240.825 173.01 L
241.212 173.599 L
241.6 174.478 L
241.988 173.164 L
242.375 172.569 L
242.762 172.689 L
243.15 171.871 L
243.538 171.986 L
243.925 172.451 L
244.313 171.922 L
244.7 172.322 L
245.087 172.439 L
245.475 172.439 L
245.863 172.194 L
246.25 171.248 L
246.637 171.548 L
247.025 171.031 L
247.413 169.835 L
247.8 169.59 L
248.188 170.429 L
248.575 170.273 L
248.962 169.013 L
249.35 168.467 L
249.738 167.204 L
250.125 166.585 L
250.512 166.701 L
250.9 166.691 L
251.288 167.595 L
251.675 168.379 L
252.063 170.204 L
252.45 169.736 L
252.837 169.294 L
253.225 168.553 L
253.613 167.598 L
254 169.719 L
254.387 169.433 L
254.775 171.028 L
255.163 170.2 L
255.55 170.601 L
255.938 170.729 L
256.325 169.464 L
256.712 170.508 L
257.1 170.178 L
257.487 170.88 L
257.875 171.27 L
258.263 170.568 L
258.65 170.122 L
259.038 170.164 L
259.425 169.793 L
259.813 169.547 L
260.2 169.811 L
260.587 169.916 L
260.975 170.56 L
261.362 171.183 L
261.75 171.943 L
262.138 172.352 L
262.525 172.576 L
262.913 172.682 L
263.3 171.974 L
263.688 171.61 L
264.075 171.61 L
264.462 171.07 L
264.85 171.444 L
265.237 171.444 L
265.625 171.586 L
266.013 172.355 L
266.4 171.81 L
266.788 172.172 L
267.175 173.04 L
267.563 173.777 L
267.95 173.777 L
268.337 173.251 L
268.725 173.994 L
269.112 173.994 L
269.5 175.122 L
269.888 174.888 L
270.275 174.665 L
270.663 174.327 L
271.05 173.316 L
271.438 173.894 L
271.825 172.771 L
272.212 172.92 L
272.6 173.995 L
272.987 173.118 L
273.375 172.027 L
273.763 170.39 L
274.15 171.272 L
274.538 170.101 L
274.925 172.294 L
275.313 170.885 L
275.7 169.878 L
276.087 170.547 L
276.475 168.399 L
276.862 168.278 L
277.25 167.013 L
277.638 167.232 L
278.025 166.91 L
278.413 167.25 L
278.8 167.624 L
279.188 167.519 L
279.575 167.661 L
279.962 167.588 L
280.35 167.237 L
280.737 166.107 L
281.125 164.164 L
281.513 164.824 L
281.9 165.363 L
282.288 166.886 L
282.675 166.556 L
283.063 166.43 L
283.45 165.56 L
283.837 165.337 L
284.225 164.468 L
284.612 163.032 L
285 162.809 L
285.388 163.432 L
285.775 162.32 L
286.163 163.24 L
286.55 163.396 L
286.938 162.149 L
287.325 161.248 L
287.712 159.923 L
288.1 159.799 L
288.487 159.375 L
288.875 159.024 L
289.263 157.692 L
289.65 157.4 L
290.038 157.788 L
290.425 158.466 L
290.813 158.261 L
291.2 157.25 L
291.587 156.899 L
291.975 158.387 L
292.362 157.795 L
292.75 158.321 L
293.138 158.321 L
293.525 157.748 L
293.913 156.502 L
294.3 155.009 L
294.688 154.305 L
295.075 154.658 L
295.462 156.431 L
295.85 155.717 L
296.237 156.945 L
296.625 158.416 L
297.013 159.086 L
297.4 159.516 L
297.788 159.516 L
298.175 159.944 L
298.563 160.178 L
298.95 160.478 L
299.337 159.454 L
299.725 160.025 L
300.112 158.678 L
300.5 158.816 L
300.888 159.214 L
301.275 157.882 L
301.663 158.475 L
302.05 157.175 L
302.438 156.58 L
302.825 157.171 L
303.212 157.511 L
303.6 158.629 L
303.987 159.976 L
304.375 160.102 L
304.763 160.208 L
305.15 158.974 L
305.538 160.086 L
305.925 158.464 L
306.313 157.701 L
306.7 158.184 L
307.087 157.57 L
307.475 158.213 L
307.862 159.667 L
308.25 159.215 L
308.638 158.485 L
309.025 158.699 L
309.413 159.599 L
309.8 159.599 L
310.188 158.375 L
310.575 158.089 L
310.962 157.866 L
311.35 157.047 L
311.737 156.452 L
312.125 156.452 L
312.513 155.782 L
312.9 155.455 L
313.288 155.8 L
313.675 157.234 L
314.063 157.851 L
314.45 156.193 L
314.837 155.456 L
315.225 154.879 L
315.612 155.253 L
316 156.112 L
316.388 154.52 L
316.775 153.478 L
317.163 152.066 L
317.55 151.737 L
317.938 150.813 L
318.325 150.696 L
318.712 150.797 L
319.1 151.434 L
319.487 150.667 L
319.875 151.522 L
320.263 152.615 L
320.65 152.277 L
321.038 152.303 L
321.425 152.501 L
321.813 152.055 L
322.2 153.261 L
322.587 152.24 L
322.975 152.123 L
323.362 150.442 L
323.75 148.973 L
324.138 149.569 L
324.525 149.035 L
324.913 149.258 L
325.3 148.146 L
325.688 148.392 L
326.075 147.691 L
326.462 147.554 L
326.85 147.759 L
327.237 147.35 L
327.625 147.657 L
328.013 148.792 L
328.4 149.766 L
328.788 149.495 L
329.175 148.302 L
329.563 148.56 L
329.95 149.266 L
330.337 149.463 L
330.725 149.686 L
331.112 149.92 L
331.5 149.009 L
331.888 148.466 L
332.275 148.035 L
332.663 149.427 L
333.05 149.859 L
333.438 149.542 L
333.825 149.912 L
334.212 150.773 L
334.6 151.206 L
334.987 150.246 L
335.375 150.246 L
335.763 147.698 L
336.15 148.659 L
336.538 148.533 L
336.925 147.994 L
337.313 148.528 L
337.7 148.906 L
338.087 148.158 L
338.475 147.414 L
338.862 146.777 L
339.25 147.661 L
339.638 147.052 L
340.025 145.792 L
340.413 146.908 L
340.8 147.925 L
341.188 146.8 L
341.575 146.499 L
341.962 145.227 L
342.35 145.57 L
342.737 145.687 L
343.125 146.58 L
343.513 147.852 L
343.9 147.584 L
344.288 147.663 L
344.675 146.275 L
345.063 145.614 L
345.45 146.315 L
345.837 146.91 L
346.225 146.873 L
346.612 147.468 L
347 147.899 L
347.388 146.32 L
347.775 146.655 L
348.163 146.27 L
348.55 145.901 L
348.938 146.282 L
349.325 145.315 L
349.712 144.679 L
350.1 143.857 L
350.487 143.634 L
350.875 143.995 L
351.263 144.046 L
351.65 144.923 L
352.038 144.759 L
352.425 144.135 L
352.813 144.586 L
353.2 144.741 L
353.587 145.342 L
353.975 145.752 L
354.362 145.2 L
354.75 146.372 L
355.138 147.074 L
355.525 148.499 L
355.913 148.614 L
356.3 150.049 L
356.688 151.625 L
357.075 151.518 L
357.462 152.24 L
357.85 153.806 L
358.237 153.268 L
358.625 153.338 L
359.013 153.115 L
359.4 154.215 L
359.788 154.338 L
360.175 153.798 L
360.563 152.781 L
360.95 152.665 L
361.337 153.904 L
361.725 154.174 L
362.112 155.43 L
362.5 156.324 L
362.888 157.247 L
363.275 156.859 L
363.663 156.859 L
364.05 157.421 L
364.438 158.702 L
364.825 159.813 L
365.212 159.955 L
365.6 159.023 L
365.987 159.264 L
366.375 159.617 L
366.763 159.55 L
367.15 160.252 L
367.538 158.585 L
367.925 157.784 L
368.313 157.917 L
368.7 158.237 L
369.087 158.558 L
369.475 158.612 L
369.862 159.041 L
370.25 159.264 L
370.638 159.264 L
371.025 160.719 L
371.413 160.492 L
371.8 161.64 L
372.188 162.664 L
372.575 161.6 L
372.962 160.382 L
373.35 160.159 L
373.737 160.266 L
374.125 161.919 L
374.513 161.166 L
374.9 160.698 L
375.288 160.993 L
375.675 160.039 L
376.063 159.548 L
376.45 159.821 L
376.837 161.227 L
377.225 162.04 L
377.612 162.975 L
378 163.505 L
378.388 163.867 L
378.775 163.214 L
379.163 162.722 L
379.55 163.343 L
379.938 162.87 L
380.325 163.165 L
380.712 163.378 L
381.1 162.32 L
381.487 162.401 L
381.875 161.358 L
382.263 159.856 L
382.65 159.255 L
383.038 159.255 L
383.425 159.369 L
383.813 160.562 L
384.2 160.669 L
384.587 161.604 L
384.975 161.83 L
385.362 162.23 L
385.75 162.026 L
386.138 162.543 L
386.525 163.543 L
386.913 162.626 L
387.3 163.044 L
387.688 164.687 L
388.075 164.892 L
388.462 164.785 L
388.85 164.892 L
389.237 165.886 L
389.625 166.703 L
390.013 167.248 L
390.4 168.118 L
390.788 167.65 L
391.175 167.559 L
391.563 167.922 L
391.95 166.75 L
392.337 166.637 L
392.725 166.65 L
393.112 166.404 L
393.5 166.685 L
393.888 166.297 L
394.275 166.297 L
394.663 166.297 L
395.05 165.16 L
395.438 165.844 L
395.825 165.076 L
396.212 164.034 L
396.6 163.28 L
396.987 162.096 L
397.375 160.73 L
397.763 160.837 L
398.15 161.264 L
398.538 161.953 L
398.925 162.573 L
399.313 162.55 L
399.7 162.94 L
400.087 163.662 L
400.475 164.915 L
400.862 165.705 L
401.25 166.462 L
401.638 166.593 L
402.025 167.472 L
402.413 165.926 L
402.8 165.575 L
403.188 164.953 L
403.575 163.898 L
403.962 163.898 L
404.35 163.303 L
404.737 163.18 L
405.125 163.402 L
405.513 163.516 L
405.9 163.881 L
406.288 163.453 L
406.675 164.604 L
407.063 166.884 L
407.45 166.779 L
407.837 167.539 L
408.225 167.326 L
408.612 167.464 L
409 168.084 L
409.388 168.773 L
409.775 167.781 L
410.163 166.368 L
410.55 166.405 L
410.938 166.216 L
411.325 165.872 L
411.712 166.193 L
412.1 166.67 L
412.487 167.503 L
412.875 167.995 L
413.263 167.607 L
413.65 168.191 L
414.038 168.004 L
414.425 168.004 L
414.813 168.29 L
415.2 168.446 L
415.587 169.084 L
415.975 168.816 L
416.362 168.516 L
416.75 168.411 L
417.138 168.745 L
417.525 169.564 L
417.913 169.614 L
418.3 171.03 L
418.688 171.221 L
419.075 170.737 L
419.462 172.126 L
419.85 172.415 L
420.237 171.269 L
420.625 171.152 L
421.013 171.666 L
421.4 171.65 L
421.788 171.262 L
422.175 172.369 L
422.563 172.925 L
422.95 174.471 L
423.337 175.525 L
423.725 175.73 L
424.112 176.325 L
424.5 176.926 L
424.888 177.683 L
425.275 178.624 L
425.663 178.104 L
426.05 178.337 L
426.438 177.636 L
426.825 176.428 L
427.212 175.152 L
427.6 175.448 L
427.987 175.885 L
428.375 176.65 L
428.763 176.159 L
429.15 175.234 L
429.538 177.215 L
429.925 178.089 L
430.313 178.713 L
430.7 179.909 L
431.087 179.734 L
431.475 179.619 L
431.862 180.978 L
432.25 182.377 L
432.638 181.494 L
433.025 181.221 L
433.413 180.754 L
433.8 181.048 L
434.188 180.686 L
434.575 181.436 L
434.962 182.175 L
435.35 183.604 L
435.737 184.741 L
436.125 185.587 L
436.513 185.458 L
436.9 186.036 L
437.288 185.335 L
437.675 184.741 L
438.063 183.407 L
438.45 182.98 L
438.837 184.176 L
439.225 182.845 L
439.612 182.057 L
440 181.566 L
440.388 181.352 L
440.775 180.745 L
441.163 180.949 L
441.55 181.596 L
441.938 180.998 L
442.325 180.442 L
442.712 179.141 L
443.1 178.578 L
443.487 178.373 L
443.875 177.448 L
444.263 175.412 L
444.65 175.773 L
445.038 175.127 L
445.425 174.431 L
445.813 174.514 L
446.2 175.449 L
446.587 174.37 L
446.975 176.411 L
447.362 176.152 L
447.75 176.854 L
448.138 176.334 L
448.525 176.205 L
448.913 176.803 L
449.3 175.541 L
449.688 175.925 L
450.075 175.835 L
450.462 175.161 L
450.85 176.08 L
451.237 176.751 L
451.625 177.01 L
452.013 176.721 L
452.4 176.595 L
452.788 176.975 L
453.175 176.751 L
453.563 177.762 L
453.95 178.359 L
454.337 178.26 L
454.725 177.636 L
455.112 177.564 L
455.5 176.034 L
455.888 175.263 L
456.275 174.612 L
456.663 173.419 L
457.05 174.206 L
457.438 173.839 L
457.825 173.651 L
458.212 173.121 L
458.6 172.196 L
458.987 172.739 L
459.375 171.829 L
459.763 171.794 L
460.15 172.007 L
460.538 171.995 L
460.925 172.346 L
461.313 171.133 L
461.7 170.594 L
462.087 170.828 L
462.475 171.7 L
462.862 170.964 L
463.25 170.327 L
463.638 170.229 L
464.025 171.397 L
464.413 170.812 L
464.8 170.705 L
465.188 170.91 L
465.575 170.301 L
465.962 169.26 L
466.35 170.44 L
466.737 169.749 L
467.125 169.712 L
467.513 169.63 L
467.9 168.613 L
468.288 167.74 L
468.675 167.74 L
469.063 167.36 L
469.45 167.36 L
469.837 166.685 L
470.225 166.443 L
470.612 165.796 L
471 165.669 L
471.388 164.622 L
471.775 163.857 L
472.163 164.268 L
472.55 164.808 L
472.938 163.953 L
473.325 163.188 L
473.712 162.944 L
474.1 162.11 L
474.487 161.02 L
474.875 159.266 L
475.263 160.641 L
475.65 160.116 L
476.038 160.896 L
476.425 160.134 L
476.813 158.542 L
477.2 159.58 L
477.587 159.992 L
477.975 160.746 L
478.362 160.629 L
478.75 160.897 L
479.138 162.885 L
479.525 163.206 L
479.913 163.216 L
480.3 162.573 L
480.688 161.31 L
481.075 161.557 L
481.462 163.171 L
481.85 163.288 L
482.237 163.288 L
482.625 164.107 L
483.013 163.872 L
483.4 163.97 L
483.788 162.928 L
484.175 163.045 L
484.563 163.258 L
484.95 164.077 L
485.337 164.359 L
485.725 165.016 L
486.112 163.733 L
486.5 162.846 L
486.888 162.883 L
487.275 162.534 L
487.663 163.333 L
488.05 163.982 L
488.438 163.763 L
488.825 164.258 L
489.212 163.874 L
489.6 163.382 L
489.987 164.026 L
490.375 163.442 L
490.763 162.809 L
491.15 162.488 L
491.538 162.788 L
491.925 164.612 L
492.313 164.457 L
492.7 165.535 L
493.087 165.512 L
493.475 165.651 L
493.862 165.505 L
494.25 166.452 L
494.638 167.99 L
495.025 168.317 L
495.413 168.795 L
495.8 169.47 L
496.188 169.715 L
496.575 170.296 L
496.962 170.218 L
497.35 170.374 L
497.737 169.963 L
498.125 170.732 L
498.513 170.825 L
498.9 169.876 L
499.288 169.262 L
499.675 168.326 L
500.063 169.24 L
500.45 170.799 L
500.837 170.824 L
501.225 170.24 L
501.612 170.24 L
502 170.769 L
502.388 171.485 L
502.775 172.24 L
503.163 171.9 L
503.55 173.73 L
503.938 174.913 L
504.325 175.051 L
504.712 174.955 L
505.1 174.644 L
505.487 174.006 L
505.875 175.134 L
506.263 176.437 L
506.65 176.695 L
507.038 176.201 L
507.425 176.316 L
507.813 176.128 L
508.2 176.501 L
508.587 175.521 L
508.975 175.96 L
509.362 176.322 L
509.75 175.21 L
510.138 176.018 L
510.525 176.329 L
510.913 176.98 L
511.3 176.925 L
511.688 175.943 L
512.075 174.926 L
512.463 173.937 L
512.85 174.205 L
513.237 173.687 L
513.625 174.957 L
514.013 174.712 L
514.4 174.622 L
514.787 173.686 L
515.175 174.318 L
515.563 174.697 L
515.95 176.641 L
516.338 176.543 L
516.725 175.569 L
517.112 175.073 L
517.5 175.952 L
517.888 175.406 L
518.275 175.026 L
518.662 174.403 L
519.05 175.668 L
519.438 176.486 L
519.825 177.11 L
520.213 176.709 L
520.6 177.355 L
520.987 177.742 L
521.375 177.636 L
521.763 177.106 L
522.15 175.959 L
522.537 175.887 L
522.925 177.238 L
523.313 176.121 L
523.7 175.171 L
524.088 175.277 L
524.475 174.456 L
524.862 174.206 L
525.25 174.528 L
525.638 173.545 L
526.025 172.809 L
526.412 172.162 L
526.8 172.62 L
527.188 171.577 L
527.575 171.989 L
527.963 171.07 L
528.35 172.154 L
528.737 171.479 L
529.125 172.18 L
529.513 174.047 L
529.9 175.124 L
530.287 174.688 L
530.675 174.733 L
531.063 175.06 L
531.45 175.58 L
531.838 176.352 L
532.225 177.946 L
532.612 178 L
533 178.175 L
533.388 176.784 L
533.775 177.43 L
534.162 176.054 L
534.55 176.559 L
534.938 175.783 L
535.325 174.385 L
535.713 173.096 L
536.1 173.792 L
536.487 174.61 L
536.875 174.424 L
537.263 174.385 L
537.65 174.876 L
538.037 174.105 L
538.425 175.196 L
538.813 175.568 L
539.2 175.218 L
539.588 173.715 L
539.975 175.271 L
540.362 175.411 L
540.75 175.023 L
541.138 174.752 L
541.525 174.752 L
541.912 175.101 L
542.3 176.027 L
542.688 175.22 L
543.075 175.138 L
543.463 175.278 L
543.85 175.173 L
544.237 175.856 L
544.625 176.802 L
545.013 177.504 L
545.4 177.7 L
545.787 176.953 L
546.175 176.386 L
546.563 175.928 L
546.95 176.205 L
547.338 175.711 L
547.725 175.984 L
548.112 175.172 L
548.5 175.948 L
548.888 174.72 L
549.275 172.965 L
549.662 171.888 L
550.05 172.422 L
550.438 171.931 L
550.825 171.759 L
551.213 171.759 L
551.6 171.759 L
551.987 170.4 L
552.375 170.3 L
552.763 169.908 L
553.15 170.679 L
553.537 170.421 L
553.925 171.694 L
554.313 171.753 L
554.7 172.115 L
555.088 173.031 L
555.475 173.174 L
555.862 173.033 L
556.25 173.267 L
556.638 174.688 L
557.025 174.493 L
557.412 174.108 L
557.8 174.577 L
558.188 173.758 L
558.575 172.303 L
558.963 172.23 L
559.35 173.072 L
559.737 170.51 L
560.125 169.912 L
560.513 170.018 L
560.9 171.042 L
561.287 171.744 L
561.675 171.114 L
562.063 170.271 L
562.45 170.757 L
562.838 171.592 L
563.225 172.022 L
563.612 172.268 L
564 171.928 L
564.388 171.642 L
564.775 170.503 L
565.162 171.616 L
565.55 172.751 L
565.938 173.045 L
566.325 173.698 L
566.713 173.871 L
567.1 174.833 L
567.487 174.727 L
567.875 174.842 L
568.263 173.818 L
568.65 174.578 L
569.037 174.81 L
569.425 175.405 L
569.813 175.951 L
570.2 175.951 L
570.588 175.655 L
570.975 174.399 L
571.362 174.6 L
571.75 175.138 L
572.138 175.919 L
572.525 175.987 L
572.912 176.416 L
573.3 176.251 L
573.688 175.784 L
574.075 175.828 L
574.463 175.042 L
574.85 175.315 L
575.237 174.928 L
575.625 174.965 L
576.013 174.965 L
576.4 173.544 L
576.787 173.84 L
577.175 173.84 L
577.563 175.473 L
577.95 175.473 L
578.338 176.928 L
578.725 178.362 L
579.112 178.128 L
579.5 179.613 L
579.888 179.836 L
580.275 180.376 L
580.662 179.163 L
581.05 178.59 L
581.438 180.018 L
581.825 179.747 L
582.213 179.162 L
582.6 177.99 L
582.987 177.069 L
583.375 176.48 L
583.763 176.725 L
584.15 176.111 L
584.537 177.523 L
584.925 176.213 L
585.313 175.719 L
585.7 175.803 L
586.088 175.257 L
586.475 176.076 L
586.862 175.842 L
587.25 175.76 L
587.638 176.188 L
588.025 176.672 L
588.412 176.132 L
588.8 177.583 L
589.188 176.765 L
589.575 176.865 L
589.963 177.877 L
590.35 177.749 L
590.737 177.806 L
591.125 177.359 L
591.513 176.865 L
591.9 175.637 L
592.287 175.962 L
592.675 176.508 L
593.063 176.83 L
593.45 176.586 L
593.838 175.997 L
594.225 175.941 L
594.612 175.668 L
595 175.29 L
595.388 174.456 L
595.775 174.456 L
596.162 175.411 L
596.55 175.583 L
596.938 175.253 L
597.325 174.623 L
597.713 174.74 L
598.1 174.038 L
598.487 173.415 L
598.875 173.415 L
599.263 172.916 L
599.65 174.027 L
600.037 173.965 L
600.425 175.543 L
600.813 175.191 L
601.2 174.956 L
601.588 176.056 L
601.975 176.977 L
602.362 178.514 L
602.75 178.865 L
603.138 179.236 L
603.525 178.425 L
603.912 179.845 L
604.3 179.675 L
604.688 179.529 L
605.075 180.373 L
605.463 180.445 L
605.85 180.936 L
606.237 180.322 L
606.625 179.62 L
607.013 179.604 L
607.4 179.604 L
607.787 178.679 L
608.175 180.168 L
608.563 178.94 L
608.95 178.842 L
609.338 178.642 L
609.725 177.631 L
610.112 177.653 L
610.5 178.333 L
610.888 178.825 L
611.275 179.123 L
611.662 178.202 L
612.05 178.846 L
612.438 177.656 L
612.825 177.929 L
613.213 177.822 L
613.6 177.328 L
613.987 177.678 L
614.375 177.083 L
614.763 178.279 L
615.15 178.949 L
615.537 178.598 L
615.925 177.946 L
616.313 178.273 L
616.7 178.042 L
617.088 178.365 L
617.475 177.975 L
617.862 177.04 L
618.25 176.554 L
618.638 176.437 L
619.025 175.941 L
619.412 173.945 L
619.8 173.361 L
620.188 173.086 L
620.575 173.581 L
620.963 172.504 L
621.35 171.145 L
621.737 170.575 L
622.125 169.447 L
622.513 169.203 L
622.9 169.047 L
623.287 169.163 L
623.675 168.502 L
624.063 167.827 L
624.45 169.998 L
624.838 169.753 L
625.225 171.671 L
625.612 170.587 L
626 170.587 L
626.388 170.617 L
626.775 169.901 L
627.162 171.151 L
627.55 171.515 L
627.938 169.806 L
628.325 170.252 L
628.713 171.442 L
629.1 171.383 L
629.487 172.12 L
629.875 171.874 L
630.263 171.383 L
630.65 171.009 L
631.037 171.115 L
631.425 172.035 L
631.813 172.581 L
632.2 172.903 L
632.588 173.095 L
632.975 172.44 L
633.362 172.542 L
633.75 172.133 L
634.138 172.401 L
634.525 172.029 L
634.912 171.601 L
635.3 172.247 L
635.688 173.654 L
636.075 173.092 L
636.463 173.898 L
636.85 172.916 L
637.237 173.189 L
637.625 173.784 L
638.013 174.528 L
638.4 175.074 L
638.787 176.252 L
639.175 176.564 L
639.563 178.099 L
639.95 178.181 L
640.338 178.804 L
640.725 178.203 L
641.112 178.84 L
641.5 178.3 L
641.888 179.063 L
642.275 178.662 L
642.662 178.662 L
643.05 179.3 L
643.438 178.832 L
643.825 178.832 L
644.213 177.789 L
644.6 176.806 L
644.987 175.926 L
645.375 176.966 L
645.763 177.784 L
646.15 178.328 L
646.537 179.249 L
646.925 177.329 L
647.313 178.134 L
647.7 177.725 L
648.088 178.097 L
648.475 176.899 L
648.862 176.238 L
649.25 175.889 L
649.638 175.48 L
650.025 176.78 L
650.412 176.312 L
650.8 177.238 L
651.188 177.14 L
651.575 176.321 L
651.963 176.343 L
652.35 175.556 L
652.737 176.857 L
653.125 178.439 L
653.513 178.742 L
653.9 179.551 L
654.287 180.115 L
654.675 180.524 L
655.063 179.985 L
655.45 179.59 L
655.838 179.005 L
656.225 179.746 L
656.612 179.851 L
657 179.753 L
657.388 180.467 L
657.775 180.405 L
658.162 180.247 L
658.55 180.161 L
658.938 181.353 L
659.325 180.909 L
659.713 179.868 L
660.1 180.391 L
660.487 181.86 L
660.875 182.445 L
661.263 183.453 L
661.65 184.28 L
662.037 184.302 L
662.425 184.505 L
662.813 184.188 L
663.2 185.042 L
663.588 185.615 L
663.975 185.231 L
664.362 186.073 L
664.75 185.798 L
665.138 185.998 L
665.525 186.084 L
665.912 185.138 L
666.3 185.362 L
666.688 186.196 L
667.075 186.336 L
667.463 188.059 L
667.85 187.486 L
668.237 188.893 L
668.625 190.701 L
669.013 191.218 L
669.4 191.873 L
669.787 192.046 L
670.175 191.52 L
670.563 192.011 L
670.95 192.928 L
671.338 193.043 L
671.725 194.902 L
672.112 194.679 L
672.5 194.278 L
672.888 194.987 L
673.275 194.905 L
673.662 193.829 L
674.05 193.309 L
674.438 193.826 L
674.825 194.624 L
675.213 193.621 L
675.6 195.095 L
675.987 193.036 L
676.375 193.985 L
676.763 194.329 L
677.15 193.311 L
677.537 192.629 L
677.925 191.364 L
678.313 190.341 L
678.7 190.615 L
679.088 190.342 L
679.475 190.188 L
679.862 189.299 L
680.25 187.174 L
680.638 186.238 L
681.025 184.488 L
681.412 182.56 L
681.8 182.726 L
682.188 181.88 L
682.575 182.15 L
682.963 181.316 L
683.35 179.842 L
683.737 179.244 L
684.125 179.385 L
684.513 179.23 L
684.9 179.32 L
685.287 178.415 L
685.675 179.525 L
686.063 179.887 L
686.45 179.499 L
686.838 179.008 L
687.225 179.008 L
687.612 178.468 L
688 177.168 L
688.388 176.369 L
688.775 175.055 L
689.162 175.456 L
689.55 173.632 L
689.938 175 L
690.325 174.418 L
690.713 174.418 L
691.1 174.935 L
691.487 173.922 L
691.875 175.457 L
692.263 175.757 L
692.65 174.775 L
693.037 174.964 L
693.425 174.74 L
693.813 174.895 L
694.2 174.62 L
694.588 174.103 L
694.975 173.906 L
695.362 173.079 L
695.75 174.046 L
696.138 173.758 L
696.525 175.266 L
696.912 176.529 L
697.3 176.744 L
697.688 177.867 L
698.075 177.965 L
698.463 177.6 L
698.85 177.927 L
699.237 178.796 L
699.625 178.796 L
700.013 179.723 L
700.4 180.074 L
700.787 181.497 L
701.175 183.043 L
701.563 183.796 L
701.95 186.123 L
702.338 186.472 L
702.725 187.292 L
703.112 187.947 L
703.5 188.215 L
703.888 187.519 L
704.275 187.613 L
704.662 186.759 L
705.05 186.652 L
705.438 185.333 L
705.825 185.471 L
706.213 185.962 L
706.6 186.866 L
706.987 186.207 L
707.375 186.631 L
707.763 186.038 L
708.15 185.653 L
708.537 185.407 L
708.925 186.061 L
709.313 186.799 L
709.7 186.954 L
710.088 186.696 L
710.475 186.007 L
710.862 185.921 L
711.25 185.734 L
711.638 184.445 L
712.025 185.199 L
712.412 184.086 L
712.8 184.406 L
713.188 184.183 L
713.575 184.628 L
713.963 185.193 L
714.35 184.238 L
714.737 185.024 L
715.125 184.601 L
715.513 185.048 L
715.9 184.683 L
716.287 183.035 L
716.675 182.299 L
717.063 182.628 L
717.45 182.5 L
717.838 183.053 L
718.225 182.3 L
718.612 181.154 L
719 180.417 L
719.388 179.548 L
719.775 179.548 L
720.162 180.039 L
720.55 179.548 L
720.938 178.68 L
721.325 177.844 L
721.713 176.15 L
722.1 174.712 L
722.487 173.785 L
722.875 174.431 L
723.263 174.761 L
723.65 175.871 L
724.037 175.286 L
724.425 176.222 L
724.813 176.819 L
725.2 177.956 L
725.588 177.724 L
725.975 177.724 L
726.362 178.048 L
726.75 178.813 L
727.138 178.586 L
727.525 179.529 L
727.912 179.383 L
728.3 180.389 L
728.688 179.089 L
729.075 179.423 L
729.463 179.022 L
729.85 178.314 L
730.237 179.277 L
730.625 179.379 L
731.013 178.581 L
731.4 179.427 L
731.787 178.618 L
732.175 179.03 L
732.563 178.611 L
732.95 179.325 L
733.338 178.88 L
733.725 178.515 L
734.112 179.9 L
734.5 179.516 L
734.888 180.304 L
735.275 180.762 L
735.662 180.362 L
736.05 180.255 L
736.438 180.362 L
736.825 180.637 L
737.213 181.612 L
737.6 182.465 L
737.987 183.477 L
738.375 183.923 L
738.763 184.414 L
739.15 185.729 L
739.537 186.573 L
739.925 186.818 L
740.313 186.818 L
740.7 186.322 L
741.088 187.984 L
741.475 188.369 L
741.862 189.717 L
742.25 189.732 L
742.638 188.373 L
743.025 190.02 L
743.412 189.32 L
743.8 189.811 L
744.188 189.578 L
744.575 190.178 L
744.963 190.324 L
745.35 190.324 L
745.737 191.061 L
746.125 190.651 L
746.513 189.32 L
746.9 190.064 L
747.287 190.064 L
747.675 189.753 L
748.063 189.402 L
748.45 189.531 L
748.838 189.055 L
749.225 189.055 L
749.612 189.482 L
750 187.936 L
750.388 188.026 L
750.775 187.919 L
751.162 187.565 L
751.55 187.796 L
751.938 187.255 L
752.325 187.033 L
752.713 186.765 L
753.1 186.938 L
753.487 187.592 L
753.875 187.419 L
754.263 187.663 L
754.65 187.374 L
755.037 186.82 L
755.425 187.221 L
755.813 187.572 L
756.2 187.145 L
756.588 186.743 L
756.975 186.47 L
757.362 185.063 L
757.75 184.158 L
758.138 183.935 L
758.525 183.199 L
758.912 181.884 L
759.3 181.254 L
759.688 180.419 L
760.075 180.91 L
760.463 181.183 L
760.85 180.255 L
761.237 180.669 L
761.625 180.268 L
762.013 181.757 L
762.4 182.47 L
762.787 180.962 L
763.175 180.348 L
763.563 179.433 L
763.95 179.86 L
764.338 179.673 L
764.725 180.796 L
765.112 179.927 L
765.5 178.114 L
765.888 177.646 L
766.275 178.613 L
766.662 178.613 L
767.05 178.155 L
767.438 179.183 L
767.825 180.194 L
768.213 180.802 L
768.6 180.673 L
768.987 181.655 L
769.375 181.772 L
769.763 181.59 L
770.15 180.374 L
770.537 180.276 L
770.925 180.03 L
771.313 180.319 L
771.7 181.288 L
772.088 181.854 L
772.475 182.122 L
772.862 180.777 L
773.25 178.659 L
773.638 177.558 L
774.025 178.025 L
774.412 177.654 L
774.8 177.737 L
775.188 176.219 L
775.575 175.49 L
775.963 176.034 L
776.35 175.959 L
776.737 175.491 L
777.125 175.598 L
777.513 175.5 L
777.9 175.923 L
778.287 176.802 L
778.675 177.142 L
779.063 177.482 L
779.45 178.165 L
779.838 178.492 L
780.225 179.138 L
780.612 179.239 L
781 179.345 L
781.388 179.323 L
781.775 178.121 L
782.162 178.667 L
782.55 178.868 L
782.938 179.768 L
783.325 180.683 L
783.713 179.294 L
784.1 178.166 L
784.487 177.92 L
784.875 178.844 L
785.263 179.875 L
785.65 179.524 L
786.037 178.19 L
786.425 177.271 L
786.813 177.729 L
787.2 178.036 L
787.588 177.024 L
787.975 177.379 L
788.362 177.017 L
788.75 176.607 L
789.138 176.491 L
789.525 177.478 L
789.912 178.911 L
790.3 178.372 L
790.688 178.127 L
791.075 177.607 L
791.463 177.412 L
791.85 177.487 L
792.237 177.487 L
792.625 178.013 L
793.013 179.377 L
793.4 180.152 L
793.787 180.561 L
794.175 179.833 L
794.563 179.75 L
794.95 181.633 L
795.338 182.398 L
795.725 182.526 L
796.112 183.58 L
796.5 183.775 L
796.888 184.422 L
797.275 185.104 L
797.662 184.185 L
798.05 184.118 L
798.438 185.012 L
798.825 185.866 L
799.213 185.388 L
799.6 184.815 L
799.987 184.392 L
800.375 183.473 L
800.763 182.568 L
801.15 183.082 L
801.537 182.779 L
801.925 182.142 L
802.313 181.103 L
802.7 181.84 L
803.088 181.455 L
803.475 182.418 L
803.862 183.546 L
804.25 182.638 L
804.638 182.638 L
805.025 182.192 L
805.412 182.838 L
805.8 183.071 L
806.188 182.525 L
806.575 183.079 L
806.963 181.851 L
807.35 181.95 L
807.737 180.858 L
808.125 180.694 L
808.513 180.613 L
808.9 180.729 L
809.287 180.189 L
809.675 178.871 L
810.063 179.998 L
810.45 180.244 L
810.838 180.844 L
811.225 180.766 L
811.612 181.092 L
812 181.692 L
812.388 182.339 L
812.775 182.439 L
813.162 182.765 L
813.55 181.76 L
813.938 181.934 L
814.325 182.488 L
814.713 180.91 L
815.1 181.75 L
815.487 182.045 L
815.875 181.33 L
816.263 180.595 L
816.65 179.949 L
817.037 179.685 L
817.425 180.776 L
817.813 180.776 L
818.2 180.502 L
818.588 179.085 L
818.975 179.085 L
819.362 179.085 L
819.75 178.861 L
820.138 179.625 L
820.525 180.819 L
820.912 180.9 L
821.3 182.268 L
821.688 182.71 L
822.075 183.749 L
822.463 182.767 L
822.85 184.765 L
823.237 184.765 L
823.625 183.451 L
824.013 183.577 L
824.4 183.577 L
824.787 184.068 L
825.175 183.913 L
825.563 185.273 L
825.95 186.637 L
826.338 186.469 L
826.725 186.916 L
827.112 188.117 L
827.5 188.341 L
827.888 189.978 L
828.275 189.37 L
828.662 190.238 L
829.05 191.246 L
829.438 191.828 L
829.825 191.23 L
830.213 191.967 L
830.6 190.452 L
830.987 190.825 L
831.375 191.27 L
831.763 189.586 L
832.15 189.328 L
832.537 189.404 L
832.925 189.303 L
833.313 188.982 L
833.7 190.278 L
834.088 190.908 L
834.475 191.028 L
834.862 189.907 L
835.25 189.072 L
835.638 188.733 L
836.025 189.413 L
836.412 189.658 L
836.8 188.847 L
837.188 187.824 L
837.575 187.504 L
837.963 187.995 L
838.35 188.758 L
838.737 189.47 L
839.125 190.043 L
839.513 190.534 L
839.9 190.393 L
840.287 189.339 L
840.675 189.066 L
841.063 188.994 L
841.45 189.29 L
841.838 189.066 L
842.225 189.726 L
842.612 188.632 L
843 188.164 L
843.388 189.065 L
843.775 188.969 L
844.162 189.242 L
844.55 188.751 L
844.938 187.882 L
845.325 187.882 L
845.713 187.656 L
846.1 187.931 L
846.487 188.958 L
846.875 187.434 L
847.263 187.948 L
847.65 187.811 L
848.037 188.501 L
848.425 188.314 L
848.813 188.218 L
849.2 188.738 L
849.588 188.728 L
849.975 188.973 L
850.362 189.306 L
850.75 188.168 L
851.138 187.814 L
851.525 188.406 L
851.912 188.51 L
852.3 189.261 L
852.688 188.51 L
853.075 188.336 L
853.463 187.49 L
853.85 185.546 L
854.237 185.245 L
854.625 185.384 L
855.013 186.064 L
855.4 185.629 L
855.787 185.489 L
856.175 185.828 L
856.563 186.436 L
856.95 186.758 L
857.338 186.865 L
857.725 185.735 L
858.112 185.826 L
858.5 185.114 L
858.888 184.646 L
859.275 185.246 L
859.662 185.002 L
860.05 185.575 L
860.438 185.253 L
860.825 184.268 L
861.213 184.113 L
861.6 184.981 L
861.987 185.088 L
862.375 183.726 L
862.763 182.853 L
863.15 182.362 L
863.537 182.502 L
863.925 181.991 L
864.313 181.991 L
864.7 182.252 L
865.088 181.838 L
865.475 181.964 L
865.862 181.06 L
866.25 180.405 L
866.638 180.745 L
867.025 180.213 L
867.412 179.568 L
867.8 178.856 L
868.188 178.398 L
868.575 178.413 L
868.963 177.401 L
869.35 178.61 L
869.737 176.842 L
870.125 177.156 L
870.513 176.885 L
870.9 176.255 L
871.287 176.478 L
871.675 175.609 L
872.063 174.782 L
872.45 175.478 L
872.838 175.225 L
873.225 175.096 L
873.612 175.728 L
874 177.122 L
874.388 175.824 L
874.775 176.633 L
875.162 176.527 L
875.55 176.306 L
875.938 176.367 L
876.325 176.638 L
876.713 177.612 L
877.1 178.806 L
877.487 179.444 L
877.875 178.503 L
878.263 178.396 L
878.65 179.345 L
879.037 178.477 L
879.425 178.264 L
879.813 177.24 L
880.2 177.464 L
880.588 177.58 L
880.975 177.312 L
881.362 177.384 L
881.75 176.168 L
882.138 177.53 L
882.525 178.286 L
882.912 178.509 L
883.3 178.564 L
883.688 179.075 L
884.075 179.98 L
884.463 180.448 L
884.85 179.194 L
885.237 179.567 L
885.625 180.106 L
886.013 179.287 L
886.4 179.662 L
886.787 180.757 L
887.175 180.556 L
887.563 180.837 L
887.95 181.618 L
888.338 181.233 L
888.725 182.767 L
889.112 182.687 L
889.5 182.368 L
889.888 181.85 L
890.275 182.203 L
890.662 182.742 L
891.05 183.01 L
891.438 183.388 L
891.825 182.175 L
892.213 181.929 L
892.6 183.274 L
892.987 183.04 L
893.375 183.463 L
893.763 183.539 L
894.15 185.038 L
894.537 184.475 L
894.925 185.588 L
895.313 186.55 L
895.7 186.347 L
896.088 186.404 L
896.475 185.716 L
896.862 184.773 L
897.25 184.413 L
897.638 185.104 L
898.025 185.589 L
898.412 184.554 L
898.8 184.778 L
899.188 185.424 L
899.575 186.226 L
899.963 186.218 L
900.35 186.51 L
900.737 186.817 L
901.125 185.809 L
901.513 186.737 L
901.9 185.896 L
902.287 186.567 L
902.675 186.924 L
903.063 186.773 L
903.45 186.149 L
903.838 185.33 L
904.225 185.461 L
904.612 187.704 L
905 187.02 L
S
GR
%%Trailer
%%Pages: 1
%%EOF
