%!PS-Adobe-3.0 EPSF-3.0
%%Creator: (MATLAB, The Mathworks, Inc. Version 9.0.0.341360 \(R2016a\). Operating System: Linux)
%%Title: report/figures/sm_base_lin_geoprio4_ratio.eps
%%CreationDate: 2017-02-04T23:56:25
%%Pages: (atend)
%%BoundingBox:    59     4   910   325
%%LanguageLevel: 3
%%EndComments
%%BeginProlog
%%BeginResource: procset (Apache XML Graphics Std ProcSet) 1.2 0
%%Version: 1.2 0
%%Copyright: (Copyright 2001-2003,2010 The Apache Software Foundation. License terms: http://www.apache.org/licenses/LICENSE-2.0)
/bd{bind def}bind def
/ld{load def}bd
/GR/grestore ld
/M/moveto ld
/LJ/setlinejoin ld
/C/curveto ld
/f/fill ld
/LW/setlinewidth ld
/GC/setgray ld
/t/show ld
/N/newpath ld
/CT/concat ld
/cp/closepath ld
/S/stroke ld
/L/lineto ld
/CC/setcmykcolor ld
/A/ashow ld
/GS/gsave ld
/RC/setrgbcolor ld
/RM/rmoveto ld
/ML/setmiterlimit ld
/re {4 2 roll M
1 index 0 rlineto
0 exch rlineto
neg 0 rlineto
cp } bd
/_ctm matrix def
/_tm matrix def
/BT { _ctm currentmatrix pop matrix _tm copy pop 0 0 moveto } bd
/ET { _ctm setmatrix } bd
/iTm { _ctm setmatrix _tm concat } bd
/Tm { _tm astore pop iTm 0 0 moveto } bd
/ux 0.0 def
/uy 0.0 def
/F {
  /Tp exch def
  /Tf exch def
  Tf findfont Tp scalefont setfont
  /cf Tf def  /cs Tp def
} bd
/ULS {currentpoint /uy exch def /ux exch def} bd
/ULE {
  /Tcx currentpoint pop def
  gsave
  newpath
  cf findfont cs scalefont dup
  /FontMatrix get 0 get /Ts exch def /FontInfo get dup
  /UnderlinePosition get Ts mul /To exch def
  /UnderlineThickness get Ts mul /Tt exch def
  ux uy To add moveto  Tcx uy To add lineto
  Tt setlinewidth stroke
  grestore
} bd
/OLE {
  /Tcx currentpoint pop def
  gsave
  newpath
  cf findfont cs scalefont dup
  /FontMatrix get 0 get /Ts exch def /FontInfo get dup
  /UnderlinePosition get Ts mul /To exch def
  /UnderlineThickness get Ts mul /Tt exch def
  ux uy To add cs add moveto Tcx uy To add cs add lineto
  Tt setlinewidth stroke
  grestore
} bd
/SOE {
  /Tcx currentpoint pop def
  gsave
  newpath
  cf findfont cs scalefont dup
  /FontMatrix get 0 get /Ts exch def /FontInfo get dup
  /UnderlinePosition get Ts mul /To exch def
  /UnderlineThickness get Ts mul /Tt exch def
  ux uy To add cs 10 mul 26 idiv add moveto Tcx uy To add cs 10 mul 26 idiv add lineto
  Tt setlinewidth stroke
  grestore
} bd
/QT {
/Y22 exch store
/X22 exch store
/Y21 exch store
/X21 exch store
currentpoint
/Y21 load 2 mul add 3 div exch
/X21 load 2 mul add 3 div exch
/X21 load 2 mul /X22 load add 3 div
/Y21 load 2 mul /Y22 load add 3 div
/X22 load /Y22 load curveto
} bd
/SSPD {
dup length /d exch dict def
{
/v exch def
/k exch def
currentpagedevice k known {
/cpdv currentpagedevice k get def
v cpdv ne {
/upd false def
/nullv v type /nulltype eq def
/nullcpdv cpdv type /nulltype eq def
nullv nullcpdv or
{
/upd true def
} {
/sametype v type cpdv type eq def
sametype {
v type /arraytype eq {
/vlen v length def
/cpdvlen cpdv length def
vlen cpdvlen eq {
0 1 vlen 1 sub {
/i exch def
/obj v i get def
/cpdobj cpdv i get def
obj cpdobj ne {
/upd true def
exit
} if
} for
} {
/upd true def
} ifelse
} {
v type /dicttype eq {
v {
/dv exch def
/dk exch def
/cpddv cpdv dk get def
dv cpddv ne {
/upd true def
exit
} if
} forall
} {
/upd true def
} ifelse
} ifelse
} if
} ifelse
upd true eq {
d k v put
} if
} if
} if
} forall
d length 0 gt {
d setpagedevice
} if
} bd
%%EndResource
%%BeginResource: procset (Apache XML Graphics EPS ProcSet) 1.0 0
%%Version: 1.0 0
%%Copyright: (Copyright 2002-2003 The Apache Software Foundation. License terms: http://www.apache.org/licenses/LICENSE-2.0)
/BeginEPSF { %def
/b4_Inc_state save def         % Save state for cleanup
/dict_count countdictstack def % Count objects on dict stack
/op_count count 1 sub def      % Count objects on operand stack
userdict begin                 % Push userdict on dict stack
/showpage { } def              % Redefine showpage, { } = null proc
0 setgray 0 setlinecap         % Prepare graphics state
1 setlinewidth 0 setlinejoin
10 setmiterlimit [ ] 0 setdash newpath
/languagelevel where           % If level not equal to 1 then
{pop languagelevel             % set strokeadjust and
1 ne                           % overprint to their defaults.
{false setstrokeadjust false setoverprint
} if
} if
} bd
/EndEPSF { %def
count op_count sub {pop} repeat            % Clean up stacks
countdictstack dict_count sub {end} repeat
b4_Inc_state restore
} bd
%%EndResource
%%EndProlog
%%Page: 1 1
%%PageBoundingBox: 0 0 1000 350
%%BeginPageSetup
[1 0 0 -1 0 350] CT
%%EndPageSetup
GS
1 GC
N
0 0 1000 350 re
f
GR
GS
1 GC
N
0 0 1000 350 re
f
GR
GS
1 GC
N
130 289 M
905 289 L
905 26 L
130 26 L
cp
f
GR
GS
0.873 GC
1 LJ
0.5 LW
N
130 289 M
130 26 L
S
GR
GS
0.873 GC
1 LJ
0.5 LW
N
323.75 289 M
323.75 26 L
S
GR
GS
0.873 GC
1 LJ
0.5 LW
N
517.5 289 M
517.5 26 L
S
GR
GS
0.873 GC
1 LJ
0.5 LW
N
711.25 289 M
711.25 26 L
S
GR
GS
0.873 GC
1 LJ
0.5 LW
N
905 289 M
905 26 L
S
GR
GS
0.873 GC
1 LJ
0.5 LW
N
905 289 M
130 289 L
S
GR
GS
0.873 GC
1 LJ
0.5 LW
N
905 238.905 M
130 238.905 L
S
GR
GS
0.873 GC
1 LJ
0.5 LW
N
905 188.81 M
130 188.81 L
S
GR
GS
0.873 GC
1 LJ
0.5 LW
N
905 138.714 M
130 138.714 L
S
GR
GS
0.873 GC
1 LJ
0.5 LW
N
905 88.619 M
130 88.619 L
S
GR
GS
0.873 GC
1 LJ
0.5 LW
N
905 38.524 M
130 38.524 L
S
GR
GS
0.149 GC
2 setlinecap
1 LJ
0.5 LW
N
130 289 M
905 289 L
S
GR
GS
0.149 GC
2 setlinecap
1 LJ
0.5 LW
N
130 289 M
130 281.25 L
S
GR
GS
0.149 GC
2 setlinecap
1 LJ
0.5 LW
N
323.75 289 M
323.75 281.25 L
S
GR
GS
0.149 GC
2 setlinecap
1 LJ
0.5 LW
N
517.5 289 M
517.5 281.25 L
S
GR
GS
0.149 GC
2 setlinecap
1 LJ
0.5 LW
N
711.25 289 M
711.25 281.25 L
S
GR
GS
0.149 GC
2 setlinecap
1 LJ
0.5 LW
N
905 289 M
905 281.25 L
S
GR
GS
[1 0 0 1 130 295] CT
0.149 GC
N
-0.141 5.719 M
-1.672 5.719 -2.438 7.219 QT
-3.203 8.719 -3.203 11.719 QT
-3.203 14.719 -2.438 16.219 QT
-1.672 17.719 -0.141 17.719 QT
1.391 17.719 2.156 16.219 QT
2.922 14.719 2.922 11.719 QT
2.922 8.719 2.156 7.219 QT
1.391 5.719 -0.141 5.719 QT
cp
-0.141 4.156 M
2.313 4.156 3.602 6.094 QT
4.891 8.031 4.891 11.719 QT
4.891 15.406 3.602 17.344 QT
2.313 19.281 -0.141 19.281 QT
-2.594 19.281 -3.891 17.344 QT
-5.188 15.406 -5.188 11.719 QT
-5.188 8.031 -3.891 6.094 QT
-2.594 4.156 -0.141 4.156 QT
cp
f
GR
GS
[1 0 0 1 323.75 295] CT
0.149 GC
N
-9.641 5.719 M
-11.172 5.719 -11.938 7.219 QT
-12.703 8.719 -12.703 11.719 QT
-12.703 14.719 -11.938 16.219 QT
-11.172 17.719 -9.641 17.719 QT
-8.109 17.719 -7.344 16.219 QT
-6.578 14.719 -6.578 11.719 QT
-6.578 8.719 -7.344 7.219 QT
-8.109 5.719 -9.641 5.719 QT
cp
-9.641 4.156 M
-7.188 4.156 -5.898 6.094 QT
-4.609 8.031 -4.609 11.719 QT
-4.609 15.406 -5.898 17.344 QT
-7.188 19.281 -9.641 19.281 QT
-12.094 19.281 -13.391 17.344 QT
-14.688 15.406 -14.688 11.719 QT
-14.688 8.031 -13.391 6.094 QT
-12.094 4.156 -9.641 4.156 QT
cp
-1.135 16.516 M
0.928 16.516 L
0.928 19 L
-1.135 19 L
-1.135 16.516 L
cp
5.238 4.422 M
12.988 4.422 L
12.988 6.078 L
7.051 6.078 L
7.051 9.656 L
7.473 9.5 7.902 9.43 QT
8.332 9.359 8.77 9.359 QT
11.207 9.359 12.637 10.695 QT
14.066 12.031 14.066 14.328 QT
14.066 16.672 12.598 17.977 QT
11.129 19.281 8.457 19.281 QT
7.551 19.281 6.598 19.125 QT
5.645 18.969 4.629 18.656 QT
4.629 16.672 L
5.504 17.156 6.441 17.391 QT
7.379 17.625 8.426 17.625 QT
10.113 17.625 11.098 16.734 QT
12.082 15.844 12.082 14.328 QT
12.082 12.797 11.098 11.906 QT
10.113 11.016 8.426 11.016 QT
7.629 11.016 6.848 11.195 QT
6.066 11.375 5.238 11.75 QT
5.238 4.422 L
cp
f
GR
GS
[1 0 0 1 517.5 295] CT
0.149 GC
N
-4.016 17.344 M
-0.797 17.344 L
-0.797 6.219 L
-4.297 6.922 L
-4.297 5.125 L
-0.813 4.422 L
1.156 4.422 L
1.156 17.344 L
4.375 17.344 L
4.375 19 L
-4.016 19 L
-4.016 17.344 L
cp
f
GR
GS
[1 0 0 1 711.25 295] CT
0.149 GC
N
-13.516 17.344 M
-10.297 17.344 L
-10.297 6.219 L
-13.797 6.922 L
-13.797 5.125 L
-10.313 4.422 L
-8.344 4.422 L
-8.344 17.344 L
-5.125 17.344 L
-5.125 19 L
-13.516 19 L
-13.516 17.344 L
cp
-1.135 16.516 M
0.928 16.516 L
0.928 19 L
-1.135 19 L
-1.135 16.516 L
cp
5.238 4.422 M
12.988 4.422 L
12.988 6.078 L
7.051 6.078 L
7.051 9.656 L
7.473 9.5 7.902 9.43 QT
8.332 9.359 8.77 9.359 QT
11.207 9.359 12.637 10.695 QT
14.066 12.031 14.066 14.328 QT
14.066 16.672 12.598 17.977 QT
11.129 19.281 8.457 19.281 QT
7.551 19.281 6.598 19.125 QT
5.645 18.969 4.629 18.656 QT
4.629 16.672 L
5.504 17.156 6.441 17.391 QT
7.379 17.625 8.426 17.625 QT
10.113 17.625 11.098 16.734 QT
12.082 15.844 12.082 14.328 QT
12.082 12.797 11.098 11.906 QT
10.113 11.016 8.426 11.016 QT
7.629 11.016 6.848 11.195 QT
6.066 11.375 5.238 11.75 QT
5.238 4.422 L
cp
f
GR
GS
[1 0 0 1 905 295] CT
0.149 GC
N
-2.656 17.344 M
4.219 17.344 L
4.219 19 L
-5.031 19 L
-5.031 17.344 L
-3.906 16.172 -1.969 14.219 QT
-0.031 12.266 0.469 11.688 QT
1.406 10.625 1.781 9.891 QT
2.156 9.156 2.156 8.438 QT
2.156 7.281 1.344 6.547 QT
0.531 5.813 -0.781 5.813 QT
-1.703 5.813 -2.734 6.133 QT
-3.766 6.453 -4.938 7.109 QT
-4.938 5.125 L
-3.75 4.641 -2.711 4.398 QT
-1.672 4.156 -0.813 4.156 QT
1.453 4.156 2.797 5.289 QT
4.141 6.422 4.141 8.313 QT
4.141 9.219 3.805 10.023 QT
3.469 10.828 2.578 11.922 QT
2.344 12.203 1.031 13.555 QT
-0.281 14.906 -2.656 17.344 QT
cp
f
GR
GS
[1 0 0 1 517.50037 320] CT
0.149 GC
N
-14.25 9.328 M
-14.25 11.188 L
-15.094 10.766 -16 10.547 QT
-16.906 10.328 -17.859 10.328 QT
-19.344 10.328 -20.078 10.781 QT
-20.813 11.234 -20.813 12.141 QT
-20.813 12.828 -20.281 13.219 QT
-19.75 13.609 -18.172 13.969 QT
-17.484 14.109 L
-15.391 14.563 -14.5 15.383 QT
-13.609 16.203 -13.609 17.688 QT
-13.609 19.359 -14.938 20.336 QT
-16.266 21.313 -18.578 21.313 QT
-19.547 21.313 -20.594 21.125 QT
-21.641 20.938 -22.813 20.563 QT
-22.813 18.516 L
-21.719 19.094 -20.648 19.375 QT
-19.578 19.656 -18.547 19.656 QT
-17.141 19.656 -16.391 19.18 QT
-15.641 18.703 -15.641 17.828 QT
-15.641 17.031 -16.188 16.602 QT
-16.734 16.172 -18.563 15.766 QT
-19.25 15.609 L
-21.094 15.219 -21.906 14.422 QT
-22.719 13.625 -22.719 12.219 QT
-22.719 10.531 -21.516 9.602 QT
-20.313 8.672 -18.109 8.672 QT
-17 8.672 -16.039 8.836 QT
-15.078 9 -14.25 9.328 QT
cp
-8.507 5.547 M
-8.507 8.969 L
-4.444 8.969 L
-4.444 10.5 L
-8.507 10.5 L
-8.507 17.031 L
-8.507 18.5 -8.108 18.922 QT
-7.71 19.344 -6.476 19.344 QT
-4.444 19.344 L
-4.444 21 L
-6.476 21 L
-8.757 21 -9.624 20.148 QT
-10.491 19.297 -10.491 17.031 QT
-10.491 10.5 L
-11.944 10.5 L
-11.944 8.969 L
-10.491 8.969 L
-10.491 5.547 L
-8.507 5.547 L
cp
8.447 14.484 M
8.447 15.453 L
-0.631 15.453 L
-0.506 17.5 0.596 18.57 QT
1.697 19.641 3.666 19.641 QT
4.807 19.641 5.869 19.359 QT
6.932 19.078 7.994 18.516 QT
7.994 20.391 L
6.932 20.844 5.814 21.078 QT
4.697 21.313 3.541 21.313 QT
0.666 21.313 -1.014 19.633 QT
-2.693 17.953 -2.693 15.109 QT
-2.693 12.141 -1.1 10.406 QT
0.494 8.672 3.197 8.672 QT
5.635 8.672 7.041 10.234 QT
8.447 11.797 8.447 14.484 QT
cp
6.479 13.906 M
6.447 12.281 5.564 11.32 QT
4.682 10.359 3.229 10.359 QT
1.572 10.359 0.572 11.289 QT
-0.428 12.219 -0.568 13.922 QT
6.479 13.906 L
cp
13.607 19.188 M
13.607 25.578 L
11.623 25.578 L
11.623 8.969 L
13.607 8.969 L
13.607 10.797 L
14.232 9.719 15.186 9.195 QT
16.139 8.672 17.451 8.672 QT
19.639 8.672 21.014 10.414 QT
22.389 12.156 22.389 15 QT
22.389 17.828 21.014 19.57 QT
19.639 21.313 17.451 21.313 QT
16.139 21.313 15.186 20.789 QT
14.232 20.266 13.607 19.188 QT
cp
20.326 15 M
20.326 12.813 19.436 11.57 QT
18.545 10.328 16.967 10.328 QT
15.404 10.328 14.506 11.57 QT
13.607 12.813 13.607 15 QT
13.607 17.172 14.506 18.414 QT
15.404 19.656 16.967 19.656 QT
18.545 19.656 19.436 18.414 QT
20.326 17.172 20.326 15 QT
cp
f
GR
GS
[1 0 0 1 852 345] CT
0.149 GC
N
2.938 -0.578 M
2.938 -0.734 3.031 -0.859 QT
7.203 -5 L
3.031 -9.156 L
2.938 -9.266 2.938 -9.422 QT
2.938 -9.578 3.055 -9.703 QT
3.172 -9.828 3.344 -9.828 QT
3.484 -9.828 3.641 -9.703 QT
7.781 -5.563 L
11.906 -9.703 L
12.078 -9.828 12.203 -9.828 QT
12.359 -9.828 12.477 -9.711 QT
12.594 -9.594 12.594 -9.422 QT
12.594 -9.266 12.5 -9.156 QT
8.344 -5 L
12.5 -0.859 L
12.594 -0.734 12.594 -0.578 QT
12.594 -0.406 12.477 -0.289 QT
12.359 -0.172 12.203 -0.172 QT
12.047 -0.172 11.906 -0.328 QT
7.781 -4.438 L
3.641 -0.328 L
3.5 -0.172 3.344 -0.172 QT
3.172 -0.172 3.055 -0.305 QT
2.938 -0.438 2.938 -0.578 QT
cp
f
GR
GS
[1 0 0 1 868 345] CT
0.149 GC
N
2.484 -1.656 M
5.703 -1.656 L
5.703 -12.781 L
2.203 -12.078 L
2.203 -13.875 L
5.688 -14.578 L
7.656 -14.578 L
7.656 -1.656 L
10.875 -1.656 L
10.875 0 L
2.484 0 L
2.484 -1.656 L
cp
19.084 -13.281 M
17.553 -13.281 16.787 -11.781 QT
16.021 -10.281 16.021 -7.281 QT
16.021 -4.281 16.787 -2.781 QT
17.553 -1.281 19.084 -1.281 QT
20.615 -1.281 21.381 -2.781 QT
22.146 -4.281 22.146 -7.281 QT
22.146 -10.281 21.381 -11.781 QT
20.615 -13.281 19.084 -13.281 QT
cp
19.084 -14.844 M
21.537 -14.844 22.826 -12.906 QT
24.115 -10.969 24.115 -7.281 QT
24.115 -3.594 22.826 -1.656 QT
21.537 0.281 19.084 0.281 QT
16.631 0.281 15.334 -1.656 QT
14.037 -3.594 14.037 -7.281 QT
14.037 -10.969 15.334 -12.906 QT
16.631 -14.844 19.084 -14.844 QT
cp
f
GR
GS
[1 0 0 1 894 335] CT
0.149 GC
N
5.281 -6.469 M
4.219 -6.469 3.602 -5.742 QT
2.984 -5.016 2.984 -3.75 QT
2.984 -2.484 3.602 -1.758 QT
4.219 -1.031 5.281 -1.031 QT
6.344 -1.031 6.969 -1.758 QT
7.594 -2.484 7.594 -3.75 QT
7.594 -5.016 6.969 -5.742 QT
6.344 -6.469 5.281 -6.469 QT
cp
8.422 -11.406 M
8.422 -9.969 L
7.828 -10.25 7.219 -10.398 QT
6.609 -10.547 6.016 -10.547 QT
4.453 -10.547 3.633 -9.492 QT
2.813 -8.438 2.688 -6.313 QT
3.156 -6.984 3.852 -7.352 QT
4.547 -7.719 5.375 -7.719 QT
7.141 -7.719 8.156 -6.648 QT
9.172 -5.578 9.172 -3.75 QT
9.172 -1.953 8.109 -0.859 QT
7.047 0.234 5.281 0.234 QT
3.266 0.234 2.195 -1.32 QT
1.125 -2.875 1.125 -5.828 QT
1.125 -8.594 2.438 -10.234 QT
3.75 -11.875 5.953 -11.875 QT
6.547 -11.875 7.156 -11.758 QT
7.766 -11.641 8.422 -11.406 QT
cp
f
GR
GS
0.149 GC
2 setlinecap
1 LJ
0.5 LW
N
130 289 M
130 26 L
S
GR
GS
0.149 GC
2 setlinecap
1 LJ
0.5 LW
N
130 289 M
137.75 289 L
S
GR
GS
0.149 GC
2 setlinecap
1 LJ
0.5 LW
N
130 238.905 M
137.75 238.905 L
S
GR
GS
0.149 GC
2 setlinecap
1 LJ
0.5 LW
N
130 188.81 M
137.75 188.81 L
S
GR
GS
0.149 GC
2 setlinecap
1 LJ
0.5 LW
N
130 138.714 M
137.75 138.714 L
S
GR
GS
0.149 GC
2 setlinecap
1 LJ
0.5 LW
N
130 88.619 M
137.75 88.619 L
S
GR
GS
0.149 GC
2 setlinecap
1 LJ
0.5 LW
N
130 38.524 M
137.75 38.524 L
S
GR
GS
[1 0 0 1 124 289] CT
0.149 GC
N
-6.641 -6.281 M
-8.172 -6.281 -8.938 -4.781 QT
-9.703 -3.281 -9.703 -0.281 QT
-9.703 2.719 -8.938 4.219 QT
-8.172 5.719 -6.641 5.719 QT
-5.109 5.719 -4.344 4.219 QT
-3.578 2.719 -3.578 -0.281 QT
-3.578 -3.281 -4.344 -4.781 QT
-5.109 -6.281 -6.641 -6.281 QT
cp
-6.641 -7.844 M
-4.188 -7.844 -2.898 -5.906 QT
-1.609 -3.969 -1.609 -0.281 QT
-1.609 3.406 -2.898 5.344 QT
-4.188 7.281 -6.641 7.281 QT
-9.094 7.281 -10.391 5.344 QT
-11.688 3.406 -11.688 -0.281 QT
-11.688 -3.969 -10.391 -5.906 QT
-9.094 -7.844 -6.641 -7.844 QT
cp
f
GR
GS
[1 0 0 1 124 238.90475] CT
0.149 GC
N
-22.156 5.344 M
-15.281 5.344 L
-15.281 7 L
-24.531 7 L
-24.531 5.344 L
-23.406 4.172 -21.469 2.219 QT
-19.531 0.266 -19.031 -0.313 QT
-18.094 -1.375 -17.719 -2.109 QT
-17.344 -2.844 -17.344 -3.563 QT
-17.344 -4.719 -18.156 -5.453 QT
-18.969 -6.188 -20.281 -6.188 QT
-21.203 -6.188 -22.234 -5.867 QT
-23.266 -5.547 -24.438 -4.891 QT
-24.438 -6.875 L
-23.25 -7.359 -22.211 -7.602 QT
-21.172 -7.844 -20.313 -7.844 QT
-18.047 -7.844 -16.703 -6.711 QT
-15.359 -5.578 -15.359 -3.688 QT
-15.359 -2.781 -15.695 -1.977 QT
-16.031 -1.172 -16.922 -0.078 QT
-17.156 0.203 -18.469 1.555 QT
-19.781 2.906 -22.156 5.344 QT
cp
-6.916 -6.281 M
-8.447 -6.281 -9.213 -4.781 QT
-9.979 -3.281 -9.979 -0.281 QT
-9.979 2.719 -9.213 4.219 QT
-8.447 5.719 -6.916 5.719 QT
-5.385 5.719 -4.619 4.219 QT
-3.854 2.719 -3.854 -0.281 QT
-3.854 -3.281 -4.619 -4.781 QT
-5.385 -6.281 -6.916 -6.281 QT
cp
-6.916 -7.844 M
-4.463 -7.844 -3.174 -5.906 QT
-1.885 -3.969 -1.885 -0.281 QT
-1.885 3.406 -3.174 5.344 QT
-4.463 7.281 -6.916 7.281 QT
-9.369 7.281 -10.666 5.344 QT
-11.963 3.406 -11.963 -0.281 QT
-11.963 -3.969 -10.666 -5.906 QT
-9.369 -7.844 -6.916 -7.844 QT
cp
f
GR
GS
[1 0 0 1 124 188.80952] CT
0.149 GC
N
-18.438 -5.859 M
-23.422 1.922 L
-18.438 1.922 L
-18.438 -5.859 L
cp
-18.953 -7.578 M
-16.484 -7.578 L
-16.484 1.922 L
-14.391 1.922 L
-14.391 3.563 L
-16.484 3.563 L
-16.484 7 L
-18.438 7 L
-18.438 3.563 L
-25.016 3.563 L
-25.016 1.656 L
-18.953 -7.578 L
cp
-6.916 -6.281 M
-8.447 -6.281 -9.213 -4.781 QT
-9.979 -3.281 -9.979 -0.281 QT
-9.979 2.719 -9.213 4.219 QT
-8.447 5.719 -6.916 5.719 QT
-5.385 5.719 -4.619 4.219 QT
-3.854 2.719 -3.854 -0.281 QT
-3.854 -3.281 -4.619 -4.781 QT
-5.385 -6.281 -6.916 -6.281 QT
cp
-6.916 -7.844 M
-4.463 -7.844 -3.174 -5.906 QT
-1.885 -3.969 -1.885 -0.281 QT
-1.885 3.406 -3.174 5.344 QT
-4.463 7.281 -6.916 7.281 QT
-9.369 7.281 -10.666 5.344 QT
-11.963 3.406 -11.963 -0.281 QT
-11.963 -3.969 -10.666 -5.906 QT
-9.369 -7.844 -6.916 -7.844 QT
cp
f
GR
GS
[1 0 0 1 124 138.71428] CT
0.149 GC
N
-19.391 -1.078 M
-20.719 -1.078 -21.5 -0.172 QT
-22.281 0.734 -22.281 2.328 QT
-22.281 3.891 -21.5 4.805 QT
-20.719 5.719 -19.391 5.719 QT
-18.063 5.719 -17.289 4.805 QT
-16.516 3.891 -16.516 2.328 QT
-16.516 0.734 -17.289 -0.172 QT
-18.063 -1.078 -19.391 -1.078 QT
cp
-15.484 -7.266 M
-15.484 -5.469 L
-16.219 -5.813 -16.977 -6 QT
-17.734 -6.188 -18.484 -6.188 QT
-20.438 -6.188 -21.469 -4.867 QT
-22.5 -3.547 -22.641 -0.875 QT
-22.063 -1.734 -21.195 -2.188 QT
-20.328 -2.641 -19.281 -2.641 QT
-17.078 -2.641 -15.805 -1.305 QT
-14.531 0.031 -14.531 2.328 QT
-14.531 4.563 -15.859 5.922 QT
-17.188 7.281 -19.391 7.281 QT
-21.922 7.281 -23.266 5.344 QT
-24.609 3.406 -24.609 -0.281 QT
-24.609 -3.734 -22.969 -5.789 QT
-21.328 -7.844 -18.563 -7.844 QT
-17.813 -7.844 -17.055 -7.695 QT
-16.297 -7.547 -15.484 -7.266 QT
cp
-6.916 -6.281 M
-8.447 -6.281 -9.213 -4.781 QT
-9.979 -3.281 -9.979 -0.281 QT
-9.979 2.719 -9.213 4.219 QT
-8.447 5.719 -6.916 5.719 QT
-5.385 5.719 -4.619 4.219 QT
-3.854 2.719 -3.854 -0.281 QT
-3.854 -3.281 -4.619 -4.781 QT
-5.385 -6.281 -6.916 -6.281 QT
cp
-6.916 -7.844 M
-4.463 -7.844 -3.174 -5.906 QT
-1.885 -3.969 -1.885 -0.281 QT
-1.885 3.406 -3.174 5.344 QT
-4.463 7.281 -6.916 7.281 QT
-9.369 7.281 -10.666 5.344 QT
-11.963 3.406 -11.963 -0.281 QT
-11.963 -3.969 -10.666 -5.906 QT
-9.369 -7.844 -6.916 -7.844 QT
cp
f
GR
GS
[1 0 0 1 124 88.61905] CT
0.149 GC
N
-19.641 0.078 M
-21.047 0.078 -21.852 0.828 QT
-22.656 1.578 -22.656 2.891 QT
-22.656 4.219 -21.852 4.969 QT
-21.047 5.719 -19.641 5.719 QT
-18.234 5.719 -17.422 4.961 QT
-16.609 4.203 -16.609 2.891 QT
-16.609 1.578 -17.414 0.828 QT
-18.219 0.078 -19.641 0.078 QT
cp
-21.609 -0.766 M
-22.891 -1.078 -23.594 -1.945 QT
-24.297 -2.813 -24.297 -4.063 QT
-24.297 -5.813 -23.055 -6.828 QT
-21.813 -7.844 -19.641 -7.844 QT
-17.469 -7.844 -16.227 -6.828 QT
-14.984 -5.813 -14.984 -4.063 QT
-14.984 -2.813 -15.695 -1.945 QT
-16.406 -1.078 -17.656 -0.766 QT
-16.234 -0.438 -15.438 0.531 QT
-14.641 1.5 -14.641 2.891 QT
-14.641 5.016 -15.938 6.148 QT
-17.234 7.281 -19.641 7.281 QT
-22.047 7.281 -23.344 6.148 QT
-24.641 5.016 -24.641 2.891 QT
-24.641 1.5 -23.844 0.531 QT
-23.047 -0.438 -21.609 -0.766 QT
cp
-22.344 -3.875 M
-22.344 -2.75 -21.633 -2.117 QT
-20.922 -1.484 -19.641 -1.484 QT
-18.375 -1.484 -17.656 -2.117 QT
-16.938 -2.75 -16.938 -3.875 QT
-16.938 -5.016 -17.656 -5.648 QT
-18.375 -6.281 -19.641 -6.281 QT
-20.922 -6.281 -21.633 -5.648 QT
-22.344 -5.016 -22.344 -3.875 QT
cp
-6.916 -6.281 M
-8.447 -6.281 -9.213 -4.781 QT
-9.979 -3.281 -9.979 -0.281 QT
-9.979 2.719 -9.213 4.219 QT
-8.447 5.719 -6.916 5.719 QT
-5.385 5.719 -4.619 4.219 QT
-3.854 2.719 -3.854 -0.281 QT
-3.854 -3.281 -4.619 -4.781 QT
-5.385 -6.281 -6.916 -6.281 QT
cp
-6.916 -7.844 M
-4.463 -7.844 -3.174 -5.906 QT
-1.885 -3.969 -1.885 -0.281 QT
-1.885 3.406 -3.174 5.344 QT
-4.463 7.281 -6.916 7.281 QT
-9.369 7.281 -10.666 5.344 QT
-11.963 3.406 -11.963 -0.281 QT
-11.963 -3.969 -10.666 -5.906 QT
-9.369 -7.844 -6.916 -7.844 QT
cp
f
GR
GS
[1 0 0 1 124 38.52381] CT
0.149 GC
N
-36.516 5.344 M
-33.297 5.344 L
-33.297 -5.781 L
-36.797 -5.078 L
-36.797 -6.875 L
-33.313 -7.578 L
-31.344 -7.578 L
-31.344 5.344 L
-28.125 5.344 L
-28.125 7 L
-36.516 7 L
-36.516 5.344 L
cp
-19.916 -6.281 M
-21.447 -6.281 -22.213 -4.781 QT
-22.979 -3.281 -22.979 -0.281 QT
-22.979 2.719 -22.213 4.219 QT
-21.447 5.719 -19.916 5.719 QT
-18.385 5.719 -17.619 4.219 QT
-16.854 2.719 -16.854 -0.281 QT
-16.854 -3.281 -17.619 -4.781 QT
-18.385 -6.281 -19.916 -6.281 QT
cp
-19.916 -7.844 M
-17.463 -7.844 -16.174 -5.906 QT
-14.885 -3.969 -14.885 -0.281 QT
-14.885 3.406 -16.174 5.344 QT
-17.463 7.281 -19.916 7.281 QT
-22.369 7.281 -23.666 5.344 QT
-24.963 3.406 -24.963 -0.281 QT
-24.963 -3.969 -23.666 -5.906 QT
-22.369 -7.844 -19.916 -7.844 QT
cp
-7.191 -6.281 M
-8.723 -6.281 -9.488 -4.781 QT
-10.254 -3.281 -10.254 -0.281 QT
-10.254 2.719 -9.488 4.219 QT
-8.723 5.719 -7.191 5.719 QT
-5.66 5.719 -4.895 4.219 QT
-4.129 2.719 -4.129 -0.281 QT
-4.129 -3.281 -4.895 -4.781 QT
-5.66 -6.281 -7.191 -6.281 QT
cp
-7.191 -7.844 M
-4.738 -7.844 -3.449 -5.906 QT
-2.16 -3.969 -2.16 -0.281 QT
-2.16 3.406 -3.449 5.344 QT
-4.738 7.281 -7.191 7.281 QT
-9.645 7.281 -10.941 5.344 QT
-12.238 3.406 -12.238 -0.281 QT
-12.238 -3.969 -10.941 -5.906 QT
-9.645 -7.844 -7.191 -7.844 QT
cp
f
GR
GS
[0 -1 1 0 82 157.49988] CT
0.149 GC
N
-113.063 -22.031 M
-99.5 -22.031 L
-99.5 -20.219 L
-105.188 -20.219 L
-105.188 -6 L
-107.375 -6 L
-107.375 -20.219 L
-113.063 -20.219 L
-113.063 -22.031 L
cp
-92.015 -12.047 M
-94.421 -12.047 -95.343 -11.5 QT
-96.265 -10.953 -96.265 -9.625 QT
-96.265 -8.578 -95.569 -7.961 QT
-94.874 -7.344 -93.687 -7.344 QT
-92.046 -7.344 -91.054 -8.508 QT
-90.062 -9.672 -90.062 -11.609 QT
-90.062 -12.047 L
-92.015 -12.047 L
cp
-88.077 -12.859 M
-88.077 -6 L
-90.062 -6 L
-90.062 -7.828 L
-90.733 -6.734 -91.741 -6.211 QT
-92.749 -5.688 -94.218 -5.688 QT
-96.062 -5.688 -97.147 -6.727 QT
-98.233 -7.766 -98.233 -9.5 QT
-98.233 -11.531 -96.874 -12.563 QT
-95.515 -13.594 -92.827 -13.594 QT
-90.062 -13.594 L
-90.062 -13.781 L
-90.062 -15.156 -90.952 -15.898 QT
-91.843 -16.641 -93.468 -16.641 QT
-94.499 -16.641 -95.476 -16.398 QT
-96.452 -16.156 -97.358 -15.656 QT
-97.358 -17.484 L
-96.28 -17.906 -95.257 -18.117 QT
-94.233 -18.328 -93.265 -18.328 QT
-90.655 -18.328 -89.366 -16.969 QT
-88.077 -15.609 -88.077 -12.859 QT
cp
-77.033 -16.188 M
-77.361 -16.375 -77.76 -16.469 QT
-78.158 -16.563 -78.627 -16.563 QT
-80.299 -16.563 -81.197 -15.469 QT
-82.096 -14.375 -82.096 -12.344 QT
-82.096 -6 L
-84.08 -6 L
-84.08 -18.031 L
-82.096 -18.031 L
-82.096 -16.156 L
-81.471 -17.266 -80.471 -17.797 QT
-79.471 -18.328 -78.049 -18.328 QT
-77.846 -18.328 -77.596 -18.297 QT
-77.346 -18.266 -77.049 -18.219 QT
-77.033 -16.188 L
cp
-67.051 -12.156 M
-67.051 -14.297 -67.934 -15.484 QT
-68.816 -16.672 -70.41 -16.672 QT
-72.004 -16.672 -72.895 -15.484 QT
-73.785 -14.297 -73.785 -12.156 QT
-73.785 -10.016 -72.895 -8.836 QT
-72.004 -7.656 -70.41 -7.656 QT
-68.816 -7.656 -67.934 -8.836 QT
-67.051 -10.016 -67.051 -12.156 QT
cp
-65.066 -7.5 M
-65.066 -4.422 -66.434 -2.922 QT
-67.801 -1.422 -70.613 -1.422 QT
-71.66 -1.422 -72.582 -1.578 QT
-73.504 -1.734 -74.363 -2.063 QT
-74.363 -3.984 L
-73.504 -3.5 -72.652 -3.281 QT
-71.801 -3.063 -70.926 -3.063 QT
-68.973 -3.063 -68.012 -4.078 QT
-67.051 -5.094 -67.051 -7.141 QT
-67.051 -8.109 L
-67.66 -7.047 -68.613 -6.523 QT
-69.566 -6 -70.895 -6 QT
-73.113 -6 -74.465 -7.688 QT
-75.816 -9.375 -75.816 -12.156 QT
-75.816 -14.953 -74.465 -16.641 QT
-73.113 -18.328 -70.895 -18.328 QT
-69.566 -18.328 -68.613 -17.797 QT
-67.66 -17.266 -67.051 -16.203 QT
-67.051 -18.031 L
-65.066 -18.031 L
-65.066 -7.5 L
cp
-50.711 -12.516 M
-50.711 -11.547 L
-59.789 -11.547 L
-59.664 -9.5 -58.563 -8.43 QT
-57.461 -7.359 -55.492 -7.359 QT
-54.352 -7.359 -53.289 -7.641 QT
-52.227 -7.922 -51.164 -8.484 QT
-51.164 -6.609 L
-52.227 -6.156 -53.344 -5.922 QT
-54.461 -5.688 -55.617 -5.688 QT
-58.492 -5.688 -60.172 -7.367 QT
-61.852 -9.047 -61.852 -11.891 QT
-61.852 -14.859 -60.258 -16.594 QT
-58.664 -18.328 -55.961 -18.328 QT
-53.523 -18.328 -52.117 -16.766 QT
-50.711 -15.203 -50.711 -12.516 QT
cp
-52.68 -13.094 M
-52.711 -14.719 -53.594 -15.68 QT
-54.477 -16.641 -55.93 -16.641 QT
-57.586 -16.641 -58.586 -15.711 QT
-59.586 -14.781 -59.727 -13.078 QT
-52.68 -13.094 L
cp
-45.504 -21.453 M
-45.504 -18.031 L
-41.441 -18.031 L
-41.441 -16.5 L
-45.504 -16.5 L
-45.504 -9.969 L
-45.504 -8.5 -45.105 -8.078 QT
-44.707 -7.656 -43.473 -7.656 QT
-41.441 -7.656 L
-41.441 -6 L
-43.473 -6 L
-45.754 -6 -46.621 -6.852 QT
-47.488 -7.703 -47.488 -9.969 QT
-47.488 -16.5 L
-48.941 -16.5 L
-48.941 -18.031 L
-47.488 -18.031 L
-47.488 -21.453 L
-45.504 -21.453 L
cp
-31.159 -17.672 M
-31.159 -15.813 L
-32.003 -16.234 -32.909 -16.453 QT
-33.815 -16.672 -34.769 -16.672 QT
-36.253 -16.672 -36.987 -16.219 QT
-37.722 -15.766 -37.722 -14.859 QT
-37.722 -14.172 -37.19 -13.781 QT
-36.659 -13.391 -35.081 -13.031 QT
-34.394 -12.891 L
-32.3 -12.438 -31.409 -11.617 QT
-30.519 -10.797 -30.519 -9.313 QT
-30.519 -7.641 -31.847 -6.664 QT
-33.175 -5.688 -35.487 -5.688 QT
-36.456 -5.688 -37.503 -5.875 QT
-38.55 -6.063 -39.722 -6.438 QT
-39.722 -8.484 L
-38.628 -7.906 -37.558 -7.625 QT
-36.487 -7.344 -35.456 -7.344 QT
-34.05 -7.344 -33.3 -7.82 QT
-32.55 -8.297 -32.55 -9.172 QT
-32.55 -9.969 -33.097 -10.398 QT
-33.644 -10.828 -35.472 -11.234 QT
-36.159 -11.391 L
-38.003 -11.781 -38.815 -12.578 QT
-39.628 -13.375 -39.628 -14.781 QT
-39.628 -16.469 -38.425 -17.398 QT
-37.222 -18.328 -35.019 -18.328 QT
-33.909 -18.328 -32.948 -18.164 QT
-31.987 -18 -31.159 -17.672 QT
cp
-13.407 -16.188 M
-13.735 -16.375 -14.134 -16.469 QT
-14.532 -16.563 -15.001 -16.563 QT
-16.673 -16.563 -17.571 -15.469 QT
-18.47 -14.375 -18.47 -12.344 QT
-18.47 -6 L
-20.454 -6 L
-20.454 -18.031 L
-18.47 -18.031 L
-18.47 -16.156 L
-17.845 -17.266 -16.845 -17.797 QT
-15.845 -18.328 -14.423 -18.328 QT
-14.22 -18.328 -13.97 -18.297 QT
-13.72 -18.266 -13.423 -18.219 QT
-13.407 -16.188 L
cp
-1.05 -12.516 M
-1.05 -11.547 L
-10.128 -11.547 L
-10.003 -9.5 -8.901 -8.43 QT
-7.8 -7.359 -5.831 -7.359 QT
-4.69 -7.359 -3.628 -7.641 QT
-2.565 -7.922 -1.503 -8.484 QT
-1.503 -6.609 L
-2.565 -6.156 -3.683 -5.922 QT
-4.8 -5.688 -5.956 -5.688 QT
-8.831 -5.688 -10.511 -7.367 QT
-12.19 -9.047 -12.19 -11.891 QT
-12.19 -14.859 -10.597 -16.594 QT
-9.003 -18.328 -6.3 -18.328 QT
-3.862 -18.328 -2.456 -16.766 QT
-1.05 -15.203 -1.05 -12.516 QT
cp
-3.019 -13.094 M
-3.05 -14.719 -3.933 -15.68 QT
-4.815 -16.641 -6.269 -16.641 QT
-7.925 -16.641 -8.925 -15.711 QT
-9.925 -14.781 -10.065 -13.078 QT
-3.019 -13.094 L
cp
7.673 -12.047 M
5.267 -12.047 4.345 -11.5 QT
3.423 -10.953 3.423 -9.625 QT
3.423 -8.578 4.118 -7.961 QT
4.813 -7.344 6.001 -7.344 QT
7.642 -7.344 8.634 -8.508 QT
9.626 -9.672 9.626 -11.609 QT
9.626 -12.047 L
7.673 -12.047 L
cp
11.61 -12.859 M
11.61 -6 L
9.626 -6 L
9.626 -7.828 L
8.954 -6.734 7.946 -6.211 QT
6.938 -5.688 5.47 -5.688 QT
3.626 -5.688 2.54 -6.727 QT
1.454 -7.766 1.454 -9.5 QT
1.454 -11.531 2.813 -12.563 QT
4.173 -13.594 6.86 -13.594 QT
9.626 -13.594 L
9.626 -13.781 L
9.626 -15.156 8.735 -15.898 QT
7.845 -16.641 6.22 -16.641 QT
5.188 -16.641 4.212 -16.398 QT
3.235 -16.156 2.329 -15.656 QT
2.329 -17.484 L
3.407 -17.906 4.431 -18.117 QT
5.454 -18.328 6.423 -18.328 QT
9.032 -18.328 10.321 -16.969 QT
11.61 -15.609 11.61 -12.859 QT
cp
24.342 -17.563 M
24.342 -15.719 L
23.498 -16.188 22.654 -16.414 QT
21.811 -16.641 20.951 -16.641 QT
19.029 -16.641 17.967 -15.422 QT
16.904 -14.203 16.904 -12 QT
16.904 -9.797 17.967 -8.578 QT
19.029 -7.359 20.951 -7.359 QT
21.811 -7.359 22.654 -7.594 QT
23.498 -7.828 24.342 -8.281 QT
24.342 -6.469 L
23.514 -6.078 22.623 -5.883 QT
21.732 -5.688 20.748 -5.688 QT
18.029 -5.688 16.428 -7.398 QT
14.826 -9.109 14.826 -12 QT
14.826 -14.953 16.443 -16.641 QT
18.061 -18.328 20.873 -18.328 QT
21.779 -18.328 22.654 -18.141 QT
23.529 -17.953 24.342 -17.563 QT
cp
37.781 -13.266 M
37.781 -6 L
35.797 -6 L
35.797 -13.203 L
35.797 -14.906 35.133 -15.758 QT
34.469 -16.609 33.141 -16.609 QT
31.531 -16.609 30.609 -15.586 QT
29.688 -14.563 29.688 -12.797 QT
29.688 -6 L
27.703 -6 L
27.703 -22.719 L
29.688 -22.719 L
29.688 -16.156 L
30.391 -17.25 31.359 -17.789 QT
32.328 -18.328 33.578 -18.328 QT
35.656 -18.328 36.719 -17.039 QT
37.781 -15.75 37.781 -13.266 QT
cp
52.006 -12.516 M
52.006 -11.547 L
42.928 -11.547 L
43.053 -9.5 44.154 -8.43 QT
45.256 -7.359 47.225 -7.359 QT
48.365 -7.359 49.428 -7.641 QT
50.49 -7.922 51.553 -8.484 QT
51.553 -6.609 L
50.49 -6.156 49.373 -5.922 QT
48.256 -5.688 47.1 -5.688 QT
44.225 -5.688 42.545 -7.367 QT
40.865 -9.047 40.865 -11.891 QT
40.865 -14.859 42.459 -16.594 QT
44.053 -18.328 46.756 -18.328 QT
49.193 -18.328 50.6 -16.766 QT
52.006 -15.203 52.006 -12.516 QT
cp
50.037 -13.094 M
50.006 -14.719 49.123 -15.68 QT
48.24 -16.641 46.787 -16.641 QT
45.131 -16.641 44.131 -15.711 QT
43.131 -14.781 42.99 -13.078 QT
50.037 -13.094 L
cp
63.166 -16.203 M
63.166 -22.719 L
65.15 -22.719 L
65.15 -6 L
63.166 -6 L
63.166 -7.813 L
62.557 -6.734 61.604 -6.211 QT
60.65 -5.688 59.322 -5.688 QT
57.135 -5.688 55.768 -7.43 QT
54.4 -9.172 54.4 -12 QT
54.4 -14.844 55.768 -16.586 QT
57.135 -18.328 59.322 -18.328 QT
60.65 -18.328 61.604 -17.805 QT
62.557 -17.281 63.166 -16.203 QT
cp
56.432 -12 M
56.432 -9.828 57.33 -8.586 QT
58.229 -7.344 59.807 -7.344 QT
61.369 -7.344 62.268 -8.586 QT
63.166 -9.828 63.166 -12 QT
63.166 -14.188 62.268 -15.43 QT
61.369 -16.672 59.807 -16.672 QT
58.229 -16.672 57.33 -15.43 QT
56.432 -14.188 56.432 -12 QT
cp
76.03 -22.719 M
80.593 -22.719 L
80.593 -21.172 L
78.015 -21.172 L
78.015 -4.641 L
80.593 -4.641 L
80.593 -3.094 L
76.03 -3.094 L
76.03 -22.719 L
cp
98.723 -13.063 M
97.785 -13.063 97.254 -12.266 QT
96.723 -11.469 96.723 -10.047 QT
96.723 -8.656 97.254 -7.852 QT
97.785 -7.047 98.723 -7.047 QT
99.629 -7.047 100.16 -7.852 QT
100.691 -8.656 100.691 -10.047 QT
100.691 -11.453 100.16 -12.258 QT
99.629 -13.063 98.723 -13.063 QT
cp
98.723 -14.422 M
100.41 -14.422 101.41 -13.242 QT
102.41 -12.063 102.41 -10.047 QT
102.41 -8.047 101.41 -6.867 QT
100.41 -5.688 98.723 -5.688 QT
97.004 -5.688 96.004 -6.867 QT
95.004 -8.047 95.004 -10.047 QT
95.004 -12.063 96.004 -13.242 QT
97.004 -14.422 98.723 -14.422 QT
cp
87.629 -20.969 M
86.707 -20.969 86.176 -20.164 QT
85.645 -19.359 85.645 -17.969 QT
85.645 -16.547 86.168 -15.75 QT
86.691 -14.953 87.629 -14.953 QT
88.566 -14.953 89.098 -15.75 QT
89.629 -16.547 89.629 -17.969 QT
89.629 -19.359 89.09 -20.164 QT
88.551 -20.969 87.629 -20.969 QT
cp
97.332 -22.328 M
99.051 -22.328 L
89.02 -5.688 L
87.301 -5.688 L
97.332 -22.328 L
cp
87.629 -22.328 M
89.332 -22.328 90.34 -21.148 QT
91.348 -19.969 91.348 -17.969 QT
91.348 -15.938 90.348 -14.766 QT
89.348 -13.594 87.629 -13.594 QT
85.926 -13.594 84.934 -14.773 QT
83.941 -15.953 83.941 -17.969 QT
83.941 -19.969 84.941 -21.148 QT
85.941 -22.328 87.629 -22.328 QT
cp
110.314 -22.719 M
110.314 -3.094 L
105.768 -3.094 L
105.768 -4.641 L
108.33 -4.641 L
108.33 -21.172 L
105.768 -21.172 L
105.768 -22.719 L
110.314 -22.719 L
cp
f
GR
GS
0 0.447 0.741 RC
1 LJ
0.5 LW
N
169.525 154.128 M
169.913 96.326 L
170.3 74.306 L
170.688 74.306 L
171.075 88.619 L
171.462 122.016 L
171.85 163.762 L
172.238 55.222 L
172.625 110.088 L
173.012 74.306 L
173.4 105.317 L
173.788 66.355 L
174.175 88.619 L
174.563 101.143 L
174.95 80.27 L
175.337 110.088 L
175.725 78.073 L
176.113 127.98 L
176.5 62.379 L
176.887 48.96 L
177.275 94.185 L
177.663 66.355 L
178.05 51.707 L
178.438 49.909 L
178.825 38.524 L
179.212 66.355 L
179.6 60.304 L
179.988 58.562 L
180.375 47.161 L
180.762 46.604 L
181.15 64.89 L
181.538 46.873 L
181.925 48.96 L
182.313 38.524 L
182.7 45.68 L
183.087 45.891 L
183.475 38.524 L
183.863 38.524 L
184.25 38.524 L
184.637 38.524 L
185.025 38.524 L
185.413 38.524 L
185.8 38.524 L
186.188 38.524 L
186.575 38.524 L
186.962 38.524 L
187.35 38.524 L
187.738 38.524 L
188.125 38.524 L
188.512 38.524 L
188.9 38.524 L
189.288 38.524 L
189.675 38.524 L
190.063 38.524 L
190.45 38.524 L
190.837 38.524 L
191.225 38.524 L
191.613 38.524 L
192 38.524 L
192.387 38.524 L
192.775 38.524 L
193.163 38.524 L
193.55 38.524 L
193.938 38.524 L
194.325 38.524 L
194.712 45.68 L
195.1 38.524 L
195.488 38.524 L
195.875 38.524 L
196.262 38.524 L
196.65 38.524 L
197.038 38.524 L
197.425 38.524 L
197.813 38.524 L
198.2 38.524 L
198.587 38.524 L
198.975 38.524 L
199.363 38.524 L
199.75 38.524 L
200.137 38.524 L
200.525 38.524 L
200.913 38.524 L
201.3 38.524 L
201.688 38.524 L
202.075 38.524 L
202.462 74.306 L
202.85 48.543 L
203.238 38.524 L
203.625 38.524 L
204.012 38.524 L
204.4 38.524 L
204.788 38.524 L
205.175 38.524 L
205.563 38.524 L
205.95 38.524 L
206.337 38.524 L
206.725 38.524 L
207.113 38.524 L
207.5 38.524 L
207.887 38.524 L
208.275 38.524 L
208.663 52.439 L
209.05 38.524 L
209.438 38.524 L
209.825 38.524 L
210.212 49.414 L
210.6 38.524 L
210.988 38.524 L
211.375 38.524 L
211.762 38.524 L
212.15 38.524 L
212.538 48.543 L
212.925 38.524 L
213.313 38.524 L
213.7 38.524 L
214.087 48.96 L
214.475 38.524 L
214.863 38.524 L
215.25 38.524 L
215.637 38.524 L
216.025 38.524 L
216.413 38.524 L
216.8 38.524 L
217.188 38.524 L
217.575 50.451 L
217.962 38.524 L
218.35 51.048 L
218.738 38.524 L
219.125 38.524 L
219.512 38.524 L
219.9 38.524 L
220.288 38.524 L
220.675 49.909 L
221.063 38.524 L
221.45 47.469 L
221.837 38.524 L
222.225 48.158 L
222.613 38.524 L
223 80.27 L
223.387 38.524 L
223.775 47.801 L
224.163 51.048 L
224.55 38.524 L
224.938 63.571 L
225.325 51.048 L
225.712 53.258 L
226.1 48.158 L
226.488 71.921 L
226.875 38.524 L
227.262 38.524 L
227.65 51.707 L
228.038 50.451 L
228.425 38.524 L
228.813 69.833 L
229.2 56.415 L
229.587 58.562 L
229.975 49.909 L
230.363 48.96 L
230.75 38.524 L
231.137 38.524 L
231.525 51.048 L
231.913 38.524 L
232.3 49.414 L
232.688 69.833 L
233.075 51.707 L
233.462 49.414 L
233.85 38.524 L
234.238 50.451 L
234.625 38.524 L
235.012 51.048 L
235.4 38.524 L
235.788 38.524 L
236.175 38.524 L
236.563 38.524 L
236.95 38.524 L
237.337 66.355 L
237.725 51.048 L
238.113 38.524 L
238.5 38.524 L
238.887 63.571 L
239.275 38.524 L
239.663 38.524 L
240.05 38.524 L
240.438 38.524 L
240.825 54.179 L
241.212 38.524 L
241.6 38.524 L
241.988 38.524 L
242.375 54.179 L
242.762 51.707 L
243.15 38.524 L
243.538 50.451 L
243.925 101.143 L
244.313 96.326 L
244.7 48.96 L
245.087 67.992 L
245.475 74.306 L
245.863 38.524 L
246.25 101.143 L
246.637 96.326 L
247.025 66.355 L
247.413 66.355 L
247.8 67.992 L
248.188 38.524 L
248.575 67.992 L
248.962 76.095 L
249.35 38.524 L
249.738 50.451 L
250.125 92.197 L
250.512 38.524 L
250.9 38.524 L
251.288 78.073 L
251.675 113.667 L
252.063 78.073 L
252.45 122.016 L
252.837 88.619 L
253.225 71.921 L
253.613 106.836 L
254 122.016 L
254.387 142.889 L
254.775 51.707 L
255.163 56.415 L
255.55 69.833 L
255.938 129.606 L
256.325 92.197 L
256.712 69.833 L
257.1 138.714 L
257.487 92.197 L
257.875 101.143 L
258.263 84.065 L
258.65 92.197 L
259.038 113.667 L
259.425 138.714 L
259.813 115.593 L
260.2 101.143 L
260.587 69.833 L
260.975 113.667 L
261.362 113.667 L
261.75 71.921 L
262.138 74.306 L
262.525 92.197 L
262.913 113.667 L
263.3 101.143 L
263.688 77.059 L
264.075 105.317 L
264.462 84.065 L
264.85 57.791 L
265.237 122.016 L
265.625 106.836 L
266.013 51.707 L
266.4 77.059 L
266.788 74.306 L
267.175 132.452 L
267.563 55.222 L
267.95 52.439 L
268.337 96.326 L
268.725 122.016 L
269.112 96.326 L
269.5 57.791 L
269.888 106.836 L
270.275 71.921 L
270.663 38.524 L
271.05 149.847 L
271.438 84.065 L
271.825 129.606 L
272.212 96.326 L
272.6 113.667 L
272.987 57.791 L
273.375 152.377 L
273.763 55.222 L
274.15 85.488 L
274.538 69.833 L
274.925 96.326 L
275.313 110.088 L
275.7 69.833 L
276.087 51.707 L
276.475 74.306 L
276.862 63.571 L
277.25 66.355 L
277.638 72.68 L
278.025 77.059 L
278.413 163.762 L
278.8 92.197 L
279.188 113.667 L
279.575 142.889 L
279.962 77.059 L
280.35 113.667 L
280.737 77.059 L
281.125 122.016 L
281.513 56.415 L
281.9 38.524 L
282.288 61.294 L
282.675 38.524 L
283.063 106.836 L
283.45 77.059 L
283.837 38.524 L
284.225 67.992 L
284.612 69.833 L
285 38.524 L
285.388 96.326 L
285.775 80.27 L
286.163 55.222 L
286.55 66.355 L
286.938 96.326 L
287.325 149.847 L
287.712 69.833 L
288.1 85.488 L
288.487 106.836 L
288.875 38.524 L
289.263 113.667 L
289.65 96.326 L
290.038 132.452 L
290.425 205.508 L
290.813 113.667 L
291.2 59.397 L
291.587 129.606 L
291.975 122.016 L
292.362 149.847 L
292.75 101.143 L
293.138 177.677 L
293.525 163.762 L
293.913 110.088 L
294.3 177.677 L
294.688 116.798 L
295.075 253.218 L
295.462 175.147 L
295.85 149.847 L
296.237 163.762 L
296.625 247.254 L
297.013 195.071 L
297.4 152.377 L
297.788 195.071 L
298.175 57.791 L
298.563 195.071 L
298.95 56.415 L
299.337 142.889 L
299.725 247.254 L
300.112 205.508 L
300.5 101.143 L
300.888 122.016 L
301.275 101.143 L
301.663 69.833 L
302.05 74.306 L
302.438 129.606 L
302.825 74.306 L
303.212 129.606 L
303.6 77.059 L
303.987 106.836 L
304.375 96.326 L
304.763 101.143 L
305.15 101.143 L
305.538 113.667 L
305.925 80.27 L
306.313 97.459 L
306.7 195.071 L
307.087 205.508 L
307.475 253.218 L
307.862 113.667 L
308.25 163.762 L
308.638 127.98 L
309.025 122.016 L
309.413 80.27 L
309.8 84.065 L
310.188 195.071 L
310.575 205.508 L
310.962 149.847 L
311.35 149.847 L
311.737 88.619 L
312.125 122.016 L
312.513 152.377 L
312.9 217.435 L
313.288 205.508 L
313.675 177.677 L
314.063 122.016 L
314.45 94.185 L
314.837 152.377 L
315.225 110.088 L
315.612 181.653 L
316 152.377 L
316.388 152.377 L
316.775 181.653 L
317.163 163.762 L
317.55 177.677 L
317.938 113.667 L
318.325 188.81 L
318.712 177.677 L
319.1 226.381 L
319.487 152.377 L
319.875 163.762 L
320.263 115.593 L
320.65 88.619 L
321.038 71.921 L
321.425 163.762 L
321.813 152.377 L
322.2 177.677 L
322.587 84.065 L
322.975 129.606 L
323.362 122.016 L
323.75 77.059 L
324.138 129.606 L
324.525 71.921 L
324.913 289 L
325.3 226.381 L
325.688 226.381 L
326.075 129.606 L
326.462 195.071 L
326.85 175.147 L
327.237 195.071 L
327.625 188.81 L
328.013 138.714 L
328.4 177.677 L
328.788 129.606 L
329.175 129.606 L
329.563 188.81 L
329.95 142.889 L
330.337 177.677 L
330.725 163.762 L
331.112 253.218 L
331.5 149.847 L
331.888 129.606 L
332.275 122.016 L
332.663 188.81 L
333.05 106.836 L
333.438 149.847 L
333.825 113.667 L
334.212 138.714 L
334.6 163.762 L
334.987 226.381 L
335.375 177.677 L
335.763 77.059 L
336.15 253.218 L
336.538 163.762 L
336.925 217.435 L
337.313 195.071 L
337.7 177.677 L
338.087 217.435 L
338.475 163.762 L
338.862 195.071 L
339.25 226.381 L
339.638 177.677 L
340.025 226.381 L
340.413 138.714 L
340.8 163.762 L
341.188 138.714 L
341.575 163.762 L
341.962 177.677 L
342.35 152.377 L
342.737 101.143 L
343.125 213.857 L
343.513 106.836 L
343.9 217.435 L
344.288 149.847 L
344.675 188.81 L
345.063 195.071 L
345.45 175.147 L
345.837 113.667 L
346.225 177.677 L
346.612 122.016 L
347 217.435 L
347.388 177.677 L
347.775 177.677 L
348.163 163.762 L
348.55 113.667 L
348.938 163.762 L
349.325 80.27 L
349.712 205.508 L
350.1 195.071 L
350.487 205.508 L
350.875 163.762 L
351.263 177.677 L
351.65 195.071 L
352.038 177.677 L
352.425 149.847 L
352.813 289 L
353.2 253.218 L
353.587 253.218 L
353.975 195.071 L
354.362 253.218 L
354.75 177.677 L
355.138 253.218 L
355.525 177.677 L
355.913 138.714 L
356.3 163.762 L
356.688 226.381 L
357.075 149.847 L
357.462 226.381 L
357.85 113.667 L
358.237 152.377 L
358.625 217.435 L
359.013 217.435 L
359.4 195.071 L
359.788 289 L
360.175 177.677 L
360.563 142.889 L
360.95 253.218 L
361.337 138.714 L
361.725 226.381 L
362.112 195.071 L
362.5 138.714 L
362.888 163.762 L
363.275 233.339 L
363.663 226.381 L
364.05 253.218 L
364.438 226.381 L
364.825 188.81 L
365.212 253.218 L
365.6 226.381 L
365.987 253.218 L
366.375 217.435 L
366.763 113.667 L
367.15 195.071 L
367.538 217.435 L
367.925 213.857 L
368.313 226.381 L
368.7 205.508 L
369.087 217.435 L
369.475 253.218 L
369.862 205.508 L
370.25 253.218 L
370.638 152.377 L
371.025 195.071 L
371.413 163.762 L
371.8 177.677 L
372.188 205.508 L
372.575 289 L
372.962 142.889 L
373.35 253.218 L
373.737 205.508 L
374.125 134.861 L
374.513 205.508 L
374.9 163.762 L
375.288 129.606 L
375.675 152.377 L
376.063 253.218 L
376.45 289 L
376.837 122.016 L
377.225 195.071 L
377.612 122.016 L
378 177.677 L
378.388 195.071 L
378.775 177.677 L
379.163 253.218 L
379.55 205.508 L
379.938 289 L
380.325 205.508 L
380.712 63.571 L
381.1 253.218 L
381.487 152.377 L
381.875 289 L
382.263 205.508 L
382.65 226.381 L
383.038 205.508 L
383.425 163.762 L
383.813 163.762 L
384.2 177.677 L
384.587 253.218 L
384.975 195.071 L
385.362 195.071 L
385.75 257.69 L
386.138 138.714 L
386.525 253.218 L
386.913 253.218 L
387.3 253.218 L
387.688 205.508 L
388.075 289 L
388.462 226.381 L
388.85 226.381 L
389.237 257.69 L
389.625 152.377 L
390.013 195.071 L
390.4 188.81 L
390.788 247.254 L
391.175 233.339 L
391.563 226.381 L
391.95 253.218 L
392.337 163.762 L
392.725 289 L
393.112 253.218 L
393.5 253.218 L
393.888 289 L
394.275 138.714 L
394.663 188.81 L
395.05 129.606 L
395.438 188.81 L
395.825 177.677 L
396.212 253.218 L
396.6 138.714 L
396.987 195.071 L
397.375 138.714 L
397.763 217.435 L
398.15 142.889 L
398.538 195.071 L
398.925 217.435 L
399.313 257.69 L
399.7 163.762 L
400.087 253.218 L
400.475 226.381 L
400.862 149.847 L
401.25 188.81 L
401.638 226.381 L
402.025 195.071 L
402.413 163.762 L
402.8 226.381 L
403.188 205.508 L
403.575 177.677 L
403.962 226.381 L
404.35 142.889 L
404.737 152.377 L
405.125 253.218 L
405.513 142.889 L
405.9 253.218 L
406.288 257.69 L
406.675 205.508 L
407.063 163.762 L
407.45 163.762 L
407.837 80.27 L
408.225 205.508 L
408.612 253.218 L
409 226.381 L
409.388 257.69 L
409.775 177.677 L
410.163 205.508 L
410.55 195.071 L
410.938 205.508 L
411.325 217.435 L
411.712 205.508 L
412.1 253.218 L
412.487 226.381 L
412.875 226.381 L
413.263 257.69 L
413.65 226.381 L
414.038 226.381 L
414.425 132.452 L
414.813 163.762 L
415.2 163.762 L
415.587 101.143 L
415.975 226.381 L
416.362 152.377 L
416.75 122.016 L
417.138 149.847 L
417.525 289 L
417.913 163.762 L
418.3 195.071 L
418.688 217.435 L
419.075 226.381 L
419.462 205.508 L
419.85 253.218 L
420.237 195.071 L
420.625 289 L
421.013 257.69 L
421.4 138.714 L
421.788 195.071 L
422.175 205.508 L
422.563 226.381 L
422.95 253.218 L
423.337 163.762 L
423.725 257.69 L
424.112 226.381 L
424.5 257.69 L
424.888 181.653 L
425.275 253.218 L
425.663 142.889 L
426.05 195.071 L
426.438 257.69 L
426.825 289 L
427.212 226.381 L
427.6 289 L
427.987 195.071 L
428.375 217.435 L
428.763 253.218 L
429.15 205.508 L
429.538 226.381 L
429.925 226.381 L
430.313 163.762 L
430.7 253.218 L
431.087 195.071 L
431.475 257.69 L
431.862 253.218 L
432.25 253.218 L
432.638 177.677 L
433.025 226.381 L
433.413 289 L
433.8 181.653 L
434.188 205.508 L
434.575 149.847 L
434.962 195.071 L
435.35 205.508 L
435.737 177.677 L
436.125 195.071 L
436.513 253.218 L
436.9 253.218 L
437.288 289 L
437.675 247.254 L
438.063 226.381 L
438.45 289 L
438.837 253.218 L
439.225 253.218 L
439.612 257.69 L
440 289 L
440.388 217.435 L
440.775 257.69 L
441.163 195.071 L
441.55 195.071 L
441.938 289 L
442.325 257.69 L
442.712 177.677 L
443.1 253.218 L
443.487 257.69 L
443.875 289 L
444.263 188.81 L
444.65 226.381 L
445.038 138.714 L
445.425 226.381 L
445.813 289 L
446.2 205.508 L
446.587 253.218 L
446.975 257.69 L
447.362 226.381 L
447.75 226.381 L
448.138 127.98 L
448.525 195.071 L
448.913 149.847 L
449.3 205.508 L
449.688 226.381 L
450.075 145.871 L
450.462 289 L
450.85 226.381 L
451.237 253.218 L
451.625 195.071 L
452.013 253.218 L
452.4 289 L
452.788 226.381 L
453.175 195.071 L
453.563 122.016 L
453.95 226.381 L
454.337 226.381 L
454.725 257.69 L
455.112 253.218 L
455.5 195.071 L
455.888 226.381 L
456.275 226.381 L
456.663 253.218 L
457.05 195.071 L
457.438 253.218 L
457.825 226.381 L
458.212 217.435 L
458.6 188.81 L
458.987 195.071 L
459.375 226.381 L
459.763 177.677 L
460.15 233.339 L
460.538 226.381 L
460.925 289 L
461.313 152.377 L
461.7 138.714 L
462.087 152.377 L
462.475 152.377 L
462.862 177.677 L
463.25 163.762 L
463.638 217.435 L
464.025 175.147 L
464.413 253.218 L
464.8 257.69 L
465.188 253.218 L
465.575 289 L
465.962 253.218 L
466.35 253.218 L
466.737 253.218 L
467.125 253.218 L
467.513 289 L
467.9 253.218 L
468.288 195.071 L
468.675 226.381 L
469.063 257.69 L
469.45 129.606 L
469.837 195.071 L
470.225 195.071 L
470.612 253.218 L
471 205.508 L
471.388 122.016 L
471.775 181.653 L
472.163 253.218 L
472.55 163.762 L
472.938 163.762 L
473.325 177.677 L
473.712 226.381 L
474.1 177.677 L
474.487 257.69 L
474.875 149.847 L
475.263 195.071 L
475.65 289 L
476.038 289 L
476.425 177.677 L
476.813 205.508 L
477.2 253.218 L
477.587 253.218 L
477.975 177.677 L
478.362 226.381 L
478.75 253.218 L
479.138 289 L
479.525 233.339 L
479.913 175.147 L
480.3 152.377 L
480.688 92.197 L
481.075 253.218 L
481.462 289 L
481.85 205.508 L
482.237 177.677 L
482.625 188.81 L
483.013 217.435 L
483.4 289 L
483.788 233.339 L
484.175 226.381 L
484.563 289 L
484.95 177.677 L
485.337 253.218 L
485.725 152.377 L
486.112 205.508 L
486.5 257.69 L
486.888 195.071 L
487.275 188.81 L
487.663 289 L
488.05 257.69 L
488.438 226.381 L
488.825 177.677 L
489.212 289 L
489.6 226.381 L
489.987 289 L
490.375 175.147 L
490.763 205.508 L
491.15 226.381 L
491.538 253.218 L
491.925 253.218 L
492.313 205.508 L
492.7 149.847 L
493.087 205.508 L
493.475 289 L
493.862 257.69 L
494.25 253.218 L
494.638 253.218 L
495.025 226.381 L
495.413 213.857 L
495.8 177.677 L
496.188 205.508 L
496.575 177.677 L
496.962 233.339 L
497.35 253.218 L
497.737 233.339 L
498.125 289 L
498.513 257.69 L
498.9 253.218 L
499.288 253.218 L
499.675 257.69 L
500.063 177.677 L
500.45 195.071 L
500.837 163.762 L
501.225 122.016 L
501.612 226.381 L
502 188.81 L
502.388 195.071 L
502.775 163.762 L
503.163 195.071 L
503.55 257.69 L
503.938 177.677 L
504.325 257.69 L
504.712 217.435 L
505.1 253.218 L
505.487 253.218 L
505.875 289 L
506.263 163.762 L
506.65 217.435 L
507.038 257.69 L
507.425 177.677 L
507.813 195.071 L
508.2 233.339 L
508.587 163.762 L
508.975 253.218 L
509.362 226.381 L
509.75 177.677 L
510.138 195.071 L
510.525 163.762 L
510.913 253.218 L
511.3 257.69 L
511.688 253.218 L
512.075 205.508 L
512.463 226.381 L
512.85 226.381 L
513.237 226.381 L
513.625 253.218 L
514.013 257.69 L
514.4 149.847 L
514.787 188.81 L
515.175 163.762 L
515.563 257.69 L
515.95 177.677 L
516.338 289 L
516.725 257.69 L
517.112 205.508 L
517.5 195.071 L
517.888 253.218 L
518.275 253.218 L
518.662 122.016 L
519.05 217.435 L
519.438 253.218 L
519.825 188.81 L
520.213 177.677 L
520.6 253.218 L
520.987 177.677 L
521.375 253.218 L
521.763 205.508 L
522.15 226.381 L
522.537 195.071 L
522.925 163.762 L
523.313 177.677 L
523.7 195.071 L
524.088 142.889 L
524.475 188.81 L
524.862 205.508 L
525.25 138.714 L
525.638 233.339 L
526.025 188.81 L
526.412 217.435 L
526.8 257.69 L
527.188 217.435 L
527.575 205.508 L
527.963 253.218 L
528.35 163.762 L
528.737 188.81 L
529.125 188.81 L
529.513 253.218 L
529.9 217.435 L
530.287 142.889 L
530.675 163.762 L
531.063 257.69 L
531.45 205.508 L
531.838 226.381 L
532.225 226.381 L
532.612 205.508 L
533 217.435 L
533.388 289 L
533.775 205.508 L
534.162 289 L
534.55 289 L
534.938 226.381 L
535.325 188.81 L
535.713 226.381 L
536.1 289 L
536.487 253.218 L
536.875 233.339 L
537.263 289 L
537.65 181.653 L
538.037 257.69 L
538.425 253.218 L
538.813 226.381 L
539.2 233.339 L
539.588 205.508 L
539.975 205.508 L
540.362 181.653 L
540.75 233.339 L
541.138 163.762 L
541.525 188.81 L
541.912 257.69 L
542.3 163.762 L
542.688 181.653 L
543.075 253.218 L
543.463 226.381 L
543.85 257.69 L
544.237 149.847 L
544.625 163.762 L
545.013 163.762 L
545.4 289 L
545.787 217.435 L
546.175 213.857 L
546.563 177.677 L
546.95 253.218 L
547.338 226.381 L
547.725 233.339 L
548.112 253.218 L
548.5 226.381 L
548.888 226.381 L
549.275 289 L
549.662 197.918 L
550.05 177.677 L
550.438 188.81 L
550.825 106.836 L
551.213 175.147 L
551.6 163.762 L
551.987 106.836 L
552.375 188.81 L
552.763 175.147 L
553.15 289 L
553.537 257.69 L
553.925 188.81 L
554.313 195.071 L
554.7 205.508 L
555.088 226.381 L
555.475 253.218 L
555.862 177.677 L
556.25 195.071 L
556.638 163.762 L
557.025 226.381 L
557.412 253.218 L
557.8 163.762 L
558.188 175.147 L
558.575 289 L
558.963 205.508 L
559.35 205.508 L
559.737 253.218 L
560.125 142.889 L
560.513 253.218 L
560.9 253.218 L
561.287 217.435 L
561.675 177.677 L
562.063 217.435 L
562.45 257.69 L
562.838 289 L
563.225 253.218 L
563.612 253.218 L
564 253.218 L
564.388 152.377 L
564.775 226.381 L
565.162 226.381 L
565.55 205.508 L
565.938 177.677 L
566.325 195.071 L
566.713 115.593 L
567.1 152.377 L
567.487 113.667 L
567.875 177.677 L
568.263 195.071 L
568.65 175.147 L
569.037 205.508 L
569.425 142.889 L
569.813 188.81 L
570.2 226.381 L
570.588 289 L
570.975 226.381 L
571.362 163.762 L
571.75 226.381 L
572.138 188.81 L
572.525 205.508 L
572.912 177.677 L
573.3 163.762 L
573.688 253.218 L
574.075 188.81 L
574.463 233.339 L
574.85 253.218 L
575.237 177.677 L
575.625 253.218 L
576.013 226.381 L
576.4 257.69 L
576.787 226.381 L
577.175 205.508 L
577.563 253.218 L
577.95 154.128 L
578.338 253.218 L
578.725 257.69 L
579.112 226.381 L
579.5 152.377 L
579.888 247.254 L
580.275 213.857 L
580.662 138.714 L
581.05 177.677 L
581.438 233.339 L
581.825 226.381 L
582.213 138.714 L
582.6 142.889 L
582.987 289 L
583.375 289 L
583.763 188.81 L
584.15 163.762 L
584.537 152.377 L
584.925 247.254 L
585.313 257.69 L
585.7 195.071 L
586.088 188.81 L
586.475 217.435 L
586.862 233.339 L
587.25 217.435 L
587.638 205.508 L
588.025 134.861 L
588.412 195.071 L
588.8 213.857 L
589.188 226.381 L
589.575 253.218 L
589.963 226.381 L
590.35 195.071 L
590.737 233.339 L
591.125 163.762 L
591.513 205.508 L
591.9 163.762 L
592.287 289 L
592.675 195.071 L
593.063 177.677 L
593.45 257.69 L
593.838 149.847 L
594.225 149.847 L
594.612 257.69 L
595 226.381 L
595.388 289 L
595.775 289 L
596.162 253.218 L
596.55 226.381 L
596.938 205.508 L
597.325 177.677 L
597.713 226.381 L
598.1 226.381 L
598.487 289 L
598.875 205.508 L
599.263 205.508 L
599.65 152.377 L
600.037 177.677 L
600.425 226.381 L
600.813 226.381 L
601.2 226.381 L
601.588 205.508 L
601.975 217.435 L
602.362 152.377 L
602.75 152.377 L
603.138 253.218 L
603.525 177.677 L
603.912 289 L
604.3 253.218 L
604.688 142.889 L
605.075 226.381 L
605.463 177.677 L
605.85 138.714 L
606.237 163.762 L
606.625 177.677 L
607.013 142.889 L
607.4 226.381 L
607.787 217.435 L
608.175 205.508 L
608.563 205.508 L
608.95 217.435 L
609.338 217.435 L
609.725 188.81 L
610.112 175.147 L
610.5 253.218 L
610.888 177.677 L
611.275 149.847 L
611.662 177.677 L
612.05 138.714 L
612.438 226.381 L
612.825 217.435 L
613.213 226.381 L
613.6 188.81 L
613.987 163.762 L
614.375 253.218 L
614.763 257.69 L
615.15 257.69 L
615.537 195.071 L
615.925 149.847 L
616.313 152.377 L
616.7 289 L
617.088 195.071 L
617.475 188.81 L
617.862 163.762 L
618.25 177.677 L
618.638 177.677 L
619.025 253.218 L
619.412 257.69 L
619.8 226.381 L
620.188 205.508 L
620.575 163.762 L
620.963 253.218 L
621.35 226.381 L
621.737 253.218 L
622.125 177.677 L
622.513 188.81 L
622.9 163.762 L
623.287 205.508 L
623.675 226.381 L
624.063 188.81 L
624.45 247.254 L
624.838 205.508 L
625.225 113.667 L
625.612 195.071 L
626 188.81 L
626.388 253.218 L
626.775 188.81 L
627.162 226.381 L
627.55 138.714 L
627.938 177.677 L
628.325 226.381 L
628.713 233.339 L
629.1 226.381 L
629.487 195.071 L
629.875 115.593 L
630.263 195.071 L
630.65 226.381 L
631.037 152.377 L
631.425 138.714 L
631.813 181.653 L
632.2 226.381 L
632.588 149.847 L
632.975 138.714 L
633.362 226.381 L
633.75 138.714 L
634.138 253.218 L
634.525 205.508 L
634.912 253.218 L
635.3 138.714 L
635.688 188.81 L
636.075 163.762 L
636.463 253.218 L
636.85 177.677 L
637.237 163.762 L
637.625 177.677 L
638.013 226.381 L
638.4 163.762 L
638.787 247.254 L
639.175 197.918 L
639.563 149.847 L
639.95 195.071 L
640.338 149.847 L
640.725 226.381 L
641.112 253.218 L
641.5 152.377 L
641.888 226.381 L
642.275 177.677 L
642.662 177.677 L
643.05 195.071 L
643.438 152.377 L
643.825 163.762 L
644.213 152.377 L
644.6 195.071 L
644.987 195.071 L
645.375 233.339 L
645.763 188.81 L
646.15 253.218 L
646.537 205.508 L
646.925 289 L
647.313 226.381 L
647.7 205.508 L
648.088 233.339 L
648.475 188.81 L
648.862 195.071 L
649.25 233.339 L
649.638 217.435 L
650.025 163.762 L
650.412 115.593 L
650.8 195.071 L
651.188 149.847 L
651.575 205.508 L
651.963 253.218 L
652.35 175.147 L
652.737 253.218 L
653.125 205.508 L
653.513 217.435 L
653.9 205.508 L
654.287 257.69 L
654.675 149.847 L
655.063 289 L
655.45 205.508 L
655.838 163.762 L
656.225 257.69 L
656.612 195.071 L
657 195.071 L
657.388 205.508 L
657.775 289 L
658.162 205.508 L
658.55 226.381 L
658.938 289 L
659.325 289 L
659.713 253.218 L
660.1 217.435 L
660.487 213.857 L
660.875 142.889 L
661.263 188.81 L
661.65 247.254 L
662.037 152.377 L
662.425 163.762 L
662.813 195.071 L
663.2 233.339 L
663.588 226.381 L
663.975 177.677 L
664.362 134.861 L
664.75 253.218 L
665.138 233.339 L
665.525 253.218 L
665.912 289 L
666.3 226.381 L
666.688 289 L
667.075 129.606 L
667.463 205.508 L
667.85 226.381 L
668.237 163.762 L
668.625 122.016 L
669.013 257.69 L
669.4 205.508 L
669.787 226.381 L
670.175 163.762 L
670.563 188.81 L
670.95 177.677 L
671.338 145.871 L
671.725 142.889 L
672.112 129.606 L
672.5 142.889 L
672.888 247.254 L
673.275 226.381 L
673.662 226.381 L
674.05 177.677 L
674.438 289 L
674.825 142.889 L
675.213 138.714 L
675.6 177.677 L
675.987 217.435 L
676.375 129.606 L
676.763 177.677 L
677.15 163.762 L
677.537 129.606 L
677.925 226.381 L
678.313 142.889 L
678.7 177.677 L
679.088 152.377 L
679.475 253.218 L
679.862 217.435 L
680.25 289 L
680.638 253.218 L
681.025 175.147 L
681.412 177.677 L
681.8 257.69 L
682.188 177.677 L
682.575 226.381 L
682.963 177.677 L
683.35 142.889 L
683.737 205.508 L
684.125 177.677 L
684.513 127.98 L
684.9 163.762 L
685.287 149.847 L
685.675 205.508 L
686.063 163.762 L
686.45 205.508 L
686.838 129.606 L
687.225 226.381 L
687.612 149.847 L
688 247.254 L
688.388 188.81 L
688.775 226.381 L
689.162 163.762 L
689.55 152.377 L
689.938 226.381 L
690.325 177.677 L
690.713 177.677 L
691.1 226.381 L
691.487 181.653 L
691.875 205.508 L
692.263 195.071 L
692.65 217.435 L
693.037 205.508 L
693.425 195.071 L
693.813 188.81 L
694.2 163.762 L
694.588 163.762 L
694.975 253.218 L
695.362 205.508 L
695.75 138.714 L
696.138 129.606 L
696.525 177.677 L
696.912 88.619 L
697.3 177.677 L
697.688 152.377 L
698.075 163.762 L
698.463 226.381 L
698.85 253.218 L
699.237 177.677 L
699.625 113.667 L
700.013 152.377 L
700.4 177.677 L
700.787 253.218 L
701.175 226.381 L
701.563 195.071 L
701.95 175.147 L
702.338 217.435 L
702.725 226.381 L
703.112 188.81 L
703.5 163.762 L
703.888 138.714 L
704.275 226.381 L
704.662 175.147 L
705.05 163.762 L
705.438 226.381 L
705.825 177.677 L
706.213 152.377 L
706.6 177.677 L
706.987 177.677 L
707.375 226.381 L
707.763 205.508 L
708.15 142.889 L
708.537 247.254 L
708.925 188.81 L
709.313 205.508 L
709.7 217.435 L
710.088 188.81 L
710.475 195.071 L
710.862 175.147 L
711.25 253.218 L
711.638 195.071 L
712.025 163.762 L
712.412 175.147 L
712.8 177.677 L
713.188 253.218 L
713.575 205.508 L
713.963 205.508 L
714.35 247.254 L
714.737 257.69 L
715.125 177.677 L
715.513 175.147 L
715.9 226.381 L
716.287 253.218 L
716.675 177.677 L
717.063 205.508 L
717.45 226.381 L
717.838 226.381 L
718.225 188.81 L
718.612 205.508 L
719 152.377 L
719.388 226.381 L
719.775 106.836 L
720.162 205.508 L
720.55 205.508 L
720.938 253.218 L
721.325 177.677 L
721.713 253.218 L
722.1 226.381 L
722.487 205.508 L
722.875 226.381 L
723.263 226.381 L
723.65 289 L
724.037 257.69 L
724.425 177.677 L
724.813 226.381 L
725.2 253.218 L
725.588 152.377 L
725.975 96.326 L
726.362 195.071 L
726.75 253.218 L
727.138 134.861 L
727.525 253.218 L
727.912 289 L
728.3 132.452 L
728.688 175.147 L
729.075 217.435 L
729.463 188.81 L
729.85 195.071 L
730.237 205.508 L
730.625 163.762 L
731.013 205.508 L
731.4 138.714 L
731.787 257.69 L
732.175 138.714 L
732.563 188.81 L
732.95 226.381 L
733.338 257.69 L
733.725 177.677 L
734.112 253.218 L
734.5 205.508 L
734.888 205.508 L
735.275 149.847 L
735.662 253.218 L
736.05 205.508 L
736.438 177.677 L
736.825 188.81 L
737.213 257.69 L
737.6 217.435 L
737.987 205.508 L
738.375 257.69 L
738.763 226.381 L
739.15 253.218 L
739.537 163.762 L
739.925 226.381 L
740.313 226.381 L
740.7 205.508 L
741.088 177.677 L
741.475 177.677 L
741.862 195.071 L
742.25 205.508 L
742.638 205.508 L
743.025 226.381 L
743.412 226.381 L
743.8 152.377 L
744.188 257.69 L
744.575 188.81 L
744.963 177.677 L
745.35 217.435 L
745.737 205.508 L
746.125 205.508 L
746.513 226.381 L
746.9 247.254 L
747.287 253.218 L
747.675 195.071 L
748.063 163.762 L
748.45 163.762 L
748.838 181.653 L
749.225 163.762 L
749.612 115.593 L
750 217.435 L
750.388 226.381 L
750.775 253.218 L
751.162 154.128 L
751.55 152.377 L
751.938 129.606 L
752.325 177.677 L
752.713 163.762 L
753.1 163.762 L
753.487 205.508 L
753.875 106.836 L
754.263 226.381 L
754.65 253.218 L
755.037 257.69 L
755.425 253.218 L
755.813 152.377 L
756.2 217.435 L
756.588 152.377 L
756.975 205.508 L
757.362 177.677 L
757.75 177.677 L
758.138 138.714 L
758.525 177.677 L
758.912 138.714 L
759.3 163.762 L
759.688 175.147 L
760.075 122.016 L
760.463 226.381 L
760.85 226.381 L
761.237 289 L
761.625 138.714 L
762.013 163.762 L
762.4 253.218 L
762.787 177.677 L
763.175 253.218 L
763.563 177.677 L
763.95 195.071 L
764.338 226.381 L
764.725 134.861 L
765.112 163.762 L
765.5 205.508 L
765.888 188.81 L
766.275 195.071 L
766.662 226.381 L
767.05 177.677 L
767.438 205.508 L
767.825 188.81 L
768.213 138.714 L
768.6 257.69 L
768.987 253.218 L
769.375 226.381 L
769.763 195.071 L
770.15 195.071 L
770.537 163.762 L
770.925 205.508 L
771.313 163.762 L
771.7 233.339 L
772.088 226.381 L
772.475 226.381 L
772.862 226.381 L
773.25 127.98 L
773.638 205.508 L
774.025 195.071 L
774.412 177.677 L
774.8 142.889 L
775.188 129.606 L
775.575 253.218 L
775.963 217.435 L
776.35 257.69 L
776.737 177.677 L
777.125 253.218 L
777.513 257.69 L
777.9 181.653 L
778.287 122.016 L
778.675 253.218 L
779.063 289 L
779.45 289 L
779.838 163.762 L
780.225 217.435 L
780.612 205.508 L
781 226.381 L
781.388 289 L
781.775 163.762 L
782.162 195.071 L
782.55 217.435 L
782.938 205.508 L
783.325 163.762 L
783.713 205.508 L
784.1 113.667 L
784.487 226.381 L
784.875 134.861 L
785.263 253.218 L
785.65 195.071 L
786.037 226.381 L
786.425 217.435 L
786.813 226.381 L
787.2 205.508 L
787.588 149.847 L
787.975 257.69 L
788.362 226.381 L
788.75 163.762 L
789.138 226.381 L
789.525 195.071 L
789.912 177.677 L
790.3 152.377 L
790.688 233.339 L
791.075 101.143 L
791.463 205.508 L
791.85 226.381 L
792.237 142.889 L
792.625 205.508 L
793.013 253.218 L
793.4 217.435 L
793.787 213.857 L
794.175 163.762 L
794.563 177.677 L
794.95 177.677 L
795.338 163.762 L
795.725 152.377 L
796.112 253.218 L
796.5 142.889 L
796.888 106.836 L
797.275 205.508 L
797.662 233.339 L
798.05 177.677 L
798.438 226.381 L
798.825 226.381 L
799.213 217.435 L
799.6 205.508 L
799.987 205.508 L
800.375 188.81 L
800.763 163.762 L
801.15 163.762 L
801.537 122.016 L
801.925 226.381 L
802.313 175.147 L
802.7 106.836 L
803.088 205.508 L
803.475 217.435 L
803.862 142.889 L
804.25 226.381 L
804.638 188.81 L
805.025 177.677 L
805.412 205.508 L
805.8 226.381 L
806.188 195.071 L
806.575 205.508 L
806.963 188.81 L
807.35 101.143 L
807.737 205.508 L
808.125 195.071 L
808.513 253.218 L
808.9 163.762 L
809.287 177.677 L
809.675 226.381 L
810.063 177.677 L
810.45 205.508 L
810.838 122.016 L
811.225 149.847 L
811.612 253.218 L
812 289 L
812.388 177.677 L
812.775 226.381 L
813.162 253.218 L
813.55 205.508 L
813.938 195.071 L
814.325 188.81 L
814.713 188.81 L
815.1 205.508 L
815.487 253.218 L
815.875 257.69 L
816.263 195.071 L
816.65 177.677 L
817.037 205.508 L
817.425 142.889 L
817.813 226.381 L
818.2 177.677 L
818.588 195.071 L
818.975 253.218 L
819.362 226.381 L
819.75 226.381 L
820.138 188.81 L
820.525 152.377 L
820.912 253.218 L
821.3 226.381 L
821.688 253.218 L
822.075 96.326 L
822.463 195.071 L
822.85 195.071 L
823.237 226.381 L
823.625 226.381 L
824.013 226.381 L
824.4 226.381 L
824.787 122.016 L
825.175 129.606 L
825.563 163.762 L
825.95 205.508 L
826.338 253.218 L
826.725 177.677 L
827.112 152.377 L
827.5 217.435 L
827.888 226.381 L
828.275 152.377 L
828.662 152.377 L
829.05 177.677 L
829.438 175.147 L
829.825 177.677 L
830.213 195.071 L
830.6 205.508 L
830.987 129.606 L
831.375 195.071 L
831.763 195.071 L
832.15 152.377 L
832.537 253.218 L
832.925 163.762 L
833.313 163.762 L
833.7 205.508 L
834.088 195.071 L
834.475 226.381 L
834.862 253.218 L
835.25 177.677 L
835.638 213.857 L
836.025 195.071 L
836.412 163.762 L
836.8 226.381 L
837.188 257.69 L
837.575 205.508 L
837.963 188.81 L
838.35 195.071 L
838.737 205.508 L
839.125 253.218 L
839.513 195.071 L
839.9 188.81 L
840.287 289 L
840.675 149.847 L
841.063 142.889 L
841.45 217.435 L
841.838 253.218 L
842.225 257.69 L
842.612 149.847 L
843 163.762 L
843.388 257.69 L
843.775 289 L
844.162 177.677 L
844.55 195.071 L
844.938 205.508 L
845.325 177.677 L
845.713 205.508 L
846.1 226.381 L
846.487 195.071 L
846.875 195.071 L
847.263 233.339 L
847.65 177.677 L
848.037 226.381 L
848.425 152.377 L
848.813 226.381 L
849.2 149.847 L
849.588 175.147 L
849.975 163.762 L
850.362 226.381 L
850.75 217.435 L
851.138 226.381 L
851.525 213.857 L
851.912 177.677 L
852.3 247.254 L
852.688 163.762 L
853.075 205.508 L
853.463 226.381 L
853.85 134.861 L
854.237 195.071 L
854.625 253.218 L
855.013 205.508 L
855.4 188.81 L
855.787 188.81 L
856.175 163.762 L
856.563 205.508 L
856.95 177.677 L
857.338 177.677 L
857.725 177.677 L
858.112 257.69 L
858.5 226.381 L
858.888 181.653 L
859.275 213.857 L
859.662 188.81 L
860.05 289 L
860.438 257.69 L
860.825 205.508 L
861.213 177.677 L
861.6 253.218 L
861.987 233.339 L
862.375 226.381 L
862.763 163.762 L
863.15 253.218 L
863.537 205.508 L
863.925 253.218 L
864.313 253.218 L
864.7 253.218 L
865.088 226.381 L
865.475 195.071 L
865.862 149.847 L
866.25 226.381 L
866.638 253.218 L
867.025 177.677 L
867.412 205.508 L
867.8 177.677 L
868.188 152.377 L
868.575 177.677 L
868.963 226.381 L
869.35 226.381 L
869.737 253.218 L
870.125 257.69 L
870.513 205.508 L
870.9 217.435 L
871.287 226.381 L
871.675 188.81 L
872.063 217.435 L
872.45 122.016 L
872.838 226.381 L
873.225 253.218 L
873.612 226.381 L
874 253.218 L
874.388 253.218 L
874.775 233.339 L
875.162 163.762 L
875.55 177.677 L
875.938 253.218 L
876.325 253.218 L
876.713 138.714 L
877.1 177.677 L
877.487 163.762 L
877.875 217.435 L
878.263 163.762 L
878.65 177.677 L
879.037 177.677 L
879.425 122.016 L
879.813 177.677 L
880.2 205.508 L
880.588 226.381 L
880.975 177.677 L
881.362 142.889 L
881.75 289 L
882.138 188.81 L
882.525 226.381 L
882.912 175.147 L
883.3 163.762 L
883.688 177.677 L
884.075 226.381 L
884.463 177.677 L
884.85 177.677 L
885.237 226.381 L
885.625 177.677 L
886.013 195.071 L
886.4 257.69 L
886.787 253.218 L
887.175 213.857 L
887.563 177.677 L
887.95 226.381 L
888.338 163.762 L
888.725 226.381 L
889.112 101.143 L
889.5 195.071 L
889.888 142.889 L
890.275 177.677 L
890.662 152.377 L
891.05 289 L
891.438 163.762 L
891.825 163.762 L
892.213 163.762 L
892.6 289 L
892.987 253.218 L
893.375 152.377 L
893.763 152.377 L
894.15 195.071 L
894.537 226.381 L
894.925 205.508 L
895.313 205.508 L
895.7 177.677 L
896.088 289 L
896.475 177.677 L
896.862 195.071 L
897.25 253.218 L
897.638 129.606 L
898.025 226.381 L
898.412 149.847 L
898.8 129.606 L
899.188 177.677 L
899.575 205.508 L
899.963 138.714 L
900.35 226.381 L
900.737 129.606 L
901.125 226.381 L
901.513 226.381 L
901.9 177.677 L
902.287 129.606 L
902.675 138.714 L
903.063 122.016 L
903.45 101.143 L
903.838 175.147 L
904.225 129.606 L
904.612 163.762 L
905 195.071 L
S
GR
GS
1 0 0 RC
1 LJ
0.5 LW
N
169.525 86.511 M
169.913 85.541 L
170.3 84.577 L
170.688 83.287 L
171.075 82.064 L
171.462 81.51 L
171.85 80.428 L
172.238 79.474 L
172.625 78.27 L
173.012 77.339 L
173.4 76.465 L
173.788 75.44 L
174.175 74.468 L
174.563 73.547 L
174.95 72.671 L
175.337 71.838 L
175.725 71.045 L
176.113 70.289 L
176.5 69.567 L
176.887 68.877 L
177.275 68.217 L
177.663 67.585 L
178.05 66.98 L
178.438 66.399 L
178.825 65.842 L
179.212 65.306 L
179.6 63.039 L
179.988 61.906 L
180.375 61.204 L
180.762 60.503 L
181.15 59.52 L
181.538 57.883 L
181.925 55.428 L
182.313 55.1 L
182.7 53.697 L
183.087 52.995 L
183.475 51.686 L
183.863 51.14 L
184.25 50.158 L
184.637 48.93 L
185.025 48.252 L
185.413 46.848 L
185.8 46.073 L
186.188 44.319 L
186.575 43.851 L
186.962 43.647 L
187.35 42.555 L
187.738 42.009 L
188.125 41.751 L
188.512 41.528 L
188.9 41.528 L
189.288 40.982 L
189.675 40.555 L
190.063 40.162 L
190.45 39.993 L
190.837 39.834 L
191.225 39.317 L
191.613 39.154 L
192 38.949 L
192.387 38.949 L
192.775 39.51 L
193.163 39.562 L
193.55 39.562 L
193.938 39.562 L
194.325 39.562 L
194.712 39.562 L
195.1 39.562 L
195.488 39.562 L
195.875 39.562 L
196.262 39.562 L
196.65 39.562 L
197.038 39.562 L
197.425 39.562 L
197.813 39.562 L
198.2 39.562 L
198.587 39.562 L
198.975 39.835 L
199.363 39.835 L
199.75 39.835 L
200.137 39.835 L
200.525 40.049 L
200.913 40.049 L
201.3 40.049 L
201.688 40.049 L
202.075 40.049 L
202.462 40.049 L
202.85 40.245 L
203.238 40.245 L
203.625 40.245 L
204.012 40.245 L
204.4 40.45 L
204.788 40.309 L
205.175 40.309 L
205.563 40.309 L
205.95 40.309 L
206.337 40.309 L
206.725 40.309 L
207.113 40.309 L
207.5 40.309 L
207.887 40.543 L
208.275 40.543 L
208.663 40.789 L
209.05 40.789 L
209.438 40.789 L
209.825 40.789 L
210.212 40.789 L
210.6 40.789 L
210.988 41.012 L
211.375 41.012 L
211.762 41.187 L
212.15 41.187 L
212.538 40.675 L
212.925 40.478 L
213.313 41.297 L
213.7 41.297 L
214.087 41.479 L
214.475 41.724 L
214.863 41.724 L
215.25 42.215 L
215.637 42.461 L
216.025 42.75 L
216.413 42.939 L
216.8 43.594 L
217.188 43.594 L
217.575 43.594 L
217.962 43.852 L
218.35 44.086 L
218.738 43.813 L
219.125 44.427 L
219.512 44.778 L
219.9 45.171 L
220.288 45.18 L
220.675 45.385 L
221.063 45.385 L
221.45 45.385 L
221.837 45.631 L
222.225 45.631 L
222.613 45.648 L
223 46.262 L
223.387 46.52 L
223.775 46.734 L
224.163 46.529 L
224.55 46.763 L
224.938 46.763 L
225.325 47.008 L
225.712 47.008 L
226.1 47.008 L
226.488 47.008 L
226.875 47.008 L
227.262 47.008 L
227.65 47.32 L
228.038 47.566 L
228.425 47.32 L
228.813 47.32 L
229.2 47.811 L
229.587 47.811 L
229.975 47.811 L
230.363 47.811 L
230.75 47.588 L
231.137 47.895 L
231.525 47.72 L
231.913 47.72 L
232.3 47.531 L
232.688 47.838 L
233.075 47.278 L
233.462 47.278 L
233.85 47.33 L
234.238 48.312 L
234.625 49.445 L
235.012 49.159 L
235.4 49.491 L
235.788 49.904 L
236.175 49.715 L
236.563 50.288 L
236.95 51.421 L
237.337 51.967 L
237.725 52.254 L
238.113 52.598 L
238.5 52.598 L
238.887 52.562 L
239.275 52.948 L
239.663 52.555 L
240.05 52.566 L
240.438 53.413 L
240.825 53.413 L
241.212 53.413 L
241.6 53.943 L
241.988 55.417 L
242.375 55.979 L
242.762 57.002 L
243.15 57.726 L
243.538 58.167 L
243.925 59.506 L
244.313 60.91 L
244.7 62.956 L
245.087 62.969 L
245.475 63.32 L
245.863 63.934 L
246.25 65.719 L
246.637 66.772 L
247.025 67.386 L
247.413 68.805 L
247.8 69.612 L
248.188 70.839 L
248.575 71.732 L
248.962 72.294 L
249.35 73.767 L
249.738 75.731 L
250.125 77.243 L
250.512 78.47 L
250.9 78.777 L
251.288 80.251 L
251.675 81.724 L
252.063 82.379 L
252.45 82.774 L
252.837 83.568 L
253.225 85.041 L
253.613 86.035 L
254 85.563 L
254.387 85.739 L
254.775 86.427 L
255.163 86.227 L
255.55 87.163 L
255.938 88.502 L
256.325 87.533 L
256.712 87.155 L
257.1 87.311 L
257.487 88.607 L
257.875 88.357 L
258.263 88.63 L
258.65 89.185 L
259.038 90.086 L
259.425 91.219 L
259.813 91.363 L
260.2 91.65 L
260.587 92.305 L
260.975 92.305 L
261.362 93.712 L
261.75 93.132 L
262.138 94.142 L
262.525 93.638 L
262.913 94.129 L
263.3 93.852 L
263.688 94.745 L
264.075 93.436 L
264.462 92.31 L
264.85 92.666 L
265.237 93.448 L
265.625 94.238 L
266.013 93.066 L
266.4 92.272 L
266.788 92.359 L
267.175 90.886 L
267.563 90.379 L
267.95 89.821 L
268.337 89.684 L
268.725 91.087 L
269.112 90.666 L
269.5 90.175 L
269.888 90.71 L
270.275 90.238 L
270.663 91.097 L
271.05 90.379 L
271.438 90.543 L
271.825 90.239 L
272.212 89.538 L
272.6 88.932 L
272.987 87.458 L
273.375 87.57 L
273.763 87.57 L
274.15 86.26 L
274.538 85.945 L
274.925 86.181 L
275.313 84.544 L
275.7 84.338 L
276.087 84.898 L
276.475 84.47 L
276.862 84.314 L
277.25 83.606 L
277.638 85.461 L
278.025 85.802 L
278.413 85.589 L
278.8 85.292 L
279.188 84.158 L
279.575 85.254 L
279.962 85.048 L
280.35 86.235 L
280.737 89.509 L
281.125 88.8 L
281.513 88.316 L
281.9 88.316 L
282.288 88.82 L
282.675 89.529 L
283.063 90.379 L
283.45 90.875 L
283.837 93.003 L
284.225 93.486 L
284.612 95.6 L
285 96.002 L
285.388 98.808 L
285.775 100.873 L
286.163 102.798 L
286.55 104.552 L
286.938 108.153 L
287.325 110.677 L
287.712 112.24 L
288.1 114.554 L
288.487 112.476 L
288.875 114.493 L
289.263 113.37 L
289.65 113.37 L
290.038 116.708 L
290.425 118.508 L
290.813 118.981 L
291.2 118.981 L
291.587 119.858 L
291.975 120.472 L
292.362 120.727 L
292.75 122.513 L
293.138 121.875 L
293.525 122.905 L
293.913 123.661 L
294.3 124.422 L
294.688 124.942 L
295.075 126.17 L
295.462 126.264 L
295.85 126.919 L
296.237 127.41 L
296.625 128.02 L
297.013 129.956 L
297.4 131.048 L
297.788 134.643 L
298.175 135.196 L
298.563 136.312 L
298.95 138.066 L
299.337 138.23 L
299.725 137.915 L
300.112 136.966 L
300.5 136.762 L
300.888 138.562 L
301.275 140.336 L
301.663 140.733 L
302.05 140.078 L
302.438 139.532 L
302.825 140.537 L
303.212 141.316 L
303.6 142.135 L
303.987 143.46 L
304.375 142.369 L
304.763 141.925 L
305.15 139.948 L
305.538 138.673 L
305.925 139.296 L
306.313 139.073 L
306.7 137.213 L
307.087 136.949 L
307.475 137.173 L
307.862 136.832 L
308.25 137.927 L
308.638 137.804 L
309.025 140.182 L
309.413 141.819 L
309.8 139.959 L
310.188 139.14 L
310.575 139.424 L
310.962 138.769 L
311.35 138.196 L
311.737 140.038 L
312.125 141.568 L
312.513 142.511 L
312.9 142.702 L
313.288 142.702 L
313.675 143.584 L
314.063 143 L
314.45 143.653 L
314.837 143.08 L
315.225 146.763 L
315.612 148.973 L
316 151.838 L
316.388 152.468 L
316.775 152.468 L
317.163 151.873 L
317.55 150.733 L
317.938 152.206 L
318.325 151.715 L
318.712 152.69 L
319.1 152.839 L
319.487 153.806 L
319.875 155.86 L
320.263 154.836 L
320.65 154.291 L
321.038 154.564 L
321.425 156.591 L
321.813 157.791 L
322.2 157.94 L
322.587 157.345 L
322.975 156.783 L
323.362 154.849 L
323.75 154.303 L
324.138 154.139 L
324.525 155.012 L
324.913 155.235 L
325.3 157.516 L
325.688 157.438 L
326.075 155.961 L
326.462 157.938 L
326.85 157.587 L
327.237 158.64 L
327.625 158.981 L
328.013 160.236 L
328.4 160.797 L
328.788 160.524 L
329.175 159.911 L
329.563 161.362 L
329.95 161.634 L
330.337 163.807 L
330.725 164.789 L
331.112 166.59 L
331.5 166.099 L
331.888 166.322 L
332.275 166.322 L
332.663 167.661 L
333.05 167.103 L
333.438 168.904 L
333.825 169.488 L
334.212 171.21 L
334.6 172.738 L
334.987 170.774 L
335.375 170.16 L
335.763 169.155 L
336.15 168.843 L
336.538 168.501 L
336.925 167.46 L
337.313 167.898 L
337.7 167.68 L
338.087 168.444 L
338.475 168.171 L
338.862 167.858 L
339.25 168.528 L
339.638 166.4 L
340.025 167.628 L
340.413 167.969 L
340.8 168.787 L
341.188 167.033 L
341.575 167.579 L
341.962 168.863 L
342.35 169.954 L
342.737 169.19 L
343.125 172.762 L
343.513 174.789 L
343.9 177.525 L
344.288 178.63 L
344.675 180.384 L
345.063 179.429 L
345.45 180.91 L
345.837 182.883 L
346.225 180.638 L
346.612 180.638 L
347 180.814 L
347.388 179.927 L
347.775 180.882 L
348.163 178.847 L
348.55 178.624 L
348.938 179.062 L
349.325 178.887 L
349.712 179.228 L
350.1 180.456 L
350.487 181.22 L
350.875 180.811 L
351.263 183.056 L
351.65 182.565 L
352.038 183.52 L
352.425 184.357 L
352.813 185.093 L
353.2 184.111 L
353.587 186.592 L
353.975 186.767 L
354.362 188.794 L
354.75 189.531 L
355.138 189.408 L
355.525 190.939 L
355.913 193.149 L
356.3 194.63 L
356.688 196.501 L
357.075 194.466 L
357.462 194.807 L
357.85 195.587 L
358.237 196.569 L
358.625 198.779 L
359.013 199.598 L
359.4 202.287 L
359.788 203.223 L
360.175 203.427 L
360.563 204.363 L
360.95 204.14 L
361.337 204.481 L
361.725 203.867 L
362.112 203.867 L
362.5 204.958 L
362.888 204.958 L
363.275 202.795 L
363.663 202.795 L
364.05 202.999 L
364.438 200.679 L
364.825 201.224 L
365.212 199.47 L
365.6 198.528 L
365.987 198.796 L
366.375 200.55 L
366.763 201.778 L
367.15 201.232 L
367.538 200.618 L
367.925 200.782 L
368.313 201.278 L
368.7 200.839 L
369.087 200.06 L
369.475 201.2 L
369.862 199.563 L
370.25 201.746 L
370.638 202.973 L
371.025 199.255 L
371.413 201.5 L
371.8 200.049 L
372.188 201.891 L
372.575 203.2 L
372.962 204.428 L
373.35 203.882 L
373.737 202.655 L
374.125 200.901 L
374.513 199.946 L
374.9 201.209 L
375.288 200.068 L
375.675 199.454 L
376.063 199.542 L
376.45 197.999 L
376.837 200.735 L
377.225 201.875 L
377.612 202.577 L
378 202.413 L
378.388 203.641 L
378.775 204.05 L
379.163 204.225 L
379.55 204.313 L
379.938 203.271 L
380.325 202.131 L
380.712 202.846 L
381.1 203.869 L
381.487 205.233 L
381.875 206.188 L
382.263 207.124 L
382.65 204.668 L
383.038 207.533 L
383.425 207.533 L
383.813 208.468 L
384.2 211.491 L
384.587 210.181 L
384.975 210.672 L
385.362 210.672 L
385.75 211.386 L
386.138 209.905 L
386.525 209.204 L
386.913 209.531 L
387.3 209.531 L
387.688 209.858 L
388.075 210.638 L
388.462 209.615 L
388.85 209.956 L
389.237 209.254 L
389.625 210.277 L
390.013 207.822 L
390.4 208.757 L
390.788 211.95 L
391.175 209.923 L
391.563 210.637 L
391.95 209.409 L
392.337 209.205 L
392.725 207.977 L
393.112 208.386 L
393.5 209.205 L
393.888 209.478 L
394.275 210.433 L
394.663 208.269 L
395.05 207.432 L
395.438 208.572 L
395.825 206.321 L
396.212 208.566 L
396.6 208.654 L
396.987 207.719 L
397.375 205.965 L
397.763 205.146 L
398.15 201.053 L
398.538 200.644 L
398.925 201.17 L
399.313 200.556 L
399.7 202.621 L
400.087 202.28 L
400.475 202.608 L
400.862 201.584 L
401.25 201.039 L
401.638 200.863 L
402.025 199.928 L
402.413 201.682 L
402.8 200.454 L
403.188 199.928 L
403.575 200.016 L
403.962 198.788 L
404.35 200.507 L
404.737 199.402 L
405.125 200.071 L
405.513 199.58 L
405.9 198.08 L
406.288 197.553 L
406.675 197.821 L
407.063 196.389 L
407.45 196.607 L
407.837 198.01 L
408.225 198.42 L
408.612 198.42 L
409 198.42 L
409.388 197.806 L
409.775 198.624 L
410.163 198.624 L
410.55 198.01 L
410.938 200.739 L
411.325 202.089 L
411.712 200.37 L
412.1 200.37 L
412.487 201.189 L
412.875 201.189 L
413.263 202.124 L
413.65 201.852 L
414.038 202.465 L
414.425 204.103 L
414.813 206.168 L
415.2 204.764 L
415.587 206.928 L
415.975 204.764 L
416.362 203.536 L
416.75 204.56 L
417.138 207.015 L
417.525 208.243 L
417.913 212.336 L
418.3 212.131 L
418.688 211.43 L
419.075 211.956 L
419.462 210.933 L
419.85 211.888 L
420.237 212.297 L
420.625 211.683 L
421.013 212.619 L
421.4 212.18 L
421.788 213.203 L
422.175 213.203 L
422.563 213.729 L
422.95 212.774 L
423.337 212.161 L
423.725 213.388 L
424.112 212.511 L
424.5 213.944 L
424.888 213.671 L
425.275 214.285 L
425.663 216.331 L
426.05 215.376 L
426.438 216.213 L
426.825 218.786 L
427.212 220.813 L
427.6 220.813 L
427.987 222.45 L
428.375 223.064 L
428.763 224.467 L
429.15 224.993 L
429.538 225.929 L
429.925 226.017 L
430.313 227.858 L
430.7 226.455 L
431.087 226.455 L
431.475 227.56 L
431.862 227.56 L
432.25 229.197 L
432.638 229.811 L
433.025 228.33 L
433.413 230.084 L
433.8 230.084 L
434.188 231.312 L
434.575 229.961 L
434.962 230.838 L
435.35 228.593 L
435.737 230.23 L
436.125 232.072 L
436.513 231.049 L
436.9 230.347 L
437.288 230.961 L
437.675 229.733 L
438.063 230.347 L
438.45 228.593 L
438.837 227.453 L
439.225 226.361 L
439.612 225.952 L
440 225.952 L
440.388 225.601 L
440.775 226.303 L
441.163 226.917 L
441.55 226.829 L
441.938 225.689 L
442.325 225.689 L
442.712 227.872 L
443.1 227.872 L
443.487 226.03 L
443.875 224.861 L
444.263 225.27 L
444.65 226.771 L
445.038 227.999 L
445.425 228.934 L
445.813 229.275 L
446.2 229.889 L
446.587 229.363 L
446.975 229.363 L
447.362 227.521 L
447.75 227.638 L
448.138 227.638 L
448.525 226.235 L
448.913 224.972 L
449.3 223.832 L
449.688 223.218 L
450.075 221.035 L
450.462 221.347 L
450.85 220.733 L
451.237 222.575 L
451.625 221.738 L
452.013 218.791 L
452.4 216.726 L
452.788 216.23 L
453.175 214.749 L
453.563 212.907 L
453.95 211.504 L
454.337 211.236 L
454.725 211.762 L
455.112 214.095 L
455.5 214.621 L
455.888 214.621 L
456.275 215.556 L
456.663 215.556 L
457.05 215.469 L
457.438 215.995 L
457.825 217.223 L
458.212 219.678 L
458.6 219.678 L
458.987 221.179 L
459.375 222.202 L
459.763 220.305 L
460.15 221.269 L
460.538 219.428 L
460.925 219.954 L
461.313 219.018 L
461.7 217.586 L
462.087 216.183 L
462.475 215.481 L
462.862 214.253 L
463.25 213.639 L
463.638 214.731 L
464.025 214.731 L
464.413 213.776 L
464.8 213.776 L
465.188 211.749 L
465.575 211.749 L
465.962 212.977 L
466.35 214.205 L
466.737 212.723 L
467.125 212.928 L
467.513 212.928 L
467.9 213.454 L
468.288 212.675 L
468.675 213.411 L
469.063 214.551 L
469.45 215.779 L
469.837 216.871 L
470.225 215.73 L
470.612 214.279 L
471 210.42 L
471.388 212.397 L
471.775 215.344 L
472.163 216.386 L
472.55 216.882 L
472.938 217.1 L
473.325 218.152 L
473.712 219.556 L
474.1 220.697 L
474.487 220.17 L
474.875 220.784 L
475.263 219.303 L
475.65 218.602 L
476.038 216.624 L
476.425 215.689 L
476.813 215.776 L
477.2 214.636 L
477.587 212.672 L
477.975 213.373 L
478.362 214.601 L
478.75 214.601 L
479.138 213.032 L
479.525 216.158 L
479.913 216.772 L
480.3 218.613 L
480.688 217.083 L
481.075 217.083 L
481.462 219.129 L
481.85 220.532 L
482.237 220.532 L
482.625 221.351 L
483.013 221.078 L
483.4 221.624 L
483.788 222.851 L
484.175 224.42 L
484.563 224.333 L
484.95 226.36 L
485.337 226.973 L
485.725 225.5 L
486.112 223.317 L
486.5 223.863 L
486.888 223.317 L
487.275 222.927 L
487.663 222.927 L
488.05 224.019 L
488.438 225.247 L
488.825 225.334 L
489.212 224.633 L
489.6 225.023 L
489.987 226.641 L
490.375 227.137 L
490.763 229.154 L
491.15 227.4 L
491.538 224.126 L
491.925 224.535 L
492.313 224.754 L
492.7 224.876 L
493.087 223.824 L
493.475 221.982 L
493.862 222.46 L
494.25 221.505 L
494.638 220.891 L
495.025 221.67 L
495.413 221.67 L
495.8 223.648 L
496.188 225.285 L
496.575 223.443 L
496.962 223.882 L
497.35 225.232 L
497.737 223.049 L
498.125 221.822 L
498.513 221.958 L
498.9 221.685 L
499.288 220.983 L
499.675 220.983 L
500.063 218.801 L
500.45 219.191 L
500.837 218.373 L
501.225 218.899 L
501.612 218.987 L
502 218.987 L
502.388 218.987 L
502.775 220.487 L
503.163 220.897 L
503.55 219.669 L
503.938 219.581 L
504.325 219.669 L
504.712 217.642 L
505.1 216.905 L
505.487 215.923 L
505.875 217.492 L
506.263 216.946 L
506.65 219.129 L
507.038 219.606 L
507.425 218.671 L
507.813 217.921 L
508.2 217.219 L
508.587 217.131 L
508.975 214.559 L
509.362 213.857 L
509.75 213.769 L
510.138 213.988 L
510.525 213.647 L
510.913 215.401 L
511.3 216.492 L
511.688 217.018 L
512.075 217.346 L
512.463 217.96 L
512.85 218.574 L
513.237 217.96 L
513.625 216.391 L
514.013 216.732 L
514.4 214.481 L
514.787 213.92 L
515.175 212.984 L
515.563 210.739 L
515.95 209.647 L
516.338 210.139 L
516.725 210.139 L
517.112 210.139 L
517.5 210.918 L
517.888 211.123 L
518.275 211.513 L
518.662 211.513 L
519.05 210.25 L
519.438 209.513 L
519.825 210.994 L
520.213 211.433 L
520.6 211.023 L
520.987 209.269 L
521.375 209.269 L
521.763 208.334 L
522.15 208.743 L
522.537 208.743 L
522.925 208.334 L
523.313 208.158 L
523.7 208.86 L
524.088 207.837 L
524.475 210.565 L
524.862 212.53 L
525.25 213.758 L
525.638 212.407 L
526.025 213.362 L
526.412 213.362 L
526.8 213.274 L
527.188 213.82 L
527.575 215.662 L
527.963 214.259 L
528.35 214.346 L
528.737 216.919 L
529.125 217.094 L
529.513 216.705 L
529.9 217.032 L
530.287 217.578 L
530.675 216.174 L
531.063 217.266 L
531.45 215.512 L
531.838 215.184 L
532.225 215.798 L
532.612 215.184 L
533 215.535 L
533.388 217.016 L
533.775 217.63 L
534.162 219.881 L
534.55 219.117 L
534.938 218.299 L
535.325 218.79 L
535.713 219.881 L
536.1 220.443 L
536.487 220.372 L
536.875 218.804 L
537.263 219.505 L
537.65 219.914 L
538.037 219.525 L
538.425 221.279 L
538.813 222.015 L
539.2 222.752 L
539.588 223.454 L
539.975 223.071 L
540.362 223.753 L
540.75 224.244 L
541.138 221.286 L
541.525 220.691 L
541.912 219.463 L
542.3 217.119 L
542.688 216.792 L
543.075 215.963 L
543.463 215.963 L
543.85 216.986 L
544.237 215.021 L
544.625 213.179 L
545.013 212.77 L
545.4 213.507 L
545.787 214.033 L
546.175 211.85 L
546.563 210.71 L
546.95 209.346 L
547.338 208.118 L
547.725 209.521 L
548.112 207.68 L
548.5 206.149 L
548.888 207.377 L
549.275 206.831 L
549.662 206.831 L
550.05 207.766 L
550.438 207.006 L
550.825 207.396 L
551.213 209.15 L
551.6 209.711 L
551.987 208.143 L
552.375 209.195 L
552.763 210.686 L
553.15 211.387 L
553.537 211.914 L
553.925 211.826 L
554.313 213.853 L
554.7 213.63 L
555.088 214.857 L
555.475 213.63 L
555.862 213.396 L
556.25 212.686 L
556.638 213.027 L
557.025 210.329 L
557.412 208.878 L
557.8 206.531 L
558.188 205.05 L
558.575 204.436 L
558.963 203.432 L
559.35 201.795 L
559.737 200.716 L
560.125 200.934 L
560.513 201.671 L
560.9 205.242 L
561.287 206.247 L
561.675 206.247 L
562.063 208.591 L
562.45 208.591 L
562.838 209.186 L
563.225 207.004 L
563.612 205.162 L
564 206.425 L
564.388 206.302 L
564.775 206.848 L
565.162 207.374 L
565.55 205.893 L
565.938 207.374 L
566.325 207.988 L
566.713 209.829 L
567.1 209.829 L
567.487 208.894 L
567.875 210.648 L
568.263 210.236 L
568.65 209.534 L
569.037 210.557 L
569.425 210.967 L
569.813 208.989 L
570.2 211.036 L
570.588 210.264 L
570.975 208.019 L
571.362 207.239 L
571.75 208.331 L
572.138 208.506 L
572.525 206.173 L
572.912 203.308 L
573.3 204.01 L
573.688 204.712 L
574.075 203.449 L
574.463 203.672 L
574.85 202.221 L
575.237 202.63 L
575.625 203.653 L
576.013 203.994 L
576.4 203.872 L
576.787 205.868 L
577.175 207.456 L
577.563 209.491 L
577.95 210.036 L
578.338 208.856 L
578.725 209.246 L
579.112 209.41 L
579.5 211.047 L
579.888 212.31 L
580.275 212.31 L
580.662 210.468 L
581.05 210.605 L
581.438 210.605 L
581.825 210.196 L
582.213 209.704 L
582.6 211.341 L
582.987 211.683 L
583.375 211.955 L
583.763 212.043 L
584.15 211.279 L
584.537 209.642 L
584.925 209.73 L
585.313 210.685 L
585.7 211.386 L
586.088 212.614 L
586.475 212.526 L
586.862 212.526 L
587.25 212.526 L
587.638 211.045 L
588.025 212.462 L
588.412 211.936 L
588.8 212.55 L
589.188 212.14 L
589.575 213.182 L
589.963 211.322 L
590.35 210.612 L
590.737 212.331 L
591.125 213.286 L
591.513 213.15 L
591.9 212.741 L
592.287 214.284 L
592.675 214.47 L
593.063 211.791 L
593.45 211.09 L
593.838 210.871 L
594.225 213.327 L
594.612 215.304 L
595 213.258 L
595.388 212.644 L
595.775 212.303 L
596.162 211.321 L
596.55 210.268 L
596.938 209.177 L
597.325 207.715 L
597.713 208.125 L
598.1 209.744 L
598.487 209.948 L
598.875 209.785 L
599.263 209.609 L
599.65 208.908 L
600.037 208.171 L
600.425 207.78 L
600.813 208.17 L
601.2 208.443 L
601.588 207.351 L
601.975 207.624 L
602.362 204.678 L
602.75 205.291 L
603.138 206.071 L
603.525 205.457 L
603.912 206.221 L
604.3 206.494 L
604.688 206.406 L
605.075 207.02 L
605.463 206.406 L
605.85 204.564 L
606.237 202.538 L
606.625 201.087 L
607.013 202.724 L
607.4 203.065 L
607.787 202.328 L
608.175 201.1 L
608.563 198.917 L
608.95 198.372 L
609.338 199.307 L
609.725 201.372 L
610.112 202.327 L
610.5 201.918 L
610.888 200.69 L
611.275 201.216 L
611.662 201.625 L
612.05 202.327 L
612.438 202.823 L
612.825 203.538 L
613.213 201.784 L
613.6 202.329 L
613.987 201.101 L
614.375 199.839 L
614.763 201.885 L
615.15 201.476 L
615.537 200.22 L
615.925 201.326 L
616.313 201.817 L
616.7 203.298 L
617.088 204.198 L
617.475 204.198 L
617.862 202.655 L
618.25 202.109 L
618.638 202.518 L
619.025 202.83 L
619.412 203.006 L
619.8 203.128 L
620.188 201.961 L
620.575 200.82 L
620.963 201.775 L
621.35 201.825 L
621.737 201.061 L
622.125 201.903 L
622.513 201.903 L
622.9 200.578 L
623.287 198.859 L
623.675 199.595 L
624.063 199.104 L
624.45 199.104 L
624.838 198.081 L
625.225 197.993 L
625.612 196.888 L
626 197.652 L
626.388 197.876 L
626.775 197.174 L
627.162 196.833 L
627.55 196.342 L
627.938 196.615 L
628.325 197.57 L
628.713 197.297 L
629.1 197.18 L
629.487 196.008 L
629.875 194.507 L
630.263 194.303 L
630.65 194.03 L
631.037 193.503 L
631.425 194.03 L
631.813 192.052 L
632.2 193.007 L
632.588 192.789 L
632.975 193.062 L
633.362 192.857 L
633.75 191.406 L
634.138 190.915 L
634.525 189.055 L
634.912 188.85 L
635.3 190.446 L
635.688 191.197 L
636.075 191.197 L
636.463 191.197 L
636.85 191.524 L
637.237 192.752 L
637.625 194.471 L
638.013 195.017 L
638.4 195.153 L
638.787 194.28 L
639.175 193.666 L
639.563 194.416 L
639.95 196.413 L
640.338 195.799 L
640.725 193.627 L
641.112 194.464 L
641.5 194.682 L
641.888 195.15 L
642.275 195.676 L
642.662 196.172 L
643.05 198.418 L
643.438 198.008 L
643.825 199.552 L
644.213 198.616 L
644.6 199.64 L
644.987 197.613 L
645.375 200.559 L
645.763 200.887 L
646.15 200.887 L
646.537 200.975 L
646.925 201.316 L
647.313 201.93 L
647.7 202.475 L
648.088 203.703 L
648.475 204.522 L
648.862 204.112 L
649.25 205.898 L
649.638 208.627 L
650.025 209.767 L
650.412 211.092 L
650.8 210.847 L
651.188 208.683 L
651.575 209.398 L
651.963 209.807 L
652.35 209.311 L
652.737 209.038 L
653.125 209.038 L
653.513 210.626 L
653.9 211.853 L
654.287 212.349 L
654.675 211.169 L
655.063 212.309 L
655.45 212.309 L
655.838 213.572 L
656.225 214.273 L
656.612 214.683 L
657 214.683 L
657.388 212.785 L
657.775 212.785 L
658.162 212.649 L
658.55 212.158 L
658.938 210.725 L
659.325 211.203 L
659.713 210.969 L
660.1 212.197 L
660.487 213.141 L
660.875 213.018 L
661.263 213.564 L
661.65 212.395 L
662.037 210.231 L
662.425 209.338 L
662.813 207.175 L
663.2 207.994 L
663.588 208.169 L
663.975 208.578 L
664.362 207.009 L
664.75 209.738 L
665.138 206.873 L
665.525 205.563 L
665.912 205.836 L
666.3 205.047 L
666.688 203.763 L
667.075 203.422 L
667.463 202.604 L
667.85 199.478 L
668.237 199.887 L
668.625 198.25 L
669.013 196.068 L
669.4 193.389 L
669.787 193.389 L
670.175 193.389 L
670.563 194.862 L
670.95 197.025 L
671.338 196.758 L
671.725 195.393 L
672.112 197.458 L
672.5 197.731 L
672.888 198.345 L
673.275 197.254 L
673.662 195.617 L
674.05 196.162 L
674.438 197.002 L
674.825 194.546 L
675.213 193.182 L
675.6 191.155 L
675.987 189.518 L
676.375 188.29 L
676.763 186.653 L
677.15 186.653 L
677.537 187.062 L
677.925 185.562 L
678.313 187.199 L
678.7 188.508 L
679.088 187.894 L
679.475 187.076 L
679.862 185.625 L
680.25 186.853 L
680.638 186.634 L
681.025 186.634 L
681.412 188.213 L
681.8 188.973 L
682.188 190.461 L
682.575 191.485 L
682.963 190.9 L
683.35 190.491 L
683.737 189.877 L
684.125 190.095 L
684.513 187.639 L
684.9 188.049 L
685.287 190.294 L
685.675 190.839 L
686.063 189.296 L
686.45 189.296 L
686.838 189.296 L
687.225 187.822 L
687.612 188.765 L
688 187.314 L
688.388 187.723 L
688.775 188.678 L
689.162 190.656 L
689.55 189.174 L
689.938 187.14 L
690.325 184.461 L
690.713 182.98 L
691.1 184.51 L
691.487 185.465 L
691.875 184.238 L
692.263 184.188 L
692.65 184.012 L
693.037 184.967 L
693.425 185.868 L
693.813 185.049 L
694.2 184.285 L
694.588 186.215 L
694.975 186.438 L
695.362 186.711 L
695.75 187.12 L
696.138 187.393 L
696.525 186.351 L
696.912 187.294 L
697.3 186.339 L
697.688 187.839 L
698.075 187.021 L
698.463 186.121 L
698.85 186.53 L
699.237 187.021 L
699.625 188.063 L
700.013 187.887 L
700.4 188.106 L
700.787 188.447 L
701.175 187.442 L
701.563 188.845 L
701.95 188.641 L
702.338 188.027 L
702.725 187.198 L
703.112 186.652 L
703.5 187.792 L
703.888 188.119 L
704.275 188.938 L
704.662 190.575 L
705.05 190.663 L
705.438 190.117 L
705.825 190.831 L
706.213 192.729 L
706.6 194.21 L
706.987 195.956 L
707.375 196.502 L
707.763 197.953 L
708.15 199.181 L
708.537 198.444 L
708.925 197.509 L
709.313 197.013 L
709.7 199.223 L
710.088 198.33 L
710.475 198.876 L
710.862 197.94 L
711.25 198.466 L
711.638 198.125 L
712.025 199.656 L
712.412 199.831 L
712.8 199.422 L
713.188 200.159 L
713.575 201.387 L
713.963 204.333 L
714.35 204.947 L
714.737 204.997 L
715.125 206.225 L
715.513 206.751 L
715.9 206.255 L
716.287 205.156 L
716.675 205.497 L
717.063 206.978 L
717.45 205.184 L
717.838 206.119 L
718.225 208.984 L
718.612 206.733 L
719 206.465 L
719.388 206.699 L
719.775 206.138 L
720.162 206.26 L
720.55 206.465 L
720.938 206.242 L
721.325 205.306 L
721.713 204.201 L
722.1 206.043 L
722.487 205.329 L
722.875 205.547 L
723.263 205.021 L
723.65 206.044 L
724.037 205.498 L
724.425 205.615 L
724.813 204.592 L
725.2 205.138 L
725.588 204.642 L
725.975 205.168 L
726.362 204.232 L
726.75 204.232 L
727.138 203.905 L
727.525 204.519 L
727.912 204.343 L
728.3 204.671 L
728.688 205.694 L
729.075 207.145 L
729.463 207.671 L
729.85 208.788 L
730.237 209.197 L
730.625 209.606 L
731.013 208.671 L
731.4 208.671 L
731.787 207.189 L
732.175 206.576 L
732.563 206.576 L
732.95 206.166 L
733.338 206.166 L
733.725 204.938 L
734.112 202.873 L
734.5 204.442 L
734.888 203.706 L
735.275 202.224 L
735.662 203.5 L
736.05 205.641 L
736.438 205.846 L
736.825 205.319 L
737.213 207.523 L
737.6 207.523 L
737.987 205.681 L
738.375 206.295 L
738.763 206.072 L
739.15 205.37 L
739.537 204.879 L
739.925 203.321 L
740.313 203.555 L
740.7 204.783 L
741.088 205.718 L
741.475 206.02 L
741.862 203.955 L
742.25 203.777 L
742.638 203.558 L
743.025 202.331 L
743.412 200.489 L
743.8 201.035 L
744.188 198.164 L
744.575 198.574 L
744.963 199.509 L
745.35 201.624 L
745.737 201.624 L
746.125 200.582 L
746.513 201.362 L
746.9 200.647 L
747.287 199.624 L
747.675 198.844 L
748.063 198.299 L
748.45 195.966 L
748.838 195.011 L
749.225 192.766 L
749.612 192.766 L
750 191.761 L
750.388 189.715 L
750.775 190.124 L
751.162 191.079 L
751.55 193.262 L
751.938 192.157 L
752.325 191.338 L
752.713 192.274 L
753.1 191.319 L
753.487 191.845 L
753.875 192.341 L
754.263 191.113 L
754.65 191.85 L
755.037 191.01 L
755.425 189.958 L
755.813 189.958 L
756.2 189.63 L
756.588 189.017 L
756.975 188.607 L
757.362 187.126 L
757.75 187.331 L
758.138 187.822 L
758.525 187.331 L
758.912 188.822 L
759.3 190.576 L
759.688 192.748 L
760.075 192.31 L
760.463 191.696 L
760.85 189.942 L
761.237 190.949 L
761.625 191.172 L
762.013 193.206 L
762.4 194.161 L
762.787 195.389 L
763.175 196.617 L
763.563 195.097 L
763.95 197.031 L
764.338 196.418 L
764.725 194.936 L
765.112 192.685 L
765.5 190.262 L
765.888 192.239 L
766.275 192.239 L
766.662 194.304 L
767.05 193.758 L
767.438 195.239 L
767.825 196.808 L
768.213 197.65 L
768.6 196.559 L
768.987 198.804 L
769.375 201.26 L
769.763 203.492 L
770.15 204.311 L
770.537 204.135 L
770.925 203.726 L
771.313 202.498 L
771.7 205.445 L
772.088 205.445 L
772.475 204.305 L
772.862 205.084 L
773.25 204.149 L
773.638 203.876 L
774.025 204.081 L
774.412 201.87 L
774.8 203.665 L
775.188 203.098 L
775.575 204.034 L
775.963 204.157 L
776.35 204.77 L
776.737 204.595 L
777.125 205.55 L
777.513 205.55 L
777.9 204.786 L
778.287 207.119 L
778.675 206.505 L
779.063 204.751 L
779.45 204.751 L
779.838 204.751 L
780.225 204.41 L
780.612 204.187 L
781 204.732 L
781.388 203.505 L
781.775 202.959 L
782.162 202.959 L
782.55 201.322 L
782.938 200.912 L
783.325 203.368 L
783.713 203.602 L
784.1 203.97 L
784.487 203.697 L
784.875 204.38 L
785.263 205.322 L
785.65 203.568 L
786.037 202.292 L
786.425 202.205 L
786.813 201.523 L
787.2 198.652 L
787.588 197.629 L
787.975 198.643 L
788.362 199.734 L
788.75 199.208 L
789.138 197.98 L
789.525 196.577 L
789.912 197.395 L
790.3 197.161 L
790.688 196.834 L
791.075 195.606 L
791.463 193.151 L
791.85 192.332 L
792.237 192.946 L
792.625 192.117 L
793.013 190.182 L
793.4 191.001 L
793.787 191.234 L
794.175 191.807 L
794.563 191.807 L
794.95 192.865 L
795.338 191.384 L
795.725 191.589 L
796.112 191.589 L
796.5 191.15 L
796.888 190.741 L
797.275 190.413 L
797.662 189.459 L
798.05 188.435 L
798.438 187.821 L
798.825 189.575 L
799.213 188.348 L
799.6 188.007 L
799.987 188.962 L
800.375 189.458 L
800.763 188.912 L
801.15 189.321 L
801.537 188.23 L
801.925 188.756 L
802.313 191.621 L
802.7 191.075 L
803.088 190.549 L
803.475 191.251 L
803.862 191.087 L
804.25 191.701 L
804.638 191.919 L
805.025 192.137 L
805.412 192.956 L
805.8 194.933 L
806.188 195.021 L
806.575 196.044 L
806.963 197.433 L
807.35 197.433 L
807.737 195.66 L
808.125 196.615 L
808.513 195.66 L
808.9 195.046 L
809.287 195.747 L
809.675 196.157 L
810.063 196.566 L
810.45 196.566 L
810.838 196.343 L
811.225 198.097 L
811.612 200.143 L
812 200.669 L
812.388 199.124 L
812.775 200.854 L
813.162 200.649 L
813.55 200.825 L
813.938 202.462 L
814.325 202.462 L
814.713 203.198 L
815.1 202.107 L
815.487 200.619 L
815.875 199.391 L
816.263 199.596 L
816.65 200.531 L
817.037 200.313 L
817.425 201.317 L
817.813 201.551 L
818.2 202.165 L
818.588 200.188 L
818.975 199.965 L
819.362 199.965 L
819.75 198.96 L
820.138 198.96 L
820.525 198.755 L
820.912 200.393 L
821.3 199.996 L
821.688 198.856 L
822.075 197.014 L
822.463 196.518 L
822.85 197.044 L
823.237 195.29 L
823.625 194.471 L
824.013 194.676 L
824.4 194.799 L
824.787 195.535 L
825.175 196.471 L
825.563 194.99 L
825.95 194.13 L
826.338 194.13 L
826.725 193.857 L
827.112 194.267 L
827.5 196.518 L
827.888 196.108 L
828.275 196.327 L
828.662 196.327 L
829.05 195.391 L
829.438 195.917 L
829.825 195.304 L
830.213 195.304 L
830.6 197.982 L
830.987 195.956 L
831.375 194.318 L
831.763 193.617 L
832.15 196.693 L
832.537 197.921 L
832.925 197.034 L
833.313 195.806 L
833.7 196.42 L
834.088 197.648 L
834.475 196.693 L
834.862 198.126 L
835.25 199.614 L
835.638 199.887 L
836.025 199.887 L
836.412 199.36 L
836.8 199.702 L
837.188 200.539 L
837.575 200.851 L
837.963 199.896 L
838.35 201.347 L
838.737 201.347 L
839.125 202.302 L
839.513 201.806 L
839.9 201.756 L
840.287 201.142 L
840.675 201.551 L
841.063 203.273 L
841.45 203.887 L
841.838 204.256 L
842.225 204.752 L
842.612 204.635 L
843 204.635 L
843.388 205.453 L
843.775 205.863 L
844.162 204.682 L
844.55 204.068 L
844.938 204.068 L
845.325 204.614 L
845.713 204.123 L
846.1 204 L
846.487 204 L
846.875 203.591 L
847.263 202.022 L
847.65 201.476 L
848.037 201.258 L
848.425 202.486 L
848.813 202.895 L
849.2 201.492 L
849.588 201.86 L
849.975 201.86 L
850.362 201.86 L
850.75 203.975 L
851.138 205.202 L
851.525 204.423 L
851.912 204.423 L
852.3 203.945 L
852.688 205.446 L
853.075 205.446 L
853.463 205.358 L
853.85 203.721 L
854.237 205.202 L
854.625 206.343 L
855.013 207.278 L
855.4 208.233 L
855.787 208.028 L
856.175 206.528 L
856.563 207.142 L
856.95 208.282 L
857.338 207.19 L
857.725 207.736 L
858.112 206.781 L
858.5 206.781 L
858.888 205.826 L
859.275 207.327 L
859.662 208.331 L
860.05 210.085 L
860.438 210.699 L
860.825 210.465 L
861.213 210.29 L
861.6 210.536 L
861.987 210.754 L
862.375 210.169 L
862.763 209.351 L
863.15 209.76 L
863.537 210.286 L
863.925 212.081 L
864.313 213.221 L
864.7 213.221 L
865.088 213.766 L
865.475 213.275 L
865.862 213.057 L
866.25 214.811 L
866.638 215.747 L
867.025 214.983 L
867.412 214.983 L
867.8 214.71 L
868.188 213.92 L
868.575 212.693 L
868.963 212.615 L
869.35 211.905 L
869.737 210.596 L
870.125 208.413 L
870.513 207.39 L
870.9 207.799 L
871.287 207.799 L
871.675 205.636 L
872.063 206.727 L
872.45 205.99 L
872.838 207.218 L
873.225 205.687 L
873.612 204.869 L
874 203.388 L
874.388 202.861 L
874.775 201.38 L
875.162 200.425 L
875.55 201.039 L
875.938 201.585 L
876.325 200.971 L
876.713 201.059 L
877.1 202.54 L
877.487 202.703 L
877.875 202.703 L
878.263 204.154 L
878.65 203.882 L
879.037 203.882 L
879.425 201.426 L
879.813 200.286 L
880.2 198.035 L
880.588 197.489 L
880.975 196.214 L
881.362 197.441 L
881.75 196.95 L
882.138 195.898 L
882.525 196.716 L
882.912 197.944 L
883.3 197.944 L
883.688 196.493 L
884.075 194.516 L
884.463 193.376 L
884.85 193.239 L
885.237 194.058 L
885.625 194.604 L
886.013 193.122 L
886.4 193.824 L
886.787 194.588 L
887.175 194.929 L
887.563 196.683 L
887.95 194.961 L
888.338 196.189 L
888.725 195.643 L
889.112 194.7 L
889.5 195.792 L
889.888 196.338 L
890.275 195.028 L
890.662 195.028 L
891.05 194.085 L
891.438 195.722 L
891.825 194.495 L
892.213 194.276 L
892.6 192.379 L
892.987 191.664 L
893.375 190.846 L
893.763 189.345 L
894.15 188.341 L
894.537 187.398 L
894.925 187.125 L
895.313 186.511 L
895.7 186.688 L
896.088 186.517 L
896.475 185.034 L
896.862 183.583 L
897.25 182.925 L
897.638 183.042 L
898.025 182.057 L
898.412 182.482 L
898.8 181.437 L
899.188 183.395 L
899.575 183.104 L
899.963 184.135 L
900.35 184.305 L
900.737 185.168 L
901.125 182.283 L
901.513 182.813 L
901.9 183.373 L
902.287 183.967 L
902.675 180.685 L
903.063 178.345 L
903.45 179.211 L
903.838 180.136 L
904.225 179.603 L
904.612 177.87 L
905 176.807 L
S
GR
%%Trailer
%%Pages: 1
%%EOF
