%!PS-Adobe-3.0 EPSF-3.0
%%Creator: (MATLAB, The Mathworks, Inc. Version 9.0.0.341360 \(R2016a\). Operating System: Linux)
%%Title: report/figures/sm_base_lin_unifprio4_ratio.eps
%%CreationDate: 2017-02-04T23:56:31
%%Pages: (atend)
%%BoundingBox:    59     4   910   325
%%LanguageLevel: 3
%%EndComments
%%BeginProlog
%%BeginResource: procset (Apache XML Graphics Std ProcSet) 1.2 0
%%Version: 1.2 0
%%Copyright: (Copyright 2001-2003,2010 The Apache Software Foundation. License terms: http://www.apache.org/licenses/LICENSE-2.0)
/bd{bind def}bind def
/ld{load def}bd
/GR/grestore ld
/M/moveto ld
/LJ/setlinejoin ld
/C/curveto ld
/f/fill ld
/LW/setlinewidth ld
/GC/setgray ld
/t/show ld
/N/newpath ld
/CT/concat ld
/cp/closepath ld
/S/stroke ld
/L/lineto ld
/CC/setcmykcolor ld
/A/ashow ld
/GS/gsave ld
/RC/setrgbcolor ld
/RM/rmoveto ld
/ML/setmiterlimit ld
/re {4 2 roll M
1 index 0 rlineto
0 exch rlineto
neg 0 rlineto
cp } bd
/_ctm matrix def
/_tm matrix def
/BT { _ctm currentmatrix pop matrix _tm copy pop 0 0 moveto } bd
/ET { _ctm setmatrix } bd
/iTm { _ctm setmatrix _tm concat } bd
/Tm { _tm astore pop iTm 0 0 moveto } bd
/ux 0.0 def
/uy 0.0 def
/F {
  /Tp exch def
  /Tf exch def
  Tf findfont Tp scalefont setfont
  /cf Tf def  /cs Tp def
} bd
/ULS {currentpoint /uy exch def /ux exch def} bd
/ULE {
  /Tcx currentpoint pop def
  gsave
  newpath
  cf findfont cs scalefont dup
  /FontMatrix get 0 get /Ts exch def /FontInfo get dup
  /UnderlinePosition get Ts mul /To exch def
  /UnderlineThickness get Ts mul /Tt exch def
  ux uy To add moveto  Tcx uy To add lineto
  Tt setlinewidth stroke
  grestore
} bd
/OLE {
  /Tcx currentpoint pop def
  gsave
  newpath
  cf findfont cs scalefont dup
  /FontMatrix get 0 get /Ts exch def /FontInfo get dup
  /UnderlinePosition get Ts mul /To exch def
  /UnderlineThickness get Ts mul /Tt exch def
  ux uy To add cs add moveto Tcx uy To add cs add lineto
  Tt setlinewidth stroke
  grestore
} bd
/SOE {
  /Tcx currentpoint pop def
  gsave
  newpath
  cf findfont cs scalefont dup
  /FontMatrix get 0 get /Ts exch def /FontInfo get dup
  /UnderlinePosition get Ts mul /To exch def
  /UnderlineThickness get Ts mul /Tt exch def
  ux uy To add cs 10 mul 26 idiv add moveto Tcx uy To add cs 10 mul 26 idiv add lineto
  Tt setlinewidth stroke
  grestore
} bd
/QT {
/Y22 exch store
/X22 exch store
/Y21 exch store
/X21 exch store
currentpoint
/Y21 load 2 mul add 3 div exch
/X21 load 2 mul add 3 div exch
/X21 load 2 mul /X22 load add 3 div
/Y21 load 2 mul /Y22 load add 3 div
/X22 load /Y22 load curveto
} bd
/SSPD {
dup length /d exch dict def
{
/v exch def
/k exch def
currentpagedevice k known {
/cpdv currentpagedevice k get def
v cpdv ne {
/upd false def
/nullv v type /nulltype eq def
/nullcpdv cpdv type /nulltype eq def
nullv nullcpdv or
{
/upd true def
} {
/sametype v type cpdv type eq def
sametype {
v type /arraytype eq {
/vlen v length def
/cpdvlen cpdv length def
vlen cpdvlen eq {
0 1 vlen 1 sub {
/i exch def
/obj v i get def
/cpdobj cpdv i get def
obj cpdobj ne {
/upd true def
exit
} if
} for
} {
/upd true def
} ifelse
} {
v type /dicttype eq {
v {
/dv exch def
/dk exch def
/cpddv cpdv dk get def
dv cpddv ne {
/upd true def
exit
} if
} forall
} {
/upd true def
} ifelse
} ifelse
} if
} ifelse
upd true eq {
d k v put
} if
} if
} if
} forall
d length 0 gt {
d setpagedevice
} if
} bd
%%EndResource
%%BeginResource: procset (Apache XML Graphics EPS ProcSet) 1.0 0
%%Version: 1.0 0
%%Copyright: (Copyright 2002-2003 The Apache Software Foundation. License terms: http://www.apache.org/licenses/LICENSE-2.0)
/BeginEPSF { %def
/b4_Inc_state save def         % Save state for cleanup
/dict_count countdictstack def % Count objects on dict stack
/op_count count 1 sub def      % Count objects on operand stack
userdict begin                 % Push userdict on dict stack
/showpage { } def              % Redefine showpage, { } = null proc
0 setgray 0 setlinecap         % Prepare graphics state
1 setlinewidth 0 setlinejoin
10 setmiterlimit [ ] 0 setdash newpath
/languagelevel where           % If level not equal to 1 then
{pop languagelevel             % set strokeadjust and
1 ne                           % overprint to their defaults.
{false setstrokeadjust false setoverprint
} if
} if
} bd
/EndEPSF { %def
count op_count sub {pop} repeat            % Clean up stacks
countdictstack dict_count sub {end} repeat
b4_Inc_state restore
} bd
%%EndResource
%%EndProlog
%%Page: 1 1
%%PageBoundingBox: 0 0 1000 350
%%BeginPageSetup
[1 0 0 -1 0 350] CT
%%EndPageSetup
GS
1 GC
N
0 0 1000 350 re
f
GR
GS
1 GC
N
0 0 1000 350 re
f
GR
GS
1 GC
N
130 289 M
905 289 L
905 26 L
130 26 L
cp
f
GR
GS
0.873 GC
1 LJ
0.5 LW
N
130 289 M
130 26 L
S
GR
GS
0.873 GC
1 LJ
0.5 LW
N
323.75 289 M
323.75 26 L
S
GR
GS
0.873 GC
1 LJ
0.5 LW
N
517.5 289 M
517.5 26 L
S
GR
GS
0.873 GC
1 LJ
0.5 LW
N
711.25 289 M
711.25 26 L
S
GR
GS
0.873 GC
1 LJ
0.5 LW
N
905 289 M
905 26 L
S
GR
GS
0.873 GC
1 LJ
0.5 LW
N
905 289 M
130 289 L
S
GR
GS
0.873 GC
1 LJ
0.5 LW
N
905 238.905 M
130 238.905 L
S
GR
GS
0.873 GC
1 LJ
0.5 LW
N
905 188.81 M
130 188.81 L
S
GR
GS
0.873 GC
1 LJ
0.5 LW
N
905 138.714 M
130 138.714 L
S
GR
GS
0.873 GC
1 LJ
0.5 LW
N
905 88.619 M
130 88.619 L
S
GR
GS
0.873 GC
1 LJ
0.5 LW
N
905 38.524 M
130 38.524 L
S
GR
GS
0.149 GC
2 setlinecap
1 LJ
0.5 LW
N
130 289 M
905 289 L
S
GR
GS
0.149 GC
2 setlinecap
1 LJ
0.5 LW
N
130 289 M
130 281.25 L
S
GR
GS
0.149 GC
2 setlinecap
1 LJ
0.5 LW
N
323.75 289 M
323.75 281.25 L
S
GR
GS
0.149 GC
2 setlinecap
1 LJ
0.5 LW
N
517.5 289 M
517.5 281.25 L
S
GR
GS
0.149 GC
2 setlinecap
1 LJ
0.5 LW
N
711.25 289 M
711.25 281.25 L
S
GR
GS
0.149 GC
2 setlinecap
1 LJ
0.5 LW
N
905 289 M
905 281.25 L
S
GR
GS
[1 0 0 1 130 295] CT
0.149 GC
N
-0.141 5.719 M
-1.672 5.719 -2.438 7.219 QT
-3.203 8.719 -3.203 11.719 QT
-3.203 14.719 -2.438 16.219 QT
-1.672 17.719 -0.141 17.719 QT
1.391 17.719 2.156 16.219 QT
2.922 14.719 2.922 11.719 QT
2.922 8.719 2.156 7.219 QT
1.391 5.719 -0.141 5.719 QT
cp
-0.141 4.156 M
2.313 4.156 3.602 6.094 QT
4.891 8.031 4.891 11.719 QT
4.891 15.406 3.602 17.344 QT
2.313 19.281 -0.141 19.281 QT
-2.594 19.281 -3.891 17.344 QT
-5.188 15.406 -5.188 11.719 QT
-5.188 8.031 -3.891 6.094 QT
-2.594 4.156 -0.141 4.156 QT
cp
f
GR
GS
[1 0 0 1 323.75 295] CT
0.149 GC
N
-9.641 5.719 M
-11.172 5.719 -11.938 7.219 QT
-12.703 8.719 -12.703 11.719 QT
-12.703 14.719 -11.938 16.219 QT
-11.172 17.719 -9.641 17.719 QT
-8.109 17.719 -7.344 16.219 QT
-6.578 14.719 -6.578 11.719 QT
-6.578 8.719 -7.344 7.219 QT
-8.109 5.719 -9.641 5.719 QT
cp
-9.641 4.156 M
-7.188 4.156 -5.898 6.094 QT
-4.609 8.031 -4.609 11.719 QT
-4.609 15.406 -5.898 17.344 QT
-7.188 19.281 -9.641 19.281 QT
-12.094 19.281 -13.391 17.344 QT
-14.688 15.406 -14.688 11.719 QT
-14.688 8.031 -13.391 6.094 QT
-12.094 4.156 -9.641 4.156 QT
cp
-1.135 16.516 M
0.928 16.516 L
0.928 19 L
-1.135 19 L
-1.135 16.516 L
cp
5.238 4.422 M
12.988 4.422 L
12.988 6.078 L
7.051 6.078 L
7.051 9.656 L
7.473 9.5 7.902 9.43 QT
8.332 9.359 8.77 9.359 QT
11.207 9.359 12.637 10.695 QT
14.066 12.031 14.066 14.328 QT
14.066 16.672 12.598 17.977 QT
11.129 19.281 8.457 19.281 QT
7.551 19.281 6.598 19.125 QT
5.645 18.969 4.629 18.656 QT
4.629 16.672 L
5.504 17.156 6.441 17.391 QT
7.379 17.625 8.426 17.625 QT
10.113 17.625 11.098 16.734 QT
12.082 15.844 12.082 14.328 QT
12.082 12.797 11.098 11.906 QT
10.113 11.016 8.426 11.016 QT
7.629 11.016 6.848 11.195 QT
6.066 11.375 5.238 11.75 QT
5.238 4.422 L
cp
f
GR
GS
[1 0 0 1 517.5 295] CT
0.149 GC
N
-4.016 17.344 M
-0.797 17.344 L
-0.797 6.219 L
-4.297 6.922 L
-4.297 5.125 L
-0.813 4.422 L
1.156 4.422 L
1.156 17.344 L
4.375 17.344 L
4.375 19 L
-4.016 19 L
-4.016 17.344 L
cp
f
GR
GS
[1 0 0 1 711.25 295] CT
0.149 GC
N
-13.516 17.344 M
-10.297 17.344 L
-10.297 6.219 L
-13.797 6.922 L
-13.797 5.125 L
-10.313 4.422 L
-8.344 4.422 L
-8.344 17.344 L
-5.125 17.344 L
-5.125 19 L
-13.516 19 L
-13.516 17.344 L
cp
-1.135 16.516 M
0.928 16.516 L
0.928 19 L
-1.135 19 L
-1.135 16.516 L
cp
5.238 4.422 M
12.988 4.422 L
12.988 6.078 L
7.051 6.078 L
7.051 9.656 L
7.473 9.5 7.902 9.43 QT
8.332 9.359 8.77 9.359 QT
11.207 9.359 12.637 10.695 QT
14.066 12.031 14.066 14.328 QT
14.066 16.672 12.598 17.977 QT
11.129 19.281 8.457 19.281 QT
7.551 19.281 6.598 19.125 QT
5.645 18.969 4.629 18.656 QT
4.629 16.672 L
5.504 17.156 6.441 17.391 QT
7.379 17.625 8.426 17.625 QT
10.113 17.625 11.098 16.734 QT
12.082 15.844 12.082 14.328 QT
12.082 12.797 11.098 11.906 QT
10.113 11.016 8.426 11.016 QT
7.629 11.016 6.848 11.195 QT
6.066 11.375 5.238 11.75 QT
5.238 4.422 L
cp
f
GR
GS
[1 0 0 1 905 295] CT
0.149 GC
N
-2.656 17.344 M
4.219 17.344 L
4.219 19 L
-5.031 19 L
-5.031 17.344 L
-3.906 16.172 -1.969 14.219 QT
-0.031 12.266 0.469 11.688 QT
1.406 10.625 1.781 9.891 QT
2.156 9.156 2.156 8.438 QT
2.156 7.281 1.344 6.547 QT
0.531 5.813 -0.781 5.813 QT
-1.703 5.813 -2.734 6.133 QT
-3.766 6.453 -4.938 7.109 QT
-4.938 5.125 L
-3.75 4.641 -2.711 4.398 QT
-1.672 4.156 -0.813 4.156 QT
1.453 4.156 2.797 5.289 QT
4.141 6.422 4.141 8.313 QT
4.141 9.219 3.805 10.023 QT
3.469 10.828 2.578 11.922 QT
2.344 12.203 1.031 13.555 QT
-0.281 14.906 -2.656 17.344 QT
cp
f
GR
GS
[1 0 0 1 517.50037 320] CT
0.149 GC
N
-14.25 9.328 M
-14.25 11.188 L
-15.094 10.766 -16 10.547 QT
-16.906 10.328 -17.859 10.328 QT
-19.344 10.328 -20.078 10.781 QT
-20.813 11.234 -20.813 12.141 QT
-20.813 12.828 -20.281 13.219 QT
-19.75 13.609 -18.172 13.969 QT
-17.484 14.109 L
-15.391 14.563 -14.5 15.383 QT
-13.609 16.203 -13.609 17.688 QT
-13.609 19.359 -14.938 20.336 QT
-16.266 21.313 -18.578 21.313 QT
-19.547 21.313 -20.594 21.125 QT
-21.641 20.938 -22.813 20.563 QT
-22.813 18.516 L
-21.719 19.094 -20.648 19.375 QT
-19.578 19.656 -18.547 19.656 QT
-17.141 19.656 -16.391 19.18 QT
-15.641 18.703 -15.641 17.828 QT
-15.641 17.031 -16.188 16.602 QT
-16.734 16.172 -18.563 15.766 QT
-19.25 15.609 L
-21.094 15.219 -21.906 14.422 QT
-22.719 13.625 -22.719 12.219 QT
-22.719 10.531 -21.516 9.602 QT
-20.313 8.672 -18.109 8.672 QT
-17 8.672 -16.039 8.836 QT
-15.078 9 -14.25 9.328 QT
cp
-8.507 5.547 M
-8.507 8.969 L
-4.444 8.969 L
-4.444 10.5 L
-8.507 10.5 L
-8.507 17.031 L
-8.507 18.5 -8.108 18.922 QT
-7.71 19.344 -6.476 19.344 QT
-4.444 19.344 L
-4.444 21 L
-6.476 21 L
-8.757 21 -9.624 20.148 QT
-10.491 19.297 -10.491 17.031 QT
-10.491 10.5 L
-11.944 10.5 L
-11.944 8.969 L
-10.491 8.969 L
-10.491 5.547 L
-8.507 5.547 L
cp
8.447 14.484 M
8.447 15.453 L
-0.631 15.453 L
-0.506 17.5 0.596 18.57 QT
1.697 19.641 3.666 19.641 QT
4.807 19.641 5.869 19.359 QT
6.932 19.078 7.994 18.516 QT
7.994 20.391 L
6.932 20.844 5.814 21.078 QT
4.697 21.313 3.541 21.313 QT
0.666 21.313 -1.014 19.633 QT
-2.693 17.953 -2.693 15.109 QT
-2.693 12.141 -1.1 10.406 QT
0.494 8.672 3.197 8.672 QT
5.635 8.672 7.041 10.234 QT
8.447 11.797 8.447 14.484 QT
cp
6.479 13.906 M
6.447 12.281 5.564 11.32 QT
4.682 10.359 3.229 10.359 QT
1.572 10.359 0.572 11.289 QT
-0.428 12.219 -0.568 13.922 QT
6.479 13.906 L
cp
13.607 19.188 M
13.607 25.578 L
11.623 25.578 L
11.623 8.969 L
13.607 8.969 L
13.607 10.797 L
14.232 9.719 15.186 9.195 QT
16.139 8.672 17.451 8.672 QT
19.639 8.672 21.014 10.414 QT
22.389 12.156 22.389 15 QT
22.389 17.828 21.014 19.57 QT
19.639 21.313 17.451 21.313 QT
16.139 21.313 15.186 20.789 QT
14.232 20.266 13.607 19.188 QT
cp
20.326 15 M
20.326 12.813 19.436 11.57 QT
18.545 10.328 16.967 10.328 QT
15.404 10.328 14.506 11.57 QT
13.607 12.813 13.607 15 QT
13.607 17.172 14.506 18.414 QT
15.404 19.656 16.967 19.656 QT
18.545 19.656 19.436 18.414 QT
20.326 17.172 20.326 15 QT
cp
f
GR
GS
[1 0 0 1 852 345] CT
0.149 GC
N
2.938 -0.578 M
2.938 -0.734 3.031 -0.859 QT
7.203 -5 L
3.031 -9.156 L
2.938 -9.266 2.938 -9.422 QT
2.938 -9.578 3.055 -9.703 QT
3.172 -9.828 3.344 -9.828 QT
3.484 -9.828 3.641 -9.703 QT
7.781 -5.563 L
11.906 -9.703 L
12.078 -9.828 12.203 -9.828 QT
12.359 -9.828 12.477 -9.711 QT
12.594 -9.594 12.594 -9.422 QT
12.594 -9.266 12.5 -9.156 QT
8.344 -5 L
12.5 -0.859 L
12.594 -0.734 12.594 -0.578 QT
12.594 -0.406 12.477 -0.289 QT
12.359 -0.172 12.203 -0.172 QT
12.047 -0.172 11.906 -0.328 QT
7.781 -4.438 L
3.641 -0.328 L
3.5 -0.172 3.344 -0.172 QT
3.172 -0.172 3.055 -0.305 QT
2.938 -0.438 2.938 -0.578 QT
cp
f
GR
GS
[1 0 0 1 868 345] CT
0.149 GC
N
2.484 -1.656 M
5.703 -1.656 L
5.703 -12.781 L
2.203 -12.078 L
2.203 -13.875 L
5.688 -14.578 L
7.656 -14.578 L
7.656 -1.656 L
10.875 -1.656 L
10.875 0 L
2.484 0 L
2.484 -1.656 L
cp
19.084 -13.281 M
17.553 -13.281 16.787 -11.781 QT
16.021 -10.281 16.021 -7.281 QT
16.021 -4.281 16.787 -2.781 QT
17.553 -1.281 19.084 -1.281 QT
20.615 -1.281 21.381 -2.781 QT
22.146 -4.281 22.146 -7.281 QT
22.146 -10.281 21.381 -11.781 QT
20.615 -13.281 19.084 -13.281 QT
cp
19.084 -14.844 M
21.537 -14.844 22.826 -12.906 QT
24.115 -10.969 24.115 -7.281 QT
24.115 -3.594 22.826 -1.656 QT
21.537 0.281 19.084 0.281 QT
16.631 0.281 15.334 -1.656 QT
14.037 -3.594 14.037 -7.281 QT
14.037 -10.969 15.334 -12.906 QT
16.631 -14.844 19.084 -14.844 QT
cp
f
GR
GS
[1 0 0 1 894 335] CT
0.149 GC
N
5.281 -6.469 M
4.219 -6.469 3.602 -5.742 QT
2.984 -5.016 2.984 -3.75 QT
2.984 -2.484 3.602 -1.758 QT
4.219 -1.031 5.281 -1.031 QT
6.344 -1.031 6.969 -1.758 QT
7.594 -2.484 7.594 -3.75 QT
7.594 -5.016 6.969 -5.742 QT
6.344 -6.469 5.281 -6.469 QT
cp
8.422 -11.406 M
8.422 -9.969 L
7.828 -10.25 7.219 -10.398 QT
6.609 -10.547 6.016 -10.547 QT
4.453 -10.547 3.633 -9.492 QT
2.813 -8.438 2.688 -6.313 QT
3.156 -6.984 3.852 -7.352 QT
4.547 -7.719 5.375 -7.719 QT
7.141 -7.719 8.156 -6.648 QT
9.172 -5.578 9.172 -3.75 QT
9.172 -1.953 8.109 -0.859 QT
7.047 0.234 5.281 0.234 QT
3.266 0.234 2.195 -1.32 QT
1.125 -2.875 1.125 -5.828 QT
1.125 -8.594 2.438 -10.234 QT
3.75 -11.875 5.953 -11.875 QT
6.547 -11.875 7.156 -11.758 QT
7.766 -11.641 8.422 -11.406 QT
cp
f
GR
GS
0.149 GC
2 setlinecap
1 LJ
0.5 LW
N
130 289 M
130 26 L
S
GR
GS
0.149 GC
2 setlinecap
1 LJ
0.5 LW
N
130 289 M
137.75 289 L
S
GR
GS
0.149 GC
2 setlinecap
1 LJ
0.5 LW
N
130 238.905 M
137.75 238.905 L
S
GR
GS
0.149 GC
2 setlinecap
1 LJ
0.5 LW
N
130 188.81 M
137.75 188.81 L
S
GR
GS
0.149 GC
2 setlinecap
1 LJ
0.5 LW
N
130 138.714 M
137.75 138.714 L
S
GR
GS
0.149 GC
2 setlinecap
1 LJ
0.5 LW
N
130 88.619 M
137.75 88.619 L
S
GR
GS
0.149 GC
2 setlinecap
1 LJ
0.5 LW
N
130 38.524 M
137.75 38.524 L
S
GR
GS
[1 0 0 1 124 289] CT
0.149 GC
N
-6.641 -6.281 M
-8.172 -6.281 -8.938 -4.781 QT
-9.703 -3.281 -9.703 -0.281 QT
-9.703 2.719 -8.938 4.219 QT
-8.172 5.719 -6.641 5.719 QT
-5.109 5.719 -4.344 4.219 QT
-3.578 2.719 -3.578 -0.281 QT
-3.578 -3.281 -4.344 -4.781 QT
-5.109 -6.281 -6.641 -6.281 QT
cp
-6.641 -7.844 M
-4.188 -7.844 -2.898 -5.906 QT
-1.609 -3.969 -1.609 -0.281 QT
-1.609 3.406 -2.898 5.344 QT
-4.188 7.281 -6.641 7.281 QT
-9.094 7.281 -10.391 5.344 QT
-11.688 3.406 -11.688 -0.281 QT
-11.688 -3.969 -10.391 -5.906 QT
-9.094 -7.844 -6.641 -7.844 QT
cp
f
GR
GS
[1 0 0 1 124 238.90475] CT
0.149 GC
N
-22.156 5.344 M
-15.281 5.344 L
-15.281 7 L
-24.531 7 L
-24.531 5.344 L
-23.406 4.172 -21.469 2.219 QT
-19.531 0.266 -19.031 -0.313 QT
-18.094 -1.375 -17.719 -2.109 QT
-17.344 -2.844 -17.344 -3.563 QT
-17.344 -4.719 -18.156 -5.453 QT
-18.969 -6.188 -20.281 -6.188 QT
-21.203 -6.188 -22.234 -5.867 QT
-23.266 -5.547 -24.438 -4.891 QT
-24.438 -6.875 L
-23.25 -7.359 -22.211 -7.602 QT
-21.172 -7.844 -20.313 -7.844 QT
-18.047 -7.844 -16.703 -6.711 QT
-15.359 -5.578 -15.359 -3.688 QT
-15.359 -2.781 -15.695 -1.977 QT
-16.031 -1.172 -16.922 -0.078 QT
-17.156 0.203 -18.469 1.555 QT
-19.781 2.906 -22.156 5.344 QT
cp
-6.916 -6.281 M
-8.447 -6.281 -9.213 -4.781 QT
-9.979 -3.281 -9.979 -0.281 QT
-9.979 2.719 -9.213 4.219 QT
-8.447 5.719 -6.916 5.719 QT
-5.385 5.719 -4.619 4.219 QT
-3.854 2.719 -3.854 -0.281 QT
-3.854 -3.281 -4.619 -4.781 QT
-5.385 -6.281 -6.916 -6.281 QT
cp
-6.916 -7.844 M
-4.463 -7.844 -3.174 -5.906 QT
-1.885 -3.969 -1.885 -0.281 QT
-1.885 3.406 -3.174 5.344 QT
-4.463 7.281 -6.916 7.281 QT
-9.369 7.281 -10.666 5.344 QT
-11.963 3.406 -11.963 -0.281 QT
-11.963 -3.969 -10.666 -5.906 QT
-9.369 -7.844 -6.916 -7.844 QT
cp
f
GR
GS
[1 0 0 1 124 188.80952] CT
0.149 GC
N
-18.438 -5.859 M
-23.422 1.922 L
-18.438 1.922 L
-18.438 -5.859 L
cp
-18.953 -7.578 M
-16.484 -7.578 L
-16.484 1.922 L
-14.391 1.922 L
-14.391 3.563 L
-16.484 3.563 L
-16.484 7 L
-18.438 7 L
-18.438 3.563 L
-25.016 3.563 L
-25.016 1.656 L
-18.953 -7.578 L
cp
-6.916 -6.281 M
-8.447 -6.281 -9.213 -4.781 QT
-9.979 -3.281 -9.979 -0.281 QT
-9.979 2.719 -9.213 4.219 QT
-8.447 5.719 -6.916 5.719 QT
-5.385 5.719 -4.619 4.219 QT
-3.854 2.719 -3.854 -0.281 QT
-3.854 -3.281 -4.619 -4.781 QT
-5.385 -6.281 -6.916 -6.281 QT
cp
-6.916 -7.844 M
-4.463 -7.844 -3.174 -5.906 QT
-1.885 -3.969 -1.885 -0.281 QT
-1.885 3.406 -3.174 5.344 QT
-4.463 7.281 -6.916 7.281 QT
-9.369 7.281 -10.666 5.344 QT
-11.963 3.406 -11.963 -0.281 QT
-11.963 -3.969 -10.666 -5.906 QT
-9.369 -7.844 -6.916 -7.844 QT
cp
f
GR
GS
[1 0 0 1 124 138.71428] CT
0.149 GC
N
-19.391 -1.078 M
-20.719 -1.078 -21.5 -0.172 QT
-22.281 0.734 -22.281 2.328 QT
-22.281 3.891 -21.5 4.805 QT
-20.719 5.719 -19.391 5.719 QT
-18.063 5.719 -17.289 4.805 QT
-16.516 3.891 -16.516 2.328 QT
-16.516 0.734 -17.289 -0.172 QT
-18.063 -1.078 -19.391 -1.078 QT
cp
-15.484 -7.266 M
-15.484 -5.469 L
-16.219 -5.813 -16.977 -6 QT
-17.734 -6.188 -18.484 -6.188 QT
-20.438 -6.188 -21.469 -4.867 QT
-22.5 -3.547 -22.641 -0.875 QT
-22.063 -1.734 -21.195 -2.188 QT
-20.328 -2.641 -19.281 -2.641 QT
-17.078 -2.641 -15.805 -1.305 QT
-14.531 0.031 -14.531 2.328 QT
-14.531 4.563 -15.859 5.922 QT
-17.188 7.281 -19.391 7.281 QT
-21.922 7.281 -23.266 5.344 QT
-24.609 3.406 -24.609 -0.281 QT
-24.609 -3.734 -22.969 -5.789 QT
-21.328 -7.844 -18.563 -7.844 QT
-17.813 -7.844 -17.055 -7.695 QT
-16.297 -7.547 -15.484 -7.266 QT
cp
-6.916 -6.281 M
-8.447 -6.281 -9.213 -4.781 QT
-9.979 -3.281 -9.979 -0.281 QT
-9.979 2.719 -9.213 4.219 QT
-8.447 5.719 -6.916 5.719 QT
-5.385 5.719 -4.619 4.219 QT
-3.854 2.719 -3.854 -0.281 QT
-3.854 -3.281 -4.619 -4.781 QT
-5.385 -6.281 -6.916 -6.281 QT
cp
-6.916 -7.844 M
-4.463 -7.844 -3.174 -5.906 QT
-1.885 -3.969 -1.885 -0.281 QT
-1.885 3.406 -3.174 5.344 QT
-4.463 7.281 -6.916 7.281 QT
-9.369 7.281 -10.666 5.344 QT
-11.963 3.406 -11.963 -0.281 QT
-11.963 -3.969 -10.666 -5.906 QT
-9.369 -7.844 -6.916 -7.844 QT
cp
f
GR
GS
[1 0 0 1 124 88.61905] CT
0.149 GC
N
-19.641 0.078 M
-21.047 0.078 -21.852 0.828 QT
-22.656 1.578 -22.656 2.891 QT
-22.656 4.219 -21.852 4.969 QT
-21.047 5.719 -19.641 5.719 QT
-18.234 5.719 -17.422 4.961 QT
-16.609 4.203 -16.609 2.891 QT
-16.609 1.578 -17.414 0.828 QT
-18.219 0.078 -19.641 0.078 QT
cp
-21.609 -0.766 M
-22.891 -1.078 -23.594 -1.945 QT
-24.297 -2.813 -24.297 -4.063 QT
-24.297 -5.813 -23.055 -6.828 QT
-21.813 -7.844 -19.641 -7.844 QT
-17.469 -7.844 -16.227 -6.828 QT
-14.984 -5.813 -14.984 -4.063 QT
-14.984 -2.813 -15.695 -1.945 QT
-16.406 -1.078 -17.656 -0.766 QT
-16.234 -0.438 -15.438 0.531 QT
-14.641 1.5 -14.641 2.891 QT
-14.641 5.016 -15.938 6.148 QT
-17.234 7.281 -19.641 7.281 QT
-22.047 7.281 -23.344 6.148 QT
-24.641 5.016 -24.641 2.891 QT
-24.641 1.5 -23.844 0.531 QT
-23.047 -0.438 -21.609 -0.766 QT
cp
-22.344 -3.875 M
-22.344 -2.75 -21.633 -2.117 QT
-20.922 -1.484 -19.641 -1.484 QT
-18.375 -1.484 -17.656 -2.117 QT
-16.938 -2.75 -16.938 -3.875 QT
-16.938 -5.016 -17.656 -5.648 QT
-18.375 -6.281 -19.641 -6.281 QT
-20.922 -6.281 -21.633 -5.648 QT
-22.344 -5.016 -22.344 -3.875 QT
cp
-6.916 -6.281 M
-8.447 -6.281 -9.213 -4.781 QT
-9.979 -3.281 -9.979 -0.281 QT
-9.979 2.719 -9.213 4.219 QT
-8.447 5.719 -6.916 5.719 QT
-5.385 5.719 -4.619 4.219 QT
-3.854 2.719 -3.854 -0.281 QT
-3.854 -3.281 -4.619 -4.781 QT
-5.385 -6.281 -6.916 -6.281 QT
cp
-6.916 -7.844 M
-4.463 -7.844 -3.174 -5.906 QT
-1.885 -3.969 -1.885 -0.281 QT
-1.885 3.406 -3.174 5.344 QT
-4.463 7.281 -6.916 7.281 QT
-9.369 7.281 -10.666 5.344 QT
-11.963 3.406 -11.963 -0.281 QT
-11.963 -3.969 -10.666 -5.906 QT
-9.369 -7.844 -6.916 -7.844 QT
cp
f
GR
GS
[1 0 0 1 124 38.52381] CT
0.149 GC
N
-36.516 5.344 M
-33.297 5.344 L
-33.297 -5.781 L
-36.797 -5.078 L
-36.797 -6.875 L
-33.313 -7.578 L
-31.344 -7.578 L
-31.344 5.344 L
-28.125 5.344 L
-28.125 7 L
-36.516 7 L
-36.516 5.344 L
cp
-19.916 -6.281 M
-21.447 -6.281 -22.213 -4.781 QT
-22.979 -3.281 -22.979 -0.281 QT
-22.979 2.719 -22.213 4.219 QT
-21.447 5.719 -19.916 5.719 QT
-18.385 5.719 -17.619 4.219 QT
-16.854 2.719 -16.854 -0.281 QT
-16.854 -3.281 -17.619 -4.781 QT
-18.385 -6.281 -19.916 -6.281 QT
cp
-19.916 -7.844 M
-17.463 -7.844 -16.174 -5.906 QT
-14.885 -3.969 -14.885 -0.281 QT
-14.885 3.406 -16.174 5.344 QT
-17.463 7.281 -19.916 7.281 QT
-22.369 7.281 -23.666 5.344 QT
-24.963 3.406 -24.963 -0.281 QT
-24.963 -3.969 -23.666 -5.906 QT
-22.369 -7.844 -19.916 -7.844 QT
cp
-7.191 -6.281 M
-8.723 -6.281 -9.488 -4.781 QT
-10.254 -3.281 -10.254 -0.281 QT
-10.254 2.719 -9.488 4.219 QT
-8.723 5.719 -7.191 5.719 QT
-5.66 5.719 -4.895 4.219 QT
-4.129 2.719 -4.129 -0.281 QT
-4.129 -3.281 -4.895 -4.781 QT
-5.66 -6.281 -7.191 -6.281 QT
cp
-7.191 -7.844 M
-4.738 -7.844 -3.449 -5.906 QT
-2.16 -3.969 -2.16 -0.281 QT
-2.16 3.406 -3.449 5.344 QT
-4.738 7.281 -7.191 7.281 QT
-9.645 7.281 -10.941 5.344 QT
-12.238 3.406 -12.238 -0.281 QT
-12.238 -3.969 -10.941 -5.906 QT
-9.645 -7.844 -7.191 -7.844 QT
cp
f
GR
GS
[0 -1 1 0 82 157.49988] CT
0.149 GC
N
-113.063 -22.031 M
-99.5 -22.031 L
-99.5 -20.219 L
-105.188 -20.219 L
-105.188 -6 L
-107.375 -6 L
-107.375 -20.219 L
-113.063 -20.219 L
-113.063 -22.031 L
cp
-92.015 -12.047 M
-94.421 -12.047 -95.343 -11.5 QT
-96.265 -10.953 -96.265 -9.625 QT
-96.265 -8.578 -95.569 -7.961 QT
-94.874 -7.344 -93.687 -7.344 QT
-92.046 -7.344 -91.054 -8.508 QT
-90.062 -9.672 -90.062 -11.609 QT
-90.062 -12.047 L
-92.015 -12.047 L
cp
-88.077 -12.859 M
-88.077 -6 L
-90.062 -6 L
-90.062 -7.828 L
-90.733 -6.734 -91.741 -6.211 QT
-92.749 -5.688 -94.218 -5.688 QT
-96.062 -5.688 -97.147 -6.727 QT
-98.233 -7.766 -98.233 -9.5 QT
-98.233 -11.531 -96.874 -12.563 QT
-95.515 -13.594 -92.827 -13.594 QT
-90.062 -13.594 L
-90.062 -13.781 L
-90.062 -15.156 -90.952 -15.898 QT
-91.843 -16.641 -93.468 -16.641 QT
-94.499 -16.641 -95.476 -16.398 QT
-96.452 -16.156 -97.358 -15.656 QT
-97.358 -17.484 L
-96.28 -17.906 -95.257 -18.117 QT
-94.233 -18.328 -93.265 -18.328 QT
-90.655 -18.328 -89.366 -16.969 QT
-88.077 -15.609 -88.077 -12.859 QT
cp
-77.033 -16.188 M
-77.361 -16.375 -77.76 -16.469 QT
-78.158 -16.563 -78.627 -16.563 QT
-80.299 -16.563 -81.197 -15.469 QT
-82.096 -14.375 -82.096 -12.344 QT
-82.096 -6 L
-84.08 -6 L
-84.08 -18.031 L
-82.096 -18.031 L
-82.096 -16.156 L
-81.471 -17.266 -80.471 -17.797 QT
-79.471 -18.328 -78.049 -18.328 QT
-77.846 -18.328 -77.596 -18.297 QT
-77.346 -18.266 -77.049 -18.219 QT
-77.033 -16.188 L
cp
-67.051 -12.156 M
-67.051 -14.297 -67.934 -15.484 QT
-68.816 -16.672 -70.41 -16.672 QT
-72.004 -16.672 -72.895 -15.484 QT
-73.785 -14.297 -73.785 -12.156 QT
-73.785 -10.016 -72.895 -8.836 QT
-72.004 -7.656 -70.41 -7.656 QT
-68.816 -7.656 -67.934 -8.836 QT
-67.051 -10.016 -67.051 -12.156 QT
cp
-65.066 -7.5 M
-65.066 -4.422 -66.434 -2.922 QT
-67.801 -1.422 -70.613 -1.422 QT
-71.66 -1.422 -72.582 -1.578 QT
-73.504 -1.734 -74.363 -2.063 QT
-74.363 -3.984 L
-73.504 -3.5 -72.652 -3.281 QT
-71.801 -3.063 -70.926 -3.063 QT
-68.973 -3.063 -68.012 -4.078 QT
-67.051 -5.094 -67.051 -7.141 QT
-67.051 -8.109 L
-67.66 -7.047 -68.613 -6.523 QT
-69.566 -6 -70.895 -6 QT
-73.113 -6 -74.465 -7.688 QT
-75.816 -9.375 -75.816 -12.156 QT
-75.816 -14.953 -74.465 -16.641 QT
-73.113 -18.328 -70.895 -18.328 QT
-69.566 -18.328 -68.613 -17.797 QT
-67.66 -17.266 -67.051 -16.203 QT
-67.051 -18.031 L
-65.066 -18.031 L
-65.066 -7.5 L
cp
-50.711 -12.516 M
-50.711 -11.547 L
-59.789 -11.547 L
-59.664 -9.5 -58.563 -8.43 QT
-57.461 -7.359 -55.492 -7.359 QT
-54.352 -7.359 -53.289 -7.641 QT
-52.227 -7.922 -51.164 -8.484 QT
-51.164 -6.609 L
-52.227 -6.156 -53.344 -5.922 QT
-54.461 -5.688 -55.617 -5.688 QT
-58.492 -5.688 -60.172 -7.367 QT
-61.852 -9.047 -61.852 -11.891 QT
-61.852 -14.859 -60.258 -16.594 QT
-58.664 -18.328 -55.961 -18.328 QT
-53.523 -18.328 -52.117 -16.766 QT
-50.711 -15.203 -50.711 -12.516 QT
cp
-52.68 -13.094 M
-52.711 -14.719 -53.594 -15.68 QT
-54.477 -16.641 -55.93 -16.641 QT
-57.586 -16.641 -58.586 -15.711 QT
-59.586 -14.781 -59.727 -13.078 QT
-52.68 -13.094 L
cp
-45.504 -21.453 M
-45.504 -18.031 L
-41.441 -18.031 L
-41.441 -16.5 L
-45.504 -16.5 L
-45.504 -9.969 L
-45.504 -8.5 -45.105 -8.078 QT
-44.707 -7.656 -43.473 -7.656 QT
-41.441 -7.656 L
-41.441 -6 L
-43.473 -6 L
-45.754 -6 -46.621 -6.852 QT
-47.488 -7.703 -47.488 -9.969 QT
-47.488 -16.5 L
-48.941 -16.5 L
-48.941 -18.031 L
-47.488 -18.031 L
-47.488 -21.453 L
-45.504 -21.453 L
cp
-31.159 -17.672 M
-31.159 -15.813 L
-32.003 -16.234 -32.909 -16.453 QT
-33.815 -16.672 -34.769 -16.672 QT
-36.253 -16.672 -36.987 -16.219 QT
-37.722 -15.766 -37.722 -14.859 QT
-37.722 -14.172 -37.19 -13.781 QT
-36.659 -13.391 -35.081 -13.031 QT
-34.394 -12.891 L
-32.3 -12.438 -31.409 -11.617 QT
-30.519 -10.797 -30.519 -9.313 QT
-30.519 -7.641 -31.847 -6.664 QT
-33.175 -5.688 -35.487 -5.688 QT
-36.456 -5.688 -37.503 -5.875 QT
-38.55 -6.063 -39.722 -6.438 QT
-39.722 -8.484 L
-38.628 -7.906 -37.558 -7.625 QT
-36.487 -7.344 -35.456 -7.344 QT
-34.05 -7.344 -33.3 -7.82 QT
-32.55 -8.297 -32.55 -9.172 QT
-32.55 -9.969 -33.097 -10.398 QT
-33.644 -10.828 -35.472 -11.234 QT
-36.159 -11.391 L
-38.003 -11.781 -38.815 -12.578 QT
-39.628 -13.375 -39.628 -14.781 QT
-39.628 -16.469 -38.425 -17.398 QT
-37.222 -18.328 -35.019 -18.328 QT
-33.909 -18.328 -32.948 -18.164 QT
-31.987 -18 -31.159 -17.672 QT
cp
-13.407 -16.188 M
-13.735 -16.375 -14.134 -16.469 QT
-14.532 -16.563 -15.001 -16.563 QT
-16.673 -16.563 -17.571 -15.469 QT
-18.47 -14.375 -18.47 -12.344 QT
-18.47 -6 L
-20.454 -6 L
-20.454 -18.031 L
-18.47 -18.031 L
-18.47 -16.156 L
-17.845 -17.266 -16.845 -17.797 QT
-15.845 -18.328 -14.423 -18.328 QT
-14.22 -18.328 -13.97 -18.297 QT
-13.72 -18.266 -13.423 -18.219 QT
-13.407 -16.188 L
cp
-1.05 -12.516 M
-1.05 -11.547 L
-10.128 -11.547 L
-10.003 -9.5 -8.901 -8.43 QT
-7.8 -7.359 -5.831 -7.359 QT
-4.69 -7.359 -3.628 -7.641 QT
-2.565 -7.922 -1.503 -8.484 QT
-1.503 -6.609 L
-2.565 -6.156 -3.683 -5.922 QT
-4.8 -5.688 -5.956 -5.688 QT
-8.831 -5.688 -10.511 -7.367 QT
-12.19 -9.047 -12.19 -11.891 QT
-12.19 -14.859 -10.597 -16.594 QT
-9.003 -18.328 -6.3 -18.328 QT
-3.862 -18.328 -2.456 -16.766 QT
-1.05 -15.203 -1.05 -12.516 QT
cp
-3.019 -13.094 M
-3.05 -14.719 -3.933 -15.68 QT
-4.815 -16.641 -6.269 -16.641 QT
-7.925 -16.641 -8.925 -15.711 QT
-9.925 -14.781 -10.065 -13.078 QT
-3.019 -13.094 L
cp
7.673 -12.047 M
5.267 -12.047 4.345 -11.5 QT
3.423 -10.953 3.423 -9.625 QT
3.423 -8.578 4.118 -7.961 QT
4.813 -7.344 6.001 -7.344 QT
7.642 -7.344 8.634 -8.508 QT
9.626 -9.672 9.626 -11.609 QT
9.626 -12.047 L
7.673 -12.047 L
cp
11.61 -12.859 M
11.61 -6 L
9.626 -6 L
9.626 -7.828 L
8.954 -6.734 7.946 -6.211 QT
6.938 -5.688 5.47 -5.688 QT
3.626 -5.688 2.54 -6.727 QT
1.454 -7.766 1.454 -9.5 QT
1.454 -11.531 2.813 -12.563 QT
4.173 -13.594 6.86 -13.594 QT
9.626 -13.594 L
9.626 -13.781 L
9.626 -15.156 8.735 -15.898 QT
7.845 -16.641 6.22 -16.641 QT
5.188 -16.641 4.212 -16.398 QT
3.235 -16.156 2.329 -15.656 QT
2.329 -17.484 L
3.407 -17.906 4.431 -18.117 QT
5.454 -18.328 6.423 -18.328 QT
9.032 -18.328 10.321 -16.969 QT
11.61 -15.609 11.61 -12.859 QT
cp
24.342 -17.563 M
24.342 -15.719 L
23.498 -16.188 22.654 -16.414 QT
21.811 -16.641 20.951 -16.641 QT
19.029 -16.641 17.967 -15.422 QT
16.904 -14.203 16.904 -12 QT
16.904 -9.797 17.967 -8.578 QT
19.029 -7.359 20.951 -7.359 QT
21.811 -7.359 22.654 -7.594 QT
23.498 -7.828 24.342 -8.281 QT
24.342 -6.469 L
23.514 -6.078 22.623 -5.883 QT
21.732 -5.688 20.748 -5.688 QT
18.029 -5.688 16.428 -7.398 QT
14.826 -9.109 14.826 -12 QT
14.826 -14.953 16.443 -16.641 QT
18.061 -18.328 20.873 -18.328 QT
21.779 -18.328 22.654 -18.141 QT
23.529 -17.953 24.342 -17.563 QT
cp
37.781 -13.266 M
37.781 -6 L
35.797 -6 L
35.797 -13.203 L
35.797 -14.906 35.133 -15.758 QT
34.469 -16.609 33.141 -16.609 QT
31.531 -16.609 30.609 -15.586 QT
29.688 -14.563 29.688 -12.797 QT
29.688 -6 L
27.703 -6 L
27.703 -22.719 L
29.688 -22.719 L
29.688 -16.156 L
30.391 -17.25 31.359 -17.789 QT
32.328 -18.328 33.578 -18.328 QT
35.656 -18.328 36.719 -17.039 QT
37.781 -15.75 37.781 -13.266 QT
cp
52.006 -12.516 M
52.006 -11.547 L
42.928 -11.547 L
43.053 -9.5 44.154 -8.43 QT
45.256 -7.359 47.225 -7.359 QT
48.365 -7.359 49.428 -7.641 QT
50.49 -7.922 51.553 -8.484 QT
51.553 -6.609 L
50.49 -6.156 49.373 -5.922 QT
48.256 -5.688 47.1 -5.688 QT
44.225 -5.688 42.545 -7.367 QT
40.865 -9.047 40.865 -11.891 QT
40.865 -14.859 42.459 -16.594 QT
44.053 -18.328 46.756 -18.328 QT
49.193 -18.328 50.6 -16.766 QT
52.006 -15.203 52.006 -12.516 QT
cp
50.037 -13.094 M
50.006 -14.719 49.123 -15.68 QT
48.24 -16.641 46.787 -16.641 QT
45.131 -16.641 44.131 -15.711 QT
43.131 -14.781 42.99 -13.078 QT
50.037 -13.094 L
cp
63.166 -16.203 M
63.166 -22.719 L
65.15 -22.719 L
65.15 -6 L
63.166 -6 L
63.166 -7.813 L
62.557 -6.734 61.604 -6.211 QT
60.65 -5.688 59.322 -5.688 QT
57.135 -5.688 55.768 -7.43 QT
54.4 -9.172 54.4 -12 QT
54.4 -14.844 55.768 -16.586 QT
57.135 -18.328 59.322 -18.328 QT
60.65 -18.328 61.604 -17.805 QT
62.557 -17.281 63.166 -16.203 QT
cp
56.432 -12 M
56.432 -9.828 57.33 -8.586 QT
58.229 -7.344 59.807 -7.344 QT
61.369 -7.344 62.268 -8.586 QT
63.166 -9.828 63.166 -12 QT
63.166 -14.188 62.268 -15.43 QT
61.369 -16.672 59.807 -16.672 QT
58.229 -16.672 57.33 -15.43 QT
56.432 -14.188 56.432 -12 QT
cp
76.03 -22.719 M
80.593 -22.719 L
80.593 -21.172 L
78.015 -21.172 L
78.015 -4.641 L
80.593 -4.641 L
80.593 -3.094 L
76.03 -3.094 L
76.03 -22.719 L
cp
98.723 -13.063 M
97.785 -13.063 97.254 -12.266 QT
96.723 -11.469 96.723 -10.047 QT
96.723 -8.656 97.254 -7.852 QT
97.785 -7.047 98.723 -7.047 QT
99.629 -7.047 100.16 -7.852 QT
100.691 -8.656 100.691 -10.047 QT
100.691 -11.453 100.16 -12.258 QT
99.629 -13.063 98.723 -13.063 QT
cp
98.723 -14.422 M
100.41 -14.422 101.41 -13.242 QT
102.41 -12.063 102.41 -10.047 QT
102.41 -8.047 101.41 -6.867 QT
100.41 -5.688 98.723 -5.688 QT
97.004 -5.688 96.004 -6.867 QT
95.004 -8.047 95.004 -10.047 QT
95.004 -12.063 96.004 -13.242 QT
97.004 -14.422 98.723 -14.422 QT
cp
87.629 -20.969 M
86.707 -20.969 86.176 -20.164 QT
85.645 -19.359 85.645 -17.969 QT
85.645 -16.547 86.168 -15.75 QT
86.691 -14.953 87.629 -14.953 QT
88.566 -14.953 89.098 -15.75 QT
89.629 -16.547 89.629 -17.969 QT
89.629 -19.359 89.09 -20.164 QT
88.551 -20.969 87.629 -20.969 QT
cp
97.332 -22.328 M
99.051 -22.328 L
89.02 -5.688 L
87.301 -5.688 L
97.332 -22.328 L
cp
87.629 -22.328 M
89.332 -22.328 90.34 -21.148 QT
91.348 -19.969 91.348 -17.969 QT
91.348 -15.938 90.348 -14.766 QT
89.348 -13.594 87.629 -13.594 QT
85.926 -13.594 84.934 -14.773 QT
83.941 -15.953 83.941 -17.969 QT
83.941 -19.969 84.941 -21.148 QT
85.941 -22.328 87.629 -22.328 QT
cp
110.314 -22.719 M
110.314 -3.094 L
105.768 -3.094 L
105.768 -4.641 L
108.33 -4.641 L
108.33 -21.172 L
105.768 -21.172 L
105.768 -22.719 L
110.314 -22.719 L
cp
f
GR
GS
0 0.447 0.741 RC
1 LJ
0.5 LW
N
169.525 101.143 M
169.913 149.847 L
170.3 127.98 L
170.688 101.143 L
171.075 122.016 L
171.462 122.016 L
171.85 56.415 L
172.238 163.762 L
172.625 50.451 L
173.012 122.016 L
173.4 86.234 L
173.788 134.861 L
174.175 122.016 L
174.563 122.016 L
174.95 74.306 L
175.337 96.326 L
175.725 122.016 L
176.113 94.185 L
176.5 50.451 L
176.887 85.488 L
177.275 129.606 L
177.663 66.355 L
178.05 78.073 L
178.438 88.619 L
178.825 55.222 L
179.212 94.185 L
179.6 101.143 L
179.988 72.68 L
180.375 76.095 L
180.762 51.707 L
181.15 46.351 L
181.538 48.96 L
181.925 38.524 L
182.313 38.524 L
182.7 46.873 L
183.087 38.524 L
183.475 38.524 L
183.863 48.543 L
184.25 38.524 L
184.637 45.481 L
185.025 45.68 L
185.413 45.891 L
185.8 44.946 L
186.188 48.346 L
186.575 54.684 L
186.962 38.524 L
187.35 38.524 L
187.738 45.68 L
188.125 38.524 L
188.512 38.524 L
188.9 38.524 L
189.288 38.524 L
189.675 38.524 L
190.063 38.524 L
190.45 38.524 L
190.837 38.524 L
191.225 38.524 L
191.613 38.524 L
192 38.524 L
192.387 38.524 L
192.775 38.524 L
193.163 38.524 L
193.55 38.524 L
193.938 38.524 L
194.325 38.524 L
194.712 38.524 L
195.1 38.524 L
195.488 38.524 L
195.875 45.115 L
196.262 38.524 L
196.65 38.524 L
197.038 38.524 L
197.425 38.524 L
197.813 38.524 L
198.2 38.524 L
198.587 47.801 L
198.975 38.524 L
199.363 38.524 L
199.75 38.524 L
200.137 38.524 L
200.525 38.524 L
200.913 54.179 L
201.3 60.304 L
201.688 38.524 L
202.075 48.96 L
202.462 38.524 L
202.85 46.604 L
203.238 38.524 L
203.625 47.801 L
204.012 58.562 L
204.4 48.96 L
204.788 38.524 L
205.175 49.414 L
205.563 52.439 L
205.95 49.414 L
206.337 38.524 L
206.725 48.543 L
207.113 38.524 L
207.5 50.451 L
207.887 38.524 L
208.275 38.524 L
208.663 38.524 L
209.05 52.439 L
209.438 52.439 L
209.825 38.524 L
210.212 38.524 L
210.6 38.524 L
210.988 38.524 L
211.375 38.524 L
211.762 47.161 L
212.15 38.524 L
212.538 38.524 L
212.925 48.543 L
213.313 38.524 L
213.7 38.524 L
214.087 38.524 L
214.475 38.524 L
214.863 38.524 L
215.25 38.524 L
215.637 38.524 L
216.025 64.89 L
216.413 38.524 L
216.8 38.524 L
217.188 38.524 L
217.575 76.095 L
217.962 38.524 L
218.35 38.524 L
218.738 38.524 L
219.125 48.96 L
219.512 49.909 L
219.9 38.524 L
220.288 38.524 L
220.675 49.909 L
221.063 38.524 L
221.45 38.524 L
221.837 38.524 L
222.225 38.524 L
222.613 38.524 L
223 38.524 L
223.387 69.833 L
223.775 38.524 L
224.163 38.524 L
224.55 48.96 L
224.938 38.524 L
225.325 38.524 L
225.712 38.524 L
226.1 50.451 L
226.488 38.524 L
226.875 49.909 L
227.262 38.524 L
227.65 38.524 L
228.038 38.524 L
228.425 38.524 L
228.813 38.524 L
229.2 38.524 L
229.587 38.524 L
229.975 48.543 L
230.363 38.524 L
230.75 52.439 L
231.137 50.451 L
231.525 38.524 L
231.913 38.524 L
232.3 38.524 L
232.688 38.524 L
233.075 38.524 L
233.462 50.451 L
233.85 38.524 L
234.238 38.524 L
234.625 49.414 L
235.012 38.524 L
235.4 38.524 L
235.788 38.524 L
236.175 38.524 L
236.563 51.048 L
236.95 38.524 L
237.337 38.524 L
237.725 38.524 L
238.113 38.524 L
238.5 51.707 L
238.887 38.524 L
239.275 38.524 L
239.663 38.524 L
240.05 38.524 L
240.438 50.451 L
240.825 52.439 L
241.212 48.543 L
241.6 38.524 L
241.988 74.306 L
242.375 38.524 L
242.762 49.909 L
243.15 50.451 L
243.538 38.524 L
243.925 51.707 L
244.313 38.524 L
244.7 38.524 L
245.087 38.524 L
245.475 38.524 L
245.863 38.524 L
246.25 50.451 L
246.637 66.355 L
247.025 64.89 L
247.413 38.524 L
247.8 38.524 L
248.188 52.439 L
248.575 38.524 L
248.962 38.524 L
249.35 49.414 L
249.738 38.524 L
250.125 38.524 L
250.512 74.306 L
250.9 55.222 L
251.288 38.524 L
251.675 59.397 L
252.063 38.524 L
252.45 52.439 L
252.837 53.258 L
253.225 38.524 L
253.613 51.707 L
254 38.524 L
254.387 50.451 L
254.775 50.451 L
255.163 50.451 L
255.55 38.524 L
255.938 48.543 L
256.325 38.524 L
256.712 85.488 L
257.1 88.619 L
257.487 52.439 L
257.875 38.524 L
258.263 49.909 L
258.65 52.439 L
259.038 77.059 L
259.425 49.909 L
259.813 56.415 L
260.2 110.088 L
260.587 56.415 L
260.975 77.059 L
261.362 61.294 L
261.75 38.524 L
262.138 38.524 L
262.525 127.98 L
262.913 101.143 L
263.3 80.27 L
263.688 54.179 L
264.075 113.667 L
264.462 91.256 L
264.85 74.306 L
265.237 54.179 L
265.625 53.258 L
266.013 38.524 L
266.4 74.306 L
266.788 71.921 L
267.175 80.27 L
267.563 53.258 L
267.95 66.355 L
268.337 163.762 L
268.725 74.306 L
269.112 82.725 L
269.5 105.317 L
269.888 92.197 L
270.275 49.909 L
270.663 61.294 L
271.05 71.921 L
271.438 188.81 L
271.825 132.452 L
272.212 50.451 L
272.6 38.524 L
272.987 52.439 L
273.375 54.179 L
273.763 53.258 L
274.15 69.833 L
274.538 52.439 L
274.925 51.707 L
275.313 57.791 L
275.7 71.921 L
276.087 152.377 L
276.475 51.707 L
276.862 85.488 L
277.25 85.488 L
277.638 54.179 L
278.025 96.326 L
278.413 85.488 L
278.8 69.833 L
279.188 71.921 L
279.575 38.524 L
279.962 67.992 L
280.35 105.317 L
280.737 74.306 L
281.125 101.143 L
281.513 66.355 L
281.9 71.921 L
282.288 38.524 L
282.675 38.524 L
283.063 74.306 L
283.45 77.059 L
283.837 163.762 L
284.225 38.524 L
284.612 38.524 L
285 77.059 L
285.388 54.179 L
285.775 66.355 L
286.163 49.909 L
286.55 55.222 L
286.938 53.258 L
287.325 74.306 L
287.712 38.524 L
288.1 85.488 L
288.487 64.89 L
288.875 122.016 L
289.263 77.059 L
289.65 51.048 L
290.038 94.185 L
290.425 57.791 L
290.813 110.088 L
291.2 74.306 L
291.587 92.197 L
291.975 77.059 L
292.362 80.27 L
292.75 80.27 L
293.138 88.619 L
293.525 115.593 L
293.913 74.306 L
294.3 67.992 L
294.688 71.921 L
295.075 80.27 L
295.462 77.059 L
295.85 129.606 L
296.237 74.306 L
296.625 149.847 L
297.013 88.619 L
297.4 55.222 L
297.788 101.143 L
298.175 55.222 L
298.563 62.379 L
298.95 56.415 L
299.337 96.326 L
299.725 69.833 L
300.112 69.833 L
300.5 163.762 L
300.888 92.197 L
301.275 101.143 L
301.663 110.088 L
302.05 122.016 L
302.438 106.836 L
302.825 59.397 L
303.212 80.27 L
303.6 63.571 L
303.987 122.016 L
304.375 149.847 L
304.763 138.714 L
305.15 110.088 L
305.538 101.143 L
305.925 82.725 L
306.313 74.306 L
306.7 53.258 L
307.087 122.016 L
307.475 88.619 L
307.862 69.833 L
308.25 82.725 L
308.638 38.524 L
309.025 106.836 L
309.413 52.439 L
309.8 110.088 L
310.188 88.619 L
310.575 77.059 L
310.962 82.725 L
311.35 56.415 L
311.737 54.179 L
312.125 110.088 L
312.513 101.143 L
312.9 92.197 L
313.288 53.258 L
313.675 101.143 L
314.063 77.059 L
314.45 138.714 L
314.837 56.415 L
315.225 56.415 L
315.612 101.143 L
316 85.488 L
316.388 96.326 L
316.775 74.306 L
317.163 88.619 L
317.55 96.326 L
317.938 38.524 L
318.325 101.143 L
318.712 129.606 L
319.1 71.921 L
319.487 59.397 L
319.875 61.294 L
320.263 110.088 L
320.65 122.016 L
321.038 129.606 L
321.425 53.258 L
321.813 74.306 L
322.2 113.667 L
322.587 69.833 L
322.975 74.306 L
323.362 69.833 L
323.75 54.179 L
324.138 69.833 L
324.525 106.836 L
324.913 105.317 L
325.3 85.488 L
325.688 38.524 L
326.075 56.415 L
326.462 71.921 L
326.85 122.016 L
327.237 177.677 L
327.625 101.143 L
328.013 122.016 L
328.4 92.197 L
328.788 92.197 L
329.175 74.306 L
329.563 77.059 L
329.95 71.921 L
330.337 96.326 L
330.725 138.714 L
331.112 115.593 L
331.5 101.143 L
331.888 92.197 L
332.275 163.762 L
332.663 96.326 L
333.05 129.606 L
333.438 101.143 L
333.825 38.524 L
334.212 142.889 L
334.6 59.397 L
334.987 54.179 L
335.375 138.714 L
335.763 106.836 L
336.15 115.593 L
336.538 85.488 L
336.925 149.847 L
337.313 74.306 L
337.7 205.508 L
338.087 77.059 L
338.475 80.27 L
338.862 106.836 L
339.25 129.606 L
339.638 188.81 L
340.025 110.088 L
340.413 92.197 L
340.8 226.381 L
341.188 177.677 L
341.575 163.762 L
341.962 195.071 L
342.35 289 L
342.737 205.508 L
343.125 110.088 L
343.513 163.762 L
343.9 96.326 L
344.288 129.606 L
344.675 175.147 L
345.063 163.762 L
345.45 152.377 L
345.837 138.714 L
346.225 122.016 L
346.612 138.714 L
347 149.847 L
347.388 163.762 L
347.775 142.889 L
348.163 138.714 L
348.55 195.071 L
348.938 129.606 L
349.325 96.326 L
349.712 138.714 L
350.1 152.377 L
350.487 74.306 L
350.875 56.415 L
351.263 88.619 L
351.65 122.016 L
352.038 113.667 L
352.425 113.667 L
352.813 138.714 L
353.2 88.619 L
353.587 122.016 L
353.975 71.921 L
354.362 152.377 L
354.75 84.065 L
355.138 80.27 L
355.525 80.27 L
355.913 142.889 L
356.3 113.667 L
356.688 122.016 L
357.075 77.059 L
357.462 134.861 L
357.85 129.606 L
358.237 57.791 L
358.625 152.377 L
359.013 106.836 L
359.4 149.847 L
359.788 67.992 L
360.175 163.762 L
360.563 152.377 L
360.95 149.847 L
361.337 113.667 L
361.725 195.071 L
362.112 84.065 L
362.5 106.836 L
362.888 74.306 L
363.275 195.071 L
363.663 74.306 L
364.05 106.836 L
364.438 96.326 L
364.825 96.326 L
365.212 80.27 L
365.6 129.606 L
365.987 84.065 L
366.375 113.667 L
366.763 84.065 L
367.15 55.222 L
367.538 132.452 L
367.925 134.861 L
368.313 149.847 L
368.7 113.667 L
369.087 115.593 L
369.475 77.059 L
369.862 115.593 L
370.25 163.762 L
370.638 106.836 L
371.025 101.143 L
371.413 77.059 L
371.8 94.185 L
372.188 129.606 L
372.575 106.836 L
372.962 138.714 L
373.35 82.725 L
373.737 116.798 L
374.125 80.27 L
374.513 88.619 L
374.9 80.27 L
375.288 92.197 L
375.675 63.571 L
376.063 106.836 L
376.45 84.065 L
376.837 80.27 L
377.225 67.992 L
377.612 115.593 L
378 129.606 L
378.388 85.488 L
378.775 149.847 L
379.163 122.016 L
379.55 177.677 L
379.938 134.861 L
380.325 195.071 L
380.712 96.326 L
381.1 138.714 L
381.487 92.197 L
381.875 163.762 L
382.263 66.355 L
382.65 94.185 L
383.038 88.619 L
383.425 101.143 L
383.813 115.593 L
384.2 163.762 L
384.587 163.762 L
384.975 96.326 L
385.362 122.016 L
385.75 113.667 L
386.138 77.059 L
386.525 226.381 L
386.913 74.306 L
387.3 92.197 L
387.688 149.847 L
388.075 55.222 L
388.462 115.593 L
388.85 85.488 L
389.237 122.016 L
389.625 163.762 L
390.013 138.714 L
390.4 110.088 L
390.788 106.836 L
391.175 149.847 L
391.563 217.435 L
391.95 163.762 L
392.337 96.326 L
392.725 88.619 L
393.112 175.147 L
393.5 88.619 L
393.888 149.847 L
394.275 94.185 L
394.663 101.143 L
395.05 74.306 L
395.438 74.306 L
395.825 92.197 L
396.212 64.89 L
396.6 74.306 L
396.987 163.762 L
397.375 122.016 L
397.763 101.143 L
398.15 149.847 L
398.538 77.059 L
398.925 177.677 L
399.313 71.921 L
399.7 57.791 L
400.087 138.714 L
400.475 80.27 L
400.862 115.593 L
401.25 80.27 L
401.638 53.258 L
402.025 38.524 L
402.413 113.667 L
402.8 101.143 L
403.188 92.197 L
403.575 106.836 L
403.962 226.381 L
404.35 96.326 L
404.737 101.143 L
405.125 149.847 L
405.513 53.258 L
405.9 63.571 L
406.288 129.606 L
406.675 129.606 L
407.063 110.088 L
407.45 74.306 L
407.837 110.088 L
408.225 92.197 L
408.612 82.725 L
409 56.415 L
409.388 92.197 L
409.775 84.065 L
410.163 129.606 L
410.55 84.065 L
410.938 101.143 L
411.325 88.619 L
411.712 80.27 L
412.1 110.088 L
412.487 129.606 L
412.875 38.524 L
413.263 80.27 L
413.65 115.593 L
414.038 77.059 L
414.425 113.667 L
414.813 101.143 L
415.2 110.088 L
415.587 84.065 L
415.975 96.326 L
416.362 80.27 L
416.75 152.377 L
417.138 138.714 L
417.525 217.435 L
417.913 177.677 L
418.3 84.065 L
418.688 152.377 L
419.075 149.847 L
419.462 92.197 L
419.85 92.197 L
420.237 122.016 L
420.625 115.593 L
421.013 57.791 L
421.4 71.921 L
421.788 122.016 L
422.175 77.059 L
422.563 74.306 L
422.95 152.377 L
423.337 74.306 L
423.725 129.606 L
424.112 74.306 L
424.5 205.508 L
424.888 152.377 L
425.275 163.762 L
425.663 195.071 L
426.05 163.762 L
426.438 56.415 L
426.825 149.847 L
427.212 163.762 L
427.6 129.606 L
427.987 106.836 L
428.375 94.185 L
428.763 152.377 L
429.15 195.071 L
429.538 188.81 L
429.925 80.27 L
430.313 80.27 L
430.7 77.059 L
431.087 80.27 L
431.475 74.306 L
431.862 77.059 L
432.25 101.143 L
432.638 101.143 L
433.025 205.508 L
433.413 149.847 L
433.8 149.847 L
434.188 80.27 L
434.575 205.508 L
434.962 101.143 L
435.35 84.065 L
435.737 138.714 L
436.125 77.059 L
436.513 92.197 L
436.9 113.667 L
437.288 88.619 L
437.675 113.667 L
438.063 115.593 L
438.45 177.677 L
438.837 122.016 L
439.225 113.667 L
439.612 138.714 L
440 129.606 L
440.388 138.714 L
440.775 226.381 L
441.163 106.836 L
441.55 142.889 L
441.938 74.306 L
442.325 80.27 L
442.712 59.397 L
443.1 188.81 L
443.487 163.762 L
443.875 122.016 L
444.263 106.836 L
444.65 163.762 L
445.038 85.488 L
445.425 129.606 L
445.813 115.593 L
446.2 115.593 L
446.587 59.397 L
446.975 122.016 L
447.362 129.606 L
447.75 77.059 L
448.138 152.377 L
448.525 195.071 L
448.913 57.791 L
449.3 129.606 L
449.688 57.791 L
450.075 96.326 L
450.462 115.593 L
450.85 80.27 L
451.237 149.847 L
451.625 163.762 L
452.013 88.619 L
452.4 106.836 L
452.788 253.218 L
453.175 113.667 L
453.563 138.714 L
453.95 205.508 L
454.337 106.836 L
454.725 149.847 L
455.112 101.143 L
455.5 88.619 L
455.888 163.762 L
456.275 142.889 L
456.663 88.619 L
457.05 177.677 L
457.438 115.593 L
457.825 149.847 L
458.212 80.27 L
458.6 82.725 L
458.987 85.488 L
459.375 113.667 L
459.763 226.381 L
460.15 74.306 L
460.538 94.185 L
460.925 181.653 L
461.313 195.071 L
461.7 226.381 L
462.087 152.377 L
462.475 195.071 L
462.862 149.847 L
463.25 63.571 L
463.638 253.218 L
464.025 101.143 L
464.413 80.27 L
464.8 113.667 L
465.188 88.619 L
465.575 149.847 L
465.962 138.714 L
466.35 163.762 L
466.737 101.143 L
467.125 59.397 L
467.513 138.714 L
467.9 149.847 L
468.288 110.088 L
468.675 122.016 L
469.063 56.415 L
469.45 152.377 L
469.837 149.847 L
470.225 74.306 L
470.612 138.714 L
471 80.27 L
471.388 74.306 L
471.775 80.27 L
472.163 129.606 L
472.55 94.185 L
472.938 96.326 L
473.325 129.606 L
473.712 129.606 L
474.1 71.921 L
474.487 149.847 L
474.875 101.143 L
475.263 129.606 L
475.65 101.143 L
476.038 84.065 L
476.425 101.143 L
476.813 106.836 L
477.2 177.677 L
477.587 106.836 L
477.975 177.677 L
478.362 129.606 L
478.75 163.762 L
479.138 152.377 L
479.525 80.27 L
479.913 177.677 L
480.3 163.762 L
480.688 138.714 L
481.075 113.667 L
481.462 106.836 L
481.85 74.306 L
482.237 163.762 L
482.625 106.836 L
483.013 177.677 L
483.4 163.762 L
483.788 74.306 L
484.175 149.847 L
484.563 106.836 L
484.95 74.306 L
485.337 149.847 L
485.725 77.059 L
486.112 106.836 L
486.5 142.889 L
486.888 77.059 L
487.275 138.714 L
487.663 163.762 L
488.05 84.065 L
488.438 129.606 L
488.825 138.714 L
489.212 177.677 L
489.6 163.762 L
489.987 177.677 L
490.375 113.667 L
490.763 127.98 L
491.15 38.524 L
491.538 106.836 L
491.925 88.619 L
492.313 88.619 L
492.7 88.619 L
493.087 88.619 L
493.475 122.016 L
493.862 92.197 L
494.25 67.992 L
494.638 106.836 L
495.025 163.762 L
495.413 106.836 L
495.8 80.27 L
496.188 96.326 L
496.575 134.861 L
496.962 163.762 L
497.35 122.016 L
497.737 177.677 L
498.125 205.508 L
498.513 138.714 L
498.9 71.921 L
499.288 96.326 L
499.675 101.143 L
500.063 92.197 L
500.45 106.836 L
500.837 106.836 L
501.225 163.762 L
501.612 149.847 L
502 163.762 L
502.388 138.714 L
502.775 84.065 L
503.163 92.197 L
503.55 106.836 L
503.938 149.847 L
504.325 105.317 L
504.712 149.847 L
505.1 77.059 L
505.487 149.847 L
505.875 96.326 L
506.263 92.197 L
506.65 113.667 L
507.038 127.98 L
507.425 88.619 L
507.813 152.377 L
508.2 132.452 L
508.587 132.452 L
508.975 53.258 L
509.362 177.677 L
509.75 66.355 L
510.138 138.714 L
510.525 122.016 L
510.913 217.435 L
511.3 122.016 L
511.688 152.377 L
512.075 113.667 L
512.463 129.606 L
512.85 106.836 L
513.237 101.143 L
513.625 77.059 L
514.013 122.016 L
514.4 129.606 L
514.787 122.016 L
515.175 149.847 L
515.563 163.762 L
515.95 82.725 L
516.338 92.197 L
516.725 105.317 L
517.112 113.667 L
517.5 59.397 L
517.888 149.847 L
518.275 163.762 L
518.662 84.065 L
519.05 138.714 L
519.438 226.381 L
519.825 77.059 L
520.213 205.508 L
520.6 138.714 L
520.987 106.836 L
521.375 152.377 L
521.763 66.355 L
522.15 163.762 L
522.537 127.98 L
522.925 149.847 L
523.313 175.147 L
523.7 149.847 L
524.088 85.488 L
524.475 177.677 L
524.862 96.326 L
525.25 106.836 L
525.638 101.143 L
526.025 163.762 L
526.412 77.059 L
526.8 106.836 L
527.188 138.714 L
527.575 195.071 L
527.963 163.762 L
528.35 253.218 L
528.737 177.677 L
529.125 129.606 L
529.513 195.071 L
529.9 129.606 L
530.287 152.377 L
530.675 57.791 L
531.063 88.619 L
531.45 115.593 L
531.838 149.847 L
532.225 113.667 L
532.612 188.81 L
533 163.762 L
533.388 92.197 L
533.775 138.714 L
534.162 129.606 L
534.55 94.185 L
534.938 71.921 L
535.325 57.791 L
535.713 96.326 L
536.1 80.27 L
536.487 149.847 L
536.875 152.377 L
537.263 74.306 L
537.65 96.326 L
538.037 138.714 L
538.425 181.653 L
538.813 122.016 L
539.2 96.326 L
539.588 122.016 L
539.975 80.27 L
540.362 106.836 L
540.75 106.836 L
541.138 138.714 L
541.525 85.488 L
541.912 138.714 L
542.3 205.508 L
542.688 138.714 L
543.075 80.27 L
543.463 129.606 L
543.85 122.016 L
544.237 253.218 L
544.625 113.667 L
545.013 129.606 L
545.4 149.847 L
545.787 101.143 L
546.175 122.016 L
546.563 122.016 L
546.95 80.27 L
547.338 122.016 L
547.725 77.059 L
548.112 149.847 L
548.5 122.016 L
548.888 113.667 L
549.275 195.071 L
549.662 71.921 L
550.05 205.508 L
550.438 132.452 L
550.825 145.871 L
551.213 205.508 L
551.6 113.667 L
551.987 129.606 L
552.375 80.27 L
552.763 113.667 L
553.15 85.488 L
553.537 96.326 L
553.925 71.921 L
554.313 163.762 L
554.7 122.016 L
555.088 113.667 L
555.475 129.606 L
555.862 149.847 L
556.25 101.143 L
556.638 110.088 L
557.025 152.377 L
557.412 138.714 L
557.8 106.836 L
558.188 96.326 L
558.575 101.143 L
558.963 177.677 L
559.35 152.377 L
559.737 188.81 L
560.125 106.836 L
560.513 77.059 L
560.9 163.762 L
561.287 115.593 L
561.675 113.667 L
562.063 253.218 L
562.45 138.714 L
562.838 122.016 L
563.225 253.218 L
563.612 129.606 L
564 92.197 L
564.388 134.861 L
564.775 96.326 L
565.162 163.762 L
565.55 205.508 L
565.938 149.847 L
566.325 113.667 L
566.713 113.667 L
567.1 113.667 L
567.487 152.377 L
567.875 84.065 L
568.263 177.677 L
568.65 80.27 L
569.037 71.921 L
569.425 80.27 L
569.813 101.143 L
570.2 149.847 L
570.588 113.667 L
570.975 113.667 L
571.362 115.593 L
571.75 205.508 L
572.138 77.059 L
572.525 149.847 L
572.912 142.889 L
573.3 163.762 L
573.688 77.059 L
574.075 129.606 L
574.463 122.016 L
574.85 115.593 L
575.237 217.435 L
575.625 138.714 L
576.013 138.714 L
576.4 38.524 L
576.787 142.889 L
577.175 122.016 L
577.563 96.326 L
577.95 115.593 L
578.338 122.016 L
578.725 74.306 L
579.112 138.714 L
579.5 66.355 L
579.888 113.667 L
580.275 149.847 L
580.662 177.677 L
581.05 101.143 L
581.438 149.847 L
581.825 195.071 L
582.213 205.508 L
582.6 77.059 L
582.987 74.306 L
583.375 80.27 L
583.763 106.836 L
584.15 138.714 L
584.537 96.326 L
584.925 163.762 L
585.313 177.677 L
585.7 138.714 L
586.088 96.326 L
586.475 129.606 L
586.862 226.381 L
587.25 177.677 L
587.638 56.415 L
588.025 195.071 L
588.412 110.088 L
588.8 149.847 L
589.188 80.27 L
589.575 177.677 L
589.963 163.762 L
590.35 77.059 L
590.737 129.606 L
591.125 113.667 L
591.513 92.197 L
591.9 67.992 L
592.287 77.059 L
592.675 96.326 L
593.063 142.889 L
593.45 92.197 L
593.838 105.317 L
594.225 71.921 L
594.612 71.921 L
595 101.143 L
595.388 122.016 L
595.775 138.714 L
596.162 149.847 L
596.55 129.606 L
596.938 66.355 L
597.325 177.677 L
597.713 149.847 L
598.1 122.016 L
598.487 152.377 L
598.875 92.197 L
599.263 177.677 L
599.65 129.606 L
600.037 163.762 L
600.425 129.606 L
600.813 101.143 L
601.2 113.667 L
601.588 195.071 L
601.975 163.762 L
602.362 115.593 L
602.75 177.677 L
603.138 101.143 L
603.525 122.016 L
603.912 55.222 L
604.3 77.059 L
604.688 96.326 L
605.075 96.326 L
605.463 122.016 L
605.85 122.016 L
606.237 129.606 L
606.625 163.762 L
607.013 152.377 L
607.4 94.185 L
607.787 122.016 L
608.175 152.377 L
608.563 80.27 L
608.95 94.185 L
609.338 129.606 L
609.725 113.667 L
610.112 101.143 L
610.5 84.065 L
610.888 142.889 L
611.275 152.377 L
611.662 195.071 L
612.05 101.143 L
612.438 101.143 L
612.825 77.059 L
613.213 205.508 L
613.6 57.791 L
613.987 129.606 L
614.375 163.762 L
614.763 106.836 L
615.15 177.677 L
615.537 175.147 L
615.925 38.524 L
616.313 88.619 L
616.7 92.197 L
617.088 69.833 L
617.475 101.143 L
617.862 84.065 L
618.25 101.143 L
618.638 59.397 L
619.025 122.016 L
619.412 106.836 L
619.8 129.606 L
620.188 129.606 L
620.575 74.306 L
620.963 69.833 L
621.35 181.653 L
621.737 122.016 L
622.125 80.27 L
622.513 106.836 L
622.9 71.921 L
623.287 138.714 L
623.675 80.27 L
624.063 96.326 L
624.45 115.593 L
624.838 113.667 L
625.225 71.921 L
625.612 55.222 L
626 105.317 L
626.388 77.059 L
626.775 175.147 L
627.162 80.27 L
627.55 101.143 L
627.938 101.143 L
628.325 77.059 L
628.713 74.306 L
629.1 84.065 L
629.487 122.016 L
629.875 54.179 L
630.263 195.071 L
630.65 101.143 L
631.037 163.762 L
631.425 149.847 L
631.813 92.197 L
632.2 106.836 L
632.588 88.619 L
632.975 253.218 L
633.362 129.606 L
633.75 177.677 L
634.138 177.677 L
634.525 138.714 L
634.912 115.593 L
635.3 152.377 L
635.688 129.606 L
636.075 142.889 L
636.463 195.071 L
636.85 38.524 L
637.237 115.593 L
637.625 149.847 L
638.013 177.677 L
638.4 84.065 L
638.787 149.847 L
639.175 226.381 L
639.563 80.27 L
639.95 92.197 L
640.338 84.065 L
640.725 122.016 L
641.112 106.836 L
641.5 96.326 L
641.888 84.065 L
642.275 80.27 L
642.662 101.143 L
643.05 163.762 L
643.438 129.606 L
643.825 77.059 L
644.213 122.016 L
644.6 101.143 L
644.987 105.317 L
645.375 55.222 L
645.763 77.059 L
646.15 106.836 L
646.537 55.222 L
646.925 217.435 L
647.313 77.059 L
647.7 113.667 L
648.088 92.197 L
648.475 113.667 L
648.862 101.143 L
649.25 163.762 L
649.638 113.667 L
650.025 56.415 L
650.412 71.921 L
650.8 129.606 L
651.188 138.714 L
651.575 55.222 L
651.963 74.306 L
652.35 101.143 L
652.737 113.667 L
653.125 112.193 L
653.513 105.317 L
653.9 92.197 L
654.287 122.016 L
654.675 152.377 L
655.063 101.143 L
655.45 226.381 L
655.838 56.415 L
656.225 138.714 L
656.612 129.606 L
657 88.619 L
657.388 74.306 L
657.775 38.524 L
658.162 56.415 L
658.55 77.059 L
658.938 106.836 L
659.325 96.326 L
659.713 149.847 L
660.1 74.306 L
660.487 113.667 L
660.875 84.065 L
661.263 163.762 L
661.65 74.306 L
662.037 129.606 L
662.425 88.619 L
662.813 54.179 L
663.2 163.762 L
663.588 101.143 L
663.975 152.377 L
664.362 122.016 L
664.75 78.073 L
665.138 129.606 L
665.525 77.059 L
665.912 110.088 L
666.3 38.524 L
666.688 105.317 L
667.075 149.847 L
667.463 142.889 L
667.85 74.306 L
668.237 101.143 L
668.625 138.714 L
669.013 122.016 L
669.4 71.921 L
669.787 122.016 L
670.175 97.459 L
670.563 57.791 L
670.95 129.606 L
671.338 74.306 L
671.725 80.27 L
672.112 149.847 L
672.5 96.326 L
672.888 80.27 L
673.275 92.197 L
673.662 106.836 L
674.05 57.791 L
674.438 74.306 L
674.825 106.836 L
675.213 129.606 L
675.6 55.222 L
675.987 106.836 L
676.375 122.016 L
676.763 71.921 L
677.15 71.921 L
677.537 55.222 L
677.925 77.059 L
678.313 55.222 L
678.7 71.921 L
679.088 80.27 L
679.475 105.317 L
679.862 101.143 L
680.25 84.065 L
680.638 77.059 L
681.025 122.016 L
681.412 67.992 L
681.8 38.524 L
682.188 142.889 L
682.575 53.258 L
682.963 85.488 L
683.35 113.667 L
683.737 38.524 L
684.125 69.833 L
684.513 74.306 L
684.9 53.258 L
685.287 38.524 L
685.675 80.27 L
686.063 71.921 L
686.45 134.861 L
686.838 122.016 L
687.225 88.619 L
687.612 122.016 L
688 92.197 L
688.388 55.222 L
688.775 53.258 L
689.162 113.667 L
689.55 101.143 L
689.938 88.619 L
690.325 113.667 L
690.713 101.143 L
691.1 38.524 L
691.487 51.048 L
691.875 57.791 L
692.263 101.143 L
692.65 92.197 L
693.037 71.921 L
693.425 106.836 L
693.813 38.524 L
694.2 96.326 L
694.588 80.27 L
694.975 80.27 L
695.362 57.791 L
695.75 56.415 L
696.138 55.222 L
696.525 56.415 L
696.912 71.921 L
697.3 74.306 L
697.688 38.524 L
698.075 52.439 L
698.463 85.488 L
698.85 66.355 L
699.237 78.073 L
699.625 67.992 L
700.013 55.222 L
700.4 205.508 L
700.787 77.059 L
701.175 113.667 L
701.563 69.833 L
701.95 57.791 L
702.338 163.762 L
702.725 101.143 L
703.112 145.871 L
703.5 122.016 L
703.888 74.306 L
704.275 96.326 L
704.662 74.306 L
705.05 71.921 L
705.438 96.326 L
705.825 74.306 L
706.213 71.921 L
706.6 101.143 L
706.987 88.619 L
707.375 67.992 L
707.763 66.355 L
708.15 88.619 L
708.537 96.326 L
708.925 55.222 L
709.313 92.197 L
709.7 96.326 L
710.088 38.524 L
710.475 51.707 L
710.862 63.571 L
711.25 77.059 L
711.638 92.197 L
712.025 71.921 L
712.412 88.619 L
712.8 177.677 L
713.188 84.065 L
713.575 92.197 L
713.963 88.619 L
714.35 80.27 L
714.737 69.833 L
715.125 59.397 L
715.513 152.377 L
715.9 96.326 L
716.287 56.415 L
716.675 106.836 L
717.063 96.326 L
717.45 54.179 L
717.838 38.524 L
718.225 80.27 L
718.612 63.571 L
719 77.059 L
719.388 54.179 L
719.775 38.524 L
720.162 77.059 L
720.55 84.065 L
720.938 55.222 L
721.325 77.059 L
721.713 74.306 L
722.1 129.606 L
722.487 92.197 L
722.875 74.306 L
723.263 57.791 L
723.65 77.059 L
724.037 113.667 L
724.425 129.606 L
724.813 66.355 L
725.2 113.667 L
725.588 80.27 L
725.975 101.143 L
726.362 122.016 L
726.75 96.326 L
727.138 88.619 L
727.525 38.524 L
727.912 53.258 L
728.3 84.065 L
728.688 67.992 L
729.075 54.179 L
729.463 80.27 L
729.85 54.179 L
730.237 92.197 L
730.625 61.294 L
731.013 54.179 L
731.4 92.197 L
731.787 38.524 L
732.175 67.992 L
732.563 67.992 L
732.95 88.619 L
733.338 38.524 L
733.725 55.222 L
734.112 67.992 L
734.5 101.143 L
734.888 80.27 L
735.275 54.179 L
735.662 50.451 L
736.05 38.524 L
736.438 38.524 L
736.825 67.992 L
737.213 64.89 L
737.6 88.619 L
737.987 54.179 L
738.375 52.439 L
738.763 52.439 L
739.15 101.143 L
739.537 38.524 L
739.925 38.524 L
740.313 96.326 L
740.7 51.707 L
741.088 67.992 L
741.475 82.725 L
741.862 101.143 L
742.25 163.762 L
742.638 38.524 L
743.025 122.016 L
743.412 52.439 L
743.8 38.524 L
744.188 67.992 L
744.575 51.707 L
744.963 54.179 L
745.35 66.355 L
745.737 56.415 L
746.125 88.619 L
746.513 88.619 L
746.9 38.524 L
747.287 61.294 L
747.675 71.921 L
748.063 69.833 L
748.45 53.258 L
748.838 74.306 L
749.225 69.833 L
749.612 38.524 L
750 52.439 L
750.388 52.439 L
750.775 54.179 L
751.162 69.833 L
751.55 63.571 L
751.938 77.059 L
752.325 66.355 L
752.713 56.415 L
753.1 51.707 L
753.487 53.258 L
753.875 67.992 L
754.263 74.306 L
754.65 51.048 L
755.037 56.415 L
755.425 38.524 L
755.813 38.524 L
756.2 69.833 L
756.588 69.833 L
756.975 74.306 L
757.362 38.524 L
757.75 38.524 L
758.138 38.524 L
758.525 53.258 L
758.912 38.524 L
759.3 77.059 L
759.688 51.707 L
760.075 74.306 L
760.463 53.258 L
760.85 51.707 L
761.237 38.524 L
761.625 38.524 L
762.013 38.524 L
762.4 88.619 L
762.787 38.524 L
763.175 71.921 L
763.563 88.619 L
763.95 38.524 L
764.338 38.524 L
764.725 106.836 L
765.112 38.524 L
765.5 57.791 L
765.888 38.524 L
766.275 69.833 L
766.662 69.833 L
767.05 74.306 L
767.438 122.016 L
767.825 63.571 L
768.213 50.451 L
768.6 92.197 L
768.987 53.258 L
769.375 55.222 L
769.763 80.27 L
770.15 57.791 L
770.537 38.524 L
770.925 63.571 L
771.313 56.415 L
771.7 54.179 L
772.088 69.833 L
772.475 51.707 L
772.862 38.524 L
773.25 38.524 L
773.638 74.306 L
774.025 66.355 L
774.412 66.355 L
774.8 101.143 L
775.188 69.833 L
775.575 38.524 L
775.963 62.379 L
776.35 38.524 L
776.737 51.048 L
777.125 38.524 L
777.513 82.725 L
777.9 38.524 L
778.287 53.258 L
778.675 51.707 L
779.063 53.258 L
779.45 38.524 L
779.838 62.379 L
780.225 77.059 L
780.612 74.306 L
781 69.833 L
781.388 51.707 L
781.775 56.415 L
782.162 38.524 L
782.55 54.179 L
782.938 62.379 L
783.325 74.306 L
783.713 56.415 L
784.1 55.222 L
784.487 51.048 L
784.875 38.524 L
785.263 52.439 L
785.65 92.197 L
786.037 64.89 L
786.425 38.524 L
786.813 54.179 L
787.2 53.258 L
787.588 77.059 L
787.975 129.606 L
788.362 51.048 L
788.75 38.524 L
789.138 67.992 L
789.525 48.96 L
789.912 38.524 L
790.3 88.619 L
790.688 101.143 L
791.075 56.415 L
791.463 57.791 L
791.85 71.921 L
792.237 38.524 L
792.625 38.524 L
793.013 55.222 L
793.4 77.059 L
793.787 88.619 L
794.175 38.524 L
794.563 77.059 L
794.95 53.258 L
795.338 38.524 L
795.725 69.833 L
796.112 80.27 L
796.5 51.707 L
796.888 38.524 L
797.275 38.524 L
797.662 38.524 L
798.05 51.048 L
798.438 122.016 L
798.825 96.326 L
799.213 57.791 L
799.6 63.571 L
799.987 38.524 L
800.375 52.439 L
800.763 38.524 L
801.15 101.143 L
801.537 77.059 L
801.925 55.222 L
802.313 96.326 L
802.7 74.306 L
803.088 53.258 L
803.475 67.992 L
803.862 67.992 L
804.25 38.524 L
804.638 38.524 L
805.025 55.222 L
805.412 54.179 L
805.8 54.179 L
806.188 55.222 L
806.575 66.355 L
806.963 63.571 L
807.35 51.707 L
807.737 52.439 L
808.125 53.258 L
808.513 96.326 L
808.9 66.355 L
809.287 55.222 L
809.675 56.415 L
810.063 38.524 L
810.45 38.524 L
810.838 52.439 L
811.225 38.524 L
811.612 38.524 L
812 51.048 L
812.388 52.439 L
812.775 110.088 L
813.162 51.707 L
813.55 53.258 L
813.938 74.306 L
814.325 38.524 L
814.713 96.326 L
815.1 38.524 L
815.487 66.355 L
815.875 71.921 L
816.263 38.524 L
816.65 85.488 L
817.037 56.415 L
817.425 88.619 L
817.813 66.355 L
818.2 69.833 L
818.588 38.524 L
818.975 51.048 L
819.362 71.921 L
819.75 38.524 L
820.138 54.179 L
820.525 55.222 L
820.912 51.707 L
821.3 51.707 L
821.688 54.179 L
822.075 54.179 L
822.463 88.619 L
822.85 57.791 L
823.237 67.992 L
823.625 113.667 L
824.013 56.415 L
824.4 51.707 L
824.787 38.524 L
825.175 77.059 L
825.563 74.306 L
825.95 38.524 L
826.338 92.197 L
826.725 82.725 L
827.112 80.27 L
827.5 52.439 L
827.888 38.524 L
828.275 55.222 L
828.662 38.524 L
829.05 38.524 L
829.438 113.667 L
829.825 51.707 L
830.213 71.921 L
830.6 38.524 L
830.987 67.992 L
831.375 74.306 L
831.763 77.059 L
832.15 52.439 L
832.537 115.593 L
832.925 74.306 L
833.313 51.707 L
833.7 77.059 L
834.088 85.488 L
834.475 38.524 L
834.862 38.524 L
835.25 54.179 L
835.638 52.439 L
836.025 77.059 L
836.412 59.397 L
836.8 38.524 L
837.188 88.619 L
837.575 149.847 L
837.963 96.326 L
838.35 177.677 L
838.737 69.833 L
839.125 97.459 L
839.513 71.921 L
839.9 38.524 L
840.287 77.059 L
840.675 53.258 L
841.063 71.921 L
841.45 38.524 L
841.838 61.294 L
842.225 77.059 L
842.612 71.921 L
843 80.27 L
843.388 71.921 L
843.775 84.065 L
844.162 67.992 L
844.55 54.179 L
844.938 48.158 L
845.325 38.524 L
845.713 59.397 L
846.1 51.707 L
846.487 74.306 L
846.875 56.415 L
847.263 38.524 L
847.65 67.992 L
848.037 50.451 L
848.425 56.415 L
848.813 38.524 L
849.2 71.921 L
849.588 52.439 L
849.975 55.222 L
850.362 38.524 L
850.75 51.048 L
851.138 38.524 L
851.525 69.833 L
851.912 55.222 L
852.3 69.833 L
852.688 74.306 L
853.075 69.833 L
853.463 38.524 L
853.85 49.909 L
854.237 38.524 L
854.625 71.921 L
855.013 38.524 L
855.4 54.179 L
855.787 54.179 L
856.175 56.415 L
856.563 50.451 L
856.95 38.524 L
857.338 38.524 L
857.725 84.065 L
858.112 54.179 L
858.5 38.524 L
858.888 51.707 L
859.275 52.439 L
859.662 69.833 L
860.05 54.179 L
860.438 66.355 L
860.825 54.179 L
861.213 74.306 L
861.6 51.707 L
861.987 38.524 L
862.375 67.992 L
862.763 38.524 L
863.15 38.524 L
863.537 88.619 L
863.925 88.619 L
864.313 50.451 L
864.7 67.992 L
865.088 53.258 L
865.475 38.524 L
865.862 54.179 L
866.25 53.258 L
866.638 52.439 L
867.025 55.222 L
867.412 101.143 L
867.8 54.179 L
868.188 56.415 L
868.575 38.524 L
868.963 38.524 L
869.35 77.059 L
869.737 53.258 L
870.125 77.059 L
870.513 51.707 L
870.9 38.524 L
871.287 55.222 L
871.675 53.258 L
872.063 54.179 L
872.45 38.524 L
872.838 71.921 L
873.225 54.179 L
873.612 63.571 L
874 96.326 L
874.388 38.524 L
874.775 64.89 L
875.162 38.524 L
875.55 54.179 L
875.938 71.921 L
876.325 49.909 L
876.713 69.833 L
877.1 52.439 L
877.487 38.524 L
877.875 51.048 L
878.263 52.439 L
878.65 115.593 L
879.037 78.073 L
879.425 54.179 L
879.813 132.452 L
880.2 49.909 L
880.588 52.439 L
880.975 38.524 L
881.362 38.524 L
881.75 38.524 L
882.138 59.397 L
882.525 51.707 L
882.912 38.524 L
883.3 53.258 L
883.688 38.524 L
884.075 53.258 L
884.463 51.048 L
884.85 49.909 L
885.237 59.397 L
885.625 71.921 L
886.013 54.179 L
886.4 84.065 L
886.787 56.415 L
887.175 106.836 L
887.563 80.27 L
887.95 38.524 L
888.338 69.833 L
888.725 74.306 L
889.112 71.921 L
889.5 50.451 L
889.888 52.439 L
890.275 101.143 L
890.662 71.921 L
891.05 96.326 L
891.438 63.571 L
891.825 54.179 L
892.213 64.89 L
892.6 59.397 L
892.987 77.059 L
893.375 38.524 L
893.763 74.306 L
894.15 56.415 L
894.537 80.27 L
894.925 38.524 L
895.313 66.355 L
895.7 38.524 L
896.088 88.619 L
896.475 38.524 L
896.862 62.379 L
897.25 51.048 L
897.638 71.921 L
898.025 69.833 L
898.412 80.27 L
898.8 66.355 L
899.188 55.222 L
899.575 92.197 L
899.963 38.524 L
900.35 55.222 L
900.737 69.833 L
901.125 57.791 L
901.513 138.714 L
901.9 77.059 L
902.287 54.179 L
902.675 51.707 L
903.063 54.179 L
903.45 51.048 L
903.838 38.524 L
904.225 57.791 L
904.612 77.059 L
905 38.524 L
S
GR
GS
1 0 0 RC
1 LJ
0.5 LW
N
169.525 100.644 M
169.913 100.663 L
170.3 99.663 L
170.688 98.85 L
171.075 97.279 L
171.462 95.636 L
171.85 94.178 L
172.238 92.491 L
172.625 90.904 L
173.012 89.646 L
173.4 88.226 L
173.788 86.882 L
174.175 85.874 L
174.563 84.659 L
174.95 83.68 L
175.337 82.753 L
175.725 81.875 L
176.113 81.017 L
176.5 80.274 L
176.887 79.705 L
177.275 78.81 L
177.663 77.953 L
178.05 77.281 L
178.438 76.49 L
178.825 75.73 L
179.212 75.001 L
179.6 73.773 L
179.988 71.59 L
180.375 69.836 L
180.762 68.608 L
181.15 66.971 L
181.538 65.334 L
181.925 64.983 L
182.313 62.528 L
182.7 62.294 L
183.087 60.657 L
183.475 59.721 L
183.863 57.832 L
184.25 56.195 L
184.637 54.558 L
185.025 53.857 L
185.413 52.723 L
185.8 51.086 L
186.188 50.124 L
186.575 49.89 L
186.962 48.969 L
187.35 47.183 L
187.738 46.638 L
188.125 45.862 L
188.512 44.88 L
188.9 44.734 L
189.288 43.643 L
189.675 42.415 L
190.063 41.745 L
190.45 41.009 L
190.837 40.75 L
191.225 40.904 L
191.613 41.126 L
192 41.126 L
192.387 41.331 L
192.775 41.167 L
193.163 41.325 L
193.55 41.325 L
193.938 41.311 L
194.325 41.704 L
194.712 41.772 L
195.1 41.632 L
195.488 41.701 L
195.875 41.848 L
196.262 41.869 L
196.65 41.552 L
197.038 41.748 L
197.425 41.748 L
197.813 41.842 L
198.2 41.842 L
198.587 41.842 L
198.975 41.842 L
199.363 42.115 L
199.75 42.387 L
200.137 42.387 L
200.525 42.387 L
200.913 42.387 L
201.3 42.387 L
201.688 42.387 L
202.075 42.557 L
202.462 42.557 L
202.85 42.557 L
203.238 42.753 L
203.625 42.753 L
204.012 42.753 L
204.4 42.753 L
204.788 42.753 L
205.175 42.753 L
205.563 42.753 L
205.95 42.624 L
206.337 43.141 L
206.725 43.141 L
207.113 43.141 L
207.5 43.141 L
207.887 43.878 L
208.275 43.878 L
208.663 43.696 L
209.05 43.696 L
209.438 43.9 L
209.825 44.124 L
210.212 44.124 L
210.6 44.124 L
210.988 44.04 L
211.375 43.613 L
211.762 43.613 L
212.15 43.408 L
212.538 43.408 L
212.925 43.25 L
213.313 43.25 L
213.7 43.682 L
214.087 43.289 L
214.475 43.084 L
214.863 43.289 L
215.25 43.075 L
215.637 42.803 L
216.025 42.589 L
216.413 42.823 L
216.8 42.626 L
217.188 42.85 L
217.575 42.616 L
217.962 42.616 L
218.35 42.616 L
218.738 42.616 L
219.125 42.343 L
219.512 42.07 L
219.9 42.07 L
220.288 42.267 L
220.675 42.267 L
221.063 42.539 L
221.45 42.773 L
221.837 42.604 L
222.225 42.604 L
222.613 42.604 L
223 42.407 L
223.387 42.407 L
223.775 42.641 L
224.163 42.641 L
224.55 42.641 L
224.938 42.855 L
225.325 42.855 L
225.712 42.855 L
226.1 42.338 L
226.488 42.338 L
226.875 42.583 L
227.262 42.583 L
227.65 41.847 L
228.038 41.847 L
228.425 41.847 L
228.813 42.105 L
229.2 41.901 L
229.587 41.677 L
229.975 41.677 L
230.363 41.677 L
230.75 41.688 L
231.137 41.961 L
231.525 42.157 L
231.913 42.157 L
232.3 42.859 L
232.688 42.859 L
233.075 43.082 L
233.462 42.702 L
233.85 42.702 L
234.238 42.961 L
234.625 42.756 L
235.012 42.756 L
235.4 42.756 L
235.788 42.756 L
236.175 42.522 L
236.563 42.756 L
236.95 43.078 L
237.337 43.595 L
237.725 43.595 L
238.113 43.595 L
238.5 43.868 L
238.887 43.868 L
239.275 43.868 L
239.663 44.082 L
240.05 43.885 L
240.438 43.885 L
240.825 44.314 L
241.212 44.408 L
241.6 44.408 L
241.988 44.817 L
242.375 44.817 L
242.762 45.09 L
243.15 45.379 L
243.538 45.145 L
243.925 45.403 L
244.313 45.403 L
244.7 45.424 L
245.087 45.657 L
245.475 45.891 L
245.863 45.891 L
246.25 46.088 L
246.637 45.842 L
247.025 46.763 L
247.413 47.745 L
247.8 48.018 L
248.188 48.018 L
248.575 47.983 L
248.962 48.256 L
249.35 49.011 L
249.738 49.235 L
250.125 49.585 L
250.512 50.755 L
250.9 50.833 L
251.288 51.392 L
251.675 51.838 L
252.063 51.137 L
252.45 51.137 L
252.837 52.668 L
253.225 53.662 L
253.613 54.48 L
254 54.529 L
254.387 56.002 L
254.775 57.036 L
255.163 57.737 L
255.55 58.044 L
255.938 58.333 L
256.325 58.099 L
256.712 58.255 L
257.1 58.393 L
257.487 59.212 L
257.875 59.501 L
258.263 59.774 L
258.65 62.229 L
259.038 62.931 L
259.425 63.584 L
259.813 64.894 L
260.2 65.946 L
260.587 65.468 L
260.975 65.587 L
261.362 66.242 L
261.75 68.779 L
262.138 70.621 L
262.525 70.582 L
262.913 70.293 L
263.3 70.566 L
263.688 70.614 L
264.075 70.903 L
264.462 71.283 L
264.85 71.322 L
265.237 71.347 L
265.625 71.725 L
266.013 72.183 L
266.4 74.415 L
266.788 73.753 L
267.175 73.692 L
267.563 74.34 L
267.95 74.647 L
268.337 75.557 L
268.725 76.205 L
269.112 76.063 L
269.5 76.495 L
269.888 76.144 L
270.275 75.318 L
270.663 76.277 L
271.05 76.223 L
271.438 77.005 L
271.825 77.55 L
272.212 78.205 L
272.6 76.451 L
272.987 75.223 L
273.375 75.106 L
273.763 75.555 L
274.15 76.537 L
274.538 75.503 L
274.925 74.802 L
275.313 75.25 L
275.7 75.268 L
276.087 75.814 L
276.475 75.336 L
276.862 75.008 L
277.25 74.479 L
277.638 74.891 L
278.025 74.346 L
278.413 72.811 L
278.8 72.626 L
279.188 73.397 L
279.575 72.843 L
279.962 72.036 L
280.35 72.904 L
280.737 72.835 L
281.125 73.584 L
281.513 71.338 L
281.9 70.549 L
282.288 71.071 L
282.675 71.889 L
283.063 72.435 L
283.45 73.11 L
283.837 74.333 L
284.225 74.42 L
284.612 74.725 L
285 75.122 L
285.388 75.562 L
285.775 75.663 L
286.163 75.217 L
286.55 75.66 L
286.938 76.922 L
287.325 76.983 L
287.712 77.004 L
288.1 77.098 L
288.487 76.505 L
288.875 76.358 L
289.263 76.054 L
289.65 77.188 L
290.038 77.224 L
290.425 76.528 L
290.813 78.282 L
291.2 78.107 L
291.587 78.789 L
291.975 79.537 L
292.362 81.174 L
292.75 82.514 L
293.138 82.221 L
293.525 82.284 L
293.913 80.32 L
294.3 81.957 L
294.688 84.14 L
295.075 85.349 L
295.462 86.445 L
295.85 87.127 L
296.237 87.771 L
296.625 88.145 L
297.013 88.145 L
297.4 89.08 L
297.788 90.063 L
298.175 89.756 L
298.563 90.105 L
298.95 88.468 L
299.337 89.052 L
299.725 89.079 L
300.112 89.391 L
300.5 89.996 L
300.888 89.348 L
301.275 89.513 L
301.663 88.811 L
302.05 88.363 L
302.438 88.948 L
302.825 89.357 L
303.212 89.427 L
303.6 88.205 L
303.987 88.731 L
304.375 88.909 L
304.763 90.218 L
305.15 89.751 L
305.538 89.346 L
305.925 88.788 L
306.313 89.007 L
306.7 87.958 L
307.087 87.677 L
307.475 88.332 L
307.862 88.237 L
308.25 87.91 L
308.638 88.67 L
309.025 90.105 L
309.413 89.627 L
309.8 89.422 L
310.188 89.254 L
310.575 88.202 L
310.962 88.787 L
311.35 89.345 L
311.737 88.231 L
312.125 87.295 L
312.513 87.429 L
312.9 87.634 L
313.288 87.517 L
313.675 87.639 L
314.063 86.309 L
314.45 84.74 L
314.837 84.115 L
315.225 84.022 L
315.612 83.715 L
316 82.848 L
316.388 82.497 L
316.775 82.863 L
317.163 82.863 L
317.55 84.61 L
317.938 85.223 L
318.325 85.994 L
318.712 87.046 L
319.1 86.759 L
319.487 87.188 L
319.875 86.54 L
320.263 86.213 L
320.65 86.591 L
321.038 87.689 L
321.425 88.849 L
321.813 89.77 L
322.2 89.419 L
322.587 90.647 L
322.975 90.728 L
323.362 92.225 L
323.75 92.225 L
324.138 91.469 L
324.525 91.551 L
324.913 91.61 L
325.3 91.566 L
325.688 92.302 L
326.075 92.721 L
326.462 93.099 L
326.85 93.318 L
327.237 94.519 L
327.625 94.087 L
328.013 97.361 L
328.4 96.889 L
328.788 95.921 L
329.175 96.606 L
329.563 97.983 L
329.95 100.483 L
330.337 100.483 L
330.725 99.898 L
331.112 101.796 L
331.5 104.235 L
331.888 105.989 L
332.275 107.586 L
332.663 111.883 L
333.05 114.456 L
333.438 115.245 L
333.825 117.394 L
334.212 117.913 L
334.6 118.36 L
334.987 119.729 L
335.375 121.263 L
335.763 123.496 L
336.15 125.11 L
336.538 126.092 L
336.925 126.419 L
337.313 125.874 L
337.7 127.101 L
338.087 127.511 L
338.475 128.423 L
338.862 130.44 L
339.25 131.524 L
339.638 131.902 L
340.025 133.212 L
340.413 134.311 L
340.8 133.048 L
341.188 131.887 L
341.575 131.642 L
341.962 132.227 L
342.35 131.244 L
342.737 131.584 L
343.125 131.763 L
343.513 131.517 L
343.9 133.154 L
344.288 131.763 L
344.675 133.586 L
345.063 134.172 L
345.45 133.026 L
345.837 132.505 L
346.225 133.04 L
346.612 133.593 L
347 133.047 L
347.388 133.101 L
347.775 131.716 L
348.163 132.746 L
348.55 132.306 L
348.938 133.199 L
349.325 132.752 L
349.712 131.988 L
350.1 131.163 L
350.487 132.566 L
350.875 131.115 L
351.263 130.569 L
351.65 129.587 L
352.038 129.587 L
352.425 125.569 L
352.813 123.634 L
353.2 122.932 L
353.587 123.546 L
353.975 123.114 L
354.362 122.668 L
354.75 121.122 L
355.138 119.8 L
355.525 118.386 L
355.913 118.208 L
356.3 117.463 L
356.688 116.972 L
357.075 115.682 L
357.462 113.554 L
357.85 113.35 L
358.237 113.274 L
358.625 112.387 L
359.013 112.075 L
359.4 112.453 L
359.788 111.244 L
360.175 110.522 L
360.563 112.276 L
360.95 113.265 L
361.337 113.511 L
361.725 112.629 L
362.112 112.247 L
362.5 112.56 L
362.888 111.935 L
363.275 112.917 L
363.663 112.146 L
364.05 113.026 L
364.438 111.612 L
364.825 111.702 L
365.212 111.702 L
365.6 111.936 L
365.987 110.38 L
366.375 110.246 L
366.763 109.502 L
367.15 109.565 L
367.538 108.254 L
367.925 107.979 L
368.313 109.388 L
368.7 108.076 L
369.087 108.919 L
369.475 108.374 L
369.862 110.524 L
370.25 109.958 L
370.638 110.795 L
371.025 109.745 L
371.413 110.237 L
371.8 108.219 L
372.188 109.782 L
372.575 108.988 L
372.962 109.378 L
373.35 107.291 L
373.737 107.817 L
374.125 107.989 L
374.513 109.311 L
374.9 110.633 L
375.288 110.948 L
375.675 110.799 L
376.063 111.38 L
376.45 110.662 L
376.837 113.452 L
377.225 113.827 L
377.612 113.037 L
378 113.331 L
378.388 111.476 L
378.775 111.514 L
379.163 110.923 L
379.55 111.805 L
379.938 112.749 L
380.325 112.258 L
380.712 112.322 L
381.1 112.433 L
381.487 113.861 L
381.875 116.277 L
382.263 116.947 L
382.65 116.741 L
383.038 115.759 L
383.425 117.571 L
383.813 117.018 L
384.2 118.383 L
384.587 118.492 L
384.975 118.901 L
385.362 118.55 L
385.75 118.761 L
386.138 118.474 L
386.525 118.098 L
386.913 117.981 L
387.3 119.859 L
387.688 119.985 L
388.075 119.426 L
388.462 120.688 L
388.85 119.261 L
389.237 120.353 L
389.625 118.279 L
390.013 116.768 L
390.4 115.663 L
390.788 115.348 L
391.175 114.895 L
391.563 114.661 L
391.95 112.494 L
392.337 111.948 L
392.725 112.33 L
393.112 112.576 L
393.5 112.4 L
393.888 112.229 L
394.275 113.457 L
394.663 112.134 L
395.05 112.229 L
395.438 112.774 L
395.825 111.59 L
396.212 111.325 L
396.6 109.428 L
396.987 110.512 L
397.375 110.863 L
397.763 109.382 L
398.15 110.458 L
398.538 109.999 L
398.925 109.945 L
399.313 108.658 L
399.7 107.255 L
400.087 106.184 L
400.475 106.566 L
400.862 106.12 L
401.25 105.165 L
401.638 102.639 L
402.025 101.002 L
402.413 101.272 L
402.8 102.075 L
403.188 99.397 L
403.575 99.233 L
403.962 98.561 L
404.35 98.225 L
404.737 98.471 L
405.125 98.997 L
405.513 99.699 L
405.9 99.539 L
406.288 100.156 L
406.675 100.273 L
407.063 100.049 L
407.45 100.377 L
407.837 102.657 L
408.225 103.203 L
408.612 103.34 L
409 102.844 L
409.388 104.372 L
409.775 105.047 L
410.163 104.135 L
410.55 104.953 L
410.938 104.953 L
411.325 104.512 L
411.712 104.878 L
412.1 106.515 L
412.487 105.798 L
412.875 105.271 L
413.263 106.451 L
413.65 105.814 L
414.038 103.916 L
414.425 103.484 L
414.813 105.531 L
415.2 105.58 L
415.587 107.747 L
415.975 110.325 L
416.362 110.995 L
416.75 109.56 L
417.138 110.34 L
417.525 112.094 L
417.913 112.476 L
418.3 112.763 L
418.688 112.988 L
419.075 114.87 L
419.462 116.887 L
419.85 118.941 L
420.237 117.973 L
420.625 117.899 L
421.013 117.427 L
421.4 117.263 L
421.788 117.146 L
422.175 116.498 L
422.563 115.94 L
422.95 117.168 L
423.337 119.624 L
423.725 120.295 L
424.112 121.723 L
424.5 121.068 L
424.888 123.114 L
425.275 122.939 L
425.663 122.939 L
426.05 123.77 L
426.438 123.707 L
426.825 122.527 L
427.212 122.036 L
427.6 119.51 L
427.987 118.255 L
428.375 118.873 L
428.763 119.369 L
429.15 118.823 L
429.538 119.244 L
429.925 120.156 L
430.313 120.305 L
430.7 120.759 L
431.087 124.064 L
431.475 124.749 L
431.862 125.158 L
432.25 125.104 L
432.638 125.221 L
433.025 123.398 L
433.413 125.643 L
433.8 126.313 L
434.188 127.248 L
434.575 125.314 L
434.962 125.537 L
435.35 124.002 L
435.737 122.718 L
436.125 121.774 L
436.513 122.934 L
436.9 121.161 L
437.288 120.342 L
437.675 120.342 L
438.063 119.758 L
438.45 120.899 L
438.837 121.737 L
439.225 119.045 L
439.612 117.884 L
440 117.443 L
440.388 117.758 L
440.775 118.514 L
441.163 118.514 L
441.55 119.995 L
441.938 121.695 L
442.325 121.449 L
442.712 121.561 L
443.1 122.496 L
443.487 121.787 L
443.875 121.569 L
444.263 124.024 L
444.65 122.09 L
445.038 123.045 L
445.425 123.379 L
445.813 122.397 L
446.2 124.097 L
446.587 125.091 L
446.975 124.6 L
447.362 126.346 L
447.75 126.384 L
448.138 127.056 L
448.525 125.146 L
448.913 124.375 L
449.3 123.823 L
449.688 123.332 L
450.075 125.229 L
450.462 123.966 L
450.85 121.374 L
451.237 122.841 L
451.625 123.864 L
452.013 126.846 L
452.4 128.26 L
452.788 130.921 L
453.175 130.157 L
453.563 128.192 L
453.95 130.765 L
454.337 130.653 L
454.725 129.016 L
455.112 129.568 L
455.5 128.765 L
455.888 129.436 L
456.275 129.89 L
456.663 131.936 L
457.05 131.527 L
457.438 130.15 L
457.825 131.359 L
458.212 131.309 L
458.6 129.643 L
458.987 130.902 L
459.375 129.467 L
459.763 131.322 L
460.15 132.371 L
460.538 131.562 L
460.925 132.708 L
461.313 131.344 L
461.7 129.589 L
462.087 129.426 L
462.475 129.872 L
462.862 126.754 L
463.25 126.414 L
463.638 126.235 L
464.025 124.747 L
464.413 124.063 L
464.8 124.063 L
465.188 124.063 L
465.575 124.866 L
465.962 123.638 L
466.35 122.485 L
466.737 122.73 L
467.125 121.341 L
467.513 122.559 L
467.9 121.715 L
468.288 123.625 L
468.675 124.545 L
469.063 126.079 L
469.45 126.838 L
469.837 123.973 L
470.225 126 L
470.612 127.365 L
471 126.523 L
471.388 124.926 L
471.775 122.582 L
472.163 121.052 L
472.55 120.438 L
472.938 119.594 L
473.325 121.832 L
473.712 120.078 L
474.1 119.552 L
474.487 120.916 L
474.875 120.782 L
475.263 120.501 L
475.65 120.501 L
476.038 119.292 L
476.425 118.176 L
476.813 118.995 L
477.2 119.341 L
477.587 119.341 L
477.975 119.614 L
478.362 119.103 L
478.75 119.252 L
479.138 120.866 L
479.525 121.362 L
479.913 121.635 L
480.3 123.662 L
480.688 123.171 L
481.075 124.106 L
481.462 123.405 L
481.85 123.926 L
482.237 123.122 L
482.625 123.013 L
483.013 122.862 L
483.4 122.058 L
483.788 121.909 L
484.175 122.307 L
484.563 120.702 L
484.95 120.813 L
485.337 121.483 L
485.725 121.595 L
486.112 121.52 L
486.5 121.426 L
486.888 121.975 L
487.275 121.702 L
487.663 122 L
488.05 122 L
488.438 123.488 L
488.825 122.997 L
489.212 121.42 L
489.6 121.734 L
489.987 120.234 L
490.375 118.831 L
490.763 118.205 L
491.15 118.072 L
491.538 119.188 L
491.925 120.669 L
492.313 120.669 L
492.7 121.294 L
493.087 119.458 L
493.475 118.055 L
493.862 118.693 L
494.25 118.693 L
494.638 118.663 L
495.025 120.145 L
495.413 118.717 L
495.8 120.145 L
496.188 119.938 L
496.575 118.944 L
496.962 119.662 L
497.35 119.452 L
497.737 117.978 L
498.125 119.318 L
498.513 119.374 L
498.9 119.251 L
499.288 116.811 L
499.675 117.084 L
500.063 114.901 L
500.45 115.392 L
500.837 115.276 L
501.225 118.784 L
501.612 119.081 L
502 120.331 L
502.388 120.823 L
502.775 121.626 L
503.163 121.983 L
503.55 121.574 L
503.938 121.277 L
504.325 122.337 L
504.712 122.783 L
505.1 121.965 L
505.487 122.808 L
505.875 124.445 L
506.263 124.178 L
506.65 123.342 L
507.038 122.196 L
507.425 122.032 L
507.813 119.713 L
508.2 118.621 L
508.587 119.113 L
508.975 119.351 L
509.362 120.182 L
509.75 122.638 L
510.138 122.341 L
510.525 124.275 L
510.913 124.9 L
511.3 123.784 L
511.688 123.834 L
512.075 121.924 L
512.463 122.415 L
512.85 123.276 L
513.237 124.407 L
513.625 125.746 L
514.013 125.746 L
514.4 125.357 L
514.787 125.903 L
515.175 126.281 L
515.563 125.437 L
515.95 125.532 L
516.338 126.935 L
516.725 126.217 L
517.112 125.803 L
517.5 126.785 L
517.888 127.622 L
518.275 128.236 L
518.662 130.604 L
519.05 133.043 L
519.438 132.101 L
519.825 134.625 L
520.213 134.446 L
520.6 135.041 L
520.987 131.911 L
521.375 131.256 L
521.763 130.535 L
522.15 131.244 L
522.537 130.932 L
522.925 132.539 L
523.313 133.767 L
523.7 134.064 L
524.088 134.391 L
524.475 134.391 L
524.862 133.846 L
525.25 132.318 L
525.638 130.24 L
526.025 130.507 L
526.412 130.273 L
526.8 131.146 L
527.188 131.905 L
527.575 132.197 L
527.963 131.148 L
528.35 130.657 L
528.737 132.57 L
529.125 132.243 L
529.513 129.693 L
529.9 130.574 L
530.287 128.118 L
530.675 127.493 L
531.063 127.493 L
531.45 127.225 L
531.838 127.601 L
532.225 127.11 L
532.612 128.63 L
533 128.411 L
533.388 126.551 L
533.775 126.154 L
534.162 126.87 L
534.55 128.352 L
534.938 128.692 L
535.325 129.138 L
535.713 130.093 L
536.1 128.865 L
536.487 129.747 L
536.875 130.044 L
537.263 128.898 L
537.65 127.466 L
538.037 125.766 L
538.425 123.739 L
538.813 122.648 L
539.2 122.335 L
539.588 122.335 L
539.975 121.204 L
540.362 122.246 L
540.75 123.71 L
541.138 124.832 L
541.525 126.595 L
541.912 125.886 L
542.3 126.198 L
542.688 124.07 L
543.075 123.088 L
543.463 122.956 L
543.85 122.125 L
544.237 120.994 L
544.625 122.358 L
545.013 123.341 L
545.4 124.436 L
545.787 125.089 L
546.175 126.453 L
546.563 125.498 L
546.95 124.669 L
547.338 126.2 L
547.725 127.031 L
548.112 126.406 L
548.5 124.733 L
548.888 124.323 L
549.275 125.919 L
549.662 126.514 L
550.05 128.642 L
550.438 128.642 L
550.825 128.058 L
551.213 128.549 L
551.6 129.14 L
551.987 128.649 L
552.375 129.584 L
552.763 129.584 L
553.15 130.403 L
553.537 132.826 L
553.925 132.975 L
554.313 129.818 L
554.7 130.234 L
555.088 129.581 L
555.475 129.854 L
555.862 131.9 L
556.25 132.446 L
556.638 132.282 L
557.025 132.937 L
557.412 132.773 L
557.8 134.25 L
558.188 132.96 L
558.575 134.052 L
558.963 133.397 L
559.35 130.982 L
559.737 131.146 L
560.125 129.099 L
560.513 129.441 L
560.9 128.809 L
561.287 127.008 L
561.675 127.046 L
562.063 128.534 L
562.45 128.471 L
562.838 129.181 L
563.225 130.306 L
563.612 131.629 L
564 131.729 L
564.388 131.06 L
564.775 131.06 L
565.162 131.097 L
565.55 132.819 L
565.938 132.601 L
566.325 133.338 L
566.713 131.935 L
567.1 131.749 L
567.487 131.421 L
567.875 131.215 L
568.263 131.593 L
568.65 132.002 L
569.037 129.975 L
569.425 129.707 L
569.813 127.306 L
570.2 127.44 L
570.588 128.868 L
570.975 129.14 L
571.362 128.857 L
571.75 129.566 L
572.138 128.426 L
572.525 129.736 L
572.912 128.854 L
573.3 125.346 L
573.688 124.379 L
574.075 124.666 L
574.463 124.742 L
574.85 124.742 L
575.237 124.742 L
575.625 124.196 L
576.013 123.978 L
576.4 123.638 L
576.787 123.95 L
577.175 126.16 L
577.563 126.656 L
577.95 126.114 L
578.338 126.455 L
578.725 127.04 L
579.112 128.568 L
579.5 128.568 L
579.888 130.069 L
580.275 130.341 L
580.662 129.624 L
581.05 129.936 L
581.438 129.898 L
581.825 127.677 L
582.213 127.499 L
582.6 126.072 L
582.987 125.159 L
583.375 124.749 L
583.763 125.046 L
584.15 124.57 L
584.537 123.588 L
584.925 122.731 L
585.313 120.451 L
585.7 120.124 L
586.088 120.124 L
586.475 122.306 L
586.862 122.046 L
587.25 120.955 L
587.638 122.55 L
588.025 123.221 L
588.412 123.221 L
588.8 124.752 L
589.188 123.84 L
589.575 126.023 L
589.963 126.335 L
590.35 126.608 L
590.737 125.666 L
591.125 125.666 L
591.513 124.956 L
591.9 124.956 L
592.287 124.138 L
592.675 124.893 L
593.063 126.92 L
593.45 127.329 L
593.838 127.627 L
594.225 125.99 L
594.612 125.612 L
595 124.29 L
595.388 122.695 L
595.775 122.367 L
596.162 122.871 L
596.55 122.871 L
596.938 121.643 L
597.325 121.147 L
597.713 121.888 L
598.1 120.455 L
598.487 121.284 L
598.875 119.92 L
599.263 120.193 L
599.65 119.251 L
600.037 118.268 L
600.425 118.741 L
600.813 117.848 L
601.2 118.421 L
601.588 119.601 L
601.975 122.092 L
602.362 122.565 L
602.75 122.659 L
603.138 121.368 L
603.525 123.59 L
603.912 122.658 L
604.3 123.789 L
604.688 125.59 L
605.075 125.702 L
605.463 126.793 L
605.85 127.507 L
606.237 125.325 L
606.625 124.521 L
607.013 125.028 L
607.4 122.913 L
607.787 121.958 L
608.175 121.214 L
608.563 120.209 L
608.95 119.566 L
609.338 118.475 L
609.725 118.028 L
610.112 117.359 L
610.5 117.359 L
610.888 116.832 L
611.275 115.973 L
611.662 115.71 L
612.05 114.891 L
612.438 114.199 L
612.825 112.81 L
613.213 112.237 L
613.6 112.564 L
613.987 113.055 L
614.375 113.433 L
614.763 113.811 L
615.15 114.151 L
615.537 113.168 L
615.925 111.859 L
616.313 111.383 L
616.7 109.682 L
617.088 110.129 L
617.475 109.856 L
617.862 109.447 L
618.25 108.442 L
618.638 108.379 L
619.025 107.99 L
619.412 107.097 L
619.8 107.26 L
620.188 106.339 L
620.575 108.516 L
620.963 107.697 L
621.35 107.921 L
621.737 107.034 L
622.125 106.858 L
622.513 106.97 L
622.9 107.197 L
623.287 108.132 L
623.675 109.54 L
624.063 110.483 L
624.45 110.756 L
624.838 111.381 L
625.225 110.164 L
625.612 109.717 L
626 111.503 L
626.388 112.567 L
626.775 114.584 L
627.162 113.97 L
627.55 114.254 L
627.938 115.544 L
628.325 117.044 L
628.713 117.528 L
629.1 118.074 L
629.487 120.418 L
629.875 119.45 L
630.263 118.717 L
630.65 118.908 L
631.037 119.931 L
631.425 118.464 L
631.813 117.961 L
632.2 118.035 L
632.588 117.514 L
632.975 118.087 L
633.362 118.578 L
633.75 119.546 L
634.138 119.168 L
634.525 119.294 L
634.912 119.048 L
635.3 119.703 L
635.688 119.703 L
636.075 119.149 L
636.463 119.733 L
636.85 117.381 L
637.237 120.071 L
637.625 119.599 L
638.013 119.844 L
638.4 120.141 L
638.787 120.913 L
639.175 121.248 L
639.563 122.066 L
639.95 123.233 L
640.338 120.514 L
640.725 119.941 L
641.112 119.271 L
641.5 119.053 L
641.888 118.328 L
642.275 117.69 L
642.662 117.936 L
643.05 115.199 L
643.438 114.858 L
643.825 113.439 L
644.213 111.763 L
644.6 111.436 L
644.987 112.157 L
645.375 111.152 L
645.763 113.05 L
646.15 111.354 L
646.537 110.249 L
646.925 112.035 L
647.313 111.506 L
647.7 110.025 L
648.088 107.296 L
648.475 106.754 L
648.862 105.327 L
649.25 102.983 L
649.638 103.298 L
650.025 104.428 L
650.412 104.237 L
650.8 104.073 L
651.188 103.627 L
651.575 104.949 L
651.963 104.758 L
652.35 105.725 L
652.737 105.479 L
653.125 103.331 L
653.513 104 L
653.9 104.473 L
654.287 105.068 L
654.675 105.477 L
655.063 104.943 L
655.45 106.402 L
655.838 106.402 L
656.225 106.465 L
656.612 106.138 L
657 103.94 L
657.388 105.367 L
657.775 105.94 L
658.162 105.589 L
658.55 105.343 L
658.938 106.08 L
659.325 105.262 L
659.713 104.443 L
660.1 105.729 L
660.487 106.23 L
660.875 104.822 L
661.263 104.643 L
661.65 105.018 L
662.037 105.134 L
662.425 106.089 L
662.813 105.749 L
663.2 105.123 L
663.588 104.866 L
663.975 105.153 L
664.362 103.894 L
664.75 102.363 L
665.138 102.475 L
665.525 100.577 L
665.912 100.554 L
666.3 99.929 L
666.688 99.78 L
667.075 99.452 L
667.463 99.406 L
667.85 99.733 L
668.237 100.138 L
668.625 99.71 L
669.013 99.025 L
669.4 98.71 L
669.787 97.837 L
670.175 98.363 L
670.563 97.783 L
670.95 97.646 L
671.338 96.827 L
671.725 96.703 L
672.112 94.917 L
672.5 95.981 L
672.888 95.963 L
673.275 94.429 L
673.662 94.674 L
674.05 92.442 L
674.438 91.419 L
674.825 91.345 L
675.213 89.848 L
675.6 89.092 L
675.987 88.507 L
676.375 89.162 L
676.763 89.742 L
677.15 89.196 L
677.537 88.132 L
677.925 89.067 L
678.313 88.892 L
678.7 87.255 L
679.088 85.907 L
679.475 86.725 L
679.862 86.316 L
680.25 86.142 L
680.638 87.238 L
681.025 86.68 L
681.412 85.978 L
681.8 85.405 L
682.188 83.6 L
682.575 83.695 L
682.963 83.929 L
683.35 83.531 L
683.737 83.531 L
684.125 83.153 L
684.513 83.585 L
684.9 83.064 L
685.287 82.097 L
685.675 82.147 L
686.063 81.159 L
686.45 79.849 L
686.838 79.545 L
687.225 79.545 L
687.612 79.919 L
688 79.163 L
688.388 79.109 L
688.775 79.375 L
689.162 79.102 L
689.55 78.568 L
689.938 77.918 L
690.325 77.352 L
690.713 79.871 L
691.1 78.989 L
691.487 79.885 L
691.875 80.499 L
692.263 78.83 L
692.65 80.997 L
693.037 81.304 L
693.425 81.935 L
693.813 83.573 L
694.2 83.66 L
694.588 84.092 L
694.975 84.505 L
695.362 85.16 L
695.75 85.474 L
696.138 85.521 L
696.525 84.287 L
696.912 83.878 L
697.3 83.878 L
697.688 82.818 L
698.075 82.312 L
698.463 82.967 L
698.85 83.811 L
699.237 82.665 L
699.625 82.49 L
700.013 82.641 L
700.4 81.167 L
700.787 80.198 L
701.175 80.689 L
701.563 81.199 L
701.95 81.874 L
702.338 81.301 L
702.725 81.231 L
703.112 83.304 L
703.5 82.858 L
703.888 83.91 L
704.275 83.759 L
704.662 83.759 L
705.05 83.555 L
705.438 83.586 L
705.825 85.468 L
706.213 86.274 L
706.6 86.274 L
706.987 86.958 L
707.375 87.39 L
707.763 87.697 L
708.15 87.424 L
708.537 87.322 L
708.925 87.267 L
709.313 87.247 L
709.7 86.976 L
710.088 86.649 L
710.475 84.13 L
710.862 84.268 L
711.25 83.122 L
711.638 83.263 L
712.025 83.587 L
712.412 82.918 L
712.8 82.742 L
713.188 81.339 L
713.575 80.08 L
713.963 80.134 L
714.35 80.474 L
714.737 81.558 L
715.125 81.449 L
715.513 81.789 L
715.9 81.906 L
716.287 82.479 L
716.675 82.888 L
717.063 83.039 L
717.45 83.444 L
717.838 82.898 L
718.225 82.205 L
718.612 81.964 L
719 82.214 L
719.388 81.469 L
719.775 81.154 L
720.162 81.461 L
720.55 82.255 L
720.938 82.21 L
721.325 81.762 L
721.713 81.762 L
722.1 81.107 L
722.487 80.702 L
722.875 78.552 L
723.263 78.641 L
723.65 77.589 L
724.037 76.934 L
724.425 76.693 L
724.813 77.307 L
725.2 77.716 L
725.588 75.791 L
725.975 74.891 L
726.362 74.541 L
726.75 73.201 L
727.138 72.645 L
727.525 72.856 L
727.912 73.838 L
728.3 73.326 L
728.688 73.108 L
729.075 72.625 L
729.463 73.546 L
729.85 73.546 L
730.237 72.79 L
730.625 73.031 L
731.013 72.962 L
731.4 72.784 L
731.787 72.949 L
732.175 72.391 L
732.563 73.794 L
732.95 73.093 L
733.338 74.352 L
733.725 73.869 L
734.112 72.396 L
734.5 71.188 L
734.888 70.901 L
735.275 69.734 L
735.662 69.461 L
736.05 68.584 L
736.438 67.929 L
736.825 67.778 L
737.213 66.796 L
737.6 67.243 L
737.987 67.608 L
738.375 67.329 L
738.763 67.041 L
739.15 67.435 L
739.537 67.231 L
739.925 66.924 L
740.313 66.144 L
740.7 65.97 L
741.088 65.97 L
741.475 65.532 L
741.862 66.023 L
742.25 66.201 L
742.638 66.169 L
743.025 65.537 L
743.412 65.796 L
743.8 65.757 L
744.188 65.757 L
744.575 65.231 L
744.963 64.658 L
745.35 64.702 L
745.737 64.468 L
746.125 64.468 L
746.513 65.082 L
746.9 65.118 L
747.287 65.303 L
747.675 64.32 L
748.063 64.013 L
748.45 63.741 L
748.838 63.757 L
749.225 62.529 L
749.612 63.284 L
750 63.543 L
750.388 63.111 L
750.775 63.142 L
751.162 62.822 L
751.55 61.956 L
751.938 60.728 L
752.325 58.272 L
752.713 59.254 L
753.1 57.617 L
753.487 57.999 L
753.875 58.981 L
754.263 58.404 L
754.65 58.145 L
755.037 59.178 L
755.425 58.632 L
755.813 58.659 L
756.2 57.677 L
756.588 57.308 L
756.975 57.922 L
757.362 58.177 L
757.75 59.16 L
758.138 59.037 L
758.525 58.982 L
758.912 59.333 L
759.3 59.008 L
759.688 59.335 L
760.075 59.881 L
760.463 59.986 L
760.85 59.679 L
761.237 59.556 L
761.625 59.416 L
762.013 58.967 L
762.4 59.035 L
762.787 58.943 L
763.175 58.684 L
763.563 58.396 L
763.95 58.519 L
764.338 58.363 L
764.725 58.664 L
765.112 59.541 L
765.5 60.154 L
765.888 60.154 L
766.275 60.008 L
766.662 59.394 L
767.05 58.938 L
767.438 58.938 L
767.825 59.805 L
768.213 59.805 L
768.6 59.805 L
768.987 60.064 L
769.375 59.597 L
769.763 59.338 L
770.15 59.105 L
770.537 59.571 L
770.925 60.014 L
771.313 60.628 L
771.7 60.887 L
772.088 61.238 L
772.475 60.255 L
772.862 60.562 L
773.25 60.375 L
773.638 60.094 L
774.025 60.445 L
774.412 60.773 L
774.8 59.679 L
775.188 59.679 L
775.575 59.574 L
775.963 60.626 L
776.35 60.529 L
776.737 59.915 L
777.125 59.521 L
777.513 58.173 L
777.9 58.437 L
778.287 59.989 L
778.675 59.182 L
779.063 58.893 L
779.45 59.144 L
779.838 58.53 L
780.225 58.152 L
780.612 59.134 L
781 59.871 L
781.388 59.871 L
781.775 59.942 L
782.162 59.983 L
782.55 59.724 L
782.938 59.724 L
783.325 60.052 L
783.713 60.106 L
784.1 60.542 L
784.487 59.996 L
784.875 59.524 L
785.263 59.199 L
785.65 59.199 L
786.037 59.345 L
786.425 60.164 L
786.813 60.177 L
787.2 60.177 L
787.588 59.31 L
787.975 59.31 L
788.362 59.267 L
788.75 60.645 L
789.138 61.49 L
789.525 61.868 L
789.912 61.891 L
790.3 61.136 L
790.688 60.707 L
791.075 60.093 L
791.463 61.062 L
791.85 61.467 L
792.237 61.794 L
792.625 62.621 L
793.013 62.855 L
793.4 62.442 L
793.787 62.669 L
794.175 62.919 L
794.563 62.674 L
794.95 62.674 L
795.338 62.728 L
795.725 61.983 L
796.112 61.773 L
796.5 62.1 L
796.888 62.339 L
797.275 62.541 L
797.662 62.044 L
798.05 60.531 L
798.438 60.574 L
798.825 61.708 L
799.213 61.676 L
799.6 61.798 L
799.987 62.149 L
800.375 61.167 L
800.763 59.939 L
801.15 59.861 L
801.537 59.483 L
801.925 58.829 L
802.313 59.074 L
802.7 59.347 L
803.088 60.423 L
803.475 59.926 L
803.862 59.232 L
804.25 59.934 L
804.638 59.178 L
805.025 60.023 L
805.412 60.023 L
805.8 59.955 L
806.188 59.791 L
806.575 59.532 L
806.963 60.453 L
807.35 60.804 L
807.737 61.786 L
808.125 62.087 L
808.513 61.063 L
808.9 59.93 L
809.287 59.798 L
809.675 59.961 L
810.063 59.961 L
810.45 59.996 L
810.838 60.323 L
811.225 59.354 L
811.612 58.857 L
812 58.836 L
812.388 58.01 L
812.775 58.29 L
813.162 58.379 L
813.55 58.379 L
813.938 59.275 L
814.325 59.626 L
814.713 59.884 L
815.1 59.557 L
815.487 60.005 L
815.875 60.4 L
816.263 60.073 L
816.65 60.579 L
817.037 60.955 L
817.425 61.515 L
817.813 61.515 L
818.2 61.226 L
818.588 60.42 L
818.975 59.874 L
819.362 59.547 L
819.75 60.67 L
820.138 60.928 L
820.525 61.583 L
820.912 61.31 L
821.3 61.888 L
821.688 62.589 L
822.075 63.099 L
822.463 63.099 L
822.85 63.207 L
823.237 63.65 L
823.625 63.62 L
824.013 63.674 L
824.4 64.595 L
824.787 63.462 L
825.175 63.462 L
825.563 63.223 L
825.95 62.841 L
826.338 63.596 L
826.725 63.085 L
827.112 62.734 L
827.5 62.734 L
827.888 64.371 L
828.275 64.891 L
828.662 67.619 L
829.05 67.987 L
829.438 68.488 L
829.825 69.143 L
830.213 68.836 L
830.6 69.264 L
830.987 69.295 L
831.375 69.691 L
831.763 69.384 L
832.15 69.524 L
832.537 69.297 L
832.925 69.574 L
833.313 69.815 L
833.7 68.996 L
834.088 69.538 L
834.475 69.858 L
834.862 70.165 L
835.25 69.598 L
835.638 68.896 L
836.025 69.306 L
836.412 68.512 L
836.8 68.346 L
837.188 67.879 L
837.575 67.606 L
837.963 68.184 L
838.35 68.09 L
838.737 68.441 L
839.125 68.441 L
839.513 67.622 L
839.9 67.637 L
840.287 67.309 L
840.675 67.309 L
841.063 66.977 L
841.45 66.275 L
841.838 66.134 L
842.225 66.188 L
842.612 65.291 L
843 65.291 L
843.388 65.647 L
843.775 64.891 L
844.162 64.193 L
844.55 64.193 L
844.938 64.848 L
845.325 64.541 L
845.713 64.575 L
846.1 64.127 L
846.487 64.068 L
846.875 64.302 L
847.263 63.32 L
847.65 61.137 L
848.037 60.897 L
848.425 58.475 L
848.813 57.861 L
849.2 56.964 L
849.588 56.582 L
849.975 57.196 L
850.362 56.747 L
850.75 57.004 L
851.138 56.656 L
851.525 57.358 L
851.912 57.17 L
852.3 56.414 L
852.688 56.337 L
853.075 55.519 L
853.463 54.864 L
853.85 54.953 L
854.237 55.358 L
854.625 55.285 L
855.013 55.673 L
855.4 55.962 L
855.787 55.553 L
856.175 55.602 L
856.563 55.189 L
856.95 55.111 L
857.338 55.438 L
857.725 56.088 L
858.112 56.161 L
858.5 56.161 L
858.888 56.161 L
859.275 55.507 L
859.662 55.989 L
860.05 55.951 L
860.438 56.706 L
860.825 56.719 L
861.213 56.719 L
861.6 56.433 L
861.987 56.394 L
862.375 56.087 L
862.763 55.386 L
863.15 55.427 L
863.537 55.734 L
863.925 56.001 L
864.313 57.135 L
864.7 56.48 L
865.088 56.997 L
865.475 56.69 L
865.862 56.69 L
866.25 56.994 L
866.638 56.983 L
867.025 57.597 L
867.412 57.87 L
867.8 56.977 L
868.188 56.916 L
868.575 57.189 L
868.963 58.441 L
869.35 58.944 L
869.737 58.637 L
870.125 60.172 L
870.513 59.849 L
870.9 59.815 L
871.287 59.114 L
871.675 58.855 L
872.063 58.855 L
872.45 58.687 L
872.838 58.945 L
873.225 58.945 L
873.612 58.252 L
874 57.27 L
874.388 57.325 L
874.775 56.992 L
875.162 56.927 L
875.55 57.336 L
875.938 57.684 L
876.325 57.702 L
876.713 58.322 L
877.1 58.345 L
877.487 58.457 L
877.875 58.969 L
878.263 58.618 L
878.65 59.232 L
879.037 59.933 L
879.425 59.833 L
879.813 59.778 L
880.2 59.295 L
880.588 60.264 L
880.975 60.919 L
881.362 61.725 L
881.75 61.927 L
882.138 61.927 L
882.525 62.444 L
882.912 62.199 L
883.3 62.647 L
883.688 62.156 L
884.075 61.724 L
884.463 62.075 L
884.85 62.377 L
885.237 62.377 L
885.625 62.615 L
886.013 61.961 L
886.4 62.72 L
886.787 62.106 L
887.175 62.301 L
887.563 62.546 L
887.95 62.955 L
888.338 63.296 L
888.725 62.604 L
889.112 62.374 L
889.5 62.395 L
889.888 61.605 L
890.275 61.382 L
890.662 61.437 L
891.05 62.05 L
891.438 62.428 L
891.825 64.393 L
892.213 64.739 L
892.6 64.788 L
892.987 65.046 L
893.375 65.064 L
893.763 65.31 L
894.15 65.021 L
894.537 65.153 L
894.925 65.685 L
895.313 65.276 L
895.7 65.143 L
896.088 65.367 L
896.475 64.977 L
896.862 65.16 L
897.25 64.254 L
897.638 63.898 L
898.025 64.474 L
898.412 64.35 L
898.8 64.113 L
899.188 63.922 L
899.575 64.259 L
899.963 64.562 L
900.35 63.599 L
900.737 63.375 L
901.125 62.459 L
901.513 62.427 L
901.9 62.67 L
902.287 62.603 L
902.675 62.703 L
903.063 62.24 L
903.45 63.03 L
903.838 62.642 L
904.225 62.864 L
904.612 62.219 L
905 63.131 L
S
GR
%%Trailer
%%Pages: 1
%%EOF
