%!PS-Adobe-3.0 EPSF-3.0
%%Creator: (MATLAB, The Mathworks, Inc. Version 9.0.0.341360 \(R2016a\). Operating System: Linux)
%%Title: report/figures/sm_base_softmax_unifprio2_ratio.eps
%%CreationDate: 2017-02-04T23:56:38
%%Pages: (atend)
%%BoundingBox:    59     4   910   325
%%LanguageLevel: 3
%%EndComments
%%BeginProlog
%%BeginResource: procset (Apache XML Graphics Std ProcSet) 1.2 0
%%Version: 1.2 0
%%Copyright: (Copyright 2001-2003,2010 The Apache Software Foundation. License terms: http://www.apache.org/licenses/LICENSE-2.0)
/bd{bind def}bind def
/ld{load def}bd
/GR/grestore ld
/M/moveto ld
/LJ/setlinejoin ld
/C/curveto ld
/f/fill ld
/LW/setlinewidth ld
/GC/setgray ld
/t/show ld
/N/newpath ld
/CT/concat ld
/cp/closepath ld
/S/stroke ld
/L/lineto ld
/CC/setcmykcolor ld
/A/ashow ld
/GS/gsave ld
/RC/setrgbcolor ld
/RM/rmoveto ld
/ML/setmiterlimit ld
/re {4 2 roll M
1 index 0 rlineto
0 exch rlineto
neg 0 rlineto
cp } bd
/_ctm matrix def
/_tm matrix def
/BT { _ctm currentmatrix pop matrix _tm copy pop 0 0 moveto } bd
/ET { _ctm setmatrix } bd
/iTm { _ctm setmatrix _tm concat } bd
/Tm { _tm astore pop iTm 0 0 moveto } bd
/ux 0.0 def
/uy 0.0 def
/F {
  /Tp exch def
  /Tf exch def
  Tf findfont Tp scalefont setfont
  /cf Tf def  /cs Tp def
} bd
/ULS {currentpoint /uy exch def /ux exch def} bd
/ULE {
  /Tcx currentpoint pop def
  gsave
  newpath
  cf findfont cs scalefont dup
  /FontMatrix get 0 get /Ts exch def /FontInfo get dup
  /UnderlinePosition get Ts mul /To exch def
  /UnderlineThickness get Ts mul /Tt exch def
  ux uy To add moveto  Tcx uy To add lineto
  Tt setlinewidth stroke
  grestore
} bd
/OLE {
  /Tcx currentpoint pop def
  gsave
  newpath
  cf findfont cs scalefont dup
  /FontMatrix get 0 get /Ts exch def /FontInfo get dup
  /UnderlinePosition get Ts mul /To exch def
  /UnderlineThickness get Ts mul /Tt exch def
  ux uy To add cs add moveto Tcx uy To add cs add lineto
  Tt setlinewidth stroke
  grestore
} bd
/SOE {
  /Tcx currentpoint pop def
  gsave
  newpath
  cf findfont cs scalefont dup
  /FontMatrix get 0 get /Ts exch def /FontInfo get dup
  /UnderlinePosition get Ts mul /To exch def
  /UnderlineThickness get Ts mul /Tt exch def
  ux uy To add cs 10 mul 26 idiv add moveto Tcx uy To add cs 10 mul 26 idiv add lineto
  Tt setlinewidth stroke
  grestore
} bd
/QT {
/Y22 exch store
/X22 exch store
/Y21 exch store
/X21 exch store
currentpoint
/Y21 load 2 mul add 3 div exch
/X21 load 2 mul add 3 div exch
/X21 load 2 mul /X22 load add 3 div
/Y21 load 2 mul /Y22 load add 3 div
/X22 load /Y22 load curveto
} bd
/SSPD {
dup length /d exch dict def
{
/v exch def
/k exch def
currentpagedevice k known {
/cpdv currentpagedevice k get def
v cpdv ne {
/upd false def
/nullv v type /nulltype eq def
/nullcpdv cpdv type /nulltype eq def
nullv nullcpdv or
{
/upd true def
} {
/sametype v type cpdv type eq def
sametype {
v type /arraytype eq {
/vlen v length def
/cpdvlen cpdv length def
vlen cpdvlen eq {
0 1 vlen 1 sub {
/i exch def
/obj v i get def
/cpdobj cpdv i get def
obj cpdobj ne {
/upd true def
exit
} if
} for
} {
/upd true def
} ifelse
} {
v type /dicttype eq {
v {
/dv exch def
/dk exch def
/cpddv cpdv dk get def
dv cpddv ne {
/upd true def
exit
} if
} forall
} {
/upd true def
} ifelse
} ifelse
} if
} ifelse
upd true eq {
d k v put
} if
} if
} if
} forall
d length 0 gt {
d setpagedevice
} if
} bd
%%EndResource
%%BeginResource: procset (Apache XML Graphics EPS ProcSet) 1.0 0
%%Version: 1.0 0
%%Copyright: (Copyright 2002-2003 The Apache Software Foundation. License terms: http://www.apache.org/licenses/LICENSE-2.0)
/BeginEPSF { %def
/b4_Inc_state save def         % Save state for cleanup
/dict_count countdictstack def % Count objects on dict stack
/op_count count 1 sub def      % Count objects on operand stack
userdict begin                 % Push userdict on dict stack
/showpage { } def              % Redefine showpage, { } = null proc
0 setgray 0 setlinecap         % Prepare graphics state
1 setlinewidth 0 setlinejoin
10 setmiterlimit [ ] 0 setdash newpath
/languagelevel where           % If level not equal to 1 then
{pop languagelevel             % set strokeadjust and
1 ne                           % overprint to their defaults.
{false setstrokeadjust false setoverprint
} if
} if
} bd
/EndEPSF { %def
count op_count sub {pop} repeat            % Clean up stacks
countdictstack dict_count sub {end} repeat
b4_Inc_state restore
} bd
%%EndResource
%%EndProlog
%%Page: 1 1
%%PageBoundingBox: 0 0 1000 350
%%BeginPageSetup
[1 0 0 -1 0 350] CT
%%EndPageSetup
GS
1 GC
N
0 0 1000 350 re
f
GR
GS
1 GC
N
0 0 1000 350 re
f
GR
GS
1 GC
N
130 289 M
905 289 L
905 26 L
130 26 L
cp
f
GR
GS
0.873 GC
1 LJ
0.5 LW
N
130 289 M
130 26 L
S
GR
GS
0.873 GC
1 LJ
0.5 LW
N
323.75 289 M
323.75 26 L
S
GR
GS
0.873 GC
1 LJ
0.5 LW
N
517.5 289 M
517.5 26 L
S
GR
GS
0.873 GC
1 LJ
0.5 LW
N
711.25 289 M
711.25 26 L
S
GR
GS
0.873 GC
1 LJ
0.5 LW
N
905 289 M
905 26 L
S
GR
GS
0.873 GC
1 LJ
0.5 LW
N
905 289 M
130 289 L
S
GR
GS
0.873 GC
1 LJ
0.5 LW
N
905 238.905 M
130 238.905 L
S
GR
GS
0.873 GC
1 LJ
0.5 LW
N
905 188.81 M
130 188.81 L
S
GR
GS
0.873 GC
1 LJ
0.5 LW
N
905 138.714 M
130 138.714 L
S
GR
GS
0.873 GC
1 LJ
0.5 LW
N
905 88.619 M
130 88.619 L
S
GR
GS
0.873 GC
1 LJ
0.5 LW
N
905 38.524 M
130 38.524 L
S
GR
GS
0.149 GC
2 setlinecap
1 LJ
0.5 LW
N
130 289 M
905 289 L
S
GR
GS
0.149 GC
2 setlinecap
1 LJ
0.5 LW
N
130 289 M
130 281.25 L
S
GR
GS
0.149 GC
2 setlinecap
1 LJ
0.5 LW
N
323.75 289 M
323.75 281.25 L
S
GR
GS
0.149 GC
2 setlinecap
1 LJ
0.5 LW
N
517.5 289 M
517.5 281.25 L
S
GR
GS
0.149 GC
2 setlinecap
1 LJ
0.5 LW
N
711.25 289 M
711.25 281.25 L
S
GR
GS
0.149 GC
2 setlinecap
1 LJ
0.5 LW
N
905 289 M
905 281.25 L
S
GR
GS
[1 0 0 1 130 295] CT
0.149 GC
N
-0.141 5.719 M
-1.672 5.719 -2.438 7.219 QT
-3.203 8.719 -3.203 11.719 QT
-3.203 14.719 -2.438 16.219 QT
-1.672 17.719 -0.141 17.719 QT
1.391 17.719 2.156 16.219 QT
2.922 14.719 2.922 11.719 QT
2.922 8.719 2.156 7.219 QT
1.391 5.719 -0.141 5.719 QT
cp
-0.141 4.156 M
2.313 4.156 3.602 6.094 QT
4.891 8.031 4.891 11.719 QT
4.891 15.406 3.602 17.344 QT
2.313 19.281 -0.141 19.281 QT
-2.594 19.281 -3.891 17.344 QT
-5.188 15.406 -5.188 11.719 QT
-5.188 8.031 -3.891 6.094 QT
-2.594 4.156 -0.141 4.156 QT
cp
f
GR
GS
[1 0 0 1 323.75 295] CT
0.149 GC
N
-9.641 5.719 M
-11.172 5.719 -11.938 7.219 QT
-12.703 8.719 -12.703 11.719 QT
-12.703 14.719 -11.938 16.219 QT
-11.172 17.719 -9.641 17.719 QT
-8.109 17.719 -7.344 16.219 QT
-6.578 14.719 -6.578 11.719 QT
-6.578 8.719 -7.344 7.219 QT
-8.109 5.719 -9.641 5.719 QT
cp
-9.641 4.156 M
-7.188 4.156 -5.898 6.094 QT
-4.609 8.031 -4.609 11.719 QT
-4.609 15.406 -5.898 17.344 QT
-7.188 19.281 -9.641 19.281 QT
-12.094 19.281 -13.391 17.344 QT
-14.688 15.406 -14.688 11.719 QT
-14.688 8.031 -13.391 6.094 QT
-12.094 4.156 -9.641 4.156 QT
cp
-1.135 16.516 M
0.928 16.516 L
0.928 19 L
-1.135 19 L
-1.135 16.516 L
cp
5.238 4.422 M
12.988 4.422 L
12.988 6.078 L
7.051 6.078 L
7.051 9.656 L
7.473 9.5 7.902 9.43 QT
8.332 9.359 8.77 9.359 QT
11.207 9.359 12.637 10.695 QT
14.066 12.031 14.066 14.328 QT
14.066 16.672 12.598 17.977 QT
11.129 19.281 8.457 19.281 QT
7.551 19.281 6.598 19.125 QT
5.645 18.969 4.629 18.656 QT
4.629 16.672 L
5.504 17.156 6.441 17.391 QT
7.379 17.625 8.426 17.625 QT
10.113 17.625 11.098 16.734 QT
12.082 15.844 12.082 14.328 QT
12.082 12.797 11.098 11.906 QT
10.113 11.016 8.426 11.016 QT
7.629 11.016 6.848 11.195 QT
6.066 11.375 5.238 11.75 QT
5.238 4.422 L
cp
f
GR
GS
[1 0 0 1 517.5 295] CT
0.149 GC
N
-4.016 17.344 M
-0.797 17.344 L
-0.797 6.219 L
-4.297 6.922 L
-4.297 5.125 L
-0.813 4.422 L
1.156 4.422 L
1.156 17.344 L
4.375 17.344 L
4.375 19 L
-4.016 19 L
-4.016 17.344 L
cp
f
GR
GS
[1 0 0 1 711.25 295] CT
0.149 GC
N
-13.516 17.344 M
-10.297 17.344 L
-10.297 6.219 L
-13.797 6.922 L
-13.797 5.125 L
-10.313 4.422 L
-8.344 4.422 L
-8.344 17.344 L
-5.125 17.344 L
-5.125 19 L
-13.516 19 L
-13.516 17.344 L
cp
-1.135 16.516 M
0.928 16.516 L
0.928 19 L
-1.135 19 L
-1.135 16.516 L
cp
5.238 4.422 M
12.988 4.422 L
12.988 6.078 L
7.051 6.078 L
7.051 9.656 L
7.473 9.5 7.902 9.43 QT
8.332 9.359 8.77 9.359 QT
11.207 9.359 12.637 10.695 QT
14.066 12.031 14.066 14.328 QT
14.066 16.672 12.598 17.977 QT
11.129 19.281 8.457 19.281 QT
7.551 19.281 6.598 19.125 QT
5.645 18.969 4.629 18.656 QT
4.629 16.672 L
5.504 17.156 6.441 17.391 QT
7.379 17.625 8.426 17.625 QT
10.113 17.625 11.098 16.734 QT
12.082 15.844 12.082 14.328 QT
12.082 12.797 11.098 11.906 QT
10.113 11.016 8.426 11.016 QT
7.629 11.016 6.848 11.195 QT
6.066 11.375 5.238 11.75 QT
5.238 4.422 L
cp
f
GR
GS
[1 0 0 1 905 295] CT
0.149 GC
N
-2.656 17.344 M
4.219 17.344 L
4.219 19 L
-5.031 19 L
-5.031 17.344 L
-3.906 16.172 -1.969 14.219 QT
-0.031 12.266 0.469 11.688 QT
1.406 10.625 1.781 9.891 QT
2.156 9.156 2.156 8.438 QT
2.156 7.281 1.344 6.547 QT
0.531 5.813 -0.781 5.813 QT
-1.703 5.813 -2.734 6.133 QT
-3.766 6.453 -4.938 7.109 QT
-4.938 5.125 L
-3.75 4.641 -2.711 4.398 QT
-1.672 4.156 -0.813 4.156 QT
1.453 4.156 2.797 5.289 QT
4.141 6.422 4.141 8.313 QT
4.141 9.219 3.805 10.023 QT
3.469 10.828 2.578 11.922 QT
2.344 12.203 1.031 13.555 QT
-0.281 14.906 -2.656 17.344 QT
cp
f
GR
GS
[1 0 0 1 517.50037 320] CT
0.149 GC
N
-14.25 9.328 M
-14.25 11.188 L
-15.094 10.766 -16 10.547 QT
-16.906 10.328 -17.859 10.328 QT
-19.344 10.328 -20.078 10.781 QT
-20.813 11.234 -20.813 12.141 QT
-20.813 12.828 -20.281 13.219 QT
-19.75 13.609 -18.172 13.969 QT
-17.484 14.109 L
-15.391 14.563 -14.5 15.383 QT
-13.609 16.203 -13.609 17.688 QT
-13.609 19.359 -14.938 20.336 QT
-16.266 21.313 -18.578 21.313 QT
-19.547 21.313 -20.594 21.125 QT
-21.641 20.938 -22.813 20.563 QT
-22.813 18.516 L
-21.719 19.094 -20.648 19.375 QT
-19.578 19.656 -18.547 19.656 QT
-17.141 19.656 -16.391 19.18 QT
-15.641 18.703 -15.641 17.828 QT
-15.641 17.031 -16.188 16.602 QT
-16.734 16.172 -18.563 15.766 QT
-19.25 15.609 L
-21.094 15.219 -21.906 14.422 QT
-22.719 13.625 -22.719 12.219 QT
-22.719 10.531 -21.516 9.602 QT
-20.313 8.672 -18.109 8.672 QT
-17 8.672 -16.039 8.836 QT
-15.078 9 -14.25 9.328 QT
cp
-8.507 5.547 M
-8.507 8.969 L
-4.444 8.969 L
-4.444 10.5 L
-8.507 10.5 L
-8.507 17.031 L
-8.507 18.5 -8.108 18.922 QT
-7.71 19.344 -6.476 19.344 QT
-4.444 19.344 L
-4.444 21 L
-6.476 21 L
-8.757 21 -9.624 20.148 QT
-10.491 19.297 -10.491 17.031 QT
-10.491 10.5 L
-11.944 10.5 L
-11.944 8.969 L
-10.491 8.969 L
-10.491 5.547 L
-8.507 5.547 L
cp
8.447 14.484 M
8.447 15.453 L
-0.631 15.453 L
-0.506 17.5 0.596 18.57 QT
1.697 19.641 3.666 19.641 QT
4.807 19.641 5.869 19.359 QT
6.932 19.078 7.994 18.516 QT
7.994 20.391 L
6.932 20.844 5.814 21.078 QT
4.697 21.313 3.541 21.313 QT
0.666 21.313 -1.014 19.633 QT
-2.693 17.953 -2.693 15.109 QT
-2.693 12.141 -1.1 10.406 QT
0.494 8.672 3.197 8.672 QT
5.635 8.672 7.041 10.234 QT
8.447 11.797 8.447 14.484 QT
cp
6.479 13.906 M
6.447 12.281 5.564 11.32 QT
4.682 10.359 3.229 10.359 QT
1.572 10.359 0.572 11.289 QT
-0.428 12.219 -0.568 13.922 QT
6.479 13.906 L
cp
13.607 19.188 M
13.607 25.578 L
11.623 25.578 L
11.623 8.969 L
13.607 8.969 L
13.607 10.797 L
14.232 9.719 15.186 9.195 QT
16.139 8.672 17.451 8.672 QT
19.639 8.672 21.014 10.414 QT
22.389 12.156 22.389 15 QT
22.389 17.828 21.014 19.57 QT
19.639 21.313 17.451 21.313 QT
16.139 21.313 15.186 20.789 QT
14.232 20.266 13.607 19.188 QT
cp
20.326 15 M
20.326 12.813 19.436 11.57 QT
18.545 10.328 16.967 10.328 QT
15.404 10.328 14.506 11.57 QT
13.607 12.813 13.607 15 QT
13.607 17.172 14.506 18.414 QT
15.404 19.656 16.967 19.656 QT
18.545 19.656 19.436 18.414 QT
20.326 17.172 20.326 15 QT
cp
f
GR
GS
[1 0 0 1 852 345] CT
0.149 GC
N
2.938 -0.578 M
2.938 -0.734 3.031 -0.859 QT
7.203 -5 L
3.031 -9.156 L
2.938 -9.266 2.938 -9.422 QT
2.938 -9.578 3.055 -9.703 QT
3.172 -9.828 3.344 -9.828 QT
3.484 -9.828 3.641 -9.703 QT
7.781 -5.563 L
11.906 -9.703 L
12.078 -9.828 12.203 -9.828 QT
12.359 -9.828 12.477 -9.711 QT
12.594 -9.594 12.594 -9.422 QT
12.594 -9.266 12.5 -9.156 QT
8.344 -5 L
12.5 -0.859 L
12.594 -0.734 12.594 -0.578 QT
12.594 -0.406 12.477 -0.289 QT
12.359 -0.172 12.203 -0.172 QT
12.047 -0.172 11.906 -0.328 QT
7.781 -4.438 L
3.641 -0.328 L
3.5 -0.172 3.344 -0.172 QT
3.172 -0.172 3.055 -0.305 QT
2.938 -0.438 2.938 -0.578 QT
cp
f
GR
GS
[1 0 0 1 868 345] CT
0.149 GC
N
2.484 -1.656 M
5.703 -1.656 L
5.703 -12.781 L
2.203 -12.078 L
2.203 -13.875 L
5.688 -14.578 L
7.656 -14.578 L
7.656 -1.656 L
10.875 -1.656 L
10.875 0 L
2.484 0 L
2.484 -1.656 L
cp
19.084 -13.281 M
17.553 -13.281 16.787 -11.781 QT
16.021 -10.281 16.021 -7.281 QT
16.021 -4.281 16.787 -2.781 QT
17.553 -1.281 19.084 -1.281 QT
20.615 -1.281 21.381 -2.781 QT
22.146 -4.281 22.146 -7.281 QT
22.146 -10.281 21.381 -11.781 QT
20.615 -13.281 19.084 -13.281 QT
cp
19.084 -14.844 M
21.537 -14.844 22.826 -12.906 QT
24.115 -10.969 24.115 -7.281 QT
24.115 -3.594 22.826 -1.656 QT
21.537 0.281 19.084 0.281 QT
16.631 0.281 15.334 -1.656 QT
14.037 -3.594 14.037 -7.281 QT
14.037 -10.969 15.334 -12.906 QT
16.631 -14.844 19.084 -14.844 QT
cp
f
GR
GS
[1 0 0 1 894 335] CT
0.149 GC
N
5.281 -6.469 M
4.219 -6.469 3.602 -5.742 QT
2.984 -5.016 2.984 -3.75 QT
2.984 -2.484 3.602 -1.758 QT
4.219 -1.031 5.281 -1.031 QT
6.344 -1.031 6.969 -1.758 QT
7.594 -2.484 7.594 -3.75 QT
7.594 -5.016 6.969 -5.742 QT
6.344 -6.469 5.281 -6.469 QT
cp
8.422 -11.406 M
8.422 -9.969 L
7.828 -10.25 7.219 -10.398 QT
6.609 -10.547 6.016 -10.547 QT
4.453 -10.547 3.633 -9.492 QT
2.813 -8.438 2.688 -6.313 QT
3.156 -6.984 3.852 -7.352 QT
4.547 -7.719 5.375 -7.719 QT
7.141 -7.719 8.156 -6.648 QT
9.172 -5.578 9.172 -3.75 QT
9.172 -1.953 8.109 -0.859 QT
7.047 0.234 5.281 0.234 QT
3.266 0.234 2.195 -1.32 QT
1.125 -2.875 1.125 -5.828 QT
1.125 -8.594 2.438 -10.234 QT
3.75 -11.875 5.953 -11.875 QT
6.547 -11.875 7.156 -11.758 QT
7.766 -11.641 8.422 -11.406 QT
cp
f
GR
GS
0.149 GC
2 setlinecap
1 LJ
0.5 LW
N
130 289 M
130 26 L
S
GR
GS
0.149 GC
2 setlinecap
1 LJ
0.5 LW
N
130 289 M
137.75 289 L
S
GR
GS
0.149 GC
2 setlinecap
1 LJ
0.5 LW
N
130 238.905 M
137.75 238.905 L
S
GR
GS
0.149 GC
2 setlinecap
1 LJ
0.5 LW
N
130 188.81 M
137.75 188.81 L
S
GR
GS
0.149 GC
2 setlinecap
1 LJ
0.5 LW
N
130 138.714 M
137.75 138.714 L
S
GR
GS
0.149 GC
2 setlinecap
1 LJ
0.5 LW
N
130 88.619 M
137.75 88.619 L
S
GR
GS
0.149 GC
2 setlinecap
1 LJ
0.5 LW
N
130 38.524 M
137.75 38.524 L
S
GR
GS
[1 0 0 1 124 289] CT
0.149 GC
N
-6.641 -6.281 M
-8.172 -6.281 -8.938 -4.781 QT
-9.703 -3.281 -9.703 -0.281 QT
-9.703 2.719 -8.938 4.219 QT
-8.172 5.719 -6.641 5.719 QT
-5.109 5.719 -4.344 4.219 QT
-3.578 2.719 -3.578 -0.281 QT
-3.578 -3.281 -4.344 -4.781 QT
-5.109 -6.281 -6.641 -6.281 QT
cp
-6.641 -7.844 M
-4.188 -7.844 -2.898 -5.906 QT
-1.609 -3.969 -1.609 -0.281 QT
-1.609 3.406 -2.898 5.344 QT
-4.188 7.281 -6.641 7.281 QT
-9.094 7.281 -10.391 5.344 QT
-11.688 3.406 -11.688 -0.281 QT
-11.688 -3.969 -10.391 -5.906 QT
-9.094 -7.844 -6.641 -7.844 QT
cp
f
GR
GS
[1 0 0 1 124 238.90475] CT
0.149 GC
N
-22.156 5.344 M
-15.281 5.344 L
-15.281 7 L
-24.531 7 L
-24.531 5.344 L
-23.406 4.172 -21.469 2.219 QT
-19.531 0.266 -19.031 -0.313 QT
-18.094 -1.375 -17.719 -2.109 QT
-17.344 -2.844 -17.344 -3.563 QT
-17.344 -4.719 -18.156 -5.453 QT
-18.969 -6.188 -20.281 -6.188 QT
-21.203 -6.188 -22.234 -5.867 QT
-23.266 -5.547 -24.438 -4.891 QT
-24.438 -6.875 L
-23.25 -7.359 -22.211 -7.602 QT
-21.172 -7.844 -20.313 -7.844 QT
-18.047 -7.844 -16.703 -6.711 QT
-15.359 -5.578 -15.359 -3.688 QT
-15.359 -2.781 -15.695 -1.977 QT
-16.031 -1.172 -16.922 -0.078 QT
-17.156 0.203 -18.469 1.555 QT
-19.781 2.906 -22.156 5.344 QT
cp
-6.916 -6.281 M
-8.447 -6.281 -9.213 -4.781 QT
-9.979 -3.281 -9.979 -0.281 QT
-9.979 2.719 -9.213 4.219 QT
-8.447 5.719 -6.916 5.719 QT
-5.385 5.719 -4.619 4.219 QT
-3.854 2.719 -3.854 -0.281 QT
-3.854 -3.281 -4.619 -4.781 QT
-5.385 -6.281 -6.916 -6.281 QT
cp
-6.916 -7.844 M
-4.463 -7.844 -3.174 -5.906 QT
-1.885 -3.969 -1.885 -0.281 QT
-1.885 3.406 -3.174 5.344 QT
-4.463 7.281 -6.916 7.281 QT
-9.369 7.281 -10.666 5.344 QT
-11.963 3.406 -11.963 -0.281 QT
-11.963 -3.969 -10.666 -5.906 QT
-9.369 -7.844 -6.916 -7.844 QT
cp
f
GR
GS
[1 0 0 1 124 188.80952] CT
0.149 GC
N
-18.438 -5.859 M
-23.422 1.922 L
-18.438 1.922 L
-18.438 -5.859 L
cp
-18.953 -7.578 M
-16.484 -7.578 L
-16.484 1.922 L
-14.391 1.922 L
-14.391 3.563 L
-16.484 3.563 L
-16.484 7 L
-18.438 7 L
-18.438 3.563 L
-25.016 3.563 L
-25.016 1.656 L
-18.953 -7.578 L
cp
-6.916 -6.281 M
-8.447 -6.281 -9.213 -4.781 QT
-9.979 -3.281 -9.979 -0.281 QT
-9.979 2.719 -9.213 4.219 QT
-8.447 5.719 -6.916 5.719 QT
-5.385 5.719 -4.619 4.219 QT
-3.854 2.719 -3.854 -0.281 QT
-3.854 -3.281 -4.619 -4.781 QT
-5.385 -6.281 -6.916 -6.281 QT
cp
-6.916 -7.844 M
-4.463 -7.844 -3.174 -5.906 QT
-1.885 -3.969 -1.885 -0.281 QT
-1.885 3.406 -3.174 5.344 QT
-4.463 7.281 -6.916 7.281 QT
-9.369 7.281 -10.666 5.344 QT
-11.963 3.406 -11.963 -0.281 QT
-11.963 -3.969 -10.666 -5.906 QT
-9.369 -7.844 -6.916 -7.844 QT
cp
f
GR
GS
[1 0 0 1 124 138.71428] CT
0.149 GC
N
-19.391 -1.078 M
-20.719 -1.078 -21.5 -0.172 QT
-22.281 0.734 -22.281 2.328 QT
-22.281 3.891 -21.5 4.805 QT
-20.719 5.719 -19.391 5.719 QT
-18.063 5.719 -17.289 4.805 QT
-16.516 3.891 -16.516 2.328 QT
-16.516 0.734 -17.289 -0.172 QT
-18.063 -1.078 -19.391 -1.078 QT
cp
-15.484 -7.266 M
-15.484 -5.469 L
-16.219 -5.813 -16.977 -6 QT
-17.734 -6.188 -18.484 -6.188 QT
-20.438 -6.188 -21.469 -4.867 QT
-22.5 -3.547 -22.641 -0.875 QT
-22.063 -1.734 -21.195 -2.188 QT
-20.328 -2.641 -19.281 -2.641 QT
-17.078 -2.641 -15.805 -1.305 QT
-14.531 0.031 -14.531 2.328 QT
-14.531 4.563 -15.859 5.922 QT
-17.188 7.281 -19.391 7.281 QT
-21.922 7.281 -23.266 5.344 QT
-24.609 3.406 -24.609 -0.281 QT
-24.609 -3.734 -22.969 -5.789 QT
-21.328 -7.844 -18.563 -7.844 QT
-17.813 -7.844 -17.055 -7.695 QT
-16.297 -7.547 -15.484 -7.266 QT
cp
-6.916 -6.281 M
-8.447 -6.281 -9.213 -4.781 QT
-9.979 -3.281 -9.979 -0.281 QT
-9.979 2.719 -9.213 4.219 QT
-8.447 5.719 -6.916 5.719 QT
-5.385 5.719 -4.619 4.219 QT
-3.854 2.719 -3.854 -0.281 QT
-3.854 -3.281 -4.619 -4.781 QT
-5.385 -6.281 -6.916 -6.281 QT
cp
-6.916 -7.844 M
-4.463 -7.844 -3.174 -5.906 QT
-1.885 -3.969 -1.885 -0.281 QT
-1.885 3.406 -3.174 5.344 QT
-4.463 7.281 -6.916 7.281 QT
-9.369 7.281 -10.666 5.344 QT
-11.963 3.406 -11.963 -0.281 QT
-11.963 -3.969 -10.666 -5.906 QT
-9.369 -7.844 -6.916 -7.844 QT
cp
f
GR
GS
[1 0 0 1 124 88.61905] CT
0.149 GC
N
-19.641 0.078 M
-21.047 0.078 -21.852 0.828 QT
-22.656 1.578 -22.656 2.891 QT
-22.656 4.219 -21.852 4.969 QT
-21.047 5.719 -19.641 5.719 QT
-18.234 5.719 -17.422 4.961 QT
-16.609 4.203 -16.609 2.891 QT
-16.609 1.578 -17.414 0.828 QT
-18.219 0.078 -19.641 0.078 QT
cp
-21.609 -0.766 M
-22.891 -1.078 -23.594 -1.945 QT
-24.297 -2.813 -24.297 -4.063 QT
-24.297 -5.813 -23.055 -6.828 QT
-21.813 -7.844 -19.641 -7.844 QT
-17.469 -7.844 -16.227 -6.828 QT
-14.984 -5.813 -14.984 -4.063 QT
-14.984 -2.813 -15.695 -1.945 QT
-16.406 -1.078 -17.656 -0.766 QT
-16.234 -0.438 -15.438 0.531 QT
-14.641 1.5 -14.641 2.891 QT
-14.641 5.016 -15.938 6.148 QT
-17.234 7.281 -19.641 7.281 QT
-22.047 7.281 -23.344 6.148 QT
-24.641 5.016 -24.641 2.891 QT
-24.641 1.5 -23.844 0.531 QT
-23.047 -0.438 -21.609 -0.766 QT
cp
-22.344 -3.875 M
-22.344 -2.75 -21.633 -2.117 QT
-20.922 -1.484 -19.641 -1.484 QT
-18.375 -1.484 -17.656 -2.117 QT
-16.938 -2.75 -16.938 -3.875 QT
-16.938 -5.016 -17.656 -5.648 QT
-18.375 -6.281 -19.641 -6.281 QT
-20.922 -6.281 -21.633 -5.648 QT
-22.344 -5.016 -22.344 -3.875 QT
cp
-6.916 -6.281 M
-8.447 -6.281 -9.213 -4.781 QT
-9.979 -3.281 -9.979 -0.281 QT
-9.979 2.719 -9.213 4.219 QT
-8.447 5.719 -6.916 5.719 QT
-5.385 5.719 -4.619 4.219 QT
-3.854 2.719 -3.854 -0.281 QT
-3.854 -3.281 -4.619 -4.781 QT
-5.385 -6.281 -6.916 -6.281 QT
cp
-6.916 -7.844 M
-4.463 -7.844 -3.174 -5.906 QT
-1.885 -3.969 -1.885 -0.281 QT
-1.885 3.406 -3.174 5.344 QT
-4.463 7.281 -6.916 7.281 QT
-9.369 7.281 -10.666 5.344 QT
-11.963 3.406 -11.963 -0.281 QT
-11.963 -3.969 -10.666 -5.906 QT
-9.369 -7.844 -6.916 -7.844 QT
cp
f
GR
GS
[1 0 0 1 124 38.52381] CT
0.149 GC
N
-36.516 5.344 M
-33.297 5.344 L
-33.297 -5.781 L
-36.797 -5.078 L
-36.797 -6.875 L
-33.313 -7.578 L
-31.344 -7.578 L
-31.344 5.344 L
-28.125 5.344 L
-28.125 7 L
-36.516 7 L
-36.516 5.344 L
cp
-19.916 -6.281 M
-21.447 -6.281 -22.213 -4.781 QT
-22.979 -3.281 -22.979 -0.281 QT
-22.979 2.719 -22.213 4.219 QT
-21.447 5.719 -19.916 5.719 QT
-18.385 5.719 -17.619 4.219 QT
-16.854 2.719 -16.854 -0.281 QT
-16.854 -3.281 -17.619 -4.781 QT
-18.385 -6.281 -19.916 -6.281 QT
cp
-19.916 -7.844 M
-17.463 -7.844 -16.174 -5.906 QT
-14.885 -3.969 -14.885 -0.281 QT
-14.885 3.406 -16.174 5.344 QT
-17.463 7.281 -19.916 7.281 QT
-22.369 7.281 -23.666 5.344 QT
-24.963 3.406 -24.963 -0.281 QT
-24.963 -3.969 -23.666 -5.906 QT
-22.369 -7.844 -19.916 -7.844 QT
cp
-7.191 -6.281 M
-8.723 -6.281 -9.488 -4.781 QT
-10.254 -3.281 -10.254 -0.281 QT
-10.254 2.719 -9.488 4.219 QT
-8.723 5.719 -7.191 5.719 QT
-5.66 5.719 -4.895 4.219 QT
-4.129 2.719 -4.129 -0.281 QT
-4.129 -3.281 -4.895 -4.781 QT
-5.66 -6.281 -7.191 -6.281 QT
cp
-7.191 -7.844 M
-4.738 -7.844 -3.449 -5.906 QT
-2.16 -3.969 -2.16 -0.281 QT
-2.16 3.406 -3.449 5.344 QT
-4.738 7.281 -7.191 7.281 QT
-9.645 7.281 -10.941 5.344 QT
-12.238 3.406 -12.238 -0.281 QT
-12.238 -3.969 -10.941 -5.906 QT
-9.645 -7.844 -7.191 -7.844 QT
cp
f
GR
GS
[0 -1 1 0 82 157.49988] CT
0.149 GC
N
-113.063 -22.031 M
-99.5 -22.031 L
-99.5 -20.219 L
-105.188 -20.219 L
-105.188 -6 L
-107.375 -6 L
-107.375 -20.219 L
-113.063 -20.219 L
-113.063 -22.031 L
cp
-92.015 -12.047 M
-94.421 -12.047 -95.343 -11.5 QT
-96.265 -10.953 -96.265 -9.625 QT
-96.265 -8.578 -95.569 -7.961 QT
-94.874 -7.344 -93.687 -7.344 QT
-92.046 -7.344 -91.054 -8.508 QT
-90.062 -9.672 -90.062 -11.609 QT
-90.062 -12.047 L
-92.015 -12.047 L
cp
-88.077 -12.859 M
-88.077 -6 L
-90.062 -6 L
-90.062 -7.828 L
-90.733 -6.734 -91.741 -6.211 QT
-92.749 -5.688 -94.218 -5.688 QT
-96.062 -5.688 -97.147 -6.727 QT
-98.233 -7.766 -98.233 -9.5 QT
-98.233 -11.531 -96.874 -12.563 QT
-95.515 -13.594 -92.827 -13.594 QT
-90.062 -13.594 L
-90.062 -13.781 L
-90.062 -15.156 -90.952 -15.898 QT
-91.843 -16.641 -93.468 -16.641 QT
-94.499 -16.641 -95.476 -16.398 QT
-96.452 -16.156 -97.358 -15.656 QT
-97.358 -17.484 L
-96.28 -17.906 -95.257 -18.117 QT
-94.233 -18.328 -93.265 -18.328 QT
-90.655 -18.328 -89.366 -16.969 QT
-88.077 -15.609 -88.077 -12.859 QT
cp
-77.033 -16.188 M
-77.361 -16.375 -77.76 -16.469 QT
-78.158 -16.563 -78.627 -16.563 QT
-80.299 -16.563 -81.197 -15.469 QT
-82.096 -14.375 -82.096 -12.344 QT
-82.096 -6 L
-84.08 -6 L
-84.08 -18.031 L
-82.096 -18.031 L
-82.096 -16.156 L
-81.471 -17.266 -80.471 -17.797 QT
-79.471 -18.328 -78.049 -18.328 QT
-77.846 -18.328 -77.596 -18.297 QT
-77.346 -18.266 -77.049 -18.219 QT
-77.033 -16.188 L
cp
-67.051 -12.156 M
-67.051 -14.297 -67.934 -15.484 QT
-68.816 -16.672 -70.41 -16.672 QT
-72.004 -16.672 -72.895 -15.484 QT
-73.785 -14.297 -73.785 -12.156 QT
-73.785 -10.016 -72.895 -8.836 QT
-72.004 -7.656 -70.41 -7.656 QT
-68.816 -7.656 -67.934 -8.836 QT
-67.051 -10.016 -67.051 -12.156 QT
cp
-65.066 -7.5 M
-65.066 -4.422 -66.434 -2.922 QT
-67.801 -1.422 -70.613 -1.422 QT
-71.66 -1.422 -72.582 -1.578 QT
-73.504 -1.734 -74.363 -2.063 QT
-74.363 -3.984 L
-73.504 -3.5 -72.652 -3.281 QT
-71.801 -3.063 -70.926 -3.063 QT
-68.973 -3.063 -68.012 -4.078 QT
-67.051 -5.094 -67.051 -7.141 QT
-67.051 -8.109 L
-67.66 -7.047 -68.613 -6.523 QT
-69.566 -6 -70.895 -6 QT
-73.113 -6 -74.465 -7.688 QT
-75.816 -9.375 -75.816 -12.156 QT
-75.816 -14.953 -74.465 -16.641 QT
-73.113 -18.328 -70.895 -18.328 QT
-69.566 -18.328 -68.613 -17.797 QT
-67.66 -17.266 -67.051 -16.203 QT
-67.051 -18.031 L
-65.066 -18.031 L
-65.066 -7.5 L
cp
-50.711 -12.516 M
-50.711 -11.547 L
-59.789 -11.547 L
-59.664 -9.5 -58.563 -8.43 QT
-57.461 -7.359 -55.492 -7.359 QT
-54.352 -7.359 -53.289 -7.641 QT
-52.227 -7.922 -51.164 -8.484 QT
-51.164 -6.609 L
-52.227 -6.156 -53.344 -5.922 QT
-54.461 -5.688 -55.617 -5.688 QT
-58.492 -5.688 -60.172 -7.367 QT
-61.852 -9.047 -61.852 -11.891 QT
-61.852 -14.859 -60.258 -16.594 QT
-58.664 -18.328 -55.961 -18.328 QT
-53.523 -18.328 -52.117 -16.766 QT
-50.711 -15.203 -50.711 -12.516 QT
cp
-52.68 -13.094 M
-52.711 -14.719 -53.594 -15.68 QT
-54.477 -16.641 -55.93 -16.641 QT
-57.586 -16.641 -58.586 -15.711 QT
-59.586 -14.781 -59.727 -13.078 QT
-52.68 -13.094 L
cp
-45.504 -21.453 M
-45.504 -18.031 L
-41.441 -18.031 L
-41.441 -16.5 L
-45.504 -16.5 L
-45.504 -9.969 L
-45.504 -8.5 -45.105 -8.078 QT
-44.707 -7.656 -43.473 -7.656 QT
-41.441 -7.656 L
-41.441 -6 L
-43.473 -6 L
-45.754 -6 -46.621 -6.852 QT
-47.488 -7.703 -47.488 -9.969 QT
-47.488 -16.5 L
-48.941 -16.5 L
-48.941 -18.031 L
-47.488 -18.031 L
-47.488 -21.453 L
-45.504 -21.453 L
cp
-31.159 -17.672 M
-31.159 -15.813 L
-32.003 -16.234 -32.909 -16.453 QT
-33.815 -16.672 -34.769 -16.672 QT
-36.253 -16.672 -36.987 -16.219 QT
-37.722 -15.766 -37.722 -14.859 QT
-37.722 -14.172 -37.19 -13.781 QT
-36.659 -13.391 -35.081 -13.031 QT
-34.394 -12.891 L
-32.3 -12.438 -31.409 -11.617 QT
-30.519 -10.797 -30.519 -9.313 QT
-30.519 -7.641 -31.847 -6.664 QT
-33.175 -5.688 -35.487 -5.688 QT
-36.456 -5.688 -37.503 -5.875 QT
-38.55 -6.063 -39.722 -6.438 QT
-39.722 -8.484 L
-38.628 -7.906 -37.558 -7.625 QT
-36.487 -7.344 -35.456 -7.344 QT
-34.05 -7.344 -33.3 -7.82 QT
-32.55 -8.297 -32.55 -9.172 QT
-32.55 -9.969 -33.097 -10.398 QT
-33.644 -10.828 -35.472 -11.234 QT
-36.159 -11.391 L
-38.003 -11.781 -38.815 -12.578 QT
-39.628 -13.375 -39.628 -14.781 QT
-39.628 -16.469 -38.425 -17.398 QT
-37.222 -18.328 -35.019 -18.328 QT
-33.909 -18.328 -32.948 -18.164 QT
-31.987 -18 -31.159 -17.672 QT
cp
-13.407 -16.188 M
-13.735 -16.375 -14.134 -16.469 QT
-14.532 -16.563 -15.001 -16.563 QT
-16.673 -16.563 -17.571 -15.469 QT
-18.47 -14.375 -18.47 -12.344 QT
-18.47 -6 L
-20.454 -6 L
-20.454 -18.031 L
-18.47 -18.031 L
-18.47 -16.156 L
-17.845 -17.266 -16.845 -17.797 QT
-15.845 -18.328 -14.423 -18.328 QT
-14.22 -18.328 -13.97 -18.297 QT
-13.72 -18.266 -13.423 -18.219 QT
-13.407 -16.188 L
cp
-1.05 -12.516 M
-1.05 -11.547 L
-10.128 -11.547 L
-10.003 -9.5 -8.901 -8.43 QT
-7.8 -7.359 -5.831 -7.359 QT
-4.69 -7.359 -3.628 -7.641 QT
-2.565 -7.922 -1.503 -8.484 QT
-1.503 -6.609 L
-2.565 -6.156 -3.683 -5.922 QT
-4.8 -5.688 -5.956 -5.688 QT
-8.831 -5.688 -10.511 -7.367 QT
-12.19 -9.047 -12.19 -11.891 QT
-12.19 -14.859 -10.597 -16.594 QT
-9.003 -18.328 -6.3 -18.328 QT
-3.862 -18.328 -2.456 -16.766 QT
-1.05 -15.203 -1.05 -12.516 QT
cp
-3.019 -13.094 M
-3.05 -14.719 -3.933 -15.68 QT
-4.815 -16.641 -6.269 -16.641 QT
-7.925 -16.641 -8.925 -15.711 QT
-9.925 -14.781 -10.065 -13.078 QT
-3.019 -13.094 L
cp
7.673 -12.047 M
5.267 -12.047 4.345 -11.5 QT
3.423 -10.953 3.423 -9.625 QT
3.423 -8.578 4.118 -7.961 QT
4.813 -7.344 6.001 -7.344 QT
7.642 -7.344 8.634 -8.508 QT
9.626 -9.672 9.626 -11.609 QT
9.626 -12.047 L
7.673 -12.047 L
cp
11.61 -12.859 M
11.61 -6 L
9.626 -6 L
9.626 -7.828 L
8.954 -6.734 7.946 -6.211 QT
6.938 -5.688 5.47 -5.688 QT
3.626 -5.688 2.54 -6.727 QT
1.454 -7.766 1.454 -9.5 QT
1.454 -11.531 2.813 -12.563 QT
4.173 -13.594 6.86 -13.594 QT
9.626 -13.594 L
9.626 -13.781 L
9.626 -15.156 8.735 -15.898 QT
7.845 -16.641 6.22 -16.641 QT
5.188 -16.641 4.212 -16.398 QT
3.235 -16.156 2.329 -15.656 QT
2.329 -17.484 L
3.407 -17.906 4.431 -18.117 QT
5.454 -18.328 6.423 -18.328 QT
9.032 -18.328 10.321 -16.969 QT
11.61 -15.609 11.61 -12.859 QT
cp
24.342 -17.563 M
24.342 -15.719 L
23.498 -16.188 22.654 -16.414 QT
21.811 -16.641 20.951 -16.641 QT
19.029 -16.641 17.967 -15.422 QT
16.904 -14.203 16.904 -12 QT
16.904 -9.797 17.967 -8.578 QT
19.029 -7.359 20.951 -7.359 QT
21.811 -7.359 22.654 -7.594 QT
23.498 -7.828 24.342 -8.281 QT
24.342 -6.469 L
23.514 -6.078 22.623 -5.883 QT
21.732 -5.688 20.748 -5.688 QT
18.029 -5.688 16.428 -7.398 QT
14.826 -9.109 14.826 -12 QT
14.826 -14.953 16.443 -16.641 QT
18.061 -18.328 20.873 -18.328 QT
21.779 -18.328 22.654 -18.141 QT
23.529 -17.953 24.342 -17.563 QT
cp
37.781 -13.266 M
37.781 -6 L
35.797 -6 L
35.797 -13.203 L
35.797 -14.906 35.133 -15.758 QT
34.469 -16.609 33.141 -16.609 QT
31.531 -16.609 30.609 -15.586 QT
29.688 -14.563 29.688 -12.797 QT
29.688 -6 L
27.703 -6 L
27.703 -22.719 L
29.688 -22.719 L
29.688 -16.156 L
30.391 -17.25 31.359 -17.789 QT
32.328 -18.328 33.578 -18.328 QT
35.656 -18.328 36.719 -17.039 QT
37.781 -15.75 37.781 -13.266 QT
cp
52.006 -12.516 M
52.006 -11.547 L
42.928 -11.547 L
43.053 -9.5 44.154 -8.43 QT
45.256 -7.359 47.225 -7.359 QT
48.365 -7.359 49.428 -7.641 QT
50.49 -7.922 51.553 -8.484 QT
51.553 -6.609 L
50.49 -6.156 49.373 -5.922 QT
48.256 -5.688 47.1 -5.688 QT
44.225 -5.688 42.545 -7.367 QT
40.865 -9.047 40.865 -11.891 QT
40.865 -14.859 42.459 -16.594 QT
44.053 -18.328 46.756 -18.328 QT
49.193 -18.328 50.6 -16.766 QT
52.006 -15.203 52.006 -12.516 QT
cp
50.037 -13.094 M
50.006 -14.719 49.123 -15.68 QT
48.24 -16.641 46.787 -16.641 QT
45.131 -16.641 44.131 -15.711 QT
43.131 -14.781 42.99 -13.078 QT
50.037 -13.094 L
cp
63.166 -16.203 M
63.166 -22.719 L
65.15 -22.719 L
65.15 -6 L
63.166 -6 L
63.166 -7.813 L
62.557 -6.734 61.604 -6.211 QT
60.65 -5.688 59.322 -5.688 QT
57.135 -5.688 55.768 -7.43 QT
54.4 -9.172 54.4 -12 QT
54.4 -14.844 55.768 -16.586 QT
57.135 -18.328 59.322 -18.328 QT
60.65 -18.328 61.604 -17.805 QT
62.557 -17.281 63.166 -16.203 QT
cp
56.432 -12 M
56.432 -9.828 57.33 -8.586 QT
58.229 -7.344 59.807 -7.344 QT
61.369 -7.344 62.268 -8.586 QT
63.166 -9.828 63.166 -12 QT
63.166 -14.188 62.268 -15.43 QT
61.369 -16.672 59.807 -16.672 QT
58.229 -16.672 57.33 -15.43 QT
56.432 -14.188 56.432 -12 QT
cp
76.03 -22.719 M
80.593 -22.719 L
80.593 -21.172 L
78.015 -21.172 L
78.015 -4.641 L
80.593 -4.641 L
80.593 -3.094 L
76.03 -3.094 L
76.03 -22.719 L
cp
98.723 -13.063 M
97.785 -13.063 97.254 -12.266 QT
96.723 -11.469 96.723 -10.047 QT
96.723 -8.656 97.254 -7.852 QT
97.785 -7.047 98.723 -7.047 QT
99.629 -7.047 100.16 -7.852 QT
100.691 -8.656 100.691 -10.047 QT
100.691 -11.453 100.16 -12.258 QT
99.629 -13.063 98.723 -13.063 QT
cp
98.723 -14.422 M
100.41 -14.422 101.41 -13.242 QT
102.41 -12.063 102.41 -10.047 QT
102.41 -8.047 101.41 -6.867 QT
100.41 -5.688 98.723 -5.688 QT
97.004 -5.688 96.004 -6.867 QT
95.004 -8.047 95.004 -10.047 QT
95.004 -12.063 96.004 -13.242 QT
97.004 -14.422 98.723 -14.422 QT
cp
87.629 -20.969 M
86.707 -20.969 86.176 -20.164 QT
85.645 -19.359 85.645 -17.969 QT
85.645 -16.547 86.168 -15.75 QT
86.691 -14.953 87.629 -14.953 QT
88.566 -14.953 89.098 -15.75 QT
89.629 -16.547 89.629 -17.969 QT
89.629 -19.359 89.09 -20.164 QT
88.551 -20.969 87.629 -20.969 QT
cp
97.332 -22.328 M
99.051 -22.328 L
89.02 -5.688 L
87.301 -5.688 L
97.332 -22.328 L
cp
87.629 -22.328 M
89.332 -22.328 90.34 -21.148 QT
91.348 -19.969 91.348 -17.969 QT
91.348 -15.938 90.348 -14.766 QT
89.348 -13.594 87.629 -13.594 QT
85.926 -13.594 84.934 -14.773 QT
83.941 -15.953 83.941 -17.969 QT
83.941 -19.969 84.941 -21.148 QT
85.941 -22.328 87.629 -22.328 QT
cp
110.314 -22.719 M
110.314 -3.094 L
105.768 -3.094 L
105.768 -4.641 L
108.33 -4.641 L
108.33 -21.172 L
105.768 -21.172 L
105.768 -22.719 L
110.314 -22.719 L
cp
f
GR
GS
0 0.447 0.741 RC
1 LJ
0.5 LW
N
169.525 142.889 M
169.913 113.667 L
170.3 195.071 L
170.688 88.619 L
171.075 51.707 L
171.462 88.619 L
171.85 88.619 L
172.238 122.016 L
172.625 71.921 L
173.012 129.606 L
173.4 142.889 L
173.788 129.606 L
174.175 77.059 L
174.563 163.762 L
174.95 163.762 L
175.337 127.98 L
175.725 149.847 L
176.113 145.871 L
176.5 163.762 L
176.887 175.147 L
177.275 138.714 L
177.663 134.861 L
178.05 64.89 L
178.438 138.714 L
178.825 257.69 L
179.212 105.317 L
179.6 163.762 L
179.988 145.871 L
180.375 149.847 L
180.762 127.98 L
181.15 175.147 L
181.538 92.197 L
181.925 142.889 L
182.313 88.619 L
182.7 226.381 L
183.087 82.725 L
183.475 138.714 L
183.863 163.762 L
184.25 149.847 L
184.637 129.606 L
185.025 233.339 L
185.413 112.193 L
185.8 129.606 L
186.188 110.088 L
186.575 122.016 L
186.962 163.762 L
187.35 91.256 L
187.738 85.488 L
188.125 163.762 L
188.512 163.762 L
188.9 61.294 L
189.288 188.81 L
189.675 138.714 L
190.063 188.81 L
190.45 163.762 L
190.837 134.861 L
191.225 122.016 L
191.613 115.593 L
192 106.836 L
192.387 105.317 L
192.775 82.725 L
193.163 101.143 L
193.55 72.68 L
193.938 92.197 L
194.325 152.377 L
194.712 74.306 L
195.1 115.593 L
195.488 205.508 L
195.875 127.98 L
196.262 152.377 L
196.65 145.871 L
197.038 175.147 L
197.425 78.073 L
197.813 94.185 L
198.2 154.128 L
198.587 78.073 L
198.975 122.016 L
199.363 177.677 L
199.75 67.992 L
200.137 101.143 L
200.525 112.193 L
200.913 122.016 L
201.3 74.306 L
201.688 84.065 L
202.075 88.619 L
202.462 115.593 L
202.85 57.078 L
203.238 88.619 L
203.625 97.459 L
204.012 132.452 L
204.4 48.96 L
204.788 76.095 L
205.175 54.179 L
205.563 74.306 L
205.95 88.619 L
206.337 54.684 L
206.725 82.725 L
207.113 116.798 L
207.5 49.414 L
207.887 58.562 L
208.275 82.725 L
208.663 82.725 L
209.05 69.833 L
209.438 64.435 L
209.825 54.684 L
210.212 77.059 L
210.6 48.158 L
210.988 88.619 L
211.375 92.197 L
211.762 80.27 L
212.15 47.801 L
212.538 64.89 L
212.925 97.459 L
213.313 55.222 L
213.7 62.379 L
214.087 38.524 L
214.475 104.439 L
214.863 78.073 L
215.25 97.459 L
215.637 108.101 L
216.025 69.833 L
216.413 58.562 L
216.8 71.921 L
217.188 60.304 L
217.575 80.27 L
217.962 74.306 L
218.35 58.562 L
218.738 57.791 L
219.125 74.306 L
219.512 94.185 L
219.9 61.294 L
220.288 76.095 L
220.675 134.861 L
221.063 101.143 L
221.45 38.524 L
221.837 38.524 L
222.225 97.459 L
222.613 122.016 L
223 44.786 L
223.387 62.379 L
223.775 46.351 L
224.163 50.451 L
224.55 108.101 L
224.938 78.6 L
225.325 62.379 L
225.712 106.836 L
226.1 60.304 L
226.488 88.619 L
226.875 38.524 L
227.262 38.524 L
227.65 55.798 L
228.038 57.791 L
228.425 52.439 L
228.813 59.397 L
229.2 54.179 L
229.587 68.581 L
229.975 47.469 L
230.363 52.837 L
230.75 46.114 L
231.137 54.179 L
231.525 38.524 L
231.913 66.355 L
232.3 116.798 L
232.688 61.294 L
233.075 76.095 L
233.462 44.946 L
233.85 74.306 L
234.238 95.45 L
234.625 50.174 L
235.012 91.256 L
235.4 60.625 L
235.788 46.604 L
236.175 48.96 L
236.563 85.488 L
236.95 52.439 L
237.337 83.252 L
237.725 66.355 L
238.113 64.89 L
238.5 101.143 L
238.887 77.059 L
239.275 68.885 L
239.663 86.234 L
240.05 54.684 L
240.438 53.704 L
240.825 60.625 L
241.212 122.016 L
241.6 80.27 L
241.988 76.095 L
242.375 68.885 L
242.762 101.143 L
243.15 48.543 L
243.538 84.065 L
243.925 57.31 L
244.313 44.786 L
244.7 53.258 L
245.087 49.656 L
245.475 44.349 L
245.863 62.006 L
246.25 43.533 L
246.637 51.048 L
247.025 48.346 L
247.413 51.048 L
247.8 73.072 L
248.188 44.488 L
248.575 48.158 L
248.962 57.31 L
249.35 47.632 L
249.738 91.256 L
250.125 67.425 L
250.512 59.993 L
250.9 43.435 L
251.288 49.182 L
251.675 45.68 L
252.063 43.742 L
252.45 45.293 L
252.837 54.684 L
253.225 58.833 L
253.613 54.179 L
254 46.351 L
254.387 51.707 L
254.775 45.115 L
255.163 64.214 L
255.55 47.632 L
255.938 62.006 L
256.325 64.435 L
256.712 44.349 L
257.1 42.769 L
257.487 60.304 L
257.875 62.763 L
258.263 38.524 L
258.65 38.524 L
259.038 42.698 L
259.425 38.524 L
259.813 46.475 L
260.2 42.997 L
260.587 38.524 L
260.975 38.524 L
261.362 42.377 L
261.75 47.976 L
262.138 48.543 L
262.525 38.524 L
262.913 38.524 L
263.3 38.524 L
263.688 42.102 L
264.075 52.439 L
264.462 38.524 L
264.85 56.851 L
265.237 38.524 L
265.625 56.415 L
266.013 55.798 L
266.4 42.262 L
266.788 38.524 L
267.175 38.524 L
267.563 38.524 L
267.95 38.524 L
268.337 38.524 L
268.725 38.524 L
269.112 38.524 L
269.5 38.524 L
269.888 38.524 L
270.275 38.524 L
270.663 42.438 L
271.05 55.222 L
271.438 44.488 L
271.825 38.524 L
272.212 51.048 L
272.6 41.655 L
272.987 38.524 L
273.375 50.265 L
273.763 41.403 L
274.15 38.524 L
274.538 38.524 L
274.925 38.524 L
275.313 38.524 L
275.7 38.524 L
276.087 38.524 L
276.475 38.524 L
276.862 38.524 L
277.25 38.524 L
277.638 38.524 L
278.025 38.524 L
278.413 38.524 L
278.8 38.524 L
279.188 38.524 L
279.575 38.524 L
279.962 38.524 L
280.35 38.524 L
280.737 38.524 L
281.125 38.524 L
281.513 38.524 L
281.9 38.524 L
282.288 38.524 L
282.675 38.524 L
283.063 43.91 L
283.45 47.577 L
283.837 38.524 L
284.225 38.524 L
284.612 38.524 L
285 38.524 L
285.388 38.524 L
285.775 38.524 L
286.163 38.524 L
286.55 38.524 L
286.938 38.524 L
287.325 38.524 L
287.712 38.524 L
288.1 38.524 L
288.487 38.524 L
288.875 38.524 L
289.263 38.524 L
289.65 38.524 L
290.038 38.524 L
290.425 38.524 L
290.813 38.524 L
291.2 38.524 L
291.587 38.524 L
291.975 38.524 L
292.362 38.524 L
292.75 38.524 L
293.138 38.524 L
293.525 38.524 L
293.913 38.524 L
294.3 38.524 L
294.688 38.524 L
295.075 38.524 L
295.462 38.524 L
295.85 38.524 L
296.237 38.524 L
296.625 38.524 L
297.013 38.524 L
297.4 38.524 L
297.788 38.524 L
298.175 38.524 L
298.563 38.524 L
298.95 38.524 L
299.337 38.524 L
299.725 38.524 L
300.112 38.524 L
300.5 38.524 L
300.888 38.524 L
301.275 38.524 L
301.663 38.524 L
302.05 38.524 L
302.438 38.524 L
302.825 38.524 L
303.212 38.524 L
303.6 38.524 L
303.987 38.524 L
304.375 38.524 L
304.763 38.524 L
305.15 38.524 L
305.538 38.524 L
305.925 38.524 L
306.313 38.524 L
306.7 38.524 L
307.087 38.524 L
307.475 38.524 L
307.862 38.524 L
308.25 38.524 L
308.638 38.524 L
309.025 38.524 L
309.413 38.524 L
309.8 38.524 L
310.188 38.524 L
310.575 38.524 L
310.962 38.524 L
311.35 38.524 L
311.737 38.524 L
312.125 38.524 L
312.513 38.524 L
312.9 38.524 L
313.288 38.524 L
313.675 38.524 L
314.063 38.524 L
314.45 38.524 L
314.837 38.524 L
315.225 38.524 L
315.612 38.524 L
316 38.524 L
316.388 38.524 L
316.775 38.524 L
317.163 38.524 L
317.55 38.524 L
317.938 38.524 L
318.325 38.524 L
318.712 38.524 L
319.1 38.524 L
319.487 38.524 L
319.875 38.524 L
320.263 38.524 L
320.65 38.524 L
321.038 38.524 L
321.425 38.524 L
321.813 38.524 L
322.2 38.524 L
322.587 38.524 L
322.975 38.524 L
323.362 38.524 L
323.75 38.524 L
324.138 38.524 L
324.525 38.524 L
324.913 38.524 L
325.3 38.524 L
325.688 38.524 L
326.075 38.524 L
326.462 38.524 L
326.85 38.524 L
327.237 38.524 L
327.625 38.524 L
328.013 38.524 L
328.4 38.524 L
328.788 38.524 L
329.175 38.524 L
329.563 38.524 L
329.95 38.524 L
330.337 38.524 L
330.725 38.524 L
331.112 38.524 L
331.5 38.524 L
331.888 38.524 L
332.275 38.524 L
332.663 38.524 L
333.05 38.524 L
333.438 38.524 L
333.825 38.524 L
334.212 38.524 L
334.6 38.524 L
334.987 38.524 L
335.375 38.524 L
335.763 38.524 L
336.15 38.524 L
336.538 38.524 L
336.925 38.524 L
337.313 38.524 L
337.7 38.524 L
338.087 38.524 L
338.475 38.524 L
338.862 38.524 L
339.25 38.524 L
339.638 38.524 L
340.025 38.524 L
340.413 38.524 L
340.8 38.524 L
341.188 38.524 L
341.575 38.524 L
341.962 38.524 L
342.35 38.524 L
342.737 38.524 L
343.125 38.524 L
343.513 38.524 L
343.9 38.524 L
344.288 38.524 L
344.675 38.524 L
345.063 38.524 L
345.45 38.524 L
345.837 38.524 L
346.225 38.524 L
346.612 38.524 L
347 38.524 L
347.388 38.524 L
347.775 38.524 L
348.163 38.524 L
348.55 38.524 L
348.938 38.524 L
349.325 38.524 L
349.712 38.524 L
350.1 38.524 L
350.487 38.524 L
350.875 38.524 L
351.263 38.524 L
351.65 38.524 L
352.038 38.524 L
352.425 38.524 L
352.813 38.524 L
353.2 38.524 L
353.587 38.524 L
353.975 38.524 L
354.362 38.524 L
354.75 38.524 L
355.138 38.524 L
355.525 38.524 L
355.913 38.524 L
356.3 38.524 L
356.688 38.524 L
357.075 38.524 L
357.462 38.524 L
357.85 38.524 L
358.237 38.524 L
358.625 38.524 L
359.013 38.524 L
359.4 38.524 L
359.788 38.524 L
360.175 38.524 L
360.563 38.524 L
360.95 38.524 L
361.337 38.524 L
361.725 38.524 L
362.112 38.524 L
362.5 38.524 L
362.888 38.524 L
363.275 38.524 L
363.663 38.524 L
364.05 38.524 L
364.438 38.524 L
364.825 38.524 L
365.212 38.524 L
365.6 38.524 L
365.987 38.524 L
366.375 38.524 L
366.763 38.524 L
367.15 38.524 L
367.538 38.524 L
367.925 38.524 L
368.313 38.524 L
368.7 38.524 L
369.087 38.524 L
369.475 38.524 L
369.862 38.524 L
370.25 38.524 L
370.638 38.524 L
371.025 38.524 L
371.413 38.524 L
371.8 38.524 L
372.188 38.524 L
372.575 38.524 L
372.962 38.524 L
373.35 38.524 L
373.737 38.524 L
374.125 38.524 L
374.513 38.524 L
374.9 38.524 L
375.288 38.524 L
375.675 38.524 L
376.063 38.524 L
376.45 38.524 L
376.837 38.524 L
377.225 38.524 L
377.612 38.524 L
378 38.524 L
378.388 38.524 L
378.775 38.524 L
379.163 38.524 L
379.55 38.524 L
379.938 38.524 L
380.325 38.524 L
380.712 38.524 L
381.1 38.524 L
381.487 38.524 L
381.875 38.524 L
382.263 38.524 L
382.65 38.524 L
383.038 38.524 L
383.425 38.524 L
383.813 38.524 L
384.2 38.524 L
384.587 38.524 L
384.975 38.524 L
385.362 38.524 L
385.75 38.524 L
386.138 38.524 L
386.525 38.524 L
386.913 38.524 L
387.3 38.524 L
387.688 38.524 L
388.075 38.524 L
388.462 38.524 L
388.85 38.524 L
389.237 38.524 L
389.625 38.524 L
390.013 38.524 L
390.4 38.524 L
390.788 38.524 L
391.175 38.524 L
391.563 38.524 L
391.95 38.524 L
392.337 38.524 L
392.725 38.524 L
393.112 38.524 L
393.5 38.524 L
393.888 38.524 L
394.275 38.524 L
394.663 38.524 L
395.05 38.524 L
395.438 38.524 L
395.825 38.524 L
396.212 38.524 L
396.6 38.524 L
396.987 38.524 L
397.375 38.524 L
397.763 38.524 L
398.15 38.524 L
398.538 38.524 L
398.925 38.524 L
399.313 38.524 L
399.7 38.524 L
400.087 38.524 L
400.475 38.524 L
400.862 38.524 L
401.25 38.524 L
401.638 38.524 L
402.025 38.524 L
402.413 38.524 L
402.8 38.524 L
403.188 38.524 L
403.575 38.524 L
403.962 38.524 L
404.35 38.524 L
404.737 38.524 L
405.125 38.524 L
405.513 38.524 L
405.9 38.524 L
406.288 38.524 L
406.675 38.524 L
407.063 38.524 L
407.45 38.524 L
407.837 38.524 L
408.225 38.524 L
408.612 38.524 L
409 38.524 L
409.388 38.524 L
409.775 38.524 L
410.163 38.524 L
410.55 38.524 L
410.938 38.524 L
411.325 38.524 L
411.712 38.524 L
412.1 38.524 L
412.487 38.524 L
412.875 38.524 L
413.263 38.524 L
413.65 38.524 L
414.038 38.524 L
414.425 38.524 L
414.813 38.524 L
415.2 38.524 L
415.587 38.524 L
415.975 38.524 L
416.362 38.524 L
416.75 38.524 L
417.138 38.524 L
417.525 38.524 L
417.913 38.524 L
418.3 38.524 L
418.688 38.524 L
419.075 38.524 L
419.462 38.524 L
419.85 38.524 L
420.237 38.524 L
420.625 38.524 L
421.013 38.524 L
421.4 38.524 L
421.788 38.524 L
422.175 38.524 L
422.563 38.524 L
422.95 38.524 L
423.337 38.524 L
423.725 38.524 L
424.112 38.524 L
424.5 38.524 L
424.888 38.524 L
425.275 38.524 L
425.663 38.524 L
426.05 38.524 L
426.438 38.524 L
426.825 38.524 L
427.212 38.524 L
427.6 38.524 L
427.987 38.524 L
428.375 38.524 L
428.763 38.524 L
429.15 38.524 L
429.538 38.524 L
429.925 38.524 L
430.313 38.524 L
430.7 38.524 L
431.087 38.524 L
431.475 38.524 L
431.862 38.524 L
432.25 38.524 L
432.638 38.524 L
433.025 38.524 L
433.413 38.524 L
433.8 38.524 L
434.188 38.524 L
434.575 38.524 L
434.962 38.524 L
435.35 38.524 L
435.737 38.524 L
436.125 38.524 L
436.513 38.524 L
436.9 38.524 L
437.288 38.524 L
437.675 38.524 L
438.063 38.524 L
438.45 38.524 L
438.837 38.524 L
439.225 38.524 L
439.612 38.524 L
440 38.524 L
440.388 38.524 L
440.775 38.524 L
441.163 38.524 L
441.55 38.524 L
441.938 38.524 L
442.325 38.524 L
442.712 38.524 L
443.1 38.524 L
443.487 38.524 L
443.875 38.524 L
444.263 38.524 L
444.65 38.524 L
445.038 38.524 L
445.425 38.524 L
445.813 38.524 L
446.2 38.524 L
446.587 38.524 L
446.975 38.524 L
447.362 38.524 L
447.75 38.524 L
448.138 38.524 L
448.525 38.524 L
448.913 38.524 L
449.3 38.524 L
449.688 38.524 L
450.075 38.524 L
450.462 38.524 L
450.85 38.524 L
451.237 38.524 L
451.625 38.524 L
452.013 38.524 L
452.4 38.524 L
452.788 38.524 L
453.175 38.524 L
453.563 38.524 L
453.95 38.524 L
454.337 38.524 L
454.725 38.524 L
455.112 38.524 L
455.5 38.524 L
455.888 38.524 L
456.275 38.524 L
456.663 38.524 L
457.05 38.524 L
457.438 38.524 L
457.825 38.524 L
458.212 38.524 L
458.6 38.524 L
458.987 38.524 L
459.375 38.524 L
459.763 38.524 L
460.15 38.524 L
460.538 38.524 L
460.925 38.524 L
461.313 38.524 L
461.7 38.524 L
462.087 38.524 L
462.475 38.524 L
462.862 38.524 L
463.25 38.524 L
463.638 38.524 L
464.025 38.524 L
464.413 38.524 L
464.8 38.524 L
465.188 38.524 L
465.575 38.524 L
465.962 38.524 L
466.35 38.524 L
466.737 38.524 L
467.125 38.524 L
467.513 38.524 L
467.9 38.524 L
468.288 38.524 L
468.675 38.524 L
469.063 38.524 L
469.45 38.524 L
469.837 38.524 L
470.225 38.524 L
470.612 38.524 L
471 38.524 L
471.388 38.524 L
471.775 38.524 L
472.163 38.524 L
472.55 38.524 L
472.938 38.524 L
473.325 38.524 L
473.712 38.524 L
474.1 38.524 L
474.487 38.524 L
474.875 38.524 L
475.263 38.524 L
475.65 38.524 L
476.038 38.524 L
476.425 38.524 L
476.813 38.524 L
477.2 38.524 L
477.587 38.524 L
477.975 38.524 L
478.362 38.524 L
478.75 38.524 L
479.138 38.524 L
479.525 38.524 L
479.913 38.524 L
480.3 38.524 L
480.688 38.524 L
481.075 38.524 L
481.462 38.524 L
481.85 38.524 L
482.237 38.524 L
482.625 38.524 L
483.013 38.524 L
483.4 38.524 L
483.788 38.524 L
484.175 38.524 L
484.563 38.524 L
484.95 38.524 L
485.337 38.524 L
485.725 38.524 L
486.112 38.524 L
486.5 38.524 L
486.888 38.524 L
487.275 38.524 L
487.663 38.524 L
488.05 38.524 L
488.438 38.524 L
488.825 38.524 L
489.212 38.524 L
489.6 38.524 L
489.987 38.524 L
490.375 38.524 L
490.763 38.524 L
491.15 38.524 L
491.538 38.524 L
491.925 38.524 L
492.313 38.524 L
492.7 38.524 L
493.087 38.524 L
493.475 38.524 L
493.862 38.524 L
494.25 38.524 L
494.638 38.524 L
495.025 38.524 L
495.413 38.524 L
495.8 38.524 L
496.188 38.524 L
496.575 38.524 L
496.962 38.524 L
497.35 38.524 L
497.737 38.524 L
498.125 38.524 L
498.513 38.524 L
498.9 38.524 L
499.288 38.524 L
499.675 38.524 L
500.063 38.524 L
500.45 38.524 L
500.837 38.524 L
501.225 38.524 L
501.612 38.524 L
502 38.524 L
502.388 38.524 L
502.775 38.524 L
503.163 38.524 L
503.55 38.524 L
503.938 38.524 L
504.325 38.524 L
504.712 38.524 L
505.1 38.524 L
505.487 38.524 L
505.875 38.524 L
506.263 38.524 L
506.65 38.524 L
507.038 38.524 L
507.425 38.524 L
507.813 38.524 L
508.2 38.524 L
508.587 38.524 L
508.975 38.524 L
509.362 38.524 L
509.75 38.524 L
510.138 38.524 L
510.525 38.524 L
510.913 38.524 L
511.3 38.524 L
511.688 38.524 L
512.075 38.524 L
512.463 38.524 L
512.85 38.524 L
513.237 38.524 L
513.625 38.524 L
514.013 38.524 L
514.4 38.524 L
514.787 38.524 L
515.175 38.524 L
515.563 38.524 L
515.95 38.524 L
516.338 38.524 L
516.725 38.524 L
517.112 38.524 L
517.5 38.524 L
517.888 38.524 L
518.275 38.524 L
518.662 38.524 L
519.05 38.524 L
519.438 38.524 L
519.825 38.524 L
520.213 38.524 L
520.6 38.524 L
520.987 38.524 L
521.375 38.524 L
521.763 38.524 L
522.15 38.524 L
522.537 38.524 L
522.925 38.524 L
523.313 38.524 L
523.7 38.524 L
524.088 38.524 L
524.475 38.524 L
524.862 38.524 L
525.25 38.524 L
525.638 38.524 L
526.025 38.524 L
526.412 38.524 L
526.8 38.524 L
527.188 38.524 L
527.575 38.524 L
527.963 38.524 L
528.35 38.524 L
528.737 38.524 L
529.125 38.524 L
529.513 38.524 L
529.9 38.524 L
530.287 38.524 L
530.675 38.524 L
531.063 38.524 L
531.45 38.524 L
531.838 38.524 L
532.225 38.524 L
532.612 38.524 L
533 38.524 L
533.388 38.524 L
533.775 38.524 L
534.162 38.524 L
534.55 38.524 L
534.938 38.524 L
535.325 38.524 L
535.713 38.524 L
536.1 38.524 L
536.487 38.524 L
536.875 38.524 L
537.263 38.524 L
537.65 38.524 L
538.037 38.524 L
538.425 38.524 L
538.813 38.524 L
539.2 38.524 L
539.588 38.524 L
539.975 38.524 L
540.362 38.524 L
540.75 38.524 L
541.138 38.524 L
541.525 38.524 L
541.912 38.524 L
542.3 38.524 L
542.688 38.524 L
543.075 38.524 L
543.463 38.524 L
543.85 38.524 L
544.237 38.524 L
544.625 38.524 L
545.013 38.524 L
545.4 38.524 L
545.787 38.524 L
546.175 38.524 L
546.563 38.524 L
546.95 38.524 L
547.338 38.524 L
547.725 38.524 L
548.112 38.524 L
548.5 38.524 L
548.888 38.524 L
549.275 38.524 L
549.662 38.524 L
550.05 38.524 L
550.438 38.524 L
550.825 38.524 L
551.213 38.524 L
551.6 38.524 L
551.987 38.524 L
552.375 38.524 L
552.763 38.524 L
553.15 38.524 L
553.537 38.524 L
553.925 38.524 L
554.313 38.524 L
554.7 38.524 L
555.088 38.524 L
555.475 38.524 L
555.862 38.524 L
556.25 38.524 L
556.638 38.524 L
557.025 38.524 L
557.412 38.524 L
557.8 38.524 L
558.188 38.524 L
558.575 38.524 L
558.963 38.524 L
559.35 38.524 L
559.737 38.524 L
560.125 38.524 L
560.513 38.524 L
560.9 38.524 L
561.287 38.524 L
561.675 38.524 L
562.063 38.524 L
562.45 38.524 L
562.838 38.524 L
563.225 38.524 L
563.612 38.524 L
564 38.524 L
564.388 38.524 L
564.775 38.524 L
565.162 38.524 L
565.55 38.524 L
565.938 38.524 L
566.325 38.524 L
566.713 38.524 L
567.1 38.524 L
567.487 38.524 L
567.875 38.524 L
568.263 38.524 L
568.65 38.524 L
569.037 38.524 L
569.425 38.524 L
569.813 38.524 L
570.2 38.524 L
570.588 38.524 L
570.975 38.524 L
571.362 38.524 L
571.75 38.524 L
572.138 38.524 L
572.525 38.524 L
572.912 38.524 L
573.3 38.524 L
573.688 38.524 L
574.075 38.524 L
574.463 38.524 L
574.85 38.524 L
575.237 38.524 L
575.625 38.524 L
576.013 38.524 L
576.4 38.524 L
576.787 38.524 L
577.175 38.524 L
577.563 38.524 L
577.95 38.524 L
578.338 38.524 L
578.725 38.524 L
579.112 38.524 L
579.5 38.524 L
579.888 38.524 L
580.275 38.524 L
580.662 38.524 L
581.05 38.524 L
581.438 38.524 L
581.825 38.524 L
582.213 38.524 L
582.6 38.524 L
582.987 38.524 L
583.375 38.524 L
583.763 38.524 L
584.15 38.524 L
584.537 38.524 L
584.925 38.524 L
585.313 38.524 L
585.7 38.524 L
586.088 38.524 L
586.475 38.524 L
586.862 38.524 L
587.25 38.524 L
587.638 38.524 L
588.025 38.524 L
588.412 38.524 L
588.8 38.524 L
589.188 38.524 L
589.575 38.524 L
589.963 38.524 L
590.35 38.524 L
590.737 38.524 L
591.125 38.524 L
591.513 38.524 L
591.9 38.524 L
592.287 38.524 L
592.675 38.524 L
593.063 38.524 L
593.45 38.524 L
593.838 38.524 L
594.225 38.524 L
594.612 38.524 L
595 38.524 L
595.388 38.524 L
595.775 38.524 L
596.162 38.524 L
596.55 38.524 L
596.938 38.524 L
597.325 38.524 L
597.713 38.524 L
598.1 38.524 L
598.487 38.524 L
598.875 38.524 L
599.263 38.524 L
599.65 38.524 L
600.037 38.524 L
600.425 38.524 L
600.813 38.524 L
601.2 38.524 L
601.588 38.524 L
601.975 38.524 L
602.362 38.524 L
602.75 38.524 L
603.138 38.524 L
603.525 38.524 L
603.912 38.524 L
604.3 38.524 L
604.688 38.524 L
605.075 38.524 L
605.463 38.524 L
605.85 38.524 L
606.237 38.524 L
606.625 38.524 L
607.013 38.524 L
607.4 38.524 L
607.787 38.524 L
608.175 38.524 L
608.563 38.524 L
608.95 38.524 L
609.338 38.524 L
609.725 38.524 L
610.112 38.524 L
610.5 38.524 L
610.888 38.524 L
611.275 38.524 L
611.662 38.524 L
612.05 38.524 L
612.438 38.524 L
612.825 38.524 L
613.213 38.524 L
613.6 38.524 L
613.987 38.524 L
614.375 38.524 L
614.763 38.524 L
615.15 38.524 L
615.537 38.524 L
615.925 38.524 L
616.313 38.524 L
616.7 38.524 L
617.088 38.524 L
617.475 38.524 L
617.862 38.524 L
618.25 38.524 L
618.638 38.524 L
619.025 38.524 L
619.412 38.524 L
619.8 38.524 L
620.188 38.524 L
620.575 38.524 L
620.963 38.524 L
621.35 38.524 L
621.737 38.524 L
622.125 38.524 L
622.513 38.524 L
622.9 38.524 L
623.287 38.524 L
623.675 38.524 L
624.063 38.524 L
624.45 38.524 L
624.838 38.524 L
625.225 38.524 L
625.612 38.524 L
626 38.524 L
626.388 38.524 L
626.775 38.524 L
627.162 38.524 L
627.55 38.524 L
627.938 38.524 L
628.325 38.524 L
628.713 38.524 L
629.1 38.524 L
629.487 38.524 L
629.875 38.524 L
630.263 38.524 L
630.65 38.524 L
631.037 38.524 L
631.425 38.524 L
631.813 38.524 L
632.2 38.524 L
632.588 38.524 L
632.975 38.524 L
633.362 38.524 L
633.75 38.524 L
634.138 38.524 L
634.525 38.524 L
634.912 38.524 L
635.3 38.524 L
635.688 38.524 L
636.075 38.524 L
636.463 38.524 L
636.85 38.524 L
637.237 38.524 L
637.625 38.524 L
638.013 38.524 L
638.4 38.524 L
638.787 38.524 L
639.175 38.524 L
639.563 38.524 L
639.95 38.524 L
640.338 38.524 L
640.725 38.524 L
641.112 38.524 L
641.5 38.524 L
641.888 38.524 L
642.275 38.524 L
642.662 38.524 L
643.05 38.524 L
643.438 38.524 L
643.825 38.524 L
644.213 38.524 L
644.6 38.524 L
644.987 38.524 L
645.375 38.524 L
645.763 38.524 L
646.15 38.524 L
646.537 38.524 L
646.925 38.524 L
647.313 38.524 L
647.7 38.524 L
648.088 38.524 L
648.475 38.524 L
648.862 38.524 L
649.25 38.524 L
649.638 38.524 L
650.025 38.524 L
650.412 38.524 L
650.8 38.524 L
651.188 38.524 L
651.575 38.524 L
651.963 38.524 L
652.35 38.524 L
652.737 38.524 L
653.125 38.524 L
653.513 38.524 L
653.9 38.524 L
654.287 38.524 L
654.675 38.524 L
655.063 38.524 L
655.45 38.524 L
655.838 38.524 L
656.225 38.524 L
656.612 38.524 L
657 38.524 L
657.388 38.524 L
657.775 38.524 L
658.162 38.524 L
658.55 38.524 L
658.938 38.524 L
659.325 38.524 L
659.713 38.524 L
660.1 38.524 L
660.487 38.524 L
660.875 38.524 L
661.263 38.524 L
661.65 38.524 L
662.037 38.524 L
662.425 38.524 L
662.813 38.524 L
663.2 38.524 L
663.588 38.524 L
663.975 38.524 L
664.362 38.524 L
664.75 38.524 L
665.138 38.524 L
665.525 38.524 L
665.912 38.524 L
666.3 38.524 L
666.688 38.524 L
667.075 38.524 L
667.463 38.524 L
667.85 38.524 L
668.237 38.524 L
668.625 38.524 L
669.013 38.524 L
669.4 38.524 L
669.787 38.524 L
670.175 38.524 L
670.563 38.524 L
670.95 38.524 L
671.338 38.524 L
671.725 38.524 L
672.112 38.524 L
672.5 38.524 L
672.888 38.524 L
673.275 38.524 L
673.662 38.524 L
674.05 38.524 L
674.438 38.524 L
674.825 38.524 L
675.213 38.524 L
675.6 38.524 L
675.987 38.524 L
676.375 38.524 L
676.763 38.524 L
677.15 38.524 L
677.537 38.524 L
677.925 38.524 L
678.313 38.524 L
678.7 38.524 L
679.088 38.524 L
679.475 38.524 L
679.862 38.524 L
680.25 38.524 L
680.638 38.524 L
681.025 38.524 L
681.412 38.524 L
681.8 38.524 L
682.188 38.524 L
682.575 38.524 L
682.963 38.524 L
683.35 38.524 L
683.737 38.524 L
684.125 38.524 L
684.513 38.524 L
684.9 38.524 L
685.287 38.524 L
685.675 38.524 L
686.063 38.524 L
686.45 38.524 L
686.838 38.524 L
687.225 38.524 L
687.612 38.524 L
688 38.524 L
688.388 38.524 L
688.775 38.524 L
689.162 38.524 L
689.55 38.524 L
689.938 38.524 L
690.325 38.524 L
690.713 38.524 L
691.1 38.524 L
691.487 38.524 L
691.875 38.524 L
692.263 38.524 L
692.65 38.524 L
693.037 38.524 L
693.425 38.524 L
693.813 38.524 L
694.2 38.524 L
694.588 38.524 L
694.975 38.524 L
695.362 38.524 L
695.75 38.524 L
696.138 38.524 L
696.525 38.524 L
696.912 38.524 L
697.3 38.524 L
697.688 38.524 L
698.075 38.524 L
698.463 38.524 L
698.85 38.524 L
699.237 38.524 L
699.625 38.524 L
700.013 38.524 L
700.4 38.524 L
700.787 38.524 L
701.175 38.524 L
701.563 38.524 L
701.95 38.524 L
702.338 38.524 L
702.725 38.524 L
703.112 38.524 L
703.5 38.524 L
703.888 38.524 L
704.275 38.524 L
704.662 38.524 L
705.05 38.524 L
705.438 38.524 L
705.825 38.524 L
706.213 38.524 L
706.6 38.524 L
706.987 38.524 L
707.375 38.524 L
707.763 38.524 L
708.15 38.524 L
708.537 38.524 L
708.925 38.524 L
709.313 38.524 L
709.7 38.524 L
710.088 38.524 L
710.475 38.524 L
710.862 38.524 L
711.25 38.524 L
711.638 38.524 L
712.025 38.524 L
712.412 38.524 L
712.8 38.524 L
713.188 38.524 L
713.575 38.524 L
713.963 38.524 L
714.35 38.524 L
714.737 38.524 L
715.125 38.524 L
715.513 38.524 L
715.9 38.524 L
716.287 38.524 L
716.675 38.524 L
717.063 38.524 L
717.45 38.524 L
717.838 38.524 L
718.225 38.524 L
718.612 38.524 L
719 38.524 L
719.388 38.524 L
719.775 38.524 L
720.162 38.524 L
720.55 38.524 L
720.938 38.524 L
721.325 38.524 L
721.713 38.524 L
722.1 38.524 L
722.487 38.524 L
722.875 38.524 L
723.263 38.524 L
723.65 38.524 L
724.037 38.524 L
724.425 38.524 L
724.813 38.524 L
725.2 38.524 L
725.588 38.524 L
725.975 38.524 L
726.362 38.524 L
726.75 38.524 L
727.138 38.524 L
727.525 38.524 L
727.912 38.524 L
728.3 38.524 L
728.688 38.524 L
729.075 38.524 L
729.463 38.524 L
729.85 38.524 L
730.237 38.524 L
730.625 38.524 L
731.013 38.524 L
731.4 38.524 L
731.787 38.524 L
732.175 38.524 L
732.563 38.524 L
732.95 38.524 L
733.338 38.524 L
733.725 38.524 L
734.112 38.524 L
734.5 38.524 L
734.888 38.524 L
735.275 38.524 L
735.662 38.524 L
736.05 38.524 L
736.438 38.524 L
736.825 38.524 L
737.213 38.524 L
737.6 38.524 L
737.987 38.524 L
738.375 38.524 L
738.763 38.524 L
739.15 38.524 L
739.537 38.524 L
739.925 38.524 L
740.313 38.524 L
740.7 38.524 L
741.088 38.524 L
741.475 38.524 L
741.862 38.524 L
742.25 38.524 L
742.638 38.524 L
743.025 38.524 L
743.412 38.524 L
743.8 38.524 L
744.188 38.524 L
744.575 38.524 L
744.963 38.524 L
745.35 38.524 L
745.737 38.524 L
746.125 38.524 L
746.513 38.524 L
746.9 38.524 L
747.287 38.524 L
747.675 38.524 L
748.063 38.524 L
748.45 38.524 L
748.838 38.524 L
749.225 38.524 L
749.612 38.524 L
750 38.524 L
750.388 38.524 L
750.775 38.524 L
751.162 38.524 L
751.55 38.524 L
751.938 38.524 L
752.325 38.524 L
752.713 38.524 L
753.1 38.524 L
753.487 38.524 L
753.875 38.524 L
754.263 38.524 L
754.65 38.524 L
755.037 38.524 L
755.425 38.524 L
755.813 38.524 L
756.2 38.524 L
756.588 38.524 L
756.975 38.524 L
757.362 38.524 L
757.75 38.524 L
758.138 38.524 L
758.525 38.524 L
758.912 38.524 L
759.3 38.524 L
759.688 38.524 L
760.075 38.524 L
760.463 38.524 L
760.85 38.524 L
761.237 38.524 L
761.625 38.524 L
762.013 38.524 L
762.4 38.524 L
762.787 38.524 L
763.175 38.524 L
763.563 38.524 L
763.95 38.524 L
764.338 38.524 L
764.725 38.524 L
765.112 38.524 L
765.5 38.524 L
765.888 38.524 L
766.275 38.524 L
766.662 38.524 L
767.05 38.524 L
767.438 38.524 L
767.825 38.524 L
768.213 38.524 L
768.6 38.524 L
768.987 38.524 L
769.375 38.524 L
769.763 38.524 L
770.15 38.524 L
770.537 38.524 L
770.925 38.524 L
771.313 38.524 L
771.7 38.524 L
772.088 38.524 L
772.475 38.524 L
772.862 38.524 L
773.25 38.524 L
773.638 38.524 L
774.025 38.524 L
774.412 38.524 L
774.8 38.524 L
775.188 38.524 L
775.575 38.524 L
775.963 38.524 L
776.35 38.524 L
776.737 38.524 L
777.125 38.524 L
777.513 38.524 L
777.9 38.524 L
778.287 38.524 L
778.675 38.524 L
779.063 38.524 L
779.45 38.524 L
779.838 38.524 L
780.225 38.524 L
780.612 38.524 L
781 38.524 L
781.388 38.524 L
781.775 38.524 L
782.162 38.524 L
782.55 38.524 L
782.938 38.524 L
783.325 38.524 L
783.713 38.524 L
784.1 38.524 L
784.487 38.524 L
784.875 38.524 L
785.263 38.524 L
785.65 38.524 L
786.037 38.524 L
786.425 38.524 L
786.813 38.524 L
787.2 38.524 L
787.588 38.524 L
787.975 38.524 L
788.362 38.524 L
788.75 38.524 L
789.138 38.524 L
789.525 38.524 L
789.912 38.524 L
790.3 38.524 L
790.688 38.524 L
791.075 38.524 L
791.463 38.524 L
791.85 38.524 L
792.237 38.524 L
792.625 38.524 L
793.013 38.524 L
793.4 38.524 L
793.787 38.524 L
794.175 38.524 L
794.563 38.524 L
794.95 38.524 L
795.338 38.524 L
795.725 38.524 L
796.112 38.524 L
796.5 38.524 L
796.888 38.524 L
797.275 38.524 L
797.662 38.524 L
798.05 38.524 L
798.438 38.524 L
798.825 38.524 L
799.213 38.524 L
799.6 38.524 L
799.987 38.524 L
800.375 38.524 L
800.763 38.524 L
801.15 38.524 L
801.537 38.524 L
801.925 38.524 L
802.313 38.524 L
802.7 38.524 L
803.088 38.524 L
803.475 38.524 L
803.862 38.524 L
804.25 38.524 L
804.638 38.524 L
805.025 38.524 L
805.412 38.524 L
805.8 38.524 L
806.188 38.524 L
806.575 38.524 L
806.963 38.524 L
807.35 38.524 L
807.737 38.524 L
808.125 38.524 L
808.513 38.524 L
808.9 38.524 L
809.287 38.524 L
809.675 38.524 L
810.063 38.524 L
810.45 38.524 L
810.838 38.524 L
811.225 38.524 L
811.612 38.524 L
812 40.089 L
812.388 38.524 L
812.775 38.524 L
813.162 38.524 L
813.55 38.524 L
813.938 38.524 L
814.325 38.524 L
814.713 38.524 L
815.1 38.524 L
815.487 38.524 L
815.875 38.524 L
816.263 38.524 L
816.65 38.524 L
817.037 38.524 L
817.425 38.524 L
817.813 38.524 L
818.2 38.524 L
818.588 38.524 L
818.975 38.524 L
819.362 38.524 L
819.75 38.524 L
820.138 38.524 L
820.525 38.524 L
820.912 38.524 L
821.3 38.524 L
821.688 38.524 L
822.075 38.524 L
822.463 38.524 L
822.85 38.524 L
823.237 38.524 L
823.625 38.524 L
824.013 38.524 L
824.4 38.524 L
824.787 38.524 L
825.175 38.524 L
825.563 38.524 L
825.95 38.524 L
826.338 38.524 L
826.725 38.524 L
827.112 38.524 L
827.5 38.524 L
827.888 38.524 L
828.275 38.524 L
828.662 38.524 L
829.05 38.524 L
829.438 38.524 L
829.825 38.524 L
830.213 38.524 L
830.6 38.524 L
830.987 38.524 L
831.375 38.524 L
831.763 38.524 L
832.15 38.524 L
832.537 38.524 L
832.925 38.524 L
833.313 38.524 L
833.7 38.524 L
834.088 38.524 L
834.475 38.524 L
834.862 38.524 L
835.25 38.524 L
835.638 38.524 L
836.025 38.524 L
836.412 38.524 L
836.8 38.524 L
837.188 38.524 L
837.575 38.524 L
837.963 38.524 L
838.35 38.524 L
838.737 38.524 L
839.125 38.524 L
839.513 38.524 L
839.9 38.524 L
840.287 38.524 L
840.675 38.524 L
841.063 38.524 L
841.45 38.524 L
841.838 38.524 L
842.225 38.524 L
842.612 38.524 L
843 38.524 L
843.388 38.524 L
843.775 38.524 L
844.162 38.524 L
844.55 38.524 L
844.938 38.524 L
845.325 38.524 L
845.713 38.524 L
846.1 38.524 L
846.487 38.524 L
846.875 38.524 L
847.263 38.524 L
847.65 38.524 L
848.037 38.524 L
848.425 38.524 L
848.813 38.524 L
849.2 38.524 L
849.588 38.524 L
849.975 38.524 L
850.362 38.524 L
850.75 38.524 L
851.138 38.524 L
851.525 38.524 L
851.912 38.524 L
852.3 38.524 L
852.688 38.524 L
853.075 38.524 L
853.463 38.524 L
853.85 38.524 L
854.237 38.524 L
854.625 38.524 L
855.013 38.524 L
855.4 38.524 L
855.787 38.524 L
856.175 38.524 L
856.563 38.524 L
856.95 38.524 L
857.338 38.524 L
857.725 38.524 L
858.112 38.524 L
858.5 38.524 L
858.888 38.524 L
859.275 38.524 L
859.662 38.524 L
860.05 38.524 L
860.438 38.524 L
860.825 38.524 L
861.213 38.524 L
861.6 38.524 L
861.987 38.524 L
862.375 38.524 L
862.763 38.524 L
863.15 38.524 L
863.537 38.524 L
863.925 38.524 L
864.313 38.524 L
864.7 38.524 L
865.088 38.524 L
865.475 38.524 L
865.862 38.524 L
866.25 38.524 L
866.638 38.524 L
867.025 38.524 L
867.412 38.524 L
867.8 38.524 L
868.188 38.524 L
868.575 38.524 L
868.963 38.524 L
869.35 38.524 L
869.737 38.524 L
870.125 38.524 L
870.513 38.524 L
870.9 38.524 L
871.287 38.524 L
871.675 38.524 L
872.063 38.524 L
872.45 38.524 L
872.838 38.524 L
873.225 38.524 L
873.612 38.524 L
874 38.524 L
874.388 38.524 L
874.775 38.524 L
875.162 38.524 L
875.55 38.524 L
875.938 38.524 L
876.325 38.524 L
876.713 38.524 L
877.1 38.524 L
877.487 38.524 L
877.875 38.524 L
878.263 38.524 L
878.65 38.524 L
879.037 38.524 L
879.425 38.524 L
879.813 38.524 L
880.2 38.524 L
880.588 38.524 L
880.975 38.524 L
881.362 38.524 L
881.75 38.524 L
882.138 38.524 L
882.525 38.524 L
882.912 38.524 L
883.3 38.524 L
883.688 38.524 L
884.075 38.524 L
884.463 38.524 L
884.85 38.524 L
885.237 38.524 L
885.625 38.524 L
886.013 38.524 L
886.4 38.524 L
886.787 38.524 L
887.175 38.524 L
887.563 38.524 L
887.95 38.524 L
888.338 38.524 L
888.725 38.524 L
889.112 38.524 L
889.5 38.524 L
889.888 38.524 L
890.275 38.524 L
890.662 38.524 L
891.05 38.524 L
891.438 38.524 L
891.825 38.524 L
892.213 38.524 L
892.6 38.524 L
892.987 38.524 L
893.375 38.524 L
893.763 38.524 L
894.15 38.524 L
894.537 38.524 L
894.925 38.524 L
895.313 38.524 L
895.7 38.524 L
896.088 38.524 L
896.475 38.524 L
896.862 38.524 L
897.25 38.524 L
897.638 38.524 L
898.025 38.524 L
898.412 38.524 L
898.8 38.524 L
899.188 38.524 L
899.575 38.524 L
899.963 38.524 L
900.35 38.524 L
900.737 38.524 L
901.125 38.524 L
901.513 38.524 L
901.9 38.524 L
902.287 38.524 L
902.675 38.524 L
903.063 38.524 L
903.45 38.524 L
903.838 38.524 L
904.225 38.524 L
904.612 38.524 L
905 38.524 L
S
GR
GS
1 0 0 RC
1 LJ
0.5 LW
N
169.525 129.716 M
169.913 130.977 L
170.3 131.508 L
170.688 132.141 L
171.075 132.002 L
171.462 133.394 L
171.85 132.106 L
172.238 132.433 L
172.625 131.145 L
173.012 133.866 L
173.4 132.445 L
173.788 132.614 L
174.175 133.434 L
174.563 133.855 L
174.95 133.749 L
175.337 136.178 L
175.725 135.607 L
176.113 135.467 L
176.5 134.89 L
176.887 134.604 L
177.275 135.238 L
177.663 134.302 L
178.05 133.285 L
178.438 133.907 L
178.825 134.504 L
179.212 133.069 L
179.6 133.969 L
179.988 134.46 L
180.375 134.338 L
180.762 135.811 L
181.15 137.442 L
181.538 138.096 L
181.925 138.625 L
182.313 138.328 L
182.7 138.982 L
183.087 138.063 L
183.475 137.245 L
183.863 136.129 L
184.25 136.425 L
184.637 136.202 L
185.025 134.448 L
185.413 134.205 L
185.8 135.297 L
186.188 134.946 L
186.575 134.723 L
186.962 134.149 L
187.35 134.863 L
187.738 133.749 L
188.125 134.324 L
188.512 134.626 L
188.9 131.104 L
189.288 131.432 L
189.675 131.704 L
190.063 130.177 L
190.45 129.222 L
190.837 128.913 L
191.225 127.871 L
191.613 127.52 L
192 126.367 L
192.387 126.367 L
192.775 124.195 L
193.163 123.692 L
193.55 122.709 L
193.938 121.409 L
194.325 121.068 L
194.712 119.487 L
195.1 116.404 L
195.488 115.266 L
195.875 114.182 L
196.262 113.761 L
196.65 112.441 L
197.038 110.852 L
197.425 111.353 L
197.813 110.645 L
198.2 108.582 L
198.587 106.994 L
198.975 107.414 L
199.363 105.081 L
199.75 103.624 L
200.137 100.995 L
200.525 99.294 L
200.913 97.594 L
201.3 96.94 L
201.688 96.481 L
202.075 95.96 L
202.462 94.832 L
202.85 94.482 L
203.238 94.41 L
203.625 94.068 L
204.012 93.483 L
204.4 91.251 L
204.788 91.842 L
205.175 91.106 L
205.563 88.987 L
205.95 88.598 L
206.337 86.979 L
206.725 85.267 L
207.113 83.243 L
207.5 82.895 L
207.887 82.622 L
208.275 81.057 L
208.663 80.674 L
209.05 79.415 L
209.438 77.388 L
209.825 77.902 L
210.212 77.12 L
210.6 76.412 L
210.988 76.664 L
211.375 77.19 L
211.762 76.297 L
212.15 75.315 L
212.538 74.96 L
212.925 76.233 L
213.313 75.373 L
213.7 74.686 L
214.087 72.997 L
214.475 73.027 L
214.863 73.654 L
215.25 74.133 L
215.637 73.899 L
216.025 74.256 L
216.413 74.367 L
216.8 74.482 L
217.188 72.947 L
217.575 72.734 L
217.962 72.68 L
218.35 72.191 L
218.738 71.597 L
219.125 71.392 L
219.512 71.191 L
219.9 71.464 L
220.288 70.883 L
220.675 70.975 L
221.063 70.142 L
221.45 69.396 L
221.837 68.578 L
222.225 68.941 L
222.613 69.959 L
223 69.25 L
223.387 69.659 L
223.775 69.318 L
224.163 70.019 L
224.55 69.843 L
224.938 69.296 L
225.325 69.174 L
225.712 68.243 L
226.1 67.788 L
226.488 67.6 L
226.875 67.866 L
227.262 67.711 L
227.65 67.77 L
228.038 67.614 L
228.425 67.738 L
228.813 68.588 L
229.2 68.642 L
229.587 68.146 L
229.975 68.635 L
230.363 68.215 L
230.75 66.624 L
231.137 65.829 L
231.525 67.467 L
231.913 68.285 L
232.3 67.866 L
232.688 66.824 L
233.075 67.929 L
233.462 67.658 L
233.85 68.398 L
234.238 68.532 L
234.625 67.291 L
235.012 66.794 L
235.4 66.544 L
235.788 65.319 L
236.175 65.352 L
236.563 64.468 L
236.95 64.714 L
237.337 64.907 L
237.725 64.813 L
238.113 65.113 L
238.5 64.957 L
238.887 64.737 L
239.275 64.798 L
239.663 64.387 L
240.05 65.246 L
240.438 65.532 L
240.825 65.804 L
241.212 65.593 L
241.6 65.802 L
241.988 65.397 L
242.375 63.965 L
242.762 63.651 L
243.15 63.231 L
243.538 63.503 L
243.925 63.109 L
244.313 62.146 L
244.7 62.176 L
245.087 61.271 L
245.475 61.342 L
245.863 61.362 L
246.25 61.618 L
246.637 61.205 L
247.025 61.046 L
247.413 60.252 L
247.8 60.134 L
248.188 60.092 L
248.575 58.864 L
248.962 58.109 L
249.35 57.595 L
249.738 56.66 L
250.125 56.499 L
250.512 56.289 L
250.9 55.855 L
251.288 54.218 L
251.675 53.475 L
252.063 52.924 L
252.45 52.525 L
252.837 51.297 L
253.225 51.101 L
253.613 50.208 L
254 49.91 L
254.387 50.06 L
254.775 49.771 L
255.163 49.912 L
255.55 49.798 L
255.938 49.688 L
256.325 49.929 L
256.712 49.756 L
257.1 49.564 L
257.487 49.318 L
257.875 48.641 L
258.263 48.524 L
258.65 48.335 L
259.038 47.967 L
259.425 47.788 L
259.813 46.754 L
260.2 46.187 L
260.587 45.766 L
260.975 45.747 L
261.362 45.865 L
261.75 45.842 L
262.138 45.74 L
262.525 45.852 L
262.913 45.597 L
263.3 45.199 L
263.688 45.122 L
264.075 45.025 L
264.462 44.766 L
264.85 44.637 L
265.237 44.133 L
265.625 43.955 L
266.013 43.494 L
266.4 42.986 L
266.788 42.872 L
267.175 42.789 L
267.563 42.362 L
267.95 41.887 L
268.337 41.887 L
268.725 41.887 L
269.112 41.805 L
269.5 41.805 L
269.888 41.649 L
270.275 41.561 L
270.663 41.561 L
271.05 41.561 L
271.438 41.486 L
271.825 41.3 L
272.212 41.104 L
272.6 41.104 L
272.987 41.104 L
273.375 41.209 L
273.763 41.317 L
274.15 41.044 L
274.538 41.044 L
274.925 40.684 L
275.313 40.684 L
275.7 40.334 L
276.087 39.995 L
276.475 39.922 L
276.862 39.922 L
277.25 39.922 L
277.638 39.922 L
278.025 39.922 L
278.413 39.922 L
278.8 39.922 L
279.188 39.922 L
279.575 39.922 L
279.962 39.922 L
280.35 39.922 L
280.737 39.845 L
281.125 39.518 L
281.513 39.401 L
281.9 39.401 L
282.288 39.155 L
282.675 39.094 L
283.063 39.094 L
283.45 38.863 L
283.837 38.807 L
284.225 38.807 L
284.612 38.807 L
285 38.807 L
285.388 38.807 L
285.775 38.807 L
286.163 38.807 L
286.55 38.807 L
286.938 38.807 L
287.325 38.807 L
287.712 38.807 L
288.1 38.807 L
288.487 38.807 L
288.875 38.807 L
289.263 38.807 L
289.65 38.807 L
290.038 38.807 L
290.425 38.807 L
290.813 38.807 L
291.2 38.807 L
291.587 38.807 L
291.975 38.807 L
292.362 38.807 L
292.75 38.807 L
293.138 38.701 L
293.525 38.524 L
293.913 38.524 L
294.3 38.524 L
294.688 38.524 L
295.075 38.524 L
295.462 38.524 L
295.85 38.524 L
296.237 38.524 L
296.625 38.524 L
297.013 38.524 L
297.4 38.524 L
297.788 38.524 L
298.175 38.524 L
298.563 38.524 L
298.95 38.524 L
299.337 38.524 L
299.725 38.524 L
300.112 38.524 L
300.5 38.524 L
300.888 38.524 L
301.275 38.524 L
301.663 38.524 L
302.05 38.524 L
302.438 38.524 L
302.825 38.524 L
303.212 38.524 L
303.6 38.524 L
303.987 38.524 L
304.375 38.524 L
304.763 38.524 L
305.15 38.524 L
305.538 38.524 L
305.925 38.524 L
306.313 38.524 L
306.7 38.524 L
307.087 38.524 L
307.475 38.524 L
307.862 38.524 L
308.25 38.524 L
308.638 38.524 L
309.025 38.524 L
309.413 38.524 L
309.8 38.524 L
310.188 38.524 L
310.575 38.524 L
310.962 38.524 L
311.35 38.524 L
311.737 38.524 L
312.125 38.524 L
312.513 38.524 L
312.9 38.524 L
313.288 38.524 L
313.675 38.524 L
314.063 38.524 L
314.45 38.524 L
314.837 38.524 L
315.225 38.524 L
315.612 38.524 L
316 38.524 L
316.388 38.524 L
316.775 38.524 L
317.163 38.524 L
317.55 38.524 L
317.938 38.524 L
318.325 38.524 L
318.712 38.524 L
319.1 38.524 L
319.487 38.524 L
319.875 38.524 L
320.263 38.524 L
320.65 38.524 L
321.038 38.524 L
321.425 38.524 L
321.813 38.524 L
322.2 38.524 L
322.587 38.524 L
322.975 38.524 L
323.362 38.524 L
323.75 38.524 L
324.138 38.524 L
324.525 38.524 L
324.913 38.524 L
325.3 38.524 L
325.688 38.524 L
326.075 38.524 L
326.462 38.524 L
326.85 38.524 L
327.237 38.524 L
327.625 38.524 L
328.013 38.524 L
328.4 38.524 L
328.788 38.524 L
329.175 38.524 L
329.563 38.524 L
329.95 38.524 L
330.337 38.524 L
330.725 38.524 L
331.112 38.524 L
331.5 38.524 L
331.888 38.524 L
332.275 38.524 L
332.663 38.524 L
333.05 38.524 L
333.438 38.524 L
333.825 38.524 L
334.212 38.524 L
334.6 38.524 L
334.987 38.524 L
335.375 38.524 L
335.763 38.524 L
336.15 38.524 L
336.538 38.524 L
336.925 38.524 L
337.313 38.524 L
337.7 38.524 L
338.087 38.524 L
338.475 38.524 L
338.862 38.524 L
339.25 38.524 L
339.638 38.524 L
340.025 38.524 L
340.413 38.524 L
340.8 38.524 L
341.188 38.524 L
341.575 38.524 L
341.962 38.524 L
342.35 38.524 L
342.737 38.524 L
343.125 38.524 L
343.513 38.524 L
343.9 38.524 L
344.288 38.524 L
344.675 38.524 L
345.063 38.524 L
345.45 38.524 L
345.837 38.524 L
346.225 38.524 L
346.612 38.524 L
347 38.524 L
347.388 38.524 L
347.775 38.524 L
348.163 38.524 L
348.55 38.524 L
348.938 38.524 L
349.325 38.524 L
349.712 38.524 L
350.1 38.524 L
350.487 38.524 L
350.875 38.524 L
351.263 38.524 L
351.65 38.524 L
352.038 38.524 L
352.425 38.524 L
352.813 38.524 L
353.2 38.524 L
353.587 38.524 L
353.975 38.524 L
354.362 38.524 L
354.75 38.524 L
355.138 38.524 L
355.525 38.524 L
355.913 38.524 L
356.3 38.524 L
356.688 38.524 L
357.075 38.524 L
357.462 38.524 L
357.85 38.524 L
358.237 38.524 L
358.625 38.524 L
359.013 38.524 L
359.4 38.524 L
359.788 38.524 L
360.175 38.524 L
360.563 38.524 L
360.95 38.524 L
361.337 38.524 L
361.725 38.524 L
362.112 38.524 L
362.5 38.524 L
362.888 38.524 L
363.275 38.524 L
363.663 38.524 L
364.05 38.524 L
364.438 38.524 L
364.825 38.524 L
365.212 38.524 L
365.6 38.524 L
365.987 38.524 L
366.375 38.524 L
366.763 38.524 L
367.15 38.524 L
367.538 38.524 L
367.925 38.524 L
368.313 38.524 L
368.7 38.524 L
369.087 38.524 L
369.475 38.524 L
369.862 38.524 L
370.25 38.524 L
370.638 38.524 L
371.025 38.524 L
371.413 38.524 L
371.8 38.524 L
372.188 38.524 L
372.575 38.524 L
372.962 38.524 L
373.35 38.524 L
373.737 38.524 L
374.125 38.524 L
374.513 38.524 L
374.9 38.524 L
375.288 38.524 L
375.675 38.524 L
376.063 38.524 L
376.45 38.524 L
376.837 38.524 L
377.225 38.524 L
377.612 38.524 L
378 38.524 L
378.388 38.524 L
378.775 38.524 L
379.163 38.524 L
379.55 38.524 L
379.938 38.524 L
380.325 38.524 L
380.712 38.524 L
381.1 38.524 L
381.487 38.524 L
381.875 38.524 L
382.263 38.524 L
382.65 38.524 L
383.038 38.524 L
383.425 38.524 L
383.813 38.524 L
384.2 38.524 L
384.587 38.524 L
384.975 38.524 L
385.362 38.524 L
385.75 38.524 L
386.138 38.524 L
386.525 38.524 L
386.913 38.524 L
387.3 38.524 L
387.688 38.524 L
388.075 38.524 L
388.462 38.524 L
388.85 38.524 L
389.237 38.524 L
389.625 38.524 L
390.013 38.524 L
390.4 38.524 L
390.788 38.524 L
391.175 38.524 L
391.563 38.524 L
391.95 38.524 L
392.337 38.524 L
392.725 38.524 L
393.112 38.524 L
393.5 38.524 L
393.888 38.524 L
394.275 38.524 L
394.663 38.524 L
395.05 38.524 L
395.438 38.524 L
395.825 38.524 L
396.212 38.524 L
396.6 38.524 L
396.987 38.524 L
397.375 38.524 L
397.763 38.524 L
398.15 38.524 L
398.538 38.524 L
398.925 38.524 L
399.313 38.524 L
399.7 38.524 L
400.087 38.524 L
400.475 38.524 L
400.862 38.524 L
401.25 38.524 L
401.638 38.524 L
402.025 38.524 L
402.413 38.524 L
402.8 38.524 L
403.188 38.524 L
403.575 38.524 L
403.962 38.524 L
404.35 38.524 L
404.737 38.524 L
405.125 38.524 L
405.513 38.524 L
405.9 38.524 L
406.288 38.524 L
406.675 38.524 L
407.063 38.524 L
407.45 38.524 L
407.837 38.524 L
408.225 38.524 L
408.612 38.524 L
409 38.524 L
409.388 38.524 L
409.775 38.524 L
410.163 38.524 L
410.55 38.524 L
410.938 38.524 L
411.325 38.524 L
411.712 38.524 L
412.1 38.524 L
412.487 38.524 L
412.875 38.524 L
413.263 38.524 L
413.65 38.524 L
414.038 38.524 L
414.425 38.524 L
414.813 38.524 L
415.2 38.524 L
415.587 38.524 L
415.975 38.524 L
416.362 38.524 L
416.75 38.524 L
417.138 38.524 L
417.525 38.524 L
417.913 38.524 L
418.3 38.524 L
418.688 38.524 L
419.075 38.524 L
419.462 38.524 L
419.85 38.524 L
420.237 38.524 L
420.625 38.524 L
421.013 38.524 L
421.4 38.524 L
421.788 38.524 L
422.175 38.524 L
422.563 38.524 L
422.95 38.524 L
423.337 38.524 L
423.725 38.524 L
424.112 38.524 L
424.5 38.524 L
424.888 38.524 L
425.275 38.524 L
425.663 38.524 L
426.05 38.524 L
426.438 38.524 L
426.825 38.524 L
427.212 38.524 L
427.6 38.524 L
427.987 38.524 L
428.375 38.524 L
428.763 38.524 L
429.15 38.524 L
429.538 38.524 L
429.925 38.524 L
430.313 38.524 L
430.7 38.524 L
431.087 38.524 L
431.475 38.524 L
431.862 38.524 L
432.25 38.524 L
432.638 38.524 L
433.025 38.524 L
433.413 38.524 L
433.8 38.524 L
434.188 38.524 L
434.575 38.524 L
434.962 38.524 L
435.35 38.524 L
435.737 38.524 L
436.125 38.524 L
436.513 38.524 L
436.9 38.524 L
437.288 38.524 L
437.675 38.524 L
438.063 38.524 L
438.45 38.524 L
438.837 38.524 L
439.225 38.524 L
439.612 38.524 L
440 38.524 L
440.388 38.524 L
440.775 38.524 L
441.163 38.524 L
441.55 38.524 L
441.938 38.524 L
442.325 38.524 L
442.712 38.524 L
443.1 38.524 L
443.487 38.524 L
443.875 38.524 L
444.263 38.524 L
444.65 38.524 L
445.038 38.524 L
445.425 38.524 L
445.813 38.524 L
446.2 38.524 L
446.587 38.524 L
446.975 38.524 L
447.362 38.524 L
447.75 38.524 L
448.138 38.524 L
448.525 38.524 L
448.913 38.524 L
449.3 38.524 L
449.688 38.524 L
450.075 38.524 L
450.462 38.524 L
450.85 38.524 L
451.237 38.524 L
451.625 38.524 L
452.013 38.524 L
452.4 38.524 L
452.788 38.524 L
453.175 38.524 L
453.563 38.524 L
453.95 38.524 L
454.337 38.524 L
454.725 38.524 L
455.112 38.524 L
455.5 38.524 L
455.888 38.524 L
456.275 38.524 L
456.663 38.524 L
457.05 38.524 L
457.438 38.524 L
457.825 38.524 L
458.212 38.524 L
458.6 38.524 L
458.987 38.524 L
459.375 38.524 L
459.763 38.524 L
460.15 38.524 L
460.538 38.524 L
460.925 38.524 L
461.313 38.524 L
461.7 38.524 L
462.087 38.524 L
462.475 38.524 L
462.862 38.524 L
463.25 38.524 L
463.638 38.524 L
464.025 38.524 L
464.413 38.524 L
464.8 38.524 L
465.188 38.524 L
465.575 38.524 L
465.962 38.524 L
466.35 38.524 L
466.737 38.524 L
467.125 38.524 L
467.513 38.524 L
467.9 38.524 L
468.288 38.524 L
468.675 38.524 L
469.063 38.524 L
469.45 38.524 L
469.837 38.524 L
470.225 38.524 L
470.612 38.524 L
471 38.524 L
471.388 38.524 L
471.775 38.524 L
472.163 38.524 L
472.55 38.524 L
472.938 38.524 L
473.325 38.524 L
473.712 38.524 L
474.1 38.524 L
474.487 38.524 L
474.875 38.524 L
475.263 38.524 L
475.65 38.524 L
476.038 38.524 L
476.425 38.524 L
476.813 38.524 L
477.2 38.524 L
477.587 38.524 L
477.975 38.524 L
478.362 38.524 L
478.75 38.524 L
479.138 38.524 L
479.525 38.524 L
479.913 38.524 L
480.3 38.524 L
480.688 38.524 L
481.075 38.524 L
481.462 38.524 L
481.85 38.524 L
482.237 38.524 L
482.625 38.524 L
483.013 38.524 L
483.4 38.524 L
483.788 38.524 L
484.175 38.524 L
484.563 38.524 L
484.95 38.524 L
485.337 38.524 L
485.725 38.524 L
486.112 38.524 L
486.5 38.524 L
486.888 38.524 L
487.275 38.524 L
487.663 38.524 L
488.05 38.524 L
488.438 38.524 L
488.825 38.524 L
489.212 38.524 L
489.6 38.524 L
489.987 38.524 L
490.375 38.524 L
490.763 38.524 L
491.15 38.524 L
491.538 38.524 L
491.925 38.524 L
492.313 38.524 L
492.7 38.524 L
493.087 38.524 L
493.475 38.524 L
493.862 38.524 L
494.25 38.524 L
494.638 38.524 L
495.025 38.524 L
495.413 38.524 L
495.8 38.524 L
496.188 38.524 L
496.575 38.524 L
496.962 38.524 L
497.35 38.524 L
497.737 38.524 L
498.125 38.524 L
498.513 38.524 L
498.9 38.524 L
499.288 38.524 L
499.675 38.524 L
500.063 38.524 L
500.45 38.524 L
500.837 38.524 L
501.225 38.524 L
501.612 38.524 L
502 38.524 L
502.388 38.524 L
502.775 38.524 L
503.163 38.524 L
503.55 38.524 L
503.938 38.524 L
504.325 38.524 L
504.712 38.524 L
505.1 38.524 L
505.487 38.524 L
505.875 38.524 L
506.263 38.524 L
506.65 38.524 L
507.038 38.524 L
507.425 38.524 L
507.813 38.524 L
508.2 38.524 L
508.587 38.524 L
508.975 38.524 L
509.362 38.524 L
509.75 38.524 L
510.138 38.524 L
510.525 38.524 L
510.913 38.524 L
511.3 38.524 L
511.688 38.524 L
512.075 38.524 L
512.463 38.524 L
512.85 38.524 L
513.237 38.524 L
513.625 38.524 L
514.013 38.524 L
514.4 38.524 L
514.787 38.524 L
515.175 38.524 L
515.563 38.524 L
515.95 38.524 L
516.338 38.524 L
516.725 38.524 L
517.112 38.524 L
517.5 38.524 L
517.888 38.524 L
518.275 38.524 L
518.662 38.524 L
519.05 38.524 L
519.438 38.524 L
519.825 38.524 L
520.213 38.524 L
520.6 38.524 L
520.987 38.524 L
521.375 38.524 L
521.763 38.524 L
522.15 38.524 L
522.537 38.524 L
522.925 38.524 L
523.313 38.524 L
523.7 38.524 L
524.088 38.524 L
524.475 38.524 L
524.862 38.524 L
525.25 38.524 L
525.638 38.524 L
526.025 38.524 L
526.412 38.524 L
526.8 38.524 L
527.188 38.524 L
527.575 38.524 L
527.963 38.524 L
528.35 38.524 L
528.737 38.524 L
529.125 38.524 L
529.513 38.524 L
529.9 38.524 L
530.287 38.524 L
530.675 38.524 L
531.063 38.524 L
531.45 38.524 L
531.838 38.524 L
532.225 38.524 L
532.612 38.524 L
533 38.524 L
533.388 38.524 L
533.775 38.524 L
534.162 38.524 L
534.55 38.524 L
534.938 38.524 L
535.325 38.524 L
535.713 38.524 L
536.1 38.524 L
536.487 38.524 L
536.875 38.524 L
537.263 38.524 L
537.65 38.524 L
538.037 38.524 L
538.425 38.524 L
538.813 38.524 L
539.2 38.524 L
539.588 38.524 L
539.975 38.524 L
540.362 38.524 L
540.75 38.524 L
541.138 38.524 L
541.525 38.524 L
541.912 38.524 L
542.3 38.524 L
542.688 38.524 L
543.075 38.524 L
543.463 38.524 L
543.85 38.524 L
544.237 38.524 L
544.625 38.524 L
545.013 38.524 L
545.4 38.524 L
545.787 38.524 L
546.175 38.524 L
546.563 38.524 L
546.95 38.524 L
547.338 38.524 L
547.725 38.524 L
548.112 38.524 L
548.5 38.524 L
548.888 38.524 L
549.275 38.524 L
549.662 38.524 L
550.05 38.524 L
550.438 38.524 L
550.825 38.524 L
551.213 38.524 L
551.6 38.524 L
551.987 38.524 L
552.375 38.524 L
552.763 38.524 L
553.15 38.524 L
553.537 38.524 L
553.925 38.524 L
554.313 38.524 L
554.7 38.524 L
555.088 38.524 L
555.475 38.524 L
555.862 38.524 L
556.25 38.524 L
556.638 38.524 L
557.025 38.524 L
557.412 38.524 L
557.8 38.524 L
558.188 38.524 L
558.575 38.524 L
558.963 38.524 L
559.35 38.524 L
559.737 38.524 L
560.125 38.524 L
560.513 38.524 L
560.9 38.524 L
561.287 38.524 L
561.675 38.524 L
562.063 38.524 L
562.45 38.524 L
562.838 38.524 L
563.225 38.524 L
563.612 38.524 L
564 38.524 L
564.388 38.524 L
564.775 38.524 L
565.162 38.524 L
565.55 38.524 L
565.938 38.524 L
566.325 38.524 L
566.713 38.524 L
567.1 38.524 L
567.487 38.524 L
567.875 38.524 L
568.263 38.524 L
568.65 38.524 L
569.037 38.524 L
569.425 38.524 L
569.813 38.524 L
570.2 38.524 L
570.588 38.524 L
570.975 38.524 L
571.362 38.524 L
571.75 38.524 L
572.138 38.524 L
572.525 38.524 L
572.912 38.524 L
573.3 38.524 L
573.688 38.524 L
574.075 38.524 L
574.463 38.524 L
574.85 38.524 L
575.237 38.524 L
575.625 38.524 L
576.013 38.524 L
576.4 38.524 L
576.787 38.524 L
577.175 38.524 L
577.563 38.524 L
577.95 38.524 L
578.338 38.524 L
578.725 38.524 L
579.112 38.524 L
579.5 38.524 L
579.888 38.524 L
580.275 38.524 L
580.662 38.524 L
581.05 38.524 L
581.438 38.524 L
581.825 38.524 L
582.213 38.524 L
582.6 38.524 L
582.987 38.524 L
583.375 38.524 L
583.763 38.524 L
584.15 38.524 L
584.537 38.524 L
584.925 38.524 L
585.313 38.524 L
585.7 38.524 L
586.088 38.524 L
586.475 38.524 L
586.862 38.524 L
587.25 38.524 L
587.638 38.524 L
588.025 38.524 L
588.412 38.524 L
588.8 38.524 L
589.188 38.524 L
589.575 38.524 L
589.963 38.524 L
590.35 38.524 L
590.737 38.524 L
591.125 38.524 L
591.513 38.524 L
591.9 38.524 L
592.287 38.524 L
592.675 38.524 L
593.063 38.524 L
593.45 38.524 L
593.838 38.524 L
594.225 38.524 L
594.612 38.524 L
595 38.524 L
595.388 38.524 L
595.775 38.524 L
596.162 38.524 L
596.55 38.524 L
596.938 38.524 L
597.325 38.524 L
597.713 38.524 L
598.1 38.524 L
598.487 38.524 L
598.875 38.524 L
599.263 38.524 L
599.65 38.524 L
600.037 38.524 L
600.425 38.524 L
600.813 38.524 L
601.2 38.524 L
601.588 38.524 L
601.975 38.524 L
602.362 38.524 L
602.75 38.524 L
603.138 38.524 L
603.525 38.524 L
603.912 38.524 L
604.3 38.524 L
604.688 38.524 L
605.075 38.524 L
605.463 38.524 L
605.85 38.524 L
606.237 38.524 L
606.625 38.524 L
607.013 38.524 L
607.4 38.524 L
607.787 38.524 L
608.175 38.524 L
608.563 38.524 L
608.95 38.524 L
609.338 38.524 L
609.725 38.524 L
610.112 38.524 L
610.5 38.524 L
610.888 38.524 L
611.275 38.524 L
611.662 38.524 L
612.05 38.524 L
612.438 38.524 L
612.825 38.524 L
613.213 38.524 L
613.6 38.524 L
613.987 38.524 L
614.375 38.524 L
614.763 38.524 L
615.15 38.524 L
615.537 38.524 L
615.925 38.524 L
616.313 38.524 L
616.7 38.524 L
617.088 38.524 L
617.475 38.524 L
617.862 38.524 L
618.25 38.524 L
618.638 38.524 L
619.025 38.524 L
619.412 38.524 L
619.8 38.524 L
620.188 38.524 L
620.575 38.524 L
620.963 38.524 L
621.35 38.524 L
621.737 38.524 L
622.125 38.524 L
622.513 38.524 L
622.9 38.524 L
623.287 38.524 L
623.675 38.524 L
624.063 38.524 L
624.45 38.524 L
624.838 38.524 L
625.225 38.524 L
625.612 38.524 L
626 38.524 L
626.388 38.524 L
626.775 38.524 L
627.162 38.524 L
627.55 38.524 L
627.938 38.524 L
628.325 38.524 L
628.713 38.524 L
629.1 38.524 L
629.487 38.524 L
629.875 38.524 L
630.263 38.524 L
630.65 38.524 L
631.037 38.524 L
631.425 38.524 L
631.813 38.524 L
632.2 38.524 L
632.588 38.524 L
632.975 38.524 L
633.362 38.524 L
633.75 38.524 L
634.138 38.524 L
634.525 38.524 L
634.912 38.524 L
635.3 38.524 L
635.688 38.524 L
636.075 38.524 L
636.463 38.524 L
636.85 38.524 L
637.237 38.524 L
637.625 38.524 L
638.013 38.524 L
638.4 38.524 L
638.787 38.524 L
639.175 38.524 L
639.563 38.524 L
639.95 38.524 L
640.338 38.524 L
640.725 38.524 L
641.112 38.524 L
641.5 38.524 L
641.888 38.524 L
642.275 38.524 L
642.662 38.524 L
643.05 38.524 L
643.438 38.524 L
643.825 38.524 L
644.213 38.524 L
644.6 38.524 L
644.987 38.524 L
645.375 38.524 L
645.763 38.524 L
646.15 38.524 L
646.537 38.524 L
646.925 38.524 L
647.313 38.524 L
647.7 38.524 L
648.088 38.524 L
648.475 38.524 L
648.862 38.524 L
649.25 38.524 L
649.638 38.524 L
650.025 38.524 L
650.412 38.524 L
650.8 38.524 L
651.188 38.524 L
651.575 38.524 L
651.963 38.524 L
652.35 38.524 L
652.737 38.524 L
653.125 38.524 L
653.513 38.524 L
653.9 38.524 L
654.287 38.524 L
654.675 38.524 L
655.063 38.524 L
655.45 38.524 L
655.838 38.524 L
656.225 38.524 L
656.612 38.524 L
657 38.524 L
657.388 38.524 L
657.775 38.524 L
658.162 38.524 L
658.55 38.524 L
658.938 38.524 L
659.325 38.524 L
659.713 38.524 L
660.1 38.524 L
660.487 38.524 L
660.875 38.524 L
661.263 38.524 L
661.65 38.524 L
662.037 38.524 L
662.425 38.524 L
662.813 38.524 L
663.2 38.524 L
663.588 38.524 L
663.975 38.524 L
664.362 38.524 L
664.75 38.524 L
665.138 38.524 L
665.525 38.524 L
665.912 38.524 L
666.3 38.524 L
666.688 38.524 L
667.075 38.524 L
667.463 38.524 L
667.85 38.524 L
668.237 38.524 L
668.625 38.524 L
669.013 38.524 L
669.4 38.524 L
669.787 38.524 L
670.175 38.524 L
670.563 38.524 L
670.95 38.524 L
671.338 38.524 L
671.725 38.524 L
672.112 38.524 L
672.5 38.524 L
672.888 38.524 L
673.275 38.524 L
673.662 38.524 L
674.05 38.524 L
674.438 38.524 L
674.825 38.524 L
675.213 38.524 L
675.6 38.524 L
675.987 38.524 L
676.375 38.524 L
676.763 38.524 L
677.15 38.524 L
677.537 38.524 L
677.925 38.524 L
678.313 38.524 L
678.7 38.524 L
679.088 38.524 L
679.475 38.524 L
679.862 38.524 L
680.25 38.524 L
680.638 38.524 L
681.025 38.524 L
681.412 38.524 L
681.8 38.524 L
682.188 38.524 L
682.575 38.524 L
682.963 38.524 L
683.35 38.524 L
683.737 38.524 L
684.125 38.524 L
684.513 38.524 L
684.9 38.524 L
685.287 38.524 L
685.675 38.524 L
686.063 38.524 L
686.45 38.524 L
686.838 38.524 L
687.225 38.524 L
687.612 38.524 L
688 38.524 L
688.388 38.524 L
688.775 38.524 L
689.162 38.524 L
689.55 38.524 L
689.938 38.524 L
690.325 38.524 L
690.713 38.524 L
691.1 38.524 L
691.487 38.524 L
691.875 38.524 L
692.263 38.524 L
692.65 38.524 L
693.037 38.524 L
693.425 38.524 L
693.813 38.524 L
694.2 38.524 L
694.588 38.524 L
694.975 38.524 L
695.362 38.524 L
695.75 38.524 L
696.138 38.524 L
696.525 38.524 L
696.912 38.524 L
697.3 38.524 L
697.688 38.524 L
698.075 38.524 L
698.463 38.524 L
698.85 38.524 L
699.237 38.524 L
699.625 38.524 L
700.013 38.524 L
700.4 38.524 L
700.787 38.524 L
701.175 38.524 L
701.563 38.524 L
701.95 38.524 L
702.338 38.524 L
702.725 38.524 L
703.112 38.524 L
703.5 38.524 L
703.888 38.524 L
704.275 38.524 L
704.662 38.524 L
705.05 38.524 L
705.438 38.524 L
705.825 38.524 L
706.213 38.524 L
706.6 38.524 L
706.987 38.524 L
707.375 38.524 L
707.763 38.524 L
708.15 38.524 L
708.537 38.524 L
708.925 38.524 L
709.313 38.524 L
709.7 38.524 L
710.088 38.524 L
710.475 38.524 L
710.862 38.524 L
711.25 38.524 L
711.638 38.524 L
712.025 38.524 L
712.412 38.524 L
712.8 38.524 L
713.188 38.524 L
713.575 38.524 L
713.963 38.524 L
714.35 38.524 L
714.737 38.524 L
715.125 38.524 L
715.513 38.524 L
715.9 38.524 L
716.287 38.524 L
716.675 38.524 L
717.063 38.524 L
717.45 38.524 L
717.838 38.524 L
718.225 38.524 L
718.612 38.524 L
719 38.524 L
719.388 38.524 L
719.775 38.524 L
720.162 38.524 L
720.55 38.524 L
720.938 38.524 L
721.325 38.524 L
721.713 38.524 L
722.1 38.524 L
722.487 38.524 L
722.875 38.524 L
723.263 38.524 L
723.65 38.524 L
724.037 38.524 L
724.425 38.524 L
724.813 38.524 L
725.2 38.524 L
725.588 38.524 L
725.975 38.524 L
726.362 38.524 L
726.75 38.524 L
727.138 38.524 L
727.525 38.524 L
727.912 38.524 L
728.3 38.524 L
728.688 38.524 L
729.075 38.524 L
729.463 38.524 L
729.85 38.524 L
730.237 38.524 L
730.625 38.524 L
731.013 38.524 L
731.4 38.524 L
731.787 38.524 L
732.175 38.524 L
732.563 38.524 L
732.95 38.524 L
733.338 38.524 L
733.725 38.524 L
734.112 38.524 L
734.5 38.524 L
734.888 38.524 L
735.275 38.524 L
735.662 38.524 L
736.05 38.524 L
736.438 38.524 L
736.825 38.524 L
737.213 38.524 L
737.6 38.524 L
737.987 38.524 L
738.375 38.524 L
738.763 38.524 L
739.15 38.524 L
739.537 38.524 L
739.925 38.524 L
740.313 38.524 L
740.7 38.524 L
741.088 38.524 L
741.475 38.524 L
741.862 38.524 L
742.25 38.524 L
742.638 38.524 L
743.025 38.524 L
743.412 38.524 L
743.8 38.524 L
744.188 38.524 L
744.575 38.524 L
744.963 38.524 L
745.35 38.524 L
745.737 38.524 L
746.125 38.524 L
746.513 38.524 L
746.9 38.524 L
747.287 38.524 L
747.675 38.524 L
748.063 38.524 L
748.45 38.524 L
748.838 38.524 L
749.225 38.524 L
749.612 38.524 L
750 38.524 L
750.388 38.524 L
750.775 38.524 L
751.162 38.524 L
751.55 38.524 L
751.938 38.524 L
752.325 38.524 L
752.713 38.524 L
753.1 38.524 L
753.487 38.524 L
753.875 38.524 L
754.263 38.524 L
754.65 38.524 L
755.037 38.524 L
755.425 38.524 L
755.813 38.524 L
756.2 38.524 L
756.588 38.524 L
756.975 38.524 L
757.362 38.524 L
757.75 38.524 L
758.138 38.524 L
758.525 38.524 L
758.912 38.524 L
759.3 38.524 L
759.688 38.524 L
760.075 38.524 L
760.463 38.524 L
760.85 38.524 L
761.237 38.524 L
761.625 38.524 L
762.013 38.524 L
762.4 38.524 L
762.787 38.524 L
763.175 38.524 L
763.563 38.524 L
763.95 38.524 L
764.338 38.524 L
764.725 38.524 L
765.112 38.524 L
765.5 38.524 L
765.888 38.524 L
766.275 38.524 L
766.662 38.524 L
767.05 38.524 L
767.438 38.524 L
767.825 38.524 L
768.213 38.524 L
768.6 38.524 L
768.987 38.524 L
769.375 38.524 L
769.763 38.524 L
770.15 38.524 L
770.537 38.524 L
770.925 38.524 L
771.313 38.524 L
771.7 38.524 L
772.088 38.524 L
772.475 38.524 L
772.862 38.524 L
773.25 38.524 L
773.638 38.524 L
774.025 38.524 L
774.412 38.524 L
774.8 38.524 L
775.188 38.524 L
775.575 38.524 L
775.963 38.524 L
776.35 38.524 L
776.737 38.524 L
777.125 38.524 L
777.513 38.524 L
777.9 38.524 L
778.287 38.524 L
778.675 38.524 L
779.063 38.524 L
779.45 38.524 L
779.838 38.524 L
780.225 38.524 L
780.612 38.524 L
781 38.524 L
781.388 38.524 L
781.775 38.524 L
782.162 38.524 L
782.55 38.524 L
782.938 38.524 L
783.325 38.524 L
783.713 38.524 L
784.1 38.524 L
784.487 38.524 L
784.875 38.524 L
785.263 38.524 L
785.65 38.524 L
786.037 38.524 L
786.425 38.524 L
786.813 38.524 L
787.2 38.524 L
787.588 38.524 L
787.975 38.524 L
788.362 38.524 L
788.75 38.524 L
789.138 38.524 L
789.525 38.524 L
789.912 38.524 L
790.3 38.524 L
790.688 38.524 L
791.075 38.524 L
791.463 38.524 L
791.85 38.524 L
792.237 38.524 L
792.625 38.524 L
793.013 38.524 L
793.4 38.524 L
793.787 38.524 L
794.175 38.524 L
794.563 38.524 L
794.95 38.524 L
795.338 38.524 L
795.725 38.524 L
796.112 38.524 L
796.5 38.524 L
796.888 38.524 L
797.275 38.524 L
797.662 38.524 L
798.05 38.524 L
798.438 38.524 L
798.825 38.524 L
799.213 38.524 L
799.6 38.524 L
799.987 38.524 L
800.375 38.524 L
800.763 38.524 L
801.15 38.524 L
801.537 38.524 L
801.925 38.524 L
802.313 38.555 L
802.7 38.555 L
803.088 38.555 L
803.475 38.555 L
803.862 38.555 L
804.25 38.555 L
804.638 38.555 L
805.025 38.555 L
805.412 38.555 L
805.8 38.555 L
806.188 38.555 L
806.575 38.555 L
806.963 38.555 L
807.35 38.555 L
807.737 38.555 L
808.125 38.555 L
808.513 38.555 L
808.9 38.555 L
809.287 38.555 L
809.675 38.555 L
810.063 38.555 L
810.45 38.555 L
810.838 38.555 L
811.225 38.555 L
811.612 38.555 L
812 38.555 L
812.388 38.555 L
812.775 38.555 L
813.162 38.555 L
813.55 38.555 L
813.938 38.555 L
814.325 38.555 L
814.713 38.555 L
815.1 38.555 L
815.487 38.555 L
815.875 38.555 L
816.263 38.555 L
816.65 38.555 L
817.037 38.555 L
817.425 38.555 L
817.813 38.555 L
818.2 38.555 L
818.588 38.555 L
818.975 38.555 L
819.362 38.555 L
819.75 38.555 L
820.138 38.555 L
820.525 38.555 L
820.912 38.555 L
821.3 38.555 L
821.688 38.555 L
822.075 38.524 L
822.463 38.524 L
822.85 38.524 L
823.237 38.524 L
823.625 38.524 L
824.013 38.524 L
824.4 38.524 L
824.787 38.524 L
825.175 38.524 L
825.563 38.524 L
825.95 38.524 L
826.338 38.524 L
826.725 38.524 L
827.112 38.524 L
827.5 38.524 L
827.888 38.524 L
828.275 38.524 L
828.662 38.524 L
829.05 38.524 L
829.438 38.524 L
829.825 38.524 L
830.213 38.524 L
830.6 38.524 L
830.987 38.524 L
831.375 38.524 L
831.763 38.524 L
832.15 38.524 L
832.537 38.524 L
832.925 38.524 L
833.313 38.524 L
833.7 38.524 L
834.088 38.524 L
834.475 38.524 L
834.862 38.524 L
835.25 38.524 L
835.638 38.524 L
836.025 38.524 L
836.412 38.524 L
836.8 38.524 L
837.188 38.524 L
837.575 38.524 L
837.963 38.524 L
838.35 38.524 L
838.737 38.524 L
839.125 38.524 L
839.513 38.524 L
839.9 38.524 L
840.287 38.524 L
840.675 38.524 L
841.063 38.524 L
841.45 38.524 L
841.838 38.524 L
842.225 38.524 L
842.612 38.524 L
843 38.524 L
843.388 38.524 L
843.775 38.524 L
844.162 38.524 L
844.55 38.524 L
844.938 38.524 L
845.325 38.524 L
845.713 38.524 L
846.1 38.524 L
846.487 38.524 L
846.875 38.524 L
847.263 38.524 L
847.65 38.524 L
848.037 38.524 L
848.425 38.524 L
848.813 38.524 L
849.2 38.524 L
849.588 38.524 L
849.975 38.524 L
850.362 38.524 L
850.75 38.524 L
851.138 38.524 L
851.525 38.524 L
851.912 38.524 L
852.3 38.524 L
852.688 38.524 L
853.075 38.524 L
853.463 38.524 L
853.85 38.524 L
854.237 38.524 L
854.625 38.524 L
855.013 38.524 L
855.4 38.524 L
855.787 38.524 L
856.175 38.524 L
856.563 38.524 L
856.95 38.524 L
857.338 38.524 L
857.725 38.524 L
858.112 38.524 L
858.5 38.524 L
858.888 38.524 L
859.275 38.524 L
859.662 38.524 L
860.05 38.524 L
860.438 38.524 L
860.825 38.524 L
861.213 38.524 L
861.6 38.524 L
861.987 38.524 L
862.375 38.524 L
862.763 38.524 L
863.15 38.524 L
863.537 38.524 L
863.925 38.524 L
864.313 38.524 L
864.7 38.524 L
865.088 38.524 L
865.475 38.524 L
865.862 38.524 L
866.25 38.524 L
866.638 38.524 L
867.025 38.524 L
867.412 38.524 L
867.8 38.524 L
868.188 38.524 L
868.575 38.524 L
868.963 38.524 L
869.35 38.524 L
869.737 38.524 L
870.125 38.524 L
870.513 38.524 L
870.9 38.524 L
871.287 38.524 L
871.675 38.524 L
872.063 38.524 L
872.45 38.524 L
872.838 38.524 L
873.225 38.524 L
873.612 38.524 L
874 38.524 L
874.388 38.524 L
874.775 38.524 L
875.162 38.524 L
875.55 38.524 L
875.938 38.524 L
876.325 38.524 L
876.713 38.524 L
877.1 38.524 L
877.487 38.524 L
877.875 38.524 L
878.263 38.524 L
878.65 38.524 L
879.037 38.524 L
879.425 38.524 L
879.813 38.524 L
880.2 38.524 L
880.588 38.524 L
880.975 38.524 L
881.362 38.524 L
881.75 38.524 L
882.138 38.524 L
882.525 38.524 L
882.912 38.524 L
883.3 38.524 L
883.688 38.524 L
884.075 38.524 L
884.463 38.524 L
884.85 38.524 L
885.237 38.524 L
885.625 38.524 L
886.013 38.524 L
886.4 38.524 L
886.787 38.524 L
887.175 38.524 L
887.563 38.524 L
887.95 38.524 L
888.338 38.524 L
888.725 38.524 L
889.112 38.524 L
889.5 38.524 L
889.888 38.524 L
890.275 38.524 L
890.662 38.524 L
891.05 38.524 L
891.438 38.524 L
891.825 38.524 L
892.213 38.524 L
892.6 38.524 L
892.987 38.524 L
893.375 38.524 L
893.763 38.524 L
894.15 38.524 L
894.537 38.524 L
894.925 38.524 L
895.313 38.524 L
895.7 38.524 L
896.088 38.524 L
896.475 38.524 L
896.862 38.524 L
897.25 38.524 L
897.638 38.524 L
898.025 38.524 L
898.412 38.524 L
898.8 38.524 L
899.188 38.524 L
899.575 38.524 L
899.963 38.524 L
900.35 38.524 L
900.737 38.524 L
901.125 38.524 L
901.513 38.524 L
901.9 38.524 L
902.287 38.524 L
902.675 38.524 L
903.063 38.524 L
903.45 38.524 L
903.838 38.524 L
904.225 38.524 L
904.612 38.524 L
905 38.524 L
S
GR
%%Trailer
%%Pages: 1
%%EOF
