%!PS-Adobe-3.0 EPSF-3.0
%%Creator: (MATLAB, The Mathworks, Inc. Version 9.0.0.341360 \(R2016a\). Operating System: Linux)
%%Title: report/figures/sm_base_mtgt_softmax2_ratio.eps
%%CreationDate: 2017-02-04T23:56:36
%%Pages: (atend)
%%BoundingBox:    59     4   910   325
%%LanguageLevel: 3
%%EndComments
%%BeginProlog
%%BeginResource: procset (Apache XML Graphics Std ProcSet) 1.2 0
%%Version: 1.2 0
%%Copyright: (Copyright 2001-2003,2010 The Apache Software Foundation. License terms: http://www.apache.org/licenses/LICENSE-2.0)
/bd{bind def}bind def
/ld{load def}bd
/GR/grestore ld
/M/moveto ld
/LJ/setlinejoin ld
/C/curveto ld
/f/fill ld
/LW/setlinewidth ld
/GC/setgray ld
/t/show ld
/N/newpath ld
/CT/concat ld
/cp/closepath ld
/S/stroke ld
/L/lineto ld
/CC/setcmykcolor ld
/A/ashow ld
/GS/gsave ld
/RC/setrgbcolor ld
/RM/rmoveto ld
/ML/setmiterlimit ld
/re {4 2 roll M
1 index 0 rlineto
0 exch rlineto
neg 0 rlineto
cp } bd
/_ctm matrix def
/_tm matrix def
/BT { _ctm currentmatrix pop matrix _tm copy pop 0 0 moveto } bd
/ET { _ctm setmatrix } bd
/iTm { _ctm setmatrix _tm concat } bd
/Tm { _tm astore pop iTm 0 0 moveto } bd
/ux 0.0 def
/uy 0.0 def
/F {
  /Tp exch def
  /Tf exch def
  Tf findfont Tp scalefont setfont
  /cf Tf def  /cs Tp def
} bd
/ULS {currentpoint /uy exch def /ux exch def} bd
/ULE {
  /Tcx currentpoint pop def
  gsave
  newpath
  cf findfont cs scalefont dup
  /FontMatrix get 0 get /Ts exch def /FontInfo get dup
  /UnderlinePosition get Ts mul /To exch def
  /UnderlineThickness get Ts mul /Tt exch def
  ux uy To add moveto  Tcx uy To add lineto
  Tt setlinewidth stroke
  grestore
} bd
/OLE {
  /Tcx currentpoint pop def
  gsave
  newpath
  cf findfont cs scalefont dup
  /FontMatrix get 0 get /Ts exch def /FontInfo get dup
  /UnderlinePosition get Ts mul /To exch def
  /UnderlineThickness get Ts mul /Tt exch def
  ux uy To add cs add moveto Tcx uy To add cs add lineto
  Tt setlinewidth stroke
  grestore
} bd
/SOE {
  /Tcx currentpoint pop def
  gsave
  newpath
  cf findfont cs scalefont dup
  /FontMatrix get 0 get /Ts exch def /FontInfo get dup
  /UnderlinePosition get Ts mul /To exch def
  /UnderlineThickness get Ts mul /Tt exch def
  ux uy To add cs 10 mul 26 idiv add moveto Tcx uy To add cs 10 mul 26 idiv add lineto
  Tt setlinewidth stroke
  grestore
} bd
/QT {
/Y22 exch store
/X22 exch store
/Y21 exch store
/X21 exch store
currentpoint
/Y21 load 2 mul add 3 div exch
/X21 load 2 mul add 3 div exch
/X21 load 2 mul /X22 load add 3 div
/Y21 load 2 mul /Y22 load add 3 div
/X22 load /Y22 load curveto
} bd
/SSPD {
dup length /d exch dict def
{
/v exch def
/k exch def
currentpagedevice k known {
/cpdv currentpagedevice k get def
v cpdv ne {
/upd false def
/nullv v type /nulltype eq def
/nullcpdv cpdv type /nulltype eq def
nullv nullcpdv or
{
/upd true def
} {
/sametype v type cpdv type eq def
sametype {
v type /arraytype eq {
/vlen v length def
/cpdvlen cpdv length def
vlen cpdvlen eq {
0 1 vlen 1 sub {
/i exch def
/obj v i get def
/cpdobj cpdv i get def
obj cpdobj ne {
/upd true def
exit
} if
} for
} {
/upd true def
} ifelse
} {
v type /dicttype eq {
v {
/dv exch def
/dk exch def
/cpddv cpdv dk get def
dv cpddv ne {
/upd true def
exit
} if
} forall
} {
/upd true def
} ifelse
} ifelse
} if
} ifelse
upd true eq {
d k v put
} if
} if
} if
} forall
d length 0 gt {
d setpagedevice
} if
} bd
%%EndResource
%%BeginResource: procset (Apache XML Graphics EPS ProcSet) 1.0 0
%%Version: 1.0 0
%%Copyright: (Copyright 2002-2003 The Apache Software Foundation. License terms: http://www.apache.org/licenses/LICENSE-2.0)
/BeginEPSF { %def
/b4_Inc_state save def         % Save state for cleanup
/dict_count countdictstack def % Count objects on dict stack
/op_count count 1 sub def      % Count objects on operand stack
userdict begin                 % Push userdict on dict stack
/showpage { } def              % Redefine showpage, { } = null proc
0 setgray 0 setlinecap         % Prepare graphics state
1 setlinewidth 0 setlinejoin
10 setmiterlimit [ ] 0 setdash newpath
/languagelevel where           % If level not equal to 1 then
{pop languagelevel             % set strokeadjust and
1 ne                           % overprint to their defaults.
{false setstrokeadjust false setoverprint
} if
} if
} bd
/EndEPSF { %def
count op_count sub {pop} repeat            % Clean up stacks
countdictstack dict_count sub {end} repeat
b4_Inc_state restore
} bd
%%EndResource
%%EndProlog
%%Page: 1 1
%%PageBoundingBox: 0 0 1000 350
%%BeginPageSetup
[1 0 0 -1 0 350] CT
%%EndPageSetup
GS
1 GC
N
0 0 1000 350 re
f
GR
GS
1 GC
N
0 0 1000 350 re
f
GR
GS
1 GC
N
130 289 M
905 289 L
905 26 L
130 26 L
cp
f
GR
GS
0.873 GC
1 LJ
0.5 LW
N
130 289 M
130 26 L
S
GR
GS
0.873 GC
1 LJ
0.5 LW
N
323.75 289 M
323.75 26 L
S
GR
GS
0.873 GC
1 LJ
0.5 LW
N
517.5 289 M
517.5 26 L
S
GR
GS
0.873 GC
1 LJ
0.5 LW
N
711.25 289 M
711.25 26 L
S
GR
GS
0.873 GC
1 LJ
0.5 LW
N
905 289 M
905 26 L
S
GR
GS
0.873 GC
1 LJ
0.5 LW
N
905 289 M
130 289 L
S
GR
GS
0.873 GC
1 LJ
0.5 LW
N
905 238.905 M
130 238.905 L
S
GR
GS
0.873 GC
1 LJ
0.5 LW
N
905 188.81 M
130 188.81 L
S
GR
GS
0.873 GC
1 LJ
0.5 LW
N
905 138.714 M
130 138.714 L
S
GR
GS
0.873 GC
1 LJ
0.5 LW
N
905 88.619 M
130 88.619 L
S
GR
GS
0.873 GC
1 LJ
0.5 LW
N
905 38.524 M
130 38.524 L
S
GR
GS
0.149 GC
2 setlinecap
1 LJ
0.5 LW
N
130 289 M
905 289 L
S
GR
GS
0.149 GC
2 setlinecap
1 LJ
0.5 LW
N
130 289 M
130 281.25 L
S
GR
GS
0.149 GC
2 setlinecap
1 LJ
0.5 LW
N
323.75 289 M
323.75 281.25 L
S
GR
GS
0.149 GC
2 setlinecap
1 LJ
0.5 LW
N
517.5 289 M
517.5 281.25 L
S
GR
GS
0.149 GC
2 setlinecap
1 LJ
0.5 LW
N
711.25 289 M
711.25 281.25 L
S
GR
GS
0.149 GC
2 setlinecap
1 LJ
0.5 LW
N
905 289 M
905 281.25 L
S
GR
GS
[1 0 0 1 130 295] CT
0.149 GC
N
-0.141 5.719 M
-1.672 5.719 -2.438 7.219 QT
-3.203 8.719 -3.203 11.719 QT
-3.203 14.719 -2.438 16.219 QT
-1.672 17.719 -0.141 17.719 QT
1.391 17.719 2.156 16.219 QT
2.922 14.719 2.922 11.719 QT
2.922 8.719 2.156 7.219 QT
1.391 5.719 -0.141 5.719 QT
cp
-0.141 4.156 M
2.313 4.156 3.602 6.094 QT
4.891 8.031 4.891 11.719 QT
4.891 15.406 3.602 17.344 QT
2.313 19.281 -0.141 19.281 QT
-2.594 19.281 -3.891 17.344 QT
-5.188 15.406 -5.188 11.719 QT
-5.188 8.031 -3.891 6.094 QT
-2.594 4.156 -0.141 4.156 QT
cp
f
GR
GS
[1 0 0 1 323.75 295] CT
0.149 GC
N
-9.641 5.719 M
-11.172 5.719 -11.938 7.219 QT
-12.703 8.719 -12.703 11.719 QT
-12.703 14.719 -11.938 16.219 QT
-11.172 17.719 -9.641 17.719 QT
-8.109 17.719 -7.344 16.219 QT
-6.578 14.719 -6.578 11.719 QT
-6.578 8.719 -7.344 7.219 QT
-8.109 5.719 -9.641 5.719 QT
cp
-9.641 4.156 M
-7.188 4.156 -5.898 6.094 QT
-4.609 8.031 -4.609 11.719 QT
-4.609 15.406 -5.898 17.344 QT
-7.188 19.281 -9.641 19.281 QT
-12.094 19.281 -13.391 17.344 QT
-14.688 15.406 -14.688 11.719 QT
-14.688 8.031 -13.391 6.094 QT
-12.094 4.156 -9.641 4.156 QT
cp
-1.135 16.516 M
0.928 16.516 L
0.928 19 L
-1.135 19 L
-1.135 16.516 L
cp
5.238 4.422 M
12.988 4.422 L
12.988 6.078 L
7.051 6.078 L
7.051 9.656 L
7.473 9.5 7.902 9.43 QT
8.332 9.359 8.77 9.359 QT
11.207 9.359 12.637 10.695 QT
14.066 12.031 14.066 14.328 QT
14.066 16.672 12.598 17.977 QT
11.129 19.281 8.457 19.281 QT
7.551 19.281 6.598 19.125 QT
5.645 18.969 4.629 18.656 QT
4.629 16.672 L
5.504 17.156 6.441 17.391 QT
7.379 17.625 8.426 17.625 QT
10.113 17.625 11.098 16.734 QT
12.082 15.844 12.082 14.328 QT
12.082 12.797 11.098 11.906 QT
10.113 11.016 8.426 11.016 QT
7.629 11.016 6.848 11.195 QT
6.066 11.375 5.238 11.75 QT
5.238 4.422 L
cp
f
GR
GS
[1 0 0 1 517.5 295] CT
0.149 GC
N
-4.016 17.344 M
-0.797 17.344 L
-0.797 6.219 L
-4.297 6.922 L
-4.297 5.125 L
-0.813 4.422 L
1.156 4.422 L
1.156 17.344 L
4.375 17.344 L
4.375 19 L
-4.016 19 L
-4.016 17.344 L
cp
f
GR
GS
[1 0 0 1 711.25 295] CT
0.149 GC
N
-13.516 17.344 M
-10.297 17.344 L
-10.297 6.219 L
-13.797 6.922 L
-13.797 5.125 L
-10.313 4.422 L
-8.344 4.422 L
-8.344 17.344 L
-5.125 17.344 L
-5.125 19 L
-13.516 19 L
-13.516 17.344 L
cp
-1.135 16.516 M
0.928 16.516 L
0.928 19 L
-1.135 19 L
-1.135 16.516 L
cp
5.238 4.422 M
12.988 4.422 L
12.988 6.078 L
7.051 6.078 L
7.051 9.656 L
7.473 9.5 7.902 9.43 QT
8.332 9.359 8.77 9.359 QT
11.207 9.359 12.637 10.695 QT
14.066 12.031 14.066 14.328 QT
14.066 16.672 12.598 17.977 QT
11.129 19.281 8.457 19.281 QT
7.551 19.281 6.598 19.125 QT
5.645 18.969 4.629 18.656 QT
4.629 16.672 L
5.504 17.156 6.441 17.391 QT
7.379 17.625 8.426 17.625 QT
10.113 17.625 11.098 16.734 QT
12.082 15.844 12.082 14.328 QT
12.082 12.797 11.098 11.906 QT
10.113 11.016 8.426 11.016 QT
7.629 11.016 6.848 11.195 QT
6.066 11.375 5.238 11.75 QT
5.238 4.422 L
cp
f
GR
GS
[1 0 0 1 905 295] CT
0.149 GC
N
-2.656 17.344 M
4.219 17.344 L
4.219 19 L
-5.031 19 L
-5.031 17.344 L
-3.906 16.172 -1.969 14.219 QT
-0.031 12.266 0.469 11.688 QT
1.406 10.625 1.781 9.891 QT
2.156 9.156 2.156 8.438 QT
2.156 7.281 1.344 6.547 QT
0.531 5.813 -0.781 5.813 QT
-1.703 5.813 -2.734 6.133 QT
-3.766 6.453 -4.938 7.109 QT
-4.938 5.125 L
-3.75 4.641 -2.711 4.398 QT
-1.672 4.156 -0.813 4.156 QT
1.453 4.156 2.797 5.289 QT
4.141 6.422 4.141 8.313 QT
4.141 9.219 3.805 10.023 QT
3.469 10.828 2.578 11.922 QT
2.344 12.203 1.031 13.555 QT
-0.281 14.906 -2.656 17.344 QT
cp
f
GR
GS
[1 0 0 1 517.50037 320] CT
0.149 GC
N
-14.25 9.328 M
-14.25 11.188 L
-15.094 10.766 -16 10.547 QT
-16.906 10.328 -17.859 10.328 QT
-19.344 10.328 -20.078 10.781 QT
-20.813 11.234 -20.813 12.141 QT
-20.813 12.828 -20.281 13.219 QT
-19.75 13.609 -18.172 13.969 QT
-17.484 14.109 L
-15.391 14.563 -14.5 15.383 QT
-13.609 16.203 -13.609 17.688 QT
-13.609 19.359 -14.938 20.336 QT
-16.266 21.313 -18.578 21.313 QT
-19.547 21.313 -20.594 21.125 QT
-21.641 20.938 -22.813 20.563 QT
-22.813 18.516 L
-21.719 19.094 -20.648 19.375 QT
-19.578 19.656 -18.547 19.656 QT
-17.141 19.656 -16.391 19.18 QT
-15.641 18.703 -15.641 17.828 QT
-15.641 17.031 -16.188 16.602 QT
-16.734 16.172 -18.563 15.766 QT
-19.25 15.609 L
-21.094 15.219 -21.906 14.422 QT
-22.719 13.625 -22.719 12.219 QT
-22.719 10.531 -21.516 9.602 QT
-20.313 8.672 -18.109 8.672 QT
-17 8.672 -16.039 8.836 QT
-15.078 9 -14.25 9.328 QT
cp
-8.507 5.547 M
-8.507 8.969 L
-4.444 8.969 L
-4.444 10.5 L
-8.507 10.5 L
-8.507 17.031 L
-8.507 18.5 -8.108 18.922 QT
-7.71 19.344 -6.476 19.344 QT
-4.444 19.344 L
-4.444 21 L
-6.476 21 L
-8.757 21 -9.624 20.148 QT
-10.491 19.297 -10.491 17.031 QT
-10.491 10.5 L
-11.944 10.5 L
-11.944 8.969 L
-10.491 8.969 L
-10.491 5.547 L
-8.507 5.547 L
cp
8.447 14.484 M
8.447 15.453 L
-0.631 15.453 L
-0.506 17.5 0.596 18.57 QT
1.697 19.641 3.666 19.641 QT
4.807 19.641 5.869 19.359 QT
6.932 19.078 7.994 18.516 QT
7.994 20.391 L
6.932 20.844 5.814 21.078 QT
4.697 21.313 3.541 21.313 QT
0.666 21.313 -1.014 19.633 QT
-2.693 17.953 -2.693 15.109 QT
-2.693 12.141 -1.1 10.406 QT
0.494 8.672 3.197 8.672 QT
5.635 8.672 7.041 10.234 QT
8.447 11.797 8.447 14.484 QT
cp
6.479 13.906 M
6.447 12.281 5.564 11.32 QT
4.682 10.359 3.229 10.359 QT
1.572 10.359 0.572 11.289 QT
-0.428 12.219 -0.568 13.922 QT
6.479 13.906 L
cp
13.607 19.188 M
13.607 25.578 L
11.623 25.578 L
11.623 8.969 L
13.607 8.969 L
13.607 10.797 L
14.232 9.719 15.186 9.195 QT
16.139 8.672 17.451 8.672 QT
19.639 8.672 21.014 10.414 QT
22.389 12.156 22.389 15 QT
22.389 17.828 21.014 19.57 QT
19.639 21.313 17.451 21.313 QT
16.139 21.313 15.186 20.789 QT
14.232 20.266 13.607 19.188 QT
cp
20.326 15 M
20.326 12.813 19.436 11.57 QT
18.545 10.328 16.967 10.328 QT
15.404 10.328 14.506 11.57 QT
13.607 12.813 13.607 15 QT
13.607 17.172 14.506 18.414 QT
15.404 19.656 16.967 19.656 QT
18.545 19.656 19.436 18.414 QT
20.326 17.172 20.326 15 QT
cp
f
GR
GS
[1 0 0 1 852 345] CT
0.149 GC
N
2.938 -0.578 M
2.938 -0.734 3.031 -0.859 QT
7.203 -5 L
3.031 -9.156 L
2.938 -9.266 2.938 -9.422 QT
2.938 -9.578 3.055 -9.703 QT
3.172 -9.828 3.344 -9.828 QT
3.484 -9.828 3.641 -9.703 QT
7.781 -5.563 L
11.906 -9.703 L
12.078 -9.828 12.203 -9.828 QT
12.359 -9.828 12.477 -9.711 QT
12.594 -9.594 12.594 -9.422 QT
12.594 -9.266 12.5 -9.156 QT
8.344 -5 L
12.5 -0.859 L
12.594 -0.734 12.594 -0.578 QT
12.594 -0.406 12.477 -0.289 QT
12.359 -0.172 12.203 -0.172 QT
12.047 -0.172 11.906 -0.328 QT
7.781 -4.438 L
3.641 -0.328 L
3.5 -0.172 3.344 -0.172 QT
3.172 -0.172 3.055 -0.305 QT
2.938 -0.438 2.938 -0.578 QT
cp
f
GR
GS
[1 0 0 1 868 345] CT
0.149 GC
N
2.484 -1.656 M
5.703 -1.656 L
5.703 -12.781 L
2.203 -12.078 L
2.203 -13.875 L
5.688 -14.578 L
7.656 -14.578 L
7.656 -1.656 L
10.875 -1.656 L
10.875 0 L
2.484 0 L
2.484 -1.656 L
cp
19.084 -13.281 M
17.553 -13.281 16.787 -11.781 QT
16.021 -10.281 16.021 -7.281 QT
16.021 -4.281 16.787 -2.781 QT
17.553 -1.281 19.084 -1.281 QT
20.615 -1.281 21.381 -2.781 QT
22.146 -4.281 22.146 -7.281 QT
22.146 -10.281 21.381 -11.781 QT
20.615 -13.281 19.084 -13.281 QT
cp
19.084 -14.844 M
21.537 -14.844 22.826 -12.906 QT
24.115 -10.969 24.115 -7.281 QT
24.115 -3.594 22.826 -1.656 QT
21.537 0.281 19.084 0.281 QT
16.631 0.281 15.334 -1.656 QT
14.037 -3.594 14.037 -7.281 QT
14.037 -10.969 15.334 -12.906 QT
16.631 -14.844 19.084 -14.844 QT
cp
f
GR
GS
[1 0 0 1 894 335] CT
0.149 GC
N
5.281 -6.469 M
4.219 -6.469 3.602 -5.742 QT
2.984 -5.016 2.984 -3.75 QT
2.984 -2.484 3.602 -1.758 QT
4.219 -1.031 5.281 -1.031 QT
6.344 -1.031 6.969 -1.758 QT
7.594 -2.484 7.594 -3.75 QT
7.594 -5.016 6.969 -5.742 QT
6.344 -6.469 5.281 -6.469 QT
cp
8.422 -11.406 M
8.422 -9.969 L
7.828 -10.25 7.219 -10.398 QT
6.609 -10.547 6.016 -10.547 QT
4.453 -10.547 3.633 -9.492 QT
2.813 -8.438 2.688 -6.313 QT
3.156 -6.984 3.852 -7.352 QT
4.547 -7.719 5.375 -7.719 QT
7.141 -7.719 8.156 -6.648 QT
9.172 -5.578 9.172 -3.75 QT
9.172 -1.953 8.109 -0.859 QT
7.047 0.234 5.281 0.234 QT
3.266 0.234 2.195 -1.32 QT
1.125 -2.875 1.125 -5.828 QT
1.125 -8.594 2.438 -10.234 QT
3.75 -11.875 5.953 -11.875 QT
6.547 -11.875 7.156 -11.758 QT
7.766 -11.641 8.422 -11.406 QT
cp
f
GR
GS
0.149 GC
2 setlinecap
1 LJ
0.5 LW
N
130 289 M
130 26 L
S
GR
GS
0.149 GC
2 setlinecap
1 LJ
0.5 LW
N
130 289 M
137.75 289 L
S
GR
GS
0.149 GC
2 setlinecap
1 LJ
0.5 LW
N
130 238.905 M
137.75 238.905 L
S
GR
GS
0.149 GC
2 setlinecap
1 LJ
0.5 LW
N
130 188.81 M
137.75 188.81 L
S
GR
GS
0.149 GC
2 setlinecap
1 LJ
0.5 LW
N
130 138.714 M
137.75 138.714 L
S
GR
GS
0.149 GC
2 setlinecap
1 LJ
0.5 LW
N
130 88.619 M
137.75 88.619 L
S
GR
GS
0.149 GC
2 setlinecap
1 LJ
0.5 LW
N
130 38.524 M
137.75 38.524 L
S
GR
GS
[1 0 0 1 124 289] CT
0.149 GC
N
-6.641 -6.281 M
-8.172 -6.281 -8.938 -4.781 QT
-9.703 -3.281 -9.703 -0.281 QT
-9.703 2.719 -8.938 4.219 QT
-8.172 5.719 -6.641 5.719 QT
-5.109 5.719 -4.344 4.219 QT
-3.578 2.719 -3.578 -0.281 QT
-3.578 -3.281 -4.344 -4.781 QT
-5.109 -6.281 -6.641 -6.281 QT
cp
-6.641 -7.844 M
-4.188 -7.844 -2.898 -5.906 QT
-1.609 -3.969 -1.609 -0.281 QT
-1.609 3.406 -2.898 5.344 QT
-4.188 7.281 -6.641 7.281 QT
-9.094 7.281 -10.391 5.344 QT
-11.688 3.406 -11.688 -0.281 QT
-11.688 -3.969 -10.391 -5.906 QT
-9.094 -7.844 -6.641 -7.844 QT
cp
f
GR
GS
[1 0 0 1 124 238.90475] CT
0.149 GC
N
-22.156 5.344 M
-15.281 5.344 L
-15.281 7 L
-24.531 7 L
-24.531 5.344 L
-23.406 4.172 -21.469 2.219 QT
-19.531 0.266 -19.031 -0.313 QT
-18.094 -1.375 -17.719 -2.109 QT
-17.344 -2.844 -17.344 -3.563 QT
-17.344 -4.719 -18.156 -5.453 QT
-18.969 -6.188 -20.281 -6.188 QT
-21.203 -6.188 -22.234 -5.867 QT
-23.266 -5.547 -24.438 -4.891 QT
-24.438 -6.875 L
-23.25 -7.359 -22.211 -7.602 QT
-21.172 -7.844 -20.313 -7.844 QT
-18.047 -7.844 -16.703 -6.711 QT
-15.359 -5.578 -15.359 -3.688 QT
-15.359 -2.781 -15.695 -1.977 QT
-16.031 -1.172 -16.922 -0.078 QT
-17.156 0.203 -18.469 1.555 QT
-19.781 2.906 -22.156 5.344 QT
cp
-6.916 -6.281 M
-8.447 -6.281 -9.213 -4.781 QT
-9.979 -3.281 -9.979 -0.281 QT
-9.979 2.719 -9.213 4.219 QT
-8.447 5.719 -6.916 5.719 QT
-5.385 5.719 -4.619 4.219 QT
-3.854 2.719 -3.854 -0.281 QT
-3.854 -3.281 -4.619 -4.781 QT
-5.385 -6.281 -6.916 -6.281 QT
cp
-6.916 -7.844 M
-4.463 -7.844 -3.174 -5.906 QT
-1.885 -3.969 -1.885 -0.281 QT
-1.885 3.406 -3.174 5.344 QT
-4.463 7.281 -6.916 7.281 QT
-9.369 7.281 -10.666 5.344 QT
-11.963 3.406 -11.963 -0.281 QT
-11.963 -3.969 -10.666 -5.906 QT
-9.369 -7.844 -6.916 -7.844 QT
cp
f
GR
GS
[1 0 0 1 124 188.80952] CT
0.149 GC
N
-18.438 -5.859 M
-23.422 1.922 L
-18.438 1.922 L
-18.438 -5.859 L
cp
-18.953 -7.578 M
-16.484 -7.578 L
-16.484 1.922 L
-14.391 1.922 L
-14.391 3.563 L
-16.484 3.563 L
-16.484 7 L
-18.438 7 L
-18.438 3.563 L
-25.016 3.563 L
-25.016 1.656 L
-18.953 -7.578 L
cp
-6.916 -6.281 M
-8.447 -6.281 -9.213 -4.781 QT
-9.979 -3.281 -9.979 -0.281 QT
-9.979 2.719 -9.213 4.219 QT
-8.447 5.719 -6.916 5.719 QT
-5.385 5.719 -4.619 4.219 QT
-3.854 2.719 -3.854 -0.281 QT
-3.854 -3.281 -4.619 -4.781 QT
-5.385 -6.281 -6.916 -6.281 QT
cp
-6.916 -7.844 M
-4.463 -7.844 -3.174 -5.906 QT
-1.885 -3.969 -1.885 -0.281 QT
-1.885 3.406 -3.174 5.344 QT
-4.463 7.281 -6.916 7.281 QT
-9.369 7.281 -10.666 5.344 QT
-11.963 3.406 -11.963 -0.281 QT
-11.963 -3.969 -10.666 -5.906 QT
-9.369 -7.844 -6.916 -7.844 QT
cp
f
GR
GS
[1 0 0 1 124 138.71428] CT
0.149 GC
N
-19.391 -1.078 M
-20.719 -1.078 -21.5 -0.172 QT
-22.281 0.734 -22.281 2.328 QT
-22.281 3.891 -21.5 4.805 QT
-20.719 5.719 -19.391 5.719 QT
-18.063 5.719 -17.289 4.805 QT
-16.516 3.891 -16.516 2.328 QT
-16.516 0.734 -17.289 -0.172 QT
-18.063 -1.078 -19.391 -1.078 QT
cp
-15.484 -7.266 M
-15.484 -5.469 L
-16.219 -5.813 -16.977 -6 QT
-17.734 -6.188 -18.484 -6.188 QT
-20.438 -6.188 -21.469 -4.867 QT
-22.5 -3.547 -22.641 -0.875 QT
-22.063 -1.734 -21.195 -2.188 QT
-20.328 -2.641 -19.281 -2.641 QT
-17.078 -2.641 -15.805 -1.305 QT
-14.531 0.031 -14.531 2.328 QT
-14.531 4.563 -15.859 5.922 QT
-17.188 7.281 -19.391 7.281 QT
-21.922 7.281 -23.266 5.344 QT
-24.609 3.406 -24.609 -0.281 QT
-24.609 -3.734 -22.969 -5.789 QT
-21.328 -7.844 -18.563 -7.844 QT
-17.813 -7.844 -17.055 -7.695 QT
-16.297 -7.547 -15.484 -7.266 QT
cp
-6.916 -6.281 M
-8.447 -6.281 -9.213 -4.781 QT
-9.979 -3.281 -9.979 -0.281 QT
-9.979 2.719 -9.213 4.219 QT
-8.447 5.719 -6.916 5.719 QT
-5.385 5.719 -4.619 4.219 QT
-3.854 2.719 -3.854 -0.281 QT
-3.854 -3.281 -4.619 -4.781 QT
-5.385 -6.281 -6.916 -6.281 QT
cp
-6.916 -7.844 M
-4.463 -7.844 -3.174 -5.906 QT
-1.885 -3.969 -1.885 -0.281 QT
-1.885 3.406 -3.174 5.344 QT
-4.463 7.281 -6.916 7.281 QT
-9.369 7.281 -10.666 5.344 QT
-11.963 3.406 -11.963 -0.281 QT
-11.963 -3.969 -10.666 -5.906 QT
-9.369 -7.844 -6.916 -7.844 QT
cp
f
GR
GS
[1 0 0 1 124 88.61905] CT
0.149 GC
N
-19.641 0.078 M
-21.047 0.078 -21.852 0.828 QT
-22.656 1.578 -22.656 2.891 QT
-22.656 4.219 -21.852 4.969 QT
-21.047 5.719 -19.641 5.719 QT
-18.234 5.719 -17.422 4.961 QT
-16.609 4.203 -16.609 2.891 QT
-16.609 1.578 -17.414 0.828 QT
-18.219 0.078 -19.641 0.078 QT
cp
-21.609 -0.766 M
-22.891 -1.078 -23.594 -1.945 QT
-24.297 -2.813 -24.297 -4.063 QT
-24.297 -5.813 -23.055 -6.828 QT
-21.813 -7.844 -19.641 -7.844 QT
-17.469 -7.844 -16.227 -6.828 QT
-14.984 -5.813 -14.984 -4.063 QT
-14.984 -2.813 -15.695 -1.945 QT
-16.406 -1.078 -17.656 -0.766 QT
-16.234 -0.438 -15.438 0.531 QT
-14.641 1.5 -14.641 2.891 QT
-14.641 5.016 -15.938 6.148 QT
-17.234 7.281 -19.641 7.281 QT
-22.047 7.281 -23.344 6.148 QT
-24.641 5.016 -24.641 2.891 QT
-24.641 1.5 -23.844 0.531 QT
-23.047 -0.438 -21.609 -0.766 QT
cp
-22.344 -3.875 M
-22.344 -2.75 -21.633 -2.117 QT
-20.922 -1.484 -19.641 -1.484 QT
-18.375 -1.484 -17.656 -2.117 QT
-16.938 -2.75 -16.938 -3.875 QT
-16.938 -5.016 -17.656 -5.648 QT
-18.375 -6.281 -19.641 -6.281 QT
-20.922 -6.281 -21.633 -5.648 QT
-22.344 -5.016 -22.344 -3.875 QT
cp
-6.916 -6.281 M
-8.447 -6.281 -9.213 -4.781 QT
-9.979 -3.281 -9.979 -0.281 QT
-9.979 2.719 -9.213 4.219 QT
-8.447 5.719 -6.916 5.719 QT
-5.385 5.719 -4.619 4.219 QT
-3.854 2.719 -3.854 -0.281 QT
-3.854 -3.281 -4.619 -4.781 QT
-5.385 -6.281 -6.916 -6.281 QT
cp
-6.916 -7.844 M
-4.463 -7.844 -3.174 -5.906 QT
-1.885 -3.969 -1.885 -0.281 QT
-1.885 3.406 -3.174 5.344 QT
-4.463 7.281 -6.916 7.281 QT
-9.369 7.281 -10.666 5.344 QT
-11.963 3.406 -11.963 -0.281 QT
-11.963 -3.969 -10.666 -5.906 QT
-9.369 -7.844 -6.916 -7.844 QT
cp
f
GR
GS
[1 0 0 1 124 38.52381] CT
0.149 GC
N
-36.516 5.344 M
-33.297 5.344 L
-33.297 -5.781 L
-36.797 -5.078 L
-36.797 -6.875 L
-33.313 -7.578 L
-31.344 -7.578 L
-31.344 5.344 L
-28.125 5.344 L
-28.125 7 L
-36.516 7 L
-36.516 5.344 L
cp
-19.916 -6.281 M
-21.447 -6.281 -22.213 -4.781 QT
-22.979 -3.281 -22.979 -0.281 QT
-22.979 2.719 -22.213 4.219 QT
-21.447 5.719 -19.916 5.719 QT
-18.385 5.719 -17.619 4.219 QT
-16.854 2.719 -16.854 -0.281 QT
-16.854 -3.281 -17.619 -4.781 QT
-18.385 -6.281 -19.916 -6.281 QT
cp
-19.916 -7.844 M
-17.463 -7.844 -16.174 -5.906 QT
-14.885 -3.969 -14.885 -0.281 QT
-14.885 3.406 -16.174 5.344 QT
-17.463 7.281 -19.916 7.281 QT
-22.369 7.281 -23.666 5.344 QT
-24.963 3.406 -24.963 -0.281 QT
-24.963 -3.969 -23.666 -5.906 QT
-22.369 -7.844 -19.916 -7.844 QT
cp
-7.191 -6.281 M
-8.723 -6.281 -9.488 -4.781 QT
-10.254 -3.281 -10.254 -0.281 QT
-10.254 2.719 -9.488 4.219 QT
-8.723 5.719 -7.191 5.719 QT
-5.66 5.719 -4.895 4.219 QT
-4.129 2.719 -4.129 -0.281 QT
-4.129 -3.281 -4.895 -4.781 QT
-5.66 -6.281 -7.191 -6.281 QT
cp
-7.191 -7.844 M
-4.738 -7.844 -3.449 -5.906 QT
-2.16 -3.969 -2.16 -0.281 QT
-2.16 3.406 -3.449 5.344 QT
-4.738 7.281 -7.191 7.281 QT
-9.645 7.281 -10.941 5.344 QT
-12.238 3.406 -12.238 -0.281 QT
-12.238 -3.969 -10.941 -5.906 QT
-9.645 -7.844 -7.191 -7.844 QT
cp
f
GR
GS
[0 -1 1 0 82 157.49988] CT
0.149 GC
N
-113.063 -22.031 M
-99.5 -22.031 L
-99.5 -20.219 L
-105.188 -20.219 L
-105.188 -6 L
-107.375 -6 L
-107.375 -20.219 L
-113.063 -20.219 L
-113.063 -22.031 L
cp
-92.015 -12.047 M
-94.421 -12.047 -95.343 -11.5 QT
-96.265 -10.953 -96.265 -9.625 QT
-96.265 -8.578 -95.569 -7.961 QT
-94.874 -7.344 -93.687 -7.344 QT
-92.046 -7.344 -91.054 -8.508 QT
-90.062 -9.672 -90.062 -11.609 QT
-90.062 -12.047 L
-92.015 -12.047 L
cp
-88.077 -12.859 M
-88.077 -6 L
-90.062 -6 L
-90.062 -7.828 L
-90.733 -6.734 -91.741 -6.211 QT
-92.749 -5.688 -94.218 -5.688 QT
-96.062 -5.688 -97.147 -6.727 QT
-98.233 -7.766 -98.233 -9.5 QT
-98.233 -11.531 -96.874 -12.563 QT
-95.515 -13.594 -92.827 -13.594 QT
-90.062 -13.594 L
-90.062 -13.781 L
-90.062 -15.156 -90.952 -15.898 QT
-91.843 -16.641 -93.468 -16.641 QT
-94.499 -16.641 -95.476 -16.398 QT
-96.452 -16.156 -97.358 -15.656 QT
-97.358 -17.484 L
-96.28 -17.906 -95.257 -18.117 QT
-94.233 -18.328 -93.265 -18.328 QT
-90.655 -18.328 -89.366 -16.969 QT
-88.077 -15.609 -88.077 -12.859 QT
cp
-77.033 -16.188 M
-77.361 -16.375 -77.76 -16.469 QT
-78.158 -16.563 -78.627 -16.563 QT
-80.299 -16.563 -81.197 -15.469 QT
-82.096 -14.375 -82.096 -12.344 QT
-82.096 -6 L
-84.08 -6 L
-84.08 -18.031 L
-82.096 -18.031 L
-82.096 -16.156 L
-81.471 -17.266 -80.471 -17.797 QT
-79.471 -18.328 -78.049 -18.328 QT
-77.846 -18.328 -77.596 -18.297 QT
-77.346 -18.266 -77.049 -18.219 QT
-77.033 -16.188 L
cp
-67.051 -12.156 M
-67.051 -14.297 -67.934 -15.484 QT
-68.816 -16.672 -70.41 -16.672 QT
-72.004 -16.672 -72.895 -15.484 QT
-73.785 -14.297 -73.785 -12.156 QT
-73.785 -10.016 -72.895 -8.836 QT
-72.004 -7.656 -70.41 -7.656 QT
-68.816 -7.656 -67.934 -8.836 QT
-67.051 -10.016 -67.051 -12.156 QT
cp
-65.066 -7.5 M
-65.066 -4.422 -66.434 -2.922 QT
-67.801 -1.422 -70.613 -1.422 QT
-71.66 -1.422 -72.582 -1.578 QT
-73.504 -1.734 -74.363 -2.063 QT
-74.363 -3.984 L
-73.504 -3.5 -72.652 -3.281 QT
-71.801 -3.063 -70.926 -3.063 QT
-68.973 -3.063 -68.012 -4.078 QT
-67.051 -5.094 -67.051 -7.141 QT
-67.051 -8.109 L
-67.66 -7.047 -68.613 -6.523 QT
-69.566 -6 -70.895 -6 QT
-73.113 -6 -74.465 -7.688 QT
-75.816 -9.375 -75.816 -12.156 QT
-75.816 -14.953 -74.465 -16.641 QT
-73.113 -18.328 -70.895 -18.328 QT
-69.566 -18.328 -68.613 -17.797 QT
-67.66 -17.266 -67.051 -16.203 QT
-67.051 -18.031 L
-65.066 -18.031 L
-65.066 -7.5 L
cp
-50.711 -12.516 M
-50.711 -11.547 L
-59.789 -11.547 L
-59.664 -9.5 -58.563 -8.43 QT
-57.461 -7.359 -55.492 -7.359 QT
-54.352 -7.359 -53.289 -7.641 QT
-52.227 -7.922 -51.164 -8.484 QT
-51.164 -6.609 L
-52.227 -6.156 -53.344 -5.922 QT
-54.461 -5.688 -55.617 -5.688 QT
-58.492 -5.688 -60.172 -7.367 QT
-61.852 -9.047 -61.852 -11.891 QT
-61.852 -14.859 -60.258 -16.594 QT
-58.664 -18.328 -55.961 -18.328 QT
-53.523 -18.328 -52.117 -16.766 QT
-50.711 -15.203 -50.711 -12.516 QT
cp
-52.68 -13.094 M
-52.711 -14.719 -53.594 -15.68 QT
-54.477 -16.641 -55.93 -16.641 QT
-57.586 -16.641 -58.586 -15.711 QT
-59.586 -14.781 -59.727 -13.078 QT
-52.68 -13.094 L
cp
-45.504 -21.453 M
-45.504 -18.031 L
-41.441 -18.031 L
-41.441 -16.5 L
-45.504 -16.5 L
-45.504 -9.969 L
-45.504 -8.5 -45.105 -8.078 QT
-44.707 -7.656 -43.473 -7.656 QT
-41.441 -7.656 L
-41.441 -6 L
-43.473 -6 L
-45.754 -6 -46.621 -6.852 QT
-47.488 -7.703 -47.488 -9.969 QT
-47.488 -16.5 L
-48.941 -16.5 L
-48.941 -18.031 L
-47.488 -18.031 L
-47.488 -21.453 L
-45.504 -21.453 L
cp
-31.159 -17.672 M
-31.159 -15.813 L
-32.003 -16.234 -32.909 -16.453 QT
-33.815 -16.672 -34.769 -16.672 QT
-36.253 -16.672 -36.987 -16.219 QT
-37.722 -15.766 -37.722 -14.859 QT
-37.722 -14.172 -37.19 -13.781 QT
-36.659 -13.391 -35.081 -13.031 QT
-34.394 -12.891 L
-32.3 -12.438 -31.409 -11.617 QT
-30.519 -10.797 -30.519 -9.313 QT
-30.519 -7.641 -31.847 -6.664 QT
-33.175 -5.688 -35.487 -5.688 QT
-36.456 -5.688 -37.503 -5.875 QT
-38.55 -6.063 -39.722 -6.438 QT
-39.722 -8.484 L
-38.628 -7.906 -37.558 -7.625 QT
-36.487 -7.344 -35.456 -7.344 QT
-34.05 -7.344 -33.3 -7.82 QT
-32.55 -8.297 -32.55 -9.172 QT
-32.55 -9.969 -33.097 -10.398 QT
-33.644 -10.828 -35.472 -11.234 QT
-36.159 -11.391 L
-38.003 -11.781 -38.815 -12.578 QT
-39.628 -13.375 -39.628 -14.781 QT
-39.628 -16.469 -38.425 -17.398 QT
-37.222 -18.328 -35.019 -18.328 QT
-33.909 -18.328 -32.948 -18.164 QT
-31.987 -18 -31.159 -17.672 QT
cp
-13.407 -16.188 M
-13.735 -16.375 -14.134 -16.469 QT
-14.532 -16.563 -15.001 -16.563 QT
-16.673 -16.563 -17.571 -15.469 QT
-18.47 -14.375 -18.47 -12.344 QT
-18.47 -6 L
-20.454 -6 L
-20.454 -18.031 L
-18.47 -18.031 L
-18.47 -16.156 L
-17.845 -17.266 -16.845 -17.797 QT
-15.845 -18.328 -14.423 -18.328 QT
-14.22 -18.328 -13.97 -18.297 QT
-13.72 -18.266 -13.423 -18.219 QT
-13.407 -16.188 L
cp
-1.05 -12.516 M
-1.05 -11.547 L
-10.128 -11.547 L
-10.003 -9.5 -8.901 -8.43 QT
-7.8 -7.359 -5.831 -7.359 QT
-4.69 -7.359 -3.628 -7.641 QT
-2.565 -7.922 -1.503 -8.484 QT
-1.503 -6.609 L
-2.565 -6.156 -3.683 -5.922 QT
-4.8 -5.688 -5.956 -5.688 QT
-8.831 -5.688 -10.511 -7.367 QT
-12.19 -9.047 -12.19 -11.891 QT
-12.19 -14.859 -10.597 -16.594 QT
-9.003 -18.328 -6.3 -18.328 QT
-3.862 -18.328 -2.456 -16.766 QT
-1.05 -15.203 -1.05 -12.516 QT
cp
-3.019 -13.094 M
-3.05 -14.719 -3.933 -15.68 QT
-4.815 -16.641 -6.269 -16.641 QT
-7.925 -16.641 -8.925 -15.711 QT
-9.925 -14.781 -10.065 -13.078 QT
-3.019 -13.094 L
cp
7.673 -12.047 M
5.267 -12.047 4.345 -11.5 QT
3.423 -10.953 3.423 -9.625 QT
3.423 -8.578 4.118 -7.961 QT
4.813 -7.344 6.001 -7.344 QT
7.642 -7.344 8.634 -8.508 QT
9.626 -9.672 9.626 -11.609 QT
9.626 -12.047 L
7.673 -12.047 L
cp
11.61 -12.859 M
11.61 -6 L
9.626 -6 L
9.626 -7.828 L
8.954 -6.734 7.946 -6.211 QT
6.938 -5.688 5.47 -5.688 QT
3.626 -5.688 2.54 -6.727 QT
1.454 -7.766 1.454 -9.5 QT
1.454 -11.531 2.813 -12.563 QT
4.173 -13.594 6.86 -13.594 QT
9.626 -13.594 L
9.626 -13.781 L
9.626 -15.156 8.735 -15.898 QT
7.845 -16.641 6.22 -16.641 QT
5.188 -16.641 4.212 -16.398 QT
3.235 -16.156 2.329 -15.656 QT
2.329 -17.484 L
3.407 -17.906 4.431 -18.117 QT
5.454 -18.328 6.423 -18.328 QT
9.032 -18.328 10.321 -16.969 QT
11.61 -15.609 11.61 -12.859 QT
cp
24.342 -17.563 M
24.342 -15.719 L
23.498 -16.188 22.654 -16.414 QT
21.811 -16.641 20.951 -16.641 QT
19.029 -16.641 17.967 -15.422 QT
16.904 -14.203 16.904 -12 QT
16.904 -9.797 17.967 -8.578 QT
19.029 -7.359 20.951 -7.359 QT
21.811 -7.359 22.654 -7.594 QT
23.498 -7.828 24.342 -8.281 QT
24.342 -6.469 L
23.514 -6.078 22.623 -5.883 QT
21.732 -5.688 20.748 -5.688 QT
18.029 -5.688 16.428 -7.398 QT
14.826 -9.109 14.826 -12 QT
14.826 -14.953 16.443 -16.641 QT
18.061 -18.328 20.873 -18.328 QT
21.779 -18.328 22.654 -18.141 QT
23.529 -17.953 24.342 -17.563 QT
cp
37.781 -13.266 M
37.781 -6 L
35.797 -6 L
35.797 -13.203 L
35.797 -14.906 35.133 -15.758 QT
34.469 -16.609 33.141 -16.609 QT
31.531 -16.609 30.609 -15.586 QT
29.688 -14.563 29.688 -12.797 QT
29.688 -6 L
27.703 -6 L
27.703 -22.719 L
29.688 -22.719 L
29.688 -16.156 L
30.391 -17.25 31.359 -17.789 QT
32.328 -18.328 33.578 -18.328 QT
35.656 -18.328 36.719 -17.039 QT
37.781 -15.75 37.781 -13.266 QT
cp
52.006 -12.516 M
52.006 -11.547 L
42.928 -11.547 L
43.053 -9.5 44.154 -8.43 QT
45.256 -7.359 47.225 -7.359 QT
48.365 -7.359 49.428 -7.641 QT
50.49 -7.922 51.553 -8.484 QT
51.553 -6.609 L
50.49 -6.156 49.373 -5.922 QT
48.256 -5.688 47.1 -5.688 QT
44.225 -5.688 42.545 -7.367 QT
40.865 -9.047 40.865 -11.891 QT
40.865 -14.859 42.459 -16.594 QT
44.053 -18.328 46.756 -18.328 QT
49.193 -18.328 50.6 -16.766 QT
52.006 -15.203 52.006 -12.516 QT
cp
50.037 -13.094 M
50.006 -14.719 49.123 -15.68 QT
48.24 -16.641 46.787 -16.641 QT
45.131 -16.641 44.131 -15.711 QT
43.131 -14.781 42.99 -13.078 QT
50.037 -13.094 L
cp
63.166 -16.203 M
63.166 -22.719 L
65.15 -22.719 L
65.15 -6 L
63.166 -6 L
63.166 -7.813 L
62.557 -6.734 61.604 -6.211 QT
60.65 -5.688 59.322 -5.688 QT
57.135 -5.688 55.768 -7.43 QT
54.4 -9.172 54.4 -12 QT
54.4 -14.844 55.768 -16.586 QT
57.135 -18.328 59.322 -18.328 QT
60.65 -18.328 61.604 -17.805 QT
62.557 -17.281 63.166 -16.203 QT
cp
56.432 -12 M
56.432 -9.828 57.33 -8.586 QT
58.229 -7.344 59.807 -7.344 QT
61.369 -7.344 62.268 -8.586 QT
63.166 -9.828 63.166 -12 QT
63.166 -14.188 62.268 -15.43 QT
61.369 -16.672 59.807 -16.672 QT
58.229 -16.672 57.33 -15.43 QT
56.432 -14.188 56.432 -12 QT
cp
76.03 -22.719 M
80.593 -22.719 L
80.593 -21.172 L
78.015 -21.172 L
78.015 -4.641 L
80.593 -4.641 L
80.593 -3.094 L
76.03 -3.094 L
76.03 -22.719 L
cp
98.723 -13.063 M
97.785 -13.063 97.254 -12.266 QT
96.723 -11.469 96.723 -10.047 QT
96.723 -8.656 97.254 -7.852 QT
97.785 -7.047 98.723 -7.047 QT
99.629 -7.047 100.16 -7.852 QT
100.691 -8.656 100.691 -10.047 QT
100.691 -11.453 100.16 -12.258 QT
99.629 -13.063 98.723 -13.063 QT
cp
98.723 -14.422 M
100.41 -14.422 101.41 -13.242 QT
102.41 -12.063 102.41 -10.047 QT
102.41 -8.047 101.41 -6.867 QT
100.41 -5.688 98.723 -5.688 QT
97.004 -5.688 96.004 -6.867 QT
95.004 -8.047 95.004 -10.047 QT
95.004 -12.063 96.004 -13.242 QT
97.004 -14.422 98.723 -14.422 QT
cp
87.629 -20.969 M
86.707 -20.969 86.176 -20.164 QT
85.645 -19.359 85.645 -17.969 QT
85.645 -16.547 86.168 -15.75 QT
86.691 -14.953 87.629 -14.953 QT
88.566 -14.953 89.098 -15.75 QT
89.629 -16.547 89.629 -17.969 QT
89.629 -19.359 89.09 -20.164 QT
88.551 -20.969 87.629 -20.969 QT
cp
97.332 -22.328 M
99.051 -22.328 L
89.02 -5.688 L
87.301 -5.688 L
97.332 -22.328 L
cp
87.629 -22.328 M
89.332 -22.328 90.34 -21.148 QT
91.348 -19.969 91.348 -17.969 QT
91.348 -15.938 90.348 -14.766 QT
89.348 -13.594 87.629 -13.594 QT
85.926 -13.594 84.934 -14.773 QT
83.941 -15.953 83.941 -17.969 QT
83.941 -19.969 84.941 -21.148 QT
85.941 -22.328 87.629 -22.328 QT
cp
110.314 -22.719 M
110.314 -3.094 L
105.768 -3.094 L
105.768 -4.641 L
108.33 -4.641 L
108.33 -21.172 L
105.768 -21.172 L
105.768 -22.719 L
110.314 -22.719 L
cp
f
GR
GS
0 0.447 0.741 RC
1 LJ
0.5 LW
N
169.525 163.762 M
169.913 205.508 L
170.3 205.508 L
170.688 242.036 L
171.075 210.726 L
171.462 153.325 L
171.85 177.677 L
172.238 215.331 L
172.625 215.331 L
173.012 253.218 L
173.4 226.381 L
173.788 176.286 L
174.175 215.331 L
174.563 253.218 L
174.95 169.726 L
175.337 230.064 L
175.725 215.331 L
176.113 253.218 L
176.5 152.377 L
176.887 157.17 L
177.275 145.871 L
177.663 177.677 L
178.05 219.423 L
178.438 238.905 L
178.825 175.147 L
179.212 210.726 L
179.6 176.286 L
179.988 157.798 L
180.375 210.726 L
180.762 205.508 L
181.15 196.719 L
181.538 215.331 L
181.925 183.536 L
182.313 210.726 L
182.7 195.071 L
183.087 222.206 L
183.475 196.719 L
183.863 195.071 L
184.25 226.381 L
184.637 205.508 L
185.025 215.331 L
185.413 200.597 L
185.8 230.064 L
186.188 176.286 L
186.575 205.508 L
186.962 163.762 L
187.35 181.653 L
187.738 191.593 L
188.125 188.81 L
188.512 226.381 L
188.9 255.603 L
189.288 152.377 L
189.675 195.071 L
190.063 183.536 L
190.45 157.17 L
190.837 191.593 L
191.225 201.333 L
191.613 185.863 L
192 210.726 L
192.387 163.762 L
192.775 215.331 L
193.163 226.381 L
193.55 177.677 L
193.938 157.798 L
194.325 177.677 L
194.712 226.381 L
195.1 163.762 L
195.488 196.719 L
195.875 253.218 L
196.262 238.905 L
196.65 257.69 L
197.038 200.597 L
197.425 101.143 L
197.813 215.331 L
198.2 196.719 L
198.587 163.762 L
198.975 200.597 L
199.363 188.81 L
199.75 157.17 L
200.137 196.719 L
200.525 157.798 L
200.913 177.677 L
201.3 205.508 L
201.688 193.581 L
202.075 169.726 L
202.462 142.889 L
202.85 136.536 L
203.238 191.593 L
203.625 163.762 L
204.012 185.863 L
204.4 151.238 L
204.788 115.593 L
205.175 183.536 L
205.563 140.991 L
205.95 140.991 L
206.337 142.889 L
206.725 181.653 L
207.113 116.258 L
207.5 196.719 L
207.887 191.593 L
208.275 145.871 L
208.663 147.426 L
209.05 163.762 L
209.438 118.221 L
209.825 176.286 L
210.212 140.991 L
210.6 158.317 L
210.988 125.646 L
211.375 151.238 L
211.762 153.325 L
212.15 122.016 L
212.538 118.221 L
212.925 196.719 L
213.313 147.426 L
213.7 142.889 L
214.087 129.606 L
214.475 114.756 L
214.863 131.293 L
215.25 205.508 L
215.637 183.536 L
216.025 185.863 L
216.413 122.016 L
216.8 122.016 L
217.188 152.377 L
217.575 157.798 L
217.962 163.762 L
218.35 163.762 L
218.738 163.762 L
219.125 142.889 L
219.512 144.495 L
219.9 151.238 L
220.288 170.353 L
220.675 151.238 L
221.063 157.798 L
221.45 145.871 L
221.837 147.426 L
222.225 128.695 L
222.613 118.676 L
223 145.871 L
223.387 183.536 L
223.775 163.762 L
224.163 152.377 L
224.55 129.606 L
224.938 169.726 L
225.325 163.762 L
225.712 118.676 L
226.1 157.798 L
226.488 142.889 L
226.875 170.353 L
227.262 147.426 L
227.65 145.871 L
228.038 175.147 L
228.425 191.593 L
228.813 181.653 L
229.2 181.653 L
229.587 191.593 L
229.975 157.798 L
230.363 183.536 L
230.75 183.536 L
231.137 138.714 L
231.525 145.871 L
231.913 157.798 L
232.3 152.377 L
232.688 188.81 L
233.075 105.317 L
233.462 158.317 L
233.85 153.325 L
234.238 209.902 L
234.625 183.536 L
235.012 158.752 L
235.4 163.762 L
235.788 151.238 L
236.175 147.426 L
236.563 163.762 L
236.95 226.381 L
237.337 169.726 L
237.725 131.293 L
238.113 205.508 L
238.5 163.762 L
238.887 183.536 L
239.275 188.81 L
239.663 205.508 L
240.05 169.726 L
240.438 205.508 L
240.825 153.325 L
241.212 151.238 L
241.6 148.733 L
241.988 175.147 L
242.375 131.293 L
242.762 152.377 L
243.15 140.991 L
243.538 133.532 L
243.925 170.353 L
244.313 145.871 L
244.7 181.653 L
245.087 170.353 L
245.475 169.726 L
245.863 169.726 L
246.25 183.536 L
246.637 177.677 L
247.025 170.353 L
247.413 147.426 L
247.8 163.762 L
248.188 158.317 L
248.575 136.536 L
248.962 133.943 L
249.35 188.81 L
249.738 242.036 L
250.125 188.81 L
250.512 158.752 L
250.9 205.508 L
251.288 169.726 L
251.675 157.17 L
252.063 145.871 L
252.45 122.016 L
252.837 175.147 L
253.225 129.606 L
253.613 169.726 L
254 140.991 L
254.387 163.762 L
254.775 158.317 L
255.163 200.597 L
255.55 136.536 L
255.938 153.325 L
256.325 176.286 L
256.712 183.536 L
257.1 226.381 L
257.487 170.353 L
257.875 196.719 L
258.263 157.798 L
258.65 230.064 L
259.038 200.597 L
259.425 157.798 L
259.813 205.508 L
260.2 205.508 L
260.587 158.317 L
260.975 138.714 L
261.362 242.036 L
261.75 148.733 L
262.138 134.861 L
262.525 140.991 L
262.913 140.57 L
263.3 181.653 L
263.688 147.426 L
264.075 177.677 L
264.462 153.325 L
264.85 186.532 L
265.237 242.036 L
265.625 176.286 L
266.013 152.377 L
266.4 183.536 L
266.788 169.207 L
267.175 153.325 L
267.563 205.508 L
267.95 122.016 L
268.337 181.653 L
268.725 140.991 L
269.112 169.726 L
269.5 150.806 L
269.888 133.943 L
270.275 176.286 L
270.663 128.695 L
271.05 142.889 L
271.438 157.17 L
271.825 169.726 L
272.212 169.726 L
272.6 140.57 L
272.987 128.695 L
273.375 215.331 L
273.763 169.726 L
274.15 200.597 L
274.538 215.331 L
274.925 140.57 L
275.313 127.98 L
275.7 253.218 L
276.087 129.606 L
276.475 176.286 L
276.862 176.286 L
277.25 183.536 L
277.638 147.426 L
278.025 125.227 L
278.413 196.719 L
278.8 84.065 L
279.188 174.198 L
279.575 169.726 L
279.962 170.353 L
280.35 147.426 L
280.737 205.508 L
281.125 188.81 L
281.513 183.536 L
281.9 188.81 L
282.288 157.17 L
282.675 163.762 L
283.063 157.798 L
283.45 142.889 L
283.837 128.695 L
284.225 136.536 L
284.612 157.798 L
285 127.98 L
285.388 138.714 L
285.775 226.381 L
286.163 226.381 L
286.55 175.147 L
286.938 142.889 L
287.325 152.377 L
287.712 175.147 L
288.1 163.762 L
288.487 157.798 L
288.875 105.317 L
289.263 169.207 L
289.65 145.871 L
290.038 152.377 L
290.425 122.016 L
290.813 163.762 L
291.2 153.325 L
291.587 177.677 L
291.975 122.016 L
292.362 177.677 L
292.75 157.798 L
293.138 138.714 L
293.525 157.798 L
293.913 122.016 L
294.3 188.81 L
294.688 151.238 L
295.075 142.889 L
295.462 115.593 L
295.85 110.088 L
296.237 188.81 L
296.625 169.726 L
297.013 138.714 L
297.4 175.147 L
297.788 163.762 L
298.175 205.508 L
298.563 128.695 L
298.95 169.207 L
299.337 210.726 L
299.725 153.325 L
300.112 147.426 L
300.5 176.286 L
300.888 215.331 L
301.275 122.016 L
301.663 145.871 L
302.05 176.286 L
302.438 152.377 L
302.825 129.606 L
303.212 119.034 L
303.6 136.536 L
303.987 163.762 L
304.375 170.353 L
304.763 176.286 L
305.15 196.719 L
305.538 169.207 L
305.925 140.991 L
306.313 176.286 L
306.7 175.147 L
307.087 163.762 L
307.475 153.325 L
307.862 157.798 L
308.25 163.762 L
308.638 199.544 L
309.025 205.508 L
309.413 157.17 L
309.8 188.81 L
310.188 151.238 L
310.575 124.895 L
310.962 132.452 L
311.35 148.733 L
311.737 111.243 L
312.125 111.579 L
312.513 197.918 L
312.9 171.129 L
313.288 215.331 L
313.675 169.726 L
314.063 169.726 L
314.45 176.286 L
314.837 152.377 L
315.225 181.653 L
315.612 210.726 L
316 144.495 L
316.388 158.317 L
316.775 176.286 L
317.163 163.762 L
317.55 131.293 L
317.938 136.536 L
318.325 191.593 L
318.712 140.991 L
319.1 163.762 L
319.487 205.508 L
319.875 151.238 L
320.263 183.536 L
320.65 145.871 L
321.038 113.667 L
321.425 183.536 L
321.813 122.016 L
322.2 112.739 L
322.587 145.871 L
322.975 140.57 L
323.362 183.536 L
323.75 163.762 L
324.138 142.889 L
324.525 142.889 L
324.913 138.714 L
325.3 147.426 L
325.688 205.508 L
326.075 177.677 L
326.462 188.81 L
326.85 176.286 L
327.237 169.726 L
327.625 140.991 L
328.013 196.719 L
328.4 148.733 L
328.788 125.227 L
329.175 176.286 L
329.563 205.508 L
329.95 163.762 L
330.337 176.286 L
330.725 133.532 L
331.112 132.452 L
331.5 183.536 L
331.888 157.798 L
332.275 158.317 L
332.663 226.381 L
333.05 176.286 L
333.438 84.065 L
333.825 136.536 L
334.212 209.902 L
334.6 138.714 L
334.987 176.286 L
335.375 147.426 L
335.763 122.016 L
336.15 110.088 L
336.538 170.353 L
336.925 191.593 L
337.313 153.325 L
337.7 147.426 L
338.087 205.508 L
338.475 163.762 L
338.862 140.991 L
339.25 142.889 L
339.638 170.353 L
340.025 163.762 L
340.413 138.714 L
340.8 205.508 L
341.188 147.426 L
341.575 128.695 L
341.962 188.81 L
342.35 156.395 L
342.737 163.762 L
343.125 163.762 L
343.513 191.593 L
343.9 196.719 L
344.288 183.536 L
344.675 176.286 L
345.063 130.365 L
345.45 176.286 L
345.837 153.325 L
346.225 176.286 L
346.612 140.991 L
347 183.536 L
347.388 122.016 L
347.775 113.667 L
348.163 103.163 L
348.55 127.98 L
348.938 169.726 L
349.325 127.98 L
349.712 158.317 L
350.1 140.991 L
350.487 134.861 L
350.875 163.762 L
351.263 169.207 L
351.65 157.798 L
352.038 158.317 L
352.425 111.243 L
352.813 122.016 L
353.2 122.016 L
353.587 191.593 L
353.975 219.423 L
354.362 158.317 L
354.75 152.377 L
355.138 163.762 L
355.525 140.991 L
355.913 158.317 L
356.3 183.536 L
356.688 140.991 L
357.075 196.719 L
357.462 115.593 L
357.85 131.293 L
358.237 119.034 L
358.625 147.426 L
359.013 113.667 L
359.4 140.991 L
359.788 176.286 L
360.175 124.895 L
360.563 157.798 L
360.95 163.762 L
361.337 181.653 L
361.725 128.695 L
362.112 95.083 L
362.5 103.462 L
362.888 144.495 L
363.275 138.714 L
363.663 144.495 L
364.05 138.714 L
364.438 181.653 L
364.825 131.293 L
365.212 108.97 L
365.6 215.331 L
365.987 128.695 L
366.375 163.762 L
366.763 163.762 L
367.15 116.798 L
367.538 148.733 L
367.925 140.57 L
368.313 176.286 L
368.7 191.593 L
369.087 163.762 L
369.475 169.207 L
369.862 181.653 L
370.25 144.495 L
370.638 158.317 L
371.025 191.593 L
371.413 169.726 L
371.8 147.426 L
372.188 152.377 L
372.575 122.016 L
372.962 138.714 L
373.35 147.426 L
373.737 153.325 L
374.125 140.991 L
374.513 183.536 L
374.9 157.798 L
375.288 153.325 L
375.675 176.286 L
376.063 153.325 L
376.45 191.593 L
376.837 157.798 L
377.225 158.317 L
377.612 127.98 L
378 113.667 L
378.388 147.426 L
378.775 113.667 L
379.163 138.714 L
379.55 151.238 L
379.938 138.714 L
380.325 95.776 L
380.712 163.762 L
381.1 163.762 L
381.487 157.798 L
381.875 122.016 L
382.263 134.861 L
382.65 112.739 L
383.038 158.317 L
383.425 125.646 L
383.813 127.98 L
384.2 183.536 L
384.587 169.726 L
384.975 176.286 L
385.362 127.98 L
385.75 122.016 L
386.138 183.536 L
386.525 144.495 L
386.913 134.861 L
387.3 170.353 L
387.688 148.733 L
388.075 196.719 L
388.462 193.581 L
388.85 138.714 L
389.237 200.597 L
389.625 188.81 L
390.013 175.147 L
390.4 183.536 L
390.788 205.508 L
391.175 215.331 L
391.563 230.064 L
391.95 132.452 L
392.337 157.17 L
392.725 119.034 L
393.112 175.147 L
393.5 128.695 L
393.888 108.657 L
394.275 163.762 L
394.663 153.325 L
395.05 181.653 L
395.438 188.81 L
395.825 158.317 L
396.212 226.381 L
396.6 154.128 L
396.987 188.81 L
397.375 158.317 L
397.763 140.991 L
398.15 152.377 L
398.538 140.991 L
398.925 219.423 L
399.313 163.762 L
399.7 222.206 L
400.087 176.286 L
400.475 255.603 L
400.862 163.762 L
401.25 169.726 L
401.638 181.653 L
402.025 132.452 L
402.413 153.325 L
402.8 77.661 L
403.188 183.536 L
403.575 153.325 L
403.962 169.726 L
404.35 169.726 L
404.737 158.317 L
405.125 113.667 L
405.513 242.036 L
405.9 176.286 L
406.288 169.726 L
406.675 176.286 L
407.063 205.508 L
407.45 177.677 L
407.837 175.147 L
408.225 149.847 L
408.612 196.719 L
409 152.377 L
409.388 205.508 L
409.775 153.325 L
410.163 148.733 L
410.55 169.726 L
410.938 169.726 L
411.325 152.377 L
411.712 215.331 L
412.1 169.207 L
412.487 188.81 L
412.875 205.508 L
413.263 144.495 L
413.65 183.536 L
414.038 177.677 L
414.425 138.714 L
414.813 138.714 L
415.2 114.426 L
415.587 145.871 L
415.975 107.621 L
416.362 140.991 L
416.75 153.325 L
417.138 181.653 L
417.525 158.317 L
417.913 128.695 L
418.3 186.532 L
418.688 144.495 L
419.075 169.726 L
419.462 163.762 L
419.85 183.536 L
420.237 177.677 L
420.625 175.147 L
421.013 188.81 L
421.4 205.508 L
421.788 191.593 L
422.175 255.603 L
422.563 152.377 L
422.95 196.719 L
423.337 209.902 L
423.725 209.902 L
424.112 175.147 L
424.5 163.762 L
424.888 152.377 L
425.275 122.016 L
425.663 168.771 L
426.05 169.726 L
426.438 196.719 L
426.825 183.536 L
427.212 175.147 L
427.6 181.653 L
427.987 163.762 L
428.375 188.81 L
428.763 201.333 L
429.15 196.719 L
429.538 151.238 L
429.925 205.508 L
430.313 163.762 L
430.7 186.532 L
431.087 255.603 L
431.475 205.508 L
431.862 209.902 L
432.25 191.593 L
432.638 176.286 L
433.025 215.331 L
433.413 163.762 L
433.8 183.536 L
434.188 205.508 L
434.575 193.581 L
434.962 205.508 L
435.35 209.902 L
435.737 181.653 L
436.125 215.331 L
436.513 169.726 L
436.9 163.762 L
437.288 142.889 L
437.675 163.762 L
438.063 152.377 L
438.45 116.258 L
438.837 147.426 L
439.225 188.81 L
439.612 219.423 L
440 209.902 L
440.388 215.331 L
440.775 188.81 L
441.163 125.227 L
441.55 163.762 L
441.938 210.726 L
442.325 209.902 L
442.712 127.98 L
443.1 132.452 L
443.487 158.752 L
443.875 180.097 L
444.263 186.532 L
444.65 196.719 L
445.038 215.331 L
445.425 157.798 L
445.813 196.719 L
446.2 200.597 L
446.587 196.719 L
446.975 242.036 L
447.362 215.331 L
447.75 188.81 L
448.138 215.331 L
448.525 226.381 L
448.913 180.097 L
449.3 138.714 L
449.688 196.719 L
450.075 163.762 L
450.462 196.719 L
450.85 169.207 L
451.237 175.147 L
451.625 158.317 L
452.013 148.733 L
452.4 163.762 L
452.788 148.733 L
453.175 191.593 L
453.563 147.426 L
453.95 158.317 L
454.337 147.426 L
454.725 196.719 L
455.112 188.81 L
455.5 157.798 L
455.888 175.147 L
456.275 201.333 L
456.663 205.508 L
457.05 163.762 L
457.438 238.905 L
457.825 175.147 L
458.212 158.317 L
458.6 147.426 L
458.987 196.719 L
459.375 222.206 L
459.763 158.752 L
460.15 177.677 L
460.538 209.902 L
460.925 191.593 L
461.313 181.653 L
461.7 205.508 L
462.087 183.536 L
462.475 132.452 L
462.862 158.317 L
463.25 163.762 L
463.638 188.81 L
464.025 226.381 L
464.413 188.81 L
464.8 176.286 L
465.188 142.889 L
465.575 169.726 L
465.962 157.798 L
466.35 115.593 L
466.737 196.719 L
467.125 131.293 L
467.513 210.726 L
467.9 147.426 L
468.288 181.653 L
468.675 153.325 L
469.063 230.064 L
469.45 183.536 L
469.837 181.653 L
470.225 148.733 L
470.612 188.81 L
471 153.325 L
471.388 183.536 L
471.775 142.889 L
472.163 136.925 L
472.55 158.317 L
472.938 215.331 L
473.325 175.147 L
473.712 163.762 L
474.1 183.536 L
474.487 176.286 L
474.875 226.381 L
475.263 140.57 L
475.65 136.925 L
476.038 153.325 L
476.425 163.762 L
476.813 163.762 L
477.2 154.128 L
477.587 149.847 L
477.975 205.508 L
478.362 175.147 L
478.75 169.726 L
479.138 127.98 L
479.525 169.207 L
479.913 196.719 L
480.3 144.495 L
480.688 163.762 L
481.075 158.317 L
481.462 153.325 L
481.85 152.377 L
482.237 124.625 L
482.625 169.207 L
483.013 140.57 L
483.4 183.536 L
483.788 163.762 L
484.175 191.593 L
484.563 175.147 L
484.95 152.377 L
485.337 163.762 L
485.725 205.508 L
486.112 196.719 L
486.5 136.536 L
486.888 163.762 L
487.275 183.536 L
487.663 152.377 L
488.05 183.536 L
488.438 169.207 L
488.825 122.016 L
489.212 122.016 L
489.6 157.798 L
489.987 147.426 L
490.375 131.293 L
490.763 188.81 L
491.15 127.402 L
491.538 196.719 L
491.925 169.207 L
492.313 158.752 L
492.7 205.508 L
493.087 136.925 L
493.475 230.064 L
493.862 152.377 L
494.25 215.331 L
494.638 154.128 L
495.025 193.581 L
495.413 188.81 L
495.8 205.508 L
496.188 205.508 L
496.575 174.198 L
496.962 191.593 L
497.35 181.653 L
497.737 210.726 L
498.125 175.147 L
498.513 158.317 L
498.9 152.377 L
499.288 131.293 L
499.675 196.719 L
500.063 205.508 L
500.45 253.218 L
500.837 196.719 L
501.225 157.17 L
501.612 191.593 L
502 209.902 L
502.388 152.377 L
502.775 210.726 L
503.163 186.532 L
503.55 163.762 L
503.938 188.81 L
504.325 176.286 L
504.712 163.762 L
505.1 148.733 L
505.487 183.536 L
505.875 209.902 L
506.263 163.762 L
506.65 140.57 L
507.038 148.733 L
507.425 186.532 L
507.813 217.435 L
508.2 163.762 L
508.587 215.331 L
508.975 157.798 L
509.362 181.653 L
509.75 169.726 L
510.138 154.128 L
510.525 188.81 L
510.913 169.726 L
511.3 191.593 L
511.688 209.902 L
512.075 169.726 L
512.463 131.293 L
512.85 175.147 L
513.237 169.726 L
513.625 191.593 L
514.013 169.726 L
514.4 200.597 L
514.787 149.847 L
515.175 183.536 L
515.563 175.147 L
515.95 112.193 L
516.338 255.603 L
516.725 124.895 L
517.112 183.536 L
517.5 163.762 L
517.888 136.925 L
518.275 142.889 L
518.662 219.423 L
519.05 163.762 L
519.438 191.593 L
519.825 131.293 L
520.213 183.536 L
520.6 144.495 L
520.987 145.871 L
521.375 158.317 L
521.763 163.762 L
522.15 188.81 L
522.537 159.123 L
522.925 205.508 L
523.313 163.762 L
523.7 196.719 L
524.088 200.597 L
524.475 110.088 L
524.862 188.81 L
525.25 158.752 L
525.638 163.762 L
526.025 131.293 L
526.412 153.325 L
526.8 169.726 L
527.188 163.762 L
527.575 136.536 L
527.963 131.293 L
528.35 148.733 L
528.737 127.98 L
529.125 133.532 L
529.513 112.739 L
529.9 175.147 L
530.287 181.653 L
530.675 176.286 L
531.063 158.752 L
531.45 201.333 L
531.838 132.452 L
532.225 136.925 L
532.612 163.762 L
533 138.714 L
533.388 147.426 L
533.775 144.495 L
534.162 163.762 L
534.55 163.762 L
534.938 134.861 L
535.325 209.902 L
535.713 144.495 L
536.1 163.762 L
536.487 148.733 L
536.875 186.532 L
537.263 142.889 L
537.65 196.719 L
538.037 183.536 L
538.425 138.714 L
538.813 128.695 L
539.2 145.871 L
539.588 163.762 L
539.975 176.286 L
540.362 176.286 L
540.75 144.495 L
541.138 180.097 L
541.525 153.325 L
541.912 209.902 L
542.3 191.593 L
542.688 132.452 L
543.075 147.426 L
543.463 101.143 L
543.85 169.726 L
544.237 158.317 L
544.625 177.677 L
545.013 219.423 L
545.4 238.905 L
545.787 169.726 L
546.175 180.097 L
546.563 142.889 L
546.95 188.81 L
547.338 148.733 L
547.725 152.377 L
548.112 196.719 L
548.5 157.798 L
548.888 158.317 L
549.275 176.286 L
549.662 183.536 L
550.05 158.317 L
550.438 134.861 L
550.825 183.536 L
551.213 205.508 L
551.6 242.036 L
551.987 255.603 L
552.375 188.81 L
552.763 205.508 L
553.15 230.064 L
553.537 163.762 L
553.925 226.381 L
554.313 226.381 L
554.7 175.147 L
555.088 185.863 L
555.475 196.719 L
555.862 233.339 L
556.25 205.508 L
556.638 186.532 L
557.025 169.726 L
557.412 175.147 L
557.8 152.377 L
558.188 238.905 L
558.575 163.762 L
558.963 209.902 L
559.35 152.377 L
559.737 183.536 L
560.125 188.81 L
560.513 151.238 L
560.9 158.317 L
561.287 210.726 L
561.675 148.733 L
562.063 205.508 L
562.45 175.147 L
562.838 176.286 L
563.225 183.536 L
563.612 188.81 L
564 142.889 L
564.388 201.333 L
564.775 196.719 L
565.162 181.653 L
565.55 176.286 L
565.938 169.207 L
566.325 191.593 L
566.713 136.925 L
567.1 176.286 L
567.487 158.317 L
567.875 163.762 L
568.263 181.653 L
568.65 188.81 L
569.037 215.331 L
569.425 181.653 L
569.813 230.064 L
570.2 175.147 L
570.588 101.143 L
570.975 116.258 L
571.362 163.762 L
571.75 127.98 L
572.138 188.81 L
572.525 215.331 L
572.912 175.147 L
573.3 196.719 L
573.688 147.426 L
574.075 145.871 L
574.463 152.377 L
574.85 163.762 L
575.237 140.57 L
575.625 130.365 L
576.013 157.798 L
576.4 176.286 L
576.787 163.762 L
577.175 163.762 L
577.563 210.726 L
577.95 142.169 L
578.338 200.597 L
578.725 158.317 L
579.112 183.536 L
579.5 163.762 L
579.888 148.733 L
580.275 138.714 L
580.662 134.861 L
581.05 154.128 L
581.438 180.097 L
581.825 157.798 L
582.213 138.714 L
582.6 163.762 L
582.987 181.653 L
583.375 157.798 L
583.763 152.377 L
584.15 138.714 L
584.537 175.147 L
584.925 209.902 L
585.313 147.426 L
585.7 115.058 L
586.088 219.423 L
586.475 138.714 L
586.862 209.902 L
587.25 186.532 L
587.638 191.593 L
588.025 175.147 L
588.412 158.317 L
588.8 169.726 L
589.188 169.207 L
589.575 209.902 L
589.963 169.726 L
590.35 230.064 L
590.737 196.719 L
591.125 158.752 L
591.513 183.536 L
591.9 183.536 L
592.287 196.719 L
592.675 176.286 L
593.063 201.333 L
593.45 158.317 L
593.838 183.536 L
594.225 154.128 L
594.612 169.726 L
595 142.889 L
595.388 163.762 L
595.775 158.317 L
596.162 226.381 L
596.55 138.714 L
596.938 153.325 L
597.325 169.726 L
597.713 188.81 L
598.1 201.333 L
598.487 152.377 L
598.875 180.097 L
599.263 215.331 L
599.65 163.762 L
600.037 242.036 L
600.425 169.726 L
600.813 209.902 L
601.2 226.381 L
601.588 176.286 L
601.975 174.198 L
602.362 219.423 L
602.75 209.902 L
603.138 219.423 L
603.525 133.532 L
603.912 205.508 L
604.3 242.036 L
604.688 186.532 L
605.075 176.286 L
605.463 188.81 L
605.85 200.597 L
606.237 181.653 L
606.625 188.81 L
607.013 201.333 L
607.4 148.733 L
607.787 147.426 L
608.175 144.495 L
608.563 201.333 L
608.95 158.317 L
609.338 209.902 L
609.725 169.726 L
610.112 196.719 L
610.5 158.752 L
610.888 148.733 L
611.275 230.064 L
611.662 163.762 L
612.05 163.762 L
612.438 200.597 L
612.825 201.333 L
613.213 131.293 L
613.6 209.902 L
613.987 181.653 L
614.375 209.902 L
614.763 148.733 L
615.15 193.581 L
615.537 219.423 L
615.925 157.798 L
616.313 188.81 L
616.7 149.847 L
617.088 142.889 L
617.475 158.752 L
617.862 205.508 L
618.25 158.752 L
618.638 169.207 L
619.025 196.719 L
619.412 196.719 L
619.8 158.317 L
620.188 181.653 L
620.575 176.286 L
620.963 140.991 L
621.35 157.798 L
621.737 138.714 L
622.125 196.719 L
622.513 201.333 L
622.9 183.536 L
623.287 196.719 L
623.675 163.762 L
624.063 255.603 L
624.45 226.381 L
624.838 180.097 L
625.225 196.719 L
625.612 176.286 L
626 183.536 L
626.388 151.238 L
626.775 163.762 L
627.162 242.036 L
627.55 138.714 L
627.938 205.508 L
628.325 128.695 L
628.713 201.333 L
629.1 195.071 L
629.487 181.653 L
629.875 205.508 L
630.263 186.532 L
630.65 163.762 L
631.037 181.653 L
631.425 188.81 L
631.813 147.426 L
632.2 147.426 L
632.588 169.726 L
632.975 152.377 L
633.362 226.381 L
633.75 271.109 L
634.138 196.719 L
634.525 226.381 L
634.912 196.719 L
635.3 163.762 L
635.688 209.902 L
636.075 175.147 L
636.463 181.653 L
636.85 188.81 L
637.237 205.508 L
637.625 188.81 L
638.013 170.353 L
638.4 153.325 L
638.787 188.81 L
639.175 158.317 L
639.563 125.227 L
639.95 200.597 L
640.338 154.128 L
640.725 181.653 L
641.112 153.325 L
641.5 196.719 L
641.888 158.317 L
642.275 153.325 L
642.662 169.207 L
643.05 148.733 L
643.438 144.495 L
643.825 183.536 L
644.213 215.331 L
644.6 135.482 L
644.987 196.719 L
645.375 183.536 L
645.763 168.771 L
646.15 142.169 L
646.537 175.147 L
646.925 163.762 L
647.313 238.905 L
647.7 158.752 L
648.088 205.508 L
648.475 215.331 L
648.862 219.423 L
649.25 174.198 L
649.638 163.762 L
650.025 201.333 L
650.412 181.653 L
650.8 196.719 L
651.188 144.495 L
651.575 181.653 L
651.963 169.207 L
652.35 169.726 L
652.737 169.726 L
653.125 191.593 L
653.513 201.333 L
653.9 230.064 L
654.287 183.536 L
654.675 196.719 L
655.063 183.536 L
655.45 152.377 L
655.838 219.423 L
656.225 226.381 L
656.612 205.508 L
657 163.762 L
657.388 186.532 L
657.775 188.81 L
658.162 271.109 L
658.55 219.423 L
658.938 163.762 L
659.325 144.495 L
659.713 186.532 L
660.1 169.726 L
660.487 242.036 L
660.875 169.726 L
661.263 158.752 L
661.65 142.169 L
662.037 145.871 L
662.425 183.536 L
662.813 136.925 L
663.2 142.889 L
663.588 142.889 L
663.975 127.98 L
664.362 157.798 L
664.75 158.317 L
665.138 163.762 L
665.525 215.331 L
665.912 215.331 L
666.3 158.317 L
666.688 181.653 L
667.075 175.147 L
667.463 163.762 L
667.85 116.798 L
668.237 181.653 L
668.625 122.016 L
669.013 215.331 L
669.4 169.207 L
669.787 153.325 L
670.175 136.925 L
670.563 175.147 L
670.95 219.423 L
671.338 127.402 L
671.725 219.423 L
672.112 175.147 L
672.5 181.653 L
672.888 163.762 L
673.275 181.653 L
673.662 136.925 L
674.05 219.423 L
674.438 148.733 L
674.825 140.57 L
675.213 175.147 L
675.6 169.207 L
675.987 215.331 L
676.375 205.508 L
676.763 176.286 L
677.15 169.207 L
677.537 163.762 L
677.925 174.198 L
678.313 193.581 L
678.7 205.508 L
679.088 242.036 L
679.475 205.508 L
679.862 215.331 L
680.25 181.653 L
680.638 201.333 L
681.025 175.147 L
681.412 226.381 L
681.8 142.169 L
682.188 219.423 L
682.575 183.536 L
682.963 130.365 L
683.35 163.762 L
683.737 147.426 L
684.125 158.752 L
684.513 169.726 L
684.9 130.365 L
685.287 134.861 L
685.675 188.81 L
686.063 215.331 L
686.45 201.333 L
686.838 191.593 L
687.225 176.286 L
687.612 169.207 L
688 181.653 L
688.388 148.733 L
688.775 163.762 L
689.162 186.532 L
689.55 176.286 L
689.938 158.752 L
690.325 148.733 L
690.713 183.536 L
691.1 163.762 L
691.487 205.508 L
691.875 136.925 L
692.263 196.719 L
692.65 148.733 L
693.037 215.331 L
693.425 154.128 L
693.813 196.719 L
694.2 140.57 L
694.588 152.377 L
694.975 188.81 L
695.362 196.719 L
695.75 188.81 L
696.138 153.325 L
696.525 106.836 L
696.912 138.714 L
697.3 147.426 L
697.688 151.238 L
698.075 153.325 L
698.463 113.667 L
698.85 215.331 L
699.237 145.871 L
699.625 188.81 L
700.013 230.064 L
700.4 144.495 L
700.787 181.653 L
701.175 181.653 L
701.563 179.417 L
701.95 115.593 L
702.338 191.593 L
702.725 169.207 L
703.112 176.286 L
703.5 175.147 L
703.888 158.317 L
704.275 142.889 L
704.662 163.762 L
705.05 113.667 L
705.438 153.325 L
705.825 169.726 L
706.213 136.536 L
706.6 152.377 L
706.987 163.762 L
707.375 125.227 L
707.763 132.452 L
708.15 196.719 L
708.537 134.861 L
708.925 188.81 L
709.313 183.536 L
709.7 144.495 L
710.088 175.147 L
710.475 111.243 L
710.862 140.57 L
711.25 140.991 L
711.638 169.207 L
712.025 158.317 L
712.412 144.495 L
712.8 188.81 L
713.188 154.128 L
713.575 163.762 L
713.963 119.034 L
714.35 153.325 L
714.737 238.905 L
715.125 140.57 L
715.513 196.719 L
715.9 215.331 L
716.287 148.733 L
716.675 205.508 L
717.063 169.726 L
717.45 116.798 L
717.838 157.798 L
718.225 136.925 L
718.612 127.98 L
719 188.81 L
719.388 176.286 L
719.775 116.258 L
720.162 196.719 L
720.55 185.863 L
720.938 175.147 L
721.325 131.293 L
721.713 158.317 L
722.1 188.81 L
722.487 201.333 L
722.875 131.293 L
723.263 158.752 L
723.65 136.925 L
724.037 169.207 L
724.425 188.81 L
724.813 201.333 L
725.2 210.726 L
725.588 154.128 L
725.975 152.377 L
726.362 144.495 L
726.75 136.536 L
727.138 154.128 L
727.525 215.331 L
727.912 153.325 L
728.3 226.381 L
728.688 209.902 L
729.075 158.317 L
729.463 205.508 L
729.85 163.762 L
730.237 193.581 L
730.625 163.762 L
731.013 175.147 L
731.4 169.207 L
731.787 169.726 L
732.175 163.762 L
732.563 169.726 L
732.95 196.719 L
733.338 163.762 L
733.725 176.286 L
734.112 215.331 L
734.5 205.508 L
734.888 188.81 L
735.275 170.353 L
735.662 205.508 L
736.05 201.333 L
736.438 191.593 L
736.825 215.331 L
737.213 219.423 L
737.6 163.762 L
737.987 215.331 L
738.375 176.286 L
738.763 205.508 L
739.15 226.381 L
739.537 169.726 L
739.925 196.719 L
740.313 153.325 L
740.7 180.097 L
741.088 175.147 L
741.475 130.365 L
741.862 209.902 L
742.25 242.036 L
742.638 201.333 L
743.025 144.495 L
743.412 180.097 L
743.8 230.064 L
744.188 196.719 L
744.575 215.331 L
744.963 185.863 L
745.35 226.381 L
745.737 153.325 L
746.125 171.129 L
746.513 188.81 L
746.9 149.847 L
747.287 205.508 L
747.675 148.733 L
748.063 152.377 L
748.45 133.532 L
748.838 130.365 L
749.225 205.508 L
749.612 153.325 L
750 196.719 L
750.388 175.147 L
750.775 153.325 L
751.162 176.286 L
751.55 193.581 L
751.938 183.536 L
752.325 130.365 L
752.713 163.762 L
753.1 209.902 L
753.487 158.752 L
753.875 188.81 L
754.263 136.925 L
754.65 188.81 L
755.037 201.333 L
755.425 157.798 L
755.813 209.902 L
756.2 176.286 L
756.588 157.17 L
756.975 158.752 L
757.362 163.762 L
757.75 188.81 L
758.138 145.871 L
758.525 215.331 L
758.912 193.581 L
759.3 183.536 L
759.688 169.726 L
760.075 215.331 L
760.463 188.81 L
760.85 191.593 L
761.237 215.331 L
761.625 219.423 L
762.013 188.81 L
762.4 219.423 L
762.787 144.495 L
763.175 163.762 L
763.563 242.036 L
763.95 147.426 L
764.338 191.593 L
764.725 149.847 L
765.112 153.325 L
765.5 140.57 L
765.888 188.81 L
766.275 180.097 L
766.662 209.902 L
767.05 219.423 L
767.438 163.762 L
767.825 215.331 L
768.213 181.653 L
768.6 176.286 L
768.987 163.762 L
769.375 180.097 L
769.763 144.495 L
770.15 205.508 L
770.537 174.198 L
770.925 196.719 L
771.313 215.331 L
771.7 215.331 L
772.088 196.719 L
772.475 226.381 L
772.862 196.719 L
773.25 183.536 L
773.638 209.902 L
774.025 230.064 L
774.412 242.036 L
774.8 200.597 L
775.188 186.532 L
775.575 201.333 L
775.963 176.286 L
776.35 180.097 L
776.737 191.593 L
777.125 153.325 L
777.513 169.726 L
777.9 238.905 L
778.287 175.147 L
778.675 226.381 L
779.063 209.902 L
779.45 200.597 L
779.838 175.147 L
780.225 205.508 L
780.612 186.532 L
781 215.331 L
781.388 209.902 L
781.775 215.331 L
782.162 188.81 L
782.55 180.097 L
782.938 209.902 L
783.325 138.714 L
783.713 176.286 L
784.1 226.381 L
784.487 183.536 L
784.875 175.147 L
785.263 136.536 L
785.65 191.593 L
786.037 188.81 L
786.425 196.719 L
786.813 177.677 L
787.2 205.508 L
787.588 148.733 L
787.975 170.353 L
788.362 196.719 L
788.75 180.097 L
789.138 196.719 L
789.525 181.653 L
789.912 205.508 L
790.3 138.714 L
790.688 196.719 L
791.075 215.331 L
791.463 181.653 L
791.85 154.128 L
792.237 188.81 L
792.625 181.653 L
793.013 188.81 L
793.4 186.532 L
793.787 183.536 L
794.175 181.653 L
794.563 163.762 L
794.95 242.036 L
795.338 163.762 L
795.725 181.653 L
796.112 158.752 L
796.5 158.317 L
796.888 209.902 L
797.275 205.508 L
797.662 157.798 L
798.05 196.719 L
798.438 215.331 L
798.825 253.218 L
799.213 169.207 L
799.6 195.071 L
799.987 219.423 L
800.375 169.726 L
800.763 209.902 L
801.15 154.128 L
801.537 196.719 L
801.925 175.147 L
802.313 170.353 L
802.7 163.762 L
803.088 131.293 L
803.475 200.597 L
803.862 215.331 L
804.25 209.902 L
804.638 157.798 L
805.025 209.902 L
805.412 188.81 L
805.8 163.762 L
806.188 188.81 L
806.575 230.064 L
806.963 163.762 L
807.35 205.508 L
807.737 181.653 L
808.125 163.762 L
808.513 148.733 L
808.9 118.676 L
809.287 193.581 L
809.675 181.653 L
810.063 144.495 L
810.45 163.762 L
810.838 175.147 L
811.225 196.719 L
811.612 196.719 L
812 144.495 L
812.388 183.536 L
812.775 196.719 L
813.162 153.325 L
813.55 201.333 L
813.938 196.719 L
814.325 196.719 L
814.713 159.123 L
815.1 242.036 L
815.487 163.762 L
815.875 215.331 L
816.263 148.733 L
816.65 238.905 L
817.037 181.653 L
817.425 255.603 L
817.813 201.333 L
818.2 181.653 L
818.588 175.147 L
818.975 188.81 L
819.362 205.508 L
819.75 196.719 L
820.138 209.902 L
820.525 169.726 L
820.912 238.905 L
821.3 186.532 L
821.688 205.508 L
822.075 238.905 L
822.463 181.653 L
822.85 193.581 L
823.237 134.861 L
823.625 188.81 L
824.013 174.198 L
824.4 144.495 L
824.787 205.508 L
825.175 144.495 L
825.563 230.064 L
825.95 181.653 L
826.338 130.365 L
826.725 188.81 L
827.112 201.333 L
827.5 136.925 L
827.888 163.762 L
828.275 219.423 L
828.662 180.097 L
829.05 169.207 L
829.438 163.762 L
829.825 138.714 L
830.213 201.333 L
830.6 255.603 L
830.987 169.207 L
831.375 158.752 L
831.763 181.653 L
832.15 163.762 L
832.537 169.726 L
832.925 157.798 L
833.313 230.064 L
833.7 181.653 L
834.088 181.653 L
834.475 205.508 L
834.862 140.57 L
835.25 205.508 L
835.638 163.762 L
836.025 169.726 L
836.412 132.452 L
836.8 205.508 L
837.188 205.508 L
837.575 201.333 L
837.963 209.902 L
838.35 158.317 L
838.737 163.762 L
839.125 140.991 L
839.513 163.762 L
839.9 169.207 L
840.287 125.227 L
840.675 201.333 L
841.063 157.798 L
841.45 209.902 L
841.838 188.81 L
842.225 181.653 L
842.612 219.423 L
843 136.925 L
843.388 138.714 L
843.775 186.532 L
844.162 158.317 L
844.55 144.495 L
844.938 175.147 L
845.325 219.423 L
845.713 154.128 L
846.1 180.097 L
846.487 176.286 L
846.875 201.333 L
847.263 148.733 L
847.65 106.836 L
848.037 196.719 L
848.425 163.762 L
848.813 209.902 L
849.2 140.57 L
849.588 158.317 L
849.975 154.816 L
850.362 209.902 L
850.75 191.593 L
851.138 200.597 L
851.525 242.036 L
851.912 226.381 L
852.3 222.206 L
852.688 177.677 L
853.075 205.508 L
853.463 170.353 L
853.85 193.581 L
854.237 181.653 L
854.625 209.902 L
855.013 183.536 L
855.4 148.733 L
855.787 158.752 L
856.175 188.81 L
856.563 188.81 L
856.95 153.325 L
857.338 175.147 L
857.725 138.714 L
858.112 136.925 L
858.5 153.325 L
858.888 181.653 L
859.275 140.57 L
859.662 149.847 L
860.05 157.798 L
860.438 140.57 L
860.825 230.064 L
861.213 148.733 L
861.6 175.147 L
861.987 176.286 L
862.375 157.798 L
862.763 205.508 L
863.15 142.889 L
863.537 122.016 L
863.925 152.377 L
864.313 136.925 L
864.7 196.719 L
865.088 175.147 L
865.475 175.147 L
865.862 169.207 L
866.25 169.726 L
866.638 205.508 L
867.025 163.762 L
867.412 219.423 L
867.8 158.752 L
868.188 158.752 L
868.575 201.333 L
868.963 271.109 L
869.35 209.902 L
869.737 148.733 L
870.125 181.653 L
870.513 226.381 L
870.9 201.333 L
871.287 169.726 L
871.675 201.333 L
872.063 169.726 L
872.45 181.653 L
872.838 163.762 L
873.225 153.325 L
873.612 169.726 L
874 193.581 L
874.388 158.317 L
874.775 238.905 L
875.162 205.508 L
875.55 205.508 L
875.938 215.331 L
876.325 145.871 L
876.713 169.726 L
877.1 193.581 L
877.487 169.207 L
877.875 158.317 L
878.263 191.593 L
878.65 226.381 L
879.037 180.097 L
879.425 148.733 L
879.813 158.752 L
880.2 181.653 L
880.588 188.81 L
880.975 122.016 L
881.362 142.169 L
881.75 181.653 L
882.138 215.331 L
882.525 196.719 L
882.912 255.603 L
883.3 181.653 L
883.688 186.532 L
884.075 186.532 L
884.463 201.333 L
884.85 191.593 L
885.237 209.902 L
885.625 169.726 L
886.013 215.331 L
886.4 242.036 L
886.787 209.902 L
887.175 209.902 L
887.563 175.147 L
887.95 226.381 L
888.338 188.81 L
888.725 158.752 L
889.112 201.333 L
889.5 163.762 L
889.888 153.325 L
890.275 219.423 L
890.662 271.109 L
891.05 215.331 L
891.438 148.733 L
891.825 158.317 L
892.213 163.762 L
892.6 201.333 L
892.987 119.323 L
893.375 175.147 L
893.763 188.81 L
894.15 219.423 L
894.537 188.81 L
894.925 209.902 L
895.313 144.495 L
895.7 136.925 L
896.088 219.423 L
896.475 226.381 L
896.862 215.331 L
897.25 144.495 L
897.638 181.653 L
898.025 185.863 L
898.412 176.286 L
898.8 153.325 L
899.188 175.147 L
899.575 163.762 L
899.963 191.593 L
900.35 149.847 L
900.737 169.207 L
901.125 230.064 L
901.513 205.508 L
901.9 191.593 L
902.287 255.603 L
902.675 209.902 L
903.063 152.377 L
903.45 226.381 L
903.838 219.423 L
904.225 253.218 L
904.612 255.603 L
905 169.207 L
S
GR
GS
1 0 0 RC
1 LJ
0.5 LW
N
169.525 202.28 M
169.913 201.317 L
170.3 199.763 L
170.688 200.141 L
171.075 200.32 L
171.462 200.203 L
171.85 200.676 L
172.238 200.157 L
172.625 200.468 L
173.012 200.314 L
173.4 200.922 L
173.788 200.808 L
174.175 200.657 L
174.563 201.317 L
174.95 201.421 L
175.337 201.761 L
175.725 201.733 L
176.113 202.392 L
176.5 201.799 L
176.887 201.881 L
177.275 201.052 L
177.663 200.64 L
178.05 200.451 L
178.438 200.213 L
178.825 200.737 L
179.212 201.813 L
179.6 201.589 L
179.988 201.385 L
180.375 200.954 L
180.762 199.29 L
181.15 198.915 L
181.538 199.856 L
181.925 200.017 L
182.313 199.926 L
182.7 198.915 L
183.087 198.172 L
183.475 198.172 L
183.863 198.2 L
184.25 197.071 L
184.637 195.59 L
185.025 196.701 L
185.413 195.401 L
185.8 195.036 L
186.188 195.036 L
186.575 196.733 L
186.962 198.704 L
187.35 199.777 L
187.738 198.276 L
188.125 198.196 L
188.512 197.369 L
188.9 197.146 L
189.288 196.947 L
189.675 197.192 L
190.063 197.18 L
190.45 196.906 L
190.837 195.97 L
191.225 195.597 L
191.613 195.404 L
192 195.601 L
192.387 194.797 L
192.775 193.774 L
193.163 192.094 L
193.55 191.994 L
193.938 191.38 L
194.325 190.585 L
194.712 189.521 L
195.1 187.565 L
195.488 187.231 L
195.875 185.484 L
196.262 184.792 L
196.65 183.565 L
197.038 183.915 L
197.425 182.633 L
197.813 182.734 L
198.2 182.788 L
198.587 181.21 L
198.975 179.088 L
199.363 179.312 L
199.75 177.805 L
200.137 177.663 L
200.525 177.345 L
200.913 176.693 L
201.3 175.209 L
201.688 174.53 L
202.075 173.404 L
202.462 172.586 L
202.85 170.682 L
203.238 170.1 L
203.625 169.507 L
204.012 169.215 L
204.4 168.272 L
204.788 166.083 L
205.175 165.447 L
205.563 165.619 L
205.95 164.253 L
206.337 163.213 L
206.725 160.552 L
207.113 159.012 L
207.5 160.016 L
207.887 158.888 L
208.275 158.242 L
208.663 158.242 L
209.05 157.52 L
209.438 156.619 L
209.825 156.371 L
210.212 155.479 L
210.6 155.725 L
210.988 155.207 L
211.375 154.271 L
211.762 153.336 L
212.15 152.898 L
212.538 152.62 L
212.925 152.27 L
213.313 151.373 L
213.7 151.761 L
214.087 151.328 L
214.475 151.35 L
214.863 151.625 L
215.25 151.354 L
215.637 151.801 L
216.025 151.363 L
216.413 151.655 L
216.8 150.895 L
217.188 151.956 L
217.575 150.989 L
217.962 150.093 L
218.35 150.667 L
218.738 151.533 L
219.125 151.884 L
219.512 153.128 L
219.9 153.428 L
220.288 153.757 L
220.675 154.252 L
221.063 155.387 L
221.45 155.141 L
221.837 154.995 L
222.225 155.697 L
222.613 156.366 L
223 156.211 L
223.387 155.386 L
223.775 155.688 L
224.163 156.153 L
224.55 158.019 L
224.938 159.043 L
225.325 158.127 L
225.712 157.739 L
226.1 157.06 L
226.488 157.558 L
226.875 158.377 L
227.262 159.828 L
227.65 160.062 L
228.038 159.425 L
228.425 160.244 L
228.813 160.244 L
229.2 161.041 L
229.587 161.909 L
229.975 162.974 L
230.363 162.961 L
230.75 164.025 L
231.137 163.938 L
231.525 164.043 L
231.913 164.069 L
232.3 164.979 L
232.688 165.227 L
233.075 165.354 L
233.462 164.52 L
233.85 163.927 L
234.238 164.28 L
234.625 164.599 L
235.012 164.833 L
235.4 164.962 L
235.788 165.963 L
236.175 166.197 L
236.563 166.994 L
236.95 167.137 L
237.337 167.587 L
237.725 167.617 L
238.113 167.394 L
238.5 166.742 L
238.887 165.857 L
239.275 164.922 L
239.663 164.867 L
240.05 166.519 L
240.438 166.622 L
240.825 166.136 L
241.212 167.446 L
241.6 167.914 L
241.988 167.901 L
242.375 167.774 L
242.762 166.464 L
243.15 167.833 L
243.538 167.27 L
243.925 167.592 L
244.313 166.241 L
244.7 165.853 L
245.087 165.844 L
245.475 166.567 L
245.863 166.278 L
246.25 166.394 L
246.637 166.64 L
247.025 165.799 L
247.413 166.91 L
247.8 167.676 L
248.188 167.504 L
248.575 167.387 L
248.962 168.299 L
249.35 168.53 L
249.738 167.595 L
250.125 168.297 L
250.512 168.297 L
250.9 168.394 L
251.288 168.149 L
251.675 169.978 L
252.063 169.46 L
252.45 169.53 L
252.837 169.307 L
253.225 169.299 L
253.613 170.242 L
254 169.793 L
254.387 170.417 L
254.775 169.861 L
255.163 170.178 L
255.55 171.596 L
255.938 171.725 L
256.325 171.114 L
256.712 171.229 L
257.1 171.206 L
257.487 171.322 L
257.875 172.14 L
258.263 171.429 L
258.65 172.313 L
259.038 172.451 L
259.425 172.077 L
259.813 170.288 L
260.2 169.213 L
260.587 169.556 L
260.975 168.05 L
261.362 167.524 L
261.75 167.524 L
262.138 167.992 L
262.525 168.927 L
262.913 168.249 L
263.3 168.231 L
263.688 169.126 L
264.075 169.689 L
264.462 170.411 L
264.85 171.529 L
265.237 170.352 L
265.625 170.185 L
266.013 172.143 L
266.4 171.228 L
266.788 171.086 L
267.175 170.103 L
267.563 170.362 L
267.95 169.395 L
268.337 168.757 L
268.725 168.103 L
269.112 165.818 L
269.5 166.14 L
269.888 165.438 L
270.275 164.749 L
270.663 164.535 L
271.05 165.845 L
271.438 164.801 L
271.825 165.484 L
272.212 166.541 L
272.6 166.859 L
272.987 167.313 L
273.375 166.846 L
273.763 166.757 L
274.15 165.796 L
274.538 165.467 L
274.925 164.904 L
275.313 162.667 L
275.7 161.931 L
276.087 163.382 L
276.475 164.222 L
276.862 164.338 L
277.25 164.134 L
277.638 163.092 L
278.025 164.134 L
278.413 163.783 L
278.8 164.112 L
279.188 162.849 L
279.575 163.21 L
279.962 163.444 L
280.35 162.975 L
280.737 162.844 L
281.125 163.254 L
281.513 163.178 L
281.9 163.334 L
282.288 162.399 L
282.675 163.126 L
283.063 163.697 L
283.45 162.195 L
283.837 161.961 L
284.225 160.42 L
284.612 159.9 L
285 160.109 L
285.388 160.401 L
285.775 157.703 L
286.163 157.32 L
286.55 157.566 L
286.938 157.437 L
287.325 156.558 L
287.712 157.102 L
288.1 157.857 L
288.487 158.03 L
288.875 158.905 L
289.263 158.807 L
289.65 159.611 L
290.038 159.277 L
290.425 159.277 L
290.813 158.704 L
291.2 159.224 L
291.587 158.018 L
291.975 157.176 L
292.362 157.551 L
292.75 157.327 L
293.138 156.775 L
293.525 156.307 L
293.913 156.461 L
294.3 156.994 L
294.688 157.241 L
295.075 158.188 L
295.462 159.325 L
295.85 158.204 L
296.237 156.53 L
296.625 156.552 L
297.013 157.185 L
297.4 157.408 L
297.788 156.98 L
298.175 156.863 L
298.563 156.98 L
298.95 158.828 L
299.337 159.539 L
299.725 159.761 L
300.112 160.475 L
300.5 161.048 L
300.888 160.286 L
301.275 159.877 L
301.663 159.309 L
302.05 159.098 L
302.438 157.802 L
302.825 158.589 L
303.212 159.224 L
303.6 160.352 L
303.987 161.288 L
304.375 160.914 L
304.763 161.405 L
305.15 161.591 L
305.538 162.886 L
305.925 164.859 L
306.313 163.99 L
306.7 163.767 L
307.087 164.503 L
307.475 164.28 L
307.862 163.644 L
308.25 162.291 L
308.638 163.524 L
309.025 162.971 L
309.413 162.05 L
309.8 163.074 L
310.188 163.148 L
310.575 163.29 L
310.962 161.929 L
311.35 161.765 L
311.737 162.503 L
312.125 161.439 L
312.513 160.662 L
312.9 160.981 L
313.288 161.403 L
313.675 162.325 L
314.063 162.325 L
314.45 161.786 L
314.837 161.131 L
315.225 159.994 L
315.612 159.567 L
316 160.832 L
316.388 160.859 L
316.775 161.127 L
317.163 161.373 L
317.55 161.694 L
317.938 161.365 L
318.325 162.011 L
318.712 161.015 L
319.1 159.441 L
319.487 159.815 L
319.875 160.143 L
320.263 160.388 L
320.65 161.396 L
321.038 161.417 L
321.425 161.098 L
321.813 162.516 L
322.2 163.422 L
322.587 162.645 L
322.975 163.729 L
323.362 162.963 L
323.75 161.283 L
324.138 160.633 L
324.525 161.292 L
324.913 161.024 L
325.3 160.919 L
325.688 159.678 L
326.075 159.237 L
326.462 158.291 L
326.85 158.175 L
327.237 158.72 L
327.625 159.152 L
328.013 159.366 L
328.4 159.639 L
328.788 160.085 L
329.175 159.639 L
329.563 158.411 L
329.95 158.786 L
330.337 158.398 L
330.725 158.258 L
331.112 160.059 L
331.5 159.351 L
331.888 159.482 L
332.275 160.973 L
332.663 161.179 L
333.05 161.634 L
333.438 161.246 L
333.825 161.792 L
334.212 162.848 L
334.6 163.645 L
334.987 164.381 L
335.375 164.047 L
335.763 163.474 L
336.15 162.996 L
336.538 162.751 L
336.925 162.059 L
337.313 162.33 L
337.7 161.958 L
338.087 160.329 L
338.475 159.435 L
338.862 159.489 L
339.25 159.361 L
339.638 157.841 L
340.025 157.734 L
340.413 157.042 L
340.8 157.068 L
341.188 157.682 L
341.575 157.401 L
341.962 157.401 L
342.35 157.401 L
342.737 155.143 L
343.125 154.079 L
343.513 154.823 L
343.9 155.903 L
344.288 156.089 L
344.675 156.474 L
345.063 156.005 L
345.45 156.325 L
345.837 156.697 L
346.225 157.643 L
346.612 157.902 L
347 156.909 L
347.388 157.76 L
347.775 157.136 L
348.163 155.681 L
348.55 154.804 L
348.938 154.93 L
349.325 154.357 L
349.712 153.781 L
350.1 154.027 L
350.487 153.756 L
350.875 152.82 L
351.263 153.141 L
351.65 154.179 L
352.038 153 L
352.425 151.798 L
352.813 150.616 L
353.2 150.238 L
353.587 149.201 L
353.975 148.177 L
354.362 147.298 L
354.75 147.404 L
355.138 147.422 L
355.525 146.102 L
355.913 147.318 L
356.3 146.384 L
356.688 146.831 L
357.075 146.443 L
357.462 146.341 L
357.85 147.029 L
358.237 147.762 L
358.625 148.709 L
359.013 149.138 L
359.4 149.84 L
359.788 150.053 L
360.175 150.85 L
360.563 151.039 L
360.95 150.932 L
361.337 151.371 L
361.725 151.605 L
362.112 151.392 L
362.5 152.198 L
362.888 152.198 L
363.275 152.526 L
363.663 151.66 L
364.05 150.364 L
364.438 150.024 L
364.825 150.635 L
365.212 150.518 L
365.6 150.76 L
365.987 151.112 L
366.375 150.52 L
366.763 151.512 L
367.15 150.749 L
367.538 151.587 L
367.925 151.522 L
368.313 151.416 L
368.7 151.416 L
369.087 151.416 L
369.475 151.372 L
369.862 150.881 L
370.25 151.152 L
370.638 149.935 L
371.025 149.935 L
371.413 149.585 L
371.8 150.155 L
372.188 150.683 L
372.575 151.299 L
372.962 150.676 L
373.35 151.061 L
373.737 150.691 L
374.125 150.481 L
374.513 150.518 L
374.9 151.271 L
375.288 152.591 L
375.675 150.878 L
376.063 150.747 L
376.45 151.135 L
376.837 150.757 L
377.225 151.111 L
377.612 151.535 L
378 151.695 L
378.388 152.096 L
378.775 152.135 L
379.163 151.644 L
379.55 152.259 L
379.938 152.4 L
380.325 153.001 L
380.712 153.495 L
381.1 153.768 L
381.487 154.662 L
381.875 156.283 L
382.263 155.892 L
382.65 156.581 L
383.038 156.195 L
383.425 156.739 L
383.813 156.256 L
384.2 155.622 L
384.587 155.234 L
384.975 155.147 L
385.362 155.702 L
385.75 155.948 L
386.138 156.046 L
386.525 156.728 L
386.913 156.656 L
387.3 157.254 L
387.688 157.848 L
388.075 158.384 L
388.462 158.481 L
388.85 159.017 L
389.237 160.6 L
389.625 160.845 L
390.013 162.482 L
390.4 164.061 L
390.788 165.862 L
391.175 165.862 L
391.563 166.096 L
391.95 167.265 L
392.337 167.218 L
392.725 168.013 L
393.112 166.432 L
393.5 167.567 L
393.888 168.064 L
394.275 167.793 L
394.663 167.793 L
395.05 167.441 L
395.438 167.16 L
395.825 169.514 L
396.212 169.371 L
396.6 169.866 L
396.987 170.678 L
397.375 171.368 L
397.763 171.935 L
398.15 171.512 L
398.538 170.655 L
398.925 171.792 L
399.313 170.847 L
399.7 171.174 L
400.087 170.746 L
400.475 170.064 L
400.862 169.362 L
401.25 168.468 L
401.638 166.945 L
402.025 168.57 L
402.413 168.806 L
402.8 170.174 L
403.188 170.769 L
403.575 171.079 L
403.962 172.547 L
404.35 172.82 L
404.737 172.534 L
405.125 171.692 L
405.513 170.233 L
405.9 169.989 L
406.288 167.66 L
406.675 167.403 L
407.063 166.707 L
407.45 167.165 L
407.837 167.504 L
408.225 167.04 L
408.612 167.933 L
409 166.464 L
409.388 166.581 L
409.775 165.435 L
410.163 165.577 L
410.55 164.049 L
410.938 164.272 L
411.325 164.646 L
411.712 165.114 L
412.1 166.274 L
412.487 168.279 L
412.875 169.744 L
413.263 170.003 L
413.65 171.112 L
414.038 171.9 L
414.425 172.006 L
414.813 172.113 L
415.2 172.872 L
415.587 170.519 L
415.975 170.371 L
416.362 170.371 L
416.75 170.772 L
417.138 170.341 L
417.525 170.291 L
417.913 170.419 L
418.3 170.692 L
418.688 170.537 L
419.075 171.497 L
419.462 171.324 L
419.85 171.283 L
420.237 172.397 L
420.625 172.28 L
421.013 172.609 L
421.4 174.633 L
421.788 174.441 L
422.175 175.239 L
422.563 175.293 L
422.95 174.72 L
423.337 176.109 L
423.725 175.722 L
424.112 175.836 L
424.5 177.146 L
424.888 178.222 L
425.275 180.008 L
425.663 181.263 L
426.05 182.715 L
426.438 184.173 L
426.825 184.494 L
427.212 184.143 L
427.6 183.841 L
427.987 184.528 L
428.375 183.859 L
428.763 183.305 L
429.15 182.868 L
429.538 183.359 L
429.925 184.063 L
430.313 184.694 L
430.7 185.482 L
431.087 185.482 L
431.475 183.908 L
431.862 183.363 L
432.25 182.483 L
432.638 183.611 L
433.025 182.263 L
433.413 180.744 L
433.8 179.741 L
434.188 179.838 L
434.575 180.285 L
434.962 181.154 L
435.35 182.984 L
435.737 182.769 L
436.125 183.298 L
436.513 183.374 L
436.9 183.632 L
437.288 184.944 L
437.675 185.604 L
438.063 186.095 L
438.45 186.616 L
438.837 187.107 L
439.225 186.781 L
439.612 186.535 L
440 186.363 L
440.388 186.363 L
440.775 186.563 L
441.163 184.869 L
441.55 184.273 L
441.938 183.262 L
442.325 182.421 L
442.712 182.176 L
443.1 180.87 L
443.487 181.416 L
443.875 180.708 L
444.263 179.782 L
444.65 178.877 L
445.038 178.705 L
445.425 178.291 L
445.813 177.824 L
446.2 177.036 L
446.587 177.656 L
446.975 178.474 L
447.362 178.883 L
447.75 180.357 L
448.138 180.803 L
448.525 181.628 L
448.913 181.628 L
449.3 181.783 L
449.688 181.838 L
450.075 180.835 L
450.462 180.096 L
450.85 180.51 L
451.237 181.811 L
451.625 182.162 L
452.013 182.06 L
452.4 181.543 L
452.788 181.63 L
453.175 182.138 L
453.563 182.236 L
453.95 182.407 L
454.337 183.188 L
454.725 183.033 L
455.112 182.267 L
455.5 181.975 L
455.888 181.446 L
456.275 180.606 L
456.663 179.016 L
457.05 178.127 L
457.438 176.479 L
457.825 176.909 L
458.212 175.578 L
458.6 174.701 L
458.987 174.176 L
459.375 175.967 L
459.763 175.708 L
460.15 176.059 L
460.538 175.118 L
460.925 175.503 L
461.313 175.075 L
461.7 175.569 L
462.087 175.455 L
462.475 174.929 L
462.862 175.116 L
463.25 175.582 L
463.638 176.125 L
464.025 176.232 L
464.413 176.94 L
464.8 176.54 L
465.188 177.276 L
465.575 176.938 L
465.962 176.189 L
466.35 175.248 L
466.737 174.429 L
467.125 174.429 L
467.513 172.767 L
467.9 172.271 L
468.288 173.196 L
468.675 173.74 L
469.063 173.21 L
469.45 171.363 L
469.837 171.568 L
470.225 171.941 L
470.612 170.659 L
471 170.113 L
471.388 169.655 L
471.775 168.632 L
472.163 168.021 L
472.55 167.868 L
472.938 168.081 L
473.325 167.626 L
473.712 167.523 L
474.1 166.295 L
474.487 166.35 L
474.875 166.327 L
475.263 166.514 L
475.65 166.397 L
476.038 167.332 L
476.425 168.923 L
476.813 167.743 L
477.2 168.379 L
477.587 167.846 L
477.975 167.943 L
478.362 167.98 L
478.75 168.292 L
479.138 166.173 L
479.525 164.967 L
479.913 164.499 L
480.3 164.473 L
480.688 163.346 L
481.075 164.041 L
481.462 162.941 L
481.85 163.996 L
482.237 164.629 L
482.625 164.638 L
483.013 164.445 L
483.4 163.696 L
483.788 164.996 L
484.175 164.385 L
484.563 165.15 L
484.95 163.734 L
485.337 164.773 L
485.725 165.79 L
486.112 166.814 L
486.5 167.632 L
486.888 167.837 L
487.275 168.571 L
487.663 169.195 L
488.05 169.297 L
488.438 169.297 L
488.825 169.074 L
489.212 169.552 L
489.6 168.809 L
489.987 168.809 L
490.375 170.005 L
490.763 171.759 L
491.15 172.512 L
491.538 172.587 L
491.925 173.356 L
492.313 175.028 L
492.7 174.698 L
493.087 176.074 L
493.475 176.133 L
493.862 176.133 L
494.25 176.078 L
494.638 176.1 L
495.025 176.324 L
495.413 176.029 L
495.8 175.598 L
496.188 175.857 L
496.575 176.391 L
496.962 175.936 L
497.35 175.253 L
497.737 175.923 L
498.125 176.588 L
498.513 176.481 L
498.9 178.311 L
499.288 179.012 L
499.675 179.48 L
500.063 179.917 L
500.45 180.365 L
500.837 180.365 L
501.225 181.195 L
501.612 181.094 L
502 181.892 L
502.388 182.108 L
502.775 180.652 L
503.163 181.402 L
503.55 180.219 L
503.938 180.988 L
504.325 180.093 L
504.712 181.005 L
505.1 180.147 L
505.487 180.044 L
505.875 179.448 L
506.263 177.619 L
506.65 179.215 L
507.038 177.907 L
507.425 177.944 L
507.813 177.023 L
508.2 176.274 L
508.587 175.971 L
508.975 177.286 L
509.362 177.922 L
509.75 177.822 L
510.138 176.367 L
510.525 175 L
510.913 173.976 L
511.3 173.755 L
511.688 173.102 L
512.075 172.198 L
512.463 172.912 L
512.85 171.9 L
513.237 172.272 L
513.625 172.272 L
514.013 172.427 L
514.4 172.904 L
514.787 171.852 L
515.175 172.637 L
515.563 172.151 L
515.95 171.247 L
516.338 170.61 L
516.725 170.86 L
517.112 171.272 L
517.5 170.825 L
517.888 169.239 L
518.275 168.602 L
518.662 167.297 L
519.05 166.712 L
519.438 165.768 L
519.825 164.651 L
520.213 165.063 L
520.6 164.923 L
520.987 165.051 L
521.375 164.407 L
521.763 164.239 L
522.15 163.509 L
522.537 163.619 L
522.925 163.396 L
523.313 162.788 L
523.7 161.922 L
524.088 161.427 L
524.475 160.705 L
524.862 160.978 L
525.25 160.023 L
525.638 160.705 L
526.025 161.338 L
526.412 159.537 L
526.8 160.005 L
527.188 160.063 L
527.575 159.654 L
527.963 160.827 L
528.35 161.624 L
528.737 160.041 L
529.125 159.353 L
529.513 158.457 L
529.9 159.094 L
530.287 158.951 L
530.675 159.575 L
531.063 159.548 L
531.45 159.975 L
531.838 159.77 L
532.225 160.184 L
532.612 160.82 L
533 159.388 L
533.388 159.068 L
533.775 157.194 L
534.162 156.588 L
534.55 157.534 L
534.938 157.316 L
535.325 158.505 L
535.713 159.979 L
536.1 160.732 L
536.487 161.257 L
536.875 160.731 L
537.263 161.222 L
537.65 161.461 L
538.037 161.875 L
538.425 162.816 L
538.813 163.4 L
539.2 163.886 L
539.588 165.132 L
539.975 165.297 L
540.362 164.839 L
540.75 164.027 L
541.138 164.513 L
541.525 164.595 L
541.912 166.743 L
542.3 169.07 L
542.688 169.562 L
543.075 170.871 L
543.463 172.492 L
543.85 172.869 L
544.237 174.097 L
544.625 175.325 L
545.013 176.115 L
545.4 175.644 L
545.787 176.668 L
546.175 178.032 L
546.563 179.145 L
546.95 179.145 L
547.338 179.671 L
547.725 179.248 L
548.112 178.637 L
548.5 180.602 L
548.888 181.289 L
549.275 182.545 L
549.662 182.322 L
550.05 182.464 L
550.438 182.71 L
550.825 182.842 L
551.213 182.415 L
551.6 183.54 L
551.987 182.341 L
552.375 182.614 L
552.763 183.451 L
553.15 184.017 L
553.537 185.632 L
553.925 186.006 L
554.313 185.704 L
554.7 186.168 L
555.088 185.723 L
555.475 184.6 L
555.862 184.729 L
556.25 184.515 L
556.638 185.47 L
557.025 184.453 L
557.412 184.993 L
557.8 185.109 L
558.188 184.463 L
558.575 184.931 L
558.963 185.529 L
559.35 186.294 L
559.737 186.257 L
560.125 187.664 L
560.513 188.454 L
560.9 186.839 L
561.287 185.089 L
561.675 183.554 L
562.063 181.051 L
562.45 181.051 L
562.838 181.244 L
563.225 180.167 L
563.612 180.813 L
564 179.265 L
564.388 177.687 L
564.775 177.24 L
565.162 176.807 L
565.55 175.706 L
565.938 173.687 L
566.325 172.751 L
566.713 172.55 L
567.1 172.434 L
567.487 172.21 L
567.875 173.354 L
568.263 171.458 L
568.65 172.18 L
569.037 171.168 L
569.425 171.779 L
569.813 171.392 L
570.2 170.606 L
570.588 170.36 L
570.975 169.9 L
571.362 168.791 L
571.75 169.406 L
572.138 168.47 L
572.525 167.756 L
572.912 167.51 L
573.3 167.473 L
573.688 166.865 L
574.075 167.051 L
574.463 165.823 L
574.85 165.4 L
575.237 165.954 L
575.625 165.388 L
576.013 164.327 L
576.4 164.872 L
576.787 164.907 L
577.175 165.567 L
577.563 166.12 L
577.95 166.666 L
578.338 166.538 L
578.725 165.94 L
579.112 165.046 L
579.5 164.802 L
579.888 164.406 L
580.275 164.3 L
580.662 166.828 L
581.05 168.406 L
581.438 168.307 L
581.825 169.397 L
582.213 169.293 L
582.6 168.928 L
582.987 168.951 L
583.375 169.041 L
583.763 169.255 L
584.15 169.993 L
584.537 170.028 L
584.925 170.145 L
585.313 170.19 L
585.7 170.845 L
586.088 170.855 L
586.475 171.837 L
586.862 171.346 L
587.25 171.142 L
587.638 170.338 L
588.025 171.252 L
588.412 171.267 L
588.8 171.15 L
589.188 171.083 L
589.575 172.094 L
589.963 172.389 L
590.35 174.414 L
590.737 175.098 L
591.125 176.192 L
591.513 177.099 L
591.9 177.462 L
592.287 178.158 L
592.675 179.249 L
593.063 179.803 L
593.45 181.011 L
593.838 180.642 L
594.225 181.951 L
594.612 183.263 L
595 182.805 L
595.388 183.371 L
595.775 184.817 L
596.162 184.447 L
596.55 185.289 L
596.938 184.876 L
597.325 185.166 L
597.713 184.326 L
598.1 183.782 L
598.487 183.511 L
598.875 184.131 L
599.263 183.917 L
599.65 183.917 L
600.037 183.917 L
600.425 183.263 L
600.813 182.519 L
601.2 182.323 L
601.588 183.235 L
601.975 182.847 L
602.362 182.201 L
602.75 182.678 L
603.138 182.678 L
603.525 182.148 L
603.912 182.665 L
604.3 183.204 L
604.688 183.992 L
605.075 184.107 L
605.463 184.691 L
605.85 185.89 L
606.237 184.545 L
606.625 185.527 L
607.013 185.459 L
607.4 184.933 L
607.787 184.343 L
608.175 184.425 L
608.563 184.55 L
608.95 184.337 L
609.338 183.972 L
609.725 184.618 L
610.112 182.976 L
610.5 183.21 L
610.888 182.551 L
611.275 180.877 L
611.662 180.514 L
612.05 179.819 L
612.438 179.373 L
612.825 179.205 L
613.213 178.502 L
613.6 179.741 L
613.987 178.922 L
614.375 179.188 L
614.763 179.97 L
615.15 180.044 L
615.537 180.199 L
615.925 179.723 L
616.313 179.76 L
616.7 179.023 L
617.088 178.286 L
617.475 180.116 L
617.862 179.945 L
618.25 181.141 L
618.638 179.717 L
619.025 180.56 L
619.412 180.27 L
619.8 180.503 L
620.188 180.676 L
620.575 181.22 L
620.963 181.515 L
621.35 180.566 L
621.737 181.057 L
622.125 180.737 L
622.513 179.694 L
622.9 179.074 L
623.287 179.488 L
623.675 179.811 L
624.063 181.565 L
624.45 181.306 L
624.838 182.829 L
625.225 182.891 L
625.612 181.799 L
626 182.821 L
626.388 182.553 L
626.775 183.177 L
627.162 184.077 L
627.55 184.994 L
627.938 184.666 L
628.325 184.894 L
628.713 184.582 L
629.1 184.427 L
629.487 183.674 L
629.875 183.025 L
630.263 183.397 L
630.65 182.962 L
631.037 183.76 L
631.425 183.672 L
631.813 184.809 L
632.2 184.056 L
632.588 183.115 L
632.975 182.834 L
633.362 181.893 L
633.75 181.515 L
634.138 180.102 L
634.525 179.886 L
634.912 179.011 L
635.3 179.011 L
635.688 179.153 L
636.075 178.864 L
636.463 178.686 L
636.85 178.909 L
637.237 177.374 L
637.625 179.339 L
638.013 178.422 L
638.4 179.928 L
638.787 180.202 L
639.175 180.68 L
639.563 180.534 L
639.95 179.715 L
640.338 180.005 L
640.725 180.356 L
641.112 180.652 L
641.5 179.783 L
641.888 180.454 L
642.275 180.881 L
642.662 180.881 L
643.05 181.221 L
643.438 180.539 L
643.825 179.171 L
644.213 179.825 L
644.6 178.985 L
644.987 178.985 L
645.375 179.372 L
645.763 178.244 L
646.15 179.113 L
646.537 179.99 L
646.925 180.317 L
647.313 179.498 L
647.7 179.454 L
648.088 179.816 L
648.475 182.125 L
648.862 182.725 L
649.25 182.832 L
649.638 183.21 L
650.025 182.934 L
650.412 183.24 L
650.8 184.424 L
651.188 184.746 L
651.575 184.001 L
651.963 183.685 L
652.35 183.538 L
652.737 183.819 L
653.125 183.588 L
653.513 183.556 L
653.9 182.759 L
654.287 181.047 L
654.675 181.484 L
655.063 180.731 L
655.45 180.343 L
655.838 181.256 L
656.225 182.691 L
656.612 182.361 L
657 182.712 L
657.388 181.461 L
657.775 181.56 L
658.162 179.82 L
658.55 179.16 L
658.938 177.25 L
659.325 178.057 L
659.713 178.163 L
660.1 177.222 L
660.487 176.345 L
660.875 175.922 L
661.263 177.391 L
661.65 176.327 L
662.037 177.312 L
662.425 177.418 L
662.813 177.652 L
663.2 177.107 L
663.588 176.721 L
663.975 174.894 L
664.362 175.598 L
664.75 174.657 L
665.138 173.815 L
665.525 174.261 L
665.912 173.276 L
666.3 173.06 L
666.688 173.06 L
667.075 173.305 L
667.463 172.966 L
667.85 172.475 L
668.237 170.574 L
668.625 170.068 L
669.013 170.886 L
669.4 172.799 L
669.787 173.171 L
670.175 174.065 L
670.563 172.881 L
670.95 173.501 L
671.338 173.822 L
671.725 175.473 L
672.112 175.401 L
672.5 176.105 L
672.888 177.018 L
673.275 176.773 L
673.662 177.182 L
674.05 177.564 L
674.438 177.582 L
674.825 177.806 L
675.213 177.151 L
675.6 175.573 L
675.987 175.053 L
676.375 176.171 L
676.763 176.557 L
677.15 176.88 L
677.537 177.125 L
677.925 178.153 L
678.313 178.153 L
678.7 178.677 L
679.088 177.665 L
679.475 178.005 L
679.862 178.455 L
680.25 178.883 L
680.638 178.365 L
681.025 177.662 L
681.412 178.375 L
681.8 178.102 L
682.188 177.352 L
682.575 177.648 L
682.963 177.353 L
683.35 178.013 L
683.737 178.351 L
684.125 177.906 L
684.513 177.746 L
684.9 177.977 L
685.287 178.245 L
685.675 178.784 L
686.063 178.264 L
686.45 177.241 L
686.838 175.879 L
687.225 175.281 L
687.612 174.961 L
688 174.511 L
688.388 173.722 L
688.775 171.921 L
689.162 171.397 L
689.55 170.228 L
689.938 169.708 L
690.325 170.657 L
690.713 169.543 L
691.1 169.67 L
691.487 168.793 L
691.875 169.523 L
692.263 167.488 L
692.65 167.646 L
693.037 168.407 L
693.425 168.653 L
693.813 169.196 L
694.2 169.188 L
694.588 168.662 L
694.975 169.316 L
695.362 168.901 L
695.75 168.205 L
696.138 167.311 L
696.525 166.04 L
696.912 165.271 L
697.3 165.026 L
697.688 164.163 L
698.075 163.199 L
698.463 164.14 L
698.85 163.573 L
699.237 163.618 L
699.625 163.76 L
700.013 163.48 L
700.4 163.998 L
700.787 162.581 L
701.175 162.126 L
701.563 160.861 L
701.95 161.494 L
702.338 160.741 L
702.725 160.658 L
703.112 160.138 L
703.5 160.138 L
703.888 159.491 L
704.275 159.069 L
704.662 159.088 L
705.05 160.07 L
705.438 158.969 L
705.825 159.124 L
706.213 160.34 L
706.6 161.161 L
706.987 162.471 L
707.375 162.908 L
707.763 162.233 L
708.15 162.321 L
708.537 162.777 L
708.925 161.064 L
709.313 161.906 L
709.7 161.66 L
710.088 159.429 L
710.475 160.453 L
710.862 160.536 L
711.25 160.408 L
711.638 159.464 L
712.025 160.302 L
712.412 160.247 L
712.8 160.877 L
713.188 159.995 L
713.575 159.674 L
713.963 159.254 L
714.35 159.77 L
714.737 160.261 L
715.125 161.98 L
715.513 163.106 L
715.9 162.8 L
716.287 163.111 L
716.675 162.956 L
717.063 162.422 L
717.45 162.989 L
717.838 164.614 L
718.225 163.763 L
718.612 165.558 L
719 165.971 L
719.388 165.477 L
719.775 166.673 L
720.162 166.45 L
720.55 168.064 L
720.938 168.519 L
721.325 169.189 L
721.713 169.189 L
722.1 169.413 L
722.487 169.79 L
722.875 169.416 L
723.263 170.251 L
723.65 170.251 L
724.037 171.374 L
724.425 172.59 L
724.813 171.935 L
725.2 172.881 L
725.588 172.364 L
725.975 172.171 L
726.362 173.202 L
726.75 172.93 L
727.138 173.824 L
727.525 175.836 L
727.912 175.953 L
728.3 177.49 L
728.688 178.438 L
729.075 178.765 L
729.463 179.747 L
729.85 180.796 L
730.237 180.796 L
730.625 180.158 L
731.013 180.255 L
731.4 181.115 L
731.787 180.566 L
732.175 180.98 L
732.563 181.778 L
732.95 183.152 L
733.338 182.872 L
733.725 183.718 L
734.112 184.912 L
734.5 185.067 L
734.888 185.341 L
735.275 184.854 L
735.662 186.27 L
736.05 186.289 L
736.438 186.811 L
736.825 187.836 L
737.213 187.752 L
737.6 187.56 L
737.987 187.47 L
738.375 186.019 L
738.763 184.521 L
739.15 183.973 L
739.537 183.973 L
739.925 183.768 L
740.313 183.83 L
740.7 184.053 L
741.088 183.625 L
741.475 183.764 L
741.862 184.232 L
742.25 184.62 L
742.638 183.848 L
743.025 183.202 L
743.412 184.106 L
743.8 183.763 L
744.188 183.243 L
744.575 181.898 L
744.963 181.898 L
745.35 182.505 L
745.737 181.57 L
746.125 181.738 L
746.513 181.438 L
746.9 180.297 L
747.287 179.108 L
747.675 179.108 L
748.063 178.588 L
748.45 177.991 L
748.838 178.184 L
749.225 177.541 L
749.612 177.811 L
750 177.282 L
750.388 178.498 L
750.775 178.669 L
751.162 178.991 L
751.55 180.657 L
751.938 180.844 L
752.325 179.8 L
752.713 180.155 L
753.1 180.155 L
753.487 179.835 L
753.875 180.069 L
754.263 179.103 L
754.65 178.637 L
755.037 177.931 L
755.425 176.499 L
755.813 176.249 L
756.2 176.595 L
756.588 176.425 L
756.975 177.602 L
757.362 177.875 L
757.75 178.17 L
758.138 179.404 L
758.525 180.348 L
758.912 181.248 L
759.3 180.429 L
759.688 180.954 L
760.075 179.93 L
760.463 180.526 L
760.85 180.935 L
761.237 181.336 L
761.625 181.762 L
762.013 182.385 L
762.4 183.687 L
762.787 184.914 L
763.175 184.656 L
763.563 185.142 L
763.95 185.555 L
764.338 187.382 L
764.725 188.425 L
765.112 188.411 L
765.5 188.974 L
765.888 188.806 L
766.275 188.806 L
766.662 189.256 L
767.05 189.9 L
767.438 189.695 L
767.825 189.321 L
768.213 191.145 L
768.6 190.357 L
768.987 191 L
769.375 191.517 L
769.763 192.123 L
770.15 191.335 L
770.537 191.662 L
770.925 191.563 L
771.313 191.563 L
771.7 191.376 L
772.088 191.896 L
772.475 191.296 L
772.862 191.994 L
773.25 192.899 L
773.638 190.873 L
774.025 191.439 L
774.412 192.121 L
774.8 192.781 L
775.188 193.209 L
775.575 193.13 L
775.963 193.185 L
776.35 193.356 L
776.737 193.097 L
777.125 192.279 L
777.513 193.097 L
777.9 191.791 L
778.287 191.57 L
778.675 191.97 L
779.063 192.291 L
779.45 192.617 L
779.838 193.345 L
780.225 193.345 L
780.612 192.65 L
781 192.65 L
781.388 192.65 L
781.775 191.989 L
782.162 191.154 L
782.55 190.417 L
782.938 190.122 L
783.325 190.225 L
783.713 189.767 L
784.1 188.855 L
784.487 187.671 L
784.875 186.949 L
785.263 188.037 L
785.65 187.3 L
786.037 187.405 L
786.425 186.987 L
786.813 186.334 L
787.2 187.444 L
787.588 188.145 L
787.975 186.555 L
788.362 186.978 L
788.75 186.761 L
789.138 187.611 L
789.525 186.995 L
789.912 187.386 L
790.3 187.659 L
790.688 187.329 L
791.075 187.223 L
791.463 186.129 L
791.85 185.764 L
792.237 185.496 L
792.625 185.305 L
793.013 184.401 L
793.4 184.255 L
793.787 184.732 L
794.175 184.515 L
794.563 185.032 L
794.95 184.692 L
795.338 186.13 L
795.725 186.076 L
796.112 185.585 L
796.5 185.43 L
796.888 186.457 L
797.275 185.638 L
797.662 186.751 L
798.05 186.973 L
798.438 186.327 L
798.825 185.712 L
799.213 184.182 L
799.6 184.415 L
799.987 183.948 L
800.375 184.061 L
800.763 183.415 L
801.15 182.627 L
801.537 182.922 L
801.925 183.757 L
802.313 182.889 L
802.7 182.925 L
803.088 183.081 L
803.475 182.429 L
803.862 182.778 L
804.25 183.074 L
804.638 183.72 L
805.025 182.094 L
805.412 183.629 L
805.8 183.278 L
806.188 184.388 L
806.575 184.2 L
806.963 184.768 L
807.35 184.301 L
807.737 186.218 L
808.125 186.309 L
808.513 185.649 L
808.9 184.118 L
809.287 184.502 L
809.675 184.707 L
810.063 184.262 L
810.45 185.049 L
810.838 184.262 L
811.225 185.924 L
811.612 185.724 L
812 186.319 L
812.388 187.664 L
812.775 188.014 L
813.162 189.236 L
813.55 187.947 L
813.938 187.427 L
814.325 186.727 L
814.713 186.466 L
815.1 186.38 L
815.487 185.511 L
815.875 186.811 L
816.263 186.67 L
816.65 184.716 L
817.037 185.207 L
817.425 185.125 L
817.813 184.248 L
818.2 184.248 L
818.588 185.634 L
818.975 186.838 L
819.362 186.36 L
819.75 186.01 L
820.138 185.896 L
820.525 186.633 L
820.912 188.21 L
821.3 187.671 L
821.688 186.927 L
822.075 187.655 L
822.463 187.267 L
822.85 186.738 L
823.237 186.826 L
823.625 187.389 L
824.013 187.094 L
824.4 186.798 L
824.787 187.708 L
825.175 185.718 L
825.563 186.537 L
825.95 185.526 L
826.338 185.937 L
826.725 183.85 L
827.112 184.318 L
827.5 183.335 L
827.888 183.335 L
828.275 183.889 L
828.662 183.559 L
829.05 183.068 L
829.438 181.803 L
829.825 181.157 L
830.213 180.359 L
830.6 179.487 L
830.987 178.75 L
831.375 178.186 L
831.763 178.273 L
832.15 177.29 L
832.537 177.29 L
832.925 177.797 L
833.313 177.838 L
833.7 176.855 L
834.088 177.097 L
834.475 177.368 L
834.862 176.172 L
835.25 176.773 L
835.638 176.564 L
836.025 176.024 L
836.412 177 L
836.8 176.754 L
837.188 176.754 L
837.575 176.986 L
837.963 175.869 L
838.35 175.424 L
838.737 175.104 L
839.125 175.902 L
839.513 175.447 L
839.9 175.831 L
840.287 174.919 L
840.675 174.023 L
841.063 174.462 L
841.45 175.283 L
841.838 176.467 L
842.225 177.694 L
842.612 178.724 L
843 179.113 L
843.388 178.632 L
843.775 178.41 L
844.162 178.644 L
844.55 178.176 L
844.938 179.536 L
845.325 179.105 L
845.713 178.81 L
846.1 178.595 L
846.487 179.7 L
846.875 179.373 L
847.263 178.35 L
847.65 177.836 L
848.037 176.44 L
848.425 176.021 L
848.813 175.816 L
849.2 176.614 L
849.588 176.159 L
849.975 175.779 L
850.362 176.418 L
850.75 175.226 L
851.138 176.643 L
851.525 175.444 L
851.912 175.176 L
852.3 175.071 L
852.688 173.862 L
853.075 175.207 L
853.463 175.289 L
853.85 174.024 L
854.237 173.908 L
854.625 173.759 L
855.013 174.182 L
855.4 173.314 L
855.787 173.726 L
856.175 173.513 L
856.563 173.384 L
856.95 173.466 L
857.338 173.76 L
857.725 175.968 L
858.112 175.224 L
858.5 175.125 L
858.888 174.957 L
859.275 177.517 L
859.662 178.528 L
860.05 178.409 L
860.438 177.855 L
860.825 178.537 L
861.213 178.552 L
861.6 177.134 L
861.987 176.643 L
862.375 175.614 L
862.763 175.692 L
863.15 174.873 L
863.537 174.539 L
863.925 174.072 L
864.313 174.306 L
864.7 173.294 L
865.088 174.38 L
865.475 175.493 L
865.862 176.41 L
866.25 176.93 L
866.638 176.088 L
867.025 176.409 L
867.412 176.771 L
867.8 177.369 L
868.188 177.788 L
868.575 178.538 L
868.963 179.415 L
869.35 180.191 L
869.737 180.169 L
870.125 180.187 L
870.513 180.993 L
870.9 180.184 L
871.287 179.66 L
871.675 179.014 L
872.063 179.119 L
872.45 180.247 L
872.838 180.075 L
873.225 182.285 L
873.612 183.454 L
874 184.124 L
874.388 185.096 L
874.775 185.187 L
875.162 185.509 L
875.55 186.191 L
875.938 186.201 L
876.325 187.095 L
876.713 187.811 L
877.1 188.716 L
877.487 188.529 L
877.875 188.851 L
878.263 190.177 L
878.65 189.931 L
879.037 187.728 L
879.425 187.56 L
879.813 187.855 L
880.2 187.3 L
880.588 187.163 L
880.975 188.531 L
881.362 189.425 L
881.75 188.394 L
882.138 188.17 L
882.525 187.82 L
882.912 188.556 L
883.3 187.89 L
883.688 187.996 L
884.075 187.902 L
884.463 189.101 L
884.85 188.118 L
885.237 188.204 L
885.625 187.008 L
886.013 185.471 L
886.4 186.913 L
886.787 188.024 L
887.175 188.45 L
887.563 187.966 L
887.95 188.423 L
888.338 188.311 L
888.725 187.329 L
889.112 186.804 L
889.5 187.322 L
889.888 187.42 L
890.275 187.615 L
890.662 186.851 L
891.05 187.776 L
891.438 189.5 L
891.825 189.967 L
892.213 189.502 L
892.6 190.656 L
892.987 189.76 L
893.375 189.186 L
893.763 189.968 L
894.15 190.613 L
894.537 191.63 L
894.925 192.885 L
895.313 192.087 L
895.7 192.534 L
896.088 192.069 L
896.475 191.028 L
896.862 190.627 L
897.25 190.207 L
897.638 190.542 L
898.025 189.728 L
898.412 189.749 L
898.8 190.487 L
899.188 190.222 L
899.575 190.884 L
899.963 191.847 L
900.35 191.121 L
900.737 188.959 L
901.125 188.227 L
901.513 189.355 L
901.9 190.268 L
902.287 191.071 L
902.675 190.751 L
903.063 193.055 L
903.45 193.652 L
903.838 193.819 L
904.225 192.904 L
904.612 193.056 L
905 192.408 L
S
GR
%%Trailer
%%Pages: 1
%%EOF
