%!PS-Adobe-3.0 EPSF-3.0
%%Creator: (MATLAB, The Mathworks, Inc. Version 9.0.0.341360 \(R2016a\). Operating System: Linux)
%%Title: report/figures/sm_base_lin_nopriosampling3_ratio.eps
%%CreationDate: 2017-02-04T23:56:27
%%Pages: (atend)
%%BoundingBox:    59     4   910   325
%%LanguageLevel: 3
%%EndComments
%%BeginProlog
%%BeginResource: procset (Apache XML Graphics Std ProcSet) 1.2 0
%%Version: 1.2 0
%%Copyright: (Copyright 2001-2003,2010 The Apache Software Foundation. License terms: http://www.apache.org/licenses/LICENSE-2.0)
/bd{bind def}bind def
/ld{load def}bd
/GR/grestore ld
/M/moveto ld
/LJ/setlinejoin ld
/C/curveto ld
/f/fill ld
/LW/setlinewidth ld
/GC/setgray ld
/t/show ld
/N/newpath ld
/CT/concat ld
/cp/closepath ld
/S/stroke ld
/L/lineto ld
/CC/setcmykcolor ld
/A/ashow ld
/GS/gsave ld
/RC/setrgbcolor ld
/RM/rmoveto ld
/ML/setmiterlimit ld
/re {4 2 roll M
1 index 0 rlineto
0 exch rlineto
neg 0 rlineto
cp } bd
/_ctm matrix def
/_tm matrix def
/BT { _ctm currentmatrix pop matrix _tm copy pop 0 0 moveto } bd
/ET { _ctm setmatrix } bd
/iTm { _ctm setmatrix _tm concat } bd
/Tm { _tm astore pop iTm 0 0 moveto } bd
/ux 0.0 def
/uy 0.0 def
/F {
  /Tp exch def
  /Tf exch def
  Tf findfont Tp scalefont setfont
  /cf Tf def  /cs Tp def
} bd
/ULS {currentpoint /uy exch def /ux exch def} bd
/ULE {
  /Tcx currentpoint pop def
  gsave
  newpath
  cf findfont cs scalefont dup
  /FontMatrix get 0 get /Ts exch def /FontInfo get dup
  /UnderlinePosition get Ts mul /To exch def
  /UnderlineThickness get Ts mul /Tt exch def
  ux uy To add moveto  Tcx uy To add lineto
  Tt setlinewidth stroke
  grestore
} bd
/OLE {
  /Tcx currentpoint pop def
  gsave
  newpath
  cf findfont cs scalefont dup
  /FontMatrix get 0 get /Ts exch def /FontInfo get dup
  /UnderlinePosition get Ts mul /To exch def
  /UnderlineThickness get Ts mul /Tt exch def
  ux uy To add cs add moveto Tcx uy To add cs add lineto
  Tt setlinewidth stroke
  grestore
} bd
/SOE {
  /Tcx currentpoint pop def
  gsave
  newpath
  cf findfont cs scalefont dup
  /FontMatrix get 0 get /Ts exch def /FontInfo get dup
  /UnderlinePosition get Ts mul /To exch def
  /UnderlineThickness get Ts mul /Tt exch def
  ux uy To add cs 10 mul 26 idiv add moveto Tcx uy To add cs 10 mul 26 idiv add lineto
  Tt setlinewidth stroke
  grestore
} bd
/QT {
/Y22 exch store
/X22 exch store
/Y21 exch store
/X21 exch store
currentpoint
/Y21 load 2 mul add 3 div exch
/X21 load 2 mul add 3 div exch
/X21 load 2 mul /X22 load add 3 div
/Y21 load 2 mul /Y22 load add 3 div
/X22 load /Y22 load curveto
} bd
/SSPD {
dup length /d exch dict def
{
/v exch def
/k exch def
currentpagedevice k known {
/cpdv currentpagedevice k get def
v cpdv ne {
/upd false def
/nullv v type /nulltype eq def
/nullcpdv cpdv type /nulltype eq def
nullv nullcpdv or
{
/upd true def
} {
/sametype v type cpdv type eq def
sametype {
v type /arraytype eq {
/vlen v length def
/cpdvlen cpdv length def
vlen cpdvlen eq {
0 1 vlen 1 sub {
/i exch def
/obj v i get def
/cpdobj cpdv i get def
obj cpdobj ne {
/upd true def
exit
} if
} for
} {
/upd true def
} ifelse
} {
v type /dicttype eq {
v {
/dv exch def
/dk exch def
/cpddv cpdv dk get def
dv cpddv ne {
/upd true def
exit
} if
} forall
} {
/upd true def
} ifelse
} ifelse
} if
} ifelse
upd true eq {
d k v put
} if
} if
} if
} forall
d length 0 gt {
d setpagedevice
} if
} bd
%%EndResource
%%BeginResource: procset (Apache XML Graphics EPS ProcSet) 1.0 0
%%Version: 1.0 0
%%Copyright: (Copyright 2002-2003 The Apache Software Foundation. License terms: http://www.apache.org/licenses/LICENSE-2.0)
/BeginEPSF { %def
/b4_Inc_state save def         % Save state for cleanup
/dict_count countdictstack def % Count objects on dict stack
/op_count count 1 sub def      % Count objects on operand stack
userdict begin                 % Push userdict on dict stack
/showpage { } def              % Redefine showpage, { } = null proc
0 setgray 0 setlinecap         % Prepare graphics state
1 setlinewidth 0 setlinejoin
10 setmiterlimit [ ] 0 setdash newpath
/languagelevel where           % If level not equal to 1 then
{pop languagelevel             % set strokeadjust and
1 ne                           % overprint to their defaults.
{false setstrokeadjust false setoverprint
} if
} if
} bd
/EndEPSF { %def
count op_count sub {pop} repeat            % Clean up stacks
countdictstack dict_count sub {end} repeat
b4_Inc_state restore
} bd
%%EndResource
%%EndProlog
%%Page: 1 1
%%PageBoundingBox: 0 0 1000 350
%%BeginPageSetup
[1 0 0 -1 0 350] CT
%%EndPageSetup
GS
1 GC
N
0 0 1000 350 re
f
GR
GS
1 GC
N
0 0 1000 350 re
f
GR
GS
1 GC
N
130 289 M
905 289 L
905 26 L
130 26 L
cp
f
GR
GS
0.873 GC
1 LJ
0.5 LW
N
130 289 M
130 26 L
S
GR
GS
0.873 GC
1 LJ
0.5 LW
N
323.75 289 M
323.75 26 L
S
GR
GS
0.873 GC
1 LJ
0.5 LW
N
517.5 289 M
517.5 26 L
S
GR
GS
0.873 GC
1 LJ
0.5 LW
N
711.25 289 M
711.25 26 L
S
GR
GS
0.873 GC
1 LJ
0.5 LW
N
905 289 M
905 26 L
S
GR
GS
0.873 GC
1 LJ
0.5 LW
N
905 289 M
130 289 L
S
GR
GS
0.873 GC
1 LJ
0.5 LW
N
905 238.905 M
130 238.905 L
S
GR
GS
0.873 GC
1 LJ
0.5 LW
N
905 188.81 M
130 188.81 L
S
GR
GS
0.873 GC
1 LJ
0.5 LW
N
905 138.714 M
130 138.714 L
S
GR
GS
0.873 GC
1 LJ
0.5 LW
N
905 88.619 M
130 88.619 L
S
GR
GS
0.873 GC
1 LJ
0.5 LW
N
905 38.524 M
130 38.524 L
S
GR
GS
0.149 GC
2 setlinecap
1 LJ
0.5 LW
N
130 289 M
905 289 L
S
GR
GS
0.149 GC
2 setlinecap
1 LJ
0.5 LW
N
130 289 M
130 281.25 L
S
GR
GS
0.149 GC
2 setlinecap
1 LJ
0.5 LW
N
323.75 289 M
323.75 281.25 L
S
GR
GS
0.149 GC
2 setlinecap
1 LJ
0.5 LW
N
517.5 289 M
517.5 281.25 L
S
GR
GS
0.149 GC
2 setlinecap
1 LJ
0.5 LW
N
711.25 289 M
711.25 281.25 L
S
GR
GS
0.149 GC
2 setlinecap
1 LJ
0.5 LW
N
905 289 M
905 281.25 L
S
GR
GS
[1 0 0 1 130 295] CT
0.149 GC
N
-0.141 5.719 M
-1.672 5.719 -2.438 7.219 QT
-3.203 8.719 -3.203 11.719 QT
-3.203 14.719 -2.438 16.219 QT
-1.672 17.719 -0.141 17.719 QT
1.391 17.719 2.156 16.219 QT
2.922 14.719 2.922 11.719 QT
2.922 8.719 2.156 7.219 QT
1.391 5.719 -0.141 5.719 QT
cp
-0.141 4.156 M
2.313 4.156 3.602 6.094 QT
4.891 8.031 4.891 11.719 QT
4.891 15.406 3.602 17.344 QT
2.313 19.281 -0.141 19.281 QT
-2.594 19.281 -3.891 17.344 QT
-5.188 15.406 -5.188 11.719 QT
-5.188 8.031 -3.891 6.094 QT
-2.594 4.156 -0.141 4.156 QT
cp
f
GR
GS
[1 0 0 1 323.75 295] CT
0.149 GC
N
-9.641 5.719 M
-11.172 5.719 -11.938 7.219 QT
-12.703 8.719 -12.703 11.719 QT
-12.703 14.719 -11.938 16.219 QT
-11.172 17.719 -9.641 17.719 QT
-8.109 17.719 -7.344 16.219 QT
-6.578 14.719 -6.578 11.719 QT
-6.578 8.719 -7.344 7.219 QT
-8.109 5.719 -9.641 5.719 QT
cp
-9.641 4.156 M
-7.188 4.156 -5.898 6.094 QT
-4.609 8.031 -4.609 11.719 QT
-4.609 15.406 -5.898 17.344 QT
-7.188 19.281 -9.641 19.281 QT
-12.094 19.281 -13.391 17.344 QT
-14.688 15.406 -14.688 11.719 QT
-14.688 8.031 -13.391 6.094 QT
-12.094 4.156 -9.641 4.156 QT
cp
-1.135 16.516 M
0.928 16.516 L
0.928 19 L
-1.135 19 L
-1.135 16.516 L
cp
5.238 4.422 M
12.988 4.422 L
12.988 6.078 L
7.051 6.078 L
7.051 9.656 L
7.473 9.5 7.902 9.43 QT
8.332 9.359 8.77 9.359 QT
11.207 9.359 12.637 10.695 QT
14.066 12.031 14.066 14.328 QT
14.066 16.672 12.598 17.977 QT
11.129 19.281 8.457 19.281 QT
7.551 19.281 6.598 19.125 QT
5.645 18.969 4.629 18.656 QT
4.629 16.672 L
5.504 17.156 6.441 17.391 QT
7.379 17.625 8.426 17.625 QT
10.113 17.625 11.098 16.734 QT
12.082 15.844 12.082 14.328 QT
12.082 12.797 11.098 11.906 QT
10.113 11.016 8.426 11.016 QT
7.629 11.016 6.848 11.195 QT
6.066 11.375 5.238 11.75 QT
5.238 4.422 L
cp
f
GR
GS
[1 0 0 1 517.5 295] CT
0.149 GC
N
-4.016 17.344 M
-0.797 17.344 L
-0.797 6.219 L
-4.297 6.922 L
-4.297 5.125 L
-0.813 4.422 L
1.156 4.422 L
1.156 17.344 L
4.375 17.344 L
4.375 19 L
-4.016 19 L
-4.016 17.344 L
cp
f
GR
GS
[1 0 0 1 711.25 295] CT
0.149 GC
N
-13.516 17.344 M
-10.297 17.344 L
-10.297 6.219 L
-13.797 6.922 L
-13.797 5.125 L
-10.313 4.422 L
-8.344 4.422 L
-8.344 17.344 L
-5.125 17.344 L
-5.125 19 L
-13.516 19 L
-13.516 17.344 L
cp
-1.135 16.516 M
0.928 16.516 L
0.928 19 L
-1.135 19 L
-1.135 16.516 L
cp
5.238 4.422 M
12.988 4.422 L
12.988 6.078 L
7.051 6.078 L
7.051 9.656 L
7.473 9.5 7.902 9.43 QT
8.332 9.359 8.77 9.359 QT
11.207 9.359 12.637 10.695 QT
14.066 12.031 14.066 14.328 QT
14.066 16.672 12.598 17.977 QT
11.129 19.281 8.457 19.281 QT
7.551 19.281 6.598 19.125 QT
5.645 18.969 4.629 18.656 QT
4.629 16.672 L
5.504 17.156 6.441 17.391 QT
7.379 17.625 8.426 17.625 QT
10.113 17.625 11.098 16.734 QT
12.082 15.844 12.082 14.328 QT
12.082 12.797 11.098 11.906 QT
10.113 11.016 8.426 11.016 QT
7.629 11.016 6.848 11.195 QT
6.066 11.375 5.238 11.75 QT
5.238 4.422 L
cp
f
GR
GS
[1 0 0 1 905 295] CT
0.149 GC
N
-2.656 17.344 M
4.219 17.344 L
4.219 19 L
-5.031 19 L
-5.031 17.344 L
-3.906 16.172 -1.969 14.219 QT
-0.031 12.266 0.469 11.688 QT
1.406 10.625 1.781 9.891 QT
2.156 9.156 2.156 8.438 QT
2.156 7.281 1.344 6.547 QT
0.531 5.813 -0.781 5.813 QT
-1.703 5.813 -2.734 6.133 QT
-3.766 6.453 -4.938 7.109 QT
-4.938 5.125 L
-3.75 4.641 -2.711 4.398 QT
-1.672 4.156 -0.813 4.156 QT
1.453 4.156 2.797 5.289 QT
4.141 6.422 4.141 8.313 QT
4.141 9.219 3.805 10.023 QT
3.469 10.828 2.578 11.922 QT
2.344 12.203 1.031 13.555 QT
-0.281 14.906 -2.656 17.344 QT
cp
f
GR
GS
[1 0 0 1 517.50037 320] CT
0.149 GC
N
-14.25 9.328 M
-14.25 11.188 L
-15.094 10.766 -16 10.547 QT
-16.906 10.328 -17.859 10.328 QT
-19.344 10.328 -20.078 10.781 QT
-20.813 11.234 -20.813 12.141 QT
-20.813 12.828 -20.281 13.219 QT
-19.75 13.609 -18.172 13.969 QT
-17.484 14.109 L
-15.391 14.563 -14.5 15.383 QT
-13.609 16.203 -13.609 17.688 QT
-13.609 19.359 -14.938 20.336 QT
-16.266 21.313 -18.578 21.313 QT
-19.547 21.313 -20.594 21.125 QT
-21.641 20.938 -22.813 20.563 QT
-22.813 18.516 L
-21.719 19.094 -20.648 19.375 QT
-19.578 19.656 -18.547 19.656 QT
-17.141 19.656 -16.391 19.18 QT
-15.641 18.703 -15.641 17.828 QT
-15.641 17.031 -16.188 16.602 QT
-16.734 16.172 -18.563 15.766 QT
-19.25 15.609 L
-21.094 15.219 -21.906 14.422 QT
-22.719 13.625 -22.719 12.219 QT
-22.719 10.531 -21.516 9.602 QT
-20.313 8.672 -18.109 8.672 QT
-17 8.672 -16.039 8.836 QT
-15.078 9 -14.25 9.328 QT
cp
-8.507 5.547 M
-8.507 8.969 L
-4.444 8.969 L
-4.444 10.5 L
-8.507 10.5 L
-8.507 17.031 L
-8.507 18.5 -8.108 18.922 QT
-7.71 19.344 -6.476 19.344 QT
-4.444 19.344 L
-4.444 21 L
-6.476 21 L
-8.757 21 -9.624 20.148 QT
-10.491 19.297 -10.491 17.031 QT
-10.491 10.5 L
-11.944 10.5 L
-11.944 8.969 L
-10.491 8.969 L
-10.491 5.547 L
-8.507 5.547 L
cp
8.447 14.484 M
8.447 15.453 L
-0.631 15.453 L
-0.506 17.5 0.596 18.57 QT
1.697 19.641 3.666 19.641 QT
4.807 19.641 5.869 19.359 QT
6.932 19.078 7.994 18.516 QT
7.994 20.391 L
6.932 20.844 5.814 21.078 QT
4.697 21.313 3.541 21.313 QT
0.666 21.313 -1.014 19.633 QT
-2.693 17.953 -2.693 15.109 QT
-2.693 12.141 -1.1 10.406 QT
0.494 8.672 3.197 8.672 QT
5.635 8.672 7.041 10.234 QT
8.447 11.797 8.447 14.484 QT
cp
6.479 13.906 M
6.447 12.281 5.564 11.32 QT
4.682 10.359 3.229 10.359 QT
1.572 10.359 0.572 11.289 QT
-0.428 12.219 -0.568 13.922 QT
6.479 13.906 L
cp
13.607 19.188 M
13.607 25.578 L
11.623 25.578 L
11.623 8.969 L
13.607 8.969 L
13.607 10.797 L
14.232 9.719 15.186 9.195 QT
16.139 8.672 17.451 8.672 QT
19.639 8.672 21.014 10.414 QT
22.389 12.156 22.389 15 QT
22.389 17.828 21.014 19.57 QT
19.639 21.313 17.451 21.313 QT
16.139 21.313 15.186 20.789 QT
14.232 20.266 13.607 19.188 QT
cp
20.326 15 M
20.326 12.813 19.436 11.57 QT
18.545 10.328 16.967 10.328 QT
15.404 10.328 14.506 11.57 QT
13.607 12.813 13.607 15 QT
13.607 17.172 14.506 18.414 QT
15.404 19.656 16.967 19.656 QT
18.545 19.656 19.436 18.414 QT
20.326 17.172 20.326 15 QT
cp
f
GR
GS
[1 0 0 1 852 345] CT
0.149 GC
N
2.938 -0.578 M
2.938 -0.734 3.031 -0.859 QT
7.203 -5 L
3.031 -9.156 L
2.938 -9.266 2.938 -9.422 QT
2.938 -9.578 3.055 -9.703 QT
3.172 -9.828 3.344 -9.828 QT
3.484 -9.828 3.641 -9.703 QT
7.781 -5.563 L
11.906 -9.703 L
12.078 -9.828 12.203 -9.828 QT
12.359 -9.828 12.477 -9.711 QT
12.594 -9.594 12.594 -9.422 QT
12.594 -9.266 12.5 -9.156 QT
8.344 -5 L
12.5 -0.859 L
12.594 -0.734 12.594 -0.578 QT
12.594 -0.406 12.477 -0.289 QT
12.359 -0.172 12.203 -0.172 QT
12.047 -0.172 11.906 -0.328 QT
7.781 -4.438 L
3.641 -0.328 L
3.5 -0.172 3.344 -0.172 QT
3.172 -0.172 3.055 -0.305 QT
2.938 -0.438 2.938 -0.578 QT
cp
f
GR
GS
[1 0 0 1 868 345] CT
0.149 GC
N
2.484 -1.656 M
5.703 -1.656 L
5.703 -12.781 L
2.203 -12.078 L
2.203 -13.875 L
5.688 -14.578 L
7.656 -14.578 L
7.656 -1.656 L
10.875 -1.656 L
10.875 0 L
2.484 0 L
2.484 -1.656 L
cp
19.084 -13.281 M
17.553 -13.281 16.787 -11.781 QT
16.021 -10.281 16.021 -7.281 QT
16.021 -4.281 16.787 -2.781 QT
17.553 -1.281 19.084 -1.281 QT
20.615 -1.281 21.381 -2.781 QT
22.146 -4.281 22.146 -7.281 QT
22.146 -10.281 21.381 -11.781 QT
20.615 -13.281 19.084 -13.281 QT
cp
19.084 -14.844 M
21.537 -14.844 22.826 -12.906 QT
24.115 -10.969 24.115 -7.281 QT
24.115 -3.594 22.826 -1.656 QT
21.537 0.281 19.084 0.281 QT
16.631 0.281 15.334 -1.656 QT
14.037 -3.594 14.037 -7.281 QT
14.037 -10.969 15.334 -12.906 QT
16.631 -14.844 19.084 -14.844 QT
cp
f
GR
GS
[1 0 0 1 894 335] CT
0.149 GC
N
5.281 -6.469 M
4.219 -6.469 3.602 -5.742 QT
2.984 -5.016 2.984 -3.75 QT
2.984 -2.484 3.602 -1.758 QT
4.219 -1.031 5.281 -1.031 QT
6.344 -1.031 6.969 -1.758 QT
7.594 -2.484 7.594 -3.75 QT
7.594 -5.016 6.969 -5.742 QT
6.344 -6.469 5.281 -6.469 QT
cp
8.422 -11.406 M
8.422 -9.969 L
7.828 -10.25 7.219 -10.398 QT
6.609 -10.547 6.016 -10.547 QT
4.453 -10.547 3.633 -9.492 QT
2.813 -8.438 2.688 -6.313 QT
3.156 -6.984 3.852 -7.352 QT
4.547 -7.719 5.375 -7.719 QT
7.141 -7.719 8.156 -6.648 QT
9.172 -5.578 9.172 -3.75 QT
9.172 -1.953 8.109 -0.859 QT
7.047 0.234 5.281 0.234 QT
3.266 0.234 2.195 -1.32 QT
1.125 -2.875 1.125 -5.828 QT
1.125 -8.594 2.438 -10.234 QT
3.75 -11.875 5.953 -11.875 QT
6.547 -11.875 7.156 -11.758 QT
7.766 -11.641 8.422 -11.406 QT
cp
f
GR
GS
0.149 GC
2 setlinecap
1 LJ
0.5 LW
N
130 289 M
130 26 L
S
GR
GS
0.149 GC
2 setlinecap
1 LJ
0.5 LW
N
130 289 M
137.75 289 L
S
GR
GS
0.149 GC
2 setlinecap
1 LJ
0.5 LW
N
130 238.905 M
137.75 238.905 L
S
GR
GS
0.149 GC
2 setlinecap
1 LJ
0.5 LW
N
130 188.81 M
137.75 188.81 L
S
GR
GS
0.149 GC
2 setlinecap
1 LJ
0.5 LW
N
130 138.714 M
137.75 138.714 L
S
GR
GS
0.149 GC
2 setlinecap
1 LJ
0.5 LW
N
130 88.619 M
137.75 88.619 L
S
GR
GS
0.149 GC
2 setlinecap
1 LJ
0.5 LW
N
130 38.524 M
137.75 38.524 L
S
GR
GS
[1 0 0 1 124 289] CT
0.149 GC
N
-6.641 -6.281 M
-8.172 -6.281 -8.938 -4.781 QT
-9.703 -3.281 -9.703 -0.281 QT
-9.703 2.719 -8.938 4.219 QT
-8.172 5.719 -6.641 5.719 QT
-5.109 5.719 -4.344 4.219 QT
-3.578 2.719 -3.578 -0.281 QT
-3.578 -3.281 -4.344 -4.781 QT
-5.109 -6.281 -6.641 -6.281 QT
cp
-6.641 -7.844 M
-4.188 -7.844 -2.898 -5.906 QT
-1.609 -3.969 -1.609 -0.281 QT
-1.609 3.406 -2.898 5.344 QT
-4.188 7.281 -6.641 7.281 QT
-9.094 7.281 -10.391 5.344 QT
-11.688 3.406 -11.688 -0.281 QT
-11.688 -3.969 -10.391 -5.906 QT
-9.094 -7.844 -6.641 -7.844 QT
cp
f
GR
GS
[1 0 0 1 124 238.90475] CT
0.149 GC
N
-22.156 5.344 M
-15.281 5.344 L
-15.281 7 L
-24.531 7 L
-24.531 5.344 L
-23.406 4.172 -21.469 2.219 QT
-19.531 0.266 -19.031 -0.313 QT
-18.094 -1.375 -17.719 -2.109 QT
-17.344 -2.844 -17.344 -3.563 QT
-17.344 -4.719 -18.156 -5.453 QT
-18.969 -6.188 -20.281 -6.188 QT
-21.203 -6.188 -22.234 -5.867 QT
-23.266 -5.547 -24.438 -4.891 QT
-24.438 -6.875 L
-23.25 -7.359 -22.211 -7.602 QT
-21.172 -7.844 -20.313 -7.844 QT
-18.047 -7.844 -16.703 -6.711 QT
-15.359 -5.578 -15.359 -3.688 QT
-15.359 -2.781 -15.695 -1.977 QT
-16.031 -1.172 -16.922 -0.078 QT
-17.156 0.203 -18.469 1.555 QT
-19.781 2.906 -22.156 5.344 QT
cp
-6.916 -6.281 M
-8.447 -6.281 -9.213 -4.781 QT
-9.979 -3.281 -9.979 -0.281 QT
-9.979 2.719 -9.213 4.219 QT
-8.447 5.719 -6.916 5.719 QT
-5.385 5.719 -4.619 4.219 QT
-3.854 2.719 -3.854 -0.281 QT
-3.854 -3.281 -4.619 -4.781 QT
-5.385 -6.281 -6.916 -6.281 QT
cp
-6.916 -7.844 M
-4.463 -7.844 -3.174 -5.906 QT
-1.885 -3.969 -1.885 -0.281 QT
-1.885 3.406 -3.174 5.344 QT
-4.463 7.281 -6.916 7.281 QT
-9.369 7.281 -10.666 5.344 QT
-11.963 3.406 -11.963 -0.281 QT
-11.963 -3.969 -10.666 -5.906 QT
-9.369 -7.844 -6.916 -7.844 QT
cp
f
GR
GS
[1 0 0 1 124 188.80952] CT
0.149 GC
N
-18.438 -5.859 M
-23.422 1.922 L
-18.438 1.922 L
-18.438 -5.859 L
cp
-18.953 -7.578 M
-16.484 -7.578 L
-16.484 1.922 L
-14.391 1.922 L
-14.391 3.563 L
-16.484 3.563 L
-16.484 7 L
-18.438 7 L
-18.438 3.563 L
-25.016 3.563 L
-25.016 1.656 L
-18.953 -7.578 L
cp
-6.916 -6.281 M
-8.447 -6.281 -9.213 -4.781 QT
-9.979 -3.281 -9.979 -0.281 QT
-9.979 2.719 -9.213 4.219 QT
-8.447 5.719 -6.916 5.719 QT
-5.385 5.719 -4.619 4.219 QT
-3.854 2.719 -3.854 -0.281 QT
-3.854 -3.281 -4.619 -4.781 QT
-5.385 -6.281 -6.916 -6.281 QT
cp
-6.916 -7.844 M
-4.463 -7.844 -3.174 -5.906 QT
-1.885 -3.969 -1.885 -0.281 QT
-1.885 3.406 -3.174 5.344 QT
-4.463 7.281 -6.916 7.281 QT
-9.369 7.281 -10.666 5.344 QT
-11.963 3.406 -11.963 -0.281 QT
-11.963 -3.969 -10.666 -5.906 QT
-9.369 -7.844 -6.916 -7.844 QT
cp
f
GR
GS
[1 0 0 1 124 138.71428] CT
0.149 GC
N
-19.391 -1.078 M
-20.719 -1.078 -21.5 -0.172 QT
-22.281 0.734 -22.281 2.328 QT
-22.281 3.891 -21.5 4.805 QT
-20.719 5.719 -19.391 5.719 QT
-18.063 5.719 -17.289 4.805 QT
-16.516 3.891 -16.516 2.328 QT
-16.516 0.734 -17.289 -0.172 QT
-18.063 -1.078 -19.391 -1.078 QT
cp
-15.484 -7.266 M
-15.484 -5.469 L
-16.219 -5.813 -16.977 -6 QT
-17.734 -6.188 -18.484 -6.188 QT
-20.438 -6.188 -21.469 -4.867 QT
-22.5 -3.547 -22.641 -0.875 QT
-22.063 -1.734 -21.195 -2.188 QT
-20.328 -2.641 -19.281 -2.641 QT
-17.078 -2.641 -15.805 -1.305 QT
-14.531 0.031 -14.531 2.328 QT
-14.531 4.563 -15.859 5.922 QT
-17.188 7.281 -19.391 7.281 QT
-21.922 7.281 -23.266 5.344 QT
-24.609 3.406 -24.609 -0.281 QT
-24.609 -3.734 -22.969 -5.789 QT
-21.328 -7.844 -18.563 -7.844 QT
-17.813 -7.844 -17.055 -7.695 QT
-16.297 -7.547 -15.484 -7.266 QT
cp
-6.916 -6.281 M
-8.447 -6.281 -9.213 -4.781 QT
-9.979 -3.281 -9.979 -0.281 QT
-9.979 2.719 -9.213 4.219 QT
-8.447 5.719 -6.916 5.719 QT
-5.385 5.719 -4.619 4.219 QT
-3.854 2.719 -3.854 -0.281 QT
-3.854 -3.281 -4.619 -4.781 QT
-5.385 -6.281 -6.916 -6.281 QT
cp
-6.916 -7.844 M
-4.463 -7.844 -3.174 -5.906 QT
-1.885 -3.969 -1.885 -0.281 QT
-1.885 3.406 -3.174 5.344 QT
-4.463 7.281 -6.916 7.281 QT
-9.369 7.281 -10.666 5.344 QT
-11.963 3.406 -11.963 -0.281 QT
-11.963 -3.969 -10.666 -5.906 QT
-9.369 -7.844 -6.916 -7.844 QT
cp
f
GR
GS
[1 0 0 1 124 88.61905] CT
0.149 GC
N
-19.641 0.078 M
-21.047 0.078 -21.852 0.828 QT
-22.656 1.578 -22.656 2.891 QT
-22.656 4.219 -21.852 4.969 QT
-21.047 5.719 -19.641 5.719 QT
-18.234 5.719 -17.422 4.961 QT
-16.609 4.203 -16.609 2.891 QT
-16.609 1.578 -17.414 0.828 QT
-18.219 0.078 -19.641 0.078 QT
cp
-21.609 -0.766 M
-22.891 -1.078 -23.594 -1.945 QT
-24.297 -2.813 -24.297 -4.063 QT
-24.297 -5.813 -23.055 -6.828 QT
-21.813 -7.844 -19.641 -7.844 QT
-17.469 -7.844 -16.227 -6.828 QT
-14.984 -5.813 -14.984 -4.063 QT
-14.984 -2.813 -15.695 -1.945 QT
-16.406 -1.078 -17.656 -0.766 QT
-16.234 -0.438 -15.438 0.531 QT
-14.641 1.5 -14.641 2.891 QT
-14.641 5.016 -15.938 6.148 QT
-17.234 7.281 -19.641 7.281 QT
-22.047 7.281 -23.344 6.148 QT
-24.641 5.016 -24.641 2.891 QT
-24.641 1.5 -23.844 0.531 QT
-23.047 -0.438 -21.609 -0.766 QT
cp
-22.344 -3.875 M
-22.344 -2.75 -21.633 -2.117 QT
-20.922 -1.484 -19.641 -1.484 QT
-18.375 -1.484 -17.656 -2.117 QT
-16.938 -2.75 -16.938 -3.875 QT
-16.938 -5.016 -17.656 -5.648 QT
-18.375 -6.281 -19.641 -6.281 QT
-20.922 -6.281 -21.633 -5.648 QT
-22.344 -5.016 -22.344 -3.875 QT
cp
-6.916 -6.281 M
-8.447 -6.281 -9.213 -4.781 QT
-9.979 -3.281 -9.979 -0.281 QT
-9.979 2.719 -9.213 4.219 QT
-8.447 5.719 -6.916 5.719 QT
-5.385 5.719 -4.619 4.219 QT
-3.854 2.719 -3.854 -0.281 QT
-3.854 -3.281 -4.619 -4.781 QT
-5.385 -6.281 -6.916 -6.281 QT
cp
-6.916 -7.844 M
-4.463 -7.844 -3.174 -5.906 QT
-1.885 -3.969 -1.885 -0.281 QT
-1.885 3.406 -3.174 5.344 QT
-4.463 7.281 -6.916 7.281 QT
-9.369 7.281 -10.666 5.344 QT
-11.963 3.406 -11.963 -0.281 QT
-11.963 -3.969 -10.666 -5.906 QT
-9.369 -7.844 -6.916 -7.844 QT
cp
f
GR
GS
[1 0 0 1 124 38.52381] CT
0.149 GC
N
-36.516 5.344 M
-33.297 5.344 L
-33.297 -5.781 L
-36.797 -5.078 L
-36.797 -6.875 L
-33.313 -7.578 L
-31.344 -7.578 L
-31.344 5.344 L
-28.125 5.344 L
-28.125 7 L
-36.516 7 L
-36.516 5.344 L
cp
-19.916 -6.281 M
-21.447 -6.281 -22.213 -4.781 QT
-22.979 -3.281 -22.979 -0.281 QT
-22.979 2.719 -22.213 4.219 QT
-21.447 5.719 -19.916 5.719 QT
-18.385 5.719 -17.619 4.219 QT
-16.854 2.719 -16.854 -0.281 QT
-16.854 -3.281 -17.619 -4.781 QT
-18.385 -6.281 -19.916 -6.281 QT
cp
-19.916 -7.844 M
-17.463 -7.844 -16.174 -5.906 QT
-14.885 -3.969 -14.885 -0.281 QT
-14.885 3.406 -16.174 5.344 QT
-17.463 7.281 -19.916 7.281 QT
-22.369 7.281 -23.666 5.344 QT
-24.963 3.406 -24.963 -0.281 QT
-24.963 -3.969 -23.666 -5.906 QT
-22.369 -7.844 -19.916 -7.844 QT
cp
-7.191 -6.281 M
-8.723 -6.281 -9.488 -4.781 QT
-10.254 -3.281 -10.254 -0.281 QT
-10.254 2.719 -9.488 4.219 QT
-8.723 5.719 -7.191 5.719 QT
-5.66 5.719 -4.895 4.219 QT
-4.129 2.719 -4.129 -0.281 QT
-4.129 -3.281 -4.895 -4.781 QT
-5.66 -6.281 -7.191 -6.281 QT
cp
-7.191 -7.844 M
-4.738 -7.844 -3.449 -5.906 QT
-2.16 -3.969 -2.16 -0.281 QT
-2.16 3.406 -3.449 5.344 QT
-4.738 7.281 -7.191 7.281 QT
-9.645 7.281 -10.941 5.344 QT
-12.238 3.406 -12.238 -0.281 QT
-12.238 -3.969 -10.941 -5.906 QT
-9.645 -7.844 -7.191 -7.844 QT
cp
f
GR
GS
[0 -1 1 0 82 157.49988] CT
0.149 GC
N
-113.063 -22.031 M
-99.5 -22.031 L
-99.5 -20.219 L
-105.188 -20.219 L
-105.188 -6 L
-107.375 -6 L
-107.375 -20.219 L
-113.063 -20.219 L
-113.063 -22.031 L
cp
-92.015 -12.047 M
-94.421 -12.047 -95.343 -11.5 QT
-96.265 -10.953 -96.265 -9.625 QT
-96.265 -8.578 -95.569 -7.961 QT
-94.874 -7.344 -93.687 -7.344 QT
-92.046 -7.344 -91.054 -8.508 QT
-90.062 -9.672 -90.062 -11.609 QT
-90.062 -12.047 L
-92.015 -12.047 L
cp
-88.077 -12.859 M
-88.077 -6 L
-90.062 -6 L
-90.062 -7.828 L
-90.733 -6.734 -91.741 -6.211 QT
-92.749 -5.688 -94.218 -5.688 QT
-96.062 -5.688 -97.147 -6.727 QT
-98.233 -7.766 -98.233 -9.5 QT
-98.233 -11.531 -96.874 -12.563 QT
-95.515 -13.594 -92.827 -13.594 QT
-90.062 -13.594 L
-90.062 -13.781 L
-90.062 -15.156 -90.952 -15.898 QT
-91.843 -16.641 -93.468 -16.641 QT
-94.499 -16.641 -95.476 -16.398 QT
-96.452 -16.156 -97.358 -15.656 QT
-97.358 -17.484 L
-96.28 -17.906 -95.257 -18.117 QT
-94.233 -18.328 -93.265 -18.328 QT
-90.655 -18.328 -89.366 -16.969 QT
-88.077 -15.609 -88.077 -12.859 QT
cp
-77.033 -16.188 M
-77.361 -16.375 -77.76 -16.469 QT
-78.158 -16.563 -78.627 -16.563 QT
-80.299 -16.563 -81.197 -15.469 QT
-82.096 -14.375 -82.096 -12.344 QT
-82.096 -6 L
-84.08 -6 L
-84.08 -18.031 L
-82.096 -18.031 L
-82.096 -16.156 L
-81.471 -17.266 -80.471 -17.797 QT
-79.471 -18.328 -78.049 -18.328 QT
-77.846 -18.328 -77.596 -18.297 QT
-77.346 -18.266 -77.049 -18.219 QT
-77.033 -16.188 L
cp
-67.051 -12.156 M
-67.051 -14.297 -67.934 -15.484 QT
-68.816 -16.672 -70.41 -16.672 QT
-72.004 -16.672 -72.895 -15.484 QT
-73.785 -14.297 -73.785 -12.156 QT
-73.785 -10.016 -72.895 -8.836 QT
-72.004 -7.656 -70.41 -7.656 QT
-68.816 -7.656 -67.934 -8.836 QT
-67.051 -10.016 -67.051 -12.156 QT
cp
-65.066 -7.5 M
-65.066 -4.422 -66.434 -2.922 QT
-67.801 -1.422 -70.613 -1.422 QT
-71.66 -1.422 -72.582 -1.578 QT
-73.504 -1.734 -74.363 -2.063 QT
-74.363 -3.984 L
-73.504 -3.5 -72.652 -3.281 QT
-71.801 -3.063 -70.926 -3.063 QT
-68.973 -3.063 -68.012 -4.078 QT
-67.051 -5.094 -67.051 -7.141 QT
-67.051 -8.109 L
-67.66 -7.047 -68.613 -6.523 QT
-69.566 -6 -70.895 -6 QT
-73.113 -6 -74.465 -7.688 QT
-75.816 -9.375 -75.816 -12.156 QT
-75.816 -14.953 -74.465 -16.641 QT
-73.113 -18.328 -70.895 -18.328 QT
-69.566 -18.328 -68.613 -17.797 QT
-67.66 -17.266 -67.051 -16.203 QT
-67.051 -18.031 L
-65.066 -18.031 L
-65.066 -7.5 L
cp
-50.711 -12.516 M
-50.711 -11.547 L
-59.789 -11.547 L
-59.664 -9.5 -58.563 -8.43 QT
-57.461 -7.359 -55.492 -7.359 QT
-54.352 -7.359 -53.289 -7.641 QT
-52.227 -7.922 -51.164 -8.484 QT
-51.164 -6.609 L
-52.227 -6.156 -53.344 -5.922 QT
-54.461 -5.688 -55.617 -5.688 QT
-58.492 -5.688 -60.172 -7.367 QT
-61.852 -9.047 -61.852 -11.891 QT
-61.852 -14.859 -60.258 -16.594 QT
-58.664 -18.328 -55.961 -18.328 QT
-53.523 -18.328 -52.117 -16.766 QT
-50.711 -15.203 -50.711 -12.516 QT
cp
-52.68 -13.094 M
-52.711 -14.719 -53.594 -15.68 QT
-54.477 -16.641 -55.93 -16.641 QT
-57.586 -16.641 -58.586 -15.711 QT
-59.586 -14.781 -59.727 -13.078 QT
-52.68 -13.094 L
cp
-45.504 -21.453 M
-45.504 -18.031 L
-41.441 -18.031 L
-41.441 -16.5 L
-45.504 -16.5 L
-45.504 -9.969 L
-45.504 -8.5 -45.105 -8.078 QT
-44.707 -7.656 -43.473 -7.656 QT
-41.441 -7.656 L
-41.441 -6 L
-43.473 -6 L
-45.754 -6 -46.621 -6.852 QT
-47.488 -7.703 -47.488 -9.969 QT
-47.488 -16.5 L
-48.941 -16.5 L
-48.941 -18.031 L
-47.488 -18.031 L
-47.488 -21.453 L
-45.504 -21.453 L
cp
-31.159 -17.672 M
-31.159 -15.813 L
-32.003 -16.234 -32.909 -16.453 QT
-33.815 -16.672 -34.769 -16.672 QT
-36.253 -16.672 -36.987 -16.219 QT
-37.722 -15.766 -37.722 -14.859 QT
-37.722 -14.172 -37.19 -13.781 QT
-36.659 -13.391 -35.081 -13.031 QT
-34.394 -12.891 L
-32.3 -12.438 -31.409 -11.617 QT
-30.519 -10.797 -30.519 -9.313 QT
-30.519 -7.641 -31.847 -6.664 QT
-33.175 -5.688 -35.487 -5.688 QT
-36.456 -5.688 -37.503 -5.875 QT
-38.55 -6.063 -39.722 -6.438 QT
-39.722 -8.484 L
-38.628 -7.906 -37.558 -7.625 QT
-36.487 -7.344 -35.456 -7.344 QT
-34.05 -7.344 -33.3 -7.82 QT
-32.55 -8.297 -32.55 -9.172 QT
-32.55 -9.969 -33.097 -10.398 QT
-33.644 -10.828 -35.472 -11.234 QT
-36.159 -11.391 L
-38.003 -11.781 -38.815 -12.578 QT
-39.628 -13.375 -39.628 -14.781 QT
-39.628 -16.469 -38.425 -17.398 QT
-37.222 -18.328 -35.019 -18.328 QT
-33.909 -18.328 -32.948 -18.164 QT
-31.987 -18 -31.159 -17.672 QT
cp
-13.407 -16.188 M
-13.735 -16.375 -14.134 -16.469 QT
-14.532 -16.563 -15.001 -16.563 QT
-16.673 -16.563 -17.571 -15.469 QT
-18.47 -14.375 -18.47 -12.344 QT
-18.47 -6 L
-20.454 -6 L
-20.454 -18.031 L
-18.47 -18.031 L
-18.47 -16.156 L
-17.845 -17.266 -16.845 -17.797 QT
-15.845 -18.328 -14.423 -18.328 QT
-14.22 -18.328 -13.97 -18.297 QT
-13.72 -18.266 -13.423 -18.219 QT
-13.407 -16.188 L
cp
-1.05 -12.516 M
-1.05 -11.547 L
-10.128 -11.547 L
-10.003 -9.5 -8.901 -8.43 QT
-7.8 -7.359 -5.831 -7.359 QT
-4.69 -7.359 -3.628 -7.641 QT
-2.565 -7.922 -1.503 -8.484 QT
-1.503 -6.609 L
-2.565 -6.156 -3.683 -5.922 QT
-4.8 -5.688 -5.956 -5.688 QT
-8.831 -5.688 -10.511 -7.367 QT
-12.19 -9.047 -12.19 -11.891 QT
-12.19 -14.859 -10.597 -16.594 QT
-9.003 -18.328 -6.3 -18.328 QT
-3.862 -18.328 -2.456 -16.766 QT
-1.05 -15.203 -1.05 -12.516 QT
cp
-3.019 -13.094 M
-3.05 -14.719 -3.933 -15.68 QT
-4.815 -16.641 -6.269 -16.641 QT
-7.925 -16.641 -8.925 -15.711 QT
-9.925 -14.781 -10.065 -13.078 QT
-3.019 -13.094 L
cp
7.673 -12.047 M
5.267 -12.047 4.345 -11.5 QT
3.423 -10.953 3.423 -9.625 QT
3.423 -8.578 4.118 -7.961 QT
4.813 -7.344 6.001 -7.344 QT
7.642 -7.344 8.634 -8.508 QT
9.626 -9.672 9.626 -11.609 QT
9.626 -12.047 L
7.673 -12.047 L
cp
11.61 -12.859 M
11.61 -6 L
9.626 -6 L
9.626 -7.828 L
8.954 -6.734 7.946 -6.211 QT
6.938 -5.688 5.47 -5.688 QT
3.626 -5.688 2.54 -6.727 QT
1.454 -7.766 1.454 -9.5 QT
1.454 -11.531 2.813 -12.563 QT
4.173 -13.594 6.86 -13.594 QT
9.626 -13.594 L
9.626 -13.781 L
9.626 -15.156 8.735 -15.898 QT
7.845 -16.641 6.22 -16.641 QT
5.188 -16.641 4.212 -16.398 QT
3.235 -16.156 2.329 -15.656 QT
2.329 -17.484 L
3.407 -17.906 4.431 -18.117 QT
5.454 -18.328 6.423 -18.328 QT
9.032 -18.328 10.321 -16.969 QT
11.61 -15.609 11.61 -12.859 QT
cp
24.342 -17.563 M
24.342 -15.719 L
23.498 -16.188 22.654 -16.414 QT
21.811 -16.641 20.951 -16.641 QT
19.029 -16.641 17.967 -15.422 QT
16.904 -14.203 16.904 -12 QT
16.904 -9.797 17.967 -8.578 QT
19.029 -7.359 20.951 -7.359 QT
21.811 -7.359 22.654 -7.594 QT
23.498 -7.828 24.342 -8.281 QT
24.342 -6.469 L
23.514 -6.078 22.623 -5.883 QT
21.732 -5.688 20.748 -5.688 QT
18.029 -5.688 16.428 -7.398 QT
14.826 -9.109 14.826 -12 QT
14.826 -14.953 16.443 -16.641 QT
18.061 -18.328 20.873 -18.328 QT
21.779 -18.328 22.654 -18.141 QT
23.529 -17.953 24.342 -17.563 QT
cp
37.781 -13.266 M
37.781 -6 L
35.797 -6 L
35.797 -13.203 L
35.797 -14.906 35.133 -15.758 QT
34.469 -16.609 33.141 -16.609 QT
31.531 -16.609 30.609 -15.586 QT
29.688 -14.563 29.688 -12.797 QT
29.688 -6 L
27.703 -6 L
27.703 -22.719 L
29.688 -22.719 L
29.688 -16.156 L
30.391 -17.25 31.359 -17.789 QT
32.328 -18.328 33.578 -18.328 QT
35.656 -18.328 36.719 -17.039 QT
37.781 -15.75 37.781 -13.266 QT
cp
52.006 -12.516 M
52.006 -11.547 L
42.928 -11.547 L
43.053 -9.5 44.154 -8.43 QT
45.256 -7.359 47.225 -7.359 QT
48.365 -7.359 49.428 -7.641 QT
50.49 -7.922 51.553 -8.484 QT
51.553 -6.609 L
50.49 -6.156 49.373 -5.922 QT
48.256 -5.688 47.1 -5.688 QT
44.225 -5.688 42.545 -7.367 QT
40.865 -9.047 40.865 -11.891 QT
40.865 -14.859 42.459 -16.594 QT
44.053 -18.328 46.756 -18.328 QT
49.193 -18.328 50.6 -16.766 QT
52.006 -15.203 52.006 -12.516 QT
cp
50.037 -13.094 M
50.006 -14.719 49.123 -15.68 QT
48.24 -16.641 46.787 -16.641 QT
45.131 -16.641 44.131 -15.711 QT
43.131 -14.781 42.99 -13.078 QT
50.037 -13.094 L
cp
63.166 -16.203 M
63.166 -22.719 L
65.15 -22.719 L
65.15 -6 L
63.166 -6 L
63.166 -7.813 L
62.557 -6.734 61.604 -6.211 QT
60.65 -5.688 59.322 -5.688 QT
57.135 -5.688 55.768 -7.43 QT
54.4 -9.172 54.4 -12 QT
54.4 -14.844 55.768 -16.586 QT
57.135 -18.328 59.322 -18.328 QT
60.65 -18.328 61.604 -17.805 QT
62.557 -17.281 63.166 -16.203 QT
cp
56.432 -12 M
56.432 -9.828 57.33 -8.586 QT
58.229 -7.344 59.807 -7.344 QT
61.369 -7.344 62.268 -8.586 QT
63.166 -9.828 63.166 -12 QT
63.166 -14.188 62.268 -15.43 QT
61.369 -16.672 59.807 -16.672 QT
58.229 -16.672 57.33 -15.43 QT
56.432 -14.188 56.432 -12 QT
cp
76.03 -22.719 M
80.593 -22.719 L
80.593 -21.172 L
78.015 -21.172 L
78.015 -4.641 L
80.593 -4.641 L
80.593 -3.094 L
76.03 -3.094 L
76.03 -22.719 L
cp
98.723 -13.063 M
97.785 -13.063 97.254 -12.266 QT
96.723 -11.469 96.723 -10.047 QT
96.723 -8.656 97.254 -7.852 QT
97.785 -7.047 98.723 -7.047 QT
99.629 -7.047 100.16 -7.852 QT
100.691 -8.656 100.691 -10.047 QT
100.691 -11.453 100.16 -12.258 QT
99.629 -13.063 98.723 -13.063 QT
cp
98.723 -14.422 M
100.41 -14.422 101.41 -13.242 QT
102.41 -12.063 102.41 -10.047 QT
102.41 -8.047 101.41 -6.867 QT
100.41 -5.688 98.723 -5.688 QT
97.004 -5.688 96.004 -6.867 QT
95.004 -8.047 95.004 -10.047 QT
95.004 -12.063 96.004 -13.242 QT
97.004 -14.422 98.723 -14.422 QT
cp
87.629 -20.969 M
86.707 -20.969 86.176 -20.164 QT
85.645 -19.359 85.645 -17.969 QT
85.645 -16.547 86.168 -15.75 QT
86.691 -14.953 87.629 -14.953 QT
88.566 -14.953 89.098 -15.75 QT
89.629 -16.547 89.629 -17.969 QT
89.629 -19.359 89.09 -20.164 QT
88.551 -20.969 87.629 -20.969 QT
cp
97.332 -22.328 M
99.051 -22.328 L
89.02 -5.688 L
87.301 -5.688 L
97.332 -22.328 L
cp
87.629 -22.328 M
89.332 -22.328 90.34 -21.148 QT
91.348 -19.969 91.348 -17.969 QT
91.348 -15.938 90.348 -14.766 QT
89.348 -13.594 87.629 -13.594 QT
85.926 -13.594 84.934 -14.773 QT
83.941 -15.953 83.941 -17.969 QT
83.941 -19.969 84.941 -21.148 QT
85.941 -22.328 87.629 -22.328 QT
cp
110.314 -22.719 M
110.314 -3.094 L
105.768 -3.094 L
105.768 -4.641 L
108.33 -4.641 L
108.33 -21.172 L
105.768 -21.172 L
105.768 -22.719 L
110.314 -22.719 L
cp
f
GR
GS
0 0.447 0.741 RC
1 LJ
0.5 LW
N
169.525 185.863 M
169.913 170.353 L
170.3 131.293 L
170.688 157.17 L
171.075 209.902 L
171.462 106.836 L
171.85 200.597 L
172.238 142.889 L
172.625 152.377 L
173.012 122.016 L
173.4 169.726 L
173.788 200.597 L
174.175 147.426 L
174.563 157.798 L
174.95 147.426 L
175.337 138.714 L
175.725 96.326 L
176.113 152.377 L
176.5 140.991 L
176.887 138.714 L
177.275 136.536 L
177.663 145.871 L
178.05 175.147 L
178.438 113.667 L
178.825 95.083 L
179.212 115.593 L
179.6 157.17 L
179.988 142.889 L
180.375 132.452 L
180.762 90.092 L
181.15 61.824 L
181.538 95.083 L
181.925 119.034 L
182.313 91.655 L
182.7 125.646 L
183.087 95.083 L
183.475 103.163 L
183.863 88.619 L
184.25 73.312 L
184.637 79.142 L
185.025 95.083 L
185.413 51.942 L
185.8 57.31 L
186.188 68.885 L
186.575 56.851 L
186.962 66.987 L
187.35 77.487 L
187.738 48.96 L
188.125 67.15 L
188.512 60.788 L
188.9 47.632 L
189.288 43.742 L
189.675 48.346 L
190.063 44.09 L
190.45 42.5 L
190.837 48.158 L
191.225 42.918 L
191.613 43.853 L
192 43.25 L
192.387 43.25 L
192.775 59.993 L
193.163 59.397 L
193.55 51.707 L
193.938 38.524 L
194.325 49.909 L
194.712 45.891 L
195.1 51.369 L
195.488 38.524 L
195.875 52.063 L
196.262 44.946 L
196.65 77.059 L
197.038 56.415 L
197.425 53.704 L
197.813 59.397 L
198.2 73.312 L
198.587 84.908 L
198.975 73.072 L
199.363 71.921 L
199.75 56.415 L
200.137 57.078 L
200.525 71.195 L
200.913 57.078 L
201.3 83.252 L
201.688 67.425 L
202.075 61.294 L
202.462 68.885 L
202.85 54.684 L
203.238 52.837 L
203.625 83.252 L
204.012 47.161 L
204.4 130.805 L
204.788 61.294 L
205.175 68.581 L
205.563 78.923 L
205.95 53.258 L
206.337 67.425 L
206.725 50.742 L
207.113 78.6 L
207.5 70.843 L
207.887 54.684 L
208.275 84.065 L
208.663 61.294 L
209.05 75.631 L
209.438 77.059 L
209.825 77.059 L
210.212 82.085 L
210.6 46.351 L
210.988 64.435 L
211.375 103.462 L
211.762 86.692 L
212.15 68.581 L
212.538 62.763 L
212.925 80.27 L
213.313 62.763 L
213.7 63.571 L
214.087 64.435 L
214.475 94.185 L
214.863 86.692 L
215.25 45.891 L
215.637 45.68 L
216.025 46.873 L
216.413 101.143 L
216.8 52.439 L
217.188 67.425 L
217.575 67.992 L
217.962 74.306 L
218.35 114.756 L
218.738 53.704 L
219.125 38.524 L
219.512 84.908 L
219.9 74.306 L
220.288 125.646 L
220.675 66.355 L
221.063 78.6 L
221.45 157.798 L
221.837 88.619 L
222.225 94.185 L
222.613 81.709 L
223 77.059 L
223.387 78.6 L
223.775 90.346 L
224.163 81.709 L
224.55 98.984 L
224.938 138.714 L
225.325 92.975 L
225.712 98.161 L
226.1 88.619 L
226.488 69.833 L
226.875 65.361 L
227.262 54.684 L
227.65 114.756 L
228.038 130.805 L
228.425 143.987 L
228.813 53.258 L
229.2 101.143 L
229.587 71.195 L
229.975 118.221 L
230.363 129.606 L
230.75 61.294 L
231.137 136.536 L
231.525 98.161 L
231.913 92.975 L
232.3 96.326 L
232.688 105.96 L
233.075 95.45 L
233.462 90.706 L
233.85 63.571 L
234.238 133.943 L
234.625 77.059 L
235.012 88.619 L
235.4 132.452 L
235.788 73.072 L
236.175 56.415 L
236.563 90.706 L
236.95 88.619 L
237.337 92.975 L
237.725 115.593 L
238.113 67.425 L
238.5 62.006 L
238.887 90.706 L
239.275 77.059 L
239.663 75.631 L
240.05 122.016 L
240.438 118.221 L
240.825 111.579 L
241.212 118.221 L
241.6 138.714 L
241.988 84.908 L
242.375 64.435 L
242.762 55.222 L
243.15 110.088 L
243.538 140.991 L
243.925 78.6 L
244.313 106.836 L
244.7 143.987 L
245.087 90.706 L
245.475 122.016 L
245.863 118.221 L
246.25 95.45 L
246.637 101.143 L
247.025 133.943 L
247.413 98.638 L
247.8 82.085 L
248.188 86.692 L
248.575 66.355 L
248.962 94.185 L
249.35 65.361 L
249.738 55.798 L
250.125 122.016 L
250.512 95.45 L
250.9 62.763 L
251.288 84.065 L
251.675 86.692 L
252.063 69.833 L
252.45 110.088 L
252.837 98.638 L
253.225 101.143 L
253.613 103.865 L
254 138.714 L
254.387 111.579 L
254.775 65.361 L
255.163 92.197 L
255.55 108.101 L
255.938 67.992 L
256.325 94.185 L
256.712 92.975 L
257.1 86.234 L
257.487 96.326 L
257.875 83.252 L
258.263 70.843 L
258.65 103.462 L
259.038 118.221 L
259.425 117.622 L
259.813 48.158 L
260.2 57.078 L
260.587 157.17 L
260.975 130.805 L
261.362 90.706 L
261.75 66.355 L
262.138 88.619 L
262.525 60.304 L
262.913 110.088 L
263.3 88.619 L
263.688 92.975 L
264.075 63.571 L
264.462 118.221 L
264.85 101.143 L
265.237 103.865 L
265.625 136.536 L
266.013 86.692 L
266.4 95.45 L
266.788 83.252 L
267.175 71.195 L
267.563 118.221 L
267.95 122.016 L
268.337 111.579 L
268.725 98.638 L
269.112 96.326 L
269.5 75.631 L
269.888 106.836 L
270.275 147.426 L
270.663 143.987 L
271.05 145.871 L
271.438 65.361 L
271.825 88.619 L
272.212 98.638 L
272.6 111.579 L
272.987 67.425 L
273.375 92.975 L
273.763 125.646 L
274.15 88.619 L
274.538 88.619 L
274.925 114.756 L
275.313 80.27 L
275.7 101.143 L
276.087 122.016 L
276.475 98.638 L
276.862 113.667 L
277.25 114.756 L
277.638 110.088 L
278.025 149.847 L
278.413 111.579 L
278.8 67.425 L
279.188 78.923 L
279.575 78.6 L
279.962 108.657 L
280.35 90.706 L
280.737 108.657 L
281.125 95.45 L
281.513 122.016 L
281.9 125.646 L
282.288 163.762 L
282.675 111.579 L
283.063 122.016 L
283.45 98.161 L
283.837 58.562 L
284.225 138.714 L
284.612 157.17 L
285 96.326 L
285.388 170.353 L
285.775 95.45 L
286.163 118.221 L
286.55 90.706 L
286.938 92.975 L
287.325 177.677 L
287.712 98.638 L
288.1 108.657 L
288.487 108.657 L
288.875 163.762 L
289.263 191.593 L
289.65 84.908 L
290.038 103.462 L
290.425 122.016 L
290.813 92.975 L
291.2 80.27 L
291.587 114.756 L
291.975 63.571 L
292.362 95.45 L
292.75 108.657 L
293.138 138.714 L
293.525 143.987 L
293.913 140.991 L
294.3 133.943 L
294.688 82.085 L
295.075 92.975 L
295.462 138.714 L
295.85 103.462 L
296.237 80.27 L
296.625 122.016 L
297.013 125.646 L
297.4 98.161 L
297.788 110.088 L
298.175 90.706 L
298.563 54.684 L
298.95 98.161 L
299.337 65.361 L
299.725 73.072 L
300.112 88.619 L
300.5 82.085 L
300.888 113.667 L
301.275 95.45 L
301.663 106.836 L
302.05 96.968 L
302.438 106.836 L
302.825 80.27 L
303.212 114.756 L
303.6 113.667 L
303.987 67.425 L
304.375 77.059 L
304.763 122.016 L
305.15 114.756 L
305.538 130.805 L
305.925 143.987 L
306.313 98.161 L
306.7 151.238 L
307.087 157.17 L
307.475 122.016 L
307.862 183.536 L
308.25 101.143 L
308.638 163.762 L
309.025 59.397 L
309.413 88.619 L
309.8 148.107 L
310.188 170.353 L
310.575 88.619 L
310.962 122.016 L
311.35 78.073 L
311.737 84.908 L
312.125 103.865 L
312.513 103.462 L
312.9 135.931 L
313.288 106.836 L
313.675 113.667 L
314.063 114.756 L
314.45 126.19 L
314.837 86.692 L
315.225 191.593 L
315.612 143.987 L
316 106.836 L
316.388 122.016 L
316.775 110.088 L
317.163 122.016 L
317.55 92.975 L
317.938 118.221 L
318.325 98.161 L
318.712 101.143 L
319.1 118.221 L
319.487 113.667 L
319.875 126.927 L
320.263 149.847 L
320.65 130.805 L
321.038 103.865 L
321.425 122.016 L
321.813 122.016 L
322.2 92.975 L
322.587 157.17 L
322.975 185.863 L
323.362 129.606 L
323.75 138.714 L
324.138 138.714 L
324.525 101.143 L
324.913 122.016 L
325.3 205.508 L
325.688 143.987 L
326.075 172.111 L
326.462 133.943 L
326.85 103.865 L
327.237 176.286 L
327.625 117.622 L
328.013 114.756 L
328.4 205.508 L
328.788 169.726 L
329.175 122.016 L
329.563 125.646 L
329.95 149.847 L
330.337 122.016 L
330.725 122.016 L
331.112 157.17 L
331.5 125.646 L
331.888 200.597 L
332.275 113.667 L
332.663 210.726 L
333.05 170.353 L
333.438 126.19 L
333.825 151.238 L
334.212 111.579 L
334.6 226.381 L
334.987 185.863 L
335.375 156.395 L
335.763 200.597 L
336.15 126.19 L
336.538 117.622 L
336.925 88.619 L
337.313 149.847 L
337.7 113.667 L
338.087 122.016 L
338.475 92.975 L
338.862 145.871 L
339.25 98.161 L
339.638 118.221 L
340.025 170.353 L
340.413 118.221 L
340.8 135.931 L
341.188 101.143 L
341.575 84.065 L
341.962 106.836 L
342.35 130.805 L
342.737 143.987 L
343.125 129.606 L
343.513 163.762 L
343.9 130.805 L
344.288 103.865 L
344.675 84.065 L
345.063 110.088 L
345.45 114.756 L
345.837 130.805 L
346.225 130.805 L
346.612 113.667 L
347 145.871 L
347.388 92.975 L
347.775 130.805 L
348.163 143.987 L
348.55 157.17 L
348.938 195.071 L
349.325 118.221 L
349.712 171.129 L
350.1 135.931 L
350.487 138.714 L
350.875 95.45 L
351.263 179.417 L
351.65 151.238 L
352.038 122.016 L
352.425 133.943 L
352.813 163.762 L
353.2 138.714 L
353.587 183.536 L
353.975 151.238 L
354.362 183.536 L
354.75 163.762 L
355.138 138.714 L
355.525 118.221 L
355.913 106.836 L
356.3 86.692 L
356.688 185.863 L
357.075 149.847 L
357.462 129.606 L
357.85 133.943 L
358.237 200.597 L
358.625 163.762 L
359.013 125.646 L
359.4 143.987 L
359.788 210.726 L
360.175 96.326 L
360.563 171.129 L
360.95 156.395 L
361.337 110.088 L
361.725 149.847 L
362.112 163.762 L
362.5 156.395 L
362.888 92.975 L
363.275 126.19 L
363.663 177.677 L
364.05 171.129 L
364.438 200.597 L
364.825 118.221 L
365.212 98.161 L
365.6 118.221 L
365.987 143.987 L
366.375 101.143 L
366.763 130.805 L
367.15 183.536 L
367.538 110.088 L
367.925 126.19 L
368.313 157.17 L
368.7 157.17 L
369.087 138.714 L
369.475 104.439 L
369.862 132.452 L
370.25 113.667 L
370.638 133.943 L
371.025 95.45 L
371.413 149.847 L
371.8 170.353 L
372.188 143.987 L
372.575 84.065 L
372.962 110.088 L
373.35 88.619 L
373.737 157.17 L
374.125 176.286 L
374.513 151.238 L
374.9 101.143 L
375.288 149.847 L
375.675 149.847 L
376.063 133.943 L
376.45 151.238 L
376.837 145.871 L
377.225 163.762 L
377.612 122.016 L
378 140.991 L
378.388 126.19 L
378.775 195.071 L
379.163 74.306 L
379.55 195.071 L
379.938 103.462 L
380.325 130.805 L
380.712 133.943 L
381.1 171.129 L
381.487 151.238 L
381.875 126.19 L
382.263 138.714 L
382.65 156.395 L
383.038 122.016 L
383.425 130.805 L
383.813 108.657 L
384.2 96.326 L
384.587 129.606 L
384.975 143.987 L
385.362 110.088 L
385.75 143.987 L
386.138 95.45 L
386.525 122.016 L
386.913 88.619 L
387.3 151.238 L
387.688 118.221 L
388.075 96.326 L
388.462 157.17 L
388.85 98.161 L
389.237 152.377 L
389.625 126.19 L
390.013 92.975 L
390.4 156.395 L
390.788 126.19 L
391.175 88.619 L
391.563 118.221 L
391.95 82.085 L
392.337 170.353 L
392.725 118.221 L
393.112 103.865 L
393.5 130.805 L
393.888 143.987 L
394.275 126.927 L
394.663 179.417 L
395.05 157.17 L
395.438 156.395 L
395.825 138.714 L
396.212 143.987 L
396.6 98.161 L
396.987 125.227 L
397.375 130.805 L
397.763 84.065 L
398.15 149.847 L
398.538 95.45 L
398.925 143.987 L
399.313 117.622 L
399.7 133.943 L
400.087 82.085 L
400.475 235.327 L
400.862 163.762 L
401.25 95.45 L
401.638 130.805 L
402.025 129.606 L
402.413 149.847 L
402.8 130.805 L
403.188 122.016 L
403.575 191.593 L
403.962 151.238 L
404.35 130.805 L
404.737 200.597 L
405.125 118.221 L
405.513 157.17 L
405.9 188.81 L
406.288 129.606 L
406.675 113.667 L
407.063 143.987 L
407.45 133.943 L
407.837 122.016 L
408.225 163.762 L
408.612 130.805 L
409 143.987 L
409.388 126.19 L
409.775 95.45 L
410.163 170.353 L
410.55 108.101 L
410.938 111.579 L
411.325 177.677 L
411.712 163.762 L
412.1 110.088 L
412.487 118.221 L
412.875 149.847 L
413.263 195.071 L
413.65 163.762 L
414.038 98.161 L
414.425 114.756 L
414.813 106.836 L
415.2 117.622 L
415.587 106.836 L
415.975 126.19 L
416.362 111.579 L
416.75 91.256 L
417.138 92.975 L
417.525 86.234 L
417.913 75.631 L
418.3 95.45 L
418.688 86.234 L
419.075 126.927 L
419.462 113.667 L
419.85 185.863 L
420.237 82.085 L
420.625 106.836 L
421.013 106.836 L
421.4 126.19 L
421.788 133.943 L
422.175 95.45 L
422.563 71.195 L
422.95 133.943 L
423.337 210.726 L
423.725 103.865 L
424.112 78.6 L
424.5 126.19 L
424.888 135.931 L
425.275 117.622 L
425.663 122.016 L
426.05 163.762 L
426.438 104.439 L
426.825 80.27 L
427.212 113.667 L
427.6 138.714 L
427.987 143.987 L
428.375 140.991 L
428.763 156.395 L
429.15 90.706 L
429.538 138.714 L
429.925 82.085 L
430.313 101.143 L
430.7 149.847 L
431.087 114.756 L
431.475 104.439 L
431.862 122.016 L
432.25 133.943 L
432.638 114.756 L
433.025 117.622 L
433.413 122.016 L
433.8 126.19 L
434.188 126.927 L
434.575 113.667 L
434.962 170.353 L
435.35 238.905 L
435.737 122.016 L
436.125 94.185 L
436.513 126.19 L
436.9 113.667 L
437.288 92.975 L
437.675 110.088 L
438.063 149.847 L
438.45 117.622 L
438.837 156.395 L
439.225 75.631 L
439.612 86.692 L
440 149.847 L
440.388 130.805 L
440.775 122.016 L
441.163 80.27 L
441.55 149.847 L
441.938 145.871 L
442.325 143.987 L
442.712 95.45 L
443.1 110.088 L
443.487 222.206 L
443.875 114.756 L
444.263 156.395 L
444.65 113.667 L
445.038 135.931 L
445.425 122.016 L
445.813 170.353 L
446.2 110.088 L
446.587 86.692 L
446.975 149.847 L
447.362 170.353 L
447.75 183.536 L
448.138 104.439 L
448.525 126.19 L
448.913 138.714 L
449.3 130.805 L
449.688 171.129 L
450.075 145.871 L
450.462 98.161 L
450.85 133.943 L
451.237 66.355 L
451.625 103.865 L
452.013 149.847 L
452.4 200.597 L
452.788 151.238 L
453.175 110.088 L
453.563 188.81 L
453.95 108.657 L
454.337 163.762 L
454.725 156.395 L
455.112 126.19 L
455.5 103.865 L
455.888 114.756 L
456.275 76.095 L
456.663 72.68 L
457.05 108.101 L
457.438 117.622 L
457.825 163.762 L
458.212 117.622 L
458.6 110.088 L
458.987 95.45 L
459.375 70.843 L
459.763 195.071 L
460.15 110.088 L
460.538 95.45 L
460.925 68.581 L
461.313 117.622 L
461.7 110.088 L
462.087 69.833 L
462.475 179.417 L
462.862 80.27 L
463.25 90.706 L
463.638 118.676 L
464.025 126.19 L
464.413 118.221 L
464.8 101.143 L
465.188 156.395 L
465.575 90.706 L
465.962 130.805 L
466.35 113.667 L
466.737 110.088 L
467.125 92.975 L
467.513 82.085 L
467.9 84.065 L
468.288 148.107 L
468.675 114.756 L
469.063 129.606 L
469.45 88.619 L
469.837 90.706 L
470.225 135.931 L
470.612 126.19 L
471 185.863 L
471.388 103.865 L
471.775 163.762 L
472.163 101.143 L
472.55 130.805 L
472.938 90.706 L
473.325 90.706 L
473.712 133.943 L
474.1 74.306 L
474.487 88.619 L
474.875 126.19 L
475.263 163.762 L
475.65 125.646 L
476.038 130.805 L
476.425 122.016 L
476.813 84.065 L
477.2 106.836 L
477.587 95.45 L
477.975 108.657 L
478.362 106.836 L
478.75 130.805 L
479.138 106.836 L
479.525 138.714 L
479.913 129.606 L
480.3 103.865 L
480.688 84.065 L
481.075 117.622 L
481.462 133.943 L
481.85 130.805 L
482.237 106.836 L
482.625 98.638 L
483.013 106.836 L
483.4 90.706 L
483.788 138.714 L
484.175 141.661 L
484.563 132.452 L
484.95 110.088 L
485.337 110.088 L
485.725 129.606 L
486.112 122.016 L
486.5 94.185 L
486.888 135.931 L
487.275 143.987 L
487.663 122.016 L
488.05 106.836 L
488.438 145.871 L
488.825 101.143 L
489.212 117.622 L
489.6 126.927 L
489.987 118.676 L
490.375 101.143 L
490.763 98.161 L
491.15 98.638 L
491.538 101.143 L
491.925 98.161 L
492.313 118.221 L
492.7 130.805 L
493.087 122.016 L
493.475 98.161 L
493.862 112.193 L
494.25 110.088 L
494.638 81.709 L
495.025 92.975 L
495.413 113.667 L
495.8 82.085 L
496.188 94.185 L
496.575 126.19 L
496.962 108.101 L
497.35 92.197 L
497.737 84.065 L
498.125 118.221 L
498.513 138.714 L
498.9 106.836 L
499.288 122.016 L
499.675 122.016 L
500.063 126.19 L
500.45 110.088 L
500.837 151.238 L
501.225 98.161 L
501.612 80.27 L
502 105.96 L
502.388 133.943 L
502.775 110.088 L
503.163 59.397 L
503.55 126.19 L
503.938 129.606 L
504.325 151.238 L
504.712 98.161 L
505.1 113.667 L
505.487 77.059 L
505.875 130.805 L
506.263 113.667 L
506.65 69.833 L
507.038 118.221 L
507.425 149.847 L
507.813 129.606 L
508.2 92.975 L
508.587 118.221 L
508.975 86.234 L
509.362 126.19 L
509.75 101.143 L
510.138 117.622 L
510.525 126.19 L
510.913 149.847 L
511.3 149.847 L
511.688 122.016 L
512.075 86.692 L
512.463 98.161 L
512.85 179.417 L
513.237 183.536 L
513.625 118.221 L
514.013 126.19 L
514.4 106.836 L
514.787 106.836 L
515.175 92.975 L
515.563 145.871 L
515.95 135.931 L
516.338 110.088 L
516.725 171.129 L
517.112 98.161 L
517.5 163.762 L
517.888 149.847 L
518.275 145.871 L
518.662 129.606 L
519.05 117.622 L
519.438 163.762 L
519.825 118.221 L
520.213 149.847 L
520.6 110.088 L
520.987 98.161 L
521.375 125.646 L
521.763 138.714 L
522.15 95.45 L
522.537 88.619 L
522.925 171.129 L
523.313 129.606 L
523.7 122.016 L
524.088 151.238 L
524.475 78.6 L
524.862 126.19 L
525.25 95.45 L
525.638 117.622 L
526.025 78.6 L
526.412 104.439 L
526.8 92.975 L
527.188 86.692 L
527.575 92.975 L
527.963 103.865 L
528.35 130.805 L
528.737 129.606 L
529.125 122.016 L
529.513 110.088 L
529.9 126.19 L
530.287 113.667 L
530.675 92.975 L
531.063 110.088 L
531.45 135.931 L
531.838 122.016 L
532.225 101.143 L
532.612 177.677 L
533 82.085 L
533.388 129.606 L
533.775 104.439 L
534.162 113.667 L
534.55 110.088 L
534.938 113.667 L
535.325 138.714 L
535.713 122.016 L
536.1 138.714 L
536.487 177.677 L
536.875 126.19 L
537.263 117.622 L
537.65 133.943 L
538.037 110.088 L
538.425 101.143 L
538.813 122.016 L
539.2 98.161 L
539.588 95.45 L
539.975 67.425 L
540.362 138.714 L
540.75 130.805 L
541.138 126.19 L
541.525 104.439 L
541.912 143.987 L
542.3 110.088 L
542.688 117.622 L
543.075 143.987 L
543.463 126.19 L
543.85 113.667 L
544.237 195.071 L
544.625 177.677 L
545.013 156.395 L
545.4 118.221 L
545.787 92.975 L
546.175 122.016 L
546.563 149.847 L
546.95 104.439 L
547.338 143.987 L
547.725 126.19 L
548.112 126.19 L
548.5 157.17 L
548.888 104.439 L
549.275 98.638 L
549.662 183.536 L
550.05 103.865 L
550.438 149.847 L
550.825 111.579 L
551.213 135.931 L
551.6 113.667 L
551.987 141.661 L
552.375 110.088 L
552.763 90.706 L
553.15 118.221 L
553.537 141.661 L
553.925 84.065 L
554.313 88.619 L
554.7 138.714 L
555.088 138.714 L
555.475 86.234 L
555.862 106.836 L
556.25 84.065 L
556.638 126.19 L
557.025 114.756 L
557.412 135.931 L
557.8 110.088 L
558.188 71.195 L
558.575 110.088 L
558.963 106.836 L
559.35 98.161 L
559.737 86.692 L
560.125 88.619 L
560.513 135.931 L
560.9 122.016 L
561.287 92.975 L
561.675 122.016 L
562.063 90.706 L
562.45 101.143 L
562.838 110.088 L
563.225 103.865 L
563.612 118.221 L
564 122.016 L
564.388 110.088 L
564.775 151.238 L
565.162 101.143 L
565.55 81.709 L
565.938 136.536 L
566.325 130.805 L
566.713 106.836 L
567.1 69.833 L
567.487 92.197 L
567.875 88.619 L
568.263 103.865 L
568.65 149.847 L
569.037 130.805 L
569.425 133.943 L
569.813 151.238 L
570.2 163.762 L
570.588 122.016 L
570.975 106.836 L
571.362 103.865 L
571.75 122.016 L
572.138 92.975 L
572.525 110.088 L
572.912 126.927 L
573.3 140.991 L
573.688 122.016 L
574.075 103.865 L
574.463 84.065 L
574.85 71.195 L
575.237 210.726 L
575.625 118.221 L
576.013 82.085 L
576.4 141.661 L
576.787 106.836 L
577.175 92.975 L
577.563 114.756 L
577.95 133.943 L
578.338 133.943 L
578.725 163.762 L
579.112 129.606 L
579.5 163.762 L
579.888 118.221 L
580.275 106.836 L
580.662 143.987 L
581.05 126.19 L
581.438 84.065 L
581.825 103.865 L
582.213 91.256 L
582.6 129.606 L
582.987 126.19 L
583.375 138.714 L
583.763 163.762 L
584.15 157.798 L
584.537 101.143 L
584.925 122.016 L
585.313 157.17 L
585.7 78.6 L
586.088 118.221 L
586.475 76.095 L
586.862 156.395 L
587.25 110.088 L
587.638 117.622 L
588.025 77.059 L
588.412 82.085 L
588.8 163.762 L
589.188 78.6 L
589.575 125.646 L
589.963 151.238 L
590.35 88.619 L
590.737 151.238 L
591.125 135.931 L
591.513 104.439 L
591.9 125.646 L
592.287 143.987 L
592.675 98.161 L
593.063 104.439 L
593.45 106.836 L
593.838 129.606 L
594.225 95.45 L
594.612 101.143 L
595 135.931 L
595.388 118.221 L
595.775 86.234 L
596.162 80.27 L
596.55 138.714 L
596.938 82.085 L
597.325 98.161 L
597.713 104.439 L
598.1 84.065 L
598.487 122.016 L
598.875 126.927 L
599.263 126.19 L
599.65 177.677 L
600.037 117.622 L
600.425 88.619 L
600.813 118.221 L
601.2 117.622 L
601.588 90.706 L
601.975 84.908 L
602.362 103.865 L
602.75 113.667 L
603.138 86.234 L
603.525 106.836 L
603.912 98.638 L
604.3 143.987 L
604.688 126.19 L
605.075 108.101 L
605.463 106.836 L
605.85 176.286 L
606.237 138.714 L
606.625 118.221 L
607.013 183.536 L
607.4 83.252 L
607.787 92.975 L
608.175 80.27 L
608.563 110.088 L
608.95 133.943 L
609.338 113.667 L
609.725 118.221 L
610.112 84.908 L
610.5 98.161 L
610.888 114.756 L
611.275 110.088 L
611.662 114.756 L
612.05 141.661 L
612.438 122.016 L
612.825 113.667 L
613.213 151.238 L
613.6 113.667 L
613.987 92.975 L
614.375 188.81 L
614.763 106.836 L
615.15 129.606 L
615.537 126.19 L
615.925 95.45 L
616.313 88.619 L
616.7 118.676 L
617.088 113.667 L
617.475 130.805 L
617.862 104.439 L
618.25 130.805 L
618.638 101.143 L
619.025 76.095 L
619.412 101.143 L
619.8 156.395 L
620.188 69.833 L
620.575 130.805 L
620.963 122.016 L
621.35 157.798 L
621.737 117.622 L
622.125 110.088 L
622.513 125.646 L
622.9 103.865 L
623.287 143.987 L
623.675 118.221 L
624.063 143.987 L
624.45 117.622 L
624.838 135.931 L
625.225 157.17 L
625.612 129.606 L
626 78.6 L
626.388 74.306 L
626.775 95.45 L
627.162 106.836 L
627.55 133.943 L
627.938 101.143 L
628.325 138.714 L
628.713 90.706 L
629.1 163.762 L
629.487 177.677 L
629.875 125.646 L
630.263 84.065 L
630.65 157.17 L
631.037 130.805 L
631.425 111.579 L
631.813 130.805 L
632.2 95.45 L
632.588 84.065 L
632.975 138.714 L
633.362 86.234 L
633.75 101.143 L
634.138 126.19 L
634.525 103.865 L
634.912 92.975 L
635.3 130.805 L
635.688 130.805 L
636.075 110.088 L
636.463 122.016 L
636.85 95.45 L
637.237 101.143 L
637.625 138.714 L
638.013 75.631 L
638.4 135.931 L
638.787 101.143 L
639.175 179.417 L
639.563 143.987 L
639.95 113.667 L
640.338 92.975 L
640.725 170.353 L
641.112 91.256 L
641.5 143.987 L
641.888 95.45 L
642.275 92.975 L
642.662 129.606 L
643.05 126.19 L
643.438 130.805 L
643.825 98.161 L
644.213 133.943 L
644.6 156.395 L
644.987 94.185 L
645.375 126.19 L
645.763 82.085 L
646.15 48.158 L
646.537 101.143 L
646.925 91.256 L
647.313 170.353 L
647.7 92.975 L
648.088 101.143 L
648.475 101.143 L
648.862 114.756 L
649.25 98.161 L
649.638 86.692 L
650.025 126.19 L
650.412 122.016 L
650.8 105.96 L
651.188 113.667 L
651.575 101.143 L
651.963 129.606 L
652.35 113.667 L
652.737 98.161 L
653.125 82.085 L
653.513 78.073 L
653.9 86.234 L
654.287 138.714 L
654.675 113.667 L
655.063 117.622 L
655.45 149.847 L
655.838 113.667 L
656.225 156.395 L
656.612 83.252 L
657 78.6 L
657.388 113.667 L
657.775 103.865 L
658.162 90.706 L
658.55 143.987 L
658.938 106.836 L
659.325 98.161 L
659.713 80.27 L
660.1 163.762 L
660.487 118.221 L
660.875 90.706 L
661.263 170.353 L
661.65 66.355 L
662.037 106.836 L
662.425 143.987 L
662.813 83.252 L
663.2 74.306 L
663.588 140.991 L
663.975 114.756 L
664.362 179.417 L
664.75 149.847 L
665.138 112.193 L
665.525 113.667 L
665.912 151.238 L
666.3 88.619 L
666.688 110.088 L
667.075 138.714 L
667.463 98.161 L
667.85 113.667 L
668.237 122.016 L
668.625 143.987 L
669.013 122.016 L
669.4 138.714 L
669.787 90.706 L
670.175 80.27 L
670.563 114.756 L
670.95 122.016 L
671.338 103.865 L
671.725 98.161 L
672.112 110.088 L
672.5 101.143 L
672.888 133.943 L
673.275 103.865 L
673.662 69.833 L
674.05 90.706 L
674.438 118.221 L
674.825 117.622 L
675.213 101.143 L
675.6 106.836 L
675.987 143.987 L
676.375 101.143 L
676.763 69.833 L
677.15 126.19 L
677.537 95.45 L
677.925 88.619 L
678.313 77.059 L
678.7 106.836 L
679.088 82.085 L
679.475 92.975 L
679.862 92.197 L
680.25 122.016 L
680.638 113.667 L
681.025 117.622 L
681.412 111.579 L
681.8 130.805 L
682.188 122.016 L
682.575 126.19 L
682.963 88.619 L
683.35 80.27 L
683.737 126.19 L
684.125 74.306 L
684.513 88.619 L
684.9 149.847 L
685.287 157.17 L
685.675 122.016 L
686.063 126.19 L
686.45 210.726 L
686.838 126.19 L
687.225 143.987 L
687.612 185.863 L
688 151.238 L
688.388 111.579 L
688.775 143.987 L
689.162 74.306 L
689.55 74.306 L
689.938 145.871 L
690.325 129.606 L
690.713 163.762 L
691.1 88.619 L
691.487 185.863 L
691.875 113.667 L
692.263 101.143 L
692.65 101.143 L
693.037 141.661 L
693.425 138.714 L
693.813 132.452 L
694.2 86.692 L
694.588 140.991 L
694.975 106.836 L
695.362 157.17 L
695.75 104.439 L
696.138 111.579 L
696.525 125.646 L
696.912 118.221 L
697.3 149.847 L
697.688 114.756 L
698.075 130.805 L
698.463 113.667 L
698.85 113.667 L
699.237 74.306 L
699.625 47.161 L
700.013 106.836 L
700.4 80.27 L
700.787 183.536 L
701.175 88.619 L
701.563 141.661 L
701.95 122.016 L
702.338 95.45 L
702.725 129.606 L
703.112 90.706 L
703.5 106.836 L
703.888 114.756 L
704.275 92.975 L
704.662 101.143 L
705.05 151.238 L
705.438 103.865 L
705.825 170.353 L
706.213 143.987 L
706.6 86.234 L
706.987 106.836 L
707.375 86.692 L
707.763 92.975 L
708.15 101.143 L
708.537 74.306 L
708.925 86.692 L
709.313 163.762 L
709.7 149.847 L
710.088 103.865 L
710.475 125.646 L
710.862 149.847 L
711.25 110.088 L
711.638 101.143 L
712.025 111.579 L
712.412 114.756 L
712.8 101.143 L
713.188 94.185 L
713.575 149.847 L
713.963 67.425 L
714.35 88.619 L
714.737 88.619 L
715.125 156.395 L
715.513 126.19 L
715.9 118.221 L
716.287 103.865 L
716.675 106.836 L
717.063 157.17 L
717.45 91.256 L
717.838 151.238 L
718.225 133.943 L
718.612 126.19 L
719 196.719 L
719.388 95.45 L
719.775 125.646 L
720.162 126.19 L
720.55 98.638 L
720.938 101.143 L
721.325 130.805 L
721.713 118.221 L
722.1 77.059 L
722.487 98.161 L
722.875 118.221 L
723.263 122.016 L
723.65 90.706 L
724.037 106.836 L
724.425 126.19 L
724.813 103.865 L
725.2 103.865 L
725.588 126.19 L
725.975 157.17 L
726.362 101.143 L
726.75 101.143 L
727.138 92.975 L
727.525 143.987 L
727.912 125.646 L
728.3 122.016 L
728.688 95.45 L
729.075 138.714 L
729.463 133.943 L
729.85 179.417 L
730.237 122.016 L
730.625 149.847 L
731.013 113.667 L
731.4 129.606 L
731.787 125.646 L
732.175 133.943 L
732.563 101.143 L
732.95 94.185 L
733.338 177.677 L
733.725 90.706 L
734.112 82.085 L
734.5 95.45 L
734.888 106.836 L
735.275 122.016 L
735.662 103.865 L
736.05 118.221 L
736.438 138.714 L
736.825 113.667 L
737.213 122.016 L
737.6 145.871 L
737.987 103.865 L
738.375 101.143 L
738.763 117.622 L
739.15 78.6 L
739.537 156.395 L
739.925 98.161 L
740.313 126.19 L
740.7 133.943 L
741.088 106.836 L
741.475 114.756 L
741.862 130.805 L
742.25 156.395 L
742.638 114.756 L
743.025 90.706 L
743.412 95.45 L
743.8 122.016 L
744.188 117.622 L
744.575 149.847 L
744.963 71.195 L
745.35 126.19 L
745.737 88.619 L
746.125 95.45 L
746.513 126.19 L
746.9 118.221 L
747.287 113.667 L
747.675 95.45 L
748.063 114.756 L
748.45 129.606 L
748.838 77.059 L
749.225 148.107 L
749.612 118.221 L
750 140.991 L
750.388 96.326 L
750.775 114.756 L
751.162 95.45 L
751.55 103.462 L
751.938 82.085 L
752.325 140.991 L
752.713 69.833 L
753.1 86.692 L
753.487 106.836 L
753.875 130.805 L
754.263 113.667 L
754.65 149.847 L
755.037 80.27 L
755.425 101.143 L
755.813 113.667 L
756.2 88.619 L
756.588 122.016 L
756.975 122.016 L
757.362 106.836 L
757.75 122.016 L
758.138 143.987 L
758.525 98.638 L
758.912 157.17 L
759.3 126.19 L
759.688 78.6 L
760.075 80.27 L
760.463 122.016 L
760.85 149.847 L
761.237 103.865 L
761.625 63.571 L
762.013 138.714 L
762.4 101.143 L
762.787 122.016 L
763.175 103.865 L
763.563 103.865 L
763.95 84.065 L
764.338 118.221 L
764.725 106.836 L
765.112 106.836 L
765.5 143.987 L
765.888 122.016 L
766.275 96.326 L
766.662 122.016 L
767.05 75.631 L
767.438 130.805 L
767.825 122.016 L
768.213 95.45 L
768.6 143.987 L
768.987 101.143 L
769.375 86.234 L
769.763 118.221 L
770.15 130.805 L
770.537 90.706 L
770.925 69.833 L
771.313 77.059 L
771.7 74.306 L
772.088 104.439 L
772.475 103.865 L
772.862 143.987 L
773.25 82.085 L
773.638 114.756 L
774.025 130.805 L
774.412 125.646 L
774.8 130.805 L
775.188 126.19 L
775.575 129.606 L
775.963 122.016 L
776.35 149.847 L
776.737 110.088 L
777.125 88.619 L
777.513 126.19 L
777.9 71.195 L
778.287 130.805 L
778.675 80.27 L
779.063 130.805 L
779.45 101.143 L
779.838 98.161 L
780.225 138.714 L
780.612 126.19 L
781 118.676 L
781.388 101.143 L
781.775 76.095 L
782.162 95.45 L
782.55 138.714 L
782.938 156.395 L
783.325 177.677 L
783.713 101.143 L
784.1 110.088 L
784.487 110.088 L
784.875 138.714 L
785.263 68.581 L
785.65 86.692 L
786.037 95.45 L
786.425 49.414 L
786.813 98.161 L
787.2 98.161 L
787.588 104.439 L
787.975 103.865 L
788.362 133.943 L
788.75 113.667 L
789.138 71.195 L
789.525 104.439 L
789.912 113.667 L
790.3 122.016 L
790.688 118.221 L
791.075 122.016 L
791.463 114.756 L
791.85 126.19 L
792.237 88.619 L
792.625 95.45 L
793.013 98.638 L
793.4 133.943 L
793.787 151.238 L
794.175 106.836 L
794.563 118.221 L
794.95 92.975 L
795.338 133.943 L
795.725 98.161 L
796.112 122.016 L
796.5 101.143 L
796.888 98.638 L
797.275 98.161 L
797.662 71.195 L
798.05 122.016 L
798.438 122.016 L
798.825 110.088 L
799.213 84.908 L
799.6 130.805 L
799.987 95.45 L
800.375 110.088 L
800.763 103.865 L
801.15 95.45 L
801.537 135.931 L
801.925 138.714 L
802.313 110.088 L
802.7 126.19 L
803.088 106.836 L
803.475 129.606 L
803.862 110.088 L
804.25 77.059 L
804.638 104.439 L
805.025 130.805 L
805.412 68.581 L
805.8 62.379 L
806.188 122.016 L
806.575 130.805 L
806.963 130.805 L
807.35 95.45 L
807.737 133.943 L
808.125 114.756 L
808.513 149.847 L
808.9 129.606 L
809.287 90.706 L
809.675 106.836 L
810.063 110.088 L
810.45 101.143 L
810.838 130.805 L
811.225 112.193 L
811.612 125.646 L
812 117.622 L
812.388 106.836 L
812.775 156.395 L
813.162 113.667 L
813.55 133.943 L
813.938 106.836 L
814.325 95.45 L
814.713 90.706 L
815.1 117.622 L
815.487 82.085 L
815.875 152.377 L
816.263 68.581 L
816.65 113.667 L
817.037 94.185 L
817.425 95.45 L
817.813 118.676 L
818.2 98.638 L
818.588 130.805 L
818.975 170.353 L
819.362 122.016 L
819.75 98.161 L
820.138 103.865 L
820.525 114.756 L
820.912 106.836 L
821.3 177.677 L
821.688 118.221 L
822.075 122.016 L
822.463 84.065 L
822.85 122.016 L
823.237 95.45 L
823.625 122.016 L
824.013 98.161 L
824.4 126.19 L
824.787 110.088 L
825.175 163.762 L
825.563 118.221 L
825.95 133.943 L
826.338 210.726 L
826.725 101.143 L
827.112 113.667 L
827.5 126.19 L
827.888 149.847 L
828.275 130.805 L
828.662 126.19 L
829.05 133.943 L
829.438 138.714 L
829.825 95.45 L
830.213 98.161 L
830.6 108.101 L
830.987 110.088 L
831.375 86.234 L
831.763 145.871 L
832.15 110.088 L
832.537 149.847 L
832.925 60.304 L
833.313 88.619 L
833.7 110.088 L
834.088 82.085 L
834.475 151.238 L
834.862 118.221 L
835.25 117.622 L
835.638 128.695 L
836.025 90.706 L
836.412 84.065 L
836.8 95.45 L
837.188 101.143 L
837.575 135.931 L
837.963 95.45 L
838.35 110.088 L
838.737 122.016 L
839.125 88.619 L
839.513 106.836 L
839.9 103.865 L
840.287 98.161 L
840.675 95.45 L
841.063 106.836 L
841.45 88.619 L
841.838 110.088 L
842.225 114.756 L
842.612 80.27 L
843 90.706 L
843.388 133.943 L
843.775 82.085 L
844.162 110.088 L
844.55 126.19 L
844.938 95.45 L
845.325 91.256 L
845.713 118.221 L
846.1 103.865 L
846.487 90.706 L
846.875 92.975 L
847.263 95.45 L
847.65 92.975 L
848.037 118.676 L
848.425 103.865 L
848.813 110.088 L
849.2 76.095 L
849.588 92.975 L
849.975 151.238 L
850.362 106.836 L
850.75 141.661 L
851.138 101.143 L
851.525 117.622 L
851.912 126.19 L
852.3 68.581 L
852.688 95.45 L
853.075 88.619 L
853.463 98.161 L
853.85 92.975 L
854.237 177.677 L
854.625 130.805 L
855.013 69.833 L
855.4 98.638 L
855.787 135.931 L
856.175 114.756 L
856.563 95.45 L
856.95 95.45 L
857.338 118.221 L
857.725 104.439 L
858.112 151.238 L
858.5 106.836 L
858.888 88.619 L
859.275 133.943 L
859.662 147.426 L
860.05 113.667 L
860.438 143.987 L
860.825 179.417 L
861.213 106.836 L
861.6 126.19 L
861.987 122.016 L
862.375 113.667 L
862.763 84.908 L
863.15 86.692 L
863.537 122.016 L
863.925 106.836 L
864.313 106.836 L
864.7 71.195 L
865.088 60.304 L
865.475 126.19 L
865.862 157.17 L
866.25 195.071 L
866.638 111.579 L
867.025 222.206 L
867.412 78.6 L
867.8 141.661 L
868.188 117.622 L
868.575 126.927 L
868.963 101.143 L
869.35 103.865 L
869.737 157.17 L
870.125 145.871 L
870.513 125.646 L
870.9 156.395 L
871.287 129.606 L
871.675 88.619 L
872.063 98.638 L
872.45 101.143 L
872.838 156.395 L
873.225 110.088 L
873.612 141.661 L
874 86.234 L
874.388 118.676 L
874.775 117.622 L
875.162 104.439 L
875.55 129.606 L
875.938 113.667 L
876.325 80.27 L
876.713 103.865 L
877.1 92.975 L
877.487 129.606 L
877.875 111.579 L
878.263 101.143 L
878.65 101.143 L
879.037 149.847 L
879.425 126.19 L
879.813 106.836 L
880.2 122.016 L
880.588 122.016 L
880.975 101.143 L
881.362 151.238 L
881.75 101.143 L
882.138 133.943 L
882.525 135.931 L
882.912 122.016 L
883.3 133.943 L
883.688 110.088 L
884.075 143.987 L
884.463 76.095 L
884.85 130.805 L
885.237 129.606 L
885.625 118.676 L
886.013 86.234 L
886.4 114.756 L
886.787 86.234 L
887.175 106.836 L
887.563 90.706 L
887.95 103.865 L
888.338 104.439 L
888.725 130.805 L
889.112 82.085 L
889.5 126.19 L
889.888 129.606 L
890.275 170.353 L
890.662 135.931 L
891.05 59.397 L
891.438 126.19 L
891.825 117.622 L
892.213 143.987 L
892.6 138.714 L
892.987 110.088 L
893.375 84.065 L
893.763 130.805 L
894.15 101.143 L
894.537 122.016 L
894.925 130.805 L
895.313 129.606 L
895.7 106.836 L
896.088 101.143 L
896.475 110.088 L
896.862 98.161 L
897.25 130.805 L
897.638 151.238 L
898.025 86.234 L
898.412 101.143 L
898.8 118.221 L
899.188 88.619 L
899.575 103.865 L
899.963 135.931 L
900.35 113.667 L
900.737 98.161 L
901.125 195.071 L
901.513 138.714 L
901.9 126.19 L
902.287 140.991 L
902.675 122.016 L
903.063 106.836 L
903.45 171.129 L
903.838 90.706 L
904.225 130.805 L
904.612 133.943 L
905 78.6 L
S
GR
GS
1 0 0 RC
1 LJ
0.5 LW
N
169.525 148.126 M
169.913 148.461 L
170.3 148.262 L
170.688 147.717 L
171.075 145.796 L
171.462 143.088 L
171.85 141.587 L
172.238 140.904 L
172.625 139.456 L
173.012 139.061 L
173.4 137.839 L
173.788 136.902 L
174.175 135.632 L
174.563 134.034 L
174.95 132.661 L
175.337 131.745 L
175.725 129.845 L
176.113 128.158 L
176.5 126.811 L
176.887 125.256 L
177.275 123.989 L
177.663 123 L
178.05 121.457 L
178.438 120.349 L
178.825 119.158 L
179.212 117.755 L
179.6 114.969 L
179.988 112.576 L
180.375 110.867 L
180.762 108.618 L
181.15 105.447 L
181.538 104.193 L
181.925 101.12 L
182.313 99.166 L
182.7 97.027 L
183.087 95.81 L
183.475 93.647 L
183.863 90.728 L
184.25 88.592 L
184.637 86.477 L
185.025 84.486 L
185.413 82.773 L
185.8 81.64 L
186.188 79.673 L
186.575 77.79 L
186.962 76.581 L
187.35 75.01 L
187.738 73.203 L
188.125 70.933 L
188.512 70.142 L
188.9 69.942 L
189.288 69.109 L
189.675 67.437 L
190.063 65.741 L
190.45 64.263 L
190.837 63.893 L
191.225 63.8 L
191.613 63.568 L
192 62.556 L
192.387 61.961 L
192.775 60.848 L
193.163 60.056 L
193.55 59.069 L
193.938 58.963 L
194.325 58.451 L
194.712 59.464 L
195.1 58.801 L
195.488 59.127 L
195.875 59.551 L
196.262 59.245 L
196.65 59.452 L
197.038 59.134 L
197.425 59.155 L
197.813 59.585 L
198.2 59.34 L
198.587 59.796 L
198.975 60.064 L
199.363 60.69 L
199.75 61.253 L
200.137 61.899 L
200.525 62.675 L
200.913 62.64 L
201.3 63.062 L
201.688 64.231 L
202.075 65.082 L
202.462 65.579 L
202.85 65.633 L
203.238 66.043 L
203.625 66.259 L
204.012 66.751 L
204.4 67.035 L
204.788 67.982 L
205.175 68.675 L
205.563 68.819 L
205.95 68.694 L
206.337 68.732 L
206.725 69.204 L
207.113 69.126 L
207.5 69.395 L
207.887 69.564 L
208.275 69.583 L
208.663 70.169 L
209.05 69.789 L
209.438 69.134 L
209.825 69.693 L
210.212 70.031 L
210.6 71.098 L
210.988 71.28 L
211.375 71.189 L
211.762 72.961 L
212.15 73.497 L
212.538 73.993 L
212.925 74.523 L
213.313 74.998 L
213.7 74.906 L
214.087 75.753 L
214.475 74.791 L
214.863 75.53 L
215.25 76.905 L
215.637 77.18 L
216.025 78.061 L
216.413 78.476 L
216.8 78.851 L
217.188 78.591 L
217.575 78.274 L
217.962 79.452 L
218.35 80.369 L
218.738 81.99 L
219.125 81.551 L
219.512 82.023 L
219.9 81.909 L
220.288 82.617 L
220.675 84.25 L
221.063 84.188 L
221.45 84.836 L
221.837 85.061 L
222.225 85.54 L
222.613 86.198 L
223 86.701 L
223.387 87.342 L
223.775 87.874 L
224.163 87.857 L
224.55 88.637 L
224.938 88.448 L
225.325 89.286 L
225.712 90.987 L
226.1 91.501 L
226.488 90.624 L
226.875 91.374 L
227.262 91.79 L
227.65 92.28 L
228.038 93.089 L
228.425 92.161 L
228.813 92.324 L
229.2 93.347 L
229.587 93.193 L
229.975 93.219 L
230.363 93.148 L
230.75 94.165 L
231.137 94.812 L
231.525 94.036 L
231.913 95.018 L
232.3 94.836 L
232.688 94.497 L
233.075 94.069 L
233.462 94.687 L
233.85 95.68 L
234.238 95.619 L
234.625 95.773 L
235.012 95.876 L
235.4 95.832 L
235.788 96.299 L
236.175 96.88 L
236.563 97.382 L
236.95 98.084 L
237.337 99.638 L
237.725 99.322 L
238.113 98.367 L
238.5 97.243 L
238.887 97.5 L
239.275 97.363 L
239.663 97.249 L
240.05 96.025 L
240.438 95.876 L
240.825 96.546 L
241.212 95.099 L
241.6 94.823 L
241.988 94.7 L
242.375 94.18 L
242.762 94.261 L
243.15 94.324 L
243.538 94.529 L
243.925 95.319 L
244.313 95.412 L
244.7 96.089 L
245.087 95.633 L
245.475 94.844 L
245.863 95.53 L
246.25 95.757 L
246.637 95.826 L
247.025 95.911 L
247.413 95.779 L
247.8 95.401 L
248.188 95.711 L
248.575 95.885 L
248.962 96.135 L
249.35 96.942 L
249.738 97.765 L
250.125 96.317 L
250.512 95.118 L
250.9 96.012 L
251.288 96.259 L
251.675 95.318 L
252.063 94.954 L
252.45 95.428 L
252.837 95.528 L
253.225 95.528 L
253.613 94.501 L
254 94.783 L
254.387 93.934 L
254.775 93.429 L
255.163 93.634 L
255.55 93.278 L
255.938 93.637 L
256.325 93.465 L
256.712 93.354 L
257.1 92.36 L
257.487 91.821 L
257.875 92.53 L
258.263 93.223 L
258.65 94.109 L
259.038 94.197 L
259.425 94.804 L
259.813 95.193 L
260.2 94.895 L
260.587 95.914 L
260.975 97.507 L
261.362 98.719 L
261.75 98.3 L
262.138 98.669 L
262.525 98.444 L
262.913 98.698 L
263.3 98.037 L
263.688 97.823 L
264.075 97.567 L
264.462 97.117 L
264.85 97.573 L
265.237 98.015 L
265.625 97.47 L
266.013 98.12 L
266.4 98.665 L
266.788 98.776 L
267.175 99.314 L
267.563 99.676 L
267.95 100.202 L
268.337 101.751 L
268.725 101.91 L
269.112 100.914 L
269.5 100.155 L
269.888 100.752 L
270.275 101.764 L
270.663 100.46 L
271.05 100.026 L
271.438 100.119 L
271.825 101.211 L
272.212 101.937 L
272.6 103.965 L
272.987 103.994 L
273.375 104.649 L
273.763 104.751 L
274.15 104.653 L
274.538 105.055 L
274.925 106.153 L
275.313 106.005 L
275.7 106.668 L
276.087 106.84 L
276.475 107.287 L
276.862 107.433 L
277.25 107.86 L
277.638 109.026 L
278.025 108.567 L
278.413 108.51 L
278.8 108.706 L
279.188 110.029 L
279.575 112.302 L
279.962 111.872 L
280.35 111.01 L
280.737 110.58 L
281.125 109.542 L
281.513 109.835 L
281.9 110.347 L
282.288 109.66 L
282.675 109.343 L
283.063 110.152 L
283.45 111.049 L
283.837 111.408 L
284.225 112.435 L
284.612 113.324 L
285 112.683 L
285.388 112.932 L
285.775 113.669 L
286.163 113.305 L
286.55 112.945 L
286.938 113.109 L
287.325 113.322 L
287.712 113.089 L
288.1 112.309 L
288.487 111.9 L
288.875 111.65 L
289.263 112.027 L
289.65 111.768 L
290.038 111.07 L
290.425 111.029 L
290.813 110.508 L
291.2 110.865 L
291.587 110.344 L
291.975 109.975 L
292.362 108.666 L
292.75 108.573 L
293.138 107.754 L
293.525 108.079 L
293.913 109.16 L
294.3 107.762 L
294.688 106.191 L
295.075 106.695 L
295.462 105.605 L
295.85 106.298 L
296.237 106.803 L
296.625 106.949 L
297.013 108.092 L
297.4 107.69 L
297.788 108.148 L
298.175 109.616 L
298.563 109.469 L
298.95 109.469 L
299.337 106.877 L
299.725 106.95 L
300.112 107.825 L
300.5 108.773 L
300.888 108.688 L
301.275 109.506 L
301.663 108.787 L
302.05 109.205 L
302.438 109.37 L
302.825 109.268 L
303.212 109.214 L
303.6 108.485 L
303.987 107.949 L
304.375 107.573 L
304.763 108.438 L
305.15 108.315 L
305.538 109.352 L
305.925 110.146 L
306.313 110.667 L
306.7 110.667 L
307.087 110.362 L
307.475 110.83 L
307.862 110.494 L
308.25 111.034 L
308.638 111.886 L
309.025 111.945 L
309.413 112.981 L
309.8 113.777 L
310.188 114.528 L
310.575 115.857 L
310.962 116.193 L
311.35 116.358 L
311.737 116.656 L
312.125 117.147 L
312.513 116.875 L
312.9 118.383 L
313.288 119.777 L
313.675 120.09 L
314.063 121.488 L
314.45 122.697 L
314.837 122.287 L
315.225 122.43 L
315.612 123.894 L
316 123.894 L
316.388 125.344 L
316.775 125.005 L
317.163 123.96 L
317.55 125.024 L
317.938 123.732 L
318.325 123.999 L
318.712 124.817 L
319.1 126.981 L
319.487 127.635 L
319.875 127.195 L
320.263 126.793 L
320.65 127.448 L
321.038 127.448 L
321.425 128.999 L
321.813 129.797 L
322.2 131.694 L
322.587 131.894 L
322.975 133.361 L
323.362 134.606 L
323.75 134.852 L
324.138 135.567 L
324.525 135.281 L
324.913 138.02 L
325.3 137.907 L
325.688 138.151 L
326.075 139.989 L
326.462 140.071 L
326.85 140.219 L
327.237 139.564 L
327.625 140.679 L
328.013 140.59 L
328.4 141.057 L
328.788 140.897 L
329.175 141.439 L
329.563 141.135 L
329.95 140.965 L
330.337 141.367 L
330.725 141.12 L
331.112 141.749 L
331.5 141.339 L
331.888 140.595 L
332.275 140.867 L
332.663 140.35 L
333.05 139.529 L
333.438 139.529 L
333.825 140.02 L
334.212 139.865 L
334.6 139.918 L
334.987 139.174 L
335.375 137.303 L
335.763 136.73 L
336.15 135.92 L
336.538 135.859 L
336.925 136.051 L
337.313 135.454 L
337.7 134.971 L
338.087 135.286 L
338.475 134.08 L
338.862 133.833 L
339.25 135.266 L
339.638 135.12 L
340.025 135.538 L
340.413 135.81 L
340.8 136.138 L
341.188 134.928 L
341.575 135.982 L
341.962 135.014 L
342.35 135.178 L
342.737 133.672 L
343.125 133.543 L
343.513 133.789 L
343.9 134.422 L
344.288 135.2 L
344.675 134.359 L
345.063 133.926 L
345.45 133.579 L
345.837 131.964 L
346.225 131.585 L
346.612 130.978 L
347 132.885 L
347.388 132.885 L
347.775 133.198 L
348.163 133.431 L
348.55 135.542 L
348.938 135.892 L
349.325 136.431 L
349.712 136.937 L
350.1 137.728 L
350.487 137.299 L
350.875 137.989 L
351.263 139.072 L
351.65 139.583 L
352.038 140.426 L
352.425 141.072 L
352.813 141.316 L
353.2 140.597 L
353.587 139.861 L
353.975 140.78 L
354.362 142.099 L
354.75 144.383 L
355.138 144.543 L
355.525 144.218 L
355.913 143.971 L
356.3 144.229 L
356.688 143.984 L
357.075 143.688 L
357.462 145.464 L
357.85 145.058 L
358.237 144.709 L
358.625 144.709 L
359.013 143.966 L
359.4 144.368 L
359.788 143.06 L
360.175 142.992 L
360.563 142.501 L
360.95 143.255 L
361.337 141.609 L
361.725 141.582 L
362.112 142.529 L
362.5 142.726 L
362.888 141.164 L
363.275 140.602 L
363.663 138.741 L
364.05 138.858 L
364.438 138.715 L
364.825 138.47 L
365.212 137.733 L
365.6 138.353 L
365.987 139.197 L
366.375 140.123 L
366.763 139.444 L
367.15 139.366 L
367.538 140.036 L
367.925 139.802 L
368.313 138.633 L
368.7 137.897 L
369.087 139.258 L
369.475 137.892 L
369.862 137.585 L
370.25 137.725 L
370.638 136.934 L
371.025 136.494 L
371.413 137.691 L
371.8 137.718 L
372.188 136.981 L
372.575 136.635 L
372.962 137.878 L
373.35 137.796 L
373.737 136.877 L
374.125 135.652 L
374.513 133.608 L
374.9 133.831 L
375.288 134.729 L
375.675 134.57 L
376.063 134.57 L
376.45 134.458 L
376.837 134.286 L
377.225 132.425 L
377.612 133.232 L
378 133.076 L
378.388 131.882 L
378.775 131.882 L
379.163 131.087 L
379.55 132.027 L
379.938 131.904 L
380.325 131.499 L
380.712 131.939 L
381.1 132.542 L
381.487 131.341 L
381.875 130.319 L
382.263 129.105 L
382.65 130.797 L
383.038 130.957 L
383.425 131.256 L
383.813 130.739 L
384.2 130.105 L
384.587 129.629 L
384.975 131.163 L
385.362 131.307 L
385.75 131.435 L
386.138 131.529 L
386.525 131.387 L
386.913 130.451 L
387.3 129.696 L
387.688 129.868 L
388.075 128.752 L
388.462 129.216 L
388.85 127.262 L
389.237 128.629 L
389.625 127.11 L
390.013 127.708 L
390.4 126.752 L
390.788 128.74 L
391.175 128.596 L
391.563 127.502 L
391.95 127.592 L
392.337 127.414 L
392.725 127.285 L
393.112 127.458 L
393.5 127.285 L
393.888 128.912 L
394.275 129.988 L
394.663 130.012 L
395.05 131.122 L
395.438 131.281 L
395.825 131.54 L
396.212 133.37 L
396.6 133.519 L
396.987 134.01 L
397.375 133.868 L
397.763 134.176 L
398.15 134.68 L
398.538 134.809 L
398.925 135.449 L
399.313 135.285 L
399.7 135.285 L
400.087 135.333 L
400.475 135.607 L
400.862 135.252 L
401.25 135.703 L
401.638 136.868 L
402.025 138.47 L
402.413 137.288 L
402.8 137.288 L
403.188 138.19 L
403.575 139.45 L
403.962 139.838 L
404.35 139.274 L
404.737 138.006 L
405.125 137.019 L
405.513 136.259 L
405.9 135.634 L
406.288 135.285 L
406.675 135.548 L
407.063 134.882 L
407.45 134.14 L
407.837 134.182 L
408.225 132.727 L
408.612 132.727 L
409 131.595 L
409.388 131.777 L
409.775 131.38 L
410.163 133.415 L
410.55 130.41 L
410.938 129.294 L
411.325 129.517 L
411.712 129.426 L
412.1 129.511 L
412.487 128.445 L
412.875 127.276 L
413.263 127.51 L
413.65 127.885 L
414.038 126.956 L
414.425 125.932 L
414.813 124.474 L
415.2 124.821 L
415.587 124.045 L
415.975 122.736 L
416.362 123.405 L
416.75 123.224 L
417.138 121.975 L
417.525 121.577 L
417.913 121.905 L
418.3 121.517 L
418.688 121.717 L
419.075 121.96 L
419.462 121.264 L
419.85 122.113 L
420.237 120.382 L
420.625 120.246 L
421.013 120.996 L
421.4 119.762 L
421.788 118.599 L
422.175 118.833 L
422.563 119.141 L
422.95 118.453 L
423.337 116.934 L
423.725 116.116 L
424.112 116.665 L
424.5 116.904 L
424.888 117.038 L
425.275 118.072 L
425.663 120.662 L
426.05 120.58 L
426.438 120.239 L
426.825 120.924 L
427.212 121.329 L
427.6 121.462 L
427.987 122.137 L
428.375 123.204 L
428.763 123.819 L
429.15 124.397 L
429.538 123.651 L
429.925 121.707 L
430.313 123.035 L
430.7 123.505 L
431.087 123.803 L
431.475 122.903 L
431.862 123.215 L
432.25 124.203 L
432.638 125.63 L
433.025 124.876 L
433.413 122.902 L
433.8 125.223 L
434.188 125.932 L
434.575 126.524 L
434.962 126.087 L
435.35 126.446 L
435.737 126.446 L
436.125 126.576 L
436.513 126.686 L
436.9 126.812 L
437.288 127.522 L
437.675 128.142 L
438.063 128.918 L
438.45 128.201 L
438.837 127.609 L
439.225 128.55 L
439.612 128.395 L
440 130.141 L
440.388 131.018 L
440.775 130.004 L
441.163 130.381 L
441.55 129.634 L
441.938 129.278 L
442.325 129.59 L
442.712 131.273 L
443.1 131.932 L
443.487 131.698 L
443.875 132.926 L
444.263 132.568 L
444.65 133.55 L
445.038 133.276 L
445.425 131.066 L
445.813 130.71 L
446.2 131.114 L
446.587 130.132 L
446.975 129.328 L
447.362 129.624 L
447.75 129.772 L
448.138 130.045 L
448.525 130.045 L
448.913 129.137 L
449.3 129.526 L
449.688 129.215 L
450.075 130.102 L
450.462 129.695 L
450.85 129.175 L
451.237 128.945 L
451.625 128.314 L
452.013 127.612 L
452.4 126.158 L
452.788 127.804 L
453.175 127.22 L
453.563 124.641 L
453.95 124.718 L
454.337 124.126 L
454.725 124.215 L
455.112 123.533 L
455.5 124.207 L
455.888 122.645 L
456.275 123.052 L
456.663 123.58 L
457.05 122.801 L
457.438 121.284 L
457.825 119.294 L
458.212 118.895 L
458.6 119.325 L
458.987 118.855 L
459.375 118.831 L
459.763 117.214 L
460.15 116.132 L
460.538 116.873 L
460.925 116.721 L
461.313 119.064 L
461.7 119.064 L
462.087 119.337 L
462.475 117.387 L
462.862 116.986 L
463.25 116.606 L
463.638 114.682 L
464.025 115.178 L
464.413 113.424 L
464.8 112.095 L
465.188 112.095 L
465.575 113.27 L
465.962 113.483 L
466.35 114.556 L
466.737 115.523 L
467.125 115.052 L
467.513 114.84 L
467.9 113.501 L
468.288 113.325 L
468.675 113.261 L
469.063 113.955 L
469.45 114.66 L
469.837 113.555 L
470.225 113.938 L
470.612 114.103 L
471 114.407 L
471.388 114.407 L
471.775 114.874 L
472.163 116.07 L
472.55 114.647 L
472.938 115.007 L
473.325 115.323 L
473.712 114.775 L
474.1 115.02 L
474.487 115.48 L
474.875 116.094 L
475.263 115.186 L
475.65 115.566 L
476.038 115.542 L
476.425 115.706 L
476.813 115.394 L
477.2 116.237 L
477.587 117.45 L
477.975 118.194 L
478.362 117.385 L
478.75 117.995 L
479.138 117.437 L
479.525 118.006 L
479.913 118.716 L
480.3 118.378 L
480.688 117.887 L
481.075 116.167 L
481.462 116.065 L
481.85 114.837 L
482.237 114.778 L
482.625 114.531 L
483.013 115.318 L
483.4 115.932 L
483.788 115.23 L
484.175 115.973 L
484.563 116.394 L
484.95 115.522 L
485.337 114.134 L
485.725 113.899 L
486.112 112.944 L
486.5 112.398 L
486.888 113.224 L
487.275 113.249 L
487.663 113.185 L
488.05 112.703 L
488.438 112.926 L
488.825 113.081 L
489.212 113.081 L
489.6 112.754 L
489.987 112.605 L
490.375 113.042 L
490.763 113.553 L
491.15 114.212 L
491.538 113.51 L
491.925 112.519 L
492.313 112.502 L
492.7 113.195 L
493.087 113.258 L
493.475 112.644 L
493.862 112.399 L
494.25 112.162 L
494.638 112.531 L
495.025 112.297 L
495.413 112.367 L
495.8 111.337 L
496.188 111.509 L
496.575 111.891 L
496.962 110.595 L
497.35 110.09 L
497.737 110.635 L
498.125 111.082 L
498.513 110.045 L
498.9 110.38 L
499.288 109.764 L
499.675 109.75 L
500.063 109.406 L
500.45 109.729 L
500.837 110.279 L
501.225 111.283 L
501.612 112.238 L
502 112.705 L
502.388 112.087 L
502.775 111.447 L
503.163 112.573 L
503.55 114.247 L
503.938 114.365 L
504.325 114.681 L
504.712 115.173 L
505.1 115.445 L
505.487 115.039 L
505.875 116.29 L
506.263 117.109 L
506.65 116.793 L
507.038 118.029 L
507.425 118.146 L
507.813 119.708 L
508.2 120.328 L
508.587 120.469 L
508.975 120.915 L
509.362 120.829 L
509.75 121.648 L
510.138 121.491 L
510.525 122.271 L
510.913 121.464 L
511.3 121.464 L
511.688 122.354 L
512.075 122.996 L
512.463 122.241 L
512.85 121.82 L
513.237 124.011 L
513.625 124.078 L
514.013 123.929 L
514.4 123.929 L
514.787 123.546 L
515.175 123.791 L
515.563 124.152 L
515.95 123.893 L
516.338 123.206 L
516.725 123.884 L
517.112 123.389 L
517.5 122.151 L
517.888 121.433 L
518.275 121.646 L
518.662 121.893 L
519.05 122.744 L
519.438 122.662 L
519.825 122.837 L
520.213 123.005 L
520.6 122.76 L
520.987 121.644 L
521.375 120.865 L
521.763 121.138 L
522.15 121.83 L
522.537 121.889 L
522.925 121.855 L
523.313 119.865 L
523.7 120.089 L
524.088 119.662 L
524.475 119.796 L
524.862 119.86 L
525.25 120.266 L
525.638 120.125 L
526.025 119.852 L
526.412 120.414 L
526.8 120.542 L
527.188 121.092 L
527.575 120.187 L
527.963 119.875 L
528.35 119.174 L
528.737 118.616 L
529.125 118.702 L
529.513 117.415 L
529.9 116.969 L
530.287 115.353 L
530.675 115.914 L
531.063 116.554 L
531.45 116.565 L
531.838 115.893 L
532.225 116.844 L
532.612 117.265 L
533 116.216 L
533.388 116.498 L
533.775 116.58 L
534.162 115.843 L
534.55 118.127 L
534.938 119.137 L
535.325 120.332 L
535.713 120.343 L
536.1 120.625 L
536.487 120.97 L
536.875 122.085 L
537.263 122.433 L
537.65 123.433 L
538.037 123.871 L
538.425 123.781 L
538.813 124.321 L
539.2 123.976 L
539.588 123.752 L
539.975 124.876 L
540.362 124.684 L
540.75 125.799 L
541.138 125.828 L
541.525 125.828 L
541.912 125.665 L
542.3 126.459 L
542.688 125.134 L
543.075 125.303 L
543.463 125.08 L
543.85 125.81 L
544.237 125.229 L
544.625 124.808 L
545.013 125.299 L
545.4 125.299 L
545.787 124.598 L
546.175 123.973 L
546.563 122.137 L
546.95 122.137 L
547.338 122.081 L
547.725 122.12 L
548.112 122.12 L
548.5 121.533 L
548.888 121.299 L
549.275 121.469 L
549.662 121.522 L
550.05 121.9 L
550.438 120.918 L
550.825 121.018 L
551.213 120.936 L
551.6 120.712 L
551.987 120.281 L
552.375 119.901 L
552.763 119.578 L
553.15 118.913 L
553.537 118.475 L
553.925 118.564 L
554.313 117.132 L
554.7 115.807 L
555.088 115.706 L
555.475 115.371 L
555.862 115.15 L
556.25 115.435 L
556.638 115.061 L
557.025 115.108 L
557.412 113.654 L
557.8 112.988 L
558.188 112.251 L
558.575 111.206 L
558.963 112.096 L
559.35 112.727 L
559.737 111.754 L
560.125 112.683 L
560.513 112.956 L
560.9 113.161 L
561.287 112.59 L
561.675 112.398 L
562.063 112.013 L
562.45 111.677 L
562.838 112.057 L
563.225 112.228 L
563.612 112.215 L
564 112.959 L
564.388 113.258 L
564.775 112.186 L
565.162 110.863 L
565.55 113.304 L
565.938 113.527 L
566.325 113.488 L
566.713 113.791 L
567.1 113.636 L
567.487 112.794 L
567.875 112.885 L
568.263 114.116 L
568.65 114.583 L
569.037 115.7 L
569.425 116.316 L
569.813 117.827 L
570.2 118.408 L
570.588 117.837 L
570.975 118.268 L
571.362 118.919 L
571.75 118.175 L
572.138 118.433 L
572.525 118.239 L
572.912 118.622 L
573.3 119.06 L
573.688 119.462 L
574.075 120.28 L
574.463 121.216 L
574.85 120.233 L
575.237 120.643 L
575.625 122.122 L
576.013 120.986 L
576.4 120.74 L
576.787 120.137 L
577.175 121.834 L
577.563 122.185 L
577.95 122.754 L
578.338 122.228 L
578.725 120.899 L
579.112 121.546 L
579.5 120.46 L
579.888 119.959 L
580.275 119.713 L
580.662 119.058 L
581.05 119.929 L
581.438 120.558 L
581.825 120.213 L
582.213 120.853 L
582.6 121.518 L
582.987 120.954 L
583.375 120.237 L
583.763 119.94 L
584.15 120.444 L
584.537 120.668 L
584.925 121.255 L
585.313 119.788 L
585.7 119.788 L
586.088 119.87 L
586.475 118.666 L
586.862 119.291 L
587.25 119.077 L
587.638 118.752 L
588.025 118.174 L
588.412 117.196 L
588.8 116.377 L
589.188 116.325 L
589.575 115.588 L
589.963 116.754 L
590.35 116.965 L
590.737 115.879 L
591.125 115.723 L
591.513 116.381 L
591.9 116.123 L
592.287 115.999 L
592.675 115.494 L
593.063 115.248 L
593.45 114.219 L
593.838 113.103 L
594.225 111.943 L
594.612 112.783 L
595 112.865 L
595.388 111.903 L
595.775 112.457 L
596.162 113.595 L
596.55 114.823 L
596.938 114.074 L
597.325 115.515 L
597.713 114.841 L
598.1 115.153 L
598.487 115.117 L
598.875 114.065 L
599.263 115.15 L
599.65 114.915 L
600.037 114.268 L
600.425 114.195 L
600.813 113.154 L
601.2 112.739 L
601.588 112.85 L
601.975 112.636 L
602.362 112.591 L
602.75 113.058 L
603.138 113.239 L
603.525 114.11 L
603.912 113.797 L
604.3 113.749 L
604.688 115.468 L
605.075 114.897 L
605.463 115.121 L
605.85 115.904 L
606.237 116.202 L
606.625 115.219 L
607.013 115.937 L
607.4 116.241 L
607.787 116.758 L
608.175 117.157 L
608.563 117.33 L
608.95 116.824 L
609.338 115.842 L
609.725 114.341 L
610.112 115.101 L
610.5 114.733 L
610.888 114.98 L
611.275 115.066 L
611.662 116.382 L
612.05 117.023 L
612.438 117.145 L
612.825 117.38 L
613.213 117.726 L
613.6 118.454 L
613.987 118.838 L
614.375 118.838 L
614.763 118.67 L
615.15 119.216 L
615.537 120.203 L
615.925 119.287 L
616.313 118.109 L
616.7 117.248 L
617.088 115.52 L
617.475 115.983 L
617.862 116.786 L
618.25 117.195 L
618.638 117.757 L
619.025 116.909 L
619.412 117.891 L
619.8 119.057 L
620.188 119.856 L
620.575 119.579 L
620.963 120.411 L
621.35 120.817 L
621.737 120.755 L
622.125 120.542 L
622.513 120.021 L
622.9 119.441 L
623.287 119.195 L
623.675 118.657 L
624.063 118.817 L
624.45 117.59 L
624.838 117.531 L
625.225 116.813 L
625.612 116.904 L
626 117.597 L
626.388 118.018 L
626.775 118.083 L
627.162 117.726 L
627.55 117.144 L
627.938 117.817 L
628.325 116.735 L
628.713 117.417 L
629.1 117.908 L
629.487 119.443 L
629.875 119.199 L
630.263 120.059 L
630.65 119.317 L
631.037 120.265 L
631.425 118.96 L
631.813 119.477 L
632.2 119.19 L
632.588 118.55 L
632.975 119.054 L
633.362 118.705 L
633.75 118.952 L
634.138 118.054 L
634.525 118.374 L
634.912 118.775 L
635.3 117.54 L
635.688 117.473 L
636.075 117.541 L
636.463 117.028 L
636.85 117.14 L
637.237 116.835 L
637.625 117.549 L
638.013 117.388 L
638.4 116.652 L
638.787 116.856 L
639.175 115.895 L
639.563 114.336 L
639.95 113.572 L
640.338 114.398 L
640.725 113.709 L
641.112 113.222 L
641.5 113.263 L
641.888 112.681 L
642.275 113.351 L
642.662 113.931 L
643.05 113.136 L
643.438 113.055 L
643.825 112.603 L
644.213 111.819 L
644.6 112.502 L
644.987 112.908 L
645.375 112.65 L
645.763 113.023 L
646.15 113.093 L
646.537 113.767 L
646.925 113.528 L
647.313 113.086 L
647.7 112.595 L
648.088 113.149 L
648.475 112.262 L
648.862 113.102 L
649.25 111.679 L
649.638 110.78 L
650.025 110.125 L
650.412 111.513 L
650.8 110.491 L
651.188 110.48 L
651.575 110.997 L
651.963 110.427 L
652.35 110.699 L
652.737 110.981 L
653.125 110.139 L
653.513 109.031 L
653.9 109.871 L
654.287 109.494 L
654.675 109.946 L
655.063 111.037 L
655.45 110.763 L
655.838 111.382 L
656.225 113.403 L
656.612 113.158 L
657 113.527 L
657.388 112.907 L
657.775 113.008 L
658.162 113.254 L
658.55 113.663 L
658.938 114.236 L
659.325 114.704 L
659.713 115.724 L
660.1 115.028 L
660.487 114.21 L
660.875 114.382 L
661.263 114.546 L
661.65 114.599 L
662.037 113.983 L
662.425 113.913 L
662.813 113.971 L
663.2 114.988 L
663.588 115.494 L
663.975 115.172 L
664.362 114.231 L
664.75 114.32 L
665.138 114.32 L
665.525 113.365 L
665.912 113.231 L
666.3 112.988 L
666.688 113.339 L
667.075 113.167 L
667.463 113.412 L
667.85 113.247 L
668.237 113.206 L
668.625 111.894 L
669.013 111.894 L
669.4 111.579 L
669.787 111.828 L
670.175 110.425 L
670.563 110.499 L
670.95 110.949 L
671.338 109.915 L
671.725 110.802 L
672.112 111.272 L
672.5 110.841 L
672.888 111.683 L
673.275 111.964 L
673.662 110.773 L
674.05 110.997 L
674.438 108.936 L
674.825 107.736 L
675.213 108.474 L
675.6 109.327 L
675.987 108.754 L
676.375 109.491 L
676.763 111.464 L
677.15 111.219 L
677.537 112.117 L
677.925 113.533 L
678.313 114.106 L
678.7 113.47 L
679.088 113.901 L
679.475 112.638 L
679.862 112.317 L
680.25 113.603 L
680.638 113.894 L
681.025 114.713 L
681.412 114.414 L
681.8 116.133 L
682.188 116.204 L
682.575 116.204 L
682.963 115.56 L
683.35 116.301 L
683.737 117.652 L
684.125 118.471 L
684.513 117.852 L
684.9 118.311 L
685.287 118.422 L
685.675 119.409 L
686.063 118.634 L
686.45 118.838 L
686.838 119.933 L
687.225 119.777 L
687.612 120.843 L
688 121.356 L
688.388 122.409 L
688.775 122.543 L
689.162 123.163 L
689.55 122.797 L
689.938 121.913 L
690.325 121.616 L
690.713 120.961 L
691.1 122.253 L
691.487 121.803 L
691.875 122.016 L
692.263 122.016 L
692.65 121.413 L
693.037 122.217 L
693.425 122.422 L
693.813 122.042 L
694.2 122.835 L
694.588 122.921 L
694.975 121.966 L
695.362 121.849 L
695.75 121.494 L
696.138 122.359 L
696.525 121.051 L
696.912 120.267 L
697.3 119.539 L
697.688 117.594 L
698.075 116.452 L
698.463 116.247 L
698.85 114.881 L
699.237 115.124 L
699.625 116.878 L
700.013 116.956 L
700.4 116.451 L
700.787 115.704 L
701.175 116.904 L
701.563 115.419 L
701.95 115.173 L
702.338 115.378 L
702.725 115.645 L
703.112 114.85 L
703.5 113.977 L
703.888 114.318 L
704.275 113.94 L
704.662 112.913 L
705.05 112.556 L
705.438 112.541 L
705.825 112.967 L
706.213 113.098 L
706.6 112.671 L
706.987 112.447 L
707.375 112.591 L
707.763 112.13 L
708.15 112.531 L
708.537 112.928 L
708.925 113.174 L
709.313 115.574 L
709.7 116.521 L
710.088 116.89 L
710.475 117.79 L
710.862 116.126 L
711.25 116.371 L
711.638 116.158 L
712.025 116.084 L
712.412 115.723 L
712.8 115.107 L
713.188 115.646 L
713.575 115.944 L
713.963 115.472 L
714.35 115.744 L
714.737 116.235 L
715.125 115.306 L
715.513 115.306 L
715.9 114.44 L
716.287 114.699 L
716.675 114.991 L
717.063 114.88 L
717.45 115.003 L
717.838 116.003 L
718.225 116.484 L
718.612 117.419 L
719 117.591 L
719.388 117.1 L
719.775 116.788 L
720.162 118.269 L
720.55 118.198 L
720.938 118.198 L
721.325 118.268 L
721.713 118.826 L
722.1 119.102 L
722.487 119.478 L
722.875 119.478 L
723.263 119.478 L
723.65 120.024 L
724.037 120.481 L
724.425 120.352 L
724.813 120.486 L
725.2 119.515 L
725.588 119.433 L
725.975 119.151 L
726.362 119.433 L
726.75 120.058 L
727.138 119.205 L
727.525 119.808 L
727.912 119.703 L
728.3 119.113 L
728.688 118.622 L
729.075 117.071 L
729.463 116.74 L
729.85 117.343 L
730.237 116.794 L
730.625 117.334 L
731.013 117.977 L
731.4 117.507 L
731.787 117.439 L
732.175 118.493 L
732.563 119.635 L
732.95 119.567 L
733.338 118.953 L
733.725 119.046 L
734.112 119.344 L
734.5 119.176 L
734.888 120.077 L
735.275 119.437 L
735.662 119.437 L
736.05 118.093 L
736.438 117.981 L
736.825 118.472 L
737.213 118.967 L
737.6 118.373 L
737.987 117.78 L
738.375 117.638 L
738.763 118.308 L
739.15 117.099 L
739.537 117.377 L
739.925 116.177 L
740.313 116.549 L
740.7 115.499 L
741.088 115.521 L
741.475 114.851 L
741.862 114.416 L
742.25 113.399 L
742.638 114.181 L
743.025 113.703 L
743.412 111.919 L
743.8 112.235 L
744.188 113.191 L
744.575 113.548 L
744.963 114.391 L
745.35 113.573 L
745.737 113.519 L
746.125 113.43 L
746.513 112.448 L
746.9 112.611 L
747.287 112.611 L
747.675 111.846 L
748.063 112.202 L
748.45 113.042 L
748.838 112.67 L
749.225 114.21 L
749.612 113.618 L
750 113.235 L
750.388 112.334 L
750.775 112.1 L
751.162 112.944 L
751.55 112.73 L
751.938 111.412 L
752.325 111.065 L
752.713 110.798 L
753.1 111.412 L
753.487 111.577 L
753.875 111.221 L
754.263 110.563 L
754.65 109.943 L
755.037 110.642 L
755.425 110.262 L
755.813 111.348 L
756.2 111.869 L
756.588 111.283 L
756.975 111.358 L
757.362 110.612 L
757.75 111.305 L
758.138 111.448 L
758.525 110.778 L
758.912 112.09 L
759.3 111.169 L
759.688 110.542 L
760.075 110.096 L
760.463 110.772 L
760.85 110.3 L
761.237 109.798 L
761.625 109.28 L
762.013 109.128 L
762.4 108.411 L
762.787 109.078 L
763.175 110.202 L
763.563 109.716 L
763.95 109.402 L
764.338 109.738 L
764.725 109.263 L
765.112 110.254 L
765.5 110.745 L
765.888 111.058 L
766.275 111.713 L
766.662 112.258 L
767.05 112.024 L
767.438 111.667 L
767.825 111.749 L
768.213 110.322 L
768.6 110.952 L
768.987 109.445 L
769.375 109.535 L
769.763 109.977 L
770.15 110.328 L
770.537 110.655 L
770.925 110.191 L
771.313 110.482 L
771.7 111.219 L
772.088 109.991 L
772.475 109.879 L
772.862 110.207 L
773.25 111.237 L
773.638 112.684 L
774.025 113.019 L
774.412 112.859 L
774.8 112.923 L
775.188 113.548 L
775.575 112.07 L
775.963 111.377 L
776.35 111.36 L
776.737 109.936 L
777.125 110.378 L
777.513 109.738 L
777.9 109.393 L
778.287 109.558 L
778.675 109.361 L
779.063 109.607 L
779.45 109.312 L
779.838 109.042 L
780.225 108.706 L
780.612 109.32 L
781 110.268 L
781.388 111.15 L
781.775 111.943 L
782.162 112.37 L
782.55 112.071 L
782.938 111.119 L
783.325 111.443 L
783.713 111.82 L
784.1 112.22 L
784.487 111.851 L
784.875 111.605 L
785.263 110.953 L
785.65 111.038 L
786.037 110.571 L
786.425 110.025 L
786.813 109.85 L
787.2 110.046 L
787.588 109.497 L
787.975 109.497 L
788.362 109.324 L
788.75 110.143 L
789.138 109.737 L
789.525 109.418 L
789.912 110.058 L
790.3 109.21 L
790.688 108.894 L
791.075 108.604 L
791.463 108.492 L
791.85 109.665 L
792.237 110.514 L
792.625 109.952 L
793.013 109.36 L
793.4 107.971 L
793.787 108.529 L
794.175 108.529 L
794.563 107.882 L
794.95 107.21 L
795.338 108.43 L
795.725 108.075 L
796.112 107.426 L
796.5 108.85 L
796.888 109.49 L
797.275 110.13 L
797.662 109.954 L
798.05 110.543 L
798.438 110.167 L
798.825 110.876 L
799.213 112.022 L
799.6 111.753 L
799.987 111.619 L
800.375 111.385 L
800.763 111.05 L
801.15 111.222 L
801.537 111.172 L
801.925 111.161 L
802.313 111.73 L
802.7 111.953 L
803.088 113.086 L
803.475 112.688 L
803.862 112.349 L
804.25 112.349 L
804.638 111.902 L
805.025 111.858 L
805.412 111.538 L
805.8 111.223 L
806.188 111.818 L
806.575 111.18 L
806.963 111.474 L
807.35 111.396 L
807.737 111.872 L
808.125 111.806 L
808.513 111.348 L
808.9 111.754 L
809.287 113.43 L
809.675 113.257 L
810.063 113.31 L
810.45 113.188 L
810.838 113.402 L
811.225 113.625 L
811.612 114.444 L
812 114.042 L
812.388 114.276 L
812.775 113.45 L
813.162 113.747 L
813.55 113.078 L
813.938 113.312 L
814.325 113.725 L
814.713 114.152 L
815.1 113.746 L
815.487 115.612 L
815.875 116.707 L
816.263 116.941 L
816.65 118.508 L
817.037 117.926 L
817.425 118.283 L
817.813 118.131 L
818.2 118.82 L
818.588 118.446 L
818.975 118.379 L
819.362 119.227 L
819.75 119.852 L
820.138 119.565 L
820.525 119.507 L
820.912 119.061 L
821.3 119.02 L
821.688 118.247 L
822.075 118.801 L
822.463 118.865 L
822.85 118.737 L
823.237 117.69 L
823.625 116.802 L
824.013 116.865 L
824.4 116.603 L
824.787 117.79 L
825.175 117.802 L
825.563 118.499 L
825.95 118.034 L
826.338 118.468 L
826.725 117.888 L
827.112 117.913 L
827.5 118.024 L
827.888 118.363 L
828.275 118.3 L
828.662 117.894 L
829.05 116.946 L
829.438 116.291 L
829.825 116.461 L
830.213 116.461 L
830.6 116.136 L
830.987 115.913 L
831.375 114.524 L
831.763 113.943 L
832.15 113.709 L
832.537 114.311 L
832.925 113.493 L
833.313 113.4 L
833.7 113.633 L
834.088 113.318 L
834.475 113.002 L
834.862 113.318 L
835.25 111.979 L
835.638 111.45 L
836.025 111.142 L
836.412 109.046 L
836.8 108.842 L
837.188 108.436 L
837.575 107.833 L
837.963 106.718 L
838.35 106.48 L
838.737 106.043 L
839.125 105.575 L
839.513 104.347 L
839.9 104.299 L
840.287 105.339 L
840.675 105.314 L
841.063 105.934 L
841.45 106.226 L
841.838 105.672 L
842.225 105.988 L
842.612 104.394 L
843 105.083 L
843.388 105.083 L
843.775 104.849 L
844.162 105.063 L
844.55 105.581 L
844.938 105.828 L
845.325 104.891 L
845.713 104.302 L
846.1 105.189 L
846.487 105.79 L
846.875 105.79 L
847.263 105.679 L
847.65 105.331 L
848.037 105.508 L
848.425 106.315 L
848.813 106.017 L
849.2 106.017 L
849.588 106.548 L
849.975 107.403 L
850.362 107.707 L
850.75 108.658 L
851.138 110.081 L
851.525 110.439 L
851.912 110.754 L
852.3 110.897 L
852.688 111.552 L
853.075 111.438 L
853.463 110.511 L
853.85 111.294 L
854.237 111.231 L
854.625 110.851 L
855.013 110.375 L
855.4 109.769 L
855.787 109.925 L
856.175 110.97 L
856.563 113.016 L
856.95 113.381 L
857.338 115.867 L
857.725 115.585 L
858.112 116.035 L
858.5 116.305 L
858.888 116.635 L
859.275 117.126 L
859.662 117.34 L
860.05 117.456 L
860.438 118.222 L
860.825 117.908 L
861.213 118.991 L
861.6 119.226 L
861.987 118.489 L
862.375 119.079 L
862.763 119.19 L
863.15 120.519 L
863.537 120.753 L
863.925 121.708 L
864.313 119.915 L
864.7 119.677 L
865.088 120.614 L
865.475 120.728 L
865.862 120.604 L
866.25 120.582 L
866.638 120.285 L
867.025 120.45 L
867.412 119.955 L
867.8 120.448 L
868.188 119.671 L
868.575 119.559 L
868.963 119.804 L
869.35 120.116 L
869.737 119.7 L
870.125 119.566 L
870.513 119.135 L
870.9 118.01 L
871.287 117.898 L
871.675 118.389 L
872.063 117.98 L
872.45 118.377 L
872.838 119.378 L
873.225 120.071 L
873.612 120.304 L
874 120.368 L
874.388 121.097 L
874.775 121.193 L
875.162 122.575 L
875.55 122.642 L
875.938 121.887 L
876.325 119.753 L
876.713 119.815 L
877.1 117.149 L
877.487 117.703 L
877.875 116.704 L
878.263 116.434 L
878.65 115.993 L
879.037 116.575 L
879.425 116.148 L
879.813 115.54 L
880.2 115.221 L
880.588 116.098 L
880.975 115.697 L
881.362 114.32 L
881.75 115.057 L
882.138 115.429 L
882.525 116.269 L
882.912 115.922 L
883.3 115.922 L
883.688 114.793 L
884.075 115.667 L
884.463 115.323 L
884.85 115.409 L
885.237 115.926 L
885.625 115.926 L
886.013 115.792 L
886.4 116.202 L
886.787 116.324 L
887.175 116.425 L
887.563 116.449 L
887.95 117.227 L
888.338 116.934 L
888.725 116.934 L
889.112 116.314 L
889.5 115.577 L
889.888 115.519 L
890.275 115.792 L
890.662 115.628 L
891.05 115.57 L
891.438 116.429 L
891.825 117.166 L
892.213 117.014 L
892.6 117.113 L
892.987 117.113 L
893.375 116.582 L
893.763 117.779 L
894.15 116.734 L
894.537 117.807 L
894.925 117.868 L
895.313 116.868 L
895.7 116.832 L
896.088 117.456 L
896.475 117.513 L
896.862 118.178 L
897.25 118.425 L
897.638 119.041 L
898.025 119.385 L
898.412 119.733 L
898.8 119.469 L
899.188 120.381 L
899.575 120.236 L
899.963 119.996 L
900.35 118.671 L
900.737 118.204 L
901.125 119.838 L
901.513 119.656 L
901.9 119.716 L
902.287 118.98 L
902.675 118.364 L
903.063 118.631 L
903.45 119.783 L
903.838 119.403 L
904.225 120.055 L
904.612 119.982 L
905 119.566 L
S
GR
%%Trailer
%%Pages: 1
%%EOF
