%!PS-Adobe-3.0 EPSF-3.0
%%Creator: (MATLAB, The Mathworks, Inc. Version 9.0.0.341360 \(R2016a\). Operating System: Linux)
%%Title: report/figures/sm_base_mtgt_additional_fc_layer2_ratio.eps
%%CreationDate: 2017-02-04T23:56:35
%%Pages: (atend)
%%BoundingBox:    59     4   910   325
%%LanguageLevel: 3
%%EndComments
%%BeginProlog
%%BeginResource: procset (Apache XML Graphics Std ProcSet) 1.2 0
%%Version: 1.2 0
%%Copyright: (Copyright 2001-2003,2010 The Apache Software Foundation. License terms: http://www.apache.org/licenses/LICENSE-2.0)
/bd{bind def}bind def
/ld{load def}bd
/GR/grestore ld
/M/moveto ld
/LJ/setlinejoin ld
/C/curveto ld
/f/fill ld
/LW/setlinewidth ld
/GC/setgray ld
/t/show ld
/N/newpath ld
/CT/concat ld
/cp/closepath ld
/S/stroke ld
/L/lineto ld
/CC/setcmykcolor ld
/A/ashow ld
/GS/gsave ld
/RC/setrgbcolor ld
/RM/rmoveto ld
/ML/setmiterlimit ld
/re {4 2 roll M
1 index 0 rlineto
0 exch rlineto
neg 0 rlineto
cp } bd
/_ctm matrix def
/_tm matrix def
/BT { _ctm currentmatrix pop matrix _tm copy pop 0 0 moveto } bd
/ET { _ctm setmatrix } bd
/iTm { _ctm setmatrix _tm concat } bd
/Tm { _tm astore pop iTm 0 0 moveto } bd
/ux 0.0 def
/uy 0.0 def
/F {
  /Tp exch def
  /Tf exch def
  Tf findfont Tp scalefont setfont
  /cf Tf def  /cs Tp def
} bd
/ULS {currentpoint /uy exch def /ux exch def} bd
/ULE {
  /Tcx currentpoint pop def
  gsave
  newpath
  cf findfont cs scalefont dup
  /FontMatrix get 0 get /Ts exch def /FontInfo get dup
  /UnderlinePosition get Ts mul /To exch def
  /UnderlineThickness get Ts mul /Tt exch def
  ux uy To add moveto  Tcx uy To add lineto
  Tt setlinewidth stroke
  grestore
} bd
/OLE {
  /Tcx currentpoint pop def
  gsave
  newpath
  cf findfont cs scalefont dup
  /FontMatrix get 0 get /Ts exch def /FontInfo get dup
  /UnderlinePosition get Ts mul /To exch def
  /UnderlineThickness get Ts mul /Tt exch def
  ux uy To add cs add moveto Tcx uy To add cs add lineto
  Tt setlinewidth stroke
  grestore
} bd
/SOE {
  /Tcx currentpoint pop def
  gsave
  newpath
  cf findfont cs scalefont dup
  /FontMatrix get 0 get /Ts exch def /FontInfo get dup
  /UnderlinePosition get Ts mul /To exch def
  /UnderlineThickness get Ts mul /Tt exch def
  ux uy To add cs 10 mul 26 idiv add moveto Tcx uy To add cs 10 mul 26 idiv add lineto
  Tt setlinewidth stroke
  grestore
} bd
/QT {
/Y22 exch store
/X22 exch store
/Y21 exch store
/X21 exch store
currentpoint
/Y21 load 2 mul add 3 div exch
/X21 load 2 mul add 3 div exch
/X21 load 2 mul /X22 load add 3 div
/Y21 load 2 mul /Y22 load add 3 div
/X22 load /Y22 load curveto
} bd
/SSPD {
dup length /d exch dict def
{
/v exch def
/k exch def
currentpagedevice k known {
/cpdv currentpagedevice k get def
v cpdv ne {
/upd false def
/nullv v type /nulltype eq def
/nullcpdv cpdv type /nulltype eq def
nullv nullcpdv or
{
/upd true def
} {
/sametype v type cpdv type eq def
sametype {
v type /arraytype eq {
/vlen v length def
/cpdvlen cpdv length def
vlen cpdvlen eq {
0 1 vlen 1 sub {
/i exch def
/obj v i get def
/cpdobj cpdv i get def
obj cpdobj ne {
/upd true def
exit
} if
} for
} {
/upd true def
} ifelse
} {
v type /dicttype eq {
v {
/dv exch def
/dk exch def
/cpddv cpdv dk get def
dv cpddv ne {
/upd true def
exit
} if
} forall
} {
/upd true def
} ifelse
} ifelse
} if
} ifelse
upd true eq {
d k v put
} if
} if
} if
} forall
d length 0 gt {
d setpagedevice
} if
} bd
%%EndResource
%%BeginResource: procset (Apache XML Graphics EPS ProcSet) 1.0 0
%%Version: 1.0 0
%%Copyright: (Copyright 2002-2003 The Apache Software Foundation. License terms: http://www.apache.org/licenses/LICENSE-2.0)
/BeginEPSF { %def
/b4_Inc_state save def         % Save state for cleanup
/dict_count countdictstack def % Count objects on dict stack
/op_count count 1 sub def      % Count objects on operand stack
userdict begin                 % Push userdict on dict stack
/showpage { } def              % Redefine showpage, { } = null proc
0 setgray 0 setlinecap         % Prepare graphics state
1 setlinewidth 0 setlinejoin
10 setmiterlimit [ ] 0 setdash newpath
/languagelevel where           % If level not equal to 1 then
{pop languagelevel             % set strokeadjust and
1 ne                           % overprint to their defaults.
{false setstrokeadjust false setoverprint
} if
} if
} bd
/EndEPSF { %def
count op_count sub {pop} repeat            % Clean up stacks
countdictstack dict_count sub {end} repeat
b4_Inc_state restore
} bd
%%EndResource
%%EndProlog
%%Page: 1 1
%%PageBoundingBox: 0 0 1000 350
%%BeginPageSetup
[1 0 0 -1 0 350] CT
%%EndPageSetup
GS
1 GC
N
0 0 1000 350 re
f
GR
GS
1 GC
N
0 0 1000 350 re
f
GR
GS
1 GC
N
130 289 M
905 289 L
905 26 L
130 26 L
cp
f
GR
GS
0.873 GC
1 LJ
0.5 LW
N
130 289 M
130 26 L
S
GR
GS
0.873 GC
1 LJ
0.5 LW
N
323.75 289 M
323.75 26 L
S
GR
GS
0.873 GC
1 LJ
0.5 LW
N
517.5 289 M
517.5 26 L
S
GR
GS
0.873 GC
1 LJ
0.5 LW
N
711.25 289 M
711.25 26 L
S
GR
GS
0.873 GC
1 LJ
0.5 LW
N
905 289 M
905 26 L
S
GR
GS
0.873 GC
1 LJ
0.5 LW
N
905 289 M
130 289 L
S
GR
GS
0.873 GC
1 LJ
0.5 LW
N
905 238.905 M
130 238.905 L
S
GR
GS
0.873 GC
1 LJ
0.5 LW
N
905 188.81 M
130 188.81 L
S
GR
GS
0.873 GC
1 LJ
0.5 LW
N
905 138.714 M
130 138.714 L
S
GR
GS
0.873 GC
1 LJ
0.5 LW
N
905 88.619 M
130 88.619 L
S
GR
GS
0.873 GC
1 LJ
0.5 LW
N
905 38.524 M
130 38.524 L
S
GR
GS
0.149 GC
2 setlinecap
1 LJ
0.5 LW
N
130 289 M
905 289 L
S
GR
GS
0.149 GC
2 setlinecap
1 LJ
0.5 LW
N
130 289 M
130 281.25 L
S
GR
GS
0.149 GC
2 setlinecap
1 LJ
0.5 LW
N
323.75 289 M
323.75 281.25 L
S
GR
GS
0.149 GC
2 setlinecap
1 LJ
0.5 LW
N
517.5 289 M
517.5 281.25 L
S
GR
GS
0.149 GC
2 setlinecap
1 LJ
0.5 LW
N
711.25 289 M
711.25 281.25 L
S
GR
GS
0.149 GC
2 setlinecap
1 LJ
0.5 LW
N
905 289 M
905 281.25 L
S
GR
GS
[1 0 0 1 130 295] CT
0.149 GC
N
-0.141 5.719 M
-1.672 5.719 -2.438 7.219 QT
-3.203 8.719 -3.203 11.719 QT
-3.203 14.719 -2.438 16.219 QT
-1.672 17.719 -0.141 17.719 QT
1.391 17.719 2.156 16.219 QT
2.922 14.719 2.922 11.719 QT
2.922 8.719 2.156 7.219 QT
1.391 5.719 -0.141 5.719 QT
cp
-0.141 4.156 M
2.313 4.156 3.602 6.094 QT
4.891 8.031 4.891 11.719 QT
4.891 15.406 3.602 17.344 QT
2.313 19.281 -0.141 19.281 QT
-2.594 19.281 -3.891 17.344 QT
-5.188 15.406 -5.188 11.719 QT
-5.188 8.031 -3.891 6.094 QT
-2.594 4.156 -0.141 4.156 QT
cp
f
GR
GS
[1 0 0 1 323.75 295] CT
0.149 GC
N
-9.641 5.719 M
-11.172 5.719 -11.938 7.219 QT
-12.703 8.719 -12.703 11.719 QT
-12.703 14.719 -11.938 16.219 QT
-11.172 17.719 -9.641 17.719 QT
-8.109 17.719 -7.344 16.219 QT
-6.578 14.719 -6.578 11.719 QT
-6.578 8.719 -7.344 7.219 QT
-8.109 5.719 -9.641 5.719 QT
cp
-9.641 4.156 M
-7.188 4.156 -5.898 6.094 QT
-4.609 8.031 -4.609 11.719 QT
-4.609 15.406 -5.898 17.344 QT
-7.188 19.281 -9.641 19.281 QT
-12.094 19.281 -13.391 17.344 QT
-14.688 15.406 -14.688 11.719 QT
-14.688 8.031 -13.391 6.094 QT
-12.094 4.156 -9.641 4.156 QT
cp
-1.135 16.516 M
0.928 16.516 L
0.928 19 L
-1.135 19 L
-1.135 16.516 L
cp
5.238 4.422 M
12.988 4.422 L
12.988 6.078 L
7.051 6.078 L
7.051 9.656 L
7.473 9.5 7.902 9.43 QT
8.332 9.359 8.77 9.359 QT
11.207 9.359 12.637 10.695 QT
14.066 12.031 14.066 14.328 QT
14.066 16.672 12.598 17.977 QT
11.129 19.281 8.457 19.281 QT
7.551 19.281 6.598 19.125 QT
5.645 18.969 4.629 18.656 QT
4.629 16.672 L
5.504 17.156 6.441 17.391 QT
7.379 17.625 8.426 17.625 QT
10.113 17.625 11.098 16.734 QT
12.082 15.844 12.082 14.328 QT
12.082 12.797 11.098 11.906 QT
10.113 11.016 8.426 11.016 QT
7.629 11.016 6.848 11.195 QT
6.066 11.375 5.238 11.75 QT
5.238 4.422 L
cp
f
GR
GS
[1 0 0 1 517.5 295] CT
0.149 GC
N
-4.016 17.344 M
-0.797 17.344 L
-0.797 6.219 L
-4.297 6.922 L
-4.297 5.125 L
-0.813 4.422 L
1.156 4.422 L
1.156 17.344 L
4.375 17.344 L
4.375 19 L
-4.016 19 L
-4.016 17.344 L
cp
f
GR
GS
[1 0 0 1 711.25 295] CT
0.149 GC
N
-13.516 17.344 M
-10.297 17.344 L
-10.297 6.219 L
-13.797 6.922 L
-13.797 5.125 L
-10.313 4.422 L
-8.344 4.422 L
-8.344 17.344 L
-5.125 17.344 L
-5.125 19 L
-13.516 19 L
-13.516 17.344 L
cp
-1.135 16.516 M
0.928 16.516 L
0.928 19 L
-1.135 19 L
-1.135 16.516 L
cp
5.238 4.422 M
12.988 4.422 L
12.988 6.078 L
7.051 6.078 L
7.051 9.656 L
7.473 9.5 7.902 9.43 QT
8.332 9.359 8.77 9.359 QT
11.207 9.359 12.637 10.695 QT
14.066 12.031 14.066 14.328 QT
14.066 16.672 12.598 17.977 QT
11.129 19.281 8.457 19.281 QT
7.551 19.281 6.598 19.125 QT
5.645 18.969 4.629 18.656 QT
4.629 16.672 L
5.504 17.156 6.441 17.391 QT
7.379 17.625 8.426 17.625 QT
10.113 17.625 11.098 16.734 QT
12.082 15.844 12.082 14.328 QT
12.082 12.797 11.098 11.906 QT
10.113 11.016 8.426 11.016 QT
7.629 11.016 6.848 11.195 QT
6.066 11.375 5.238 11.75 QT
5.238 4.422 L
cp
f
GR
GS
[1 0 0 1 905 295] CT
0.149 GC
N
-2.656 17.344 M
4.219 17.344 L
4.219 19 L
-5.031 19 L
-5.031 17.344 L
-3.906 16.172 -1.969 14.219 QT
-0.031 12.266 0.469 11.688 QT
1.406 10.625 1.781 9.891 QT
2.156 9.156 2.156 8.438 QT
2.156 7.281 1.344 6.547 QT
0.531 5.813 -0.781 5.813 QT
-1.703 5.813 -2.734 6.133 QT
-3.766 6.453 -4.938 7.109 QT
-4.938 5.125 L
-3.75 4.641 -2.711 4.398 QT
-1.672 4.156 -0.813 4.156 QT
1.453 4.156 2.797 5.289 QT
4.141 6.422 4.141 8.313 QT
4.141 9.219 3.805 10.023 QT
3.469 10.828 2.578 11.922 QT
2.344 12.203 1.031 13.555 QT
-0.281 14.906 -2.656 17.344 QT
cp
f
GR
GS
[1 0 0 1 517.50037 320] CT
0.149 GC
N
-14.25 9.328 M
-14.25 11.188 L
-15.094 10.766 -16 10.547 QT
-16.906 10.328 -17.859 10.328 QT
-19.344 10.328 -20.078 10.781 QT
-20.813 11.234 -20.813 12.141 QT
-20.813 12.828 -20.281 13.219 QT
-19.75 13.609 -18.172 13.969 QT
-17.484 14.109 L
-15.391 14.563 -14.5 15.383 QT
-13.609 16.203 -13.609 17.688 QT
-13.609 19.359 -14.938 20.336 QT
-16.266 21.313 -18.578 21.313 QT
-19.547 21.313 -20.594 21.125 QT
-21.641 20.938 -22.813 20.563 QT
-22.813 18.516 L
-21.719 19.094 -20.648 19.375 QT
-19.578 19.656 -18.547 19.656 QT
-17.141 19.656 -16.391 19.18 QT
-15.641 18.703 -15.641 17.828 QT
-15.641 17.031 -16.188 16.602 QT
-16.734 16.172 -18.563 15.766 QT
-19.25 15.609 L
-21.094 15.219 -21.906 14.422 QT
-22.719 13.625 -22.719 12.219 QT
-22.719 10.531 -21.516 9.602 QT
-20.313 8.672 -18.109 8.672 QT
-17 8.672 -16.039 8.836 QT
-15.078 9 -14.25 9.328 QT
cp
-8.507 5.547 M
-8.507 8.969 L
-4.444 8.969 L
-4.444 10.5 L
-8.507 10.5 L
-8.507 17.031 L
-8.507 18.5 -8.108 18.922 QT
-7.71 19.344 -6.476 19.344 QT
-4.444 19.344 L
-4.444 21 L
-6.476 21 L
-8.757 21 -9.624 20.148 QT
-10.491 19.297 -10.491 17.031 QT
-10.491 10.5 L
-11.944 10.5 L
-11.944 8.969 L
-10.491 8.969 L
-10.491 5.547 L
-8.507 5.547 L
cp
8.447 14.484 M
8.447 15.453 L
-0.631 15.453 L
-0.506 17.5 0.596 18.57 QT
1.697 19.641 3.666 19.641 QT
4.807 19.641 5.869 19.359 QT
6.932 19.078 7.994 18.516 QT
7.994 20.391 L
6.932 20.844 5.814 21.078 QT
4.697 21.313 3.541 21.313 QT
0.666 21.313 -1.014 19.633 QT
-2.693 17.953 -2.693 15.109 QT
-2.693 12.141 -1.1 10.406 QT
0.494 8.672 3.197 8.672 QT
5.635 8.672 7.041 10.234 QT
8.447 11.797 8.447 14.484 QT
cp
6.479 13.906 M
6.447 12.281 5.564 11.32 QT
4.682 10.359 3.229 10.359 QT
1.572 10.359 0.572 11.289 QT
-0.428 12.219 -0.568 13.922 QT
6.479 13.906 L
cp
13.607 19.188 M
13.607 25.578 L
11.623 25.578 L
11.623 8.969 L
13.607 8.969 L
13.607 10.797 L
14.232 9.719 15.186 9.195 QT
16.139 8.672 17.451 8.672 QT
19.639 8.672 21.014 10.414 QT
22.389 12.156 22.389 15 QT
22.389 17.828 21.014 19.57 QT
19.639 21.313 17.451 21.313 QT
16.139 21.313 15.186 20.789 QT
14.232 20.266 13.607 19.188 QT
cp
20.326 15 M
20.326 12.813 19.436 11.57 QT
18.545 10.328 16.967 10.328 QT
15.404 10.328 14.506 11.57 QT
13.607 12.813 13.607 15 QT
13.607 17.172 14.506 18.414 QT
15.404 19.656 16.967 19.656 QT
18.545 19.656 19.436 18.414 QT
20.326 17.172 20.326 15 QT
cp
f
GR
GS
[1 0 0 1 852 345] CT
0.149 GC
N
2.938 -0.578 M
2.938 -0.734 3.031 -0.859 QT
7.203 -5 L
3.031 -9.156 L
2.938 -9.266 2.938 -9.422 QT
2.938 -9.578 3.055 -9.703 QT
3.172 -9.828 3.344 -9.828 QT
3.484 -9.828 3.641 -9.703 QT
7.781 -5.563 L
11.906 -9.703 L
12.078 -9.828 12.203 -9.828 QT
12.359 -9.828 12.477 -9.711 QT
12.594 -9.594 12.594 -9.422 QT
12.594 -9.266 12.5 -9.156 QT
8.344 -5 L
12.5 -0.859 L
12.594 -0.734 12.594 -0.578 QT
12.594 -0.406 12.477 -0.289 QT
12.359 -0.172 12.203 -0.172 QT
12.047 -0.172 11.906 -0.328 QT
7.781 -4.438 L
3.641 -0.328 L
3.5 -0.172 3.344 -0.172 QT
3.172 -0.172 3.055 -0.305 QT
2.938 -0.438 2.938 -0.578 QT
cp
f
GR
GS
[1 0 0 1 868 345] CT
0.149 GC
N
2.484 -1.656 M
5.703 -1.656 L
5.703 -12.781 L
2.203 -12.078 L
2.203 -13.875 L
5.688 -14.578 L
7.656 -14.578 L
7.656 -1.656 L
10.875 -1.656 L
10.875 0 L
2.484 0 L
2.484 -1.656 L
cp
19.084 -13.281 M
17.553 -13.281 16.787 -11.781 QT
16.021 -10.281 16.021 -7.281 QT
16.021 -4.281 16.787 -2.781 QT
17.553 -1.281 19.084 -1.281 QT
20.615 -1.281 21.381 -2.781 QT
22.146 -4.281 22.146 -7.281 QT
22.146 -10.281 21.381 -11.781 QT
20.615 -13.281 19.084 -13.281 QT
cp
19.084 -14.844 M
21.537 -14.844 22.826 -12.906 QT
24.115 -10.969 24.115 -7.281 QT
24.115 -3.594 22.826 -1.656 QT
21.537 0.281 19.084 0.281 QT
16.631 0.281 15.334 -1.656 QT
14.037 -3.594 14.037 -7.281 QT
14.037 -10.969 15.334 -12.906 QT
16.631 -14.844 19.084 -14.844 QT
cp
f
GR
GS
[1 0 0 1 894 335] CT
0.149 GC
N
5.281 -6.469 M
4.219 -6.469 3.602 -5.742 QT
2.984 -5.016 2.984 -3.75 QT
2.984 -2.484 3.602 -1.758 QT
4.219 -1.031 5.281 -1.031 QT
6.344 -1.031 6.969 -1.758 QT
7.594 -2.484 7.594 -3.75 QT
7.594 -5.016 6.969 -5.742 QT
6.344 -6.469 5.281 -6.469 QT
cp
8.422 -11.406 M
8.422 -9.969 L
7.828 -10.25 7.219 -10.398 QT
6.609 -10.547 6.016 -10.547 QT
4.453 -10.547 3.633 -9.492 QT
2.813 -8.438 2.688 -6.313 QT
3.156 -6.984 3.852 -7.352 QT
4.547 -7.719 5.375 -7.719 QT
7.141 -7.719 8.156 -6.648 QT
9.172 -5.578 9.172 -3.75 QT
9.172 -1.953 8.109 -0.859 QT
7.047 0.234 5.281 0.234 QT
3.266 0.234 2.195 -1.32 QT
1.125 -2.875 1.125 -5.828 QT
1.125 -8.594 2.438 -10.234 QT
3.75 -11.875 5.953 -11.875 QT
6.547 -11.875 7.156 -11.758 QT
7.766 -11.641 8.422 -11.406 QT
cp
f
GR
GS
0.149 GC
2 setlinecap
1 LJ
0.5 LW
N
130 289 M
130 26 L
S
GR
GS
0.149 GC
2 setlinecap
1 LJ
0.5 LW
N
130 289 M
137.75 289 L
S
GR
GS
0.149 GC
2 setlinecap
1 LJ
0.5 LW
N
130 238.905 M
137.75 238.905 L
S
GR
GS
0.149 GC
2 setlinecap
1 LJ
0.5 LW
N
130 188.81 M
137.75 188.81 L
S
GR
GS
0.149 GC
2 setlinecap
1 LJ
0.5 LW
N
130 138.714 M
137.75 138.714 L
S
GR
GS
0.149 GC
2 setlinecap
1 LJ
0.5 LW
N
130 88.619 M
137.75 88.619 L
S
GR
GS
0.149 GC
2 setlinecap
1 LJ
0.5 LW
N
130 38.524 M
137.75 38.524 L
S
GR
GS
[1 0 0 1 124 289] CT
0.149 GC
N
-6.641 -6.281 M
-8.172 -6.281 -8.938 -4.781 QT
-9.703 -3.281 -9.703 -0.281 QT
-9.703 2.719 -8.938 4.219 QT
-8.172 5.719 -6.641 5.719 QT
-5.109 5.719 -4.344 4.219 QT
-3.578 2.719 -3.578 -0.281 QT
-3.578 -3.281 -4.344 -4.781 QT
-5.109 -6.281 -6.641 -6.281 QT
cp
-6.641 -7.844 M
-4.188 -7.844 -2.898 -5.906 QT
-1.609 -3.969 -1.609 -0.281 QT
-1.609 3.406 -2.898 5.344 QT
-4.188 7.281 -6.641 7.281 QT
-9.094 7.281 -10.391 5.344 QT
-11.688 3.406 -11.688 -0.281 QT
-11.688 -3.969 -10.391 -5.906 QT
-9.094 -7.844 -6.641 -7.844 QT
cp
f
GR
GS
[1 0 0 1 124 238.90475] CT
0.149 GC
N
-22.156 5.344 M
-15.281 5.344 L
-15.281 7 L
-24.531 7 L
-24.531 5.344 L
-23.406 4.172 -21.469 2.219 QT
-19.531 0.266 -19.031 -0.313 QT
-18.094 -1.375 -17.719 -2.109 QT
-17.344 -2.844 -17.344 -3.563 QT
-17.344 -4.719 -18.156 -5.453 QT
-18.969 -6.188 -20.281 -6.188 QT
-21.203 -6.188 -22.234 -5.867 QT
-23.266 -5.547 -24.438 -4.891 QT
-24.438 -6.875 L
-23.25 -7.359 -22.211 -7.602 QT
-21.172 -7.844 -20.313 -7.844 QT
-18.047 -7.844 -16.703 -6.711 QT
-15.359 -5.578 -15.359 -3.688 QT
-15.359 -2.781 -15.695 -1.977 QT
-16.031 -1.172 -16.922 -0.078 QT
-17.156 0.203 -18.469 1.555 QT
-19.781 2.906 -22.156 5.344 QT
cp
-6.916 -6.281 M
-8.447 -6.281 -9.213 -4.781 QT
-9.979 -3.281 -9.979 -0.281 QT
-9.979 2.719 -9.213 4.219 QT
-8.447 5.719 -6.916 5.719 QT
-5.385 5.719 -4.619 4.219 QT
-3.854 2.719 -3.854 -0.281 QT
-3.854 -3.281 -4.619 -4.781 QT
-5.385 -6.281 -6.916 -6.281 QT
cp
-6.916 -7.844 M
-4.463 -7.844 -3.174 -5.906 QT
-1.885 -3.969 -1.885 -0.281 QT
-1.885 3.406 -3.174 5.344 QT
-4.463 7.281 -6.916 7.281 QT
-9.369 7.281 -10.666 5.344 QT
-11.963 3.406 -11.963 -0.281 QT
-11.963 -3.969 -10.666 -5.906 QT
-9.369 -7.844 -6.916 -7.844 QT
cp
f
GR
GS
[1 0 0 1 124 188.80952] CT
0.149 GC
N
-18.438 -5.859 M
-23.422 1.922 L
-18.438 1.922 L
-18.438 -5.859 L
cp
-18.953 -7.578 M
-16.484 -7.578 L
-16.484 1.922 L
-14.391 1.922 L
-14.391 3.563 L
-16.484 3.563 L
-16.484 7 L
-18.438 7 L
-18.438 3.563 L
-25.016 3.563 L
-25.016 1.656 L
-18.953 -7.578 L
cp
-6.916 -6.281 M
-8.447 -6.281 -9.213 -4.781 QT
-9.979 -3.281 -9.979 -0.281 QT
-9.979 2.719 -9.213 4.219 QT
-8.447 5.719 -6.916 5.719 QT
-5.385 5.719 -4.619 4.219 QT
-3.854 2.719 -3.854 -0.281 QT
-3.854 -3.281 -4.619 -4.781 QT
-5.385 -6.281 -6.916 -6.281 QT
cp
-6.916 -7.844 M
-4.463 -7.844 -3.174 -5.906 QT
-1.885 -3.969 -1.885 -0.281 QT
-1.885 3.406 -3.174 5.344 QT
-4.463 7.281 -6.916 7.281 QT
-9.369 7.281 -10.666 5.344 QT
-11.963 3.406 -11.963 -0.281 QT
-11.963 -3.969 -10.666 -5.906 QT
-9.369 -7.844 -6.916 -7.844 QT
cp
f
GR
GS
[1 0 0 1 124 138.71428] CT
0.149 GC
N
-19.391 -1.078 M
-20.719 -1.078 -21.5 -0.172 QT
-22.281 0.734 -22.281 2.328 QT
-22.281 3.891 -21.5 4.805 QT
-20.719 5.719 -19.391 5.719 QT
-18.063 5.719 -17.289 4.805 QT
-16.516 3.891 -16.516 2.328 QT
-16.516 0.734 -17.289 -0.172 QT
-18.063 -1.078 -19.391 -1.078 QT
cp
-15.484 -7.266 M
-15.484 -5.469 L
-16.219 -5.813 -16.977 -6 QT
-17.734 -6.188 -18.484 -6.188 QT
-20.438 -6.188 -21.469 -4.867 QT
-22.5 -3.547 -22.641 -0.875 QT
-22.063 -1.734 -21.195 -2.188 QT
-20.328 -2.641 -19.281 -2.641 QT
-17.078 -2.641 -15.805 -1.305 QT
-14.531 0.031 -14.531 2.328 QT
-14.531 4.563 -15.859 5.922 QT
-17.188 7.281 -19.391 7.281 QT
-21.922 7.281 -23.266 5.344 QT
-24.609 3.406 -24.609 -0.281 QT
-24.609 -3.734 -22.969 -5.789 QT
-21.328 -7.844 -18.563 -7.844 QT
-17.813 -7.844 -17.055 -7.695 QT
-16.297 -7.547 -15.484 -7.266 QT
cp
-6.916 -6.281 M
-8.447 -6.281 -9.213 -4.781 QT
-9.979 -3.281 -9.979 -0.281 QT
-9.979 2.719 -9.213 4.219 QT
-8.447 5.719 -6.916 5.719 QT
-5.385 5.719 -4.619 4.219 QT
-3.854 2.719 -3.854 -0.281 QT
-3.854 -3.281 -4.619 -4.781 QT
-5.385 -6.281 -6.916 -6.281 QT
cp
-6.916 -7.844 M
-4.463 -7.844 -3.174 -5.906 QT
-1.885 -3.969 -1.885 -0.281 QT
-1.885 3.406 -3.174 5.344 QT
-4.463 7.281 -6.916 7.281 QT
-9.369 7.281 -10.666 5.344 QT
-11.963 3.406 -11.963 -0.281 QT
-11.963 -3.969 -10.666 -5.906 QT
-9.369 -7.844 -6.916 -7.844 QT
cp
f
GR
GS
[1 0 0 1 124 88.61905] CT
0.149 GC
N
-19.641 0.078 M
-21.047 0.078 -21.852 0.828 QT
-22.656 1.578 -22.656 2.891 QT
-22.656 4.219 -21.852 4.969 QT
-21.047 5.719 -19.641 5.719 QT
-18.234 5.719 -17.422 4.961 QT
-16.609 4.203 -16.609 2.891 QT
-16.609 1.578 -17.414 0.828 QT
-18.219 0.078 -19.641 0.078 QT
cp
-21.609 -0.766 M
-22.891 -1.078 -23.594 -1.945 QT
-24.297 -2.813 -24.297 -4.063 QT
-24.297 -5.813 -23.055 -6.828 QT
-21.813 -7.844 -19.641 -7.844 QT
-17.469 -7.844 -16.227 -6.828 QT
-14.984 -5.813 -14.984 -4.063 QT
-14.984 -2.813 -15.695 -1.945 QT
-16.406 -1.078 -17.656 -0.766 QT
-16.234 -0.438 -15.438 0.531 QT
-14.641 1.5 -14.641 2.891 QT
-14.641 5.016 -15.938 6.148 QT
-17.234 7.281 -19.641 7.281 QT
-22.047 7.281 -23.344 6.148 QT
-24.641 5.016 -24.641 2.891 QT
-24.641 1.5 -23.844 0.531 QT
-23.047 -0.438 -21.609 -0.766 QT
cp
-22.344 -3.875 M
-22.344 -2.75 -21.633 -2.117 QT
-20.922 -1.484 -19.641 -1.484 QT
-18.375 -1.484 -17.656 -2.117 QT
-16.938 -2.75 -16.938 -3.875 QT
-16.938 -5.016 -17.656 -5.648 QT
-18.375 -6.281 -19.641 -6.281 QT
-20.922 -6.281 -21.633 -5.648 QT
-22.344 -5.016 -22.344 -3.875 QT
cp
-6.916 -6.281 M
-8.447 -6.281 -9.213 -4.781 QT
-9.979 -3.281 -9.979 -0.281 QT
-9.979 2.719 -9.213 4.219 QT
-8.447 5.719 -6.916 5.719 QT
-5.385 5.719 -4.619 4.219 QT
-3.854 2.719 -3.854 -0.281 QT
-3.854 -3.281 -4.619 -4.781 QT
-5.385 -6.281 -6.916 -6.281 QT
cp
-6.916 -7.844 M
-4.463 -7.844 -3.174 -5.906 QT
-1.885 -3.969 -1.885 -0.281 QT
-1.885 3.406 -3.174 5.344 QT
-4.463 7.281 -6.916 7.281 QT
-9.369 7.281 -10.666 5.344 QT
-11.963 3.406 -11.963 -0.281 QT
-11.963 -3.969 -10.666 -5.906 QT
-9.369 -7.844 -6.916 -7.844 QT
cp
f
GR
GS
[1 0 0 1 124 38.52381] CT
0.149 GC
N
-36.516 5.344 M
-33.297 5.344 L
-33.297 -5.781 L
-36.797 -5.078 L
-36.797 -6.875 L
-33.313 -7.578 L
-31.344 -7.578 L
-31.344 5.344 L
-28.125 5.344 L
-28.125 7 L
-36.516 7 L
-36.516 5.344 L
cp
-19.916 -6.281 M
-21.447 -6.281 -22.213 -4.781 QT
-22.979 -3.281 -22.979 -0.281 QT
-22.979 2.719 -22.213 4.219 QT
-21.447 5.719 -19.916 5.719 QT
-18.385 5.719 -17.619 4.219 QT
-16.854 2.719 -16.854 -0.281 QT
-16.854 -3.281 -17.619 -4.781 QT
-18.385 -6.281 -19.916 -6.281 QT
cp
-19.916 -7.844 M
-17.463 -7.844 -16.174 -5.906 QT
-14.885 -3.969 -14.885 -0.281 QT
-14.885 3.406 -16.174 5.344 QT
-17.463 7.281 -19.916 7.281 QT
-22.369 7.281 -23.666 5.344 QT
-24.963 3.406 -24.963 -0.281 QT
-24.963 -3.969 -23.666 -5.906 QT
-22.369 -7.844 -19.916 -7.844 QT
cp
-7.191 -6.281 M
-8.723 -6.281 -9.488 -4.781 QT
-10.254 -3.281 -10.254 -0.281 QT
-10.254 2.719 -9.488 4.219 QT
-8.723 5.719 -7.191 5.719 QT
-5.66 5.719 -4.895 4.219 QT
-4.129 2.719 -4.129 -0.281 QT
-4.129 -3.281 -4.895 -4.781 QT
-5.66 -6.281 -7.191 -6.281 QT
cp
-7.191 -7.844 M
-4.738 -7.844 -3.449 -5.906 QT
-2.16 -3.969 -2.16 -0.281 QT
-2.16 3.406 -3.449 5.344 QT
-4.738 7.281 -7.191 7.281 QT
-9.645 7.281 -10.941 5.344 QT
-12.238 3.406 -12.238 -0.281 QT
-12.238 -3.969 -10.941 -5.906 QT
-9.645 -7.844 -7.191 -7.844 QT
cp
f
GR
GS
[0 -1 1 0 82 157.49988] CT
0.149 GC
N
-113.063 -22.031 M
-99.5 -22.031 L
-99.5 -20.219 L
-105.188 -20.219 L
-105.188 -6 L
-107.375 -6 L
-107.375 -20.219 L
-113.063 -20.219 L
-113.063 -22.031 L
cp
-92.015 -12.047 M
-94.421 -12.047 -95.343 -11.5 QT
-96.265 -10.953 -96.265 -9.625 QT
-96.265 -8.578 -95.569 -7.961 QT
-94.874 -7.344 -93.687 -7.344 QT
-92.046 -7.344 -91.054 -8.508 QT
-90.062 -9.672 -90.062 -11.609 QT
-90.062 -12.047 L
-92.015 -12.047 L
cp
-88.077 -12.859 M
-88.077 -6 L
-90.062 -6 L
-90.062 -7.828 L
-90.733 -6.734 -91.741 -6.211 QT
-92.749 -5.688 -94.218 -5.688 QT
-96.062 -5.688 -97.147 -6.727 QT
-98.233 -7.766 -98.233 -9.5 QT
-98.233 -11.531 -96.874 -12.563 QT
-95.515 -13.594 -92.827 -13.594 QT
-90.062 -13.594 L
-90.062 -13.781 L
-90.062 -15.156 -90.952 -15.898 QT
-91.843 -16.641 -93.468 -16.641 QT
-94.499 -16.641 -95.476 -16.398 QT
-96.452 -16.156 -97.358 -15.656 QT
-97.358 -17.484 L
-96.28 -17.906 -95.257 -18.117 QT
-94.233 -18.328 -93.265 -18.328 QT
-90.655 -18.328 -89.366 -16.969 QT
-88.077 -15.609 -88.077 -12.859 QT
cp
-77.033 -16.188 M
-77.361 -16.375 -77.76 -16.469 QT
-78.158 -16.563 -78.627 -16.563 QT
-80.299 -16.563 -81.197 -15.469 QT
-82.096 -14.375 -82.096 -12.344 QT
-82.096 -6 L
-84.08 -6 L
-84.08 -18.031 L
-82.096 -18.031 L
-82.096 -16.156 L
-81.471 -17.266 -80.471 -17.797 QT
-79.471 -18.328 -78.049 -18.328 QT
-77.846 -18.328 -77.596 -18.297 QT
-77.346 -18.266 -77.049 -18.219 QT
-77.033 -16.188 L
cp
-67.051 -12.156 M
-67.051 -14.297 -67.934 -15.484 QT
-68.816 -16.672 -70.41 -16.672 QT
-72.004 -16.672 -72.895 -15.484 QT
-73.785 -14.297 -73.785 -12.156 QT
-73.785 -10.016 -72.895 -8.836 QT
-72.004 -7.656 -70.41 -7.656 QT
-68.816 -7.656 -67.934 -8.836 QT
-67.051 -10.016 -67.051 -12.156 QT
cp
-65.066 -7.5 M
-65.066 -4.422 -66.434 -2.922 QT
-67.801 -1.422 -70.613 -1.422 QT
-71.66 -1.422 -72.582 -1.578 QT
-73.504 -1.734 -74.363 -2.063 QT
-74.363 -3.984 L
-73.504 -3.5 -72.652 -3.281 QT
-71.801 -3.063 -70.926 -3.063 QT
-68.973 -3.063 -68.012 -4.078 QT
-67.051 -5.094 -67.051 -7.141 QT
-67.051 -8.109 L
-67.66 -7.047 -68.613 -6.523 QT
-69.566 -6 -70.895 -6 QT
-73.113 -6 -74.465 -7.688 QT
-75.816 -9.375 -75.816 -12.156 QT
-75.816 -14.953 -74.465 -16.641 QT
-73.113 -18.328 -70.895 -18.328 QT
-69.566 -18.328 -68.613 -17.797 QT
-67.66 -17.266 -67.051 -16.203 QT
-67.051 -18.031 L
-65.066 -18.031 L
-65.066 -7.5 L
cp
-50.711 -12.516 M
-50.711 -11.547 L
-59.789 -11.547 L
-59.664 -9.5 -58.563 -8.43 QT
-57.461 -7.359 -55.492 -7.359 QT
-54.352 -7.359 -53.289 -7.641 QT
-52.227 -7.922 -51.164 -8.484 QT
-51.164 -6.609 L
-52.227 -6.156 -53.344 -5.922 QT
-54.461 -5.688 -55.617 -5.688 QT
-58.492 -5.688 -60.172 -7.367 QT
-61.852 -9.047 -61.852 -11.891 QT
-61.852 -14.859 -60.258 -16.594 QT
-58.664 -18.328 -55.961 -18.328 QT
-53.523 -18.328 -52.117 -16.766 QT
-50.711 -15.203 -50.711 -12.516 QT
cp
-52.68 -13.094 M
-52.711 -14.719 -53.594 -15.68 QT
-54.477 -16.641 -55.93 -16.641 QT
-57.586 -16.641 -58.586 -15.711 QT
-59.586 -14.781 -59.727 -13.078 QT
-52.68 -13.094 L
cp
-45.504 -21.453 M
-45.504 -18.031 L
-41.441 -18.031 L
-41.441 -16.5 L
-45.504 -16.5 L
-45.504 -9.969 L
-45.504 -8.5 -45.105 -8.078 QT
-44.707 -7.656 -43.473 -7.656 QT
-41.441 -7.656 L
-41.441 -6 L
-43.473 -6 L
-45.754 -6 -46.621 -6.852 QT
-47.488 -7.703 -47.488 -9.969 QT
-47.488 -16.5 L
-48.941 -16.5 L
-48.941 -18.031 L
-47.488 -18.031 L
-47.488 -21.453 L
-45.504 -21.453 L
cp
-31.159 -17.672 M
-31.159 -15.813 L
-32.003 -16.234 -32.909 -16.453 QT
-33.815 -16.672 -34.769 -16.672 QT
-36.253 -16.672 -36.987 -16.219 QT
-37.722 -15.766 -37.722 -14.859 QT
-37.722 -14.172 -37.19 -13.781 QT
-36.659 -13.391 -35.081 -13.031 QT
-34.394 -12.891 L
-32.3 -12.438 -31.409 -11.617 QT
-30.519 -10.797 -30.519 -9.313 QT
-30.519 -7.641 -31.847 -6.664 QT
-33.175 -5.688 -35.487 -5.688 QT
-36.456 -5.688 -37.503 -5.875 QT
-38.55 -6.063 -39.722 -6.438 QT
-39.722 -8.484 L
-38.628 -7.906 -37.558 -7.625 QT
-36.487 -7.344 -35.456 -7.344 QT
-34.05 -7.344 -33.3 -7.82 QT
-32.55 -8.297 -32.55 -9.172 QT
-32.55 -9.969 -33.097 -10.398 QT
-33.644 -10.828 -35.472 -11.234 QT
-36.159 -11.391 L
-38.003 -11.781 -38.815 -12.578 QT
-39.628 -13.375 -39.628 -14.781 QT
-39.628 -16.469 -38.425 -17.398 QT
-37.222 -18.328 -35.019 -18.328 QT
-33.909 -18.328 -32.948 -18.164 QT
-31.987 -18 -31.159 -17.672 QT
cp
-13.407 -16.188 M
-13.735 -16.375 -14.134 -16.469 QT
-14.532 -16.563 -15.001 -16.563 QT
-16.673 -16.563 -17.571 -15.469 QT
-18.47 -14.375 -18.47 -12.344 QT
-18.47 -6 L
-20.454 -6 L
-20.454 -18.031 L
-18.47 -18.031 L
-18.47 -16.156 L
-17.845 -17.266 -16.845 -17.797 QT
-15.845 -18.328 -14.423 -18.328 QT
-14.22 -18.328 -13.97 -18.297 QT
-13.72 -18.266 -13.423 -18.219 QT
-13.407 -16.188 L
cp
-1.05 -12.516 M
-1.05 -11.547 L
-10.128 -11.547 L
-10.003 -9.5 -8.901 -8.43 QT
-7.8 -7.359 -5.831 -7.359 QT
-4.69 -7.359 -3.628 -7.641 QT
-2.565 -7.922 -1.503 -8.484 QT
-1.503 -6.609 L
-2.565 -6.156 -3.683 -5.922 QT
-4.8 -5.688 -5.956 -5.688 QT
-8.831 -5.688 -10.511 -7.367 QT
-12.19 -9.047 -12.19 -11.891 QT
-12.19 -14.859 -10.597 -16.594 QT
-9.003 -18.328 -6.3 -18.328 QT
-3.862 -18.328 -2.456 -16.766 QT
-1.05 -15.203 -1.05 -12.516 QT
cp
-3.019 -13.094 M
-3.05 -14.719 -3.933 -15.68 QT
-4.815 -16.641 -6.269 -16.641 QT
-7.925 -16.641 -8.925 -15.711 QT
-9.925 -14.781 -10.065 -13.078 QT
-3.019 -13.094 L
cp
7.673 -12.047 M
5.267 -12.047 4.345 -11.5 QT
3.423 -10.953 3.423 -9.625 QT
3.423 -8.578 4.118 -7.961 QT
4.813 -7.344 6.001 -7.344 QT
7.642 -7.344 8.634 -8.508 QT
9.626 -9.672 9.626 -11.609 QT
9.626 -12.047 L
7.673 -12.047 L
cp
11.61 -12.859 M
11.61 -6 L
9.626 -6 L
9.626 -7.828 L
8.954 -6.734 7.946 -6.211 QT
6.938 -5.688 5.47 -5.688 QT
3.626 -5.688 2.54 -6.727 QT
1.454 -7.766 1.454 -9.5 QT
1.454 -11.531 2.813 -12.563 QT
4.173 -13.594 6.86 -13.594 QT
9.626 -13.594 L
9.626 -13.781 L
9.626 -15.156 8.735 -15.898 QT
7.845 -16.641 6.22 -16.641 QT
5.188 -16.641 4.212 -16.398 QT
3.235 -16.156 2.329 -15.656 QT
2.329 -17.484 L
3.407 -17.906 4.431 -18.117 QT
5.454 -18.328 6.423 -18.328 QT
9.032 -18.328 10.321 -16.969 QT
11.61 -15.609 11.61 -12.859 QT
cp
24.342 -17.563 M
24.342 -15.719 L
23.498 -16.188 22.654 -16.414 QT
21.811 -16.641 20.951 -16.641 QT
19.029 -16.641 17.967 -15.422 QT
16.904 -14.203 16.904 -12 QT
16.904 -9.797 17.967 -8.578 QT
19.029 -7.359 20.951 -7.359 QT
21.811 -7.359 22.654 -7.594 QT
23.498 -7.828 24.342 -8.281 QT
24.342 -6.469 L
23.514 -6.078 22.623 -5.883 QT
21.732 -5.688 20.748 -5.688 QT
18.029 -5.688 16.428 -7.398 QT
14.826 -9.109 14.826 -12 QT
14.826 -14.953 16.443 -16.641 QT
18.061 -18.328 20.873 -18.328 QT
21.779 -18.328 22.654 -18.141 QT
23.529 -17.953 24.342 -17.563 QT
cp
37.781 -13.266 M
37.781 -6 L
35.797 -6 L
35.797 -13.203 L
35.797 -14.906 35.133 -15.758 QT
34.469 -16.609 33.141 -16.609 QT
31.531 -16.609 30.609 -15.586 QT
29.688 -14.563 29.688 -12.797 QT
29.688 -6 L
27.703 -6 L
27.703 -22.719 L
29.688 -22.719 L
29.688 -16.156 L
30.391 -17.25 31.359 -17.789 QT
32.328 -18.328 33.578 -18.328 QT
35.656 -18.328 36.719 -17.039 QT
37.781 -15.75 37.781 -13.266 QT
cp
52.006 -12.516 M
52.006 -11.547 L
42.928 -11.547 L
43.053 -9.5 44.154 -8.43 QT
45.256 -7.359 47.225 -7.359 QT
48.365 -7.359 49.428 -7.641 QT
50.49 -7.922 51.553 -8.484 QT
51.553 -6.609 L
50.49 -6.156 49.373 -5.922 QT
48.256 -5.688 47.1 -5.688 QT
44.225 -5.688 42.545 -7.367 QT
40.865 -9.047 40.865 -11.891 QT
40.865 -14.859 42.459 -16.594 QT
44.053 -18.328 46.756 -18.328 QT
49.193 -18.328 50.6 -16.766 QT
52.006 -15.203 52.006 -12.516 QT
cp
50.037 -13.094 M
50.006 -14.719 49.123 -15.68 QT
48.24 -16.641 46.787 -16.641 QT
45.131 -16.641 44.131 -15.711 QT
43.131 -14.781 42.99 -13.078 QT
50.037 -13.094 L
cp
63.166 -16.203 M
63.166 -22.719 L
65.15 -22.719 L
65.15 -6 L
63.166 -6 L
63.166 -7.813 L
62.557 -6.734 61.604 -6.211 QT
60.65 -5.688 59.322 -5.688 QT
57.135 -5.688 55.768 -7.43 QT
54.4 -9.172 54.4 -12 QT
54.4 -14.844 55.768 -16.586 QT
57.135 -18.328 59.322 -18.328 QT
60.65 -18.328 61.604 -17.805 QT
62.557 -17.281 63.166 -16.203 QT
cp
56.432 -12 M
56.432 -9.828 57.33 -8.586 QT
58.229 -7.344 59.807 -7.344 QT
61.369 -7.344 62.268 -8.586 QT
63.166 -9.828 63.166 -12 QT
63.166 -14.188 62.268 -15.43 QT
61.369 -16.672 59.807 -16.672 QT
58.229 -16.672 57.33 -15.43 QT
56.432 -14.188 56.432 -12 QT
cp
76.03 -22.719 M
80.593 -22.719 L
80.593 -21.172 L
78.015 -21.172 L
78.015 -4.641 L
80.593 -4.641 L
80.593 -3.094 L
76.03 -3.094 L
76.03 -22.719 L
cp
98.723 -13.063 M
97.785 -13.063 97.254 -12.266 QT
96.723 -11.469 96.723 -10.047 QT
96.723 -8.656 97.254 -7.852 QT
97.785 -7.047 98.723 -7.047 QT
99.629 -7.047 100.16 -7.852 QT
100.691 -8.656 100.691 -10.047 QT
100.691 -11.453 100.16 -12.258 QT
99.629 -13.063 98.723 -13.063 QT
cp
98.723 -14.422 M
100.41 -14.422 101.41 -13.242 QT
102.41 -12.063 102.41 -10.047 QT
102.41 -8.047 101.41 -6.867 QT
100.41 -5.688 98.723 -5.688 QT
97.004 -5.688 96.004 -6.867 QT
95.004 -8.047 95.004 -10.047 QT
95.004 -12.063 96.004 -13.242 QT
97.004 -14.422 98.723 -14.422 QT
cp
87.629 -20.969 M
86.707 -20.969 86.176 -20.164 QT
85.645 -19.359 85.645 -17.969 QT
85.645 -16.547 86.168 -15.75 QT
86.691 -14.953 87.629 -14.953 QT
88.566 -14.953 89.098 -15.75 QT
89.629 -16.547 89.629 -17.969 QT
89.629 -19.359 89.09 -20.164 QT
88.551 -20.969 87.629 -20.969 QT
cp
97.332 -22.328 M
99.051 -22.328 L
89.02 -5.688 L
87.301 -5.688 L
97.332 -22.328 L
cp
87.629 -22.328 M
89.332 -22.328 90.34 -21.148 QT
91.348 -19.969 91.348 -17.969 QT
91.348 -15.938 90.348 -14.766 QT
89.348 -13.594 87.629 -13.594 QT
85.926 -13.594 84.934 -14.773 QT
83.941 -15.953 83.941 -17.969 QT
83.941 -19.969 84.941 -21.148 QT
85.941 -22.328 87.629 -22.328 QT
cp
110.314 -22.719 M
110.314 -3.094 L
105.768 -3.094 L
105.768 -4.641 L
108.33 -4.641 L
108.33 -21.172 L
105.768 -21.172 L
105.768 -22.719 L
110.314 -22.719 L
cp
f
GR
GS
0 0.447 0.741 RC
1 LJ
0.5 LW
N
169.525 222.206 M
169.913 205.508 L
170.3 196.719 L
170.688 238.905 L
171.075 191.593 L
171.462 255.603 L
171.85 226.381 L
172.238 191.593 L
172.625 210.726 L
173.012 200.597 L
173.4 195.071 L
173.788 181.653 L
174.175 271.109 L
174.563 257.69 L
174.95 185.863 L
175.337 210.726 L
175.725 242.036 L
176.113 205.508 L
176.5 183.536 L
176.887 242.036 L
177.275 185.863 L
177.663 253.218 L
178.05 191.593 L
178.438 238.905 L
178.825 185.863 L
179.212 210.726 L
179.6 185.863 L
179.988 238.905 L
180.375 188.81 L
180.762 235.327 L
181.15 191.593 L
181.538 235.327 L
181.925 209.902 L
182.313 230.064 L
182.7 238.905 L
183.087 226.381 L
183.475 205.508 L
183.863 210.726 L
184.25 226.381 L
184.637 242.036 L
185.025 200.597 L
185.413 253.218 L
185.8 238.905 L
186.188 141.661 L
186.575 188.81 L
186.962 255.603 L
187.35 210.726 L
187.738 191.593 L
188.125 196.719 L
188.512 185.863 L
188.9 185.863 L
189.288 200.597 L
189.675 242.036 L
190.063 238.905 L
190.45 242.036 L
190.837 230.064 L
191.225 222.206 L
191.613 210.726 L
192 169.726 L
192.387 157.17 L
192.775 185.863 L
193.163 170.353 L
193.55 242.036 L
193.938 271.109 L
194.325 210.726 L
194.712 242.036 L
195.1 222.206 L
195.488 257.69 L
195.875 205.508 L
196.262 226.381 L
196.65 183.536 L
197.038 253.218 L
197.425 215.331 L
197.813 289 L
198.2 289 L
198.587 238.905 L
198.975 191.593 L
199.363 271.109 L
199.75 255.603 L
200.137 255.603 L
200.525 200.597 L
200.913 271.109 L
201.3 177.677 L
201.688 219.423 L
202.075 185.863 L
202.462 188.81 L
202.85 272.302 L
203.238 269.733 L
203.625 242.036 L
204.012 222.206 L
204.4 271.109 L
204.788 201.333 L
205.175 210.726 L
205.563 215.331 L
205.95 269.733 L
206.337 242.036 L
206.725 205.508 L
207.113 269.733 L
207.5 196.719 L
207.887 205.508 L
208.275 196.719 L
208.663 169.726 L
209.05 255.603 L
209.438 219.423 L
209.825 215.331 L
210.212 222.206 L
210.6 205.508 L
210.988 222.206 L
211.375 253.218 L
211.762 215.331 L
212.15 210.726 L
212.538 177.677 L
212.925 205.508 L
213.313 255.603 L
213.7 205.508 L
214.087 244.798 L
214.475 255.603 L
214.863 238.905 L
215.25 210.726 L
215.637 242.036 L
216.025 242.036 L
216.413 210.726 L
216.8 230.064 L
217.188 210.726 L
217.575 191.593 L
217.962 195.071 L
218.35 238.905 L
218.738 191.593 L
219.125 255.603 L
219.512 255.603 L
219.9 226.381 L
220.288 195.071 L
220.675 238.905 L
221.063 255.603 L
221.45 196.719 L
221.837 215.331 L
222.225 255.603 L
222.613 215.331 L
223 253.218 L
223.387 210.726 L
223.775 253.218 L
224.163 255.603 L
224.55 253.218 L
224.938 215.331 L
225.325 226.381 L
225.712 215.331 L
226.1 205.508 L
226.488 196.719 L
226.875 196.719 L
227.262 253.218 L
227.65 271.109 L
228.038 242.036 L
228.425 191.593 L
228.813 205.508 L
229.2 205.508 L
229.587 191.593 L
229.975 226.381 L
230.363 226.381 L
230.75 183.536 L
231.137 215.331 L
231.525 226.381 L
231.913 217.435 L
232.3 271.109 L
232.688 269.733 L
233.075 230.064 L
233.462 222.206 L
233.85 238.905 L
234.238 222.206 L
234.625 163.762 L
235.012 271.109 L
235.4 219.423 L
235.788 253.218 L
236.175 242.036 L
236.563 205.508 L
236.95 272.302 L
237.337 191.593 L
237.725 226.381 L
238.113 210.726 L
238.5 238.905 L
238.887 215.331 L
239.275 226.381 L
239.663 226.381 L
240.05 238.905 L
240.438 289 L
240.825 238.905 L
241.212 210.726 L
241.6 163.762 L
241.988 238.905 L
242.375 272.302 L
242.762 191.593 L
243.15 226.381 L
243.538 255.603 L
243.925 222.206 L
244.313 219.423 L
244.7 235.327 L
245.087 238.905 L
245.475 242.036 L
245.863 195.071 L
246.25 269.733 L
246.637 255.603 L
247.025 215.331 L
247.413 219.423 L
247.8 255.603 L
248.188 226.381 L
248.575 235.327 L
248.962 242.036 L
249.35 205.508 L
249.738 226.381 L
250.125 226.381 L
250.512 242.036 L
250.9 222.206 L
251.288 191.593 L
251.675 271.109 L
252.063 191.593 L
252.45 272.302 L
252.837 210.726 L
253.225 226.381 L
253.613 242.036 L
254 191.593 L
254.387 210.726 L
254.775 191.593 L
255.163 244.798 L
255.55 253.218 L
255.938 215.331 L
256.325 200.597 L
256.712 215.331 L
257.1 219.423 L
257.487 200.597 L
257.875 200.597 L
258.263 271.109 L
258.65 255.603 L
259.038 253.218 L
259.425 289 L
259.813 289 L
260.2 271.109 L
260.587 255.603 L
260.975 215.331 L
261.362 222.206 L
261.75 235.327 L
262.138 230.064 L
262.525 242.036 L
262.913 210.726 L
263.3 196.719 L
263.688 215.331 L
264.075 289 L
264.462 205.508 L
264.85 238.905 L
265.237 242.036 L
265.625 289 L
266.013 215.331 L
266.4 271.109 L
266.788 289 L
267.175 255.603 L
267.563 215.331 L
267.95 205.508 L
268.337 271.109 L
268.725 226.381 L
269.112 230.064 L
269.5 238.905 L
269.888 196.719 L
270.275 253.218 L
270.663 238.905 L
271.05 200.597 L
271.438 272.302 L
271.825 222.206 L
272.212 215.331 L
272.6 169.726 L
272.987 170.353 L
273.375 242.036 L
273.763 238.905 L
274.15 238.905 L
274.538 222.206 L
274.925 238.905 L
275.313 226.381 L
275.7 255.603 L
276.087 226.381 L
276.475 255.603 L
276.862 222.206 L
277.25 238.905 L
277.638 255.603 L
278.025 255.603 L
278.413 183.536 L
278.8 210.726 L
279.188 255.603 L
279.575 253.218 L
279.962 200.597 L
280.35 219.423 L
280.737 205.508 L
281.125 219.423 L
281.513 238.905 L
281.9 253.218 L
282.288 271.109 L
282.675 253.218 L
283.063 242.036 L
283.45 271.109 L
283.837 238.905 L
284.225 272.302 L
284.612 289 L
285 242.036 L
285.388 253.218 L
285.775 226.381 L
286.163 200.597 L
286.55 255.603 L
286.938 238.905 L
287.325 257.69 L
287.712 222.206 L
288.1 215.331 L
288.487 242.036 L
288.875 226.381 L
289.263 253.218 L
289.65 242.036 L
290.038 242.036 L
290.425 235.327 L
290.813 238.905 L
291.2 215.331 L
291.587 238.905 L
291.975 289 L
292.362 242.036 L
292.75 253.218 L
293.138 230.064 L
293.525 289 L
293.913 255.603 L
294.3 238.905 L
294.688 271.109 L
295.075 238.905 L
295.462 253.218 L
295.85 242.036 L
296.237 271.109 L
296.625 226.381 L
297.013 195.071 L
297.4 210.726 L
297.788 255.603 L
298.175 255.603 L
298.563 226.381 L
298.95 255.603 L
299.337 255.603 L
299.725 255.603 L
300.112 210.726 L
300.5 255.603 L
300.888 255.603 L
301.275 289 L
301.663 238.905 L
302.05 230.064 L
302.438 200.597 L
302.825 230.064 L
303.212 242.036 L
303.6 238.905 L
303.987 242.036 L
304.375 271.109 L
304.763 242.036 L
305.15 226.381 L
305.538 238.905 L
305.925 226.381 L
306.313 253.218 L
306.7 238.905 L
307.087 255.603 L
307.475 222.206 L
307.862 253.218 L
308.25 238.905 L
308.638 242.036 L
309.025 200.597 L
309.413 289 L
309.8 226.381 L
310.188 255.603 L
310.575 230.064 L
310.962 255.603 L
311.35 238.905 L
311.737 255.603 L
312.125 215.331 L
312.513 222.206 L
312.9 226.381 L
313.288 181.653 L
313.675 255.603 L
314.063 253.218 L
314.45 271.109 L
314.837 289 L
315.225 226.381 L
315.612 226.381 L
316 222.206 L
316.388 230.064 L
316.775 253.218 L
317.163 215.331 L
317.55 205.508 L
317.938 188.81 L
318.325 215.331 L
318.712 191.593 L
319.1 255.603 L
319.487 255.603 L
319.875 253.218 L
320.263 230.064 L
320.65 215.331 L
321.038 226.381 L
321.425 238.905 L
321.813 242.036 L
322.2 242.036 L
322.587 230.064 L
322.975 289 L
323.362 238.905 L
323.75 205.508 L
324.138 271.109 L
324.525 219.423 L
324.913 242.036 L
325.3 255.603 L
325.688 188.81 L
326.075 209.902 L
326.462 209.902 L
326.85 238.905 L
327.237 215.331 L
327.625 196.719 L
328.013 205.508 L
328.4 205.508 L
328.788 271.109 L
329.175 215.331 L
329.563 271.109 L
329.95 230.064 L
330.337 230.064 L
330.725 242.036 L
331.112 181.653 L
331.5 242.036 L
331.888 238.905 L
332.275 215.331 L
332.663 196.719 L
333.05 191.593 L
333.438 238.905 L
333.825 244.798 L
334.212 169.726 L
334.6 201.333 L
334.987 200.597 L
335.375 170.353 L
335.763 255.603 L
336.15 255.603 L
336.538 226.381 L
336.925 230.064 L
337.313 230.064 L
337.7 253.218 L
338.087 242.036 L
338.475 205.508 L
338.862 289 L
339.25 230.064 L
339.638 226.381 L
340.025 193.581 L
340.413 230.064 L
340.8 238.905 L
341.188 255.603 L
341.575 215.331 L
341.962 272.302 L
342.35 205.508 L
342.737 230.064 L
343.125 226.381 L
343.513 215.331 L
343.9 244.798 L
344.288 196.719 L
344.675 271.109 L
345.063 242.036 L
345.45 196.719 L
345.837 175.147 L
346.225 238.905 L
346.612 210.726 L
347 271.109 L
347.388 242.036 L
347.775 200.597 L
348.163 238.905 L
348.55 215.331 L
348.938 219.423 L
349.325 289 L
349.712 226.381 L
350.1 219.423 L
350.487 215.331 L
350.875 242.036 L
351.263 230.064 L
351.65 230.064 L
352.038 242.036 L
352.425 230.064 L
352.813 175.147 L
353.2 226.381 L
353.587 201.333 L
353.975 210.726 L
354.362 209.902 L
354.75 205.508 L
355.138 209.902 L
355.525 242.036 L
355.913 188.81 L
356.3 242.036 L
356.688 242.036 L
357.075 219.423 L
357.462 219.423 L
357.85 242.036 L
358.237 226.381 L
358.625 201.333 L
359.013 244.798 L
359.4 230.064 L
359.788 226.381 L
360.175 255.603 L
360.563 215.331 L
360.95 289 L
361.337 289 L
361.725 289 L
362.112 238.905 L
362.5 177.677 L
362.888 255.603 L
363.275 255.603 L
363.663 209.902 L
364.05 230.064 L
364.438 219.423 L
364.825 255.603 L
365.212 210.726 L
365.6 186.532 L
365.987 215.331 L
366.375 148.733 L
366.763 215.331 L
367.15 183.536 L
367.538 219.423 L
367.925 230.064 L
368.313 175.147 L
368.7 169.726 L
369.087 201.333 L
369.475 255.603 L
369.862 188.81 L
370.25 255.603 L
370.638 175.147 L
371.025 219.423 L
371.413 230.064 L
371.8 188.81 L
372.188 230.064 L
372.575 242.036 L
372.962 188.81 L
373.35 205.508 L
373.737 253.218 L
374.125 244.798 L
374.513 163.762 L
374.9 158.317 L
375.288 219.423 L
375.675 196.719 L
376.063 215.331 L
376.45 238.905 L
376.837 209.902 L
377.225 238.905 L
377.612 205.508 L
378 201.333 L
378.388 210.726 L
378.775 222.206 L
379.163 181.653 L
379.55 169.207 L
379.938 205.508 L
380.325 209.902 L
380.712 193.581 L
381.1 181.653 L
381.487 205.508 L
381.875 219.423 L
382.263 242.036 L
382.65 205.508 L
383.038 181.653 L
383.425 205.508 L
383.813 209.902 L
384.2 222.206 L
384.587 269.733 L
384.975 209.902 L
385.362 183.536 L
385.75 196.719 L
386.138 200.597 L
386.525 209.902 L
386.913 215.331 L
387.3 226.381 L
387.688 242.036 L
388.075 181.653 L
388.462 196.719 L
388.85 196.719 L
389.237 215.331 L
389.625 209.902 L
390.013 175.147 L
390.4 230.064 L
390.788 226.381 L
391.175 238.905 L
391.563 188.81 L
391.95 242.036 L
392.337 242.036 L
392.725 169.726 L
393.112 183.536 L
393.5 174.198 L
393.888 200.597 L
394.275 209.902 L
394.663 215.331 L
395.05 176.286 L
395.438 196.719 L
395.825 193.581 L
396.212 188.81 L
396.6 230.064 L
396.987 226.381 L
397.375 205.508 L
397.763 205.508 L
398.15 196.719 L
398.538 205.508 L
398.925 176.286 L
399.313 209.902 L
399.7 175.147 L
400.087 215.331 L
400.475 196.719 L
400.862 188.81 L
401.25 242.036 L
401.638 188.81 L
402.025 215.331 L
402.413 215.331 L
402.8 205.508 L
403.188 222.206 L
403.575 181.653 L
403.962 215.331 L
404.35 169.207 L
404.737 177.677 L
405.125 158.752 L
405.513 219.423 L
405.9 209.902 L
406.288 201.333 L
406.675 215.331 L
407.063 226.381 L
407.45 222.206 L
407.837 271.109 L
408.225 181.653 L
408.612 196.719 L
409 215.331 L
409.388 226.381 L
409.775 255.603 L
410.163 215.331 L
410.55 175.147 L
410.938 205.508 L
411.325 188.81 L
411.712 255.603 L
412.1 158.317 L
412.487 215.331 L
412.875 196.719 L
413.263 205.508 L
413.65 181.653 L
414.038 219.423 L
414.425 183.536 L
414.813 230.064 L
415.2 176.286 L
415.587 271.109 L
415.975 238.905 L
416.362 158.752 L
416.75 205.508 L
417.138 219.423 L
417.525 111.579 L
417.913 238.905 L
418.3 169.207 L
418.688 209.902 L
419.075 255.603 L
419.462 152.377 L
419.85 196.719 L
420.237 205.508 L
420.625 205.508 L
421.013 215.331 L
421.4 238.905 L
421.788 169.207 L
422.175 242.036 L
422.563 196.719 L
422.95 191.593 L
423.337 219.423 L
423.725 215.331 L
424.112 196.719 L
424.5 196.719 L
424.888 201.333 L
425.275 169.726 L
425.663 219.423 L
426.05 226.381 L
426.438 230.064 L
426.825 215.331 L
427.212 191.593 L
427.6 183.536 L
427.987 226.381 L
428.375 196.719 L
428.763 209.902 L
429.15 226.381 L
429.538 226.381 L
429.925 205.508 L
430.313 200.597 L
430.7 215.331 L
431.087 181.653 L
431.475 215.331 L
431.862 181.653 L
432.25 238.905 L
432.638 215.331 L
433.025 177.677 L
433.413 205.508 L
433.8 200.597 L
434.188 196.719 L
434.575 215.331 L
434.962 210.726 L
435.35 205.508 L
435.737 138.714 L
436.125 148.733 L
436.513 176.286 L
436.9 209.902 L
437.288 183.536 L
437.675 215.331 L
438.063 191.593 L
438.45 186.532 L
438.837 205.508 L
439.225 188.81 L
439.612 226.381 L
440 226.381 L
440.388 205.508 L
440.775 169.207 L
441.163 205.508 L
441.55 188.81 L
441.938 191.593 L
442.325 169.207 L
442.712 215.331 L
443.1 176.286 L
443.487 215.331 L
443.875 215.331 L
444.263 255.603 L
444.65 163.762 L
445.038 215.331 L
445.425 238.905 L
445.813 238.905 L
446.2 183.536 L
446.587 170.353 L
446.975 181.653 L
447.362 238.905 L
447.75 196.719 L
448.138 201.333 L
448.525 183.536 L
448.913 169.726 L
449.3 201.333 L
449.688 188.81 L
450.075 175.147 L
450.462 158.317 L
450.85 215.331 L
451.237 242.036 L
451.625 205.508 L
452.013 205.508 L
452.4 183.536 L
452.788 238.905 L
453.175 209.902 L
453.563 219.423 L
453.95 191.593 L
454.337 226.381 L
454.725 209.902 L
455.112 183.536 L
455.5 242.036 L
455.888 181.653 L
456.275 201.333 L
456.663 253.218 L
457.05 230.064 L
457.438 219.423 L
457.825 226.381 L
458.212 209.902 L
458.6 188.81 L
458.987 191.593 L
459.375 242.036 L
459.763 242.036 L
460.15 242.036 L
460.538 186.532 L
460.925 242.036 L
461.313 181.653 L
461.7 255.603 L
462.087 215.331 L
462.475 163.762 L
462.862 191.593 L
463.25 215.331 L
463.638 215.331 L
464.025 215.331 L
464.413 183.536 L
464.8 181.653 L
465.188 188.81 L
465.575 205.508 L
465.962 255.603 L
466.35 163.762 L
466.737 226.381 L
467.125 209.902 L
467.513 226.381 L
467.9 157.798 L
468.288 196.719 L
468.675 205.508 L
469.063 209.902 L
469.45 215.331 L
469.837 205.508 L
470.225 205.508 L
470.612 230.064 L
471 188.81 L
471.388 205.508 L
471.775 238.905 L
472.163 242.036 L
472.55 196.719 L
472.938 193.581 L
473.325 191.593 L
473.712 188.81 L
474.1 158.317 L
474.487 193.581 L
474.875 177.677 L
475.263 200.597 L
475.65 163.762 L
476.038 193.581 L
476.425 169.726 L
476.813 169.207 L
477.2 196.719 L
477.587 169.726 L
477.975 157.798 L
478.362 226.381 L
478.75 196.719 L
479.138 242.036 L
479.525 242.036 L
479.913 153.325 L
480.3 272.302 L
480.688 255.603 L
481.075 226.381 L
481.462 188.81 L
481.85 215.331 L
482.237 181.653 L
482.625 226.381 L
483.013 181.653 L
483.4 219.423 L
483.788 176.286 L
484.175 242.036 L
484.563 219.423 L
484.95 196.719 L
485.337 242.036 L
485.725 181.653 L
486.112 196.719 L
486.5 201.333 L
486.888 200.597 L
487.275 209.902 L
487.663 191.593 L
488.05 201.333 L
488.438 253.218 L
488.825 193.581 L
489.212 186.532 L
489.6 255.603 L
489.987 201.333 L
490.375 183.536 L
490.763 183.536 L
491.15 158.317 L
491.538 215.331 L
491.925 238.905 L
492.313 196.719 L
492.7 205.508 L
493.087 219.423 L
493.475 271.109 L
493.862 215.331 L
494.25 215.331 L
494.638 181.653 L
495.025 169.726 L
495.413 219.423 L
495.8 215.331 L
496.188 158.317 L
496.575 230.064 L
496.962 230.064 L
497.35 169.726 L
497.737 158.317 L
498.125 181.653 L
498.513 230.064 L
498.9 210.726 L
499.288 226.381 L
499.675 242.036 L
500.063 209.902 L
500.45 205.508 L
500.837 289 L
501.225 242.036 L
501.612 219.423 L
502 157.798 L
502.388 215.331 L
502.775 181.653 L
503.163 215.331 L
503.55 191.593 L
503.938 230.064 L
504.325 181.653 L
504.712 163.762 L
505.1 188.81 L
505.487 219.423 L
505.875 191.593 L
506.263 188.81 L
506.65 188.81 L
507.038 215.331 L
507.425 271.109 L
507.813 205.508 L
508.2 226.381 L
508.587 181.653 L
508.975 230.064 L
509.362 230.064 L
509.75 215.331 L
510.138 183.536 L
510.525 242.036 L
510.913 242.036 L
511.3 230.064 L
511.688 175.147 L
512.075 196.719 L
512.463 169.207 L
512.85 200.597 L
513.237 230.064 L
513.625 201.333 L
514.013 255.603 L
514.4 242.036 L
514.787 222.206 L
515.175 219.423 L
515.563 226.381 L
515.95 209.902 L
516.338 209.902 L
516.725 238.905 L
517.112 176.286 L
517.5 215.331 L
517.888 186.532 L
518.275 205.508 L
518.662 196.719 L
519.05 205.508 L
519.438 226.381 L
519.825 196.719 L
520.213 272.302 L
520.6 201.333 L
520.987 255.603 L
521.375 183.536 L
521.763 181.653 L
522.15 196.719 L
522.537 163.762 L
522.925 169.726 L
523.313 176.286 L
523.7 181.653 L
524.088 215.331 L
524.475 163.762 L
524.862 163.762 L
525.25 242.036 L
525.638 181.653 L
526.025 188.81 L
526.412 255.603 L
526.8 196.719 L
527.188 201.333 L
527.575 238.905 L
527.963 169.207 L
528.35 183.536 L
528.737 196.719 L
529.125 242.036 L
529.513 151.238 L
529.9 183.536 L
530.287 169.726 L
530.675 205.508 L
531.063 219.423 L
531.45 205.508 L
531.838 188.81 L
532.225 242.036 L
532.612 181.653 L
533 169.207 L
533.388 176.286 L
533.775 205.508 L
534.162 186.532 L
534.55 269.733 L
534.938 226.381 L
535.325 219.423 L
535.713 226.381 L
536.1 242.036 L
536.487 148.733 L
536.875 169.726 L
537.263 188.81 L
537.65 188.81 L
538.037 183.536 L
538.425 230.064 L
538.813 205.508 L
539.2 215.331 L
539.588 186.532 L
539.975 215.331 L
540.362 255.603 L
540.75 175.147 L
541.138 205.508 L
541.525 226.381 L
541.912 196.719 L
542.3 193.581 L
542.688 196.719 L
543.075 157.798 L
543.463 209.902 L
543.85 183.536 L
544.237 176.286 L
544.625 188.81 L
545.013 242.036 L
545.4 230.064 L
545.787 201.333 L
546.175 219.423 L
546.563 205.508 L
546.95 181.653 L
547.338 142.889 L
547.725 209.902 L
548.112 163.762 L
548.5 205.508 L
548.888 242.036 L
549.275 269.733 L
549.662 219.423 L
550.05 188.81 L
550.438 181.653 L
550.825 205.508 L
551.213 215.331 L
551.6 196.719 L
551.987 188.81 L
552.375 242.036 L
552.763 200.597 L
553.15 154.128 L
553.537 157.17 L
553.925 169.726 L
554.313 175.147 L
554.7 201.333 L
555.088 222.206 L
555.475 205.508 L
555.862 132.452 L
556.25 175.147 L
556.638 215.331 L
557.025 242.036 L
557.412 183.536 L
557.8 196.719 L
558.188 196.719 L
558.575 196.719 L
558.963 209.902 L
559.35 215.331 L
559.737 191.593 L
560.125 201.333 L
560.513 183.536 L
560.9 176.286 L
561.287 201.333 L
561.675 181.653 L
562.063 230.064 L
562.45 230.064 L
562.838 219.423 L
563.225 235.327 L
563.612 200.597 L
564 205.508 L
564.388 193.581 L
564.775 170.353 L
565.162 175.147 L
565.55 163.762 L
565.938 158.752 L
566.325 186.532 L
566.713 226.381 L
567.1 209.902 L
567.487 201.333 L
567.875 181.653 L
568.263 219.423 L
568.65 230.064 L
569.037 176.286 L
569.425 238.905 L
569.813 174.198 L
570.2 226.381 L
570.588 219.423 L
570.975 242.036 L
571.362 242.036 L
571.75 215.331 L
572.138 181.653 L
572.525 215.331 L
572.912 230.064 L
573.3 188.81 L
573.688 230.064 L
574.075 215.331 L
574.463 177.677 L
574.85 193.581 L
575.237 200.597 L
575.625 230.064 L
576.013 205.508 L
576.4 226.381 L
576.787 144.495 L
577.175 193.581 L
577.563 163.762 L
577.95 226.381 L
578.338 242.036 L
578.725 205.508 L
579.112 209.902 L
579.5 196.719 L
579.888 149.847 L
580.275 242.036 L
580.662 191.593 L
581.05 188.81 L
581.438 219.423 L
581.825 209.902 L
582.213 209.902 L
582.6 209.902 L
582.987 215.331 L
583.375 205.508 L
583.763 209.902 L
584.15 219.423 L
584.537 196.719 L
584.925 215.331 L
585.313 242.036 L
585.7 242.036 L
586.088 196.719 L
586.475 242.036 L
586.862 242.036 L
587.25 180.097 L
587.638 188.81 L
588.025 193.581 L
588.412 188.81 L
588.8 272.302 L
589.188 191.593 L
589.575 186.532 L
589.963 269.733 L
590.35 215.331 L
590.737 257.69 L
591.125 230.064 L
591.513 226.381 L
591.9 188.81 L
592.287 226.381 L
592.675 255.603 L
593.063 219.423 L
593.45 157.798 L
593.838 158.317 L
594.225 201.333 L
594.612 242.036 L
595 205.508 L
595.388 215.331 L
595.775 148.733 L
596.162 230.064 L
596.55 186.532 L
596.938 215.331 L
597.325 186.532 L
597.713 196.719 L
598.1 196.719 L
598.487 181.653 L
598.875 188.81 L
599.263 205.508 L
599.65 219.423 L
600.037 181.653 L
600.425 209.902 L
600.813 148.733 L
601.2 180.097 L
601.588 169.726 L
601.975 183.536 L
602.362 209.902 L
602.75 238.905 L
603.138 163.762 L
603.525 196.719 L
603.912 163.762 L
604.3 255.603 L
604.688 215.331 L
605.075 289 L
605.463 193.581 L
605.85 188.81 L
606.237 255.603 L
606.625 219.423 L
607.013 255.603 L
607.4 201.333 L
607.787 188.81 L
608.175 219.423 L
608.563 219.423 L
608.95 238.905 L
609.338 170.353 L
609.725 186.532 L
610.112 181.653 L
610.5 188.81 L
610.888 222.206 L
611.275 255.603 L
611.662 183.536 L
612.05 209.902 L
612.438 215.331 L
612.825 209.902 L
613.213 188.81 L
613.6 219.423 L
613.987 183.536 L
614.375 196.719 L
614.763 205.508 L
615.15 226.381 L
615.537 148.733 L
615.925 219.423 L
616.313 255.603 L
616.7 180.097 L
617.088 181.653 L
617.475 193.581 L
617.862 255.603 L
618.25 209.902 L
618.638 205.508 L
619.025 169.726 L
619.412 230.064 L
619.8 191.593 L
620.188 175.147 L
620.575 209.902 L
620.963 230.064 L
621.35 200.597 L
621.737 219.423 L
622.125 175.147 L
622.513 210.726 L
622.9 209.902 L
623.287 158.752 L
623.675 205.508 L
624.063 196.719 L
624.45 169.726 L
624.838 215.331 L
625.225 242.036 L
625.612 210.726 L
626 215.331 L
626.388 219.423 L
626.775 230.064 L
627.162 230.064 L
627.55 200.597 L
627.938 230.064 L
628.325 169.726 L
628.713 219.423 L
629.1 196.719 L
629.487 193.581 L
629.875 163.762 L
630.263 188.81 L
630.65 205.508 L
631.037 188.81 L
631.425 196.719 L
631.813 188.81 L
632.2 169.726 L
632.588 215.331 L
632.975 193.581 L
633.362 163.762 L
633.75 205.508 L
634.138 163.762 L
634.525 196.719 L
634.912 272.302 L
635.3 219.423 L
635.688 183.536 L
636.075 209.902 L
636.463 222.206 L
636.85 128.695 L
637.237 196.719 L
637.625 219.423 L
638.013 200.597 L
638.4 219.423 L
638.787 188.81 L
639.175 148.733 L
639.563 210.726 L
639.95 242.036 L
640.338 257.69 L
640.725 215.331 L
641.112 183.536 L
641.5 219.423 L
641.888 209.902 L
642.275 169.726 L
642.662 177.677 L
643.05 242.036 L
643.438 186.532 L
643.825 196.719 L
644.213 271.109 L
644.6 209.902 L
644.987 183.536 L
645.375 181.653 L
645.763 148.733 L
646.15 175.147 L
646.537 201.333 L
646.925 196.719 L
647.313 188.81 L
647.7 196.719 L
648.088 193.581 L
648.475 196.719 L
648.862 233.339 L
649.25 163.762 L
649.638 255.603 L
650.025 140.57 L
650.412 230.064 L
650.8 191.593 L
651.188 219.423 L
651.575 215.331 L
651.963 133.532 L
652.35 181.653 L
652.737 181.653 L
653.125 176.286 L
653.513 188.81 L
653.9 153.325 L
654.287 176.286 L
654.675 163.762 L
655.063 219.423 L
655.45 271.109 L
655.838 242.036 L
656.225 201.333 L
656.612 200.597 L
657 230.064 L
657.388 226.381 L
657.775 193.581 L
658.162 183.536 L
658.55 215.331 L
658.938 193.581 L
659.325 188.81 L
659.713 196.719 L
660.1 196.719 L
660.487 209.902 L
660.875 215.331 L
661.263 205.508 L
661.65 219.423 L
662.037 175.147 L
662.425 209.902 L
662.813 205.508 L
663.2 153.325 L
663.588 219.423 L
663.975 205.508 L
664.362 148.733 L
664.75 188.81 L
665.138 153.325 L
665.525 196.719 L
665.912 181.653 L
666.3 188.81 L
666.688 209.902 L
667.075 230.064 L
667.463 205.508 L
667.85 153.325 L
668.237 255.603 L
668.625 181.653 L
669.013 154.128 L
669.4 138.714 L
669.787 169.207 L
670.175 242.036 L
670.563 230.064 L
670.95 144.495 L
671.338 188.81 L
671.725 176.286 L
672.112 196.719 L
672.5 188.81 L
672.888 205.508 L
673.275 255.603 L
673.662 222.206 L
674.05 140.57 L
674.438 219.423 L
674.825 226.381 L
675.213 174.198 L
675.6 209.902 L
675.987 188.81 L
676.375 215.331 L
676.763 193.581 L
677.15 153.325 L
677.537 181.653 L
677.925 186.532 L
678.313 152.377 L
678.7 153.325 L
679.088 244.798 L
679.475 142.889 L
679.862 174.198 L
680.25 181.653 L
680.638 183.536 L
681.025 188.81 L
681.412 181.653 L
681.8 205.508 L
682.188 205.508 L
682.575 209.902 L
682.963 158.752 L
683.35 163.762 L
683.737 175.147 L
684.125 205.508 L
684.513 255.603 L
684.9 205.508 L
685.287 230.064 L
685.675 191.593 L
686.063 244.798 L
686.45 205.508 L
686.838 148.733 L
687.225 201.333 L
687.612 255.603 L
688 219.423 L
688.388 191.593 L
688.775 196.719 L
689.162 215.331 L
689.55 215.331 L
689.938 201.333 L
690.325 196.719 L
690.713 148.733 L
691.1 181.653 L
691.487 148.733 L
691.875 209.902 L
692.263 183.536 L
692.65 205.508 L
693.037 168.771 L
693.425 201.333 L
693.813 175.147 L
694.2 205.508 L
694.588 215.331 L
694.975 213.857 L
695.362 169.207 L
695.75 255.603 L
696.138 127.402 L
696.525 148.733 L
696.912 163.762 L
697.3 226.381 L
697.688 193.581 L
698.075 188.81 L
698.463 175.147 L
698.85 181.653 L
699.237 242.036 L
699.625 219.423 L
700.013 255.603 L
700.4 255.603 L
700.787 191.593 L
701.175 226.381 L
701.563 209.902 L
701.95 242.036 L
702.338 230.064 L
702.725 209.902 L
703.112 163.762 L
703.5 219.423 L
703.888 152.377 L
704.275 181.653 L
704.662 163.762 L
705.05 219.423 L
705.438 205.508 L
705.825 205.508 L
706.213 163.762 L
706.6 181.653 L
706.987 226.381 L
707.375 201.333 L
707.763 219.423 L
708.15 163.762 L
708.537 238.905 L
708.925 153.325 L
709.313 188.81 L
709.7 209.902 L
710.088 205.508 L
710.475 163.762 L
710.862 175.147 L
711.25 209.902 L
711.638 230.064 L
712.025 219.423 L
712.412 226.381 L
712.8 230.064 L
713.188 175.147 L
713.575 193.581 L
713.963 230.064 L
714.35 230.064 L
714.737 205.508 L
715.125 169.726 L
715.513 191.593 L
715.9 181.653 L
716.287 193.581 L
716.675 174.198 L
717.063 169.207 L
717.45 196.719 L
717.838 157.798 L
718.225 271.109 L
718.612 200.597 L
719 242.036 L
719.388 219.423 L
719.775 158.317 L
720.162 186.532 L
720.55 191.593 L
720.938 181.653 L
721.325 230.064 L
721.713 188.81 L
722.1 196.719 L
722.487 215.331 L
722.875 201.333 L
723.263 219.423 L
723.65 174.198 L
724.037 215.331 L
724.425 205.508 L
724.813 205.508 L
725.2 226.381 L
725.588 205.508 L
725.975 181.653 L
726.362 219.423 L
726.75 183.536 L
727.138 186.532 L
727.525 176.286 L
727.912 188.81 L
728.3 219.423 L
728.688 196.719 L
729.075 209.902 L
729.463 138.714 L
729.85 181.653 L
730.237 209.902 L
730.625 163.762 L
731.013 196.719 L
731.4 205.508 L
731.787 219.423 L
732.175 180.097 L
732.563 181.653 L
732.95 193.581 L
733.338 238.905 L
733.725 148.733 L
734.112 226.381 L
734.5 159.123 L
734.888 158.317 L
735.275 230.064 L
735.662 215.331 L
736.05 181.653 L
736.438 169.207 L
736.825 163.762 L
737.213 196.719 L
737.6 149.847 L
737.987 163.762 L
738.375 196.719 L
738.763 230.064 L
739.15 215.331 L
739.537 175.147 L
739.925 209.902 L
740.313 169.207 L
740.7 170.353 L
741.088 230.064 L
741.475 238.905 L
741.862 193.581 L
742.25 205.508 L
742.638 205.508 L
743.025 230.064 L
743.412 242.036 L
743.8 186.532 L
744.188 230.064 L
744.575 215.331 L
744.963 175.147 L
745.35 188.81 L
745.737 209.902 L
746.125 226.381 L
746.513 163.762 L
746.9 191.593 L
747.287 215.331 L
747.675 205.508 L
748.063 230.064 L
748.45 188.81 L
748.838 196.719 L
749.225 163.762 L
749.612 215.331 L
750 175.147 L
750.388 163.762 L
750.775 219.423 L
751.162 230.064 L
751.55 230.064 L
751.938 226.381 L
752.325 201.333 L
752.713 215.331 L
753.1 230.064 L
753.487 201.333 L
753.875 238.905 L
754.263 226.381 L
754.65 153.325 L
755.037 226.381 L
755.425 230.064 L
755.813 205.508 L
756.2 210.726 L
756.588 209.902 L
756.975 209.902 L
757.362 209.902 L
757.75 188.81 L
758.138 169.207 L
758.525 219.423 L
758.912 215.331 L
759.3 181.653 L
759.688 209.902 L
760.075 201.333 L
760.463 176.286 L
760.85 205.508 L
761.237 219.423 L
761.625 238.905 L
762.013 181.653 L
762.4 230.064 L
762.787 158.752 L
763.175 226.381 L
763.563 205.508 L
763.95 215.331 L
764.338 226.381 L
764.725 186.532 L
765.112 181.653 L
765.5 193.581 L
765.888 242.036 L
766.275 196.719 L
766.662 186.532 L
767.05 188.81 L
767.438 188.81 L
767.825 205.508 L
768.213 219.423 L
768.6 219.423 L
768.987 205.508 L
769.375 219.423 L
769.763 163.762 L
770.15 230.064 L
770.537 255.603 L
770.925 255.603 L
771.313 230.064 L
771.7 201.333 L
772.088 210.726 L
772.475 186.532 L
772.862 191.593 L
773.25 188.81 L
773.638 226.381 L
774.025 230.064 L
774.412 175.147 L
774.8 226.381 L
775.188 186.532 L
775.575 196.719 L
775.963 163.762 L
776.35 176.286 L
776.737 201.333 L
777.125 230.064 L
777.513 219.423 L
777.9 181.653 L
778.287 226.381 L
778.675 181.653 L
779.063 181.653 L
779.45 209.902 L
779.838 219.423 L
780.225 230.064 L
780.612 163.762 L
781 188.81 L
781.388 163.762 L
781.775 200.597 L
782.162 148.733 L
782.55 201.333 L
782.938 230.064 L
783.325 253.218 L
783.713 140.57 L
784.1 238.905 L
784.487 272.302 L
784.875 175.147 L
785.263 205.508 L
785.65 255.603 L
786.037 209.902 L
786.425 219.423 L
786.813 226.381 L
787.2 201.333 L
787.588 176.286 L
787.975 158.317 L
788.362 196.719 L
788.75 196.719 L
789.138 201.333 L
789.525 200.597 L
789.912 169.726 L
790.3 142.169 L
790.688 196.719 L
791.075 209.902 L
791.463 201.333 L
791.85 169.726 L
792.237 235.327 L
792.625 188.81 L
793.013 133.532 L
793.4 255.603 L
793.787 238.905 L
794.175 230.064 L
794.563 219.423 L
794.95 188.81 L
795.338 169.726 L
795.725 191.593 L
796.112 196.719 L
796.5 226.381 L
796.888 191.593 L
797.275 215.331 L
797.662 205.508 L
798.05 230.064 L
798.438 219.423 L
798.825 230.064 L
799.213 215.331 L
799.6 242.036 L
799.987 153.325 L
800.375 289 L
800.763 163.762 L
801.15 188.81 L
801.537 209.902 L
801.925 188.81 L
802.313 230.064 L
802.7 188.81 L
803.088 191.593 L
803.475 163.762 L
803.862 196.719 L
804.25 158.317 L
804.638 188.81 L
805.025 200.597 L
805.412 209.902 L
805.8 163.762 L
806.188 242.036 L
806.575 193.581 L
806.963 205.508 L
807.35 230.064 L
807.737 175.147 L
808.125 138.714 L
808.513 181.653 L
808.9 219.423 L
809.287 242.036 L
809.675 253.218 L
810.063 193.581 L
810.45 210.726 L
810.838 201.333 L
811.225 176.286 L
811.612 186.532 L
812 169.726 L
812.388 175.147 L
812.775 188.81 L
813.162 169.207 L
813.55 158.752 L
813.938 183.536 L
814.325 181.653 L
814.713 219.423 L
815.1 169.207 L
815.487 205.508 L
815.875 201.333 L
816.263 169.726 L
816.65 219.423 L
817.037 188.81 L
817.425 226.381 L
817.813 200.597 L
818.2 209.902 L
818.588 215.331 L
818.975 169.207 L
819.362 157.798 L
819.75 181.653 L
820.138 215.331 L
820.525 181.653 L
820.912 219.423 L
821.3 209.902 L
821.688 205.508 L
822.075 183.536 L
822.463 188.81 L
822.85 257.69 L
823.237 215.331 L
823.625 230.064 L
824.013 215.331 L
824.4 186.532 L
824.787 181.653 L
825.175 209.902 L
825.563 196.719 L
825.95 210.726 L
826.338 226.381 L
826.725 219.423 L
827.112 230.064 L
827.5 188.81 L
827.888 181.653 L
828.275 191.593 L
828.662 188.81 L
829.05 215.331 L
829.438 230.064 L
829.825 242.036 L
830.213 196.719 L
830.6 205.508 L
830.987 209.902 L
831.375 210.726 L
831.763 163.762 L
832.15 196.719 L
832.537 163.762 L
832.925 188.81 L
833.313 181.653 L
833.7 188.81 L
834.088 163.762 L
834.475 215.331 L
834.862 196.719 L
835.25 205.508 L
835.638 226.381 L
836.025 188.81 L
836.412 205.508 L
836.8 242.036 L
837.188 175.147 L
837.575 215.331 L
837.963 158.752 L
838.35 226.381 L
838.737 188.81 L
839.125 193.581 L
839.513 188.81 L
839.9 169.207 L
840.287 169.207 L
840.675 196.719 L
841.063 201.333 L
841.45 188.81 L
841.838 205.508 L
842.225 226.381 L
842.612 255.603 L
843 215.331 L
843.388 201.333 L
843.775 176.286 L
844.162 181.653 L
844.55 242.036 L
844.938 188.81 L
845.325 215.331 L
845.713 180.097 L
846.1 238.905 L
846.487 140.57 L
846.875 201.333 L
847.263 230.064 L
847.65 196.719 L
848.037 219.423 L
848.425 255.603 L
848.813 169.207 L
849.2 255.603 L
849.588 196.719 L
849.975 188.81 L
850.362 209.902 L
850.75 209.902 L
851.138 226.381 L
851.525 176.286 L
851.912 145.871 L
852.3 181.653 L
852.688 152.377 L
853.075 271.109 L
853.463 205.508 L
853.85 219.423 L
854.237 201.333 L
854.625 230.064 L
855.013 183.536 L
855.4 200.597 L
855.787 219.423 L
856.175 193.581 L
856.563 230.064 L
856.95 244.798 L
857.338 230.064 L
857.725 215.331 L
858.112 215.331 L
858.5 196.719 L
858.888 215.331 L
859.275 242.036 L
859.662 201.333 L
860.05 201.333 L
860.438 196.719 L
860.825 205.508 L
861.213 230.064 L
861.6 175.147 L
861.987 209.902 L
862.375 205.508 L
862.763 215.331 L
863.15 230.064 L
863.537 205.508 L
863.925 188.81 L
864.313 233.339 L
864.7 238.905 L
865.088 209.902 L
865.475 201.333 L
865.862 188.81 L
866.25 188.81 L
866.638 163.762 L
867.025 205.508 L
867.412 271.109 L
867.8 181.653 L
868.188 186.532 L
868.575 169.207 L
868.963 181.653 L
869.35 230.064 L
869.737 215.331 L
870.125 242.036 L
870.513 226.381 L
870.9 205.508 L
871.287 242.036 L
871.675 235.327 L
872.063 219.423 L
872.45 205.508 L
872.838 244.798 L
873.225 169.726 L
873.612 205.508 L
874 205.508 L
874.388 201.333 L
874.775 255.603 L
875.162 176.286 L
875.55 242.036 L
875.938 219.423 L
876.325 175.147 L
876.713 201.333 L
877.1 175.147 L
877.487 209.902 L
877.875 200.597 L
878.263 148.733 L
878.65 196.719 L
879.037 196.719 L
879.425 158.317 L
879.813 183.536 L
880.2 188.81 L
880.588 180.097 L
880.975 196.719 L
881.362 242.036 L
881.75 219.423 L
882.138 226.381 L
882.525 215.331 L
882.912 201.333 L
883.3 230.064 L
883.688 230.064 L
884.075 157.798 L
884.463 186.532 L
884.85 271.109 L
885.237 169.207 L
885.625 201.333 L
886.013 230.064 L
886.4 238.905 L
886.787 205.508 L
887.175 176.286 L
887.563 255.603 L
887.95 219.423 L
888.338 219.423 L
888.725 175.147 L
889.112 230.064 L
889.5 215.331 L
889.888 193.581 L
890.275 175.147 L
890.662 176.286 L
891.05 169.726 L
891.438 163.762 L
891.825 242.036 L
892.213 193.581 L
892.6 219.423 L
892.987 215.331 L
893.375 158.752 L
893.763 188.81 L
894.15 209.902 L
894.537 226.381 L
894.925 255.603 L
895.313 176.286 L
895.7 201.333 L
896.088 215.331 L
896.475 193.581 L
896.862 205.508 L
897.25 215.331 L
897.638 196.719 L
898.025 180.097 L
898.412 226.381 L
898.8 230.064 L
899.188 205.508 L
899.575 219.423 L
899.963 181.653 L
900.35 205.508 L
900.737 219.423 L
901.125 230.064 L
901.513 169.726 L
901.9 169.726 L
902.287 193.581 L
902.675 215.331 L
903.063 196.719 L
903.45 238.905 L
903.838 201.333 L
904.225 188.81 L
904.612 169.726 L
905 196.719 L
S
GR
GS
1 0 0 RC
1 LJ
0.5 LW
N
169.525 214.663 M
169.913 213.596 L
170.3 214.5 L
170.688 213.614 L
171.075 214.338 L
171.462 213.604 L
171.85 214.283 L
172.238 214.15 L
172.625 214.618 L
173.012 215.312 L
173.4 215.619 L
173.788 215.346 L
174.175 215.225 L
174.563 215.511 L
174.95 216.174 L
175.337 215.794 L
175.725 216.685 L
176.113 217.202 L
176.5 215.485 L
176.887 214.892 L
177.275 215.777 L
177.663 215.67 L
178.05 215.168 L
178.438 214.791 L
178.825 214.213 L
179.212 213.657 L
179.6 213.233 L
179.988 213.95 L
180.375 214.777 L
180.762 214.838 L
181.15 215.592 L
181.538 214.938 L
181.925 214.631 L
182.313 214.202 L
182.7 213.152 L
183.087 212.863 L
183.475 212.378 L
183.863 213.562 L
184.25 213.562 L
184.637 212.641 L
185.025 213.743 L
185.413 213.968 L
185.8 214.275 L
186.188 214.275 L
186.575 215.115 L
186.962 213.968 L
187.35 215.289 L
187.738 214.546 L
188.125 216.456 L
188.512 217.438 L
188.9 218.478 L
189.288 218.103 L
189.675 219.774 L
190.063 220.102 L
190.45 221.411 L
190.837 220.73 L
191.225 222.289 L
191.613 221.159 L
192 221.346 L
192.387 220.479 L
192.775 219.497 L
193.163 220.397 L
193.55 221.657 L
193.938 222.27 L
194.325 222.189 L
194.712 222.759 L
195.1 222.773 L
195.488 221.94 L
195.875 221.478 L
196.262 223.989 L
196.65 225.033 L
197.038 224.05 L
197.425 225.207 L
197.813 225.308 L
198.2 225.48 L
198.587 225.693 L
198.975 225.377 L
199.363 226.455 L
199.75 226.012 L
200.137 225.55 L
200.525 225.161 L
200.913 224.679 L
201.3 224.679 L
201.688 225.512 L
202.075 226.407 L
202.462 227.457 L
202.85 227.296 L
203.238 227.986 L
203.625 228.252 L
204.012 226.965 L
204.4 227.633 L
204.788 227.899 L
205.175 228.227 L
205.563 227.306 L
205.95 228.022 L
206.337 228.329 L
206.725 228.862 L
207.113 228.408 L
207.5 228.318 L
207.887 226.408 L
208.275 224.566 L
208.663 224.566 L
209.05 224.566 L
209.438 224.262 L
209.825 224.262 L
210.212 223.689 L
210.6 223.581 L
210.988 222.949 L
211.375 224.477 L
211.762 224.032 L
212.15 224.61 L
212.538 225.92 L
212.925 224.803 L
213.313 224.479 L
213.7 223.865 L
214.087 224.473 L
214.475 224.169 L
214.863 225.186 L
215.25 225.277 L
215.637 225.493 L
216.025 224.427 L
216.413 223.71 L
216.8 223.538 L
217.188 222.106 L
217.575 223.214 L
217.962 224.5 L
218.35 225.389 L
218.738 225.818 L
219.125 224.836 L
219.512 224.563 L
219.9 224.097 L
220.288 224.179 L
220.675 224.588 L
221.063 223.83 L
221.45 223.087 L
221.837 223.304 L
222.225 223.435 L
222.613 225.267 L
223 226.527 L
223.387 226.026 L
223.775 226.353 L
224.163 226.238 L
224.55 225.583 L
224.938 224.11 L
225.325 225.294 L
225.712 224.85 L
226.1 225.069 L
226.488 225.683 L
226.875 225.202 L
227.262 226.409 L
227.65 226.409 L
228.038 227.023 L
228.425 226.471 L
228.813 227.398 L
229.2 226.609 L
229.587 226.036 L
229.975 226.036 L
230.363 226.895 L
230.75 227.877 L
231.137 227.55 L
231.525 227.825 L
231.913 226.813 L
232.3 226.486 L
232.688 227.603 L
233.075 226.395 L
233.462 226.702 L
233.85 226.749 L
234.238 226.094 L
234.625 225.431 L
235.012 225.823 L
235.4 226.069 L
235.788 226.592 L
236.175 226.388 L
236.563 227.819 L
236.95 228.974 L
237.337 228.231 L
237.725 227.218 L
238.113 227.484 L
238.5 228.166 L
238.887 228.75 L
239.275 229.467 L
239.663 229.74 L
240.05 229.74 L
240.438 229.74 L
240.825 230.887 L
241.212 231.021 L
241.6 230.339 L
241.988 231.392 L
242.375 229.833 L
242.762 229.883 L
243.15 229.504 L
243.538 229.586 L
243.925 229.647 L
244.313 229.047 L
244.7 229.968 L
245.087 228.408 L
245.475 228.906 L
245.863 228.906 L
246.25 228.382 L
246.637 228.286 L
247.025 227.169 L
247.413 227.715 L
247.8 227.209 L
248.188 227.01 L
248.575 227.642 L
248.962 228.432 L
249.35 228.958 L
249.738 230.186 L
250.125 231.168 L
250.512 230.817 L
250.9 231.144 L
251.288 231.235 L
251.675 232.381 L
252.063 232.311 L
252.45 231.482 L
252.837 232.471 L
253.225 232.165 L
253.613 231.01 L
254 230.875 L
254.387 232.239 L
254.775 231.655 L
255.163 231.655 L
255.55 231.655 L
255.938 233.496 L
256.325 232.43 L
256.712 232.734 L
257.1 234.178 L
257.487 234.888 L
257.875 234.098 L
258.263 233.689 L
258.65 234.39 L
259.038 234.083 L
259.425 234.565 L
259.813 234.81 L
260.2 234.229 L
260.587 234.448 L
260.975 234.776 L
261.362 234.952 L
261.75 234.975 L
262.138 235.576 L
262.525 234.459 L
262.913 233.655 L
263.3 232.556 L
263.688 232.556 L
264.075 233.484 L
264.462 234.036 L
264.85 234.637 L
265.237 234.521 L
265.625 233.995 L
266.013 234.785 L
266.4 235.29 L
266.788 236.08 L
267.175 236.134 L
267.563 236.885 L
267.95 237.964 L
268.337 237.66 L
268.725 236.247 L
269.112 235.414 L
269.5 234.759 L
269.888 234.057 L
270.275 232.675 L
270.663 231.965 L
271.05 231.773 L
271.438 231.718 L
271.825 231.788 L
272.212 232.242 L
272.6 232.812 L
272.987 233.645 L
273.375 234.534 L
273.763 235.628 L
274.15 234.645 L
274.538 235.955 L
274.925 236.937 L
275.313 236.937 L
275.7 236.236 L
276.087 236.452 L
276.475 235.07 L
276.862 234.415 L
277.25 234.088 L
277.638 234.918 L
278.025 235.246 L
278.413 234.152 L
278.8 234.459 L
279.188 234.387 L
279.575 234.667 L
279.962 235.556 L
280.35 235.337 L
280.737 235.266 L
281.125 236.018 L
281.513 234.901 L
281.9 235.228 L
282.288 236.672 L
282.675 238.09 L
283.063 239.715 L
283.45 239.48 L
283.837 240.463 L
284.225 240.79 L
284.612 241.117 L
285 241.749 L
285.388 241.994 L
285.775 241.948 L
286.163 242.255 L
286.55 242.559 L
286.938 242.641 L
287.325 241.781 L
287.712 240.901 L
288.1 240.901 L
288.487 242.314 L
288.875 242.621 L
289.263 242.621 L
289.65 242.668 L
290.038 243.746 L
290.425 243.576 L
290.813 244.558 L
291.2 245.268 L
291.587 246.25 L
291.975 245.969 L
292.362 245.164 L
292.75 244.133 L
293.138 243.898 L
293.525 243.328 L
293.913 243.328 L
294.3 242.734 L
294.688 242.384 L
295.075 242.384 L
295.462 241.857 L
295.85 242.103 L
296.237 242.609 L
296.625 242.562 L
297.013 242.562 L
297.4 242.521 L
297.788 242.521 L
298.175 243.264 L
298.563 243.202 L
298.95 243.509 L
299.337 242.477 L
299.725 243.398 L
300.112 243.091 L
300.5 243.489 L
300.888 243.316 L
301.275 244.105 L
301.663 244.105 L
302.05 243.45 L
302.438 242.927 L
302.825 242.319 L
303.212 242.247 L
303.6 240.142 L
303.987 240.142 L
304.375 240.422 L
304.763 240.422 L
305.15 241.405 L
305.538 240.878 L
305.925 240.571 L
306.313 239.613 L
306.7 239.685 L
307.087 240.825 L
307.475 240.915 L
307.862 239.933 L
308.25 238.623 L
308.638 238.407 L
309.025 237.151 L
309.413 237.151 L
309.8 237.151 L
310.188 237.985 L
310.575 237.484 L
310.962 236.694 L
311.35 235.466 L
311.737 235.466 L
312.125 235.701 L
312.513 236.514 L
312.9 236.514 L
313.288 237.435 L
313.675 237.435 L
314.063 236.718 L
314.45 236.718 L
314.837 236.275 L
315.225 236.582 L
315.612 236.909 L
316 236.173 L
316.388 235.323 L
316.775 234.755 L
317.163 234.427 L
317.55 234.292 L
317.938 233.185 L
318.325 232.53 L
318.712 231.813 L
319.1 233.196 L
319.487 231.752 L
319.875 232.629 L
320.263 232.128 L
320.65 232.128 L
321.038 231.862 L
321.425 230.739 L
321.813 230.473 L
322.2 230.935 L
322.587 230.801 L
322.975 230.219 L
323.362 230.414 L
323.75 230.086 L
324.138 229.921 L
324.525 227.933 L
324.913 226.215 L
325.3 225.709 L
325.688 224.61 L
326.075 225.265 L
326.462 225.766 L
326.85 225.24 L
327.237 225.529 L
327.625 226.01 L
328.013 227.273 L
328.4 227.797 L
328.788 228.07 L
329.175 228.724 L
329.563 228.224 L
329.95 227.697 L
330.337 226.982 L
330.725 227.271 L
331.112 227.517 L
331.5 227.844 L
331.888 227.32 L
332.275 227.914 L
332.663 227.432 L
333.05 226.277 L
333.438 226.031 L
333.825 226.224 L
334.212 225.708 L
334.6 225.263 L
334.987 225.833 L
335.375 225.567 L
335.763 225.722 L
336.15 225.04 L
336.538 225.609 L
336.925 225.056 L
337.313 226.15 L
337.7 227.039 L
338.087 226.942 L
338.475 227.597 L
338.862 226.504 L
339.25 226.584 L
339.638 226.935 L
340.025 226.862 L
340.413 226.654 L
340.8 226.13 L
341.188 227.314 L
341.575 227.079 L
341.962 226.906 L
342.35 227.43 L
342.737 228.083 L
343.125 227.761 L
343.513 227.515 L
343.9 226.663 L
344.288 227.467 L
344.675 227.635 L
345.063 227.731 L
345.45 228.507 L
345.837 228.241 L
346.225 226.931 L
346.612 227.238 L
347 227.473 L
347.388 227.264 L
347.775 226.602 L
348.163 226.602 L
348.55 227.011 L
348.938 225.292 L
349.325 225.581 L
349.712 225.653 L
350.1 226.296 L
350.487 226.797 L
350.875 226.335 L
351.263 226.99 L
351.65 228.434 L
352.038 228.761 L
352.425 229.416 L
352.813 228.389 L
353.2 228.962 L
353.587 229.752 L
353.975 229.067 L
354.362 229.721 L
354.75 228.708 L
355.138 228.974 L
355.525 229.249 L
355.913 229.472 L
356.3 229.01 L
356.688 227.794 L
357.075 226.7 L
357.462 225.553 L
357.85 225.922 L
358.237 225.749 L
358.625 224.961 L
359.013 223.987 L
359.4 222.268 L
359.788 222.841 L
360.175 222.24 L
360.563 223.03 L
360.95 221.719 L
361.337 221.51 L
361.725 221.51 L
362.112 220.466 L
362.5 220.466 L
362.888 221.778 L
363.275 221.041 L
363.663 221.123 L
364.05 221.956 L
364.438 222.64 L
364.825 221.822 L
365.212 220.81 L
365.6 220.367 L
365.987 220.522 L
366.375 219.998 L
366.763 219.937 L
367.15 219.75 L
367.538 220.132 L
367.925 219.416 L
368.313 218.925 L
368.7 219.109 L
369.087 218.666 L
369.475 217.717 L
369.862 216.596 L
370.25 215.614 L
370.638 215.507 L
371.025 213.636 L
371.413 211.531 L
371.8 209.894 L
372.188 209.512 L
372.575 210.774 L
372.962 209.792 L
373.35 208.342 L
373.737 208.256 L
374.125 207.86 L
374.513 207.915 L
374.9 208.192 L
375.288 208.176 L
375.675 208.117 L
376.063 207.752 L
376.45 208.769 L
376.837 208.663 L
377.225 209.286 L
377.612 209.423 L
378 209.657 L
378.388 209.785 L
378.775 210.314 L
379.163 210.224 L
379.55 209.434 L
379.938 209.848 L
380.325 208.27 L
380.712 209.347 L
381.1 209.483 L
381.487 209.657 L
381.875 209.657 L
382.263 209.891 L
382.65 209.891 L
383.038 209.517 L
383.425 209.086 L
383.813 207.537 L
384.2 206.67 L
384.587 207.575 L
384.975 208.693 L
385.362 207.847 L
385.75 207.847 L
386.138 207.421 L
386.525 206.438 L
386.913 206.834 L
387.3 206.588 L
387.688 206.588 L
388.075 206.67 L
388.462 206.395 L
388.85 206.068 L
389.237 205.963 L
389.625 206.761 L
390.013 206.165 L
390.4 206.272 L
390.788 206.333 L
391.175 206.474 L
391.563 207.19 L
391.95 206.59 L
392.337 206.066 L
392.725 206.258 L
393.112 206.726 L
393.5 207.054 L
393.888 206.5 L
394.275 206.365 L
394.663 204.394 L
395.05 203.762 L
395.438 203.276 L
395.825 203.721 L
396.212 203.904 L
396.6 203.736 L
396.987 203.736 L
397.375 203.736 L
397.763 203.347 L
398.15 205.101 L
398.538 204.805 L
398.925 204.805 L
399.313 204.805 L
399.7 205.129 L
400.087 206.706 L
400.475 206.417 L
400.862 205.413 L
401.25 204.758 L
401.638 204.758 L
402.025 205.024 L
402.413 203.382 L
402.8 204.276 L
403.188 204.535 L
403.575 205.149 L
403.962 204.777 L
404.35 204.964 L
404.737 204.341 L
405.125 205.395 L
405.513 204.995 L
405.9 206.515 L
406.288 207.497 L
406.675 206.099 L
407.063 205.689 L
407.45 205.962 L
407.837 204.121 L
408.225 204.948 L
408.612 204.236 L
409 204.895 L
409.388 205.791 L
409.775 205.345 L
410.163 204.98 L
410.55 205.152 L
410.938 205.48 L
411.325 204.956 L
411.712 205.938 L
412.1 205.034 L
412.487 205.557 L
412.875 205.385 L
413.263 204.785 L
413.65 205.525 L
414.038 205.525 L
414.425 206.065 L
414.813 206.438 L
415.2 207.273 L
415.587 206.299 L
415.975 206.485 L
416.362 206.976 L
416.75 207.265 L
417.138 207.049 L
417.525 206.448 L
417.913 204.731 L
418.3 205.608 L
418.688 205.608 L
419.075 205.502 L
419.462 205.502 L
419.85 204.929 L
420.237 204.736 L
420.625 205.235 L
421.013 205.428 L
421.4 205.288 L
421.788 204.498 L
422.175 204.956 L
422.563 205.418 L
422.95 205.783 L
423.337 205.237 L
423.725 205.705 L
424.112 205.336 L
424.5 205.594 L
424.888 205.305 L
425.275 205.98 L
425.663 204.694 L
426.05 202.73 L
426.438 202.533 L
426.825 201.96 L
427.212 201.774 L
427.6 203.184 L
427.987 202.722 L
428.375 203.161 L
428.763 202.703 L
429.15 201.721 L
429.538 202.435 L
429.925 203.017 L
430.313 203.426 L
430.7 203.426 L
431.087 202.522 L
431.475 201.867 L
431.862 202.251 L
432.25 201.262 L
432.638 200.723 L
433.025 201.188 L
433.413 200.342 L
433.8 200.342 L
434.188 200.707 L
434.575 201.862 L
434.962 201.125 L
435.35 202.019 L
435.737 202.401 L
436.125 202.647 L
436.513 201.734 L
436.9 200.852 L
437.288 200.658 L
437.675 201.743 L
438.063 201.162 L
438.45 201.252 L
438.837 200.735 L
439.225 199.624 L
439.612 199.133 L
440 198.806 L
440.388 198.307 L
440.775 197.189 L
441.163 197.849 L
441.55 198.373 L
441.938 198.84 L
442.325 198.186 L
442.712 197.562 L
443.1 198.763 L
443.487 198.849 L
443.875 199.218 L
444.263 199.118 L
444.65 199.334 L
445.038 199.318 L
445.425 198.887 L
445.813 200.913 L
446.2 201.559 L
446.587 202.05 L
446.975 202.899 L
447.362 203.811 L
447.75 203.892 L
448.138 204.574 L
448.525 205.032 L
448.913 204.705 L
449.3 204.759 L
449.688 205.066 L
450.075 205.373 L
450.462 206.089 L
450.85 206.429 L
451.237 207.145 L
451.625 207.005 L
452.013 208.26 L
452.4 209.164 L
452.788 208.153 L
453.175 208.453 L
453.563 208.453 L
453.95 208.453 L
454.337 207.664 L
454.725 208.052 L
455.112 207.391 L
455.5 206.409 L
455.888 205.754 L
456.275 207.167 L
456.663 207.038 L
457.05 207.915 L
457.438 207.346 L
457.825 207.928 L
458.212 207.074 L
458.6 207.333 L
458.987 208.034 L
459.375 208.202 L
459.763 208.722 L
460.15 209.318 L
460.538 210.243 L
460.925 210.532 L
461.313 209.488 L
461.7 209.488 L
462.087 210.143 L
462.475 211.29 L
462.862 210.463 L
463.25 210.143 L
463.638 209.597 L
464.025 209.543 L
464.413 208.208 L
464.8 207.888 L
465.188 207.773 L
465.575 206.961 L
465.962 206.61 L
466.35 206.458 L
466.737 204.821 L
467.125 203.627 L
467.513 203.182 L
467.9 202.071 L
468.288 201.05 L
468.675 201.786 L
469.063 201.887 L
469.45 201.887 L
469.837 201.887 L
470.225 200.147 L
470.612 201.829 L
471 202.095 L
471.388 202.972 L
471.775 201.663 L
472.163 201.663 L
472.55 202.013 L
472.938 202.696 L
473.325 202.035 L
473.712 202.115 L
474.1 201.35 L
474.487 202.497 L
474.875 203.237 L
475.263 203.393 L
475.65 204.109 L
476.038 202.659 L
476.425 203.305 L
476.813 202.814 L
477.2 202.631 L
477.587 202.308 L
477.975 202.971 L
478.362 203.061 L
478.75 203.997 L
479.138 203.677 L
479.525 203.112 L
479.913 204.094 L
480.3 204.013 L
480.688 203.1 L
481.075 202.997 L
481.462 202.072 L
481.85 201.609 L
482.237 201.548 L
482.625 201.548 L
483.013 201.782 L
483.4 202.328 L
483.788 203.941 L
484.175 205.059 L
484.563 205.486 L
484.95 205.564 L
485.337 204.958 L
485.725 206.05 L
486.112 206.476 L
486.5 206.252 L
486.888 207.446 L
487.275 208.1 L
487.663 208.1 L
488.05 208.11 L
488.438 207.233 L
488.825 207.887 L
489.212 207.273 L
489.6 206.966 L
489.987 208.705 L
490.375 207.482 L
490.763 206.499 L
491.15 207.727 L
491.538 208.771 L
491.925 208.851 L
492.313 208.383 L
492.7 208.167 L
493.087 208.167 L
493.475 208.086 L
493.862 208.387 L
494.25 208.152 L
494.638 207.411 L
495.025 206.765 L
495.413 205.721 L
495.8 206.462 L
496.188 206.361 L
496.575 206.116 L
496.962 205.885 L
497.35 205.991 L
497.737 207.55 L
498.125 207.632 L
498.513 207.106 L
498.9 206.872 L
499.288 207.726 L
499.675 207.225 L
500.063 207.499 L
500.45 207.499 L
500.837 208.646 L
501.225 210.288 L
501.612 210.577 L
502 209.327 L
502.388 209.327 L
502.775 208.615 L
503.163 208.246 L
503.55 207.441 L
503.938 207.166 L
504.325 207.956 L
504.712 209.14 L
505.1 210.169 L
505.487 210.169 L
505.875 210.386 L
506.263 211.397 L
506.65 211.002 L
507.038 211.175 L
507.425 211.304 L
507.813 212.422 L
508.2 212.518 L
508.587 212.036 L
508.975 211.761 L
509.362 211.352 L
509.75 211.045 L
510.138 210.787 L
510.525 212.096 L
510.913 210.377 L
511.3 210.643 L
511.688 209.94 L
512.075 210.407 L
512.463 210.043 L
512.85 209.692 L
513.237 208.798 L
513.625 208.497 L
514.013 207.548 L
514.4 208.208 L
514.787 208.208 L
515.175 207.717 L
515.563 208.161 L
515.95 207.966 L
516.338 207.966 L
516.725 209.276 L
517.112 208.911 L
517.5 207.542 L
517.888 208.197 L
518.275 207.076 L
518.662 207.113 L
519.05 206.459 L
519.438 206.694 L
519.825 205.437 L
520.213 205.437 L
520.6 204.02 L
520.987 203.303 L
521.375 203.095 L
521.763 203.69 L
522.15 203.535 L
522.537 204.963 L
522.925 204.591 L
523.313 203.398 L
523.7 202.907 L
524.088 201.925 L
524.475 200.836 L
524.862 201.768 L
525.25 201.905 L
525.638 201.768 L
526.025 202.091 L
526.412 202.722 L
526.8 200.953 L
527.188 200.825 L
527.575 200.305 L
527.963 200.349 L
528.35 199.919 L
528.737 200.572 L
529.125 200.572 L
529.513 200.356 L
529.9 200.156 L
530.287 199.039 L
530.675 200.103 L
531.063 198.526 L
531.45 198.956 L
531.838 199.833 L
532.225 199.833 L
532.612 200.418 L
533 200.947 L
533.388 200.585 L
533.775 201.139 L
534.162 200.515 L
534.55 200.761 L
534.938 201.252 L
535.325 201.252 L
535.713 202.201 L
536.1 202.447 L
536.487 201.737 L
536.875 201.91 L
537.263 201.524 L
537.65 199.641 L
538.037 200.439 L
538.425 200.051 L
538.813 200.224 L
539.2 200.224 L
539.588 202.547 L
539.975 203.251 L
540.362 203.625 L
540.75 203.157 L
541.138 202.884 L
541.525 203.077 L
541.912 203.232 L
542.3 202.188 L
542.688 203.372 L
543.075 203.988 L
543.463 203.553 L
543.85 202.606 L
544.237 202.276 L
544.625 200.421 L
545.013 199.93 L
545.4 199.985 L
545.787 199.576 L
546.175 197.427 L
546.563 197.945 L
546.95 198.839 L
547.338 199.883 L
547.725 199.779 L
548.112 200.038 L
548.5 199.384 L
548.888 199.212 L
549.275 199.105 L
549.662 199.67 L
550.05 199.204 L
550.438 198.14 L
550.825 198.305 L
551.213 197.732 L
551.6 197.241 L
551.987 196.945 L
552.375 197.661 L
552.763 198.315 L
553.15 199.523 L
553.537 200.021 L
553.925 200.356 L
554.313 200.929 L
554.7 201.022 L
555.088 199.617 L
555.475 198.54 L
555.862 197.803 L
556.25 196.614 L
556.638 196.242 L
557.025 197.119 L
557.412 198.433 L
557.8 198.265 L
558.188 198.615 L
558.575 198.888 L
558.963 198.654 L
559.35 196.821 L
559.737 197.203 L
560.125 196.917 L
560.513 197.794 L
560.9 198.067 L
561.287 198.59 L
561.675 199.479 L
562.063 199.999 L
562.45 198.815 L
562.838 199.104 L
563.225 200.593 L
563.612 201.213 L
564 202.396 L
564.388 203.184 L
564.775 202.72 L
565.162 202.159 L
565.55 202.063 L
565.938 203.977 L
566.325 204.572 L
566.713 204.789 L
567.1 202.876 L
567.487 203.073 L
567.875 202.427 L
568.263 203.008 L
568.65 203.897 L
569.037 203.811 L
569.425 203.704 L
569.813 203.805 L
570.2 202.795 L
570.588 203.942 L
570.975 204.243 L
571.362 203.997 L
571.75 204.738 L
572.138 204.342 L
572.525 203.947 L
572.912 203.76 L
573.3 203.368 L
573.688 203.464 L
574.075 203.551 L
574.463 204.057 L
574.85 204.574 L
575.237 205.362 L
575.625 206.897 L
576.013 208.53 L
576.4 208.73 L
576.787 209.037 L
577.175 209.667 L
577.563 209.25 L
577.95 209.391 L
578.338 208.884 L
578.725 208.075 L
579.112 209.958 L
579.5 209.03 L
579.888 209.272 L
580.275 210.122 L
580.662 210.042 L
581.05 210.349 L
581.438 210.114 L
581.825 210.331 L
582.213 210.471 L
582.6 210.688 L
582.987 211.188 L
583.375 211.789 L
583.763 210.372 L
584.15 209.254 L
584.537 209.717 L
584.925 210.668 L
585.313 210.764 L
585.7 210.475 L
586.088 209.362 L
586.475 209.434 L
586.862 210.258 L
587.25 210.685 L
587.638 211.131 L
588.025 210.55 L
588.412 209.661 L
588.8 209.193 L
589.188 208.78 L
589.575 208.952 L
589.963 210.316 L
590.35 209.132 L
590.737 209.491 L
591.125 208.706 L
591.513 207.934 L
591.9 207.147 L
592.287 206.63 L
592.675 206.63 L
593.063 207.092 L
593.45 206.273 L
593.838 206.015 L
594.225 204.923 L
594.612 206.078 L
595 206.078 L
595.388 206.999 L
595.775 206.049 L
596.162 205.894 L
596.55 206.16 L
596.938 205.716 L
597.325 207.197 L
597.713 207.442 L
598.1 207.349 L
598.487 207.949 L
598.875 206.912 L
599.263 207.84 L
599.65 207.523 L
600.037 205.891 L
600.425 205.231 L
600.813 203.88 L
601.2 203.726 L
601.588 204.299 L
601.975 204.196 L
602.362 203.873 L
602.75 203.083 L
603.138 202.897 L
603.525 203.505 L
603.912 204.703 L
604.3 204.354 L
604.688 203.465 L
605.075 203.465 L
605.463 203.682 L
605.85 203.682 L
606.237 203.473 L
606.625 204.828 L
607.013 204.137 L
607.4 204.041 L
607.787 203.98 L
608.175 205.134 L
608.563 205.688 L
608.95 206.015 L
609.338 205.314 L
609.725 205.522 L
610.112 205.717 L
610.5 205.036 L
610.888 206.235 L
611.275 207.215 L
611.662 207.82 L
612.05 208.524 L
612.438 207.843 L
612.825 207.29 L
613.213 208.195 L
613.6 207.45 L
613.987 208.269 L
614.375 207.114 L
614.763 206.22 L
615.15 204.776 L
615.537 205.726 L
615.925 206.155 L
616.313 205.366 L
616.7 205.366 L
617.088 204.865 L
617.475 205.428 L
617.862 205.659 L
618.25 205.868 L
618.638 204.894 L
619.025 204.512 L
619.412 205.029 L
619.8 205.167 L
620.188 204.816 L
620.575 204.816 L
620.963 204.489 L
621.35 203.179 L
621.737 203.437 L
622.125 203.024 L
622.513 202.13 L
622.9 202.236 L
623.287 202.33 L
623.675 201.238 L
624.063 201.669 L
624.45 201.023 L
624.838 200.85 L
625.225 201.751 L
625.612 203.137 L
626 202.433 L
626.388 201.537 L
626.775 202.363 L
627.162 201.324 L
627.55 201.386 L
627.938 200.677 L
628.325 200.494 L
628.713 200.767 L
629.1 201.141 L
629.487 199.546 L
629.875 199.922 L
630.263 201.233 L
630.65 202.17 L
631.037 201.881 L
631.425 201.547 L
631.813 201.547 L
632.2 202.228 L
632.588 201.424 L
632.975 200.792 L
633.362 202.425 L
633.75 202.053 L
634.138 202.053 L
634.525 204.041 L
634.912 203.935 L
635.3 202.788 L
635.688 202.218 L
636.075 200.912 L
636.463 200.044 L
636.85 199.48 L
637.237 198.827 L
637.625 198.595 L
638.013 197.942 L
638.4 198.409 L
638.787 197.964 L
639.175 198.682 L
639.563 198.098 L
639.95 199.898 L
640.338 198.952 L
640.725 199.434 L
641.112 199.489 L
641.5 199.934 L
641.888 200.454 L
642.275 199.744 L
642.662 199.084 L
643.05 198.85 L
643.438 199.095 L
643.825 198.768 L
644.213 198.563 L
644.6 198.163 L
644.987 196.034 L
645.375 196.034 L
645.763 197.752 L
646.15 198.382 L
646.537 197.972 L
646.925 199.382 L
647.313 200.036 L
647.7 200.172 L
648.088 200.035 L
648.475 199.331 L
648.862 199.851 L
649.25 200.731 L
649.638 200.301 L
650.025 199.412 L
650.412 198.217 L
650.8 198.11 L
651.188 198.734 L
651.575 198.461 L
651.963 198.648 L
652.35 198.754 L
652.737 199.386 L
653.125 198.67 L
653.513 198.018 L
653.9 198.464 L
654.287 197.177 L
654.675 195.978 L
655.063 196.081 L
655.45 195.526 L
655.838 196.467 L
656.225 196.594 L
656.612 196.349 L
657 196.607 L
657.388 197.416 L
657.775 197.588 L
658.162 196.799 L
658.55 197.954 L
658.938 196.94 L
659.325 196.751 L
659.713 194.459 L
660.1 195.021 L
660.487 195.256 L
660.875 196.01 L
661.263 194.541 L
661.65 194.021 L
662.037 194.859 L
662.425 195.155 L
662.813 195.295 L
663.2 195.868 L
663.588 197.178 L
663.975 198.528 L
664.362 197.828 L
664.75 198.919 L
665.138 199.056 L
665.525 197.155 L
665.912 196.525 L
666.3 196.28 L
666.688 196.569 L
667.075 195.853 L
667.463 194.421 L
667.85 194.187 L
668.237 194.246 L
668.625 193.011 L
669.013 192.222 L
669.4 193.32 L
669.787 192.264 L
670.175 191.823 L
670.563 191.269 L
670.95 190.645 L
671.338 190.318 L
671.725 189.577 L
672.112 190.173 L
672.5 190.087 L
672.888 190.173 L
673.275 190.279 L
673.662 189.188 L
674.05 188.592 L
674.438 189.706 L
674.825 191.015 L
675.213 192.039 L
675.6 192.692 L
675.987 192.887 L
676.375 193.985 L
676.763 193.899 L
677.15 192.304 L
677.537 192.222 L
677.925 194.228 L
678.313 193.518 L
678.7 193.713 L
679.088 194.548 L
679.475 196.051 L
679.862 196.955 L
680.25 196.157 L
680.638 195.503 L
681.025 195.586 L
681.412 195.446 L
681.8 194.906 L
682.188 195.164 L
682.575 195.061 L
682.963 195.061 L
683.35 193.358 L
683.737 192.949 L
684.125 193.627 L
684.513 193.354 L
684.9 193.137 L
685.287 193.915 L
685.675 193.117 L
686.063 194.427 L
686.45 192.703 L
686.838 191.823 L
687.225 192.028 L
687.612 192.905 L
688 193.043 L
688.388 193.758 L
688.775 194.185 L
689.162 192.947 L
689.55 194.891 L
689.938 195.778 L
690.325 197.228 L
690.713 198.641 L
691.1 198.696 L
691.487 199.573 L
691.875 199.659 L
692.263 200.375 L
692.65 200.771 L
693.037 201.773 L
693.425 201.773 L
693.813 202.642 L
694.2 201.6 L
694.588 200.15 L
694.975 199.331 L
695.362 199.123 L
695.75 199.395 L
696.138 198.625 L
696.525 197.807 L
696.912 198.452 L
697.3 198.943 L
697.688 197.879 L
698.075 197.879 L
698.463 197.333 L
698.85 198.16 L
699.237 196.945 L
699.625 196.425 L
700.013 196.593 L
700.4 196.765 L
700.787 197.06 L
701.175 196.932 L
701.563 198.132 L
701.95 198.527 L
702.338 199.231 L
702.725 199.64 L
703.112 200.842 L
703.5 200.328 L
703.888 200.69 L
704.275 201.171 L
704.662 201.46 L
705.05 201.296 L
705.438 201.306 L
705.825 200.051 L
706.213 201.115 L
706.6 201.994 L
706.987 202.199 L
707.375 201.078 L
707.763 201.14 L
708.15 200.532 L
708.537 202.413 L
708.925 202.785 L
709.313 202.785 L
709.7 202.785 L
710.088 200.877 L
710.475 199.523 L
710.862 199.523 L
711.25 198.646 L
711.638 199.041 L
712.025 197.997 L
712.412 197.344 L
712.8 197.45 L
713.188 198.187 L
713.575 198.187 L
713.963 198.615 L
714.35 199.275 L
714.737 200.093 L
715.125 199.821 L
715.513 200.23 L
715.9 200.23 L
716.287 200.581 L
716.675 201.321 L
717.063 200.481 L
717.45 200.191 L
717.838 199.345 L
718.225 199.836 L
718.612 199.454 L
719 200.305 L
719.388 200.719 L
719.775 199.323 L
720.162 198.855 L
720.55 199.76 L
720.938 199.537 L
721.325 199.278 L
721.713 198.797 L
722.1 198.797 L
722.487 197.889 L
722.875 196.94 L
723.263 197.301 L
723.65 198.19 L
724.037 196.595 L
724.425 196.523 L
724.813 195.614 L
725.2 195.39 L
725.588 196.144 L
725.975 196.805 L
726.362 196.571 L
726.75 196.473 L
727.138 196.366 L
727.525 196.366 L
727.912 196.21 L
728.3 194.105 L
728.688 194.029 L
729.075 193.794 L
729.463 193.714 L
729.85 194.044 L
730.237 194.502 L
730.625 194.064 L
731.013 193.842 L
731.4 193.842 L
731.787 194.824 L
732.175 194.763 L
732.563 194.57 L
732.95 194.652 L
733.338 194.861 L
733.725 196.191 L
734.112 195.626 L
734.5 196.108 L
734.888 196.3 L
735.275 195.296 L
735.662 194.968 L
736.05 195.522 L
736.438 195.658 L
736.825 195.271 L
737.213 195.37 L
737.6 196.136 L
737.987 196.463 L
738.375 196.672 L
738.763 196.517 L
739.15 196.258 L
739.537 196.749 L
739.925 197.41 L
740.313 196.728 L
740.7 196.728 L
741.088 197.173 L
741.475 197.655 L
741.862 197.863 L
742.25 198.771 L
742.638 199.157 L
743.025 199.583 L
743.412 199.41 L
743.8 200.441 L
744.188 200.687 L
744.575 202.006 L
744.963 201.908 L
745.35 201.836 L
745.737 202.124 L
746.125 202.592 L
746.513 203.406 L
746.9 204.311 L
747.287 204.569 L
747.675 205.747 L
748.063 206.238 L
748.45 205.699 L
748.838 205.49 L
749.225 205.49 L
749.612 205.618 L
750 205.618 L
750.388 206.248 L
750.775 206.364 L
751.162 205.882 L
751.55 205.5 L
751.938 206.389 L
752.325 205.921 L
752.713 206.403 L
753.1 205.005 L
753.487 204.698 L
753.875 205.07 L
754.263 204.781 L
754.65 204.997 L
755.037 205.221 L
755.425 205.08 L
755.813 204.76 L
756.2 205.067 L
756.588 205.714 L
756.975 205.614 L
757.362 205.094 L
757.75 204.767 L
758.138 204.285 L
758.525 204.886 L
758.912 205.331 L
759.3 206.149 L
759.688 206.23 L
760.075 206.006 L
760.463 207.306 L
760.85 208.016 L
761.237 208.517 L
761.625 208.517 L
762.013 208.025 L
762.4 208.21 L
762.787 207.645 L
763.175 206.891 L
763.563 206.645 L
763.95 206.399 L
764.338 206.472 L
764.725 206.9 L
765.112 206.9 L
765.5 206.046 L
765.888 205.874 L
766.275 204.953 L
766.662 204.294 L
767.05 204.126 L
767.438 204.521 L
767.825 205.121 L
768.213 205.365 L
768.6 205.502 L
768.987 204.841 L
769.375 204.841 L
769.763 204.841 L
770.15 205.196 L
770.537 206.251 L
770.925 205.432 L
771.313 204.832 L
771.7 203.358 L
772.088 203.73 L
772.475 202.135 L
772.862 202.97 L
773.25 203.042 L
773.638 203.978 L
774.025 202.512 L
774.412 202.757 L
774.8 204.439 L
775.188 204.312 L
775.575 204.545 L
775.963 204.811 L
776.35 205.07 L
776.737 205.715 L
777.125 206.452 L
777.513 206.697 L
777.9 206.124 L
778.287 204.926 L
778.675 204.481 L
779.063 204.308 L
779.45 203.954 L
779.838 204.676 L
780.225 203.493 L
780.612 201.269 L
781 200.114 L
781.388 199.719 L
781.775 199.719 L
782.162 198.915 L
782.55 199.872 L
782.938 199.817 L
783.325 198.733 L
783.713 199.306 L
784.1 199.479 L
784.487 200.556 L
784.875 200.42 L
785.263 200.465 L
785.65 199.935 L
786.037 200.481 L
786.425 200.882 L
786.813 201.373 L
787.2 200.618 L
787.588 200.538 L
787.975 201.006 L
788.362 201.078 L
788.75 201.819 L
789.138 202.768 L
789.525 202.874 L
789.912 203.318 L
790.3 201.813 L
790.688 204.269 L
791.075 203.778 L
791.463 204.269 L
791.85 204.451 L
792.237 205.237 L
792.625 205.8 L
793.013 204.991 L
793.4 203.783 L
793.787 204.238 L
794.175 203.411 L
794.563 201.176 L
794.95 201.444 L
795.338 201.347 L
795.725 200.451 L
796.112 199.546 L
796.5 199.99 L
796.888 199.347 L
797.275 199.429 L
797.662 200.483 L
798.05 200.813 L
798.438 199.676 L
798.825 199.38 L
799.213 199.735 L
799.6 200.547 L
799.987 202.185 L
800.375 203.193 L
800.763 203.467 L
801.15 203.299 L
801.537 202.808 L
801.925 203.138 L
802.313 201.851 L
802.7 201.584 L
803.088 202.667 L
803.475 200.973 L
803.862 199.402 L
804.25 198.489 L
804.638 197.749 L
805.025 198.349 L
805.412 198.339 L
805.8 198.612 L
806.188 198.702 L
806.575 197.591 L
806.963 198.137 L
807.35 197.617 L
807.737 198.026 L
808.125 197.449 L
808.513 197.262 L
808.9 196.973 L
809.287 196.069 L
809.675 194.417 L
810.063 194.972 L
810.45 193.528 L
810.838 193.879 L
811.225 194.479 L
811.612 194.479 L
812 194.806 L
812.388 193.894 L
812.775 193.894 L
813.162 195.19 L
813.55 196.201 L
813.938 196.855 L
814.325 197.973 L
814.713 197.928 L
815.1 197.557 L
815.487 197.557 L
815.875 198.203 L
816.263 197.589 L
816.65 198.232 L
817.037 198.505 L
817.425 198.505 L
817.813 198.773 L
818.2 199.615 L
818.588 199.81 L
818.975 199.21 L
819.362 198.686 L
819.75 198.232 L
820.138 199.182 L
820.525 198.907 L
820.912 198.989 L
821.3 199.648 L
821.688 200.123 L
822.075 200.006 L
822.463 200.429 L
822.85 199.938 L
823.237 200.322 L
823.625 200.771 L
824.013 200.874 L
824.4 200.524 L
824.787 200.443 L
825.175 200.983 L
825.563 200.983 L
825.95 201.474 L
826.338 201.848 L
826.725 201.575 L
827.112 202.619 L
827.5 201.614 L
827.888 201.903 L
828.275 200.9 L
828.662 201.117 L
829.05 201.501 L
829.438 202.203 L
829.825 202.343 L
830.213 201.439 L
830.6 201.195 L
830.987 200.75 L
831.375 200.582 L
831.763 200.254 L
832.15 200.685 L
832.537 201.422 L
832.925 201.381 L
833.313 201.381 L
833.7 200.818 L
834.088 200.052 L
834.475 199.956 L
834.862 201.14 L
835.25 200.727 L
835.638 201.092 L
836.025 200.491 L
836.412 200.737 L
836.8 199.19 L
837.188 198.627 L
837.575 199.436 L
837.963 199.731 L
838.35 200.277 L
838.737 201.587 L
839.125 200.682 L
839.513 201.183 L
839.9 200.295 L
840.287 200.14 L
840.675 200.226 L
841.063 200.226 L
841.45 200.533 L
841.838 200.778 L
842.225 199.781 L
842.612 200.132 L
843 199.418 L
843.388 201.172 L
843.775 201.499 L
844.162 202.59 L
844.55 202.316 L
844.938 202.97 L
845.325 202.539 L
845.713 202.033 L
846.1 202.634 L
846.487 202.4 L
846.875 202.165 L
847.263 203.531 L
847.65 203.82 L
848.037 204.929 L
848.425 204.712 L
848.813 204.868 L
849.2 205.294 L
849.588 206.338 L
849.975 206.968 L
850.362 207.598 L
850.75 207.598 L
851.138 207.679 L
851.525 208.488 L
851.912 207.893 L
852.3 207.57 L
852.688 206.588 L
853.075 206.588 L
853.463 207.151 L
853.85 207.724 L
854.237 207.864 L
854.625 207.694 L
855.013 208.676 L
855.4 208.57 L
855.787 208.986 L
856.175 208.004 L
856.563 208.95 L
856.95 208.213 L
857.338 207.731 L
857.725 209.19 L
858.112 208.449 L
858.5 207.095 L
858.888 207.095 L
859.275 205.645 L
859.662 206.299 L
860.05 206.819 L
860.438 207.449 L
860.825 207.772 L
861.213 207.363 L
861.6 208.652 L
861.987 210.406 L
862.375 211.147 L
862.763 212.188 L
863.15 211.673 L
863.537 210.971 L
863.925 210.698 L
864.313 210.78 L
864.7 210.217 L
865.088 211.63 L
865.475 211.153 L
865.862 211.596 L
866.25 212.103 L
866.638 211.026 L
867.025 210.174 L
867.412 209.097 L
867.8 208.991 L
868.188 208.702 L
868.575 207.761 L
868.963 207.396 L
869.35 206.508 L
869.737 205.664 L
870.125 205.315 L
870.513 205.16 L
870.9 204.662 L
871.287 204.008 L
871.675 205.319 L
872.063 205.506 L
872.45 205.915 L
872.838 205.915 L
873.225 205.352 L
873.612 205.834 L
874 206.642 L
874.388 205.161 L
874.775 204.134 L
875.162 205.335 L
875.55 204.705 L
875.938 204.95 L
876.325 205.759 L
876.713 207.232 L
877.1 207.232 L
877.487 205.373 L
877.875 206.823 L
878.263 207.468 L
878.65 208.453 L
879.037 208.325 L
879.425 208.325 L
879.813 208.325 L
880.2 207.375 L
880.588 206.37 L
880.975 205.798 L
881.362 204.38 L
881.75 202.976 L
882.138 203.42 L
882.525 203.186 L
882.912 202.688 L
883.3 203.583 L
883.688 202.666 L
884.075 202.338 L
884.463 202.506 L
884.85 201.933 L
885.237 203.489 L
885.625 202.199 L
886.013 201.845 L
886.4 202.633 L
886.787 202.481 L
887.175 203.076 L
887.563 203.182 L
887.95 203.106 L
888.338 203.721 L
888.725 204.303 L
889.112 204.957 L
889.5 205.882 L
889.888 206.586 L
890.275 206.445 L
890.662 206.944 L
891.05 207.389 L
891.438 207.154 L
891.825 206.18 L
892.213 205.069 L
892.6 204.642 L
892.987 204.917 L
893.375 204.263 L
893.763 204.436 L
894.15 205.29 L
894.537 205.335 L
894.925 203.347 L
895.313 203.886 L
895.7 203.937 L
896.088 203.404 L
896.475 202.664 L
896.862 202.604 L
897.25 203.176 L
897.638 202.011 L
898.025 201.615 L
898.412 201.201 L
898.8 201.821 L
899.188 201.133 L
899.575 200.778 L
899.963 200.962 L
900.35 201.641 L
900.737 202.327 L
901.125 203.232 L
901.513 204.36 L
901.9 203.252 L
902.287 203.545 L
902.675 203.049 L
903.063 202.653 L
903.45 204.116 L
903.838 204.644 L
904.225 204.456 L
904.612 203.644 L
905 201.646 L
S
GR
%%Trailer
%%Pages: 1
%%EOF
