%!PS-Adobe-3.0 EPSF-3.0
%%Creator: (MATLAB, The Mathworks, Inc. Version 9.0.0.341360 \(R2016a\). Operating System: Linux)
%%Title: report/figures/sm_base_lin_unifprio3_ratio.eps
%%CreationDate: 2017-02-04T23:56:30
%%Pages: (atend)
%%BoundingBox:    59     4   910   325
%%LanguageLevel: 3
%%EndComments
%%BeginProlog
%%BeginResource: procset (Apache XML Graphics Std ProcSet) 1.2 0
%%Version: 1.2 0
%%Copyright: (Copyright 2001-2003,2010 The Apache Software Foundation. License terms: http://www.apache.org/licenses/LICENSE-2.0)
/bd{bind def}bind def
/ld{load def}bd
/GR/grestore ld
/M/moveto ld
/LJ/setlinejoin ld
/C/curveto ld
/f/fill ld
/LW/setlinewidth ld
/GC/setgray ld
/t/show ld
/N/newpath ld
/CT/concat ld
/cp/closepath ld
/S/stroke ld
/L/lineto ld
/CC/setcmykcolor ld
/A/ashow ld
/GS/gsave ld
/RC/setrgbcolor ld
/RM/rmoveto ld
/ML/setmiterlimit ld
/re {4 2 roll M
1 index 0 rlineto
0 exch rlineto
neg 0 rlineto
cp } bd
/_ctm matrix def
/_tm matrix def
/BT { _ctm currentmatrix pop matrix _tm copy pop 0 0 moveto } bd
/ET { _ctm setmatrix } bd
/iTm { _ctm setmatrix _tm concat } bd
/Tm { _tm astore pop iTm 0 0 moveto } bd
/ux 0.0 def
/uy 0.0 def
/F {
  /Tp exch def
  /Tf exch def
  Tf findfont Tp scalefont setfont
  /cf Tf def  /cs Tp def
} bd
/ULS {currentpoint /uy exch def /ux exch def} bd
/ULE {
  /Tcx currentpoint pop def
  gsave
  newpath
  cf findfont cs scalefont dup
  /FontMatrix get 0 get /Ts exch def /FontInfo get dup
  /UnderlinePosition get Ts mul /To exch def
  /UnderlineThickness get Ts mul /Tt exch def
  ux uy To add moveto  Tcx uy To add lineto
  Tt setlinewidth stroke
  grestore
} bd
/OLE {
  /Tcx currentpoint pop def
  gsave
  newpath
  cf findfont cs scalefont dup
  /FontMatrix get 0 get /Ts exch def /FontInfo get dup
  /UnderlinePosition get Ts mul /To exch def
  /UnderlineThickness get Ts mul /Tt exch def
  ux uy To add cs add moveto Tcx uy To add cs add lineto
  Tt setlinewidth stroke
  grestore
} bd
/SOE {
  /Tcx currentpoint pop def
  gsave
  newpath
  cf findfont cs scalefont dup
  /FontMatrix get 0 get /Ts exch def /FontInfo get dup
  /UnderlinePosition get Ts mul /To exch def
  /UnderlineThickness get Ts mul /Tt exch def
  ux uy To add cs 10 mul 26 idiv add moveto Tcx uy To add cs 10 mul 26 idiv add lineto
  Tt setlinewidth stroke
  grestore
} bd
/QT {
/Y22 exch store
/X22 exch store
/Y21 exch store
/X21 exch store
currentpoint
/Y21 load 2 mul add 3 div exch
/X21 load 2 mul add 3 div exch
/X21 load 2 mul /X22 load add 3 div
/Y21 load 2 mul /Y22 load add 3 div
/X22 load /Y22 load curveto
} bd
/SSPD {
dup length /d exch dict def
{
/v exch def
/k exch def
currentpagedevice k known {
/cpdv currentpagedevice k get def
v cpdv ne {
/upd false def
/nullv v type /nulltype eq def
/nullcpdv cpdv type /nulltype eq def
nullv nullcpdv or
{
/upd true def
} {
/sametype v type cpdv type eq def
sametype {
v type /arraytype eq {
/vlen v length def
/cpdvlen cpdv length def
vlen cpdvlen eq {
0 1 vlen 1 sub {
/i exch def
/obj v i get def
/cpdobj cpdv i get def
obj cpdobj ne {
/upd true def
exit
} if
} for
} {
/upd true def
} ifelse
} {
v type /dicttype eq {
v {
/dv exch def
/dk exch def
/cpddv cpdv dk get def
dv cpddv ne {
/upd true def
exit
} if
} forall
} {
/upd true def
} ifelse
} ifelse
} if
} ifelse
upd true eq {
d k v put
} if
} if
} if
} forall
d length 0 gt {
d setpagedevice
} if
} bd
%%EndResource
%%BeginResource: procset (Apache XML Graphics EPS ProcSet) 1.0 0
%%Version: 1.0 0
%%Copyright: (Copyright 2002-2003 The Apache Software Foundation. License terms: http://www.apache.org/licenses/LICENSE-2.0)
/BeginEPSF { %def
/b4_Inc_state save def         % Save state for cleanup
/dict_count countdictstack def % Count objects on dict stack
/op_count count 1 sub def      % Count objects on operand stack
userdict begin                 % Push userdict on dict stack
/showpage { } def              % Redefine showpage, { } = null proc
0 setgray 0 setlinecap         % Prepare graphics state
1 setlinewidth 0 setlinejoin
10 setmiterlimit [ ] 0 setdash newpath
/languagelevel where           % If level not equal to 1 then
{pop languagelevel             % set strokeadjust and
1 ne                           % overprint to their defaults.
{false setstrokeadjust false setoverprint
} if
} if
} bd
/EndEPSF { %def
count op_count sub {pop} repeat            % Clean up stacks
countdictstack dict_count sub {end} repeat
b4_Inc_state restore
} bd
%%EndResource
%%EndProlog
%%Page: 1 1
%%PageBoundingBox: 0 0 1000 350
%%BeginPageSetup
[1 0 0 -1 0 350] CT
%%EndPageSetup
GS
1 GC
N
0 0 1000 350 re
f
GR
GS
1 GC
N
0 0 1000 350 re
f
GR
GS
1 GC
N
130 289 M
905 289 L
905 26 L
130 26 L
cp
f
GR
GS
0.873 GC
1 LJ
0.5 LW
N
130 289 M
130 26 L
S
GR
GS
0.873 GC
1 LJ
0.5 LW
N
323.75 289 M
323.75 26 L
S
GR
GS
0.873 GC
1 LJ
0.5 LW
N
517.5 289 M
517.5 26 L
S
GR
GS
0.873 GC
1 LJ
0.5 LW
N
711.25 289 M
711.25 26 L
S
GR
GS
0.873 GC
1 LJ
0.5 LW
N
905 289 M
905 26 L
S
GR
GS
0.873 GC
1 LJ
0.5 LW
N
905 289 M
130 289 L
S
GR
GS
0.873 GC
1 LJ
0.5 LW
N
905 238.905 M
130 238.905 L
S
GR
GS
0.873 GC
1 LJ
0.5 LW
N
905 188.81 M
130 188.81 L
S
GR
GS
0.873 GC
1 LJ
0.5 LW
N
905 138.714 M
130 138.714 L
S
GR
GS
0.873 GC
1 LJ
0.5 LW
N
905 88.619 M
130 88.619 L
S
GR
GS
0.873 GC
1 LJ
0.5 LW
N
905 38.524 M
130 38.524 L
S
GR
GS
0.149 GC
2 setlinecap
1 LJ
0.5 LW
N
130 289 M
905 289 L
S
GR
GS
0.149 GC
2 setlinecap
1 LJ
0.5 LW
N
130 289 M
130 281.25 L
S
GR
GS
0.149 GC
2 setlinecap
1 LJ
0.5 LW
N
323.75 289 M
323.75 281.25 L
S
GR
GS
0.149 GC
2 setlinecap
1 LJ
0.5 LW
N
517.5 289 M
517.5 281.25 L
S
GR
GS
0.149 GC
2 setlinecap
1 LJ
0.5 LW
N
711.25 289 M
711.25 281.25 L
S
GR
GS
0.149 GC
2 setlinecap
1 LJ
0.5 LW
N
905 289 M
905 281.25 L
S
GR
GS
[1 0 0 1 130 295] CT
0.149 GC
N
-0.141 5.719 M
-1.672 5.719 -2.438 7.219 QT
-3.203 8.719 -3.203 11.719 QT
-3.203 14.719 -2.438 16.219 QT
-1.672 17.719 -0.141 17.719 QT
1.391 17.719 2.156 16.219 QT
2.922 14.719 2.922 11.719 QT
2.922 8.719 2.156 7.219 QT
1.391 5.719 -0.141 5.719 QT
cp
-0.141 4.156 M
2.313 4.156 3.602 6.094 QT
4.891 8.031 4.891 11.719 QT
4.891 15.406 3.602 17.344 QT
2.313 19.281 -0.141 19.281 QT
-2.594 19.281 -3.891 17.344 QT
-5.188 15.406 -5.188 11.719 QT
-5.188 8.031 -3.891 6.094 QT
-2.594 4.156 -0.141 4.156 QT
cp
f
GR
GS
[1 0 0 1 323.75 295] CT
0.149 GC
N
-9.641 5.719 M
-11.172 5.719 -11.938 7.219 QT
-12.703 8.719 -12.703 11.719 QT
-12.703 14.719 -11.938 16.219 QT
-11.172 17.719 -9.641 17.719 QT
-8.109 17.719 -7.344 16.219 QT
-6.578 14.719 -6.578 11.719 QT
-6.578 8.719 -7.344 7.219 QT
-8.109 5.719 -9.641 5.719 QT
cp
-9.641 4.156 M
-7.188 4.156 -5.898 6.094 QT
-4.609 8.031 -4.609 11.719 QT
-4.609 15.406 -5.898 17.344 QT
-7.188 19.281 -9.641 19.281 QT
-12.094 19.281 -13.391 17.344 QT
-14.688 15.406 -14.688 11.719 QT
-14.688 8.031 -13.391 6.094 QT
-12.094 4.156 -9.641 4.156 QT
cp
-1.135 16.516 M
0.928 16.516 L
0.928 19 L
-1.135 19 L
-1.135 16.516 L
cp
5.238 4.422 M
12.988 4.422 L
12.988 6.078 L
7.051 6.078 L
7.051 9.656 L
7.473 9.5 7.902 9.43 QT
8.332 9.359 8.77 9.359 QT
11.207 9.359 12.637 10.695 QT
14.066 12.031 14.066 14.328 QT
14.066 16.672 12.598 17.977 QT
11.129 19.281 8.457 19.281 QT
7.551 19.281 6.598 19.125 QT
5.645 18.969 4.629 18.656 QT
4.629 16.672 L
5.504 17.156 6.441 17.391 QT
7.379 17.625 8.426 17.625 QT
10.113 17.625 11.098 16.734 QT
12.082 15.844 12.082 14.328 QT
12.082 12.797 11.098 11.906 QT
10.113 11.016 8.426 11.016 QT
7.629 11.016 6.848 11.195 QT
6.066 11.375 5.238 11.75 QT
5.238 4.422 L
cp
f
GR
GS
[1 0 0 1 517.5 295] CT
0.149 GC
N
-4.016 17.344 M
-0.797 17.344 L
-0.797 6.219 L
-4.297 6.922 L
-4.297 5.125 L
-0.813 4.422 L
1.156 4.422 L
1.156 17.344 L
4.375 17.344 L
4.375 19 L
-4.016 19 L
-4.016 17.344 L
cp
f
GR
GS
[1 0 0 1 711.25 295] CT
0.149 GC
N
-13.516 17.344 M
-10.297 17.344 L
-10.297 6.219 L
-13.797 6.922 L
-13.797 5.125 L
-10.313 4.422 L
-8.344 4.422 L
-8.344 17.344 L
-5.125 17.344 L
-5.125 19 L
-13.516 19 L
-13.516 17.344 L
cp
-1.135 16.516 M
0.928 16.516 L
0.928 19 L
-1.135 19 L
-1.135 16.516 L
cp
5.238 4.422 M
12.988 4.422 L
12.988 6.078 L
7.051 6.078 L
7.051 9.656 L
7.473 9.5 7.902 9.43 QT
8.332 9.359 8.77 9.359 QT
11.207 9.359 12.637 10.695 QT
14.066 12.031 14.066 14.328 QT
14.066 16.672 12.598 17.977 QT
11.129 19.281 8.457 19.281 QT
7.551 19.281 6.598 19.125 QT
5.645 18.969 4.629 18.656 QT
4.629 16.672 L
5.504 17.156 6.441 17.391 QT
7.379 17.625 8.426 17.625 QT
10.113 17.625 11.098 16.734 QT
12.082 15.844 12.082 14.328 QT
12.082 12.797 11.098 11.906 QT
10.113 11.016 8.426 11.016 QT
7.629 11.016 6.848 11.195 QT
6.066 11.375 5.238 11.75 QT
5.238 4.422 L
cp
f
GR
GS
[1 0 0 1 905 295] CT
0.149 GC
N
-2.656 17.344 M
4.219 17.344 L
4.219 19 L
-5.031 19 L
-5.031 17.344 L
-3.906 16.172 -1.969 14.219 QT
-0.031 12.266 0.469 11.688 QT
1.406 10.625 1.781 9.891 QT
2.156 9.156 2.156 8.438 QT
2.156 7.281 1.344 6.547 QT
0.531 5.813 -0.781 5.813 QT
-1.703 5.813 -2.734 6.133 QT
-3.766 6.453 -4.938 7.109 QT
-4.938 5.125 L
-3.75 4.641 -2.711 4.398 QT
-1.672 4.156 -0.813 4.156 QT
1.453 4.156 2.797 5.289 QT
4.141 6.422 4.141 8.313 QT
4.141 9.219 3.805 10.023 QT
3.469 10.828 2.578 11.922 QT
2.344 12.203 1.031 13.555 QT
-0.281 14.906 -2.656 17.344 QT
cp
f
GR
GS
[1 0 0 1 517.50037 320] CT
0.149 GC
N
-14.25 9.328 M
-14.25 11.188 L
-15.094 10.766 -16 10.547 QT
-16.906 10.328 -17.859 10.328 QT
-19.344 10.328 -20.078 10.781 QT
-20.813 11.234 -20.813 12.141 QT
-20.813 12.828 -20.281 13.219 QT
-19.75 13.609 -18.172 13.969 QT
-17.484 14.109 L
-15.391 14.563 -14.5 15.383 QT
-13.609 16.203 -13.609 17.688 QT
-13.609 19.359 -14.938 20.336 QT
-16.266 21.313 -18.578 21.313 QT
-19.547 21.313 -20.594 21.125 QT
-21.641 20.938 -22.813 20.563 QT
-22.813 18.516 L
-21.719 19.094 -20.648 19.375 QT
-19.578 19.656 -18.547 19.656 QT
-17.141 19.656 -16.391 19.18 QT
-15.641 18.703 -15.641 17.828 QT
-15.641 17.031 -16.188 16.602 QT
-16.734 16.172 -18.563 15.766 QT
-19.25 15.609 L
-21.094 15.219 -21.906 14.422 QT
-22.719 13.625 -22.719 12.219 QT
-22.719 10.531 -21.516 9.602 QT
-20.313 8.672 -18.109 8.672 QT
-17 8.672 -16.039 8.836 QT
-15.078 9 -14.25 9.328 QT
cp
-8.507 5.547 M
-8.507 8.969 L
-4.444 8.969 L
-4.444 10.5 L
-8.507 10.5 L
-8.507 17.031 L
-8.507 18.5 -8.108 18.922 QT
-7.71 19.344 -6.476 19.344 QT
-4.444 19.344 L
-4.444 21 L
-6.476 21 L
-8.757 21 -9.624 20.148 QT
-10.491 19.297 -10.491 17.031 QT
-10.491 10.5 L
-11.944 10.5 L
-11.944 8.969 L
-10.491 8.969 L
-10.491 5.547 L
-8.507 5.547 L
cp
8.447 14.484 M
8.447 15.453 L
-0.631 15.453 L
-0.506 17.5 0.596 18.57 QT
1.697 19.641 3.666 19.641 QT
4.807 19.641 5.869 19.359 QT
6.932 19.078 7.994 18.516 QT
7.994 20.391 L
6.932 20.844 5.814 21.078 QT
4.697 21.313 3.541 21.313 QT
0.666 21.313 -1.014 19.633 QT
-2.693 17.953 -2.693 15.109 QT
-2.693 12.141 -1.1 10.406 QT
0.494 8.672 3.197 8.672 QT
5.635 8.672 7.041 10.234 QT
8.447 11.797 8.447 14.484 QT
cp
6.479 13.906 M
6.447 12.281 5.564 11.32 QT
4.682 10.359 3.229 10.359 QT
1.572 10.359 0.572 11.289 QT
-0.428 12.219 -0.568 13.922 QT
6.479 13.906 L
cp
13.607 19.188 M
13.607 25.578 L
11.623 25.578 L
11.623 8.969 L
13.607 8.969 L
13.607 10.797 L
14.232 9.719 15.186 9.195 QT
16.139 8.672 17.451 8.672 QT
19.639 8.672 21.014 10.414 QT
22.389 12.156 22.389 15 QT
22.389 17.828 21.014 19.57 QT
19.639 21.313 17.451 21.313 QT
16.139 21.313 15.186 20.789 QT
14.232 20.266 13.607 19.188 QT
cp
20.326 15 M
20.326 12.813 19.436 11.57 QT
18.545 10.328 16.967 10.328 QT
15.404 10.328 14.506 11.57 QT
13.607 12.813 13.607 15 QT
13.607 17.172 14.506 18.414 QT
15.404 19.656 16.967 19.656 QT
18.545 19.656 19.436 18.414 QT
20.326 17.172 20.326 15 QT
cp
f
GR
GS
[1 0 0 1 852 345] CT
0.149 GC
N
2.938 -0.578 M
2.938 -0.734 3.031 -0.859 QT
7.203 -5 L
3.031 -9.156 L
2.938 -9.266 2.938 -9.422 QT
2.938 -9.578 3.055 -9.703 QT
3.172 -9.828 3.344 -9.828 QT
3.484 -9.828 3.641 -9.703 QT
7.781 -5.563 L
11.906 -9.703 L
12.078 -9.828 12.203 -9.828 QT
12.359 -9.828 12.477 -9.711 QT
12.594 -9.594 12.594 -9.422 QT
12.594 -9.266 12.5 -9.156 QT
8.344 -5 L
12.5 -0.859 L
12.594 -0.734 12.594 -0.578 QT
12.594 -0.406 12.477 -0.289 QT
12.359 -0.172 12.203 -0.172 QT
12.047 -0.172 11.906 -0.328 QT
7.781 -4.438 L
3.641 -0.328 L
3.5 -0.172 3.344 -0.172 QT
3.172 -0.172 3.055 -0.305 QT
2.938 -0.438 2.938 -0.578 QT
cp
f
GR
GS
[1 0 0 1 868 345] CT
0.149 GC
N
2.484 -1.656 M
5.703 -1.656 L
5.703 -12.781 L
2.203 -12.078 L
2.203 -13.875 L
5.688 -14.578 L
7.656 -14.578 L
7.656 -1.656 L
10.875 -1.656 L
10.875 0 L
2.484 0 L
2.484 -1.656 L
cp
19.084 -13.281 M
17.553 -13.281 16.787 -11.781 QT
16.021 -10.281 16.021 -7.281 QT
16.021 -4.281 16.787 -2.781 QT
17.553 -1.281 19.084 -1.281 QT
20.615 -1.281 21.381 -2.781 QT
22.146 -4.281 22.146 -7.281 QT
22.146 -10.281 21.381 -11.781 QT
20.615 -13.281 19.084 -13.281 QT
cp
19.084 -14.844 M
21.537 -14.844 22.826 -12.906 QT
24.115 -10.969 24.115 -7.281 QT
24.115 -3.594 22.826 -1.656 QT
21.537 0.281 19.084 0.281 QT
16.631 0.281 15.334 -1.656 QT
14.037 -3.594 14.037 -7.281 QT
14.037 -10.969 15.334 -12.906 QT
16.631 -14.844 19.084 -14.844 QT
cp
f
GR
GS
[1 0 0 1 894 335] CT
0.149 GC
N
5.281 -6.469 M
4.219 -6.469 3.602 -5.742 QT
2.984 -5.016 2.984 -3.75 QT
2.984 -2.484 3.602 -1.758 QT
4.219 -1.031 5.281 -1.031 QT
6.344 -1.031 6.969 -1.758 QT
7.594 -2.484 7.594 -3.75 QT
7.594 -5.016 6.969 -5.742 QT
6.344 -6.469 5.281 -6.469 QT
cp
8.422 -11.406 M
8.422 -9.969 L
7.828 -10.25 7.219 -10.398 QT
6.609 -10.547 6.016 -10.547 QT
4.453 -10.547 3.633 -9.492 QT
2.813 -8.438 2.688 -6.313 QT
3.156 -6.984 3.852 -7.352 QT
4.547 -7.719 5.375 -7.719 QT
7.141 -7.719 8.156 -6.648 QT
9.172 -5.578 9.172 -3.75 QT
9.172 -1.953 8.109 -0.859 QT
7.047 0.234 5.281 0.234 QT
3.266 0.234 2.195 -1.32 QT
1.125 -2.875 1.125 -5.828 QT
1.125 -8.594 2.438 -10.234 QT
3.75 -11.875 5.953 -11.875 QT
6.547 -11.875 7.156 -11.758 QT
7.766 -11.641 8.422 -11.406 QT
cp
f
GR
GS
0.149 GC
2 setlinecap
1 LJ
0.5 LW
N
130 289 M
130 26 L
S
GR
GS
0.149 GC
2 setlinecap
1 LJ
0.5 LW
N
130 289 M
137.75 289 L
S
GR
GS
0.149 GC
2 setlinecap
1 LJ
0.5 LW
N
130 238.905 M
137.75 238.905 L
S
GR
GS
0.149 GC
2 setlinecap
1 LJ
0.5 LW
N
130 188.81 M
137.75 188.81 L
S
GR
GS
0.149 GC
2 setlinecap
1 LJ
0.5 LW
N
130 138.714 M
137.75 138.714 L
S
GR
GS
0.149 GC
2 setlinecap
1 LJ
0.5 LW
N
130 88.619 M
137.75 88.619 L
S
GR
GS
0.149 GC
2 setlinecap
1 LJ
0.5 LW
N
130 38.524 M
137.75 38.524 L
S
GR
GS
[1 0 0 1 124 289] CT
0.149 GC
N
-6.641 -6.281 M
-8.172 -6.281 -8.938 -4.781 QT
-9.703 -3.281 -9.703 -0.281 QT
-9.703 2.719 -8.938 4.219 QT
-8.172 5.719 -6.641 5.719 QT
-5.109 5.719 -4.344 4.219 QT
-3.578 2.719 -3.578 -0.281 QT
-3.578 -3.281 -4.344 -4.781 QT
-5.109 -6.281 -6.641 -6.281 QT
cp
-6.641 -7.844 M
-4.188 -7.844 -2.898 -5.906 QT
-1.609 -3.969 -1.609 -0.281 QT
-1.609 3.406 -2.898 5.344 QT
-4.188 7.281 -6.641 7.281 QT
-9.094 7.281 -10.391 5.344 QT
-11.688 3.406 -11.688 -0.281 QT
-11.688 -3.969 -10.391 -5.906 QT
-9.094 -7.844 -6.641 -7.844 QT
cp
f
GR
GS
[1 0 0 1 124 238.90475] CT
0.149 GC
N
-22.156 5.344 M
-15.281 5.344 L
-15.281 7 L
-24.531 7 L
-24.531 5.344 L
-23.406 4.172 -21.469 2.219 QT
-19.531 0.266 -19.031 -0.313 QT
-18.094 -1.375 -17.719 -2.109 QT
-17.344 -2.844 -17.344 -3.563 QT
-17.344 -4.719 -18.156 -5.453 QT
-18.969 -6.188 -20.281 -6.188 QT
-21.203 -6.188 -22.234 -5.867 QT
-23.266 -5.547 -24.438 -4.891 QT
-24.438 -6.875 L
-23.25 -7.359 -22.211 -7.602 QT
-21.172 -7.844 -20.313 -7.844 QT
-18.047 -7.844 -16.703 -6.711 QT
-15.359 -5.578 -15.359 -3.688 QT
-15.359 -2.781 -15.695 -1.977 QT
-16.031 -1.172 -16.922 -0.078 QT
-17.156 0.203 -18.469 1.555 QT
-19.781 2.906 -22.156 5.344 QT
cp
-6.916 -6.281 M
-8.447 -6.281 -9.213 -4.781 QT
-9.979 -3.281 -9.979 -0.281 QT
-9.979 2.719 -9.213 4.219 QT
-8.447 5.719 -6.916 5.719 QT
-5.385 5.719 -4.619 4.219 QT
-3.854 2.719 -3.854 -0.281 QT
-3.854 -3.281 -4.619 -4.781 QT
-5.385 -6.281 -6.916 -6.281 QT
cp
-6.916 -7.844 M
-4.463 -7.844 -3.174 -5.906 QT
-1.885 -3.969 -1.885 -0.281 QT
-1.885 3.406 -3.174 5.344 QT
-4.463 7.281 -6.916 7.281 QT
-9.369 7.281 -10.666 5.344 QT
-11.963 3.406 -11.963 -0.281 QT
-11.963 -3.969 -10.666 -5.906 QT
-9.369 -7.844 -6.916 -7.844 QT
cp
f
GR
GS
[1 0 0 1 124 188.80952] CT
0.149 GC
N
-18.438 -5.859 M
-23.422 1.922 L
-18.438 1.922 L
-18.438 -5.859 L
cp
-18.953 -7.578 M
-16.484 -7.578 L
-16.484 1.922 L
-14.391 1.922 L
-14.391 3.563 L
-16.484 3.563 L
-16.484 7 L
-18.438 7 L
-18.438 3.563 L
-25.016 3.563 L
-25.016 1.656 L
-18.953 -7.578 L
cp
-6.916 -6.281 M
-8.447 -6.281 -9.213 -4.781 QT
-9.979 -3.281 -9.979 -0.281 QT
-9.979 2.719 -9.213 4.219 QT
-8.447 5.719 -6.916 5.719 QT
-5.385 5.719 -4.619 4.219 QT
-3.854 2.719 -3.854 -0.281 QT
-3.854 -3.281 -4.619 -4.781 QT
-5.385 -6.281 -6.916 -6.281 QT
cp
-6.916 -7.844 M
-4.463 -7.844 -3.174 -5.906 QT
-1.885 -3.969 -1.885 -0.281 QT
-1.885 3.406 -3.174 5.344 QT
-4.463 7.281 -6.916 7.281 QT
-9.369 7.281 -10.666 5.344 QT
-11.963 3.406 -11.963 -0.281 QT
-11.963 -3.969 -10.666 -5.906 QT
-9.369 -7.844 -6.916 -7.844 QT
cp
f
GR
GS
[1 0 0 1 124 138.71428] CT
0.149 GC
N
-19.391 -1.078 M
-20.719 -1.078 -21.5 -0.172 QT
-22.281 0.734 -22.281 2.328 QT
-22.281 3.891 -21.5 4.805 QT
-20.719 5.719 -19.391 5.719 QT
-18.063 5.719 -17.289 4.805 QT
-16.516 3.891 -16.516 2.328 QT
-16.516 0.734 -17.289 -0.172 QT
-18.063 -1.078 -19.391 -1.078 QT
cp
-15.484 -7.266 M
-15.484 -5.469 L
-16.219 -5.813 -16.977 -6 QT
-17.734 -6.188 -18.484 -6.188 QT
-20.438 -6.188 -21.469 -4.867 QT
-22.5 -3.547 -22.641 -0.875 QT
-22.063 -1.734 -21.195 -2.188 QT
-20.328 -2.641 -19.281 -2.641 QT
-17.078 -2.641 -15.805 -1.305 QT
-14.531 0.031 -14.531 2.328 QT
-14.531 4.563 -15.859 5.922 QT
-17.188 7.281 -19.391 7.281 QT
-21.922 7.281 -23.266 5.344 QT
-24.609 3.406 -24.609 -0.281 QT
-24.609 -3.734 -22.969 -5.789 QT
-21.328 -7.844 -18.563 -7.844 QT
-17.813 -7.844 -17.055 -7.695 QT
-16.297 -7.547 -15.484 -7.266 QT
cp
-6.916 -6.281 M
-8.447 -6.281 -9.213 -4.781 QT
-9.979 -3.281 -9.979 -0.281 QT
-9.979 2.719 -9.213 4.219 QT
-8.447 5.719 -6.916 5.719 QT
-5.385 5.719 -4.619 4.219 QT
-3.854 2.719 -3.854 -0.281 QT
-3.854 -3.281 -4.619 -4.781 QT
-5.385 -6.281 -6.916 -6.281 QT
cp
-6.916 -7.844 M
-4.463 -7.844 -3.174 -5.906 QT
-1.885 -3.969 -1.885 -0.281 QT
-1.885 3.406 -3.174 5.344 QT
-4.463 7.281 -6.916 7.281 QT
-9.369 7.281 -10.666 5.344 QT
-11.963 3.406 -11.963 -0.281 QT
-11.963 -3.969 -10.666 -5.906 QT
-9.369 -7.844 -6.916 -7.844 QT
cp
f
GR
GS
[1 0 0 1 124 88.61905] CT
0.149 GC
N
-19.641 0.078 M
-21.047 0.078 -21.852 0.828 QT
-22.656 1.578 -22.656 2.891 QT
-22.656 4.219 -21.852 4.969 QT
-21.047 5.719 -19.641 5.719 QT
-18.234 5.719 -17.422 4.961 QT
-16.609 4.203 -16.609 2.891 QT
-16.609 1.578 -17.414 0.828 QT
-18.219 0.078 -19.641 0.078 QT
cp
-21.609 -0.766 M
-22.891 -1.078 -23.594 -1.945 QT
-24.297 -2.813 -24.297 -4.063 QT
-24.297 -5.813 -23.055 -6.828 QT
-21.813 -7.844 -19.641 -7.844 QT
-17.469 -7.844 -16.227 -6.828 QT
-14.984 -5.813 -14.984 -4.063 QT
-14.984 -2.813 -15.695 -1.945 QT
-16.406 -1.078 -17.656 -0.766 QT
-16.234 -0.438 -15.438 0.531 QT
-14.641 1.5 -14.641 2.891 QT
-14.641 5.016 -15.938 6.148 QT
-17.234 7.281 -19.641 7.281 QT
-22.047 7.281 -23.344 6.148 QT
-24.641 5.016 -24.641 2.891 QT
-24.641 1.5 -23.844 0.531 QT
-23.047 -0.438 -21.609 -0.766 QT
cp
-22.344 -3.875 M
-22.344 -2.75 -21.633 -2.117 QT
-20.922 -1.484 -19.641 -1.484 QT
-18.375 -1.484 -17.656 -2.117 QT
-16.938 -2.75 -16.938 -3.875 QT
-16.938 -5.016 -17.656 -5.648 QT
-18.375 -6.281 -19.641 -6.281 QT
-20.922 -6.281 -21.633 -5.648 QT
-22.344 -5.016 -22.344 -3.875 QT
cp
-6.916 -6.281 M
-8.447 -6.281 -9.213 -4.781 QT
-9.979 -3.281 -9.979 -0.281 QT
-9.979 2.719 -9.213 4.219 QT
-8.447 5.719 -6.916 5.719 QT
-5.385 5.719 -4.619 4.219 QT
-3.854 2.719 -3.854 -0.281 QT
-3.854 -3.281 -4.619 -4.781 QT
-5.385 -6.281 -6.916 -6.281 QT
cp
-6.916 -7.844 M
-4.463 -7.844 -3.174 -5.906 QT
-1.885 -3.969 -1.885 -0.281 QT
-1.885 3.406 -3.174 5.344 QT
-4.463 7.281 -6.916 7.281 QT
-9.369 7.281 -10.666 5.344 QT
-11.963 3.406 -11.963 -0.281 QT
-11.963 -3.969 -10.666 -5.906 QT
-9.369 -7.844 -6.916 -7.844 QT
cp
f
GR
GS
[1 0 0 1 124 38.52381] CT
0.149 GC
N
-36.516 5.344 M
-33.297 5.344 L
-33.297 -5.781 L
-36.797 -5.078 L
-36.797 -6.875 L
-33.313 -7.578 L
-31.344 -7.578 L
-31.344 5.344 L
-28.125 5.344 L
-28.125 7 L
-36.516 7 L
-36.516 5.344 L
cp
-19.916 -6.281 M
-21.447 -6.281 -22.213 -4.781 QT
-22.979 -3.281 -22.979 -0.281 QT
-22.979 2.719 -22.213 4.219 QT
-21.447 5.719 -19.916 5.719 QT
-18.385 5.719 -17.619 4.219 QT
-16.854 2.719 -16.854 -0.281 QT
-16.854 -3.281 -17.619 -4.781 QT
-18.385 -6.281 -19.916 -6.281 QT
cp
-19.916 -7.844 M
-17.463 -7.844 -16.174 -5.906 QT
-14.885 -3.969 -14.885 -0.281 QT
-14.885 3.406 -16.174 5.344 QT
-17.463 7.281 -19.916 7.281 QT
-22.369 7.281 -23.666 5.344 QT
-24.963 3.406 -24.963 -0.281 QT
-24.963 -3.969 -23.666 -5.906 QT
-22.369 -7.844 -19.916 -7.844 QT
cp
-7.191 -6.281 M
-8.723 -6.281 -9.488 -4.781 QT
-10.254 -3.281 -10.254 -0.281 QT
-10.254 2.719 -9.488 4.219 QT
-8.723 5.719 -7.191 5.719 QT
-5.66 5.719 -4.895 4.219 QT
-4.129 2.719 -4.129 -0.281 QT
-4.129 -3.281 -4.895 -4.781 QT
-5.66 -6.281 -7.191 -6.281 QT
cp
-7.191 -7.844 M
-4.738 -7.844 -3.449 -5.906 QT
-2.16 -3.969 -2.16 -0.281 QT
-2.16 3.406 -3.449 5.344 QT
-4.738 7.281 -7.191 7.281 QT
-9.645 7.281 -10.941 5.344 QT
-12.238 3.406 -12.238 -0.281 QT
-12.238 -3.969 -10.941 -5.906 QT
-9.645 -7.844 -7.191 -7.844 QT
cp
f
GR
GS
[0 -1 1 0 82 157.49988] CT
0.149 GC
N
-113.063 -22.031 M
-99.5 -22.031 L
-99.5 -20.219 L
-105.188 -20.219 L
-105.188 -6 L
-107.375 -6 L
-107.375 -20.219 L
-113.063 -20.219 L
-113.063 -22.031 L
cp
-92.015 -12.047 M
-94.421 -12.047 -95.343 -11.5 QT
-96.265 -10.953 -96.265 -9.625 QT
-96.265 -8.578 -95.569 -7.961 QT
-94.874 -7.344 -93.687 -7.344 QT
-92.046 -7.344 -91.054 -8.508 QT
-90.062 -9.672 -90.062 -11.609 QT
-90.062 -12.047 L
-92.015 -12.047 L
cp
-88.077 -12.859 M
-88.077 -6 L
-90.062 -6 L
-90.062 -7.828 L
-90.733 -6.734 -91.741 -6.211 QT
-92.749 -5.688 -94.218 -5.688 QT
-96.062 -5.688 -97.147 -6.727 QT
-98.233 -7.766 -98.233 -9.5 QT
-98.233 -11.531 -96.874 -12.563 QT
-95.515 -13.594 -92.827 -13.594 QT
-90.062 -13.594 L
-90.062 -13.781 L
-90.062 -15.156 -90.952 -15.898 QT
-91.843 -16.641 -93.468 -16.641 QT
-94.499 -16.641 -95.476 -16.398 QT
-96.452 -16.156 -97.358 -15.656 QT
-97.358 -17.484 L
-96.28 -17.906 -95.257 -18.117 QT
-94.233 -18.328 -93.265 -18.328 QT
-90.655 -18.328 -89.366 -16.969 QT
-88.077 -15.609 -88.077 -12.859 QT
cp
-77.033 -16.188 M
-77.361 -16.375 -77.76 -16.469 QT
-78.158 -16.563 -78.627 -16.563 QT
-80.299 -16.563 -81.197 -15.469 QT
-82.096 -14.375 -82.096 -12.344 QT
-82.096 -6 L
-84.08 -6 L
-84.08 -18.031 L
-82.096 -18.031 L
-82.096 -16.156 L
-81.471 -17.266 -80.471 -17.797 QT
-79.471 -18.328 -78.049 -18.328 QT
-77.846 -18.328 -77.596 -18.297 QT
-77.346 -18.266 -77.049 -18.219 QT
-77.033 -16.188 L
cp
-67.051 -12.156 M
-67.051 -14.297 -67.934 -15.484 QT
-68.816 -16.672 -70.41 -16.672 QT
-72.004 -16.672 -72.895 -15.484 QT
-73.785 -14.297 -73.785 -12.156 QT
-73.785 -10.016 -72.895 -8.836 QT
-72.004 -7.656 -70.41 -7.656 QT
-68.816 -7.656 -67.934 -8.836 QT
-67.051 -10.016 -67.051 -12.156 QT
cp
-65.066 -7.5 M
-65.066 -4.422 -66.434 -2.922 QT
-67.801 -1.422 -70.613 -1.422 QT
-71.66 -1.422 -72.582 -1.578 QT
-73.504 -1.734 -74.363 -2.063 QT
-74.363 -3.984 L
-73.504 -3.5 -72.652 -3.281 QT
-71.801 -3.063 -70.926 -3.063 QT
-68.973 -3.063 -68.012 -4.078 QT
-67.051 -5.094 -67.051 -7.141 QT
-67.051 -8.109 L
-67.66 -7.047 -68.613 -6.523 QT
-69.566 -6 -70.895 -6 QT
-73.113 -6 -74.465 -7.688 QT
-75.816 -9.375 -75.816 -12.156 QT
-75.816 -14.953 -74.465 -16.641 QT
-73.113 -18.328 -70.895 -18.328 QT
-69.566 -18.328 -68.613 -17.797 QT
-67.66 -17.266 -67.051 -16.203 QT
-67.051 -18.031 L
-65.066 -18.031 L
-65.066 -7.5 L
cp
-50.711 -12.516 M
-50.711 -11.547 L
-59.789 -11.547 L
-59.664 -9.5 -58.563 -8.43 QT
-57.461 -7.359 -55.492 -7.359 QT
-54.352 -7.359 -53.289 -7.641 QT
-52.227 -7.922 -51.164 -8.484 QT
-51.164 -6.609 L
-52.227 -6.156 -53.344 -5.922 QT
-54.461 -5.688 -55.617 -5.688 QT
-58.492 -5.688 -60.172 -7.367 QT
-61.852 -9.047 -61.852 -11.891 QT
-61.852 -14.859 -60.258 -16.594 QT
-58.664 -18.328 -55.961 -18.328 QT
-53.523 -18.328 -52.117 -16.766 QT
-50.711 -15.203 -50.711 -12.516 QT
cp
-52.68 -13.094 M
-52.711 -14.719 -53.594 -15.68 QT
-54.477 -16.641 -55.93 -16.641 QT
-57.586 -16.641 -58.586 -15.711 QT
-59.586 -14.781 -59.727 -13.078 QT
-52.68 -13.094 L
cp
-45.504 -21.453 M
-45.504 -18.031 L
-41.441 -18.031 L
-41.441 -16.5 L
-45.504 -16.5 L
-45.504 -9.969 L
-45.504 -8.5 -45.105 -8.078 QT
-44.707 -7.656 -43.473 -7.656 QT
-41.441 -7.656 L
-41.441 -6 L
-43.473 -6 L
-45.754 -6 -46.621 -6.852 QT
-47.488 -7.703 -47.488 -9.969 QT
-47.488 -16.5 L
-48.941 -16.5 L
-48.941 -18.031 L
-47.488 -18.031 L
-47.488 -21.453 L
-45.504 -21.453 L
cp
-31.159 -17.672 M
-31.159 -15.813 L
-32.003 -16.234 -32.909 -16.453 QT
-33.815 -16.672 -34.769 -16.672 QT
-36.253 -16.672 -36.987 -16.219 QT
-37.722 -15.766 -37.722 -14.859 QT
-37.722 -14.172 -37.19 -13.781 QT
-36.659 -13.391 -35.081 -13.031 QT
-34.394 -12.891 L
-32.3 -12.438 -31.409 -11.617 QT
-30.519 -10.797 -30.519 -9.313 QT
-30.519 -7.641 -31.847 -6.664 QT
-33.175 -5.688 -35.487 -5.688 QT
-36.456 -5.688 -37.503 -5.875 QT
-38.55 -6.063 -39.722 -6.438 QT
-39.722 -8.484 L
-38.628 -7.906 -37.558 -7.625 QT
-36.487 -7.344 -35.456 -7.344 QT
-34.05 -7.344 -33.3 -7.82 QT
-32.55 -8.297 -32.55 -9.172 QT
-32.55 -9.969 -33.097 -10.398 QT
-33.644 -10.828 -35.472 -11.234 QT
-36.159 -11.391 L
-38.003 -11.781 -38.815 -12.578 QT
-39.628 -13.375 -39.628 -14.781 QT
-39.628 -16.469 -38.425 -17.398 QT
-37.222 -18.328 -35.019 -18.328 QT
-33.909 -18.328 -32.948 -18.164 QT
-31.987 -18 -31.159 -17.672 QT
cp
-13.407 -16.188 M
-13.735 -16.375 -14.134 -16.469 QT
-14.532 -16.563 -15.001 -16.563 QT
-16.673 -16.563 -17.571 -15.469 QT
-18.47 -14.375 -18.47 -12.344 QT
-18.47 -6 L
-20.454 -6 L
-20.454 -18.031 L
-18.47 -18.031 L
-18.47 -16.156 L
-17.845 -17.266 -16.845 -17.797 QT
-15.845 -18.328 -14.423 -18.328 QT
-14.22 -18.328 -13.97 -18.297 QT
-13.72 -18.266 -13.423 -18.219 QT
-13.407 -16.188 L
cp
-1.05 -12.516 M
-1.05 -11.547 L
-10.128 -11.547 L
-10.003 -9.5 -8.901 -8.43 QT
-7.8 -7.359 -5.831 -7.359 QT
-4.69 -7.359 -3.628 -7.641 QT
-2.565 -7.922 -1.503 -8.484 QT
-1.503 -6.609 L
-2.565 -6.156 -3.683 -5.922 QT
-4.8 -5.688 -5.956 -5.688 QT
-8.831 -5.688 -10.511 -7.367 QT
-12.19 -9.047 -12.19 -11.891 QT
-12.19 -14.859 -10.597 -16.594 QT
-9.003 -18.328 -6.3 -18.328 QT
-3.862 -18.328 -2.456 -16.766 QT
-1.05 -15.203 -1.05 -12.516 QT
cp
-3.019 -13.094 M
-3.05 -14.719 -3.933 -15.68 QT
-4.815 -16.641 -6.269 -16.641 QT
-7.925 -16.641 -8.925 -15.711 QT
-9.925 -14.781 -10.065 -13.078 QT
-3.019 -13.094 L
cp
7.673 -12.047 M
5.267 -12.047 4.345 -11.5 QT
3.423 -10.953 3.423 -9.625 QT
3.423 -8.578 4.118 -7.961 QT
4.813 -7.344 6.001 -7.344 QT
7.642 -7.344 8.634 -8.508 QT
9.626 -9.672 9.626 -11.609 QT
9.626 -12.047 L
7.673 -12.047 L
cp
11.61 -12.859 M
11.61 -6 L
9.626 -6 L
9.626 -7.828 L
8.954 -6.734 7.946 -6.211 QT
6.938 -5.688 5.47 -5.688 QT
3.626 -5.688 2.54 -6.727 QT
1.454 -7.766 1.454 -9.5 QT
1.454 -11.531 2.813 -12.563 QT
4.173 -13.594 6.86 -13.594 QT
9.626 -13.594 L
9.626 -13.781 L
9.626 -15.156 8.735 -15.898 QT
7.845 -16.641 6.22 -16.641 QT
5.188 -16.641 4.212 -16.398 QT
3.235 -16.156 2.329 -15.656 QT
2.329 -17.484 L
3.407 -17.906 4.431 -18.117 QT
5.454 -18.328 6.423 -18.328 QT
9.032 -18.328 10.321 -16.969 QT
11.61 -15.609 11.61 -12.859 QT
cp
24.342 -17.563 M
24.342 -15.719 L
23.498 -16.188 22.654 -16.414 QT
21.811 -16.641 20.951 -16.641 QT
19.029 -16.641 17.967 -15.422 QT
16.904 -14.203 16.904 -12 QT
16.904 -9.797 17.967 -8.578 QT
19.029 -7.359 20.951 -7.359 QT
21.811 -7.359 22.654 -7.594 QT
23.498 -7.828 24.342 -8.281 QT
24.342 -6.469 L
23.514 -6.078 22.623 -5.883 QT
21.732 -5.688 20.748 -5.688 QT
18.029 -5.688 16.428 -7.398 QT
14.826 -9.109 14.826 -12 QT
14.826 -14.953 16.443 -16.641 QT
18.061 -18.328 20.873 -18.328 QT
21.779 -18.328 22.654 -18.141 QT
23.529 -17.953 24.342 -17.563 QT
cp
37.781 -13.266 M
37.781 -6 L
35.797 -6 L
35.797 -13.203 L
35.797 -14.906 35.133 -15.758 QT
34.469 -16.609 33.141 -16.609 QT
31.531 -16.609 30.609 -15.586 QT
29.688 -14.563 29.688 -12.797 QT
29.688 -6 L
27.703 -6 L
27.703 -22.719 L
29.688 -22.719 L
29.688 -16.156 L
30.391 -17.25 31.359 -17.789 QT
32.328 -18.328 33.578 -18.328 QT
35.656 -18.328 36.719 -17.039 QT
37.781 -15.75 37.781 -13.266 QT
cp
52.006 -12.516 M
52.006 -11.547 L
42.928 -11.547 L
43.053 -9.5 44.154 -8.43 QT
45.256 -7.359 47.225 -7.359 QT
48.365 -7.359 49.428 -7.641 QT
50.49 -7.922 51.553 -8.484 QT
51.553 -6.609 L
50.49 -6.156 49.373 -5.922 QT
48.256 -5.688 47.1 -5.688 QT
44.225 -5.688 42.545 -7.367 QT
40.865 -9.047 40.865 -11.891 QT
40.865 -14.859 42.459 -16.594 QT
44.053 -18.328 46.756 -18.328 QT
49.193 -18.328 50.6 -16.766 QT
52.006 -15.203 52.006 -12.516 QT
cp
50.037 -13.094 M
50.006 -14.719 49.123 -15.68 QT
48.24 -16.641 46.787 -16.641 QT
45.131 -16.641 44.131 -15.711 QT
43.131 -14.781 42.99 -13.078 QT
50.037 -13.094 L
cp
63.166 -16.203 M
63.166 -22.719 L
65.15 -22.719 L
65.15 -6 L
63.166 -6 L
63.166 -7.813 L
62.557 -6.734 61.604 -6.211 QT
60.65 -5.688 59.322 -5.688 QT
57.135 -5.688 55.768 -7.43 QT
54.4 -9.172 54.4 -12 QT
54.4 -14.844 55.768 -16.586 QT
57.135 -18.328 59.322 -18.328 QT
60.65 -18.328 61.604 -17.805 QT
62.557 -17.281 63.166 -16.203 QT
cp
56.432 -12 M
56.432 -9.828 57.33 -8.586 QT
58.229 -7.344 59.807 -7.344 QT
61.369 -7.344 62.268 -8.586 QT
63.166 -9.828 63.166 -12 QT
63.166 -14.188 62.268 -15.43 QT
61.369 -16.672 59.807 -16.672 QT
58.229 -16.672 57.33 -15.43 QT
56.432 -14.188 56.432 -12 QT
cp
76.03 -22.719 M
80.593 -22.719 L
80.593 -21.172 L
78.015 -21.172 L
78.015 -4.641 L
80.593 -4.641 L
80.593 -3.094 L
76.03 -3.094 L
76.03 -22.719 L
cp
98.723 -13.063 M
97.785 -13.063 97.254 -12.266 QT
96.723 -11.469 96.723 -10.047 QT
96.723 -8.656 97.254 -7.852 QT
97.785 -7.047 98.723 -7.047 QT
99.629 -7.047 100.16 -7.852 QT
100.691 -8.656 100.691 -10.047 QT
100.691 -11.453 100.16 -12.258 QT
99.629 -13.063 98.723 -13.063 QT
cp
98.723 -14.422 M
100.41 -14.422 101.41 -13.242 QT
102.41 -12.063 102.41 -10.047 QT
102.41 -8.047 101.41 -6.867 QT
100.41 -5.688 98.723 -5.688 QT
97.004 -5.688 96.004 -6.867 QT
95.004 -8.047 95.004 -10.047 QT
95.004 -12.063 96.004 -13.242 QT
97.004 -14.422 98.723 -14.422 QT
cp
87.629 -20.969 M
86.707 -20.969 86.176 -20.164 QT
85.645 -19.359 85.645 -17.969 QT
85.645 -16.547 86.168 -15.75 QT
86.691 -14.953 87.629 -14.953 QT
88.566 -14.953 89.098 -15.75 QT
89.629 -16.547 89.629 -17.969 QT
89.629 -19.359 89.09 -20.164 QT
88.551 -20.969 87.629 -20.969 QT
cp
97.332 -22.328 M
99.051 -22.328 L
89.02 -5.688 L
87.301 -5.688 L
97.332 -22.328 L
cp
87.629 -22.328 M
89.332 -22.328 90.34 -21.148 QT
91.348 -19.969 91.348 -17.969 QT
91.348 -15.938 90.348 -14.766 QT
89.348 -13.594 87.629 -13.594 QT
85.926 -13.594 84.934 -14.773 QT
83.941 -15.953 83.941 -17.969 QT
83.941 -19.969 84.941 -21.148 QT
85.941 -22.328 87.629 -22.328 QT
cp
110.314 -22.719 M
110.314 -3.094 L
105.768 -3.094 L
105.768 -4.641 L
108.33 -4.641 L
108.33 -21.172 L
105.768 -21.172 L
105.768 -22.719 L
110.314 -22.719 L
cp
f
GR
GS
0 0.447 0.741 RC
1 LJ
0.5 LW
N
169.525 115.593 M
169.913 56.415 L
170.3 71.921 L
170.688 101.143 L
171.075 110.088 L
171.462 69.833 L
171.85 96.326 L
172.238 152.377 L
172.625 105.317 L
173.012 80.27 L
173.4 96.326 L
173.788 91.256 L
174.175 97.459 L
174.563 78.073 L
174.95 129.606 L
175.337 66.355 L
175.725 38.524 L
176.113 46.351 L
176.5 49.909 L
176.887 67.992 L
177.275 80.27 L
177.663 113.667 L
178.05 112.193 L
178.438 67.992 L
178.825 61.294 L
179.212 61.294 L
179.6 38.524 L
179.988 71.921 L
180.375 48.543 L
180.762 66.355 L
181.15 45.115 L
181.538 101.143 L
181.925 58.562 L
182.313 38.524 L
182.7 54.684 L
183.087 48.96 L
183.475 38.524 L
183.863 38.524 L
184.25 48.543 L
184.637 45.891 L
185.025 38.524 L
185.413 46.604 L
185.8 38.524 L
186.188 38.524 L
186.575 50.174 L
186.962 38.524 L
187.35 38.524 L
187.738 38.524 L
188.125 45.68 L
188.512 38.524 L
188.9 38.524 L
189.288 43.078 L
189.675 38.524 L
190.063 45.115 L
190.45 38.524 L
190.837 38.524 L
191.225 38.524 L
191.613 38.524 L
192 38.524 L
192.387 44.216 L
192.775 38.524 L
193.163 38.524 L
193.55 46.351 L
193.938 38.524 L
194.325 49.414 L
194.712 38.524 L
195.1 47.801 L
195.488 45.115 L
195.875 38.524 L
196.262 38.524 L
196.65 38.524 L
197.038 38.524 L
197.425 38.524 L
197.813 38.524 L
198.2 38.524 L
198.587 38.524 L
198.975 46.351 L
199.363 38.524 L
199.75 38.524 L
200.137 38.524 L
200.525 63.571 L
200.913 49.909 L
201.3 38.524 L
201.688 48.543 L
202.075 47.469 L
202.462 47.801 L
202.85 47.801 L
203.238 38.524 L
203.625 38.524 L
204.012 38.524 L
204.4 59.397 L
204.788 38.524 L
205.175 48.96 L
205.563 52.439 L
205.95 38.524 L
206.337 38.524 L
206.725 38.524 L
207.113 52.439 L
207.5 38.524 L
207.887 38.524 L
208.275 38.524 L
208.663 51.707 L
209.05 54.179 L
209.438 38.524 L
209.825 38.524 L
210.212 49.414 L
210.6 61.294 L
210.988 51.707 L
211.375 50.451 L
211.762 51.048 L
212.15 49.909 L
212.538 49.909 L
212.925 38.524 L
213.313 38.524 L
213.7 49.414 L
214.087 48.158 L
214.475 38.524 L
214.863 49.414 L
215.25 51.707 L
215.637 38.524 L
216.025 38.524 L
216.413 53.258 L
216.8 38.524 L
217.188 38.524 L
217.575 38.524 L
217.962 38.524 L
218.35 38.524 L
218.738 38.524 L
219.125 38.524 L
219.512 51.707 L
219.9 49.414 L
220.288 48.543 L
220.675 49.414 L
221.063 66.355 L
221.45 38.524 L
221.837 38.524 L
222.225 58.562 L
222.613 38.524 L
223 64.89 L
223.387 38.524 L
223.775 60.304 L
224.163 38.524 L
224.55 38.524 L
224.938 48.158 L
225.325 38.524 L
225.712 49.909 L
226.1 51.707 L
226.488 38.524 L
226.875 66.355 L
227.262 38.524 L
227.65 38.524 L
228.038 69.833 L
228.425 48.96 L
228.813 50.451 L
229.2 38.524 L
229.587 51.048 L
229.975 60.304 L
230.363 64.89 L
230.75 38.524 L
231.137 47.801 L
231.525 38.524 L
231.913 51.048 L
232.3 51.707 L
232.688 63.571 L
233.075 38.524 L
233.462 52.439 L
233.85 49.909 L
234.238 38.524 L
234.625 47.161 L
235.012 51.048 L
235.4 50.451 L
235.788 48.543 L
236.175 46.873 L
236.563 69.833 L
236.95 38.524 L
237.337 38.524 L
237.725 38.524 L
238.113 38.524 L
238.5 48.96 L
238.887 49.909 L
239.275 48.96 L
239.663 38.524 L
240.05 51.048 L
240.438 38.524 L
240.825 38.524 L
241.212 53.258 L
241.6 38.524 L
241.988 88.619 L
242.375 51.048 L
242.762 38.524 L
243.15 51.048 L
243.538 127.98 L
243.925 51.048 L
244.313 59.397 L
244.7 38.524 L
245.087 38.524 L
245.475 38.524 L
245.863 38.524 L
246.25 38.524 L
246.637 38.524 L
247.025 69.833 L
247.413 38.524 L
247.8 38.524 L
248.188 52.439 L
248.575 38.524 L
248.962 52.439 L
249.35 54.179 L
249.738 51.048 L
250.125 52.439 L
250.512 51.048 L
250.9 38.524 L
251.288 96.326 L
251.675 52.439 L
252.063 53.258 L
252.45 38.524 L
252.837 38.524 L
253.225 38.524 L
253.613 55.222 L
254 38.524 L
254.387 59.397 L
254.775 66.355 L
255.163 85.488 L
255.55 52.439 L
255.938 38.524 L
256.325 38.524 L
256.712 77.059 L
257.1 66.355 L
257.487 69.833 L
257.875 38.524 L
258.263 77.059 L
258.65 38.524 L
259.038 38.524 L
259.425 88.619 L
259.813 38.524 L
260.2 85.488 L
260.587 62.379 L
260.975 52.439 L
261.362 54.179 L
261.75 38.524 L
262.138 38.524 L
262.525 38.524 L
262.913 38.524 L
263.3 80.27 L
263.688 77.059 L
264.075 38.524 L
264.462 74.306 L
264.85 53.258 L
265.237 64.89 L
265.625 88.619 L
266.013 96.326 L
266.4 51.048 L
266.788 55.222 L
267.175 55.222 L
267.563 38.524 L
267.95 106.836 L
268.337 96.326 L
268.725 64.89 L
269.112 67.992 L
269.5 38.524 L
269.888 38.524 L
270.275 74.306 L
270.663 74.306 L
271.05 97.459 L
271.438 129.606 L
271.825 101.143 L
272.212 115.593 L
272.6 38.524 L
272.987 77.059 L
273.375 88.619 L
273.763 80.27 L
274.15 105.317 L
274.538 66.355 L
274.925 96.326 L
275.313 127.98 L
275.7 138.714 L
276.087 106.836 L
276.475 69.833 L
276.862 92.197 L
277.25 101.143 L
277.638 163.762 L
278.025 122.016 L
278.413 69.833 L
278.8 56.415 L
279.188 101.143 L
279.575 55.222 L
279.962 152.377 L
280.35 55.222 L
280.737 74.306 L
281.125 56.415 L
281.513 69.833 L
281.9 71.921 L
282.288 51.707 L
282.675 56.415 L
283.063 113.667 L
283.45 115.593 L
283.837 74.306 L
284.225 96.326 L
284.612 64.89 L
285 92.197 L
285.388 38.524 L
285.775 106.836 L
286.163 122.016 L
286.55 96.326 L
286.938 106.836 L
287.325 67.992 L
287.712 77.059 L
288.1 84.065 L
288.487 96.326 L
288.875 57.791 L
289.263 163.762 L
289.65 38.524 L
290.038 77.059 L
290.425 110.088 L
290.813 253.218 L
291.2 67.992 L
291.587 92.197 L
291.975 101.143 L
292.362 122.016 L
292.75 57.791 L
293.138 69.833 L
293.525 96.326 L
293.913 253.218 L
294.3 101.143 L
294.688 77.059 L
295.075 149.847 L
295.462 38.524 L
295.85 217.435 L
296.237 69.833 L
296.625 101.143 L
297.013 177.677 L
297.4 96.326 L
297.788 113.667 L
298.175 129.606 L
298.563 105.317 L
298.95 129.606 L
299.337 85.488 L
299.725 67.992 L
300.112 106.836 L
300.5 127.98 L
300.888 66.355 L
301.275 122.016 L
301.663 84.065 L
302.05 92.197 L
302.438 134.861 L
302.825 106.836 L
303.212 101.143 L
303.6 38.524 L
303.987 195.071 L
304.375 163.762 L
304.763 110.088 L
305.15 113.667 L
305.538 127.98 L
305.925 163.762 L
306.313 129.606 L
306.7 71.921 L
307.087 56.415 L
307.475 152.377 L
307.862 71.921 L
308.25 122.016 L
308.638 152.377 L
309.025 84.065 L
309.413 163.762 L
309.8 52.439 L
310.188 101.143 L
310.575 101.143 L
310.962 163.762 L
311.35 195.071 L
311.737 177.677 L
312.125 134.861 L
312.513 177.677 L
312.9 129.606 L
313.288 67.992 L
313.675 74.306 L
314.063 85.488 L
314.45 69.833 L
314.837 63.571 L
315.225 77.059 L
315.612 149.847 L
316 101.143 L
316.388 71.921 L
316.775 195.071 L
317.163 57.791 L
317.55 59.397 L
317.938 56.415 L
318.325 115.593 L
318.712 55.222 L
319.1 92.197 L
319.487 226.381 L
319.875 96.326 L
320.263 181.653 L
320.65 62.379 L
321.038 51.707 L
321.425 129.606 L
321.813 61.294 L
322.2 69.833 L
322.587 71.921 L
322.975 110.088 L
323.362 115.593 L
323.75 101.143 L
324.138 134.861 L
324.525 122.016 L
324.913 205.508 L
325.3 71.921 L
325.688 138.714 L
326.075 115.593 L
326.462 92.197 L
326.85 101.143 L
327.237 138.714 L
327.625 71.921 L
328.013 101.143 L
328.4 88.619 L
328.788 138.714 L
329.175 205.508 L
329.563 113.667 L
329.95 132.452 L
330.337 163.762 L
330.725 106.836 L
331.112 129.606 L
331.5 106.836 L
331.888 110.088 L
332.275 122.016 L
332.663 88.619 L
333.05 92.197 L
333.438 84.065 L
333.825 233.339 L
334.212 88.619 L
334.6 115.593 L
334.987 138.714 L
335.375 56.415 L
335.763 54.179 L
336.15 115.593 L
336.538 181.653 L
336.925 138.714 L
337.313 134.861 L
337.7 84.065 L
338.087 226.381 L
338.475 205.508 L
338.862 177.677 L
339.25 122.016 L
339.638 138.714 L
340.025 149.847 L
340.413 96.326 L
340.8 78.073 L
341.188 54.179 L
341.575 129.606 L
341.962 163.762 L
342.35 113.667 L
342.737 96.326 L
343.125 122.016 L
343.513 85.488 L
343.9 74.306 L
344.288 152.377 L
344.675 195.071 L
345.063 85.488 L
345.45 177.677 L
345.837 195.071 L
346.225 77.059 L
346.612 163.762 L
347 177.677 L
347.388 138.714 L
347.775 138.714 L
348.163 195.071 L
348.55 55.222 L
348.938 82.725 L
349.325 132.452 L
349.712 88.619 L
350.1 96.326 L
350.487 152.377 L
350.875 138.714 L
351.263 71.921 L
351.65 88.619 L
352.038 152.377 L
352.425 122.016 L
352.813 142.889 L
353.2 177.677 L
353.587 149.847 L
353.975 163.762 L
354.362 138.714 L
354.75 110.088 L
355.138 152.377 L
355.525 129.606 L
355.913 115.593 L
356.3 132.452 L
356.688 195.071 L
357.075 195.071 L
357.462 101.143 L
357.85 233.339 L
358.237 122.016 L
358.625 106.836 L
359.013 132.452 L
359.4 163.762 L
359.788 138.714 L
360.175 177.677 L
360.563 181.653 L
360.95 145.871 L
361.337 217.435 L
361.725 195.071 L
362.112 113.667 L
362.5 195.071 L
362.888 205.508 L
363.275 113.667 L
363.663 96.326 L
364.05 101.143 L
364.438 142.889 L
364.825 122.016 L
365.212 138.714 L
365.6 177.677 L
365.987 122.016 L
366.375 188.81 L
366.763 195.071 L
367.15 175.147 L
367.538 149.847 L
367.925 163.762 L
368.313 188.81 L
368.7 122.016 L
369.087 113.667 L
369.475 205.508 L
369.862 188.81 L
370.25 105.317 L
370.638 163.762 L
371.025 113.667 L
371.413 129.606 L
371.8 106.836 L
372.188 163.762 L
372.575 96.326 L
372.962 163.762 L
373.35 226.381 L
373.737 129.606 L
374.125 205.508 L
374.513 129.606 L
374.9 217.435 L
375.288 163.762 L
375.675 181.653 L
376.063 177.677 L
376.45 142.889 L
376.837 142.889 L
377.225 152.377 L
377.612 195.071 L
378 94.185 L
378.388 149.847 L
378.775 115.593 L
379.163 205.508 L
379.55 253.218 L
379.938 163.762 L
380.325 195.071 L
380.712 195.071 L
381.1 113.667 L
381.487 253.218 L
381.875 122.016 L
382.263 92.197 L
382.65 106.836 L
383.038 163.762 L
383.425 217.435 L
383.813 152.377 L
384.2 195.071 L
384.587 205.508 L
384.975 110.088 L
385.362 205.508 L
385.75 122.016 L
386.138 113.667 L
386.525 253.218 L
386.913 122.016 L
387.3 149.847 L
387.688 142.889 L
388.075 96.326 L
388.462 195.071 L
388.85 205.508 L
389.237 188.81 L
389.625 226.381 L
390.013 175.147 L
390.4 152.377 L
390.788 113.667 L
391.175 177.677 L
391.563 152.377 L
391.95 177.677 L
392.337 205.508 L
392.725 163.762 L
393.112 253.218 L
393.5 217.435 L
393.888 253.218 L
394.275 257.69 L
394.663 195.071 L
395.05 289 L
395.438 226.381 L
395.825 177.677 L
396.212 253.218 L
396.6 217.435 L
396.987 253.218 L
397.375 226.381 L
397.763 195.071 L
398.15 188.81 L
398.538 205.508 L
398.925 122.016 L
399.313 152.377 L
399.7 129.606 L
400.087 177.677 L
400.475 113.667 L
400.862 149.847 L
401.25 177.677 L
401.638 122.016 L
402.025 163.762 L
402.413 138.714 L
402.8 253.218 L
403.188 129.606 L
403.575 163.762 L
403.962 134.861 L
404.35 195.071 L
404.737 205.508 L
405.125 129.606 L
405.513 177.677 L
405.9 115.593 L
406.288 152.377 L
406.675 152.377 L
407.063 115.593 L
407.45 253.218 L
407.837 226.381 L
408.225 134.861 L
408.612 134.861 L
409 205.508 L
409.388 149.847 L
409.775 142.889 L
410.163 138.714 L
410.55 142.889 L
410.938 226.381 L
411.325 177.677 L
411.712 110.088 L
412.1 149.847 L
412.487 233.339 L
412.875 106.836 L
413.263 163.762 L
413.65 226.381 L
414.038 177.677 L
414.425 177.677 L
414.813 205.508 L
415.2 177.677 L
415.587 152.377 L
415.975 195.071 L
416.362 253.218 L
416.75 149.847 L
417.138 163.762 L
417.525 163.762 L
417.913 181.653 L
418.3 175.147 L
418.688 88.619 L
419.075 138.714 L
419.462 84.065 L
419.85 134.861 L
420.237 138.714 L
420.625 163.762 L
421.013 138.714 L
421.4 175.147 L
421.788 129.606 L
422.175 195.071 L
422.563 177.677 L
422.95 96.326 L
423.337 226.381 L
423.725 122.016 L
424.112 129.606 L
424.5 163.762 L
424.888 195.071 L
425.275 205.508 L
425.663 142.889 L
426.05 188.81 L
426.438 177.677 L
426.825 205.508 L
427.212 163.762 L
427.6 149.847 L
427.987 177.677 L
428.375 253.218 L
428.763 149.847 L
429.15 110.088 L
429.538 152.377 L
429.925 80.27 L
430.313 149.847 L
430.7 112.193 L
431.087 163.762 L
431.475 205.508 L
431.862 129.606 L
432.25 101.143 L
432.638 122.016 L
433.025 149.847 L
433.413 205.508 L
433.8 122.016 L
434.188 226.381 L
434.575 217.435 L
434.962 233.339 L
435.35 163.762 L
435.737 226.381 L
436.125 152.377 L
436.513 205.508 L
436.9 195.071 L
437.288 289 L
437.675 195.071 L
438.063 138.714 L
438.45 152.377 L
438.837 177.677 L
439.225 69.833 L
439.612 138.714 L
440 163.762 L
440.388 163.762 L
440.775 177.677 L
441.163 142.889 L
441.55 205.508 L
441.938 177.677 L
442.325 289 L
442.712 177.677 L
443.1 138.714 L
443.487 226.381 L
443.875 195.071 L
444.263 195.071 L
444.65 163.762 L
445.038 188.81 L
445.425 195.071 L
445.813 101.143 L
446.2 226.381 L
446.587 138.714 L
446.975 177.677 L
447.362 163.762 L
447.75 177.677 L
448.138 138.714 L
448.525 205.508 L
448.913 177.677 L
449.3 175.147 L
449.688 195.071 L
450.075 163.762 L
450.462 129.606 L
450.85 188.81 L
451.237 177.677 L
451.625 177.677 L
452.013 195.071 L
452.4 110.088 L
452.788 152.377 L
453.175 217.435 L
453.563 175.147 L
453.95 177.677 L
454.337 129.606 L
454.725 115.593 L
455.112 163.762 L
455.5 152.377 L
455.888 226.381 L
456.275 163.762 L
456.663 205.508 L
457.05 226.381 L
457.438 188.81 L
457.825 226.381 L
458.212 177.677 L
458.6 142.889 L
458.987 253.218 L
459.375 163.762 L
459.763 195.071 L
460.15 145.871 L
460.538 177.677 L
460.925 96.326 L
461.313 205.508 L
461.7 101.143 L
462.087 226.381 L
462.475 129.606 L
462.862 110.088 L
463.25 163.762 L
463.638 106.836 L
464.025 226.381 L
464.413 177.677 L
464.8 149.847 L
465.188 163.762 L
465.575 163.762 L
465.962 253.218 L
466.35 106.836 L
466.737 195.071 L
467.125 177.677 L
467.513 188.81 L
467.9 142.889 L
468.288 106.836 L
468.675 129.606 L
469.063 122.016 L
469.45 175.147 L
469.837 115.593 L
470.225 138.714 L
470.612 92.197 L
471 138.714 L
471.388 205.508 L
471.775 92.197 L
472.163 138.714 L
472.55 77.059 L
472.938 152.377 L
473.325 134.861 L
473.712 195.071 L
474.1 289 L
474.487 122.016 L
474.875 177.677 L
475.263 163.762 L
475.65 152.377 L
476.038 188.81 L
476.425 177.677 L
476.813 142.889 L
477.2 96.326 L
477.587 163.762 L
477.975 101.143 L
478.362 138.714 L
478.75 152.377 L
479.138 188.81 L
479.525 129.606 L
479.913 106.836 L
480.3 253.218 L
480.688 142.889 L
481.075 195.071 L
481.462 138.714 L
481.85 152.377 L
482.237 110.088 L
482.625 113.667 L
483.013 152.377 L
483.4 163.762 L
483.788 163.762 L
484.175 142.889 L
484.563 138.714 L
484.95 226.381 L
485.337 129.606 L
485.725 177.677 L
486.112 226.381 L
486.5 106.836 L
486.888 177.677 L
487.275 205.508 L
487.663 122.016 L
488.05 163.762 L
488.438 163.762 L
488.825 96.326 L
489.212 122.016 L
489.6 253.218 L
489.987 138.714 L
490.375 177.677 L
490.763 129.606 L
491.15 106.836 L
491.538 177.677 L
491.925 226.381 L
492.313 80.27 L
492.7 163.762 L
493.087 163.762 L
493.475 177.677 L
493.862 195.071 L
494.25 163.762 L
494.638 106.836 L
495.025 177.677 L
495.413 113.667 L
495.8 152.377 L
496.188 226.381 L
496.575 177.677 L
496.962 129.606 L
497.35 257.69 L
497.737 195.071 L
498.125 226.381 L
498.513 122.016 L
498.9 177.677 L
499.288 163.762 L
499.675 142.889 L
500.063 122.016 L
500.45 138.714 L
500.837 226.381 L
501.225 177.677 L
501.612 122.016 L
502 152.377 L
502.388 195.071 L
502.775 195.071 L
503.163 226.381 L
503.55 289 L
503.938 163.762 L
504.325 142.889 L
504.712 177.677 L
505.1 195.071 L
505.487 115.593 L
505.875 177.677 L
506.263 289 L
506.65 226.381 L
507.038 163.762 L
507.425 152.377 L
507.813 217.435 L
508.2 129.606 L
508.587 129.606 L
508.975 163.762 L
509.362 163.762 L
509.75 96.326 L
510.138 205.508 L
510.525 106.836 L
510.913 132.452 L
511.3 163.762 L
511.688 122.016 L
512.075 122.016 L
512.463 163.762 L
512.85 122.016 L
513.237 152.377 L
513.625 134.861 L
514.013 152.377 L
514.4 115.593 L
514.787 134.861 L
515.175 195.071 L
515.563 163.762 L
515.95 163.762 L
516.338 163.762 L
516.725 226.381 L
517.112 163.762 L
517.5 175.147 L
517.888 122.016 L
518.275 106.836 L
518.662 152.377 L
519.05 122.016 L
519.438 106.836 L
519.825 129.606 L
520.213 177.677 L
520.6 195.071 L
520.987 149.847 L
521.375 163.762 L
521.763 195.071 L
522.15 253.218 L
522.537 205.508 L
522.925 253.218 L
523.313 149.847 L
523.7 226.381 L
524.088 226.381 L
524.475 226.381 L
524.862 154.128 L
525.25 127.98 L
525.638 134.861 L
526.025 142.889 L
526.412 177.677 L
526.8 177.677 L
527.188 142.889 L
527.575 149.847 L
527.963 92.197 L
528.35 177.677 L
528.737 152.377 L
529.125 88.619 L
529.513 163.762 L
529.9 113.667 L
530.287 92.197 L
530.675 129.606 L
531.063 195.071 L
531.45 226.381 L
531.838 142.889 L
532.225 163.762 L
532.612 142.889 L
533 138.714 L
533.388 163.762 L
533.775 110.088 L
534.162 163.762 L
534.55 152.377 L
534.938 163.762 L
535.325 163.762 L
535.713 106.836 L
536.1 122.016 L
536.487 80.27 L
536.875 101.143 L
537.263 289 L
537.65 195.071 L
538.037 149.847 L
538.425 226.381 L
538.813 129.606 L
539.2 205.508 L
539.588 149.847 L
539.975 152.377 L
540.362 226.381 L
540.75 110.088 L
541.138 80.27 L
541.525 163.762 L
541.912 195.071 L
542.3 163.762 L
542.688 138.714 L
543.075 115.593 L
543.463 175.147 L
543.85 152.377 L
544.237 134.861 L
544.625 138.714 L
545.013 129.606 L
545.4 122.016 L
545.787 129.606 L
546.175 163.762 L
546.563 122.016 L
546.95 88.619 L
547.338 163.762 L
547.725 96.326 L
548.112 134.861 L
548.5 106.836 L
548.888 129.606 L
549.275 152.377 L
549.662 92.197 L
550.05 122.016 L
550.438 152.377 L
550.825 129.606 L
551.213 175.147 L
551.6 129.606 L
551.987 152.377 L
552.375 181.653 L
552.763 96.326 L
553.15 163.762 L
553.537 122.016 L
553.925 142.889 L
554.313 253.218 L
554.7 226.381 L
555.088 152.377 L
555.475 177.677 L
555.862 138.714 L
556.25 106.836 L
556.638 138.714 L
557.025 129.606 L
557.412 142.889 L
557.8 226.381 L
558.188 163.762 L
558.575 101.143 L
558.963 177.677 L
559.35 122.016 L
559.737 134.861 L
560.125 138.714 L
560.513 122.016 L
560.9 195.071 L
561.287 92.197 L
561.675 152.377 L
562.063 106.836 L
562.45 177.677 L
562.838 163.762 L
563.225 138.714 L
563.612 122.016 L
564 88.619 L
564.388 122.016 L
564.775 92.197 L
565.162 152.377 L
565.55 92.197 L
565.938 101.143 L
566.325 226.381 L
566.713 92.197 L
567.1 177.677 L
567.487 217.435 L
567.875 122.016 L
568.263 122.016 L
568.65 177.677 L
569.037 152.377 L
569.425 110.088 L
569.813 163.762 L
570.2 163.762 L
570.588 163.762 L
570.975 226.381 L
571.362 163.762 L
571.75 253.218 L
572.138 175.147 L
572.525 163.762 L
572.912 175.147 L
573.3 253.218 L
573.688 289 L
574.075 213.857 L
574.463 149.847 L
574.85 74.306 L
575.237 177.677 L
575.625 253.218 L
576.013 149.847 L
576.4 134.861 L
576.787 113.667 L
577.175 129.606 L
577.563 129.606 L
577.95 149.847 L
578.338 163.762 L
578.725 217.435 L
579.112 177.677 L
579.5 195.071 L
579.888 138.714 L
580.275 233.339 L
580.662 101.143 L
581.05 177.677 L
581.438 205.508 L
581.825 138.714 L
582.213 175.147 L
582.6 115.593 L
582.987 110.088 L
583.375 129.606 L
583.763 138.714 L
584.15 163.762 L
584.537 149.847 L
584.925 257.69 L
585.313 163.762 L
585.7 110.088 L
586.088 253.218 L
586.475 96.326 L
586.862 122.016 L
587.25 138.714 L
587.638 149.847 L
588.025 106.836 L
588.412 138.714 L
588.8 163.762 L
589.188 138.714 L
589.575 177.677 L
589.963 163.762 L
590.35 195.071 L
590.737 149.847 L
591.125 177.677 L
591.513 195.071 L
591.9 289 L
592.287 195.071 L
592.675 177.677 L
593.063 101.143 L
593.45 122.016 L
593.838 132.452 L
594.225 188.81 L
594.612 175.147 L
595 163.762 L
595.388 149.847 L
595.775 163.762 L
596.162 163.762 L
596.55 129.606 L
596.938 129.606 L
597.325 149.847 L
597.713 138.714 L
598.1 134.861 L
598.487 163.762 L
598.875 163.762 L
599.263 152.377 L
599.65 195.071 L
600.037 188.81 L
600.425 188.81 L
600.813 129.606 L
601.2 177.677 L
601.588 233.339 L
601.975 226.381 L
602.362 205.508 L
602.75 195.071 L
603.138 188.81 L
603.525 149.847 L
603.912 289 L
604.3 257.69 L
604.688 152.377 L
605.075 226.381 L
605.463 163.762 L
605.85 138.714 L
606.237 138.714 L
606.625 257.69 L
607.013 253.218 L
607.4 163.762 L
607.787 188.81 L
608.175 177.677 L
608.563 163.762 L
608.95 149.847 L
609.338 110.088 L
609.725 138.714 L
610.112 253.218 L
610.5 142.889 L
610.888 152.377 L
611.275 122.016 L
611.662 205.508 L
612.05 177.677 L
612.438 92.197 L
612.825 138.714 L
613.213 226.381 L
613.6 195.071 L
613.987 177.677 L
614.375 205.508 L
614.763 122.016 L
615.15 101.143 L
615.537 138.714 L
615.925 138.714 L
616.313 205.508 L
616.7 101.143 L
617.088 138.714 L
617.475 226.381 L
617.862 88.619 L
618.25 101.143 L
618.638 175.147 L
619.025 115.593 L
619.412 152.377 L
619.8 101.143 L
620.188 138.714 L
620.575 122.016 L
620.963 226.381 L
621.35 175.147 L
621.737 195.071 L
622.125 188.81 L
622.513 122.016 L
622.9 113.667 L
623.287 175.147 L
623.675 92.197 L
624.063 149.847 L
624.45 149.847 L
624.838 195.071 L
625.225 163.762 L
625.612 134.861 L
626 175.147 L
626.388 152.377 L
626.775 163.762 L
627.162 205.508 L
627.55 205.508 L
627.938 195.071 L
628.325 226.381 L
628.713 134.861 L
629.1 138.714 L
629.487 177.677 L
629.875 177.677 L
630.263 101.143 L
630.65 188.81 L
631.037 289 L
631.425 105.317 L
631.813 163.762 L
632.2 142.889 L
632.588 152.377 L
632.975 177.677 L
633.362 195.071 L
633.75 152.377 L
634.138 138.714 L
634.525 152.377 L
634.912 226.381 L
635.3 138.714 L
635.688 195.071 L
636.075 195.071 L
636.463 85.488 L
636.85 163.762 L
637.237 138.714 L
637.625 106.836 L
638.013 149.847 L
638.4 101.143 L
638.787 113.667 L
639.175 226.381 L
639.563 195.071 L
639.95 163.762 L
640.338 149.847 L
640.725 106.836 L
641.112 74.306 L
641.5 77.059 L
641.888 152.377 L
642.275 94.185 L
642.662 188.81 L
643.05 149.847 L
643.438 122.016 L
643.825 149.847 L
644.213 113.667 L
644.6 177.677 L
644.987 177.677 L
645.375 163.762 L
645.763 96.326 L
646.15 205.508 L
646.537 195.071 L
646.925 163.762 L
647.313 226.381 L
647.7 115.593 L
648.088 195.071 L
648.475 82.725 L
648.862 149.847 L
649.25 163.762 L
649.638 253.218 L
650.025 195.071 L
650.412 163.762 L
650.8 134.861 L
651.188 101.143 L
651.575 205.508 L
651.963 253.218 L
652.35 152.377 L
652.737 74.306 L
653.125 115.593 L
653.513 129.606 L
653.9 127.98 L
654.287 177.677 L
654.675 122.016 L
655.063 110.088 L
655.45 163.762 L
655.838 226.381 L
656.225 110.088 L
656.612 163.762 L
657 188.81 L
657.388 149.847 L
657.775 163.762 L
658.162 138.714 L
658.55 129.606 L
658.938 106.836 L
659.325 177.677 L
659.713 253.218 L
660.1 129.606 L
660.487 92.197 L
660.875 188.81 L
661.263 152.377 L
661.65 152.377 L
662.037 177.677 L
662.425 163.762 L
662.813 134.861 L
663.2 188.81 L
663.588 253.218 L
663.975 138.714 L
664.362 149.847 L
664.75 134.861 L
665.138 129.606 L
665.525 152.377 L
665.912 163.762 L
666.3 138.714 L
666.688 217.435 L
667.075 129.606 L
667.463 122.016 L
667.85 115.593 L
668.237 138.714 L
668.625 226.381 L
669.013 163.762 L
669.4 163.762 L
669.787 149.847 L
670.175 122.016 L
670.563 177.677 L
670.95 163.762 L
671.338 129.606 L
671.725 122.016 L
672.112 82.725 L
672.5 152.377 L
672.888 138.714 L
673.275 134.861 L
673.662 96.326 L
674.05 106.836 L
674.438 188.81 L
674.825 177.677 L
675.213 129.606 L
675.6 205.508 L
675.987 195.071 L
676.375 129.606 L
676.763 163.762 L
677.15 113.667 L
677.537 152.377 L
677.925 115.593 L
678.313 129.606 L
678.7 195.071 L
679.088 105.317 L
679.475 149.847 L
679.862 115.593 L
680.25 129.606 L
680.638 149.847 L
681.025 129.606 L
681.412 88.619 L
681.8 163.762 L
682.188 129.606 L
682.575 105.317 L
682.963 226.381 L
683.35 163.762 L
683.737 177.677 L
684.125 142.889 L
684.513 163.762 L
684.9 113.667 L
685.287 253.218 L
685.675 226.381 L
686.063 115.593 L
686.45 129.606 L
686.838 122.016 L
687.225 149.847 L
687.612 163.762 L
688 149.847 L
688.388 163.762 L
688.775 138.714 L
689.162 105.317 L
689.55 129.606 L
689.938 129.606 L
690.325 177.677 L
690.713 149.847 L
691.1 163.762 L
691.487 110.088 L
691.875 101.143 L
692.263 226.381 L
692.65 163.762 L
693.037 113.667 L
693.425 233.339 L
693.813 101.143 L
694.2 106.836 L
694.588 138.714 L
694.975 96.326 L
695.362 96.326 L
695.75 106.836 L
696.138 101.143 L
696.525 226.381 L
696.912 247.254 L
697.3 152.377 L
697.688 163.762 L
698.075 138.714 L
698.463 127.98 L
698.85 129.606 L
699.237 205.508 L
699.625 163.762 L
700.013 205.508 L
700.4 129.606 L
700.787 106.836 L
701.175 129.606 L
701.563 113.667 L
701.95 115.593 L
702.338 152.377 L
702.725 177.677 L
703.112 129.606 L
703.5 205.508 L
703.888 122.016 L
704.275 101.143 L
704.662 205.508 L
705.05 142.889 L
705.438 163.762 L
705.825 138.714 L
706.213 122.016 L
706.6 129.606 L
706.987 80.27 L
707.375 80.27 L
707.763 97.459 L
708.15 106.836 L
708.537 101.143 L
708.925 142.889 L
709.313 177.677 L
709.7 115.593 L
710.088 113.667 L
710.475 84.065 L
710.862 152.377 L
711.25 188.81 L
711.638 122.016 L
712.025 106.836 L
712.412 138.714 L
712.8 149.847 L
713.188 181.653 L
713.575 163.762 L
713.963 96.326 L
714.35 226.381 L
714.737 122.016 L
715.125 142.889 L
715.513 142.889 L
715.9 115.593 L
716.287 115.593 L
716.675 226.381 L
717.063 122.016 L
717.45 110.088 L
717.838 149.847 L
718.225 134.861 L
718.612 163.762 L
719 163.762 L
719.388 163.762 L
719.775 57.791 L
720.162 80.27 L
720.55 163.762 L
720.938 163.762 L
721.325 129.606 L
721.713 134.861 L
722.1 69.833 L
722.487 113.667 L
722.875 205.508 L
723.263 149.847 L
723.65 138.714 L
724.037 152.377 L
724.425 96.326 L
724.813 163.762 L
725.2 177.677 L
725.588 226.381 L
725.975 163.762 L
726.362 205.508 L
726.75 122.016 L
727.138 129.606 L
727.525 122.016 L
727.912 105.317 L
728.3 106.836 L
728.688 106.836 L
729.075 92.197 L
729.463 122.016 L
729.85 142.889 L
730.237 177.677 L
730.625 138.714 L
731.013 71.921 L
731.4 149.847 L
731.787 142.889 L
732.175 129.606 L
732.563 142.889 L
732.95 110.088 L
733.338 129.606 L
733.725 115.593 L
734.112 115.593 L
734.5 71.921 L
734.888 122.016 L
735.275 138.714 L
735.662 96.326 L
736.05 163.762 L
736.438 115.593 L
736.825 106.836 L
737.213 122.016 L
737.6 142.889 L
737.987 195.071 L
738.375 129.606 L
738.763 113.667 L
739.15 132.452 L
739.537 122.016 L
739.925 129.606 L
740.313 163.762 L
740.7 56.415 L
741.088 134.861 L
741.475 163.762 L
741.862 163.762 L
742.25 138.714 L
742.638 129.606 L
743.025 71.921 L
743.412 113.667 L
743.8 127.98 L
744.188 122.016 L
744.575 101.143 L
744.963 188.81 L
745.35 138.714 L
745.737 152.377 L
746.125 122.016 L
746.513 129.606 L
746.9 152.377 L
747.287 149.847 L
747.675 138.714 L
748.063 142.889 L
748.45 74.306 L
748.838 122.016 L
749.225 175.147 L
749.612 163.762 L
750 188.81 L
750.388 122.016 L
750.775 110.088 L
751.162 77.059 L
751.55 115.593 L
751.938 101.143 L
752.325 110.088 L
752.713 149.847 L
753.1 122.016 L
753.487 82.725 L
753.875 97.459 L
754.263 122.016 L
754.65 205.508 L
755.037 177.677 L
755.425 71.921 L
755.813 77.059 L
756.2 149.847 L
756.588 106.836 L
756.975 115.593 L
757.362 67.992 L
757.75 101.143 L
758.138 129.606 L
758.525 154.128 L
758.912 152.377 L
759.3 71.921 L
759.688 77.059 L
760.075 142.889 L
760.463 163.762 L
760.85 122.016 L
761.237 105.317 L
761.625 129.606 L
762.013 106.836 L
762.4 177.677 L
762.787 84.065 L
763.175 106.836 L
763.563 122.016 L
763.95 177.677 L
764.338 96.326 L
764.725 77.059 L
765.112 152.377 L
765.5 175.147 L
765.888 177.677 L
766.275 88.619 L
766.662 113.667 L
767.05 106.836 L
767.438 101.143 L
767.825 80.27 L
768.213 122.016 L
768.6 152.377 L
768.987 122.016 L
769.375 113.667 L
769.763 122.016 L
770.15 163.762 L
770.537 101.143 L
770.925 88.619 L
771.313 113.667 L
771.7 205.508 L
772.088 106.836 L
772.475 106.836 L
772.862 163.762 L
773.25 129.606 L
773.638 106.836 L
774.025 92.197 L
774.412 129.606 L
774.8 55.222 L
775.188 122.016 L
775.575 53.258 L
775.963 129.606 L
776.35 88.619 L
776.737 96.326 L
777.125 110.088 L
777.513 129.606 L
777.9 138.714 L
778.287 80.27 L
778.675 138.714 L
779.063 134.861 L
779.45 113.667 L
779.838 115.593 L
780.225 96.326 L
780.612 149.847 L
781 106.836 L
781.388 122.016 L
781.775 54.179 L
782.162 163.762 L
782.55 74.306 L
782.938 205.508 L
783.325 122.016 L
783.713 129.606 L
784.1 115.593 L
784.487 115.593 L
784.875 92.197 L
785.263 101.143 L
785.65 38.524 L
786.037 96.326 L
786.425 195.071 L
786.813 257.69 L
787.2 205.508 L
787.588 129.606 L
787.975 113.667 L
788.362 129.606 L
788.75 129.606 L
789.138 138.714 L
789.525 115.593 L
789.912 71.921 L
790.3 129.606 L
790.688 101.143 L
791.075 101.143 L
791.463 116.798 L
791.85 96.326 L
792.237 71.921 L
792.625 82.725 L
793.013 142.889 L
793.4 122.016 L
793.787 138.714 L
794.175 92.197 L
794.563 122.016 L
794.95 142.889 L
795.338 138.714 L
795.725 163.762 L
796.112 85.488 L
796.5 152.377 L
796.888 115.593 L
797.275 122.016 L
797.662 127.98 L
798.05 110.088 L
798.438 149.847 L
798.825 96.326 L
799.213 84.065 L
799.6 188.81 L
799.987 129.606 L
800.375 149.847 L
800.763 122.016 L
801.15 129.606 L
801.537 129.606 L
801.925 129.606 L
802.313 122.016 L
802.7 101.143 L
803.088 88.619 L
803.475 138.714 L
803.862 122.016 L
804.25 205.508 L
804.638 129.606 L
805.025 205.508 L
805.412 129.606 L
805.8 71.921 L
806.188 163.762 L
806.575 101.143 L
806.963 122.016 L
807.35 113.667 L
807.737 113.667 L
808.125 129.606 L
808.513 163.762 L
808.9 115.593 L
809.287 129.606 L
809.675 163.762 L
810.063 142.889 L
810.45 96.326 L
810.838 110.088 L
811.225 56.415 L
811.612 129.606 L
812 92.197 L
812.388 96.326 L
812.775 152.377 L
813.162 138.714 L
813.55 138.714 L
813.938 163.762 L
814.325 127.98 L
814.713 84.065 L
815.1 138.714 L
815.487 163.762 L
815.875 138.714 L
816.263 195.071 L
816.65 101.143 L
817.037 129.606 L
817.425 129.606 L
817.813 122.016 L
818.2 115.593 L
818.588 188.81 L
818.975 101.143 L
819.362 195.071 L
819.75 92.197 L
820.138 134.861 L
820.525 163.762 L
820.912 74.306 L
821.3 142.889 L
821.688 163.762 L
822.075 96.326 L
822.463 54.179 L
822.85 129.606 L
823.237 92.197 L
823.625 77.059 L
824.013 101.143 L
824.4 69.833 L
824.787 217.435 L
825.175 85.488 L
825.563 106.836 L
825.95 85.488 L
826.338 80.27 L
826.725 106.836 L
827.112 122.016 L
827.5 74.306 L
827.888 163.762 L
828.275 105.317 L
828.662 106.836 L
829.05 69.833 L
829.438 152.377 L
829.825 138.714 L
830.213 92.197 L
830.6 88.619 L
830.987 163.762 L
831.375 106.836 L
831.763 96.326 L
832.15 92.197 L
832.537 205.508 L
832.925 129.606 L
833.313 142.889 L
833.7 96.326 L
834.088 110.088 L
834.475 163.762 L
834.862 129.606 L
835.25 195.071 L
835.638 163.762 L
836.025 195.071 L
836.412 129.606 L
836.8 115.593 L
837.188 77.059 L
837.575 101.143 L
837.963 66.355 L
838.35 69.833 L
838.737 57.791 L
839.125 101.143 L
839.513 96.326 L
839.9 122.016 L
840.287 122.016 L
840.675 80.27 L
841.063 77.059 L
841.45 149.847 L
841.838 71.921 L
842.225 53.258 L
842.612 85.488 L
843 71.921 L
843.388 152.377 L
843.775 106.836 L
844.162 138.714 L
844.55 122.016 L
844.938 106.836 L
845.325 129.606 L
845.713 101.143 L
846.1 74.306 L
846.487 96.326 L
846.875 55.222 L
847.263 152.377 L
847.65 138.714 L
848.037 152.377 L
848.425 92.197 L
848.813 149.847 L
849.2 138.714 L
849.588 138.714 L
849.975 122.016 L
850.362 122.016 L
850.75 152.377 L
851.138 163.762 L
851.525 142.889 L
851.912 57.791 L
852.3 115.593 L
852.688 152.377 L
853.075 71.921 L
853.463 132.452 L
853.85 145.871 L
854.237 149.847 L
854.625 60.304 L
855.013 77.059 L
855.4 129.606 L
855.787 115.593 L
856.175 195.071 L
856.563 88.619 L
856.95 142.889 L
857.338 163.762 L
857.725 122.016 L
858.112 163.762 L
858.5 66.355 L
858.888 110.088 L
859.275 101.143 L
859.662 80.27 L
860.05 132.452 L
860.438 115.593 L
860.825 188.81 L
861.213 71.921 L
861.6 127.98 L
861.987 129.606 L
862.375 129.606 L
862.763 113.667 L
863.15 96.326 L
863.537 122.016 L
863.925 92.197 L
864.313 138.714 L
864.7 106.836 L
865.088 101.143 L
865.475 122.016 L
865.862 149.847 L
866.25 96.326 L
866.638 113.667 L
867.025 74.306 L
867.412 101.143 L
867.8 110.088 L
868.188 88.619 L
868.575 96.326 L
868.963 106.836 L
869.35 129.606 L
869.737 101.143 L
870.125 138.714 L
870.513 122.016 L
870.9 92.197 L
871.287 110.088 L
871.675 67.992 L
872.063 110.088 L
872.45 138.714 L
872.838 88.619 L
873.225 149.847 L
873.612 152.377 L
874 115.593 L
874.388 122.016 L
874.775 82.725 L
875.162 55.222 L
875.55 105.317 L
875.938 122.016 L
876.325 152.377 L
876.713 92.197 L
877.1 138.714 L
877.487 113.667 L
877.875 71.921 L
878.263 96.326 L
878.65 92.197 L
879.037 52.439 L
879.425 74.306 L
879.813 163.762 L
880.2 115.593 L
880.588 113.667 L
880.975 195.071 L
881.362 106.836 L
881.75 80.27 L
882.138 110.088 L
882.525 53.258 L
882.912 101.143 L
883.3 163.762 L
883.688 175.147 L
884.075 96.326 L
884.463 163.762 L
884.85 152.377 L
885.237 57.791 L
885.625 115.593 L
886.013 85.488 L
886.4 69.833 L
886.787 122.016 L
887.175 142.889 L
887.563 113.667 L
887.95 85.488 L
888.338 88.619 L
888.725 122.016 L
889.112 77.059 L
889.5 113.667 L
889.888 88.619 L
890.275 101.143 L
890.662 163.762 L
891.05 66.355 L
891.438 138.714 L
891.825 115.593 L
892.213 77.059 L
892.6 88.619 L
892.987 205.508 L
893.375 122.016 L
893.763 55.222 L
894.15 105.317 L
894.537 129.606 L
894.925 152.377 L
895.313 152.377 L
895.7 122.016 L
896.088 132.452 L
896.475 152.377 L
896.862 115.593 L
897.25 52.439 L
897.638 55.222 L
898.025 77.059 L
898.412 142.889 L
898.8 163.762 L
899.188 115.593 L
899.575 71.921 L
899.963 110.088 L
900.35 77.059 L
900.737 96.326 L
901.125 142.889 L
901.513 101.143 L
901.9 52.439 L
902.287 129.606 L
902.675 115.593 L
903.063 80.27 L
903.45 66.355 L
903.838 115.593 L
904.225 80.27 L
904.612 74.306 L
905 77.059 L
S
GR
GS
1 0 0 RC
1 LJ
0.5 LW
N
169.525 85.302 M
169.913 83.569 L
170.3 83.153 L
170.688 81.96 L
171.075 81.44 L
171.462 80.268 L
171.85 80.92 L
172.238 80.243 L
172.625 79.016 L
173.012 78.32 L
173.4 77.505 L
173.788 76.451 L
174.175 75.453 L
174.563 74.763 L
174.95 74.041 L
175.337 73.175 L
175.725 72.542 L
176.113 71.751 L
176.5 70.996 L
176.887 70.533 L
177.275 69.838 L
177.663 69.171 L
178.05 68.533 L
178.438 68.066 L
178.825 67.476 L
179.212 66.908 L
179.6 65.486 L
179.988 65.135 L
180.375 64.61 L
180.762 63.382 L
181.15 61.979 L
181.538 61.365 L
181.925 60.231 L
182.313 57.999 L
182.7 56.801 L
183.087 55.982 L
183.475 54.849 L
183.863 53.968 L
184.25 52.813 L
184.637 52.251 L
185.025 50.465 L
185.413 50.101 L
185.8 50.23 L
186.188 50.077 L
186.575 49.854 L
186.962 49.276 L
187.35 48.457 L
187.738 46.984 L
188.125 45.539 L
188.512 44.962 L
188.9 44.515 L
189.288 44.222 L
189.675 44.222 L
190.063 43.567 L
190.45 43.371 L
190.837 43.316 L
191.225 43.41 L
191.613 42.182 L
192 41.986 L
192.387 42.161 L
192.775 42.026 L
193.163 42.004 L
193.55 42.004 L
193.938 42.004 L
194.325 41.807 L
194.712 42.072 L
195.1 42.072 L
195.488 42.118 L
195.875 42.391 L
196.262 42.391 L
196.65 42.163 L
197.038 42.163 L
197.425 42.436 L
197.813 42.436 L
198.2 42.295 L
198.587 42.295 L
198.975 42.554 L
199.363 42.771 L
199.75 42.771 L
200.137 42.642 L
200.525 42.856 L
200.913 43.302 L
201.3 43.561 L
201.688 43.795 L
202.075 44.04 L
202.462 44.152 L
202.85 44.375 L
203.238 44.375 L
203.625 44.221 L
204.012 44.435 L
204.4 44.41 L
204.788 44.41 L
205.175 44.442 L
205.563 44.571 L
205.95 44.571 L
206.337 44.571 L
206.725 44.86 L
207.113 44.86 L
207.5 44.86 L
207.887 44.86 L
208.275 44.86 L
208.663 44.86 L
209.05 44.707 L
209.438 44.707 L
209.825 44.965 L
210.212 45.179 L
210.6 44.884 L
210.988 44.874 L
211.375 45.42 L
211.762 45.224 L
212.15 45.048 L
212.538 45.259 L
212.925 45.077 L
213.313 45.594 L
213.7 45.594 L
214.087 46.021 L
214.475 45.612 L
214.863 45.612 L
215.25 45.596 L
215.637 45.323 L
216.025 45.547 L
216.413 45.805 L
216.8 45.805 L
217.188 46.078 L
217.575 46.078 L
217.962 46.078 L
218.35 46.692 L
218.738 46.638 L
219.125 46.565 L
219.512 46.565 L
219.9 46.811 L
220.288 47.024 L
220.675 47.095 L
221.063 46.836 L
221.45 46.784 L
221.837 46.539 L
222.225 46.561 L
222.613 46.596 L
223 47.087 L
223.387 47.087 L
223.775 47.147 L
224.163 47.181 L
224.55 47.181 L
224.938 47.137 L
225.325 47.124 L
225.712 47.358 L
226.1 47.554 L
226.488 47.429 L
226.875 48.043 L
227.262 48.043 L
227.65 48.043 L
228.038 48.043 L
228.425 48.043 L
228.813 48.248 L
229.2 48.471 L
229.587 48.417 L
229.975 48.203 L
230.363 48.252 L
230.75 48.039 L
231.137 47.493 L
231.525 47.782 L
231.913 47.782 L
232.3 48.371 L
232.688 48.617 L
233.075 48.1 L
233.462 48.346 L
233.85 49.673 L
234.238 49.918 L
234.625 50.327 L
235.012 50.139 L
235.4 50.139 L
235.788 49.915 L
236.175 49.657 L
236.563 49.657 L
236.95 49.111 L
237.337 49.725 L
237.725 49.725 L
238.113 49.111 L
238.5 49.179 L
238.887 48.945 L
239.275 49.218 L
239.663 49.28 L
240.05 49.098 L
240.438 48.854 L
240.825 49.1 L
241.212 48.918 L
241.6 50.051 L
241.988 50.078 L
242.375 50.109 L
242.762 49.618 L
243.15 49.618 L
243.538 49.345 L
243.925 49.449 L
244.313 49.449 L
244.7 49.689 L
245.087 49.989 L
245.475 50.676 L
245.863 50.752 L
246.25 50.589 L
246.637 49.975 L
247.025 50.73 L
247.413 51.276 L
247.8 51.89 L
248.188 51.89 L
248.575 52.441 L
248.962 52.218 L
249.35 52.013 L
249.738 52.995 L
250.125 52.75 L
250.512 53.671 L
250.9 54.138 L
251.288 54.122 L
251.675 54.429 L
252.063 53.447 L
252.45 53.201 L
252.837 53.201 L
253.225 52.956 L
253.613 52.02 L
254 52.53 L
254.387 52.121 L
254.775 52.823 L
255.163 53.112 L
255.55 53.629 L
255.938 54.611 L
256.325 55.744 L
256.712 55.99 L
257.1 55.703 L
257.487 56.031 L
257.875 56.031 L
258.263 57.097 L
258.65 58.231 L
259.038 58.475 L
259.425 58.746 L
259.813 58.5 L
260.2 58.227 L
260.587 58.683 L
260.975 59.385 L
261.362 59.407 L
261.75 60.92 L
262.138 61.859 L
262.525 63.37 L
262.913 63.37 L
263.3 64.126 L
263.688 64.781 L
264.075 65.599 L
264.462 66.5 L
264.85 66.5 L
265.237 66.712 L
265.625 68.193 L
266.013 70.158 L
266.4 71.497 L
266.788 71.356 L
267.175 71.862 L
267.563 72.476 L
267.95 74.932 L
268.337 75.814 L
268.725 76.427 L
269.112 76.778 L
269.5 77.024 L
269.888 77.351 L
270.275 78.663 L
270.663 78.522 L
271.05 78.951 L
271.438 78.995 L
271.825 79.609 L
272.212 80.264 L
272.6 80.522 L
272.987 80.873 L
273.375 81.528 L
273.763 82.284 L
274.15 82.985 L
274.538 83.417 L
274.925 83.645 L
275.313 84.18 L
275.7 83.198 L
276.087 83.404 L
276.475 84.796 L
276.862 85.602 L
277.25 86.614 L
277.638 87.192 L
278.025 86.608 L
278.413 86.367 L
278.8 86.984 L
279.188 86.784 L
279.575 89.239 L
279.962 89.239 L
280.35 89.293 L
280.737 89.995 L
281.125 93.049 L
281.513 91.841 L
281.9 91.665 L
282.288 91.382 L
282.675 93.019 L
283.063 92.641 L
283.45 92.273 L
283.837 92.588 L
284.225 95.488 L
284.612 96.17 L
285 95.792 L
285.388 96.221 L
285.775 94.257 L
286.163 96.425 L
286.55 96.425 L
286.938 96.601 L
287.325 98.101 L
287.712 96.779 L
288.1 96.615 L
288.487 97.787 L
288.875 98.746 L
289.263 99.304 L
289.65 99.898 L
290.038 98.243 L
290.425 99.255 L
290.813 100.308 L
291.2 100.502 L
291.587 101.526 L
291.975 101.764 L
292.362 102.558 L
292.75 104.096 L
293.138 103.962 L
293.525 103.678 L
293.913 102.977 L
294.3 104.913 L
294.688 106.852 L
295.075 107.203 L
295.462 108.676 L
295.85 109.091 L
296.237 109.909 L
296.625 110.562 L
297.013 109.877 L
297.4 109.65 L
297.788 111.127 L
298.175 110.889 L
298.563 111.392 L
298.95 113.247 L
299.337 111.684 L
299.725 114.14 L
300.112 113.657 L
300.5 113.482 L
300.888 110.5 L
301.275 112.378 L
301.663 114.395 L
302.05 115.896 L
302.438 116.148 L
302.825 118.498 L
303.212 119.67 L
303.6 119.115 L
303.987 115.607 L
304.375 115.3 L
304.763 115.158 L
305.15 113.466 L
305.538 114.222 L
305.925 112.897 L
306.313 113.511 L
306.7 112.938 L
307.087 113.279 L
307.475 112.523 L
307.862 111.459 L
308.25 110.024 L
308.638 110.225 L
309.025 108.767 L
309.413 108.898 L
309.8 112.004 L
310.188 111.798 L
310.575 112.85 L
310.962 112.772 L
311.35 111.394 L
311.737 112.287 L
312.125 111.681 L
312.513 110.406 L
312.9 109.721 L
313.288 109.897 L
313.675 111.408 L
314.063 109.566 L
314.45 108.999 L
314.837 109.233 L
315.225 111.034 L
315.612 109.935 L
316 109.444 L
316.388 109.169 L
316.775 109.567 L
317.163 110.444 L
317.55 110.176 L
317.938 110.176 L
318.325 109.766 L
318.712 108.516 L
319.1 109.588 L
319.487 110.406 L
319.875 111.607 L
320.263 112.221 L
320.65 113.449 L
321.038 112.332 L
321.425 111.049 L
321.813 109.66 L
322.2 109.174 L
322.587 108.083 L
322.975 107.279 L
323.362 107.754 L
323.75 107.945 L
324.138 110.844 L
324.525 111.212 L
324.913 112.232 L
325.3 113.441 L
325.688 111.609 L
326.075 110.688 L
326.462 111.545 L
326.85 111.282 L
327.237 112.868 L
327.625 114.348 L
328.013 114.89 L
328.4 117.062 L
328.788 120.009 L
329.175 121.685 L
329.563 119.639 L
329.95 120.47 L
330.337 119.846 L
330.725 120.512 L
331.112 121.029 L
331.5 119.55 L
331.888 120.89 L
332.275 122.731 L
332.663 123.55 L
333.05 123.28 L
333.438 123.406 L
333.825 123.099 L
334.212 121.912 L
334.6 122.507 L
334.987 122.302 L
335.375 122.568 L
335.763 123.332 L
336.15 124.891 L
336.538 124.594 L
336.925 125.822 L
337.313 126.586 L
337.7 127.895 L
338.087 128.632 L
338.475 130.719 L
338.862 129.082 L
339.25 126.675 L
339.638 127.043 L
340.025 126.184 L
340.413 124.861 L
340.8 125.754 L
341.188 125.933 L
341.575 125.248 L
341.962 124.827 L
342.35 125.423 L
342.737 126.077 L
343.125 127.071 L
343.513 128.907 L
343.9 127.27 L
344.288 128.743 L
344.675 129.197 L
345.063 128.635 L
345.45 130.517 L
345.837 131.996 L
346.225 131.996 L
346.612 131.031 L
347 132.136 L
347.388 133.317 L
347.775 133.652 L
348.163 133.788 L
348.55 132.151 L
348.938 130.762 L
349.325 130.967 L
349.712 131.458 L
350.1 131.239 L
350.487 132.835 L
350.875 134.866 L
351.263 136.663 L
351.65 138.386 L
352.038 138.999 L
352.425 138.999 L
352.813 140.936 L
353.2 142.573 L
353.587 143.125 L
353.975 143.557 L
354.362 142.552 L
354.75 141.529 L
355.138 142.245 L
355.525 141.481 L
355.913 141.14 L
356.3 142.022 L
356.688 142.513 L
357.075 142.854 L
357.462 143.568 L
357.85 143.787 L
358.237 143.173 L
358.625 145.792 L
359.013 146.563 L
359.4 146.194 L
359.788 148.486 L
360.175 150.3 L
360.563 149.377 L
360.95 149.868 L
361.337 150.687 L
361.725 151.49 L
362.112 150.597 L
362.5 151.416 L
362.888 150.503 L
363.275 150.23 L
363.663 151.731 L
364.05 151.061 L
364.438 152.371 L
364.825 152.753 L
365.212 154.029 L
365.6 154.699 L
365.987 155.994 L
366.375 156.881 L
366.763 155.858 L
367.15 154.834 L
367.538 155.839 L
367.925 155.089 L
368.313 154.543 L
368.7 155.386 L
369.087 155.056 L
369.475 155.874 L
369.862 158.119 L
370.25 157.847 L
370.638 158.11 L
371.025 159.074 L
371.413 157.04 L
371.8 158.18 L
372.188 158.344 L
372.575 156.326 L
372.962 154.392 L
373.35 155.374 L
373.737 157.749 L
374.125 158.753 L
374.513 159.776 L
374.9 161.413 L
375.288 160.852 L
375.675 161.398 L
376.063 161.398 L
376.45 159.924 L
376.837 161.065 L
377.225 160.023 L
377.612 160.023 L
378 159.614 L
378.388 157.8 L
378.775 159.233 L
379.163 161.033 L
379.55 160.706 L
379.938 161.443 L
380.325 162.812 L
380.712 162.589 L
381.1 162.589 L
381.487 163.531 L
381.875 164.424 L
382.263 164.697 L
382.65 166.838 L
383.038 166.838 L
383.425 167.364 L
383.813 169.086 L
384.2 170.022 L
384.587 172.533 L
384.975 172.095 L
385.362 174.55 L
385.75 175.427 L
386.138 175.427 L
386.525 177.591 L
386.913 179.052 L
387.3 181.03 L
387.688 181.644 L
388.075 183.622 L
388.462 184.386 L
388.85 186.149 L
389.237 184.512 L
389.625 182.534 L
390.013 181.865 L
390.4 181.524 L
390.788 179.927 L
391.175 180.637 L
391.563 179.156 L
391.95 179.156 L
392.337 180.559 L
392.725 181.184 L
393.112 182.938 L
393.5 181.216 L
393.888 181.439 L
394.275 180.258 L
394.663 180.054 L
395.05 181.925 L
395.438 180.436 L
395.825 181.528 L
396.212 181.566 L
396.6 179.588 L
396.987 180.184 L
397.375 179.512 L
397.763 181.675 L
398.15 184.225 L
398.538 183.045 L
398.925 181.66 L
399.313 181.987 L
399.7 180.486 L
400.087 179.854 L
400.475 179.586 L
400.862 180.159 L
401.25 181.114 L
401.638 181.61 L
402.025 180.285 L
402.413 179.193 L
402.8 180.558 L
403.188 177.687 L
403.575 176.635 L
403.962 176.109 L
404.35 174.54 L
404.737 174.199 L
405.125 172.562 L
405.513 171.607 L
405.9 171.111 L
406.288 169.97 L
406.675 170.672 L
407.063 168.645 L
407.45 167.417 L
407.837 166.803 L
408.225 166.663 L
408.612 166.068 L
409 165.413 L
409.388 165.145 L
409.775 164.252 L
410.163 163.413 L
410.55 163.904 L
410.938 164.177 L
411.325 163.413 L
411.712 164.454 L
412.1 163.785 L
412.487 164.89 L
412.875 163.409 L
413.263 162.756 L
413.65 163.984 L
414.038 163.732 L
414.425 162.448 L
414.813 161.63 L
415.2 162.913 L
415.587 163.459 L
415.975 163.994 L
416.362 164.709 L
416.75 165.205 L
417.138 166.968 L
417.525 165.214 L
417.913 163.713 L
418.3 164.553 L
418.688 166.873 L
419.075 165.782 L
419.462 165.002 L
419.85 165.188 L
420.237 164.042 L
420.625 164.179 L
421.013 161.94 L
421.4 161.667 L
421.788 163.538 L
422.175 163.141 L
422.563 160.549 L
422.95 160.847 L
423.337 160.574 L
423.725 160.165 L
424.112 159.073 L
424.5 160.028 L
424.888 160.262 L
425.275 161.353 L
425.663 161.577 L
426.05 162.191 L
426.438 160.213 L
426.825 161.305 L
427.212 161.919 L
427.6 164.374 L
427.987 164.637 L
428.375 163.923 L
428.763 165.173 L
429.15 165.937 L
429.538 165.658 L
429.925 165.734 L
430.313 166.225 L
430.7 166.225 L
431.087 166.989 L
431.475 166.356 L
431.862 167.845 L
432.25 167.503 L
432.638 169.686 L
433.025 171.281 L
433.413 169.562 L
433.8 171.609 L
434.188 172.892 L
434.575 173.506 L
434.962 172.892 L
435.35 172.565 L
435.737 173.588 L
436.125 171.869 L
436.513 172.824 L
436.9 171.515 L
437.288 171.787 L
437.675 172.06 L
438.063 172.06 L
438.45 169.815 L
438.837 170.906 L
439.225 172.232 L
439.612 172.678 L
440 174.929 L
440.388 175.202 L
440.775 175.544 L
441.163 176.035 L
441.55 175.489 L
441.938 176.432 L
442.325 178.273 L
442.712 178.039 L
443.1 178.089 L
443.487 178.323 L
443.875 179.365 L
444.263 178.41 L
444.65 176.688 L
445.038 174.379 L
445.425 174.379 L
445.813 172.928 L
446.2 174.379 L
446.587 173.56 L
446.975 173.765 L
447.362 172.537 L
447.75 172.414 L
448.138 174.133 L
448.525 174.629 L
448.913 173.947 L
449.3 177.543 L
449.688 178.034 L
450.075 178.648 L
450.462 178.297 L
450.85 178.297 L
451.237 177.384 L
451.625 177.384 L
452.013 175.884 L
452.4 174.656 L
452.788 173.713 L
453.175 173.152 L
453.563 171.924 L
453.95 170.194 L
454.337 170.808 L
454.725 171.081 L
455.112 170.317 L
455.5 169.703 L
455.888 170.931 L
456.275 171.457 L
456.663 170.832 L
457.05 171.173 L
457.438 171.446 L
457.825 171.664 L
458.212 171.746 L
458.6 169.811 L
458.987 168.868 L
459.375 167.827 L
459.763 167.436 L
460.15 166.492 L
460.538 166.67 L
460.925 164.776 L
461.313 164.012 L
461.7 164.557 L
462.087 162.54 L
462.475 163.102 L
462.862 161.625 L
463.25 160.349 L
463.638 159.559 L
464.025 159.9 L
464.413 163.026 L
464.8 163.152 L
465.188 163.424 L
465.575 163.648 L
465.962 162.197 L
466.35 162.688 L
466.737 162.142 L
467.125 160.505 L
467.513 158.692 L
467.9 157.464 L
468.288 155.963 L
468.675 155.881 L
469.063 153.904 L
469.45 154.395 L
469.837 153.111 L
470.225 152.346 L
470.612 153.827 L
471 154.74 L
471.388 154.536 L
471.775 155.272 L
472.163 153.821 L
472.55 153.438 L
472.938 153.509 L
473.325 153.285 L
473.712 154.402 L
474.1 153.174 L
474.487 152.492 L
474.875 152.273 L
475.263 153.501 L
475.65 152.831 L
476.038 151.35 L
476.425 153.694 L
476.813 151.964 L
477.2 151.964 L
477.587 152.292 L
477.975 151.882 L
478.362 152.999 L
478.75 153.668 L
479.138 153.165 L
479.525 152.123 L
479.913 154.821 L
480.3 154.821 L
480.688 156.497 L
481.075 156.319 L
481.462 154.384 L
481.85 156.06 L
482.237 157.779 L
482.625 157.842 L
483.013 158.065 L
483.4 158.632 L
483.788 158.291 L
484.175 156.449 L
484.563 157.268 L
484.95 155.879 L
485.337 156.151 L
485.725 155.392 L
486.112 154.678 L
486.5 155.633 L
486.888 156.315 L
487.275 156.968 L
487.663 158.809 L
488.05 160.651 L
488.438 162.37 L
488.825 161.775 L
489.212 161.557 L
489.6 162.226 L
489.987 162.933 L
490.375 160.361 L
490.763 160.279 L
491.15 160.893 L
491.538 161.657 L
491.925 161.061 L
492.313 161.891 L
492.7 163.487 L
493.087 164.324 L
493.475 165.552 L
493.862 168.007 L
494.25 168.417 L
494.638 168.498 L
495.025 167.544 L
495.413 168.827 L
495.8 167.61 L
496.188 166.655 L
496.575 170.227 L
496.962 171.182 L
497.35 170.363 L
497.737 170.958 L
498.125 172.011 L
498.513 171.341 L
498.9 171.994 L
499.288 172.812 L
499.675 171.058 L
500.063 170.227 L
500.45 170.773 L
500.837 170.326 L
501.225 170.829 L
501.612 170.556 L
502 168.509 L
502.388 169.328 L
502.775 169.328 L
503.163 168.509 L
503.55 168.013 L
503.938 166.833 L
504.325 166.609 L
504.712 166.781 L
505.1 165.942 L
505.487 167.538 L
505.875 167.761 L
506.263 166.533 L
506.65 166.26 L
507.038 168.158 L
507.425 166.316 L
507.813 165.925 L
508.2 163.879 L
508.587 163.581 L
508.975 163.085 L
509.362 162.267 L
509.75 161.56 L
510.138 161.709 L
510.525 162.473 L
510.913 161.859 L
511.3 161.313 L
511.688 162.132 L
512.075 162.969 L
512.463 164.109 L
512.85 164.314 L
513.237 164.84 L
513.625 162.111 L
514.013 163.339 L
514.4 164.976 L
514.787 165.931 L
515.175 165.128 L
515.563 165.371 L
515.95 164.532 L
516.338 161.667 L
516.725 160.712 L
517.112 160.985 L
517.5 160.799 L
517.888 159.473 L
518.275 158.74 L
518.662 159.682 L
519.05 159.459 L
519.438 157.986 L
519.825 159.308 L
520.213 157.507 L
520.6 157.22 L
520.987 157.164 L
521.375 157.778 L
521.763 159.825 L
522.15 160.234 L
522.537 160.234 L
522.925 160.643 L
523.313 160.375 L
523.7 160.942 L
524.088 160.113 L
524.475 161.057 L
524.862 161.401 L
525.25 160.787 L
525.638 160.787 L
526.025 159.671 L
526.412 158.852 L
526.8 155.987 L
527.188 154.759 L
527.575 156.992 L
527.963 158.424 L
528.35 159.268 L
528.737 160.719 L
529.125 160.867 L
529.513 162.802 L
529.9 163.199 L
530.287 162.703 L
530.675 163.317 L
531.063 162.537 L
531.45 160.9 L
531.838 160.286 L
532.225 159.146 L
532.612 158.328 L
533 156.082 L
533.388 155.411 L
533.775 154.406 L
534.162 152.955 L
534.55 151.161 L
534.938 150.858 L
535.325 150.89 L
535.713 150.638 L
536.1 150.378 L
536.487 150.105 L
536.875 149.014 L
537.263 147.95 L
537.65 148.223 L
538.037 148.303 L
538.425 147.464 L
538.813 146.571 L
539.2 147.375 L
539.588 147.151 L
539.975 146.73 L
540.362 147.315 L
540.75 147.762 L
541.138 146.478 L
541.525 145.473 L
541.912 145.213 L
542.3 144.99 L
542.688 145.75 L
543.075 144.919 L
543.463 144.919 L
543.85 145.153 L
544.237 144.743 L
544.625 146.721 L
545.013 147.948 L
545.4 147.725 L
545.787 149.114 L
546.175 149.442 L
546.563 149.962 L
546.95 150.699 L
547.338 147.574 L
547.725 146.551 L
548.112 148.051 L
548.5 146.823 L
548.888 146.265 L
549.275 145.72 L
549.662 145.174 L
550.05 144.83 L
550.438 143.112 L
550.825 143.345 L
551.213 145.596 L
551.6 144.193 L
551.987 143.356 L
552.375 142.24 L
552.763 143.004 L
553.15 143.948 L
553.537 143.234 L
553.925 142.639 L
554.313 141.732 L
554.7 141.404 L
555.088 140.671 L
555.475 141.266 L
555.862 140.533 L
556.25 139.305 L
556.638 141.351 L
557.025 141.422 L
557.412 141.694 L
557.8 144.069 L
558.188 143.817 L
558.575 144.115 L
558.963 145.057 L
559.35 145.057 L
559.737 145.408 L
560.125 146.227 L
560.513 146.45 L
560.9 147.12 L
561.287 148.124 L
561.675 148.794 L
562.063 150.771 L
562.45 150.644 L
562.838 151.966 L
563.225 152.189 L
563.612 154.762 L
564 157.627 L
564.388 156.855 L
564.775 155.354 L
565.162 153.824 L
565.55 153.824 L
565.938 156.069 L
566.325 156.912 L
566.713 156.836 L
567.1 156.524 L
567.487 156.264 L
567.875 154.366 L
568.263 154.093 L
568.65 155.321 L
569.037 156.101 L
569.425 157.192 L
569.813 158.373 L
570.2 158.373 L
570.588 160.555 L
570.975 158.714 L
571.362 160.39 L
571.75 161.431 L
572.138 162.057 L
572.525 162.007 L
572.912 161.062 L
573.3 160.501 L
573.688 160.65 L
574.075 161.632 L
574.463 162.451 L
574.85 163.581 L
575.237 165.646 L
575.625 167.049 L
576.013 167.225 L
576.4 167.751 L
576.787 167.832 L
577.175 166.741 L
577.563 165.197 L
577.95 165.743 L
578.338 165.445 L
578.725 164.681 L
579.112 164.904 L
579.5 165.466 L
579.888 165.738 L
580.275 165.738 L
580.662 166.352 L
581.05 164.852 L
581.438 165.124 L
581.825 163.984 L
582.213 166.217 L
582.6 166.831 L
582.987 166.88 L
583.375 163.898 L
583.763 160.624 L
584.15 159.028 L
584.537 159.792 L
584.925 161.769 L
585.313 161.496 L
585.7 159.47 L
586.088 159.742 L
586.475 160.309 L
586.862 160.622 L
587.25 160.622 L
587.638 161.019 L
588.025 160.8 L
588.412 160.234 L
588.8 159.181 L
589.188 158.908 L
589.575 158.071 L
589.963 159.176 L
590.35 158.303 L
590.737 160.022 L
591.125 159.079 L
591.513 158.534 L
591.9 160.389 L
592.287 161.394 L
592.675 163.157 L
593.063 164.823 L
593.45 165.984 L
593.838 166.202 L
594.225 168.658 L
594.612 170.772 L
595 168.707 L
595.388 169.935 L
595.775 170.988 L
596.162 168.743 L
596.55 169.574 L
596.938 172.234 L
597.325 174.479 L
597.713 174.752 L
598.1 176.359 L
598.487 177.123 L
598.875 177.123 L
599.263 177.342 L
599.65 176.016 L
600.037 175.525 L
600.425 176.665 L
600.813 176.529 L
601.2 176.033 L
601.588 174.6 L
601.975 172.963 L
602.362 172.622 L
602.75 170.946 L
603.138 171.683 L
603.525 173.729 L
603.912 174.957 L
604.3 174.739 L
604.688 175.334 L
605.075 174.515 L
605.463 173.561 L
605.85 173.069 L
606.237 172.578 L
606.625 174.067 L
607.013 173.508 L
607.4 173.29 L
607.787 175.009 L
608.175 174.102 L
608.563 172.875 L
608.95 173.098 L
609.338 172.377 L
609.725 171.539 L
610.112 169.82 L
610.5 168.838 L
610.888 168.689 L
611.275 169.644 L
611.662 168.503 L
612.05 167.889 L
612.438 167.562 L
612.825 166.13 L
613.213 164.656 L
613.6 165.152 L
613.987 161.293 L
614.375 159.179 L
614.763 159.129 L
615.15 158.515 L
615.537 158.515 L
615.925 158.44 L
616.313 159.154 L
616.7 157.089 L
617.088 155.335 L
617.475 156.154 L
617.862 156.481 L
618.25 156.822 L
618.638 158.05 L
619.025 157.756 L
619.412 158.317 L
619.8 159.081 L
620.188 157.6 L
620.575 156.782 L
620.963 157.496 L
621.35 160.77 L
621.737 158.806 L
622.125 158.533 L
622.513 159.527 L
622.9 159.795 L
623.287 158.84 L
623.675 158.84 L
624.063 158.344 L
624.45 157.034 L
624.838 157.629 L
625.225 160.085 L
625.612 160.085 L
626 161.19 L
626.388 160.985 L
626.775 160.678 L
627.162 161.169 L
627.55 159.45 L
627.938 159.808 L
628.325 160.763 L
628.713 159.312 L
629.1 159.274 L
629.487 160.725 L
629.875 162.567 L
630.263 163.058 L
630.65 163.603 L
631.037 161.259 L
631.425 159.282 L
631.813 156.968 L
632.2 156.254 L
632.588 155.708 L
632.975 157.181 L
633.362 156.685 L
633.75 157.27 L
634.138 157.27 L
634.525 156.561 L
634.912 156.22 L
635.3 156.492 L
635.688 157.059 L
636.075 155.514 L
636.463 156.555 L
636.85 157.169 L
637.237 156.351 L
637.625 156.76 L
638.013 155.202 L
638.4 154.588 L
638.787 153.565 L
639.175 153.784 L
639.563 153.511 L
639.95 154.992 L
640.338 156.834 L
640.725 156.343 L
641.112 153.32 L
641.5 153.238 L
641.888 154.057 L
642.275 156.22 L
642.662 156.22 L
643.05 154.193 L
643.438 152.635 L
643.825 152.189 L
644.213 151.978 L
644.6 152.474 L
644.987 150.428 L
645.375 149.867 L
645.763 149.253 L
646.15 149.867 L
646.537 150.349 L
646.925 150.349 L
647.313 151.331 L
647.7 152.175 L
648.088 152.447 L
648.475 153.184 L
648.862 153.497 L
649.25 151.153 L
649.638 150.812 L
650.025 152.566 L
650.412 152.169 L
650.8 151.882 L
651.188 154.127 L
651.575 155.604 L
651.963 155.604 L
652.35 157.241 L
652.737 156.75 L
653.125 156.456 L
653.513 157.765 L
653.9 159.792 L
654.287 160.283 L
654.675 159.738 L
655.063 158.898 L
655.45 158.229 L
655.838 159.328 L
656.225 158.509 L
656.612 157.404 L
657 158.456 L
657.388 156.559 L
657.775 156.685 L
658.162 155.126 L
658.55 156.224 L
658.938 157.725 L
659.325 157.725 L
659.713 155.971 L
660.1 155.084 L
660.487 154.266 L
660.875 155.105 L
661.263 156.333 L
661.65 154.845 L
662.037 152.272 L
662.425 150.906 L
662.813 152.437 L
663.2 152.89 L
663.588 152.993 L
663.975 152.373 L
664.362 150.984 L
664.75 152.293 L
665.138 153.619 L
665.525 152.949 L
665.912 152.54 L
666.3 154.206 L
666.688 153.536 L
667.075 153.045 L
667.463 152.336 L
667.85 152.113 L
668.237 151.659 L
668.625 151.659 L
669.013 153.389 L
669.4 151.971 L
669.787 149.944 L
670.175 149.669 L
670.563 150.402 L
670.95 149.638 L
671.338 149.192 L
671.725 147.942 L
672.112 147.669 L
672.5 146.999 L
672.888 146.42 L
673.275 147.157 L
673.662 145.403 L
674.05 146.167 L
674.438 146.03 L
674.825 146.597 L
675.213 146.284 L
675.6 148.262 L
675.987 149.489 L
676.375 149.036 L
676.763 147.314 L
677.15 147.165 L
677.537 147.711 L
677.925 148.655 L
678.313 148.874 L
678.7 147.646 L
679.088 147.155 L
679.475 146.009 L
679.862 145.612 L
680.25 145.761 L
680.638 145.761 L
681.025 145.488 L
681.412 146.157 L
681.8 145.924 L
682.188 146.285 L
682.575 147.736 L
682.963 148.227 L
683.35 147.811 L
683.737 150.498 L
684.125 150.386 L
684.513 148.779 L
684.9 148.015 L
685.287 147.362 L
685.675 145.221 L
686.063 143.491 L
686.45 142.933 L
686.838 144.161 L
687.225 146.78 L
687.612 146.78 L
688 147.725 L
688.388 147.904 L
688.775 146.588 L
689.162 147.064 L
689.55 148.156 L
689.938 149.1 L
690.325 150.588 L
690.713 150.192 L
691.1 149.745 L
691.487 150.549 L
691.875 149.566 L
692.263 149.292 L
692.65 150.214 L
693.037 149.259 L
693.425 148.59 L
693.813 149.135 L
694.2 148.726 L
694.588 147.498 L
694.975 149.299 L
695.362 147.136 L
695.75 145.908 L
696.138 146.361 L
696.525 146.213 L
696.912 146.361 L
697.3 144.997 L
697.688 143.36 L
698.075 142.333 L
698.463 141.217 L
698.85 140.48 L
699.237 141.217 L
699.625 142.159 L
700.013 141.884 L
700.4 140.629 L
700.787 139.339 L
701.175 139.116 L
701.563 140.66 L
701.95 141.069 L
702.338 138.725 L
702.725 138.234 L
703.112 138.943 L
703.5 137.93 L
703.888 139.158 L
704.275 138.952 L
704.662 140.671 L
705.05 141.174 L
705.438 142.087 L
705.825 142.794 L
706.213 143.078 L
706.6 140.905 L
706.987 140.496 L
707.375 139.901 L
707.763 138.848 L
708.15 139.067 L
708.537 139.201 L
708.925 139.871 L
709.313 139.053 L
709.7 139.053 L
710.088 136.156 L
710.475 135.189 L
710.862 136.305 L
711.25 136.975 L
711.638 137.287 L
712.025 137.665 L
712.412 136.047 L
712.8 134.792 L
713.188 136.28 L
713.575 135.188 L
713.963 135.516 L
714.35 136.52 L
714.737 134.38 L
715.125 134.789 L
715.513 135.062 L
715.9 136.781 L
716.287 137.599 L
716.675 139.087 L
717.063 139.906 L
717.45 140.873 L
717.838 141.355 L
718.225 141.325 L
718.612 141.437 L
719 140.73 L
719.388 139.054 L
719.775 139.18 L
720.162 139.753 L
720.55 141.588 L
720.938 141.32 L
721.325 139.028 L
721.713 139.574 L
722.1 140.281 L
722.487 140.102 L
722.875 139.966 L
723.263 138.563 L
723.65 137.893 L
724.037 138.271 L
724.425 136.099 L
724.813 135.116 L
725.2 134.707 L
725.588 134.625 L
725.975 134.247 L
726.362 135.192 L
726.75 133.02 L
727.138 132.722 L
727.525 132.956 L
727.912 132.819 L
728.3 134 L
728.688 133.33 L
729.075 132.348 L
729.463 131.734 L
729.85 132.993 L
730.237 133.961 L
730.625 133.961 L
731.013 131.856 L
731.4 131.959 L
731.787 132.526 L
732.175 134.367 L
732.563 134.858 L
732.95 133.37 L
733.338 131.842 L
733.725 131.351 L
734.112 130.873 L
734.5 131.376 L
734.888 130.149 L
735.275 130.367 L
735.662 128.648 L
736.05 128.425 L
736.438 126.788 L
736.825 126.936 L
737.213 127.383 L
737.6 127.929 L
737.987 128.583 L
738.375 129.29 L
738.763 128.653 L
739.15 129.237 L
739.537 130.279 L
739.925 130.688 L
740.313 130.907 L
740.7 130.579 L
741.088 131.328 L
741.475 129.9 L
741.862 129.365 L
742.25 128.807 L
742.638 128.164 L
743.025 128.943 L
743.412 128.795 L
743.8 128.15 L
744.188 127.795 L
744.575 128.777 L
744.963 130.414 L
745.35 131.178 L
745.737 130.699 L
746.125 128.999 L
746.513 129.671 L
746.9 129.671 L
747.287 129.545 L
747.675 128.076 L
748.063 126.235 L
748.45 126.235 L
748.838 127.028 L
749.225 127.419 L
749.612 126.436 L
750 125.406 L
750.388 124.997 L
750.775 127.102 L
751.162 126.85 L
751.55 125.704 L
751.938 125.034 L
752.325 124.409 L
752.713 125.352 L
753.1 125.59 L
753.487 125.456 L
753.875 125.339 L
754.263 126.43 L
754.65 126.336 L
755.037 124.145 L
755.425 124.413 L
755.813 124.859 L
756.2 125.95 L
756.588 125.147 L
756.975 124.388 L
757.362 123.544 L
757.75 122.808 L
758.138 121.58 L
758.525 122.515 L
758.912 123.111 L
759.3 122.069 L
759.688 121.087 L
760.075 119.777 L
760.463 120.595 L
760.85 120.42 L
761.237 120.647 L
761.625 120.609 L
762.013 122.655 L
762.4 122.592 L
762.787 121.748 L
763.175 122.567 L
763.563 123.486 L
763.95 123.67 L
764.338 123.085 L
764.725 121.597 L
765.112 119.196 L
765.5 120.178 L
765.888 119.711 L
766.275 119.314 L
766.662 118.957 L
767.05 118.579 L
767.438 119.405 L
767.825 119.963 L
768.213 120.142 L
768.6 118.693 L
768.987 118.426 L
769.375 119.66 L
769.763 120.377 L
770.15 119.842 L
770.537 118.52 L
770.925 119.066 L
771.313 119.095 L
771.7 118.947 L
772.088 117.914 L
772.475 117.641 L
772.862 117.45 L
773.25 119.385 L
773.638 119.385 L
774.025 118.442 L
774.412 118.82 L
774.8 119.576 L
775.188 118.396 L
775.575 116.944 L
775.963 114.216 L
776.35 114.367 L
776.737 115.963 L
777.125 118.921 L
777.513 120.968 L
777.9 121.935 L
778.287 121.771 L
778.675 121.325 L
779.063 121.474 L
779.45 121.965 L
779.838 121.839 L
780.225 120.038 L
780.612 120.596 L
781 120.842 L
781.388 120.596 L
781.775 118.857 L
782.162 118.651 L
782.55 117.966 L
782.938 116.377 L
783.325 116.637 L
783.713 116.935 L
784.1 117.847 L
784.487 117.114 L
784.875 118.423 L
785.263 118.833 L
785.65 120.508 L
786.037 121.178 L
786.425 121.117 L
786.813 122.216 L
787.2 122.324 L
787.588 122.175 L
787.975 121.964 L
788.362 122.549 L
788.75 122.767 L
789.138 122.012 L
789.525 121.431 L
789.912 122.867 L
790.3 123.519 L
790.688 123.519 L
791.075 123.817 L
791.463 123.966 L
791.85 125.445 L
792.237 124.775 L
792.625 125.711 L
793.013 123.664 L
793.4 123.009 L
793.787 123.188 L
794.175 123.314 L
794.563 125.077 L
794.95 125.81 L
795.338 127.857 L
795.725 129.643 L
796.112 129.164 L
796.5 128.55 L
796.888 125.481 L
797.275 123.844 L
797.662 123.531 L
798.05 123.531 L
798.438 123.531 L
798.825 124.201 L
799.213 123.747 L
799.6 124.022 L
799.987 125.823 L
800.375 126.083 L
800.763 125.989 L
801.15 126.164 L
801.537 124.98 L
801.925 125.633 L
802.313 126.031 L
802.7 126.297 L
803.088 126.483 L
803.475 126.811 L
803.862 126.811 L
804.25 128.214 L
804.638 128.331 L
805.025 127.177 L
805.412 127.177 L
805.8 127.177 L
806.188 128.221 L
806.575 129.058 L
806.963 128.775 L
807.35 128.924 L
807.737 128.956 L
808.125 129.19 L
808.513 128.518 L
808.9 130.331 L
809.287 130.666 L
809.675 130.789 L
810.063 130.055 L
810.45 129.762 L
810.838 130.58 L
811.225 129.496 L
811.612 129.756 L
812 130.426 L
812.388 129.922 L
812.775 129.001 L
813.162 129.805 L
813.55 128.893 L
813.938 128.011 L
814.325 125.965 L
814.713 124.793 L
815.1 125.027 L
815.487 124.162 L
815.875 124.847 L
816.263 123.312 L
816.65 122.902 L
817.037 122.605 L
817.425 122.769 L
817.813 121.997 L
818.2 122.666 L
818.588 121.52 L
818.975 121.349 L
819.362 120.177 L
819.75 119.953 L
820.138 119.872 L
820.525 119.791 L
820.912 119.37 L
821.3 121.475 L
821.688 121.028 L
822.075 121.109 L
822.463 121.028 L
822.85 122.07 L
823.237 121.891 L
823.625 121.973 L
824.013 120.651 L
824.4 120.3 L
824.787 121.863 L
825.175 121.684 L
825.563 122.298 L
825.95 122.789 L
826.338 122.789 L
826.725 123.347 L
827.112 123.073 L
827.5 122.042 L
827.888 121.633 L
828.275 120.667 L
828.662 118.335 L
829.05 117.485 L
829.438 115.643 L
829.825 115.724 L
830.213 115.472 L
830.6 114.653 L
830.987 114.77 L
831.375 113.479 L
831.763 113.207 L
832.15 112.728 L
832.537 112.71 L
832.925 111.845 L
833.313 111.447 L
833.7 112.924 L
834.088 113.036 L
834.475 114.386 L
834.862 112.515 L
835.25 112.934 L
835.638 113.381 L
836.025 113.688 L
836.412 113.571 L
836.8 113.365 L
837.188 112.055 L
837.575 113.586 L
837.963 113.094 L
838.35 114.017 L
838.737 113.73 L
839.125 115.299 L
839.513 115.031 L
839.9 115.031 L
840.287 115.616 L
840.675 116.271 L
841.063 116.047 L
841.45 117.164 L
841.838 118.077 L
842.225 117.402 L
842.612 115.639 L
843 116.085 L
843.388 114.694 L
843.775 115.402 L
844.162 116.104 L
844.55 115.831 L
844.938 114.472 L
845.325 112.158 L
845.713 111.489 L
846.1 109.93 L
846.487 111.214 L
846.875 110.685 L
847.263 111.976 L
847.65 113.203 L
848.037 114.295 L
848.425 116.137 L
848.813 116.305 L
849.2 116.48 L
849.588 116.574 L
849.975 115.756 L
850.362 115.96 L
850.75 116.653 L
851.138 118.844 L
851.525 117.316 L
851.912 118.416 L
852.3 119.913 L
852.688 120.778 L
853.075 121.596 L
853.463 120.497 L
853.85 120.795 L
854.237 119.883 L
854.625 120.21 L
855.013 120.21 L
855.4 119.652 L
855.787 120.061 L
856.175 121.542 L
856.563 121.542 L
856.95 122.688 L
857.338 121.158 L
857.725 120.421 L
858.112 119.592 L
858.5 119.522 L
858.888 118.472 L
859.275 117.847 L
859.662 117.668 L
860.05 117.259 L
860.438 117.587 L
860.825 116.991 L
861.213 115.588 L
861.6 114.945 L
861.987 115.145 L
862.375 115.037 L
862.763 114.769 L
863.15 115.097 L
863.537 115.438 L
863.925 115.565 L
864.313 114.894 L
864.7 116.104 L
865.088 116.215 L
865.475 114.756 L
865.862 114.555 L
866.25 113.122 L
866.638 114.372 L
867.025 113.378 L
867.412 112.887 L
867.8 112.724 L
868.188 110.923 L
868.575 111.51 L
868.963 111.16 L
869.35 110.205 L
869.737 110.088 L
870.125 110.702 L
870.513 110.702 L
870.9 109.228 L
871.287 111.643 L
871.675 111.228 L
872.063 110.261 L
872.45 109.878 L
872.838 108.694 L
873.225 108.788 L
873.612 109.607 L
874 111.233 L
874.388 110.402 L
874.775 111.518 L
875.162 112.523 L
875.55 111.264 L
875.938 110.592 L
876.325 110.379 L
876.713 109.52 L
877.1 110.456 L
877.487 111.274 L
877.875 111.344 L
878.263 111.283 L
878.65 111.132 L
879.037 111.429 L
879.425 110.399 L
879.813 110.645 L
880.2 109.662 L
880.588 109.253 L
880.975 110.656 L
881.362 109.799 L
881.75 111.185 L
882.138 111.293 L
882.525 110.084 L
882.912 110.084 L
883.3 111.176 L
883.688 110.581 L
884.075 109.397 L
884.463 109.069 L
884.85 109.989 L
885.237 111.894 L
885.625 112.816 L
886.013 112.816 L
886.4 112.426 L
886.787 113.606 L
887.175 113.152 L
887.563 111.952 L
887.95 111.624 L
888.338 111.247 L
888.725 112.241 L
889.112 114.423 L
889.5 115.233 L
889.888 113.432 L
890.275 113.324 L
890.662 112.606 L
891.05 110.67 L
891.438 111.377 L
891.825 111.786 L
892.213 110.656 L
892.6 112.153 L
892.987 112.436 L
893.375 110.799 L
893.763 108.666 L
894.15 109.044 L
894.537 107.407 L
894.925 105.876 L
895.313 106.254 L
895.7 106.067 L
896.088 106.487 L
896.475 107.251 L
896.862 106.936 L
897.25 106.155 L
897.638 105.988 L
898.025 106.454 L
898.412 106.869 L
898.8 106.508 L
899.188 107.226 L
899.575 107.065 L
899.963 107.538 L
900.35 107.706 L
900.737 106.191 L
901.125 107.298 L
901.513 106.4 L
901.9 106.13 L
902.287 107.011 L
902.675 107.586 L
903.063 104.427 L
903.45 103.841 L
903.838 105.517 L
904.225 105.524 L
904.612 104.632 L
905 102.796 L
S
GR
%%Trailer
%%Pages: 1
%%EOF
