%!PS-Adobe-3.0 EPSF-3.0
%%Creator: (MATLAB, The Mathworks, Inc. Version 9.0.0.341360 \(R2016a\). Operating System: Linux)
%%Title: report/figures/sm_base_additional_fc_layer1_ratio.eps
%%CreationDate: 2017-02-04T23:56:20
%%Pages: (atend)
%%BoundingBox:    59     4   910   325
%%LanguageLevel: 3
%%EndComments
%%BeginProlog
%%BeginResource: procset (Apache XML Graphics Std ProcSet) 1.2 0
%%Version: 1.2 0
%%Copyright: (Copyright 2001-2003,2010 The Apache Software Foundation. License terms: http://www.apache.org/licenses/LICENSE-2.0)
/bd{bind def}bind def
/ld{load def}bd
/GR/grestore ld
/M/moveto ld
/LJ/setlinejoin ld
/C/curveto ld
/f/fill ld
/LW/setlinewidth ld
/GC/setgray ld
/t/show ld
/N/newpath ld
/CT/concat ld
/cp/closepath ld
/S/stroke ld
/L/lineto ld
/CC/setcmykcolor ld
/A/ashow ld
/GS/gsave ld
/RC/setrgbcolor ld
/RM/rmoveto ld
/ML/setmiterlimit ld
/re {4 2 roll M
1 index 0 rlineto
0 exch rlineto
neg 0 rlineto
cp } bd
/_ctm matrix def
/_tm matrix def
/BT { _ctm currentmatrix pop matrix _tm copy pop 0 0 moveto } bd
/ET { _ctm setmatrix } bd
/iTm { _ctm setmatrix _tm concat } bd
/Tm { _tm astore pop iTm 0 0 moveto } bd
/ux 0.0 def
/uy 0.0 def
/F {
  /Tp exch def
  /Tf exch def
  Tf findfont Tp scalefont setfont
  /cf Tf def  /cs Tp def
} bd
/ULS {currentpoint /uy exch def /ux exch def} bd
/ULE {
  /Tcx currentpoint pop def
  gsave
  newpath
  cf findfont cs scalefont dup
  /FontMatrix get 0 get /Ts exch def /FontInfo get dup
  /UnderlinePosition get Ts mul /To exch def
  /UnderlineThickness get Ts mul /Tt exch def
  ux uy To add moveto  Tcx uy To add lineto
  Tt setlinewidth stroke
  grestore
} bd
/OLE {
  /Tcx currentpoint pop def
  gsave
  newpath
  cf findfont cs scalefont dup
  /FontMatrix get 0 get /Ts exch def /FontInfo get dup
  /UnderlinePosition get Ts mul /To exch def
  /UnderlineThickness get Ts mul /Tt exch def
  ux uy To add cs add moveto Tcx uy To add cs add lineto
  Tt setlinewidth stroke
  grestore
} bd
/SOE {
  /Tcx currentpoint pop def
  gsave
  newpath
  cf findfont cs scalefont dup
  /FontMatrix get 0 get /Ts exch def /FontInfo get dup
  /UnderlinePosition get Ts mul /To exch def
  /UnderlineThickness get Ts mul /Tt exch def
  ux uy To add cs 10 mul 26 idiv add moveto Tcx uy To add cs 10 mul 26 idiv add lineto
  Tt setlinewidth stroke
  grestore
} bd
/QT {
/Y22 exch store
/X22 exch store
/Y21 exch store
/X21 exch store
currentpoint
/Y21 load 2 mul add 3 div exch
/X21 load 2 mul add 3 div exch
/X21 load 2 mul /X22 load add 3 div
/Y21 load 2 mul /Y22 load add 3 div
/X22 load /Y22 load curveto
} bd
/SSPD {
dup length /d exch dict def
{
/v exch def
/k exch def
currentpagedevice k known {
/cpdv currentpagedevice k get def
v cpdv ne {
/upd false def
/nullv v type /nulltype eq def
/nullcpdv cpdv type /nulltype eq def
nullv nullcpdv or
{
/upd true def
} {
/sametype v type cpdv type eq def
sametype {
v type /arraytype eq {
/vlen v length def
/cpdvlen cpdv length def
vlen cpdvlen eq {
0 1 vlen 1 sub {
/i exch def
/obj v i get def
/cpdobj cpdv i get def
obj cpdobj ne {
/upd true def
exit
} if
} for
} {
/upd true def
} ifelse
} {
v type /dicttype eq {
v {
/dv exch def
/dk exch def
/cpddv cpdv dk get def
dv cpddv ne {
/upd true def
exit
} if
} forall
} {
/upd true def
} ifelse
} ifelse
} if
} ifelse
upd true eq {
d k v put
} if
} if
} if
} forall
d length 0 gt {
d setpagedevice
} if
} bd
%%EndResource
%%BeginResource: procset (Apache XML Graphics EPS ProcSet) 1.0 0
%%Version: 1.0 0
%%Copyright: (Copyright 2002-2003 The Apache Software Foundation. License terms: http://www.apache.org/licenses/LICENSE-2.0)
/BeginEPSF { %def
/b4_Inc_state save def         % Save state for cleanup
/dict_count countdictstack def % Count objects on dict stack
/op_count count 1 sub def      % Count objects on operand stack
userdict begin                 % Push userdict on dict stack
/showpage { } def              % Redefine showpage, { } = null proc
0 setgray 0 setlinecap         % Prepare graphics state
1 setlinewidth 0 setlinejoin
10 setmiterlimit [ ] 0 setdash newpath
/languagelevel where           % If level not equal to 1 then
{pop languagelevel             % set strokeadjust and
1 ne                           % overprint to their defaults.
{false setstrokeadjust false setoverprint
} if
} if
} bd
/EndEPSF { %def
count op_count sub {pop} repeat            % Clean up stacks
countdictstack dict_count sub {end} repeat
b4_Inc_state restore
} bd
%%EndResource
%%EndProlog
%%Page: 1 1
%%PageBoundingBox: 0 0 1000 350
%%BeginPageSetup
[1 0 0 -1 0 350] CT
%%EndPageSetup
GS
1 GC
N
0 0 1000 350 re
f
GR
GS
1 GC
N
0 0 1000 350 re
f
GR
GS
1 GC
N
130 289 M
905 289 L
905 26 L
130 26 L
cp
f
GR
GS
0.873 GC
1 LJ
0.5 LW
N
130 289 M
130 26 L
S
GR
GS
0.873 GC
1 LJ
0.5 LW
N
323.75 289 M
323.75 26 L
S
GR
GS
0.873 GC
1 LJ
0.5 LW
N
517.5 289 M
517.5 26 L
S
GR
GS
0.873 GC
1 LJ
0.5 LW
N
711.25 289 M
711.25 26 L
S
GR
GS
0.873 GC
1 LJ
0.5 LW
N
905 289 M
905 26 L
S
GR
GS
0.873 GC
1 LJ
0.5 LW
N
905 289 M
130 289 L
S
GR
GS
0.873 GC
1 LJ
0.5 LW
N
905 238.905 M
130 238.905 L
S
GR
GS
0.873 GC
1 LJ
0.5 LW
N
905 188.81 M
130 188.81 L
S
GR
GS
0.873 GC
1 LJ
0.5 LW
N
905 138.714 M
130 138.714 L
S
GR
GS
0.873 GC
1 LJ
0.5 LW
N
905 88.619 M
130 88.619 L
S
GR
GS
0.873 GC
1 LJ
0.5 LW
N
905 38.524 M
130 38.524 L
S
GR
GS
0.149 GC
2 setlinecap
1 LJ
0.5 LW
N
130 289 M
905 289 L
S
GR
GS
0.149 GC
2 setlinecap
1 LJ
0.5 LW
N
130 289 M
130 281.25 L
S
GR
GS
0.149 GC
2 setlinecap
1 LJ
0.5 LW
N
323.75 289 M
323.75 281.25 L
S
GR
GS
0.149 GC
2 setlinecap
1 LJ
0.5 LW
N
517.5 289 M
517.5 281.25 L
S
GR
GS
0.149 GC
2 setlinecap
1 LJ
0.5 LW
N
711.25 289 M
711.25 281.25 L
S
GR
GS
0.149 GC
2 setlinecap
1 LJ
0.5 LW
N
905 289 M
905 281.25 L
S
GR
GS
[1 0 0 1 130 295] CT
0.149 GC
N
-0.141 5.719 M
-1.672 5.719 -2.438 7.219 QT
-3.203 8.719 -3.203 11.719 QT
-3.203 14.719 -2.438 16.219 QT
-1.672 17.719 -0.141 17.719 QT
1.391 17.719 2.156 16.219 QT
2.922 14.719 2.922 11.719 QT
2.922 8.719 2.156 7.219 QT
1.391 5.719 -0.141 5.719 QT
cp
-0.141 4.156 M
2.313 4.156 3.602 6.094 QT
4.891 8.031 4.891 11.719 QT
4.891 15.406 3.602 17.344 QT
2.313 19.281 -0.141 19.281 QT
-2.594 19.281 -3.891 17.344 QT
-5.188 15.406 -5.188 11.719 QT
-5.188 8.031 -3.891 6.094 QT
-2.594 4.156 -0.141 4.156 QT
cp
f
GR
GS
[1 0 0 1 323.75 295] CT
0.149 GC
N
-9.641 5.719 M
-11.172 5.719 -11.938 7.219 QT
-12.703 8.719 -12.703 11.719 QT
-12.703 14.719 -11.938 16.219 QT
-11.172 17.719 -9.641 17.719 QT
-8.109 17.719 -7.344 16.219 QT
-6.578 14.719 -6.578 11.719 QT
-6.578 8.719 -7.344 7.219 QT
-8.109 5.719 -9.641 5.719 QT
cp
-9.641 4.156 M
-7.188 4.156 -5.898 6.094 QT
-4.609 8.031 -4.609 11.719 QT
-4.609 15.406 -5.898 17.344 QT
-7.188 19.281 -9.641 19.281 QT
-12.094 19.281 -13.391 17.344 QT
-14.688 15.406 -14.688 11.719 QT
-14.688 8.031 -13.391 6.094 QT
-12.094 4.156 -9.641 4.156 QT
cp
-1.135 16.516 M
0.928 16.516 L
0.928 19 L
-1.135 19 L
-1.135 16.516 L
cp
5.238 4.422 M
12.988 4.422 L
12.988 6.078 L
7.051 6.078 L
7.051 9.656 L
7.473 9.5 7.902 9.43 QT
8.332 9.359 8.77 9.359 QT
11.207 9.359 12.637 10.695 QT
14.066 12.031 14.066 14.328 QT
14.066 16.672 12.598 17.977 QT
11.129 19.281 8.457 19.281 QT
7.551 19.281 6.598 19.125 QT
5.645 18.969 4.629 18.656 QT
4.629 16.672 L
5.504 17.156 6.441 17.391 QT
7.379 17.625 8.426 17.625 QT
10.113 17.625 11.098 16.734 QT
12.082 15.844 12.082 14.328 QT
12.082 12.797 11.098 11.906 QT
10.113 11.016 8.426 11.016 QT
7.629 11.016 6.848 11.195 QT
6.066 11.375 5.238 11.75 QT
5.238 4.422 L
cp
f
GR
GS
[1 0 0 1 517.5 295] CT
0.149 GC
N
-4.016 17.344 M
-0.797 17.344 L
-0.797 6.219 L
-4.297 6.922 L
-4.297 5.125 L
-0.813 4.422 L
1.156 4.422 L
1.156 17.344 L
4.375 17.344 L
4.375 19 L
-4.016 19 L
-4.016 17.344 L
cp
f
GR
GS
[1 0 0 1 711.25 295] CT
0.149 GC
N
-13.516 17.344 M
-10.297 17.344 L
-10.297 6.219 L
-13.797 6.922 L
-13.797 5.125 L
-10.313 4.422 L
-8.344 4.422 L
-8.344 17.344 L
-5.125 17.344 L
-5.125 19 L
-13.516 19 L
-13.516 17.344 L
cp
-1.135 16.516 M
0.928 16.516 L
0.928 19 L
-1.135 19 L
-1.135 16.516 L
cp
5.238 4.422 M
12.988 4.422 L
12.988 6.078 L
7.051 6.078 L
7.051 9.656 L
7.473 9.5 7.902 9.43 QT
8.332 9.359 8.77 9.359 QT
11.207 9.359 12.637 10.695 QT
14.066 12.031 14.066 14.328 QT
14.066 16.672 12.598 17.977 QT
11.129 19.281 8.457 19.281 QT
7.551 19.281 6.598 19.125 QT
5.645 18.969 4.629 18.656 QT
4.629 16.672 L
5.504 17.156 6.441 17.391 QT
7.379 17.625 8.426 17.625 QT
10.113 17.625 11.098 16.734 QT
12.082 15.844 12.082 14.328 QT
12.082 12.797 11.098 11.906 QT
10.113 11.016 8.426 11.016 QT
7.629 11.016 6.848 11.195 QT
6.066 11.375 5.238 11.75 QT
5.238 4.422 L
cp
f
GR
GS
[1 0 0 1 905 295] CT
0.149 GC
N
-2.656 17.344 M
4.219 17.344 L
4.219 19 L
-5.031 19 L
-5.031 17.344 L
-3.906 16.172 -1.969 14.219 QT
-0.031 12.266 0.469 11.688 QT
1.406 10.625 1.781 9.891 QT
2.156 9.156 2.156 8.438 QT
2.156 7.281 1.344 6.547 QT
0.531 5.813 -0.781 5.813 QT
-1.703 5.813 -2.734 6.133 QT
-3.766 6.453 -4.938 7.109 QT
-4.938 5.125 L
-3.75 4.641 -2.711 4.398 QT
-1.672 4.156 -0.813 4.156 QT
1.453 4.156 2.797 5.289 QT
4.141 6.422 4.141 8.313 QT
4.141 9.219 3.805 10.023 QT
3.469 10.828 2.578 11.922 QT
2.344 12.203 1.031 13.555 QT
-0.281 14.906 -2.656 17.344 QT
cp
f
GR
GS
[1 0 0 1 517.50037 320] CT
0.149 GC
N
-14.25 9.328 M
-14.25 11.188 L
-15.094 10.766 -16 10.547 QT
-16.906 10.328 -17.859 10.328 QT
-19.344 10.328 -20.078 10.781 QT
-20.813 11.234 -20.813 12.141 QT
-20.813 12.828 -20.281 13.219 QT
-19.75 13.609 -18.172 13.969 QT
-17.484 14.109 L
-15.391 14.563 -14.5 15.383 QT
-13.609 16.203 -13.609 17.688 QT
-13.609 19.359 -14.938 20.336 QT
-16.266 21.313 -18.578 21.313 QT
-19.547 21.313 -20.594 21.125 QT
-21.641 20.938 -22.813 20.563 QT
-22.813 18.516 L
-21.719 19.094 -20.648 19.375 QT
-19.578 19.656 -18.547 19.656 QT
-17.141 19.656 -16.391 19.18 QT
-15.641 18.703 -15.641 17.828 QT
-15.641 17.031 -16.188 16.602 QT
-16.734 16.172 -18.563 15.766 QT
-19.25 15.609 L
-21.094 15.219 -21.906 14.422 QT
-22.719 13.625 -22.719 12.219 QT
-22.719 10.531 -21.516 9.602 QT
-20.313 8.672 -18.109 8.672 QT
-17 8.672 -16.039 8.836 QT
-15.078 9 -14.25 9.328 QT
cp
-8.507 5.547 M
-8.507 8.969 L
-4.444 8.969 L
-4.444 10.5 L
-8.507 10.5 L
-8.507 17.031 L
-8.507 18.5 -8.108 18.922 QT
-7.71 19.344 -6.476 19.344 QT
-4.444 19.344 L
-4.444 21 L
-6.476 21 L
-8.757 21 -9.624 20.148 QT
-10.491 19.297 -10.491 17.031 QT
-10.491 10.5 L
-11.944 10.5 L
-11.944 8.969 L
-10.491 8.969 L
-10.491 5.547 L
-8.507 5.547 L
cp
8.447 14.484 M
8.447 15.453 L
-0.631 15.453 L
-0.506 17.5 0.596 18.57 QT
1.697 19.641 3.666 19.641 QT
4.807 19.641 5.869 19.359 QT
6.932 19.078 7.994 18.516 QT
7.994 20.391 L
6.932 20.844 5.814 21.078 QT
4.697 21.313 3.541 21.313 QT
0.666 21.313 -1.014 19.633 QT
-2.693 17.953 -2.693 15.109 QT
-2.693 12.141 -1.1 10.406 QT
0.494 8.672 3.197 8.672 QT
5.635 8.672 7.041 10.234 QT
8.447 11.797 8.447 14.484 QT
cp
6.479 13.906 M
6.447 12.281 5.564 11.32 QT
4.682 10.359 3.229 10.359 QT
1.572 10.359 0.572 11.289 QT
-0.428 12.219 -0.568 13.922 QT
6.479 13.906 L
cp
13.607 19.188 M
13.607 25.578 L
11.623 25.578 L
11.623 8.969 L
13.607 8.969 L
13.607 10.797 L
14.232 9.719 15.186 9.195 QT
16.139 8.672 17.451 8.672 QT
19.639 8.672 21.014 10.414 QT
22.389 12.156 22.389 15 QT
22.389 17.828 21.014 19.57 QT
19.639 21.313 17.451 21.313 QT
16.139 21.313 15.186 20.789 QT
14.232 20.266 13.607 19.188 QT
cp
20.326 15 M
20.326 12.813 19.436 11.57 QT
18.545 10.328 16.967 10.328 QT
15.404 10.328 14.506 11.57 QT
13.607 12.813 13.607 15 QT
13.607 17.172 14.506 18.414 QT
15.404 19.656 16.967 19.656 QT
18.545 19.656 19.436 18.414 QT
20.326 17.172 20.326 15 QT
cp
f
GR
GS
[1 0 0 1 852 345] CT
0.149 GC
N
2.938 -0.578 M
2.938 -0.734 3.031 -0.859 QT
7.203 -5 L
3.031 -9.156 L
2.938 -9.266 2.938 -9.422 QT
2.938 -9.578 3.055 -9.703 QT
3.172 -9.828 3.344 -9.828 QT
3.484 -9.828 3.641 -9.703 QT
7.781 -5.563 L
11.906 -9.703 L
12.078 -9.828 12.203 -9.828 QT
12.359 -9.828 12.477 -9.711 QT
12.594 -9.594 12.594 -9.422 QT
12.594 -9.266 12.5 -9.156 QT
8.344 -5 L
12.5 -0.859 L
12.594 -0.734 12.594 -0.578 QT
12.594 -0.406 12.477 -0.289 QT
12.359 -0.172 12.203 -0.172 QT
12.047 -0.172 11.906 -0.328 QT
7.781 -4.438 L
3.641 -0.328 L
3.5 -0.172 3.344 -0.172 QT
3.172 -0.172 3.055 -0.305 QT
2.938 -0.438 2.938 -0.578 QT
cp
f
GR
GS
[1 0 0 1 868 345] CT
0.149 GC
N
2.484 -1.656 M
5.703 -1.656 L
5.703 -12.781 L
2.203 -12.078 L
2.203 -13.875 L
5.688 -14.578 L
7.656 -14.578 L
7.656 -1.656 L
10.875 -1.656 L
10.875 0 L
2.484 0 L
2.484 -1.656 L
cp
19.084 -13.281 M
17.553 -13.281 16.787 -11.781 QT
16.021 -10.281 16.021 -7.281 QT
16.021 -4.281 16.787 -2.781 QT
17.553 -1.281 19.084 -1.281 QT
20.615 -1.281 21.381 -2.781 QT
22.146 -4.281 22.146 -7.281 QT
22.146 -10.281 21.381 -11.781 QT
20.615 -13.281 19.084 -13.281 QT
cp
19.084 -14.844 M
21.537 -14.844 22.826 -12.906 QT
24.115 -10.969 24.115 -7.281 QT
24.115 -3.594 22.826 -1.656 QT
21.537 0.281 19.084 0.281 QT
16.631 0.281 15.334 -1.656 QT
14.037 -3.594 14.037 -7.281 QT
14.037 -10.969 15.334 -12.906 QT
16.631 -14.844 19.084 -14.844 QT
cp
f
GR
GS
[1 0 0 1 894 335] CT
0.149 GC
N
5.281 -6.469 M
4.219 -6.469 3.602 -5.742 QT
2.984 -5.016 2.984 -3.75 QT
2.984 -2.484 3.602 -1.758 QT
4.219 -1.031 5.281 -1.031 QT
6.344 -1.031 6.969 -1.758 QT
7.594 -2.484 7.594 -3.75 QT
7.594 -5.016 6.969 -5.742 QT
6.344 -6.469 5.281 -6.469 QT
cp
8.422 -11.406 M
8.422 -9.969 L
7.828 -10.25 7.219 -10.398 QT
6.609 -10.547 6.016 -10.547 QT
4.453 -10.547 3.633 -9.492 QT
2.813 -8.438 2.688 -6.313 QT
3.156 -6.984 3.852 -7.352 QT
4.547 -7.719 5.375 -7.719 QT
7.141 -7.719 8.156 -6.648 QT
9.172 -5.578 9.172 -3.75 QT
9.172 -1.953 8.109 -0.859 QT
7.047 0.234 5.281 0.234 QT
3.266 0.234 2.195 -1.32 QT
1.125 -2.875 1.125 -5.828 QT
1.125 -8.594 2.438 -10.234 QT
3.75 -11.875 5.953 -11.875 QT
6.547 -11.875 7.156 -11.758 QT
7.766 -11.641 8.422 -11.406 QT
cp
f
GR
GS
0.149 GC
2 setlinecap
1 LJ
0.5 LW
N
130 289 M
130 26 L
S
GR
GS
0.149 GC
2 setlinecap
1 LJ
0.5 LW
N
130 289 M
137.75 289 L
S
GR
GS
0.149 GC
2 setlinecap
1 LJ
0.5 LW
N
130 238.905 M
137.75 238.905 L
S
GR
GS
0.149 GC
2 setlinecap
1 LJ
0.5 LW
N
130 188.81 M
137.75 188.81 L
S
GR
GS
0.149 GC
2 setlinecap
1 LJ
0.5 LW
N
130 138.714 M
137.75 138.714 L
S
GR
GS
0.149 GC
2 setlinecap
1 LJ
0.5 LW
N
130 88.619 M
137.75 88.619 L
S
GR
GS
0.149 GC
2 setlinecap
1 LJ
0.5 LW
N
130 38.524 M
137.75 38.524 L
S
GR
GS
[1 0 0 1 124 289] CT
0.149 GC
N
-6.641 -6.281 M
-8.172 -6.281 -8.938 -4.781 QT
-9.703 -3.281 -9.703 -0.281 QT
-9.703 2.719 -8.938 4.219 QT
-8.172 5.719 -6.641 5.719 QT
-5.109 5.719 -4.344 4.219 QT
-3.578 2.719 -3.578 -0.281 QT
-3.578 -3.281 -4.344 -4.781 QT
-5.109 -6.281 -6.641 -6.281 QT
cp
-6.641 -7.844 M
-4.188 -7.844 -2.898 -5.906 QT
-1.609 -3.969 -1.609 -0.281 QT
-1.609 3.406 -2.898 5.344 QT
-4.188 7.281 -6.641 7.281 QT
-9.094 7.281 -10.391 5.344 QT
-11.688 3.406 -11.688 -0.281 QT
-11.688 -3.969 -10.391 -5.906 QT
-9.094 -7.844 -6.641 -7.844 QT
cp
f
GR
GS
[1 0 0 1 124 238.90475] CT
0.149 GC
N
-22.156 5.344 M
-15.281 5.344 L
-15.281 7 L
-24.531 7 L
-24.531 5.344 L
-23.406 4.172 -21.469 2.219 QT
-19.531 0.266 -19.031 -0.313 QT
-18.094 -1.375 -17.719 -2.109 QT
-17.344 -2.844 -17.344 -3.563 QT
-17.344 -4.719 -18.156 -5.453 QT
-18.969 -6.188 -20.281 -6.188 QT
-21.203 -6.188 -22.234 -5.867 QT
-23.266 -5.547 -24.438 -4.891 QT
-24.438 -6.875 L
-23.25 -7.359 -22.211 -7.602 QT
-21.172 -7.844 -20.313 -7.844 QT
-18.047 -7.844 -16.703 -6.711 QT
-15.359 -5.578 -15.359 -3.688 QT
-15.359 -2.781 -15.695 -1.977 QT
-16.031 -1.172 -16.922 -0.078 QT
-17.156 0.203 -18.469 1.555 QT
-19.781 2.906 -22.156 5.344 QT
cp
-6.916 -6.281 M
-8.447 -6.281 -9.213 -4.781 QT
-9.979 -3.281 -9.979 -0.281 QT
-9.979 2.719 -9.213 4.219 QT
-8.447 5.719 -6.916 5.719 QT
-5.385 5.719 -4.619 4.219 QT
-3.854 2.719 -3.854 -0.281 QT
-3.854 -3.281 -4.619 -4.781 QT
-5.385 -6.281 -6.916 -6.281 QT
cp
-6.916 -7.844 M
-4.463 -7.844 -3.174 -5.906 QT
-1.885 -3.969 -1.885 -0.281 QT
-1.885 3.406 -3.174 5.344 QT
-4.463 7.281 -6.916 7.281 QT
-9.369 7.281 -10.666 5.344 QT
-11.963 3.406 -11.963 -0.281 QT
-11.963 -3.969 -10.666 -5.906 QT
-9.369 -7.844 -6.916 -7.844 QT
cp
f
GR
GS
[1 0 0 1 124 188.80952] CT
0.149 GC
N
-18.438 -5.859 M
-23.422 1.922 L
-18.438 1.922 L
-18.438 -5.859 L
cp
-18.953 -7.578 M
-16.484 -7.578 L
-16.484 1.922 L
-14.391 1.922 L
-14.391 3.563 L
-16.484 3.563 L
-16.484 7 L
-18.438 7 L
-18.438 3.563 L
-25.016 3.563 L
-25.016 1.656 L
-18.953 -7.578 L
cp
-6.916 -6.281 M
-8.447 -6.281 -9.213 -4.781 QT
-9.979 -3.281 -9.979 -0.281 QT
-9.979 2.719 -9.213 4.219 QT
-8.447 5.719 -6.916 5.719 QT
-5.385 5.719 -4.619 4.219 QT
-3.854 2.719 -3.854 -0.281 QT
-3.854 -3.281 -4.619 -4.781 QT
-5.385 -6.281 -6.916 -6.281 QT
cp
-6.916 -7.844 M
-4.463 -7.844 -3.174 -5.906 QT
-1.885 -3.969 -1.885 -0.281 QT
-1.885 3.406 -3.174 5.344 QT
-4.463 7.281 -6.916 7.281 QT
-9.369 7.281 -10.666 5.344 QT
-11.963 3.406 -11.963 -0.281 QT
-11.963 -3.969 -10.666 -5.906 QT
-9.369 -7.844 -6.916 -7.844 QT
cp
f
GR
GS
[1 0 0 1 124 138.71428] CT
0.149 GC
N
-19.391 -1.078 M
-20.719 -1.078 -21.5 -0.172 QT
-22.281 0.734 -22.281 2.328 QT
-22.281 3.891 -21.5 4.805 QT
-20.719 5.719 -19.391 5.719 QT
-18.063 5.719 -17.289 4.805 QT
-16.516 3.891 -16.516 2.328 QT
-16.516 0.734 -17.289 -0.172 QT
-18.063 -1.078 -19.391 -1.078 QT
cp
-15.484 -7.266 M
-15.484 -5.469 L
-16.219 -5.813 -16.977 -6 QT
-17.734 -6.188 -18.484 -6.188 QT
-20.438 -6.188 -21.469 -4.867 QT
-22.5 -3.547 -22.641 -0.875 QT
-22.063 -1.734 -21.195 -2.188 QT
-20.328 -2.641 -19.281 -2.641 QT
-17.078 -2.641 -15.805 -1.305 QT
-14.531 0.031 -14.531 2.328 QT
-14.531 4.563 -15.859 5.922 QT
-17.188 7.281 -19.391 7.281 QT
-21.922 7.281 -23.266 5.344 QT
-24.609 3.406 -24.609 -0.281 QT
-24.609 -3.734 -22.969 -5.789 QT
-21.328 -7.844 -18.563 -7.844 QT
-17.813 -7.844 -17.055 -7.695 QT
-16.297 -7.547 -15.484 -7.266 QT
cp
-6.916 -6.281 M
-8.447 -6.281 -9.213 -4.781 QT
-9.979 -3.281 -9.979 -0.281 QT
-9.979 2.719 -9.213 4.219 QT
-8.447 5.719 -6.916 5.719 QT
-5.385 5.719 -4.619 4.219 QT
-3.854 2.719 -3.854 -0.281 QT
-3.854 -3.281 -4.619 -4.781 QT
-5.385 -6.281 -6.916 -6.281 QT
cp
-6.916 -7.844 M
-4.463 -7.844 -3.174 -5.906 QT
-1.885 -3.969 -1.885 -0.281 QT
-1.885 3.406 -3.174 5.344 QT
-4.463 7.281 -6.916 7.281 QT
-9.369 7.281 -10.666 5.344 QT
-11.963 3.406 -11.963 -0.281 QT
-11.963 -3.969 -10.666 -5.906 QT
-9.369 -7.844 -6.916 -7.844 QT
cp
f
GR
GS
[1 0 0 1 124 88.61905] CT
0.149 GC
N
-19.641 0.078 M
-21.047 0.078 -21.852 0.828 QT
-22.656 1.578 -22.656 2.891 QT
-22.656 4.219 -21.852 4.969 QT
-21.047 5.719 -19.641 5.719 QT
-18.234 5.719 -17.422 4.961 QT
-16.609 4.203 -16.609 2.891 QT
-16.609 1.578 -17.414 0.828 QT
-18.219 0.078 -19.641 0.078 QT
cp
-21.609 -0.766 M
-22.891 -1.078 -23.594 -1.945 QT
-24.297 -2.813 -24.297 -4.063 QT
-24.297 -5.813 -23.055 -6.828 QT
-21.813 -7.844 -19.641 -7.844 QT
-17.469 -7.844 -16.227 -6.828 QT
-14.984 -5.813 -14.984 -4.063 QT
-14.984 -2.813 -15.695 -1.945 QT
-16.406 -1.078 -17.656 -0.766 QT
-16.234 -0.438 -15.438 0.531 QT
-14.641 1.5 -14.641 2.891 QT
-14.641 5.016 -15.938 6.148 QT
-17.234 7.281 -19.641 7.281 QT
-22.047 7.281 -23.344 6.148 QT
-24.641 5.016 -24.641 2.891 QT
-24.641 1.5 -23.844 0.531 QT
-23.047 -0.438 -21.609 -0.766 QT
cp
-22.344 -3.875 M
-22.344 -2.75 -21.633 -2.117 QT
-20.922 -1.484 -19.641 -1.484 QT
-18.375 -1.484 -17.656 -2.117 QT
-16.938 -2.75 -16.938 -3.875 QT
-16.938 -5.016 -17.656 -5.648 QT
-18.375 -6.281 -19.641 -6.281 QT
-20.922 -6.281 -21.633 -5.648 QT
-22.344 -5.016 -22.344 -3.875 QT
cp
-6.916 -6.281 M
-8.447 -6.281 -9.213 -4.781 QT
-9.979 -3.281 -9.979 -0.281 QT
-9.979 2.719 -9.213 4.219 QT
-8.447 5.719 -6.916 5.719 QT
-5.385 5.719 -4.619 4.219 QT
-3.854 2.719 -3.854 -0.281 QT
-3.854 -3.281 -4.619 -4.781 QT
-5.385 -6.281 -6.916 -6.281 QT
cp
-6.916 -7.844 M
-4.463 -7.844 -3.174 -5.906 QT
-1.885 -3.969 -1.885 -0.281 QT
-1.885 3.406 -3.174 5.344 QT
-4.463 7.281 -6.916 7.281 QT
-9.369 7.281 -10.666 5.344 QT
-11.963 3.406 -11.963 -0.281 QT
-11.963 -3.969 -10.666 -5.906 QT
-9.369 -7.844 -6.916 -7.844 QT
cp
f
GR
GS
[1 0 0 1 124 38.52381] CT
0.149 GC
N
-36.516 5.344 M
-33.297 5.344 L
-33.297 -5.781 L
-36.797 -5.078 L
-36.797 -6.875 L
-33.313 -7.578 L
-31.344 -7.578 L
-31.344 5.344 L
-28.125 5.344 L
-28.125 7 L
-36.516 7 L
-36.516 5.344 L
cp
-19.916 -6.281 M
-21.447 -6.281 -22.213 -4.781 QT
-22.979 -3.281 -22.979 -0.281 QT
-22.979 2.719 -22.213 4.219 QT
-21.447 5.719 -19.916 5.719 QT
-18.385 5.719 -17.619 4.219 QT
-16.854 2.719 -16.854 -0.281 QT
-16.854 -3.281 -17.619 -4.781 QT
-18.385 -6.281 -19.916 -6.281 QT
cp
-19.916 -7.844 M
-17.463 -7.844 -16.174 -5.906 QT
-14.885 -3.969 -14.885 -0.281 QT
-14.885 3.406 -16.174 5.344 QT
-17.463 7.281 -19.916 7.281 QT
-22.369 7.281 -23.666 5.344 QT
-24.963 3.406 -24.963 -0.281 QT
-24.963 -3.969 -23.666 -5.906 QT
-22.369 -7.844 -19.916 -7.844 QT
cp
-7.191 -6.281 M
-8.723 -6.281 -9.488 -4.781 QT
-10.254 -3.281 -10.254 -0.281 QT
-10.254 2.719 -9.488 4.219 QT
-8.723 5.719 -7.191 5.719 QT
-5.66 5.719 -4.895 4.219 QT
-4.129 2.719 -4.129 -0.281 QT
-4.129 -3.281 -4.895 -4.781 QT
-5.66 -6.281 -7.191 -6.281 QT
cp
-7.191 -7.844 M
-4.738 -7.844 -3.449 -5.906 QT
-2.16 -3.969 -2.16 -0.281 QT
-2.16 3.406 -3.449 5.344 QT
-4.738 7.281 -7.191 7.281 QT
-9.645 7.281 -10.941 5.344 QT
-12.238 3.406 -12.238 -0.281 QT
-12.238 -3.969 -10.941 -5.906 QT
-9.645 -7.844 -7.191 -7.844 QT
cp
f
GR
GS
[0 -1 1 0 82 157.49988] CT
0.149 GC
N
-113.063 -22.031 M
-99.5 -22.031 L
-99.5 -20.219 L
-105.188 -20.219 L
-105.188 -6 L
-107.375 -6 L
-107.375 -20.219 L
-113.063 -20.219 L
-113.063 -22.031 L
cp
-92.015 -12.047 M
-94.421 -12.047 -95.343 -11.5 QT
-96.265 -10.953 -96.265 -9.625 QT
-96.265 -8.578 -95.569 -7.961 QT
-94.874 -7.344 -93.687 -7.344 QT
-92.046 -7.344 -91.054 -8.508 QT
-90.062 -9.672 -90.062 -11.609 QT
-90.062 -12.047 L
-92.015 -12.047 L
cp
-88.077 -12.859 M
-88.077 -6 L
-90.062 -6 L
-90.062 -7.828 L
-90.733 -6.734 -91.741 -6.211 QT
-92.749 -5.688 -94.218 -5.688 QT
-96.062 -5.688 -97.147 -6.727 QT
-98.233 -7.766 -98.233 -9.5 QT
-98.233 -11.531 -96.874 -12.563 QT
-95.515 -13.594 -92.827 -13.594 QT
-90.062 -13.594 L
-90.062 -13.781 L
-90.062 -15.156 -90.952 -15.898 QT
-91.843 -16.641 -93.468 -16.641 QT
-94.499 -16.641 -95.476 -16.398 QT
-96.452 -16.156 -97.358 -15.656 QT
-97.358 -17.484 L
-96.28 -17.906 -95.257 -18.117 QT
-94.233 -18.328 -93.265 -18.328 QT
-90.655 -18.328 -89.366 -16.969 QT
-88.077 -15.609 -88.077 -12.859 QT
cp
-77.033 -16.188 M
-77.361 -16.375 -77.76 -16.469 QT
-78.158 -16.563 -78.627 -16.563 QT
-80.299 -16.563 -81.197 -15.469 QT
-82.096 -14.375 -82.096 -12.344 QT
-82.096 -6 L
-84.08 -6 L
-84.08 -18.031 L
-82.096 -18.031 L
-82.096 -16.156 L
-81.471 -17.266 -80.471 -17.797 QT
-79.471 -18.328 -78.049 -18.328 QT
-77.846 -18.328 -77.596 -18.297 QT
-77.346 -18.266 -77.049 -18.219 QT
-77.033 -16.188 L
cp
-67.051 -12.156 M
-67.051 -14.297 -67.934 -15.484 QT
-68.816 -16.672 -70.41 -16.672 QT
-72.004 -16.672 -72.895 -15.484 QT
-73.785 -14.297 -73.785 -12.156 QT
-73.785 -10.016 -72.895 -8.836 QT
-72.004 -7.656 -70.41 -7.656 QT
-68.816 -7.656 -67.934 -8.836 QT
-67.051 -10.016 -67.051 -12.156 QT
cp
-65.066 -7.5 M
-65.066 -4.422 -66.434 -2.922 QT
-67.801 -1.422 -70.613 -1.422 QT
-71.66 -1.422 -72.582 -1.578 QT
-73.504 -1.734 -74.363 -2.063 QT
-74.363 -3.984 L
-73.504 -3.5 -72.652 -3.281 QT
-71.801 -3.063 -70.926 -3.063 QT
-68.973 -3.063 -68.012 -4.078 QT
-67.051 -5.094 -67.051 -7.141 QT
-67.051 -8.109 L
-67.66 -7.047 -68.613 -6.523 QT
-69.566 -6 -70.895 -6 QT
-73.113 -6 -74.465 -7.688 QT
-75.816 -9.375 -75.816 -12.156 QT
-75.816 -14.953 -74.465 -16.641 QT
-73.113 -18.328 -70.895 -18.328 QT
-69.566 -18.328 -68.613 -17.797 QT
-67.66 -17.266 -67.051 -16.203 QT
-67.051 -18.031 L
-65.066 -18.031 L
-65.066 -7.5 L
cp
-50.711 -12.516 M
-50.711 -11.547 L
-59.789 -11.547 L
-59.664 -9.5 -58.563 -8.43 QT
-57.461 -7.359 -55.492 -7.359 QT
-54.352 -7.359 -53.289 -7.641 QT
-52.227 -7.922 -51.164 -8.484 QT
-51.164 -6.609 L
-52.227 -6.156 -53.344 -5.922 QT
-54.461 -5.688 -55.617 -5.688 QT
-58.492 -5.688 -60.172 -7.367 QT
-61.852 -9.047 -61.852 -11.891 QT
-61.852 -14.859 -60.258 -16.594 QT
-58.664 -18.328 -55.961 -18.328 QT
-53.523 -18.328 -52.117 -16.766 QT
-50.711 -15.203 -50.711 -12.516 QT
cp
-52.68 -13.094 M
-52.711 -14.719 -53.594 -15.68 QT
-54.477 -16.641 -55.93 -16.641 QT
-57.586 -16.641 -58.586 -15.711 QT
-59.586 -14.781 -59.727 -13.078 QT
-52.68 -13.094 L
cp
-45.504 -21.453 M
-45.504 -18.031 L
-41.441 -18.031 L
-41.441 -16.5 L
-45.504 -16.5 L
-45.504 -9.969 L
-45.504 -8.5 -45.105 -8.078 QT
-44.707 -7.656 -43.473 -7.656 QT
-41.441 -7.656 L
-41.441 -6 L
-43.473 -6 L
-45.754 -6 -46.621 -6.852 QT
-47.488 -7.703 -47.488 -9.969 QT
-47.488 -16.5 L
-48.941 -16.5 L
-48.941 -18.031 L
-47.488 -18.031 L
-47.488 -21.453 L
-45.504 -21.453 L
cp
-31.159 -17.672 M
-31.159 -15.813 L
-32.003 -16.234 -32.909 -16.453 QT
-33.815 -16.672 -34.769 -16.672 QT
-36.253 -16.672 -36.987 -16.219 QT
-37.722 -15.766 -37.722 -14.859 QT
-37.722 -14.172 -37.19 -13.781 QT
-36.659 -13.391 -35.081 -13.031 QT
-34.394 -12.891 L
-32.3 -12.438 -31.409 -11.617 QT
-30.519 -10.797 -30.519 -9.313 QT
-30.519 -7.641 -31.847 -6.664 QT
-33.175 -5.688 -35.487 -5.688 QT
-36.456 -5.688 -37.503 -5.875 QT
-38.55 -6.063 -39.722 -6.438 QT
-39.722 -8.484 L
-38.628 -7.906 -37.558 -7.625 QT
-36.487 -7.344 -35.456 -7.344 QT
-34.05 -7.344 -33.3 -7.82 QT
-32.55 -8.297 -32.55 -9.172 QT
-32.55 -9.969 -33.097 -10.398 QT
-33.644 -10.828 -35.472 -11.234 QT
-36.159 -11.391 L
-38.003 -11.781 -38.815 -12.578 QT
-39.628 -13.375 -39.628 -14.781 QT
-39.628 -16.469 -38.425 -17.398 QT
-37.222 -18.328 -35.019 -18.328 QT
-33.909 -18.328 -32.948 -18.164 QT
-31.987 -18 -31.159 -17.672 QT
cp
-13.407 -16.188 M
-13.735 -16.375 -14.134 -16.469 QT
-14.532 -16.563 -15.001 -16.563 QT
-16.673 -16.563 -17.571 -15.469 QT
-18.47 -14.375 -18.47 -12.344 QT
-18.47 -6 L
-20.454 -6 L
-20.454 -18.031 L
-18.47 -18.031 L
-18.47 -16.156 L
-17.845 -17.266 -16.845 -17.797 QT
-15.845 -18.328 -14.423 -18.328 QT
-14.22 -18.328 -13.97 -18.297 QT
-13.72 -18.266 -13.423 -18.219 QT
-13.407 -16.188 L
cp
-1.05 -12.516 M
-1.05 -11.547 L
-10.128 -11.547 L
-10.003 -9.5 -8.901 -8.43 QT
-7.8 -7.359 -5.831 -7.359 QT
-4.69 -7.359 -3.628 -7.641 QT
-2.565 -7.922 -1.503 -8.484 QT
-1.503 -6.609 L
-2.565 -6.156 -3.683 -5.922 QT
-4.8 -5.688 -5.956 -5.688 QT
-8.831 -5.688 -10.511 -7.367 QT
-12.19 -9.047 -12.19 -11.891 QT
-12.19 -14.859 -10.597 -16.594 QT
-9.003 -18.328 -6.3 -18.328 QT
-3.862 -18.328 -2.456 -16.766 QT
-1.05 -15.203 -1.05 -12.516 QT
cp
-3.019 -13.094 M
-3.05 -14.719 -3.933 -15.68 QT
-4.815 -16.641 -6.269 -16.641 QT
-7.925 -16.641 -8.925 -15.711 QT
-9.925 -14.781 -10.065 -13.078 QT
-3.019 -13.094 L
cp
7.673 -12.047 M
5.267 -12.047 4.345 -11.5 QT
3.423 -10.953 3.423 -9.625 QT
3.423 -8.578 4.118 -7.961 QT
4.813 -7.344 6.001 -7.344 QT
7.642 -7.344 8.634 -8.508 QT
9.626 -9.672 9.626 -11.609 QT
9.626 -12.047 L
7.673 -12.047 L
cp
11.61 -12.859 M
11.61 -6 L
9.626 -6 L
9.626 -7.828 L
8.954 -6.734 7.946 -6.211 QT
6.938 -5.688 5.47 -5.688 QT
3.626 -5.688 2.54 -6.727 QT
1.454 -7.766 1.454 -9.5 QT
1.454 -11.531 2.813 -12.563 QT
4.173 -13.594 6.86 -13.594 QT
9.626 -13.594 L
9.626 -13.781 L
9.626 -15.156 8.735 -15.898 QT
7.845 -16.641 6.22 -16.641 QT
5.188 -16.641 4.212 -16.398 QT
3.235 -16.156 2.329 -15.656 QT
2.329 -17.484 L
3.407 -17.906 4.431 -18.117 QT
5.454 -18.328 6.423 -18.328 QT
9.032 -18.328 10.321 -16.969 QT
11.61 -15.609 11.61 -12.859 QT
cp
24.342 -17.563 M
24.342 -15.719 L
23.498 -16.188 22.654 -16.414 QT
21.811 -16.641 20.951 -16.641 QT
19.029 -16.641 17.967 -15.422 QT
16.904 -14.203 16.904 -12 QT
16.904 -9.797 17.967 -8.578 QT
19.029 -7.359 20.951 -7.359 QT
21.811 -7.359 22.654 -7.594 QT
23.498 -7.828 24.342 -8.281 QT
24.342 -6.469 L
23.514 -6.078 22.623 -5.883 QT
21.732 -5.688 20.748 -5.688 QT
18.029 -5.688 16.428 -7.398 QT
14.826 -9.109 14.826 -12 QT
14.826 -14.953 16.443 -16.641 QT
18.061 -18.328 20.873 -18.328 QT
21.779 -18.328 22.654 -18.141 QT
23.529 -17.953 24.342 -17.563 QT
cp
37.781 -13.266 M
37.781 -6 L
35.797 -6 L
35.797 -13.203 L
35.797 -14.906 35.133 -15.758 QT
34.469 -16.609 33.141 -16.609 QT
31.531 -16.609 30.609 -15.586 QT
29.688 -14.563 29.688 -12.797 QT
29.688 -6 L
27.703 -6 L
27.703 -22.719 L
29.688 -22.719 L
29.688 -16.156 L
30.391 -17.25 31.359 -17.789 QT
32.328 -18.328 33.578 -18.328 QT
35.656 -18.328 36.719 -17.039 QT
37.781 -15.75 37.781 -13.266 QT
cp
52.006 -12.516 M
52.006 -11.547 L
42.928 -11.547 L
43.053 -9.5 44.154 -8.43 QT
45.256 -7.359 47.225 -7.359 QT
48.365 -7.359 49.428 -7.641 QT
50.49 -7.922 51.553 -8.484 QT
51.553 -6.609 L
50.49 -6.156 49.373 -5.922 QT
48.256 -5.688 47.1 -5.688 QT
44.225 -5.688 42.545 -7.367 QT
40.865 -9.047 40.865 -11.891 QT
40.865 -14.859 42.459 -16.594 QT
44.053 -18.328 46.756 -18.328 QT
49.193 -18.328 50.6 -16.766 QT
52.006 -15.203 52.006 -12.516 QT
cp
50.037 -13.094 M
50.006 -14.719 49.123 -15.68 QT
48.24 -16.641 46.787 -16.641 QT
45.131 -16.641 44.131 -15.711 QT
43.131 -14.781 42.99 -13.078 QT
50.037 -13.094 L
cp
63.166 -16.203 M
63.166 -22.719 L
65.15 -22.719 L
65.15 -6 L
63.166 -6 L
63.166 -7.813 L
62.557 -6.734 61.604 -6.211 QT
60.65 -5.688 59.322 -5.688 QT
57.135 -5.688 55.768 -7.43 QT
54.4 -9.172 54.4 -12 QT
54.4 -14.844 55.768 -16.586 QT
57.135 -18.328 59.322 -18.328 QT
60.65 -18.328 61.604 -17.805 QT
62.557 -17.281 63.166 -16.203 QT
cp
56.432 -12 M
56.432 -9.828 57.33 -8.586 QT
58.229 -7.344 59.807 -7.344 QT
61.369 -7.344 62.268 -8.586 QT
63.166 -9.828 63.166 -12 QT
63.166 -14.188 62.268 -15.43 QT
61.369 -16.672 59.807 -16.672 QT
58.229 -16.672 57.33 -15.43 QT
56.432 -14.188 56.432 -12 QT
cp
76.03 -22.719 M
80.593 -22.719 L
80.593 -21.172 L
78.015 -21.172 L
78.015 -4.641 L
80.593 -4.641 L
80.593 -3.094 L
76.03 -3.094 L
76.03 -22.719 L
cp
98.723 -13.063 M
97.785 -13.063 97.254 -12.266 QT
96.723 -11.469 96.723 -10.047 QT
96.723 -8.656 97.254 -7.852 QT
97.785 -7.047 98.723 -7.047 QT
99.629 -7.047 100.16 -7.852 QT
100.691 -8.656 100.691 -10.047 QT
100.691 -11.453 100.16 -12.258 QT
99.629 -13.063 98.723 -13.063 QT
cp
98.723 -14.422 M
100.41 -14.422 101.41 -13.242 QT
102.41 -12.063 102.41 -10.047 QT
102.41 -8.047 101.41 -6.867 QT
100.41 -5.688 98.723 -5.688 QT
97.004 -5.688 96.004 -6.867 QT
95.004 -8.047 95.004 -10.047 QT
95.004 -12.063 96.004 -13.242 QT
97.004 -14.422 98.723 -14.422 QT
cp
87.629 -20.969 M
86.707 -20.969 86.176 -20.164 QT
85.645 -19.359 85.645 -17.969 QT
85.645 -16.547 86.168 -15.75 QT
86.691 -14.953 87.629 -14.953 QT
88.566 -14.953 89.098 -15.75 QT
89.629 -16.547 89.629 -17.969 QT
89.629 -19.359 89.09 -20.164 QT
88.551 -20.969 87.629 -20.969 QT
cp
97.332 -22.328 M
99.051 -22.328 L
89.02 -5.688 L
87.301 -5.688 L
97.332 -22.328 L
cp
87.629 -22.328 M
89.332 -22.328 90.34 -21.148 QT
91.348 -19.969 91.348 -17.969 QT
91.348 -15.938 90.348 -14.766 QT
89.348 -13.594 87.629 -13.594 QT
85.926 -13.594 84.934 -14.773 QT
83.941 -15.953 83.941 -17.969 QT
83.941 -19.969 84.941 -21.148 QT
85.941 -22.328 87.629 -22.328 QT
cp
110.314 -22.719 M
110.314 -3.094 L
105.768 -3.094 L
105.768 -4.641 L
108.33 -4.641 L
108.33 -21.172 L
105.768 -21.172 L
105.768 -22.719 L
110.314 -22.719 L
cp
f
GR
GS
0 0.447 0.741 RC
1 LJ
0.5 LW
N
169.525 230.064 M
169.913 230.064 L
170.3 205.508 L
170.688 226.381 L
171.075 200.597 L
171.462 230.064 L
171.85 235.327 L
172.238 219.423 L
172.625 191.593 L
173.012 205.508 L
173.4 238.905 L
173.788 257.69 L
174.175 238.905 L
174.563 230.064 L
174.95 271.109 L
175.337 200.597 L
175.725 238.905 L
176.113 226.381 L
176.5 200.597 L
176.887 226.381 L
177.275 196.719 L
177.663 242.036 L
178.05 222.206 L
178.438 215.331 L
178.825 255.603 L
179.212 255.603 L
179.6 289 L
179.988 255.603 L
180.375 205.508 L
180.762 230.064 L
181.15 188.81 L
181.538 255.603 L
181.925 200.597 L
182.313 183.536 L
182.7 255.603 L
183.087 205.508 L
183.475 226.381 L
183.863 188.81 L
184.25 255.603 L
184.637 185.863 L
185.025 201.333 L
185.413 210.726 L
185.8 219.423 L
186.188 238.905 L
186.575 196.719 L
186.962 185.863 L
187.35 169.726 L
187.738 181.653 L
188.125 226.381 L
188.512 242.036 L
188.9 289 L
189.288 230.064 L
189.675 242.036 L
190.063 185.863 L
190.45 226.381 L
190.837 255.603 L
191.225 238.905 L
191.613 215.331 L
192 209.902 L
192.387 222.206 L
192.775 271.109 L
193.163 188.81 L
193.55 253.218 L
193.938 140.57 L
194.325 271.109 L
194.712 188.81 L
195.1 242.036 L
195.488 244.798 L
195.875 238.905 L
196.262 209.902 L
196.65 215.331 L
197.038 226.381 L
197.425 230.064 L
197.813 238.905 L
198.2 188.81 L
198.587 169.726 L
198.975 242.036 L
199.363 195.071 L
199.75 230.064 L
200.137 242.036 L
200.525 186.532 L
200.913 238.905 L
201.3 230.064 L
201.688 210.726 L
202.075 183.536 L
202.462 242.036 L
202.85 222.206 L
203.238 242.036 L
203.625 188.81 L
204.012 242.036 L
204.4 177.677 L
204.788 289 L
205.175 209.902 L
205.563 205.508 L
205.95 205.508 L
206.337 222.206 L
206.725 242.036 L
207.113 205.508 L
207.5 215.331 L
207.887 176.286 L
208.275 181.653 L
208.663 200.597 L
209.05 205.508 L
209.438 176.286 L
209.825 233.339 L
210.212 185.863 L
210.6 205.508 L
210.988 200.597 L
211.375 196.719 L
211.762 196.719 L
212.15 170.353 L
212.538 185.863 L
212.925 179.417 L
213.313 188.81 L
213.7 147.426 L
214.087 157.798 L
214.475 200.597 L
214.863 179.417 L
215.25 157.798 L
215.637 196.719 L
216.025 163.762 L
216.413 201.333 L
216.8 215.331 L
217.188 242.036 L
217.575 215.331 L
217.962 210.726 L
218.35 191.593 L
218.738 193.581 L
219.125 210.726 L
219.512 188.81 L
219.9 176.286 L
220.288 219.423 L
220.675 210.726 L
221.063 226.381 L
221.45 183.536 L
221.837 145.871 L
222.225 169.207 L
222.613 136.536 L
223 170.353 L
223.387 147.426 L
223.775 142.889 L
224.163 226.381 L
224.55 147.426 L
224.938 163.762 L
225.325 177.677 L
225.712 195.071 L
226.1 157.17 L
226.488 142.889 L
226.875 205.508 L
227.262 201.333 L
227.65 191.593 L
228.038 205.508 L
228.425 163.762 L
228.813 154.128 L
229.2 175.147 L
229.587 169.726 L
229.975 205.508 L
230.363 138.714 L
230.75 177.677 L
231.137 157.798 L
231.525 112.739 L
231.913 157.798 L
232.3 176.286 L
232.688 205.508 L
233.075 163.762 L
233.462 163.762 L
233.85 153.325 L
234.238 125.646 L
234.625 145.871 L
235.012 163.762 L
235.4 186.532 L
235.788 183.536 L
236.175 175.147 L
236.563 152.377 L
236.95 181.653 L
237.337 163.762 L
237.725 191.593 L
238.113 188.81 L
238.5 230.064 L
238.887 163.762 L
239.275 177.677 L
239.663 201.333 L
240.05 163.762 L
240.438 145.871 L
240.825 191.593 L
241.212 215.331 L
241.6 133.943 L
241.988 181.653 L
242.375 149.847 L
242.762 140.991 L
243.15 140.991 L
243.538 134.861 L
243.925 142.889 L
244.313 125.646 L
244.7 142.889 L
245.087 152.377 L
245.475 147.426 L
245.863 132.452 L
246.25 116.258 L
246.637 191.593 L
247.025 157.17 L
247.413 108.97 L
247.8 142.889 L
248.188 124.895 L
248.575 157.798 L
248.962 142.889 L
249.35 200.597 L
249.738 196.719 L
250.125 163.762 L
250.512 158.317 L
250.9 177.677 L
251.288 133.532 L
251.675 129.606 L
252.063 183.536 L
252.45 133.943 L
252.837 148.733 L
253.225 147.426 L
253.613 115.593 L
254 147.426 L
254.387 163.762 L
254.775 131.293 L
255.163 125.227 L
255.55 151.238 L
255.938 112.739 L
256.325 188.81 L
256.712 119.034 L
257.1 118.676 L
257.487 105.317 L
257.875 157.798 L
258.263 142.889 L
258.65 148.733 L
259.038 115.593 L
259.425 101.143 L
259.813 105.317 L
260.2 92.197 L
260.587 122.016 L
260.975 140.57 L
261.362 122.016 L
261.75 138.714 L
262.138 148.733 L
262.525 128.695 L
262.913 106.836 L
263.3 163.762 L
263.688 152.377 L
264.075 115.593 L
264.462 136.925 L
264.85 169.726 L
265.237 122.016 L
265.625 122.016 L
266.013 127.98 L
266.4 111.243 L
266.788 122.016 L
267.175 122.016 L
267.563 136.925 L
267.95 107.621 L
268.337 108.97 L
268.725 132.452 L
269.112 74.306 L
269.5 125.227 L
269.888 76.095 L
270.275 130.365 L
270.663 138.714 L
271.05 115.593 L
271.438 122.016 L
271.825 102.932 L
272.212 111.243 L
272.6 122.016 L
272.987 131.293 L
273.375 136.536 L
273.763 113.667 L
274.15 79.299 L
274.538 128.695 L
274.925 115.593 L
275.313 132.452 L
275.7 116.258 L
276.087 99.45 L
276.475 138.714 L
276.862 116.798 L
277.25 176.286 L
277.638 103.163 L
278.025 95.083 L
278.413 132.452 L
278.8 116.798 L
279.188 86.234 L
279.575 103.163 L
279.962 127.98 L
280.35 103.163 L
280.737 113.667 L
281.125 95.776 L
281.513 131.293 L
281.9 136.925 L
282.288 98.984 L
282.675 89.904 L
283.063 99.45 L
283.45 116.258 L
283.837 112.739 L
284.225 101.143 L
284.612 144.495 L
285 110.088 L
285.388 119.034 L
285.775 80.27 L
286.163 119.034 L
286.55 130.365 L
286.938 122.016 L
287.325 99.616 L
287.712 102.932 L
288.1 76.095 L
288.487 69.194 L
288.875 124.895 L
289.263 119.323 L
289.65 81.288 L
290.038 111.243 L
290.425 79.299 L
290.813 94.185 L
291.2 111.243 L
291.587 128.695 L
291.975 103.163 L
292.362 75.052 L
292.75 152.377 L
293.138 111.243 L
293.525 104.439 L
293.913 111.243 L
294.3 85.488 L
294.688 103.163 L
295.075 124.895 L
295.462 104.439 L
295.85 158.317 L
296.237 102.748 L
296.625 101.143 L
297.013 149.847 L
297.4 136.536 L
297.788 99.245 L
298.175 86.234 L
298.563 105.317 L
298.95 110.088 L
299.337 103.163 L
299.725 136.925 L
300.112 119.323 L
300.5 116.798 L
300.888 107.621 L
301.275 113.667 L
301.663 133.532 L
302.05 113.667 L
302.438 69.833 L
302.825 112.99 L
303.212 113.667 L
303.6 133.532 L
303.987 93.506 L
304.375 81.463 L
304.763 119.034 L
305.15 83.481 L
305.538 90.092 L
305.925 94.881 L
306.313 134.861 L
306.7 138.714 L
307.087 133.532 L
307.475 90.092 L
307.862 97.459 L
308.25 102.932 L
308.638 138.714 L
309.025 112.193 L
309.413 99.245 L
309.8 135.482 L
310.188 84.664 L
310.575 114.426 L
310.962 119.034 L
311.35 116.798 L
311.737 134.861 L
312.125 114.426 L
312.513 140.57 L
312.9 110.088 L
313.288 108.97 L
313.675 149.847 L
314.063 144.495 L
314.45 112.99 L
314.837 96.326 L
315.225 71.921 L
315.612 70.33 L
316 136.925 L
316.388 129.606 L
316.775 106.22 L
317.163 124.625 L
317.55 115.058 L
317.938 95.45 L
318.325 93.506 L
318.712 119.56 L
319.1 96.774 L
319.487 99.45 L
319.875 112.193 L
320.263 122.016 L
320.65 99.616 L
321.038 83.481 L
321.425 153.325 L
321.813 116.798 L
322.2 94.185 L
322.587 110.088 L
322.975 92.975 L
323.362 86.487 L
323.75 122.016 L
324.138 119.56 L
324.525 188.81 L
324.913 119.56 L
325.3 71.195 L
325.688 96.774 L
326.075 69.194 L
326.462 111.03 L
326.85 112.193 L
327.237 109.171 L
327.625 67.425 L
328.013 109.171 L
328.4 124.895 L
328.788 98.42 L
329.175 114.426 L
329.563 104.125 L
329.95 106.22 L
330.337 109.171 L
330.725 119.56 L
331.112 127.402 L
331.5 154.128 L
331.888 102.748 L
332.275 104.439 L
332.663 117.245 L
333.05 95.776 L
333.438 127.402 L
333.825 92.975 L
334.212 149.847 L
334.6 94.881 L
334.987 112.99 L
335.375 92.975 L
335.763 112.99 L
336.15 149.847 L
336.538 90.949 L
336.925 102.748 L
337.313 96.774 L
337.7 115.058 L
338.087 85.488 L
338.475 119.56 L
338.862 112.99 L
339.25 99.616 L
339.638 109.171 L
340.025 101.143 L
340.413 84.908 L
340.8 86.692 L
341.188 122.016 L
341.575 94.753 L
341.962 84.53 L
342.35 219.423 L
342.737 149.847 L
343.125 115.058 L
343.513 168.771 L
343.9 145.871 L
344.288 117.245 L
344.675 101.143 L
345.063 112.99 L
345.45 114.426 L
345.837 142.169 L
346.225 117.245 L
346.612 181.653 L
347 142.169 L
347.388 104.439 L
347.775 115.058 L
348.163 96.774 L
348.55 104.439 L
348.938 169.207 L
349.325 99.751 L
349.712 158.752 L
350.1 108.97 L
350.487 132.452 L
350.875 109.171 L
351.263 101.143 L
351.65 114.426 L
352.038 127.402 L
352.425 104.439 L
352.813 115.058 L
353.2 95.45 L
353.587 78.073 L
353.975 142.169 L
354.362 122.016 L
354.75 87.637 L
355.138 154.128 L
355.525 149.847 L
355.913 112.99 L
356.3 117.245 L
356.688 140.57 L
357.075 124.401 L
357.462 117.245 L
357.85 130.365 L
358.237 135.482 L
358.625 108.101 L
359.013 111.03 L
359.4 136.925 L
359.788 163.762 L
360.175 124.625 L
360.563 124.625 L
360.95 99.616 L
361.337 132.452 L
361.725 145.871 L
362.112 124.401 L
362.5 101.143 L
362.888 76.732 L
363.275 119.56 L
363.663 109.171 L
364.05 112.99 L
364.438 133.532 L
364.825 89.758 L
365.212 111.243 L
365.6 94.185 L
365.987 107.405 L
366.375 114.426 L
366.763 94.185 L
367.15 86.487 L
367.538 101.143 L
367.925 98.161 L
368.313 104.439 L
368.7 105.725 L
369.087 111.03 L
369.475 89.758 L
369.862 101.143 L
370.25 111.03 L
370.638 111.834 L
371.025 82.467 L
371.413 102.748 L
371.8 98.161 L
372.188 105.725 L
372.575 77.391 L
372.962 78.779 L
373.35 107.405 L
373.737 69.833 L
374.125 115.058 L
374.513 142.169 L
374.9 112.99 L
375.288 99.616 L
375.675 96.774 L
376.063 68.241 L
376.45 101.143 L
376.837 95.45 L
377.225 77.059 L
377.612 95.45 L
378 102.748 L
378.388 83.61 L
378.775 94.185 L
379.163 88.619 L
379.55 73.072 L
379.938 82.725 L
380.325 109.171 L
380.712 101.143 L
381.1 112.99 L
381.487 96.774 L
381.875 81.058 L
382.263 122.016 L
382.65 98.161 L
383.038 104.125 L
383.425 101.143 L
383.813 92.975 L
384.2 117.245 L
384.587 94.185 L
384.975 112.99 L
385.362 88.619 L
385.75 75.631 L
386.138 90.706 L
386.525 119.56 L
386.913 75.052 L
387.3 109.171 L
387.688 112.193 L
388.075 106.22 L
388.462 98.161 L
388.85 108.101 L
389.237 84.53 L
389.625 79.511 L
390.013 76.332 L
390.4 104.125 L
390.788 94.185 L
391.175 109.171 L
391.563 73.072 L
391.95 92.975 L
392.337 107.405 L
392.725 79.418 L
393.112 122.016 L
393.5 74.957 L
393.888 111.03 L
394.275 94.185 L
394.663 91.817 L
395.05 72.903 L
395.438 67.267 L
395.825 84.664 L
396.212 96.774 L
396.6 83.61 L
396.987 71.373 L
397.375 75.631 L
397.763 85.488 L
398.15 87.397 L
398.538 112.99 L
398.925 104.439 L
399.313 96.774 L
399.7 77.059 L
400.087 73.678 L
400.475 106.836 L
400.862 83.481 L
401.25 76.332 L
401.638 96.774 L
402.025 105.725 L
402.413 96.326 L
402.8 92.197 L
403.188 94.185 L
403.575 101.143 L
403.962 84.53 L
404.35 90.706 L
404.737 99.616 L
405.125 92.197 L
405.513 102.599 L
405.9 77.059 L
406.288 72.487 L
406.675 90.949 L
407.063 112.99 L
407.45 130.365 L
407.837 112.99 L
408.225 81.158 L
408.612 99.616 L
409 71.373 L
409.388 73.678 L
409.775 95.45 L
410.163 77.487 L
410.55 52.837 L
410.938 62.608 L
411.325 85.124 L
411.712 76.732 L
412.1 111.03 L
412.487 52.439 L
412.875 65.848 L
413.263 64.89 L
413.65 65.498 L
414.038 71.373 L
414.425 101.143 L
414.813 83.61 L
415.2 89.758 L
415.587 83.61 L
415.975 74.306 L
416.362 119.56 L
416.75 70.403 L
417.138 89.758 L
417.525 52.837 L
417.913 101.143 L
418.3 70.843 L
418.688 90.949 L
419.075 81.058 L
419.462 87.53 L
419.85 66.355 L
420.237 87.397 L
420.625 77.059 L
421.013 66.987 L
421.4 104.125 L
421.788 77.391 L
422.175 71.921 L
422.563 96.326 L
422.95 81.875 L
423.337 75.829 L
423.725 95.925 L
424.112 80.27 L
424.5 98.161 L
424.888 72.242 L
425.275 71.921 L
425.663 87.637 L
426.05 84.065 L
426.438 84.53 L
426.825 75.631 L
427.212 89.641 L
427.6 77.391 L
427.987 77.814 L
428.375 74.306 L
428.763 89.641 L
429.15 122.016 L
429.538 81.058 L
429.925 98.161 L
430.313 83.053 L
430.7 81.875 L
431.087 108.101 L
431.475 83.61 L
431.862 101.143 L
432.25 77.391 L
432.638 82.085 L
433.025 74.957 L
433.413 101.143 L
433.8 109.171 L
434.188 108.101 L
434.575 86.692 L
434.962 92.975 L
435.35 77.391 L
435.737 80.27 L
436.125 82.725 L
436.513 84.908 L
436.9 93.506 L
437.288 65.848 L
437.675 96.774 L
438.063 84.065 L
438.45 99.616 L
438.837 104.125 L
439.225 163.762 L
439.612 99.245 L
440 90.949 L
440.388 104.125 L
440.775 81.875 L
441.163 69.352 L
441.55 89.758 L
441.938 107.405 L
442.325 96.774 L
442.712 98.161 L
443.1 90.949 L
443.487 117.245 L
443.875 63.571 L
444.263 78.073 L
444.65 102.599 L
445.038 66.355 L
445.425 117.245 L
445.813 112.193 L
446.2 79.418 L
446.587 84.53 L
446.975 73.678 L
447.362 65.92 L
447.75 119.323 L
448.138 74.306 L
448.525 68.885 L
448.913 101.143 L
449.3 86.487 L
449.688 83.61 L
450.075 83.053 L
450.462 80.27 L
450.85 90.706 L
451.237 77.814 L
451.625 84.53 L
452.013 98.161 L
452.4 108.101 L
452.788 75.359 L
453.175 124.625 L
453.563 70.5 L
453.95 69.833 L
454.337 68.754 L
454.725 99.245 L
455.112 67.565 L
455.5 119.56 L
455.888 72.242 L
456.275 99.616 L
456.663 85.488 L
457.05 83.61 L
457.438 74.306 L
457.825 94.881 L
458.212 105.317 L
458.6 108.101 L
458.987 116.258 L
459.375 70.403 L
459.763 119.034 L
460.15 119.034 L
460.538 71.606 L
460.925 82.085 L
461.313 68.431 L
461.7 76.332 L
462.087 89.758 L
462.475 98.42 L
462.862 88.619 L
463.25 73.747 L
463.638 64.435 L
464.025 80.27 L
464.413 90.949 L
464.8 79.418 L
465.188 79.511 L
465.575 71.921 L
465.962 83.61 L
466.35 80.977 L
466.737 82.725 L
467.125 58.833 L
467.513 114.426 L
467.9 65.089 L
468.288 99.616 L
468.675 82.085 L
469.063 83.053 L
469.45 77.391 L
469.837 66.355 L
470.225 102.748 L
470.612 98.161 L
471 104.439 L
471.388 83.61 L
471.775 89.758 L
472.163 75.052 L
472.55 76.332 L
472.938 98.42 L
473.325 89.758 L
473.712 77.814 L
474.1 87.397 L
474.487 87.53 L
474.875 74.957 L
475.263 89.904 L
475.65 113.667 L
476.038 87.003 L
476.425 95.776 L
476.813 77.059 L
477.2 75.479 L
477.587 83.053 L
477.975 85.488 L
478.362 85.488 L
478.75 77.059 L
479.138 87.637 L
479.525 93.506 L
479.913 71.921 L
480.3 112.193 L
480.688 83.61 L
481.075 75.631 L
481.462 78.6 L
481.85 70.843 L
482.237 88.619 L
482.625 98.984 L
483.013 147.426 L
483.4 81.463 L
483.788 112.193 L
484.175 98.161 L
484.563 88.619 L
484.95 58.298 L
485.337 73.59 L
485.725 73.072 L
486.112 68.885 L
486.5 107.621 L
486.888 81.158 L
487.275 86.234 L
487.663 74.306 L
488.05 67.425 L
488.438 63.996 L
488.825 73.59 L
489.212 108.97 L
489.6 60.495 L
489.987 78.372 L
490.375 116.258 L
490.763 61.645 L
491.15 131.293 L
491.538 81.875 L
491.925 69.833 L
492.313 142.889 L
492.7 78.6 L
493.087 104.826 L
493.475 72.487 L
493.862 67.15 L
494.25 73.747 L
494.638 80.27 L
495.025 75.829 L
495.413 78.073 L
495.8 64.693 L
496.188 81.058 L
496.575 81.875 L
496.962 98.161 L
497.35 80.27 L
497.737 87.53 L
498.125 91.817 L
498.513 81.058 L
498.9 70.993 L
499.288 75.631 L
499.675 73.59 L
500.063 138.714 L
500.45 87.637 L
500.837 87.53 L
501.225 70.993 L
501.612 86.487 L
502 89.904 L
502.388 70.843 L
502.775 122.016 L
503.163 95.45 L
503.55 60.304 L
503.938 70.33 L
504.325 64.308 L
504.712 88.619 L
505.1 85.124 L
505.487 87.397 L
505.875 134.861 L
506.263 69.284 L
506.65 78.6 L
507.038 110.088 L
507.425 57.499 L
507.813 61.902 L
508.2 85.488 L
508.587 74.957 L
508.975 107.405 L
509.362 79.511 L
509.75 112.99 L
510.138 87.53 L
510.525 66.746 L
510.913 110.088 L
511.3 96.774 L
511.688 63.571 L
512.075 116.258 L
512.463 59.397 L
512.85 76.095 L
513.237 85.488 L
513.625 71.373 L
514.013 76.095 L
514.4 94.881 L
514.787 86.692 L
515.175 114.426 L
515.563 75.631 L
515.95 88.619 L
516.338 81.875 L
516.725 91.655 L
517.112 83.252 L
517.5 83.61 L
517.888 73.072 L
518.275 82.357 L
518.662 68.581 L
519.05 102.932 L
519.438 90.346 L
519.825 63.571 L
520.213 85.488 L
520.6 77.059 L
520.987 67.746 L
521.375 72.903 L
521.763 63.219 L
522.15 82.725 L
522.537 71.606 L
522.925 101.143 L
523.313 69.833 L
523.7 75.052 L
524.088 102.932 L
524.475 82.357 L
524.862 71.921 L
525.25 101.143 L
525.638 59.691 L
526.025 71.921 L
526.412 86.487 L
526.8 93.506 L
527.188 78.779 L
527.575 86.487 L
527.963 61.294 L
528.35 77.814 L
528.737 74.306 L
529.125 89.758 L
529.513 87.53 L
529.9 91.655 L
530.287 84.53 L
530.675 83.61 L
531.063 95.45 L
531.45 80.27 L
531.838 81.875 L
532.225 158.317 L
532.612 84.065 L
533 75.631 L
533.388 94.185 L
533.775 76.332 L
534.162 55.222 L
534.55 69.284 L
534.938 67.425 L
535.325 63.996 L
535.713 78.073 L
536.1 116.258 L
536.487 70.403 L
536.875 84.664 L
537.263 87.397 L
537.65 80.27 L
538.037 96.326 L
538.425 74.306 L
538.813 76.732 L
539.2 70.843 L
539.588 95.776 L
539.975 65.498 L
540.362 81.875 L
540.75 74.306 L
541.138 92.197 L
541.525 70.843 L
541.912 70.993 L
542.3 83.61 L
542.688 96.774 L
543.075 74.306 L
543.463 131.293 L
543.85 97.847 L
544.237 78.372 L
544.625 79.142 L
545.013 82.357 L
545.4 93.315 L
545.787 103.163 L
546.175 81.288 L
546.563 81.875 L
546.95 68.987 L
547.338 85.488 L
547.725 112.99 L
548.112 78.779 L
548.5 73.678 L
548.888 62.154 L
549.275 92.197 L
549.662 56.674 L
550.05 82.357 L
550.438 101.143 L
550.825 67.425 L
551.213 116.798 L
551.6 134.861 L
551.987 101.143 L
552.375 101.143 L
552.763 102.932 L
553.15 68.885 L
553.537 87.397 L
553.925 74.957 L
554.313 85.911 L
554.7 63.161 L
555.088 88.619 L
555.475 94.881 L
555.862 89.641 L
556.25 69.284 L
556.638 71.606 L
557.025 90.706 L
557.412 73.312 L
557.8 65.089 L
558.188 88.619 L
558.575 124.625 L
558.963 77.059 L
559.35 69.833 L
559.737 69.833 L
560.125 69.352 L
560.513 73.678 L
560.9 108.101 L
561.287 108.97 L
561.675 104.439 L
562.063 63.571 L
562.45 102.932 L
562.838 80.27 L
563.225 73.072 L
563.612 99.45 L
564 78.372 L
564.388 94.881 L
564.775 148.733 L
565.162 81.158 L
565.55 88.619 L
565.938 71.373 L
566.325 67.425 L
566.713 85.124 L
567.1 63.571 L
567.487 97.847 L
567.875 93.506 L
568.263 70.843 L
568.65 85.488 L
569.037 88.619 L
569.425 86.234 L
569.813 80.27 L
570.2 97.459 L
570.588 85.488 L
570.975 125.227 L
571.362 96.968 L
571.75 81.058 L
572.138 79.418 L
572.525 71.921 L
572.912 116.798 L
573.3 95.776 L
573.688 97.847 L
574.075 102.748 L
574.463 99.45 L
574.85 78.372 L
575.237 92.197 L
575.625 71.606 L
576.013 74.957 L
576.4 102.748 L
576.787 68.431 L
577.175 87.397 L
577.563 70.993 L
577.95 74.957 L
578.338 63.161 L
578.725 75.631 L
579.112 81.058 L
579.5 77.814 L
579.888 61.716 L
580.275 112.193 L
580.662 84.065 L
581.05 87.53 L
581.438 77.814 L
581.825 144.495 L
582.213 60.955 L
582.6 83.053 L
582.987 138.714 L
583.375 84.53 L
583.763 84.53 L
584.15 95.776 L
584.537 95.45 L
584.925 85.124 L
585.313 78.6 L
585.7 82.085 L
586.088 83.61 L
586.475 72.487 L
586.862 91.817 L
587.25 63.571 L
587.638 81.288 L
588.025 99.245 L
588.412 90.706 L
588.8 101.143 L
589.188 76.095 L
589.575 67.746 L
589.963 79.299 L
590.35 88.619 L
590.737 73.678 L
591.125 71.195 L
591.513 94.753 L
591.9 102.932 L
592.287 96.774 L
592.675 152.377 L
593.063 63.571 L
593.45 93.506 L
593.838 106.22 L
594.225 86.692 L
594.612 102.748 L
595 92.975 L
595.388 78.6 L
595.775 72.487 L
596.162 76.332 L
596.55 80.27 L
596.938 97.847 L
597.325 112.193 L
597.713 103.462 L
598.1 67.746 L
598.487 96.326 L
598.875 67.649 L
599.263 87.003 L
599.65 110.088 L
600.037 68.581 L
600.425 75.829 L
600.813 94.185 L
601.2 75.479 L
601.588 87.53 L
601.975 80.27 L
602.362 92.197 L
602.75 74.306 L
603.138 61.645 L
603.525 89.758 L
603.912 75.829 L
604.3 88.619 L
604.688 72.242 L
605.075 108.101 L
605.463 87.397 L
605.85 66.987 L
606.237 81.288 L
606.625 87.397 L
607.013 116.798 L
607.4 57.547 L
607.787 59.111 L
608.175 64.435 L
608.563 115.058 L
608.95 64.308 L
609.338 81.158 L
609.725 77.814 L
610.112 90.706 L
610.5 73.072 L
610.888 84.664 L
611.275 73.678 L
611.662 85.488 L
612.05 64.693 L
612.438 60.495 L
612.825 75.631 L
613.213 75.631 L
613.6 67.746 L
613.987 78.372 L
614.375 92.197 L
614.763 96.774 L
615.15 97.847 L
615.537 68.431 L
615.925 67.649 L
616.313 85.488 L
616.7 93.506 L
617.088 67.992 L
617.475 81.709 L
617.862 68.754 L
618.25 81.058 L
618.638 99.45 L
619.025 69.833 L
619.412 96.326 L
619.8 84.065 L
620.188 85.488 L
620.575 69.284 L
620.963 95.45 L
621.35 104.826 L
621.737 88.619 L
622.125 108.101 L
622.513 97.459 L
622.9 111.243 L
623.287 66.803 L
623.675 102.748 L
624.063 72.372 L
624.45 69.833 L
624.838 82.725 L
625.225 87.397 L
625.612 76.732 L
626 63.161 L
626.388 90.706 L
626.775 70.33 L
627.162 94.185 L
627.55 99.245 L
627.938 60.117 L
628.325 105.725 L
628.713 95.776 L
629.1 64.435 L
629.487 73.072 L
629.875 60.955 L
630.263 72.242 L
630.65 85.124 L
631.037 97.459 L
631.425 73.678 L
631.813 74.306 L
632.2 74.883 L
632.588 119.034 L
632.975 84.53 L
633.362 98.161 L
633.75 101.143 L
634.138 74.957 L
634.525 72.242 L
634.912 89.904 L
635.3 68.581 L
635.688 63.996 L
636.075 61.294 L
636.463 94.185 L
636.85 60.888 L
637.237 63.996 L
637.625 101.143 L
638.013 71.921 L
638.4 79.418 L
638.787 66.88 L
639.175 75.479 L
639.563 88.619 L
639.95 75.631 L
640.338 86.234 L
640.725 68.754 L
641.112 83.481 L
641.5 75.631 L
641.888 97.146 L
642.275 82.085 L
642.662 77.487 L
643.05 80.27 L
643.438 67.649 L
643.825 51.369 L
644.213 109.171 L
644.6 64.435 L
644.987 59.691 L
645.375 78.779 L
645.763 81.158 L
646.15 59.648 L
646.537 87.53 L
646.925 76.095 L
647.313 74.883 L
647.7 86.692 L
648.088 73.678 L
648.475 94.881 L
648.862 80.27 L
649.25 99.751 L
649.638 101.143 L
650.025 63.219 L
650.412 72.17 L
650.8 75.479 L
651.188 60.888 L
651.575 71.195 L
651.963 65.498 L
652.35 65.92 L
652.737 78.779 L
653.125 60.117 L
653.513 73.678 L
653.9 67.565 L
654.287 68.431 L
654.675 124.401 L
655.063 72.242 L
655.45 66.355 L
655.838 92.975 L
656.225 80.27 L
656.612 80.27 L
657 97.146 L
657.388 59.397 L
657.775 69.833 L
658.162 75.479 L
658.55 90.706 L
658.938 81.875 L
659.325 81.058 L
659.713 63.262 L
660.1 74.306 L
660.487 93.629 L
660.875 94.753 L
661.263 68.885 L
661.65 75.479 L
662.037 62.961 L
662.425 70.274 L
662.813 81.058 L
663.2 97.146 L
663.588 61.294 L
663.975 73.072 L
664.362 85.783 L
664.75 84.908 L
665.138 101.143 L
665.525 88.619 L
665.912 76.475 L
666.3 73.072 L
666.688 73.205 L
667.075 82.467 L
667.463 112.99 L
667.85 101.143 L
668.237 65.241 L
668.625 79.511 L
669.013 85.488 L
669.4 73.072 L
669.787 65.92 L
670.175 73.747 L
670.563 66.355 L
670.95 111.03 L
671.338 88.619 L
671.725 112.99 L
672.112 101.143 L
672.5 69.404 L
672.888 70.728 L
673.275 90.706 L
673.662 78.073 L
674.05 92.197 L
674.438 88.619 L
674.825 102.599 L
675.213 96.774 L
675.6 94.753 L
675.987 102.599 L
676.375 84.065 L
676.763 84.53 L
677.15 115.058 L
677.537 73.072 L
677.925 61.645 L
678.313 71.373 L
678.7 54.58 L
679.088 53.938 L
679.475 66.355 L
679.862 50.174 L
680.25 56.674 L
680.638 74.306 L
681.025 65.361 L
681.412 63.996 L
681.8 51.883 L
682.188 44.633 L
682.575 57.499 L
682.963 47.261 L
683.35 57.216 L
683.737 56.415 L
684.125 56.941 L
684.513 54.427 L
684.9 52.063 L
685.287 52.635 L
685.675 59.691 L
686.063 52.919 L
686.45 64.89 L
686.838 49.258 L
687.225 50.04 L
687.612 65.498 L
688 69.833 L
688.388 60.788 L
688.775 72.903 L
689.162 48.066 L
689.55 59.691 L
689.938 94.185 L
690.325 80.27 L
690.713 65.498 L
691.1 64.308 L
691.487 72.487 L
691.875 64.308 L
692.263 60.955 L
692.65 51.048 L
693.037 58.092 L
693.425 43.742 L
693.813 49.656 L
694.2 47.364 L
694.588 53.797 L
694.975 61.645 L
695.362 70.33 L
695.75 55.602 L
696.138 56.851 L
696.525 49.781 L
696.912 64.435 L
697.3 70.403 L
697.688 48.036 L
698.075 62.876 L
698.463 61.594 L
698.85 58.403 L
699.237 60.625 L
699.625 46.434 L
700.013 60.718 L
700.4 45.68 L
700.787 46.604 L
701.175 56.163 L
701.563 57.499 L
701.95 62.006 L
702.338 78.6 L
702.725 45.68 L
703.112 41.436 L
703.5 55.918 L
703.888 58.041 L
704.275 56.204 L
704.662 53.613 L
705.05 80.27 L
705.438 80.977 L
705.825 65.602 L
706.213 59.397 L
706.6 70.33 L
706.987 40.865 L
707.375 53.985 L
707.763 54.58 L
708.15 52.635 L
708.537 64.89 L
708.925 64.89 L
709.313 57.791 L
709.7 65.848 L
710.088 56.674 L
710.475 82.725 L
710.862 46.434 L
711.25 58.562 L
711.638 92.975 L
712.025 68.987 L
712.412 83.252 L
712.8 94.185 L
713.188 44.152 L
713.575 57.499 L
713.963 50.311 L
714.35 47.161 L
714.737 65.92 L
715.125 48.158 L
715.513 48.543 L
715.9 49.414 L
716.287 78.6 L
716.675 65.92 L
717.063 53.478 L
717.45 55.798 L
717.838 70.993 L
718.225 51.174 L
718.612 50.311 L
719 53.258 L
719.388 51.048 L
719.775 53.044 L
720.162 62.542 L
720.55 49.574 L
720.938 56.415 L
721.325 50.742 L
721.713 63.219 L
722.1 70.33 L
722.487 70.274 L
722.875 78.073 L
723.263 59.111 L
723.65 49.781 L
724.037 57.791 L
724.425 78.073 L
724.813 73.678 L
725.2 53.613 L
725.588 50.595 L
725.975 64.435 L
726.362 47.469 L
726.75 82.725 L
727.138 70.5 L
727.525 70.993 L
727.912 46.351 L
728.3 50.084 L
728.688 45.613 L
729.075 51.206 L
729.463 60.955 L
729.85 52.837 L
730.237 47.261 L
730.625 52.063 L
731.013 60.955 L
731.4 74.306 L
731.787 53.613 L
732.175 58.298 L
732.563 80.27 L
732.95 92.975 L
733.338 73.678 L
733.725 63.571 L
734.112 62.876 L
734.5 95.45 L
734.888 76.332 L
735.275 61.002 L
735.662 76.332 L
736.05 65.089 L
736.438 59.691 L
736.825 62.217 L
737.213 47.688 L
737.6 55.999 L
737.987 54.179 L
738.375 58.041 L
738.763 74.306 L
739.15 59.691 L
739.537 59.397 L
739.925 60.888 L
740.313 61.902 L
740.7 57.31 L
741.088 60.955 L
741.475 47.688 L
741.862 83.252 L
742.25 71.373 L
742.638 71.373 L
743.025 60.955 L
743.412 67.746 L
743.8 115.058 L
744.188 79.418 L
744.575 75.631 L
744.963 96.774 L
745.35 67.565 L
745.737 59.993 L
746.125 117.245 L
746.513 56.415 L
746.9 61.556 L
747.287 59.906 L
747.675 104.125 L
748.063 78.779 L
748.45 71.921 L
748.838 50.451 L
749.225 67.267 L
749.612 73.678 L
750 62.876 L
750.388 70.403 L
750.775 69.284 L
751.162 75.631 L
751.55 78.6 L
751.938 51.048 L
752.325 64.308 L
752.713 62.876 L
753.1 101.143 L
753.487 77.814 L
753.875 89.641 L
754.263 82.467 L
754.65 64.693 L
755.037 91.817 L
755.425 73.205 L
755.813 53.613 L
756.2 57.547 L
756.588 78.073 L
756.975 81.875 L
757.362 90.949 L
757.75 63.161 L
758.138 85.488 L
758.525 76.732 L
758.912 74.306 L
759.3 63.571 L
759.688 55.999 L
760.075 65.92 L
760.463 64.547 L
760.85 66.746 L
761.237 76.095 L
761.625 65.241 L
762.013 95.45 L
762.4 84.53 L
762.787 65.973 L
763.175 76.732 L
763.563 84.908 L
763.95 84.908 L
764.338 79.511 L
764.725 95.45 L
765.112 89.641 L
765.5 56.204 L
765.888 83.252 L
766.275 65.92 L
766.662 71.675 L
767.05 64.308 L
767.438 64.435 L
767.825 74.306 L
768.213 75.631 L
768.6 89.641 L
768.987 115.058 L
769.375 84.065 L
769.763 85.783 L
770.15 66.355 L
770.537 84.53 L
770.925 69.833 L
771.313 65.241 L
771.7 83.61 L
772.088 67.746 L
772.475 78.073 L
772.862 78.6 L
773.25 70.843 L
773.638 65.602 L
774.025 66.355 L
774.412 66.355 L
774.8 61.594 L
775.188 67.565 L
775.575 81.158 L
775.963 58.403 L
776.35 54.58 L
776.737 63.934 L
777.125 60.625 L
777.513 44.946 L
777.9 64.435 L
778.287 57.791 L
778.675 49.258 L
779.063 56.941 L
779.45 57.791 L
779.838 43.853 L
780.225 54.427 L
780.612 70.728 L
781 57.499 L
781.388 92.975 L
781.775 68.241 L
782.162 55.003 L
782.55 68.885 L
782.938 59.055 L
783.325 78.6 L
783.713 62.379 L
784.1 80.27 L
784.487 53.044 L
784.875 59.397 L
785.263 88.619 L
785.65 64.693 L
786.037 68.581 L
786.425 44.865 L
786.813 59.397 L
787.2 64.308 L
787.588 63.161 L
787.975 74.306 L
788.362 64.214 L
788.75 81.058 L
789.138 76.332 L
789.525 70.403 L
789.912 48.411 L
790.3 72.903 L
790.688 56.674 L
791.075 67.425 L
791.463 67.746 L
791.85 89.758 L
792.237 79.511 L
792.625 74.957 L
793.013 72.68 L
793.4 80.27 L
793.787 74.883 L
794.175 88.619 L
794.563 67.565 L
794.95 58.298 L
795.338 92.975 L
795.725 61.902 L
796.112 76.095 L
796.5 45.964 L
796.888 81.709 L
797.275 74.957 L
797.662 104.125 L
798.05 87.397 L
798.438 60.17 L
798.825 57.547 L
799.213 84.065 L
799.6 55.68 L
799.987 70.33 L
800.375 77.391 L
800.763 86.234 L
801.15 70.843 L
801.537 85.783 L
801.925 71.921 L
802.313 62.217 L
802.7 73.678 L
803.088 73.59 L
803.475 75.479 L
803.862 71.373 L
804.25 69.284 L
804.638 98.161 L
805.025 67.267 L
805.412 77.814 L
805.8 63.571 L
806.188 66.88 L
806.575 46.518 L
806.963 82.725 L
807.35 74.306 L
807.737 71.921 L
808.125 66.803 L
808.513 67.746 L
808.9 61.002 L
809.287 98.161 L
809.675 77.059 L
810.063 65.602 L
810.45 73.747 L
810.838 76.732 L
811.225 105.725 L
811.612 88.619 L
812 61.645 L
812.388 92.975 L
812.775 71.195 L
813.162 57.31 L
813.55 82.725 L
813.938 68.431 L
814.325 79.511 L
814.713 75.479 L
815.1 67.992 L
815.487 70.843 L
815.875 86.487 L
816.263 66.803 L
816.65 91.817 L
817.037 73.747 L
817.425 60.44 L
817.813 73.072 L
818.2 71.921 L
818.588 71.921 L
818.975 76.475 L
819.362 53.797 L
819.75 65.973 L
820.138 58.448 L
820.525 63.219 L
820.912 62.666 L
821.3 56.163 L
821.688 92.975 L
822.075 71.675 L
822.463 67.565 L
822.85 68.581 L
823.237 94.185 L
823.625 62.961 L
824.013 68.885 L
824.4 60.17 L
824.787 126.927 L
825.175 65.498 L
825.563 44.633 L
825.95 55.222 L
826.338 69.833 L
826.725 90.706 L
827.112 63.219 L
827.5 79.511 L
827.888 75.479 L
828.275 55.448 L
828.662 70.993 L
829.05 82.725 L
829.438 68.431 L
829.825 55.41 L
830.213 83.252 L
830.6 89.641 L
830.987 73.072 L
831.375 64.693 L
831.763 102.599 L
832.15 58.041 L
832.537 79.511 L
832.925 67.992 L
833.313 70.33 L
833.7 61.002 L
834.088 67.565 L
834.475 84.065 L
834.862 65.602 L
835.25 87.53 L
835.638 67.992 L
836.025 87.53 L
836.412 76.732 L
836.8 82.357 L
837.188 64.083 L
837.575 81.875 L
837.963 75.479 L
838.35 80.977 L
838.737 99.616 L
839.125 75.479 L
839.513 84.065 L
839.9 81.709 L
840.287 61.002 L
840.675 67.15 L
841.063 76.732 L
841.45 104.439 L
841.838 77.814 L
842.225 74.306 L
842.612 84.908 L
843 94.185 L
843.388 67.992 L
843.775 63.934 L
844.162 67.565 L
844.55 64.693 L
844.938 72.487 L
845.325 68.885 L
845.713 94.185 L
846.1 70.33 L
846.487 61.645 L
846.875 88.619 L
847.263 63.934 L
847.65 65.602 L
848.037 75.479 L
848.425 62.542 L
848.813 82.467 L
849.2 67.992 L
849.588 85.488 L
849.975 83.61 L
850.362 78.6 L
850.75 56.851 L
851.138 60.718 L
851.525 66.746 L
851.912 91.817 L
852.3 66.355 L
852.688 63.934 L
853.075 67.992 L
853.463 61.294 L
853.85 76.732 L
854.237 65.92 L
854.625 81.058 L
855.013 59.906 L
855.4 73.747 L
855.787 77.391 L
856.175 68.431 L
856.563 86.692 L
856.95 62.542 L
857.338 90.949 L
857.725 68.885 L
858.112 73.747 L
858.5 73.678 L
858.888 104.125 L
859.275 62.006 L
859.662 89.758 L
860.05 59.397 L
860.438 58.403 L
860.825 91.817 L
861.213 64.435 L
861.6 93.506 L
861.987 80.27 L
862.375 91.817 L
862.763 84.53 L
863.15 75.631 L
863.537 93.506 L
863.925 99.45 L
864.313 71.921 L
864.7 84.065 L
865.088 73.678 L
865.475 67.992 L
865.862 55.003 L
866.25 92.975 L
866.638 79.418 L
867.025 88.619 L
867.412 68.885 L
867.8 72.242 L
868.188 95.45 L
868.575 63.571 L
868.963 94.185 L
869.35 74.306 L
869.737 66.746 L
870.125 72.487 L
870.513 62.006 L
870.9 79.418 L
871.287 93.506 L
871.675 67.267 L
872.063 81.158 L
872.45 79.418 L
872.838 79.418 L
873.225 90.949 L
873.612 71.606 L
874 89.758 L
874.388 99.45 L
874.775 71.921 L
875.162 59.111 L
875.55 77.391 L
875.938 89.641 L
876.325 73.678 L
876.713 72.17 L
877.1 88.619 L
877.487 65.92 L
877.875 60.17 L
878.263 80.27 L
878.65 72.903 L
879.037 101.143 L
879.425 70.843 L
879.813 70.843 L
880.2 71.373 L
880.588 91.817 L
880.975 88.619 L
881.362 53.613 L
881.75 76.332 L
882.138 77.391 L
882.525 83.252 L
882.912 74.957 L
883.3 61.294 L
883.688 72.68 L
884.075 94.185 L
884.463 78.073 L
884.85 57.547 L
885.237 69.404 L
885.625 80.27 L
886.013 71.195 L
886.4 71.373 L
886.787 89.641 L
887.175 80.27 L
887.563 66.355 L
887.95 76.732 L
888.338 75.479 L
888.725 69.284 L
889.112 75.631 L
889.5 71.373 L
889.888 85.488 L
890.275 102.748 L
890.662 67.992 L
891.05 75.829 L
891.438 79.418 L
891.825 62.876 L
892.213 61.594 L
892.6 65.498 L
892.987 74.306 L
893.375 73.678 L
893.763 90.706 L
894.15 80.27 L
894.537 83.61 L
894.925 56.415 L
895.313 101.143 L
895.7 69.833 L
896.088 73.072 L
896.475 80.27 L
896.862 75.631 L
897.25 65.498 L
897.638 75.631 L
898.025 74.306 L
898.412 86.487 L
898.8 66.746 L
899.188 69.352 L
899.575 87.397 L
899.963 89.758 L
900.35 65.92 L
900.737 62.876 L
901.125 76.732 L
901.513 59.111 L
901.9 75.631 L
902.287 65.973 L
902.675 65.498 L
903.063 57.791 L
903.45 64.141 L
903.838 77.391 L
904.225 90.706 L
904.612 77.391 L
905 64.693 L
S
GR
GS
1 0 0 RC
1 LJ
0.5 LW
N
169.525 226.598 M
169.913 228.91 L
170.3 229.863 L
170.688 229.023 L
171.075 229.058 L
171.462 227.76 L
171.85 228.63 L
172.238 227.78 L
172.625 226.479 L
173.012 227.311 L
173.4 226.705 L
173.788 226.697 L
174.175 225.7 L
174.563 226.466 L
174.95 225.451 L
175.337 224.863 L
175.725 224.526 L
176.113 224.408 L
176.5 224.737 L
176.887 224.115 L
177.275 223.283 L
177.663 222.144 L
178.05 221.3 L
178.438 221.404 L
178.825 221.816 L
179.212 223.134 L
179.6 223.134 L
179.988 223.368 L
180.375 222.983 L
180.762 222.983 L
181.15 224.062 L
181.538 224.235 L
181.925 223.843 L
182.313 223.656 L
182.7 224.257 L
183.087 225.543 L
183.475 224.561 L
183.863 224.473 L
184.25 222.545 L
184.637 223.35 L
185.025 221.736 L
185.413 222.548 L
185.8 222.664 L
186.188 222.909 L
186.575 223.092 L
186.962 222.875 L
187.35 223.457 L
187.738 223.222 L
188.125 223.55 L
188.512 223.03 L
188.9 221.346 L
189.288 221.08 L
189.675 219.238 L
190.063 218.737 L
190.45 219.453 L
190.837 218.6 L
191.225 219.582 L
191.613 219.081 L
192 219.28 L
192.387 219.28 L
192.775 219.014 L
193.163 219.341 L
193.55 219.648 L
193.938 219.648 L
194.325 219.382 L
194.712 219.222 L
195.1 220.941 L
195.488 220.925 L
195.875 220.652 L
196.262 219.997 L
196.65 220.497 L
197.038 221.598 L
197.425 222.3 L
197.813 222.96 L
198.2 221.978 L
198.587 220.794 L
198.975 219.06 L
199.363 218.579 L
199.75 217.29 L
200.137 218.221 L
200.525 217.426 L
200.913 216.444 L
201.3 215.693 L
201.688 215.328 L
202.075 215.069 L
202.462 214.053 L
202.85 212.381 L
203.238 212.197 L
203.625 210.934 L
204.012 211.068 L
204.4 208.847 L
204.788 209.078 L
205.175 207.85 L
205.563 206.144 L
205.95 205.317 L
206.337 204.412 L
206.725 204.138 L
207.113 203.921 L
207.5 204.156 L
207.887 203.694 L
208.275 204.123 L
208.663 204.552 L
209.05 203.602 L
209.438 203.909 L
209.825 203.1 L
210.212 201.811 L
210.6 202.456 L
210.988 201.903 L
211.375 201.831 L
211.762 201.298 L
212.15 200.559 L
212.538 199.131 L
212.925 197.451 L
213.313 196.046 L
213.7 195.234 L
214.087 193.29 L
214.475 194.245 L
214.863 191.469 L
215.25 190.565 L
215.637 190.019 L
216.025 189.814 L
216.413 188.539 L
216.8 186.595 L
217.188 186.595 L
217.575 186.321 L
217.962 186.621 L
218.35 187.089 L
218.738 186.366 L
219.125 185.359 L
219.512 185.337 L
219.9 184.089 L
220.288 184.474 L
220.675 183.165 L
221.063 182.715 L
221.45 181.952 L
221.837 180.305 L
222.225 180.059 L
222.613 179.872 L
223 180.383 L
223.387 179.892 L
223.775 180.212 L
224.163 180.125 L
224.55 178.655 L
224.938 177.997 L
225.325 178.114 L
225.712 177.914 L
226.1 178.302 L
226.488 177.789 L
226.875 176.554 L
227.262 175.37 L
227.65 174.359 L
228.038 173.984 L
228.425 173.929 L
228.813 174.645 L
229.2 173.724 L
229.587 173.506 L
229.975 173.997 L
230.363 172.905 L
230.75 171.634 L
231.137 170.952 L
231.525 171.575 L
231.913 171.341 L
232.3 171.585 L
232.688 171.846 L
233.075 171.27 L
233.462 171.144 L
233.85 170.987 L
234.238 169.35 L
234.625 168.923 L
235.012 168.513 L
235.4 168.017 L
235.788 167.083 L
236.175 166.598 L
236.563 166.076 L
236.95 165.803 L
237.337 164.937 L
237.725 163.317 L
238.113 162.09 L
238.5 161.327 L
238.887 161.399 L
239.275 160.767 L
239.663 161.372 L
240.05 161.2 L
240.438 161.691 L
240.825 161.311 L
241.212 161.701 L
241.6 162.109 L
241.988 161.556 L
242.375 161.698 L
242.762 160.295 L
243.15 160 L
243.538 159.68 L
243.925 158.94 L
244.313 159.367 L
244.7 159.718 L
245.087 159.081 L
245.475 157.879 L
245.863 157.246 L
246.25 156.022 L
246.637 156.737 L
247.025 155.509 L
247.413 154.625 L
247.8 152.933 L
248.188 152.325 L
248.575 150.616 L
248.962 150.321 L
249.35 149.104 L
249.738 147.139 L
250.125 145.993 L
250.512 144.941 L
250.9 143.577 L
251.288 142.111 L
251.675 141.877 L
252.063 141.035 L
252.45 141.013 L
252.837 140.772 L
253.225 140.102 L
253.613 140.669 L
254 140.855 L
254.387 140.658 L
254.775 140.541 L
255.163 140.881 L
255.55 140.383 L
255.938 140.178 L
256.325 140.408 L
256.712 138.833 L
257.1 138.143 L
257.487 138.399 L
257.875 138.282 L
258.263 137.943 L
258.65 136.986 L
259.038 136.781 L
259.425 134.305 L
259.813 132.903 L
260.2 131.184 L
260.587 130.636 L
260.975 129.872 L
261.362 129.521 L
261.75 129.372 L
262.138 127.791 L
262.525 127.346 L
262.913 126.822 L
263.3 126.506 L
263.688 126.917 L
264.075 126.255 L
264.462 124.599 L
264.85 124.548 L
265.237 124.359 L
265.625 123.99 L
266.013 124.059 L
266.4 122.307 L
266.788 122.693 L
267.175 122.656 L
267.563 124.048 L
267.95 122.977 L
268.337 122.039 L
268.725 121.72 L
269.112 121.744 L
269.5 121.451 L
269.888 121.409 L
270.275 122.111 L
270.663 121.741 L
271.05 121.213 L
271.438 120.699 L
271.825 120.553 L
272.212 120.322 L
272.6 119.739 L
272.987 119.407 L
273.375 118.146 L
273.763 117.438 L
274.15 117.382 L
274.538 116.68 L
274.925 116.186 L
275.313 115.952 L
275.7 115.893 L
276.087 114.958 L
276.475 115.111 L
276.862 115.274 L
277.25 115.274 L
277.638 114.543 L
278.025 114.451 L
278.413 113.806 L
278.8 112.566 L
279.188 113.558 L
279.575 113.442 L
279.962 113.544 L
280.35 113.169 L
280.737 112.004 L
281.125 111.584 L
281.513 111.373 L
281.9 111.878 L
282.288 111.72 L
282.675 110.799 L
283.063 111.212 L
283.45 110.716 L
283.837 110.535 L
284.225 111.162 L
284.612 110.314 L
285 110.071 L
285.388 109.923 L
285.775 109.691 L
286.163 110.845 L
286.55 110.14 L
286.938 109.833 L
287.325 109.314 L
287.712 109.969 L
288.1 110.05 L
288.487 109.144 L
288.875 108.919 L
289.263 109.387 L
289.65 109.387 L
290.038 109.562 L
290.425 109.879 L
290.813 109.94 L
291.2 110.173 L
291.587 109.827 L
291.975 109.761 L
292.362 110.048 L
292.75 109.655 L
293.138 109.92 L
293.525 109.87 L
293.913 110.277 L
294.3 110.128 L
294.688 108.892 L
295.075 109.067 L
295.462 108.37 L
295.85 108.563 L
296.237 108.089 L
296.625 108.177 L
297.013 108.505 L
297.4 109.17 L
297.788 108.918 L
298.175 109.337 L
298.563 109.998 L
298.95 110.269 L
299.337 110.129 L
299.725 110.482 L
300.112 110.957 L
300.5 111.062 L
300.888 111.459 L
301.275 111.612 L
301.663 111.378 L
302.05 112 L
302.438 112.772 L
302.825 112.54 L
303.212 112.518 L
303.6 112.607 L
303.987 113.364 L
304.375 114.521 L
304.763 114.713 L
305.15 114.153 L
305.538 113.515 L
305.925 111.79 L
306.313 112.46 L
306.7 113.018 L
307.087 112.163 L
307.475 111.93 L
307.862 112.24 L
308.25 112.42 L
308.638 112.189 L
309.025 112.374 L
309.413 112.249 L
309.8 111.514 L
310.188 111.375 L
310.575 111.477 L
310.962 111.32 L
311.35 110.728 L
311.737 111.116 L
312.125 111.178 L
312.513 111.655 L
312.9 111.598 L
313.288 111.192 L
313.675 110.27 L
314.063 110.829 L
314.45 111.576 L
314.837 112.944 L
315.225 113.652 L
315.612 113.281 L
316 113.318 L
316.388 112.031 L
316.775 111.488 L
317.163 111.069 L
317.55 111.443 L
317.938 110.855 L
318.325 110.977 L
318.712 110.706 L
319.1 110.436 L
319.487 110.733 L
319.875 110.119 L
320.263 110.541 L
320.65 110.438 L
321.038 110.449 L
321.425 110.657 L
321.813 111.034 L
322.2 110.805 L
322.587 110.097 L
322.975 110.237 L
323.362 109.978 L
323.75 109.538 L
324.138 108.528 L
324.525 109.251 L
324.913 109.223 L
325.3 110.028 L
325.688 110.472 L
326.075 110.003 L
326.462 110.399 L
326.85 110.1 L
327.237 109.671 L
327.625 109.313 L
328.013 109.697 L
328.4 109.54 L
328.788 109.54 L
329.175 109.858 L
329.563 109.861 L
329.95 109.802 L
330.337 109.392 L
330.725 109.104 L
331.112 109.167 L
331.5 108.553 L
331.888 108.121 L
332.275 107.932 L
332.663 110.075 L
333.05 111.19 L
333.438 111.751 L
333.825 112.667 L
334.212 113.183 L
334.6 111.78 L
334.987 111.419 L
335.375 112.239 L
335.763 112.585 L
336.15 114.015 L
336.538 114.137 L
336.925 115.499 L
337.313 116.146 L
337.7 116.872 L
338.087 116.988 L
338.475 116.436 L
338.862 116.554 L
339.25 117.628 L
339.638 117.543 L
340.025 118.573 L
340.413 118.569 L
340.8 118.821 L
341.188 118.464 L
341.575 117.425 L
341.962 117.654 L
342.35 118.104 L
342.737 117.853 L
343.125 118.231 L
343.513 117.605 L
343.9 117.313 L
344.288 117.162 L
344.675 117.694 L
345.063 117.197 L
345.45 118.396 L
345.837 119.119 L
346.225 118.396 L
346.612 118.912 L
347 119.653 L
347.388 120.195 L
347.775 120.238 L
348.163 121.118 L
348.55 121.43 L
348.938 121.334 L
349.325 121.558 L
349.712 122.102 L
350.1 123.33 L
350.487 124.109 L
350.875 124.852 L
351.263 124.413 L
351.65 125.152 L
352.038 126.355 L
352.425 124.492 L
352.813 123.537 L
353.2 122.786 L
353.587 121.821 L
353.975 121.101 L
354.362 121.018 L
354.75 121.653 L
355.138 121.197 L
355.525 121.135 L
355.913 120.194 L
356.3 120.001 L
356.688 118.683 L
357.075 117.742 L
357.462 117.39 L
357.85 117.117 L
358.237 117.144 L
358.625 117.144 L
359.013 115.899 L
359.4 116.121 L
359.788 114.768 L
360.175 114.614 L
360.563 114.194 L
360.95 114.246 L
361.337 113.88 L
361.725 113.651 L
362.112 113.078 L
362.5 113.103 L
362.888 112.365 L
363.275 112.038 L
363.663 112.613 L
364.05 111.195 L
364.438 111.058 L
364.825 112.127 L
365.212 111.321 L
365.6 110.336 L
365.987 110.018 L
366.375 109.057 L
366.763 108.284 L
367.15 107.716 L
367.538 106.928 L
367.925 106.244 L
368.313 105.602 L
368.7 105.122 L
369.087 104.791 L
369.475 103.844 L
369.862 102.066 L
370.25 101.244 L
370.638 100.941 L
371.025 100.971 L
371.413 100.59 L
371.8 99.627 L
372.188 98.777 L
372.575 99.186 L
372.962 99.607 L
373.35 99.304 L
373.737 99.146 L
374.125 98.754 L
374.513 98.435 L
374.9 98.521 L
375.288 98.556 L
375.675 98.447 L
376.063 97.824 L
376.45 97.359 L
376.837 97.856 L
377.225 97.632 L
377.612 97.789 L
378 98.064 L
378.388 98.099 L
378.775 97.951 L
379.163 97.894 L
379.55 97.791 L
379.938 97.367 L
380.325 96.687 L
380.712 96.535 L
381.1 96.765 L
381.487 96.891 L
381.875 96.399 L
382.263 96.149 L
382.65 96.738 L
383.038 96.75 L
383.425 97.037 L
383.813 97.137 L
384.2 97.058 L
384.587 96.117 L
384.975 95.702 L
385.362 95.178 L
385.75 94.6 L
386.138 94.922 L
386.525 94.836 L
386.913 94.604 L
387.3 94.492 L
387.688 94.104 L
388.075 93.765 L
388.462 93.84 L
388.85 94.208 L
389.237 94.519 L
389.625 94.983 L
390.013 94.872 L
390.4 94.176 L
390.788 94.288 L
391.175 93.709 L
391.563 93.309 L
391.95 93.617 L
392.337 93.297 L
392.725 93.261 L
393.112 93.027 L
393.5 92.891 L
393.888 93.051 L
394.275 92.41 L
394.663 92.341 L
395.05 92.079 L
395.438 92.149 L
395.825 92.678 L
396.212 92.411 L
396.6 91.488 L
396.987 91.799 L
397.375 91.874 L
397.763 92.23 L
398.15 92.363 L
398.538 92.03 L
398.925 91.863 L
399.313 91.605 L
399.7 91.491 L
400.087 91.866 L
400.475 91.344 L
400.862 90.533 L
401.25 89.62 L
401.638 89.856 L
402.025 89.538 L
402.413 89.609 L
402.8 89.08 L
403.188 87.978 L
403.575 87.781 L
403.962 86.888 L
404.35 86.441 L
404.737 86.624 L
405.125 86.834 L
405.513 87.275 L
405.9 87.254 L
406.288 86.814 L
406.675 87.518 L
407.063 87.499 L
407.45 87.776 L
407.837 87.136 L
408.225 87.406 L
408.612 86.579 L
409 86.315 L
409.388 86.007 L
409.775 86.212 L
410.163 86.068 L
410.55 85.687 L
410.938 85.561 L
411.325 85.378 L
411.712 85.522 L
412.1 84.967 L
412.487 84.488 L
412.875 84.569 L
413.263 84.328 L
413.65 83.831 L
414.038 84.055 L
414.425 83.85 L
414.813 83.822 L
415.2 83.43 L
415.587 82.829 L
415.975 83.036 L
416.362 83.263 L
416.75 83.137 L
417.138 82.405 L
417.525 81.606 L
417.913 80.908 L
418.3 80.843 L
418.688 80.346 L
419.075 80.705 L
419.462 81.652 L
419.85 81.37 L
420.237 81.776 L
420.625 82.368 L
421.013 82.746 L
421.4 83.196 L
421.788 83.331 L
422.175 83.137 L
422.563 83.627 L
422.95 83.945 L
423.337 84.142 L
423.725 84.841 L
424.112 85.582 L
424.5 85.719 L
424.888 85.779 L
425.275 85.842 L
425.663 85.72 L
426.05 85.837 L
426.438 85.115 L
426.825 85.4 L
427.212 85.473 L
427.6 85.728 L
427.987 85.643 L
428.375 85.902 L
428.763 86.072 L
429.15 86.524 L
429.538 88.019 L
429.925 88.664 L
430.313 88.733 L
430.7 89.264 L
431.087 89.556 L
431.475 88.874 L
431.862 89.117 L
432.25 89.812 L
432.638 89.821 L
433.025 90.141 L
433.413 90.437 L
433.8 90.855 L
434.188 90.528 L
434.575 90.134 L
434.962 90.729 L
435.35 90.62 L
435.737 91.2 L
436.125 91.752 L
436.513 91.652 L
436.9 91.826 L
437.288 91.513 L
437.675 91.288 L
438.063 92.102 L
438.45 92.102 L
438.837 91.695 L
439.225 91.286 L
439.612 91.392 L
440 91.107 L
440.388 91.107 L
440.775 91.076 L
441.163 90.734 L
441.55 90.621 L
441.938 90.295 L
442.325 90.702 L
442.712 91.212 L
443.1 91.22 L
443.487 91.681 L
443.875 90.923 L
444.263 90.172 L
444.65 89.82 L
445.038 89.943 L
445.425 89.751 L
445.813 90.521 L
446.2 90.316 L
446.587 90.604 L
446.975 90.447 L
447.362 90.795 L
447.75 90.354 L
448.138 90.566 L
448.525 90.678 L
448.913 90.756 L
449.3 89.825 L
449.688 89.259 L
450.075 89.81 L
450.462 90.102 L
450.85 89.901 L
451.237 90.151 L
451.625 89.732 L
452.013 89.123 L
452.4 88.986 L
452.788 88.991 L
453.175 88.945 L
453.563 88.092 L
453.95 88.109 L
454.337 88.152 L
454.725 87.924 L
455.112 88.18 L
455.5 87.44 L
455.888 86.65 L
456.275 86.732 L
456.663 86.663 L
457.05 86.84 L
457.438 86.701 L
457.825 86.605 L
458.212 86.424 L
458.6 87.027 L
458.987 86.653 L
459.375 86.586 L
459.763 86.464 L
460.15 86.137 L
460.538 86.577 L
460.925 86.724 L
461.313 87.246 L
461.7 87.228 L
462.087 87.063 L
462.475 86.415 L
462.862 86.434 L
463.25 85.92 L
463.638 86.298 L
464.025 86.454 L
464.413 86.82 L
464.8 86.59 L
465.188 86.735 L
465.575 86.153 L
465.962 86.966 L
466.35 86.718 L
466.737 86.92 L
467.125 86.792 L
467.513 86.815 L
467.9 86.583 L
468.288 86.194 L
468.675 85.751 L
469.063 84.982 L
469.45 85.32 L
469.837 84.819 L
470.225 83.896 L
470.612 84.691 L
471 84.721 L
471.388 84.862 L
471.775 84.907 L
472.163 84.536 L
472.55 84.344 L
472.938 84.547 L
473.325 85.992 L
473.712 86.326 L
474.1 86.952 L
474.487 87.093 L
474.875 87.273 L
475.263 86.858 L
475.65 86.89 L
476.038 86.684 L
476.425 86.447 L
476.813 86.935 L
477.2 87.372 L
477.587 86.82 L
477.975 87 L
478.362 86.369 L
478.75 86.014 L
479.138 85.829 L
479.525 86.448 L
479.913 86.333 L
480.3 85.855 L
480.688 86.21 L
481.075 85.371 L
481.462 86.306 L
481.85 86.151 L
482.237 86.049 L
482.625 87.354 L
483.013 86.966 L
483.4 87.261 L
483.788 87.157 L
484.175 86.76 L
484.563 86.489 L
484.95 86.593 L
485.337 86.317 L
485.725 85.62 L
486.112 85.182 L
486.5 84.894 L
486.888 84.988 L
487.275 85.433 L
487.663 85.378 L
488.05 85.418 L
488.438 85.542 L
488.825 85.621 L
489.212 85.294 L
489.6 84.944 L
489.987 84.977 L
490.375 85.497 L
490.763 85.576 L
491.15 85.809 L
491.538 85.66 L
491.925 85.966 L
492.313 85.992 L
492.7 85.44 L
493.087 84.942 L
493.475 85.216 L
493.862 84.198 L
494.25 83.653 L
494.638 83.176 L
495.025 83.771 L
495.413 83.997 L
495.8 84.278 L
496.188 85.571 L
496.575 84.82 L
496.962 84.769 L
497.35 85.237 L
497.737 84.908 L
498.125 84.799 L
498.513 85.221 L
498.9 85.248 L
499.288 85.217 L
499.675 85.59 L
500.063 86.268 L
500.45 85.705 L
500.837 85.805 L
501.225 85.389 L
501.612 85.682 L
502 85.559 L
502.388 85.037 L
502.775 84.66 L
503.163 84.097 L
503.55 84.352 L
503.938 84.434 L
504.325 84.48 L
504.712 84.767 L
505.1 84.98 L
505.487 85.693 L
505.875 85.907 L
506.263 86.056 L
506.65 86.056 L
507.038 85.928 L
507.425 85.986 L
507.813 85.91 L
508.2 85.542 L
508.587 85.568 L
508.975 85.52 L
509.362 86.056 L
509.75 86.384 L
510.138 84.911 L
510.525 84.869 L
510.913 84.663 L
511.3 84.6 L
511.688 84.333 L
512.075 83.81 L
512.463 84.043 L
512.85 83.055 L
513.237 83.166 L
513.625 83.353 L
514.013 83.446 L
514.4 84.203 L
514.787 84.08 L
515.175 83.821 L
515.563 84.091 L
515.95 82.617 L
516.338 82.669 L
516.725 82.823 L
517.112 82.498 L
517.5 82.915 L
517.888 83.397 L
518.275 82.923 L
518.662 82.979 L
519.05 82.33 L
519.438 82.531 L
519.825 82.032 L
520.213 82.113 L
520.6 82.461 L
520.987 81.942 L
521.375 81.916 L
521.763 82.244 L
522.15 81.569 L
522.537 83.509 L
522.925 83.665 L
523.313 83.472 L
523.7 83.919 L
524.088 83.924 L
524.475 83.146 L
524.862 82.805 L
525.25 81.883 L
525.638 81.655 L
526.025 81.448 L
526.412 82.123 L
526.8 81.706 L
527.188 81.734 L
527.575 81.808 L
527.963 81.949 L
528.35 82.223 L
528.737 82.335 L
529.125 81.821 L
529.513 81.439 L
529.9 82.07 L
530.287 81.678 L
530.675 81.773 L
531.063 81.902 L
531.45 82.28 L
531.838 82.429 L
532.225 82.199 L
532.612 82.435 L
533 82.349 L
533.388 82.437 L
533.775 83.54 L
534.162 83.44 L
534.55 83.362 L
534.938 83.503 L
535.325 83.135 L
535.713 83.794 L
536.1 84.407 L
536.487 84.305 L
536.875 84.077 L
537.263 83.885 L
537.65 83.865 L
538.037 84.879 L
538.425 84.898 L
538.813 84.885 L
539.2 84.344 L
539.588 84.436 L
539.975 83.75 L
540.362 83.707 L
540.75 84.051 L
541.138 83.502 L
541.525 84.218 L
541.912 85.257 L
542.3 84.136 L
542.688 84.47 L
543.075 85.006 L
543.463 84.51 L
543.85 84.727 L
544.237 85.114 L
544.625 85.44 L
545.013 85.356 L
545.4 85.839 L
545.787 86.168 L
546.175 85.647 L
546.563 85.625 L
546.95 85.369 L
547.338 85.433 L
547.725 85.297 L
548.112 84.685 L
548.5 84.965 L
548.888 85.904 L
549.275 86.026 L
549.662 85.517 L
550.05 85.602 L
550.438 85.357 L
550.825 85.345 L
551.213 85.656 L
551.6 86.404 L
551.987 87.06 L
552.375 86.667 L
552.763 86.788 L
553.15 86.905 L
553.537 85.763 L
553.925 85.794 L
554.313 85.794 L
554.7 86.103 L
555.088 87.405 L
555.475 87.166 L
555.862 86.881 L
556.25 86.687 L
556.638 86.403 L
557.025 86.72 L
557.412 86.29 L
557.8 85.993 L
558.188 86.282 L
558.575 86.226 L
558.963 86.684 L
559.35 86.614 L
559.737 87.193 L
560.125 87.152 L
560.513 87.08 L
560.9 87.434 L
561.287 87.599 L
561.675 86.856 L
562.063 86.463 L
562.45 86.037 L
562.838 85.429 L
563.225 86.368 L
563.612 86.532 L
564 86.981 L
564.388 87.311 L
564.775 88.023 L
565.162 87.822 L
565.55 87.769 L
565.938 87.416 L
566.325 87.527 L
566.713 88.138 L
567.1 87.701 L
567.487 87.977 L
567.875 88.093 L
568.263 87.825 L
568.65 86.62 L
569.037 86.592 L
569.425 86.812 L
569.813 86.968 L
570.2 86.819 L
570.588 87.574 L
570.975 87.102 L
571.362 86.682 L
571.75 86.16 L
572.138 87.747 L
572.525 86.924 L
572.912 86.978 L
573.3 88.265 L
573.688 87.973 L
574.075 88.093 L
574.463 88.111 L
574.85 87.066 L
575.237 87.144 L
575.625 86.948 L
576.013 87.158 L
576.4 87.475 L
576.787 87.227 L
577.175 87.781 L
577.563 87.109 L
577.95 86.869 L
578.338 87.426 L
578.725 87.529 L
579.112 87.774 L
579.5 87.575 L
579.888 87.33 L
580.275 86.974 L
580.662 87.035 L
581.05 86.024 L
581.438 85.519 L
581.825 85.787 L
582.213 86.249 L
582.6 86.736 L
582.987 87.433 L
583.375 86.802 L
583.763 86.717 L
584.15 86.785 L
584.537 86.535 L
584.925 87.013 L
585.313 87.028 L
585.7 87.165 L
586.088 87.117 L
586.475 86.599 L
586.862 86.831 L
587.25 87.036 L
587.638 87.844 L
588.025 88.403 L
588.412 88.492 L
588.8 88.898 L
589.188 88.635 L
589.575 88.816 L
589.963 89.764 L
590.35 88.909 L
590.737 88.747 L
591.125 88.878 L
591.513 88.832 L
591.9 87.715 L
592.287 88.094 L
592.675 88.273 L
593.063 87.01 L
593.45 86.562 L
593.838 86.664 L
594.225 86.273 L
594.612 86.139 L
595 85.886 L
595.388 86.465 L
595.775 86.569 L
596.162 86.243 L
596.55 86.416 L
596.938 86.329 L
597.325 87.373 L
597.713 86.907 L
598.1 86.12 L
598.487 85.605 L
598.875 85.878 L
599.263 85.647 L
599.65 85.91 L
600.037 85.881 L
600.425 85.922 L
600.813 85.91 L
601.2 86.174 L
601.588 85.761 L
601.975 85.419 L
602.362 84.789 L
602.75 82.988 L
603.138 83.224 L
603.525 82.874 L
603.912 82.119 L
604.3 81.956 L
604.688 81.749 L
605.075 81.824 L
605.463 82.201 L
605.85 82.122 L
606.237 81.952 L
606.625 82.054 L
607.013 81.969 L
607.4 81.102 L
607.787 80.676 L
608.175 80.695 L
608.563 80.396 L
608.95 81.02 L
609.338 80.683 L
609.725 80.413 L
610.112 80.717 L
610.5 80.906 L
610.888 80.418 L
611.275 80.809 L
611.662 81.148 L
612.05 81.312 L
612.438 81.624 L
612.825 82.078 L
613.213 83.051 L
613.6 82.6 L
613.987 83.128 L
614.375 82.81 L
614.763 82.762 L
615.15 82.265 L
615.537 82.265 L
615.925 82.456 L
616.313 82.101 L
616.7 82.165 L
617.088 81.254 L
617.475 81.973 L
617.862 82.76 L
618.25 82.675 L
618.638 82.492 L
619.025 83.109 L
619.412 82.781 L
619.8 82.688 L
620.188 82.105 L
620.575 82.088 L
620.963 82.097 L
621.35 82.564 L
621.737 82.332 L
622.125 82.521 L
622.513 82.803 L
622.9 83.654 L
623.287 83.828 L
623.675 84.425 L
624.063 84.871 L
624.45 84.533 L
624.838 84.052 L
625.225 83.896 L
625.612 83.899 L
626 83.828 L
626.388 83.353 L
626.775 83.367 L
627.162 83.227 L
627.55 82.88 L
627.938 83.515 L
628.325 83.336 L
628.713 82.943 L
629.1 82.885 L
629.487 82.476 L
629.875 82.566 L
630.263 82.372 L
630.65 82.705 L
631.037 82.181 L
631.425 81.763 L
631.813 81.508 L
632.2 81.293 L
632.588 80.992 L
632.975 80.33 L
633.362 80.594 L
633.75 79.906 L
634.138 79.494 L
634.525 80.265 L
634.912 79.907 L
635.3 79.363 L
635.688 79.404 L
636.075 79.756 L
636.463 79.147 L
636.85 79.485 L
637.237 79.13 L
637.625 78.652 L
638.013 79.173 L
638.4 78.545 L
638.787 78.527 L
639.175 78.838 L
639.563 79.361 L
639.95 80.149 L
640.338 79.972 L
640.725 79.718 L
641.112 79.287 L
641.5 79.036 L
641.888 78.975 L
642.275 78.791 L
642.662 77.75 L
643.05 77.637 L
643.438 76.891 L
643.825 76.353 L
644.213 76.208 L
644.6 76.133 L
644.987 76.809 L
645.375 76.881 L
645.763 76.927 L
646.15 77.549 L
646.537 77.276 L
646.925 77.656 L
647.313 78.306 L
647.7 77.487 L
648.088 77.446 L
648.475 77.369 L
648.862 77.836 L
649.25 77.962 L
649.638 77.813 L
650.025 77.571 L
650.412 77.337 L
650.8 77.825 L
651.188 78.046 L
651.575 77.914 L
651.963 77.489 L
652.35 77.114 L
652.737 76.972 L
653.125 76.988 L
653.513 77.566 L
653.9 77.761 L
654.287 77.053 L
654.675 77.472 L
655.063 77.966 L
655.45 78.404 L
655.838 78.551 L
656.225 78.881 L
656.612 78.597 L
657 78.541 L
657.388 78.689 L
657.775 79.205 L
658.162 79.743 L
658.55 79.162 L
658.938 79.147 L
659.325 78.868 L
659.713 78.317 L
660.1 78.37 L
660.487 78.401 L
660.875 78.222 L
661.263 79.205 L
661.65 79.547 L
662.037 80.478 L
662.425 81.169 L
662.813 80.985 L
663.2 81.193 L
663.588 81.527 L
663.975 81.733 L
664.362 82.199 L
664.75 81.498 L
665.138 82.093 L
665.525 82.689 L
665.912 82.724 L
666.3 83.162 L
666.688 83.236 L
667.075 82.989 L
667.463 84.08 L
667.85 84.144 L
668.237 83.873 L
668.625 83.493 L
669.013 82.958 L
669.4 82.427 L
669.787 82.487 L
670.175 82.014 L
670.563 81.289 L
670.95 80.888 L
671.338 80.819 L
671.725 80.594 L
672.112 80.377 L
672.5 79.874 L
672.888 79.412 L
673.275 78.434 L
673.662 78.354 L
674.05 78.028 L
674.438 77.462 L
674.825 76.864 L
675.213 75.902 L
675.6 75.196 L
675.987 74.867 L
676.375 74.472 L
676.763 74.309 L
677.15 73.658 L
677.537 72.424 L
677.925 71.725 L
678.313 71.815 L
678.7 71.448 L
679.088 71.201 L
679.475 70.711 L
679.862 70.588 L
680.25 70.989 L
680.638 71.262 L
681.025 70.369 L
681.412 69.893 L
681.8 69.098 L
682.188 68.376 L
682.575 68.211 L
682.963 67.825 L
683.35 67.185 L
683.737 66.512 L
684.125 65.678 L
684.513 64.869 L
684.9 63.912 L
685.287 63.223 L
685.675 62.744 L
686.063 61.823 L
686.45 61.289 L
686.838 60.608 L
687.225 59.615 L
687.612 59.563 L
688 59.296 L
688.388 59.129 L
688.775 59.267 L
689.162 59.355 L
689.55 59.242 L
689.938 59.169 L
690.325 59.248 L
690.713 58.687 L
691.1 58.319 L
691.487 58.165 L
691.875 58.276 L
692.263 58.616 L
692.65 59.03 L
693.037 58.999 L
693.425 58.69 L
693.813 58.68 L
694.2 58.701 L
694.588 58.736 L
694.975 58.767 L
695.362 59.308 L
695.75 59.726 L
696.138 59.975 L
696.525 59.867 L
696.912 60.28 L
697.3 60.1 L
697.688 59.874 L
698.075 59.575 L
698.463 59.415 L
698.85 59.258 L
699.237 59.588 L
699.625 59.551 L
700.013 58.995 L
700.4 58.533 L
700.787 58.87 L
701.175 58.52 L
701.563 58.247 L
701.95 58.809 L
702.338 58.967 L
702.725 59.598 L
703.112 60.306 L
703.5 60.314 L
703.888 60.468 L
704.275 60.525 L
704.662 60.395 L
705.05 60.479 L
705.438 60.044 L
705.825 59.906 L
706.213 59.76 L
706.6 60.325 L
706.987 60.354 L
707.375 60.022 L
707.763 60.175 L
708.15 60.334 L
708.537 60.129 L
708.925 59.971 L
709.313 59.826 L
709.7 59.917 L
710.088 59.766 L
710.475 60.097 L
710.862 60.155 L
711.25 60.16 L
711.638 60.028 L
712.025 60.051 L
712.412 59.889 L
712.8 60.371 L
713.188 61.09 L
713.575 61.152 L
713.963 60.99 L
714.35 61.022 L
714.737 61.501 L
715.125 61.372 L
715.513 60.835 L
715.9 60.541 L
716.287 60.64 L
716.675 60.192 L
717.063 61.012 L
717.45 61.336 L
717.838 61.658 L
718.225 61.535 L
718.612 61.245 L
719 60.867 L
719.388 60.737 L
719.775 60.642 L
720.162 60.566 L
720.55 59.871 L
720.938 59.981 L
721.325 60.028 L
721.713 59.662 L
722.1 59.361 L
722.487 58.871 L
722.875 58.599 L
723.263 59.556 L
723.65 59.873 L
724.037 60.133 L
724.425 60.441 L
724.813 61.02 L
725.2 61.573 L
725.588 61.817 L
725.975 62.345 L
726.362 62.08 L
726.75 61.958 L
727.138 62.129 L
727.525 61.97 L
727.912 61.676 L
728.3 61.735 L
728.688 61.887 L
729.075 62.299 L
729.463 62.469 L
729.85 62.593 L
730.237 62.561 L
730.625 62.803 L
731.013 62.82 L
731.4 63.02 L
731.787 62.716 L
732.175 62.969 L
732.563 62.991 L
732.95 62.859 L
733.338 62.896 L
733.725 63.248 L
734.112 64.371 L
734.5 64.397 L
734.888 64.435 L
735.275 65.282 L
735.662 65.614 L
736.05 65.527 L
736.438 66.895 L
736.825 66.38 L
737.213 66.204 L
737.6 65.987 L
737.987 67.12 L
738.375 67.682 L
738.763 68.198 L
739.15 68.183 L
739.537 68.307 L
739.925 68.716 L
740.313 69.022 L
740.7 69.381 L
741.088 69.545 L
741.475 69.571 L
741.862 70.061 L
742.25 69.919 L
742.638 69.606 L
743.025 69.015 L
743.412 69.554 L
743.8 69.833 L
744.188 70.358 L
744.575 70.103 L
744.963 69.875 L
745.35 70.479 L
745.737 70.418 L
746.125 70.193 L
746.513 70.151 L
746.9 70.462 L
747.287 71.132 L
747.675 71.818 L
748.063 71.994 L
748.45 72.532 L
748.838 72.579 L
749.225 72.866 L
749.612 72.948 L
750 72.852 L
750.388 72.931 L
750.775 73.073 L
751.162 73.186 L
751.55 73.743 L
751.938 73.39 L
752.325 73.862 L
752.713 74.12 L
753.1 74.219 L
753.487 74.395 L
753.875 73.804 L
754.263 73.911 L
754.65 73.987 L
755.037 73.961 L
755.425 74.394 L
755.813 74.32 L
756.2 73.654 L
756.588 73.84 L
756.975 74.038 L
757.362 74.125 L
757.75 73.346 L
758.138 73.259 L
758.525 73.331 L
758.912 74.1 L
759.3 75.037 L
759.688 75.241 L
760.075 75.69 L
760.463 75.61 L
760.85 75.909 L
761.237 75.796 L
761.625 75.534 L
762.013 76.172 L
762.4 76.24 L
762.787 76.538 L
763.175 76.096 L
763.563 75.959 L
763.95 75.488 L
764.338 75.172 L
764.725 75.204 L
765.112 74.612 L
765.5 74.501 L
765.888 75.041 L
766.275 75.058 L
766.662 74.597 L
767.05 74.245 L
767.438 73.651 L
767.825 73.294 L
768.213 72.881 L
768.6 72.509 L
768.987 72.018 L
769.375 71.888 L
769.763 71.923 L
770.15 71.491 L
770.537 71.292 L
770.925 71.37 L
771.313 71.006 L
771.7 71.55 L
772.088 71.016 L
772.475 70.437 L
772.862 70.494 L
773.25 70.148 L
773.638 70.024 L
774.025 69.582 L
774.412 69.597 L
774.8 68.766 L
775.188 68.173 L
775.575 68.808 L
775.963 68.444 L
776.35 68.496 L
776.737 67.971 L
777.125 67.874 L
777.513 67.872 L
777.9 67.653 L
778.287 67.627 L
778.675 67.129 L
779.063 66.462 L
779.45 66.31 L
779.838 66.009 L
780.225 65.657 L
780.612 65.429 L
781 65.171 L
781.388 65.214 L
781.775 64.903 L
782.162 65.334 L
782.55 65.363 L
782.938 65.291 L
783.325 65.327 L
783.713 65.615 L
784.1 65.782 L
784.487 66.219 L
784.875 66.336 L
785.263 66.154 L
785.65 66.386 L
786.037 66.454 L
786.425 66.876 L
786.813 66.524 L
787.2 66.937 L
787.588 67.526 L
787.975 68.304 L
788.362 68.884 L
788.75 69.098 L
789.138 69.11 L
789.525 69.625 L
789.912 69.857 L
790.3 70.169 L
790.688 70.3 L
791.075 70.863 L
791.463 70.429 L
791.85 70.773 L
792.237 71.105 L
792.625 70.974 L
793.013 71.261 L
793.4 71.163 L
793.787 71.42 L
794.175 71.245 L
794.563 71.564 L
794.95 72.324 L
795.338 71.905 L
795.725 72.162 L
796.112 72.064 L
796.5 72.496 L
796.888 72.243 L
797.275 72.604 L
797.662 72.823 L
798.05 72.776 L
798.438 72.827 L
798.825 72.566 L
799.213 72.265 L
799.6 72.81 L
799.987 73.371 L
800.375 73.228 L
800.763 73.563 L
801.15 73.745 L
801.537 74.49 L
801.925 74.468 L
802.313 74.117 L
802.7 74.471 L
803.088 74.442 L
803.475 73.991 L
803.862 74.145 L
804.25 73.749 L
804.638 73.984 L
805.025 74.32 L
805.412 73.831 L
805.8 74.006 L
806.188 74.21 L
806.575 74.618 L
806.963 74.816 L
807.35 74.793 L
807.737 73.936 L
808.125 73.655 L
808.513 73.886 L
808.9 74.168 L
809.287 74.019 L
809.675 73.982 L
810.063 73.896 L
810.45 73.525 L
810.838 73.074 L
811.225 72.913 L
811.612 72.333 L
812 72.745 L
812.388 72.931 L
812.775 72.811 L
813.162 72.713 L
813.55 73.079 L
813.938 72.915 L
814.325 72.907 L
814.713 72.162 L
815.1 73.332 L
815.487 73.09 L
815.875 72.719 L
816.263 72.49 L
816.65 72.947 L
817.037 73.104 L
817.425 72.886 L
817.813 73.035 L
818.2 73.205 L
818.588 72.964 L
818.975 73.16 L
819.362 72.857 L
819.75 72.688 L
820.138 72.488 L
820.525 72.675 L
820.912 72.928 L
821.3 72.288 L
821.688 71.819 L
822.075 72.622 L
822.463 71.937 L
822.85 72.1 L
823.237 72.309 L
823.625 72.066 L
824.013 71.92 L
824.4 71.686 L
824.787 71.854 L
825.175 71.808 L
825.563 72.135 L
825.95 71.772 L
826.338 72.179 L
826.725 71.883 L
827.112 72.052 L
827.5 72.123 L
827.888 72.296 L
828.275 72.365 L
828.662 72.543 L
829.05 72.997 L
829.438 73.422 L
829.825 73.777 L
830.213 74.233 L
830.6 74.189 L
830.987 74.277 L
831.375 74.681 L
831.763 74.905 L
832.15 75.026 L
832.537 75.158 L
832.925 75.478 L
833.313 75.478 L
833.7 75.577 L
834.088 75.48 L
834.475 75.625 L
834.862 74.404 L
835.25 74.541 L
835.638 75.017 L
836.025 75.781 L
836.412 75.791 L
836.8 75.221 L
837.188 75.719 L
837.575 75.413 L
837.963 75.22 L
838.35 75.612 L
838.737 75.447 L
839.125 75.442 L
839.513 75.433 L
839.9 76.023 L
840.287 76.03 L
840.675 75.813 L
841.063 75.495 L
841.45 75.417 L
841.838 74.714 L
842.225 75.377 L
842.612 75.119 L
843 75.039 L
843.388 74.993 L
843.775 74.999 L
844.162 75.179 L
844.55 74.823 L
844.938 75.126 L
845.325 74.584 L
845.713 74.697 L
846.1 74.498 L
846.487 74.336 L
846.875 74.421 L
847.263 74.39 L
847.65 74.568 L
848.037 74.439 L
848.425 74.297 L
848.813 73.789 L
849.2 74.35 L
849.588 73.918 L
849.975 74.076 L
850.362 74.044 L
850.75 73.873 L
851.138 74.168 L
851.525 73.384 L
851.912 73.692 L
852.3 73.809 L
852.688 73.944 L
853.075 73.755 L
853.463 73.905 L
853.85 74.484 L
854.237 75.11 L
854.625 75.251 L
855.013 75.478 L
855.4 75.572 L
855.787 75.059 L
856.175 74.758 L
856.563 75.373 L
856.95 75.192 L
857.338 75.676 L
857.725 75.741 L
858.112 75.677 L
858.5 76.322 L
858.888 75.952 L
859.275 76.465 L
859.662 76.246 L
860.05 75.916 L
860.438 75.796 L
860.825 75.897 L
861.213 76.263 L
861.6 76.788 L
861.987 76.307 L
862.375 76.597 L
862.763 76.901 L
863.15 77.125 L
863.537 77.706 L
863.925 77.606 L
864.313 78.073 L
864.7 78.434 L
865.088 78.669 L
865.475 78.382 L
865.862 78.382 L
866.25 78.798 L
866.638 78.543 L
867.025 78.732 L
867.412 78.686 L
867.8 78.628 L
868.188 78.362 L
868.575 78.491 L
868.963 77.879 L
869.35 78.646 L
869.737 78.275 L
870.125 78.5 L
870.513 78.754 L
870.9 78.754 L
871.287 79.228 L
871.675 78.446 L
872.063 78.369 L
872.45 78.086 L
872.838 78.061 L
873.225 78.048 L
873.612 77.416 L
874 76.891 L
874.388 77.328 L
874.775 77.21 L
875.162 76.894 L
875.55 76.922 L
875.938 77.417 L
876.325 76.99 L
876.713 76.832 L
877.1 76.852 L
877.487 77.075 L
877.875 76.96 L
878.263 76.593 L
878.65 76.826 L
879.037 76.338 L
879.425 76.364 L
879.813 76.455 L
880.2 76.71 L
880.588 77.509 L
880.975 77.285 L
881.362 76.938 L
881.75 77.176 L
882.138 76.818 L
882.525 76.468 L
882.912 76.195 L
883.3 75.869 L
883.688 75.91 L
884.075 75.928 L
884.463 75.552 L
884.85 75.781 L
885.237 75.729 L
885.625 76.194 L
886.013 75.806 L
886.4 75.794 L
886.787 75.953 L
887.175 75.698 L
887.563 75.69 L
887.95 75.993 L
888.338 75.876 L
888.725 76.143 L
889.112 75.468 L
889.5 75.439 L
889.888 75.763 L
890.275 76.124 L
890.662 75.616 L
891.05 75.111 L
891.438 75.565 L
891.825 75.227 L
892.213 75.193 L
892.6 74.854 L
892.987 74.668 L
893.375 74.6 L
893.763 74.432 L
894.15 74.103 L
894.537 74.351 L
894.925 74.74 L
895.313 74.647 L
895.7 74.535 L
896.088 74.603 L
896.475 74.67 L
896.862 74.352 L
897.25 74.223 L
897.638 74.398 L
898.025 74.345 L
898.412 74.319 L
898.8 74.438 L
899.188 74.409 L
899.575 74.485 L
899.963 74.203 L
900.35 73.452 L
900.737 73.599 L
901.125 73.538 L
901.513 73.369 L
901.9 73.678 L
902.287 74.044 L
902.675 74.311 L
903.063 74.312 L
903.45 74.333 L
903.838 73.768 L
904.225 73.536 L
904.612 73.163 L
905 73.807 L
S
GR
%%Trailer
%%Pages: 1
%%EOF
