%!PS-Adobe-3.0 EPSF-3.0
%%Creator: (MATLAB, The Mathworks, Inc. Version 9.0.0.341360 \(R2016a\). Operating System: Linux)
%%Title: report/figures/sm_base_log_softmax1_ratio.eps
%%CreationDate: 2017-02-04T23:56:32
%%Pages: (atend)
%%BoundingBox:    59     4   910   325
%%LanguageLevel: 3
%%EndComments
%%BeginProlog
%%BeginResource: procset (Apache XML Graphics Std ProcSet) 1.2 0
%%Version: 1.2 0
%%Copyright: (Copyright 2001-2003,2010 The Apache Software Foundation. License terms: http://www.apache.org/licenses/LICENSE-2.0)
/bd{bind def}bind def
/ld{load def}bd
/GR/grestore ld
/M/moveto ld
/LJ/setlinejoin ld
/C/curveto ld
/f/fill ld
/LW/setlinewidth ld
/GC/setgray ld
/t/show ld
/N/newpath ld
/CT/concat ld
/cp/closepath ld
/S/stroke ld
/L/lineto ld
/CC/setcmykcolor ld
/A/ashow ld
/GS/gsave ld
/RC/setrgbcolor ld
/RM/rmoveto ld
/ML/setmiterlimit ld
/re {4 2 roll M
1 index 0 rlineto
0 exch rlineto
neg 0 rlineto
cp } bd
/_ctm matrix def
/_tm matrix def
/BT { _ctm currentmatrix pop matrix _tm copy pop 0 0 moveto } bd
/ET { _ctm setmatrix } bd
/iTm { _ctm setmatrix _tm concat } bd
/Tm { _tm astore pop iTm 0 0 moveto } bd
/ux 0.0 def
/uy 0.0 def
/F {
  /Tp exch def
  /Tf exch def
  Tf findfont Tp scalefont setfont
  /cf Tf def  /cs Tp def
} bd
/ULS {currentpoint /uy exch def /ux exch def} bd
/ULE {
  /Tcx currentpoint pop def
  gsave
  newpath
  cf findfont cs scalefont dup
  /FontMatrix get 0 get /Ts exch def /FontInfo get dup
  /UnderlinePosition get Ts mul /To exch def
  /UnderlineThickness get Ts mul /Tt exch def
  ux uy To add moveto  Tcx uy To add lineto
  Tt setlinewidth stroke
  grestore
} bd
/OLE {
  /Tcx currentpoint pop def
  gsave
  newpath
  cf findfont cs scalefont dup
  /FontMatrix get 0 get /Ts exch def /FontInfo get dup
  /UnderlinePosition get Ts mul /To exch def
  /UnderlineThickness get Ts mul /Tt exch def
  ux uy To add cs add moveto Tcx uy To add cs add lineto
  Tt setlinewidth stroke
  grestore
} bd
/SOE {
  /Tcx currentpoint pop def
  gsave
  newpath
  cf findfont cs scalefont dup
  /FontMatrix get 0 get /Ts exch def /FontInfo get dup
  /UnderlinePosition get Ts mul /To exch def
  /UnderlineThickness get Ts mul /Tt exch def
  ux uy To add cs 10 mul 26 idiv add moveto Tcx uy To add cs 10 mul 26 idiv add lineto
  Tt setlinewidth stroke
  grestore
} bd
/QT {
/Y22 exch store
/X22 exch store
/Y21 exch store
/X21 exch store
currentpoint
/Y21 load 2 mul add 3 div exch
/X21 load 2 mul add 3 div exch
/X21 load 2 mul /X22 load add 3 div
/Y21 load 2 mul /Y22 load add 3 div
/X22 load /Y22 load curveto
} bd
/SSPD {
dup length /d exch dict def
{
/v exch def
/k exch def
currentpagedevice k known {
/cpdv currentpagedevice k get def
v cpdv ne {
/upd false def
/nullv v type /nulltype eq def
/nullcpdv cpdv type /nulltype eq def
nullv nullcpdv or
{
/upd true def
} {
/sametype v type cpdv type eq def
sametype {
v type /arraytype eq {
/vlen v length def
/cpdvlen cpdv length def
vlen cpdvlen eq {
0 1 vlen 1 sub {
/i exch def
/obj v i get def
/cpdobj cpdv i get def
obj cpdobj ne {
/upd true def
exit
} if
} for
} {
/upd true def
} ifelse
} {
v type /dicttype eq {
v {
/dv exch def
/dk exch def
/cpddv cpdv dk get def
dv cpddv ne {
/upd true def
exit
} if
} forall
} {
/upd true def
} ifelse
} ifelse
} if
} ifelse
upd true eq {
d k v put
} if
} if
} if
} forall
d length 0 gt {
d setpagedevice
} if
} bd
%%EndResource
%%BeginResource: procset (Apache XML Graphics EPS ProcSet) 1.0 0
%%Version: 1.0 0
%%Copyright: (Copyright 2002-2003 The Apache Software Foundation. License terms: http://www.apache.org/licenses/LICENSE-2.0)
/BeginEPSF { %def
/b4_Inc_state save def         % Save state for cleanup
/dict_count countdictstack def % Count objects on dict stack
/op_count count 1 sub def      % Count objects on operand stack
userdict begin                 % Push userdict on dict stack
/showpage { } def              % Redefine showpage, { } = null proc
0 setgray 0 setlinecap         % Prepare graphics state
1 setlinewidth 0 setlinejoin
10 setmiterlimit [ ] 0 setdash newpath
/languagelevel where           % If level not equal to 1 then
{pop languagelevel             % set strokeadjust and
1 ne                           % overprint to their defaults.
{false setstrokeadjust false setoverprint
} if
} if
} bd
/EndEPSF { %def
count op_count sub {pop} repeat            % Clean up stacks
countdictstack dict_count sub {end} repeat
b4_Inc_state restore
} bd
%%EndResource
%%EndProlog
%%Page: 1 1
%%PageBoundingBox: 0 0 1000 350
%%BeginPageSetup
[1 0 0 -1 0 350] CT
%%EndPageSetup
GS
1 GC
N
0 0 1000 350 re
f
GR
GS
1 GC
N
0 0 1000 350 re
f
GR
GS
1 GC
N
130 289 M
905 289 L
905 26 L
130 26 L
cp
f
GR
GS
0.873 GC
1 LJ
0.5 LW
N
130 289 M
130 26 L
S
GR
GS
0.873 GC
1 LJ
0.5 LW
N
323.75 289 M
323.75 26 L
S
GR
GS
0.873 GC
1 LJ
0.5 LW
N
517.5 289 M
517.5 26 L
S
GR
GS
0.873 GC
1 LJ
0.5 LW
N
711.25 289 M
711.25 26 L
S
GR
GS
0.873 GC
1 LJ
0.5 LW
N
905 289 M
905 26 L
S
GR
GS
0.873 GC
1 LJ
0.5 LW
N
905 289 M
130 289 L
S
GR
GS
0.873 GC
1 LJ
0.5 LW
N
905 238.905 M
130 238.905 L
S
GR
GS
0.873 GC
1 LJ
0.5 LW
N
905 188.81 M
130 188.81 L
S
GR
GS
0.873 GC
1 LJ
0.5 LW
N
905 138.714 M
130 138.714 L
S
GR
GS
0.873 GC
1 LJ
0.5 LW
N
905 88.619 M
130 88.619 L
S
GR
GS
0.873 GC
1 LJ
0.5 LW
N
905 38.524 M
130 38.524 L
S
GR
GS
0.149 GC
2 setlinecap
1 LJ
0.5 LW
N
130 289 M
905 289 L
S
GR
GS
0.149 GC
2 setlinecap
1 LJ
0.5 LW
N
130 289 M
130 281.25 L
S
GR
GS
0.149 GC
2 setlinecap
1 LJ
0.5 LW
N
323.75 289 M
323.75 281.25 L
S
GR
GS
0.149 GC
2 setlinecap
1 LJ
0.5 LW
N
517.5 289 M
517.5 281.25 L
S
GR
GS
0.149 GC
2 setlinecap
1 LJ
0.5 LW
N
711.25 289 M
711.25 281.25 L
S
GR
GS
0.149 GC
2 setlinecap
1 LJ
0.5 LW
N
905 289 M
905 281.25 L
S
GR
GS
[1 0 0 1 130 295] CT
0.149 GC
N
-0.141 5.719 M
-1.672 5.719 -2.438 7.219 QT
-3.203 8.719 -3.203 11.719 QT
-3.203 14.719 -2.438 16.219 QT
-1.672 17.719 -0.141 17.719 QT
1.391 17.719 2.156 16.219 QT
2.922 14.719 2.922 11.719 QT
2.922 8.719 2.156 7.219 QT
1.391 5.719 -0.141 5.719 QT
cp
-0.141 4.156 M
2.313 4.156 3.602 6.094 QT
4.891 8.031 4.891 11.719 QT
4.891 15.406 3.602 17.344 QT
2.313 19.281 -0.141 19.281 QT
-2.594 19.281 -3.891 17.344 QT
-5.188 15.406 -5.188 11.719 QT
-5.188 8.031 -3.891 6.094 QT
-2.594 4.156 -0.141 4.156 QT
cp
f
GR
GS
[1 0 0 1 323.75 295] CT
0.149 GC
N
-9.641 5.719 M
-11.172 5.719 -11.938 7.219 QT
-12.703 8.719 -12.703 11.719 QT
-12.703 14.719 -11.938 16.219 QT
-11.172 17.719 -9.641 17.719 QT
-8.109 17.719 -7.344 16.219 QT
-6.578 14.719 -6.578 11.719 QT
-6.578 8.719 -7.344 7.219 QT
-8.109 5.719 -9.641 5.719 QT
cp
-9.641 4.156 M
-7.188 4.156 -5.898 6.094 QT
-4.609 8.031 -4.609 11.719 QT
-4.609 15.406 -5.898 17.344 QT
-7.188 19.281 -9.641 19.281 QT
-12.094 19.281 -13.391 17.344 QT
-14.688 15.406 -14.688 11.719 QT
-14.688 8.031 -13.391 6.094 QT
-12.094 4.156 -9.641 4.156 QT
cp
-1.135 16.516 M
0.928 16.516 L
0.928 19 L
-1.135 19 L
-1.135 16.516 L
cp
5.238 4.422 M
12.988 4.422 L
12.988 6.078 L
7.051 6.078 L
7.051 9.656 L
7.473 9.5 7.902 9.43 QT
8.332 9.359 8.77 9.359 QT
11.207 9.359 12.637 10.695 QT
14.066 12.031 14.066 14.328 QT
14.066 16.672 12.598 17.977 QT
11.129 19.281 8.457 19.281 QT
7.551 19.281 6.598 19.125 QT
5.645 18.969 4.629 18.656 QT
4.629 16.672 L
5.504 17.156 6.441 17.391 QT
7.379 17.625 8.426 17.625 QT
10.113 17.625 11.098 16.734 QT
12.082 15.844 12.082 14.328 QT
12.082 12.797 11.098 11.906 QT
10.113 11.016 8.426 11.016 QT
7.629 11.016 6.848 11.195 QT
6.066 11.375 5.238 11.75 QT
5.238 4.422 L
cp
f
GR
GS
[1 0 0 1 517.5 295] CT
0.149 GC
N
-4.016 17.344 M
-0.797 17.344 L
-0.797 6.219 L
-4.297 6.922 L
-4.297 5.125 L
-0.813 4.422 L
1.156 4.422 L
1.156 17.344 L
4.375 17.344 L
4.375 19 L
-4.016 19 L
-4.016 17.344 L
cp
f
GR
GS
[1 0 0 1 711.25 295] CT
0.149 GC
N
-13.516 17.344 M
-10.297 17.344 L
-10.297 6.219 L
-13.797 6.922 L
-13.797 5.125 L
-10.313 4.422 L
-8.344 4.422 L
-8.344 17.344 L
-5.125 17.344 L
-5.125 19 L
-13.516 19 L
-13.516 17.344 L
cp
-1.135 16.516 M
0.928 16.516 L
0.928 19 L
-1.135 19 L
-1.135 16.516 L
cp
5.238 4.422 M
12.988 4.422 L
12.988 6.078 L
7.051 6.078 L
7.051 9.656 L
7.473 9.5 7.902 9.43 QT
8.332 9.359 8.77 9.359 QT
11.207 9.359 12.637 10.695 QT
14.066 12.031 14.066 14.328 QT
14.066 16.672 12.598 17.977 QT
11.129 19.281 8.457 19.281 QT
7.551 19.281 6.598 19.125 QT
5.645 18.969 4.629 18.656 QT
4.629 16.672 L
5.504 17.156 6.441 17.391 QT
7.379 17.625 8.426 17.625 QT
10.113 17.625 11.098 16.734 QT
12.082 15.844 12.082 14.328 QT
12.082 12.797 11.098 11.906 QT
10.113 11.016 8.426 11.016 QT
7.629 11.016 6.848 11.195 QT
6.066 11.375 5.238 11.75 QT
5.238 4.422 L
cp
f
GR
GS
[1 0 0 1 905 295] CT
0.149 GC
N
-2.656 17.344 M
4.219 17.344 L
4.219 19 L
-5.031 19 L
-5.031 17.344 L
-3.906 16.172 -1.969 14.219 QT
-0.031 12.266 0.469 11.688 QT
1.406 10.625 1.781 9.891 QT
2.156 9.156 2.156 8.438 QT
2.156 7.281 1.344 6.547 QT
0.531 5.813 -0.781 5.813 QT
-1.703 5.813 -2.734 6.133 QT
-3.766 6.453 -4.938 7.109 QT
-4.938 5.125 L
-3.75 4.641 -2.711 4.398 QT
-1.672 4.156 -0.813 4.156 QT
1.453 4.156 2.797 5.289 QT
4.141 6.422 4.141 8.313 QT
4.141 9.219 3.805 10.023 QT
3.469 10.828 2.578 11.922 QT
2.344 12.203 1.031 13.555 QT
-0.281 14.906 -2.656 17.344 QT
cp
f
GR
GS
[1 0 0 1 517.50037 320] CT
0.149 GC
N
-14.25 9.328 M
-14.25 11.188 L
-15.094 10.766 -16 10.547 QT
-16.906 10.328 -17.859 10.328 QT
-19.344 10.328 -20.078 10.781 QT
-20.813 11.234 -20.813 12.141 QT
-20.813 12.828 -20.281 13.219 QT
-19.75 13.609 -18.172 13.969 QT
-17.484 14.109 L
-15.391 14.563 -14.5 15.383 QT
-13.609 16.203 -13.609 17.688 QT
-13.609 19.359 -14.938 20.336 QT
-16.266 21.313 -18.578 21.313 QT
-19.547 21.313 -20.594 21.125 QT
-21.641 20.938 -22.813 20.563 QT
-22.813 18.516 L
-21.719 19.094 -20.648 19.375 QT
-19.578 19.656 -18.547 19.656 QT
-17.141 19.656 -16.391 19.18 QT
-15.641 18.703 -15.641 17.828 QT
-15.641 17.031 -16.188 16.602 QT
-16.734 16.172 -18.563 15.766 QT
-19.25 15.609 L
-21.094 15.219 -21.906 14.422 QT
-22.719 13.625 -22.719 12.219 QT
-22.719 10.531 -21.516 9.602 QT
-20.313 8.672 -18.109 8.672 QT
-17 8.672 -16.039 8.836 QT
-15.078 9 -14.25 9.328 QT
cp
-8.507 5.547 M
-8.507 8.969 L
-4.444 8.969 L
-4.444 10.5 L
-8.507 10.5 L
-8.507 17.031 L
-8.507 18.5 -8.108 18.922 QT
-7.71 19.344 -6.476 19.344 QT
-4.444 19.344 L
-4.444 21 L
-6.476 21 L
-8.757 21 -9.624 20.148 QT
-10.491 19.297 -10.491 17.031 QT
-10.491 10.5 L
-11.944 10.5 L
-11.944 8.969 L
-10.491 8.969 L
-10.491 5.547 L
-8.507 5.547 L
cp
8.447 14.484 M
8.447 15.453 L
-0.631 15.453 L
-0.506 17.5 0.596 18.57 QT
1.697 19.641 3.666 19.641 QT
4.807 19.641 5.869 19.359 QT
6.932 19.078 7.994 18.516 QT
7.994 20.391 L
6.932 20.844 5.814 21.078 QT
4.697 21.313 3.541 21.313 QT
0.666 21.313 -1.014 19.633 QT
-2.693 17.953 -2.693 15.109 QT
-2.693 12.141 -1.1 10.406 QT
0.494 8.672 3.197 8.672 QT
5.635 8.672 7.041 10.234 QT
8.447 11.797 8.447 14.484 QT
cp
6.479 13.906 M
6.447 12.281 5.564 11.32 QT
4.682 10.359 3.229 10.359 QT
1.572 10.359 0.572 11.289 QT
-0.428 12.219 -0.568 13.922 QT
6.479 13.906 L
cp
13.607 19.188 M
13.607 25.578 L
11.623 25.578 L
11.623 8.969 L
13.607 8.969 L
13.607 10.797 L
14.232 9.719 15.186 9.195 QT
16.139 8.672 17.451 8.672 QT
19.639 8.672 21.014 10.414 QT
22.389 12.156 22.389 15 QT
22.389 17.828 21.014 19.57 QT
19.639 21.313 17.451 21.313 QT
16.139 21.313 15.186 20.789 QT
14.232 20.266 13.607 19.188 QT
cp
20.326 15 M
20.326 12.813 19.436 11.57 QT
18.545 10.328 16.967 10.328 QT
15.404 10.328 14.506 11.57 QT
13.607 12.813 13.607 15 QT
13.607 17.172 14.506 18.414 QT
15.404 19.656 16.967 19.656 QT
18.545 19.656 19.436 18.414 QT
20.326 17.172 20.326 15 QT
cp
f
GR
GS
[1 0 0 1 852 345] CT
0.149 GC
N
2.938 -0.578 M
2.938 -0.734 3.031 -0.859 QT
7.203 -5 L
3.031 -9.156 L
2.938 -9.266 2.938 -9.422 QT
2.938 -9.578 3.055 -9.703 QT
3.172 -9.828 3.344 -9.828 QT
3.484 -9.828 3.641 -9.703 QT
7.781 -5.563 L
11.906 -9.703 L
12.078 -9.828 12.203 -9.828 QT
12.359 -9.828 12.477 -9.711 QT
12.594 -9.594 12.594 -9.422 QT
12.594 -9.266 12.5 -9.156 QT
8.344 -5 L
12.5 -0.859 L
12.594 -0.734 12.594 -0.578 QT
12.594 -0.406 12.477 -0.289 QT
12.359 -0.172 12.203 -0.172 QT
12.047 -0.172 11.906 -0.328 QT
7.781 -4.438 L
3.641 -0.328 L
3.5 -0.172 3.344 -0.172 QT
3.172 -0.172 3.055 -0.305 QT
2.938 -0.438 2.938 -0.578 QT
cp
f
GR
GS
[1 0 0 1 868 345] CT
0.149 GC
N
2.484 -1.656 M
5.703 -1.656 L
5.703 -12.781 L
2.203 -12.078 L
2.203 -13.875 L
5.688 -14.578 L
7.656 -14.578 L
7.656 -1.656 L
10.875 -1.656 L
10.875 0 L
2.484 0 L
2.484 -1.656 L
cp
19.084 -13.281 M
17.553 -13.281 16.787 -11.781 QT
16.021 -10.281 16.021 -7.281 QT
16.021 -4.281 16.787 -2.781 QT
17.553 -1.281 19.084 -1.281 QT
20.615 -1.281 21.381 -2.781 QT
22.146 -4.281 22.146 -7.281 QT
22.146 -10.281 21.381 -11.781 QT
20.615 -13.281 19.084 -13.281 QT
cp
19.084 -14.844 M
21.537 -14.844 22.826 -12.906 QT
24.115 -10.969 24.115 -7.281 QT
24.115 -3.594 22.826 -1.656 QT
21.537 0.281 19.084 0.281 QT
16.631 0.281 15.334 -1.656 QT
14.037 -3.594 14.037 -7.281 QT
14.037 -10.969 15.334 -12.906 QT
16.631 -14.844 19.084 -14.844 QT
cp
f
GR
GS
[1 0 0 1 894 335] CT
0.149 GC
N
5.281 -6.469 M
4.219 -6.469 3.602 -5.742 QT
2.984 -5.016 2.984 -3.75 QT
2.984 -2.484 3.602 -1.758 QT
4.219 -1.031 5.281 -1.031 QT
6.344 -1.031 6.969 -1.758 QT
7.594 -2.484 7.594 -3.75 QT
7.594 -5.016 6.969 -5.742 QT
6.344 -6.469 5.281 -6.469 QT
cp
8.422 -11.406 M
8.422 -9.969 L
7.828 -10.25 7.219 -10.398 QT
6.609 -10.547 6.016 -10.547 QT
4.453 -10.547 3.633 -9.492 QT
2.813 -8.438 2.688 -6.313 QT
3.156 -6.984 3.852 -7.352 QT
4.547 -7.719 5.375 -7.719 QT
7.141 -7.719 8.156 -6.648 QT
9.172 -5.578 9.172 -3.75 QT
9.172 -1.953 8.109 -0.859 QT
7.047 0.234 5.281 0.234 QT
3.266 0.234 2.195 -1.32 QT
1.125 -2.875 1.125 -5.828 QT
1.125 -8.594 2.438 -10.234 QT
3.75 -11.875 5.953 -11.875 QT
6.547 -11.875 7.156 -11.758 QT
7.766 -11.641 8.422 -11.406 QT
cp
f
GR
GS
0.149 GC
2 setlinecap
1 LJ
0.5 LW
N
130 289 M
130 26 L
S
GR
GS
0.149 GC
2 setlinecap
1 LJ
0.5 LW
N
130 289 M
137.75 289 L
S
GR
GS
0.149 GC
2 setlinecap
1 LJ
0.5 LW
N
130 238.905 M
137.75 238.905 L
S
GR
GS
0.149 GC
2 setlinecap
1 LJ
0.5 LW
N
130 188.81 M
137.75 188.81 L
S
GR
GS
0.149 GC
2 setlinecap
1 LJ
0.5 LW
N
130 138.714 M
137.75 138.714 L
S
GR
GS
0.149 GC
2 setlinecap
1 LJ
0.5 LW
N
130 88.619 M
137.75 88.619 L
S
GR
GS
0.149 GC
2 setlinecap
1 LJ
0.5 LW
N
130 38.524 M
137.75 38.524 L
S
GR
GS
[1 0 0 1 124 289] CT
0.149 GC
N
-6.641 -6.281 M
-8.172 -6.281 -8.938 -4.781 QT
-9.703 -3.281 -9.703 -0.281 QT
-9.703 2.719 -8.938 4.219 QT
-8.172 5.719 -6.641 5.719 QT
-5.109 5.719 -4.344 4.219 QT
-3.578 2.719 -3.578 -0.281 QT
-3.578 -3.281 -4.344 -4.781 QT
-5.109 -6.281 -6.641 -6.281 QT
cp
-6.641 -7.844 M
-4.188 -7.844 -2.898 -5.906 QT
-1.609 -3.969 -1.609 -0.281 QT
-1.609 3.406 -2.898 5.344 QT
-4.188 7.281 -6.641 7.281 QT
-9.094 7.281 -10.391 5.344 QT
-11.688 3.406 -11.688 -0.281 QT
-11.688 -3.969 -10.391 -5.906 QT
-9.094 -7.844 -6.641 -7.844 QT
cp
f
GR
GS
[1 0 0 1 124 238.90475] CT
0.149 GC
N
-22.156 5.344 M
-15.281 5.344 L
-15.281 7 L
-24.531 7 L
-24.531 5.344 L
-23.406 4.172 -21.469 2.219 QT
-19.531 0.266 -19.031 -0.313 QT
-18.094 -1.375 -17.719 -2.109 QT
-17.344 -2.844 -17.344 -3.563 QT
-17.344 -4.719 -18.156 -5.453 QT
-18.969 -6.188 -20.281 -6.188 QT
-21.203 -6.188 -22.234 -5.867 QT
-23.266 -5.547 -24.438 -4.891 QT
-24.438 -6.875 L
-23.25 -7.359 -22.211 -7.602 QT
-21.172 -7.844 -20.313 -7.844 QT
-18.047 -7.844 -16.703 -6.711 QT
-15.359 -5.578 -15.359 -3.688 QT
-15.359 -2.781 -15.695 -1.977 QT
-16.031 -1.172 -16.922 -0.078 QT
-17.156 0.203 -18.469 1.555 QT
-19.781 2.906 -22.156 5.344 QT
cp
-6.916 -6.281 M
-8.447 -6.281 -9.213 -4.781 QT
-9.979 -3.281 -9.979 -0.281 QT
-9.979 2.719 -9.213 4.219 QT
-8.447 5.719 -6.916 5.719 QT
-5.385 5.719 -4.619 4.219 QT
-3.854 2.719 -3.854 -0.281 QT
-3.854 -3.281 -4.619 -4.781 QT
-5.385 -6.281 -6.916 -6.281 QT
cp
-6.916 -7.844 M
-4.463 -7.844 -3.174 -5.906 QT
-1.885 -3.969 -1.885 -0.281 QT
-1.885 3.406 -3.174 5.344 QT
-4.463 7.281 -6.916 7.281 QT
-9.369 7.281 -10.666 5.344 QT
-11.963 3.406 -11.963 -0.281 QT
-11.963 -3.969 -10.666 -5.906 QT
-9.369 -7.844 -6.916 -7.844 QT
cp
f
GR
GS
[1 0 0 1 124 188.80952] CT
0.149 GC
N
-18.438 -5.859 M
-23.422 1.922 L
-18.438 1.922 L
-18.438 -5.859 L
cp
-18.953 -7.578 M
-16.484 -7.578 L
-16.484 1.922 L
-14.391 1.922 L
-14.391 3.563 L
-16.484 3.563 L
-16.484 7 L
-18.438 7 L
-18.438 3.563 L
-25.016 3.563 L
-25.016 1.656 L
-18.953 -7.578 L
cp
-6.916 -6.281 M
-8.447 -6.281 -9.213 -4.781 QT
-9.979 -3.281 -9.979 -0.281 QT
-9.979 2.719 -9.213 4.219 QT
-8.447 5.719 -6.916 5.719 QT
-5.385 5.719 -4.619 4.219 QT
-3.854 2.719 -3.854 -0.281 QT
-3.854 -3.281 -4.619 -4.781 QT
-5.385 -6.281 -6.916 -6.281 QT
cp
-6.916 -7.844 M
-4.463 -7.844 -3.174 -5.906 QT
-1.885 -3.969 -1.885 -0.281 QT
-1.885 3.406 -3.174 5.344 QT
-4.463 7.281 -6.916 7.281 QT
-9.369 7.281 -10.666 5.344 QT
-11.963 3.406 -11.963 -0.281 QT
-11.963 -3.969 -10.666 -5.906 QT
-9.369 -7.844 -6.916 -7.844 QT
cp
f
GR
GS
[1 0 0 1 124 138.71428] CT
0.149 GC
N
-19.391 -1.078 M
-20.719 -1.078 -21.5 -0.172 QT
-22.281 0.734 -22.281 2.328 QT
-22.281 3.891 -21.5 4.805 QT
-20.719 5.719 -19.391 5.719 QT
-18.063 5.719 -17.289 4.805 QT
-16.516 3.891 -16.516 2.328 QT
-16.516 0.734 -17.289 -0.172 QT
-18.063 -1.078 -19.391 -1.078 QT
cp
-15.484 -7.266 M
-15.484 -5.469 L
-16.219 -5.813 -16.977 -6 QT
-17.734 -6.188 -18.484 -6.188 QT
-20.438 -6.188 -21.469 -4.867 QT
-22.5 -3.547 -22.641 -0.875 QT
-22.063 -1.734 -21.195 -2.188 QT
-20.328 -2.641 -19.281 -2.641 QT
-17.078 -2.641 -15.805 -1.305 QT
-14.531 0.031 -14.531 2.328 QT
-14.531 4.563 -15.859 5.922 QT
-17.188 7.281 -19.391 7.281 QT
-21.922 7.281 -23.266 5.344 QT
-24.609 3.406 -24.609 -0.281 QT
-24.609 -3.734 -22.969 -5.789 QT
-21.328 -7.844 -18.563 -7.844 QT
-17.813 -7.844 -17.055 -7.695 QT
-16.297 -7.547 -15.484 -7.266 QT
cp
-6.916 -6.281 M
-8.447 -6.281 -9.213 -4.781 QT
-9.979 -3.281 -9.979 -0.281 QT
-9.979 2.719 -9.213 4.219 QT
-8.447 5.719 -6.916 5.719 QT
-5.385 5.719 -4.619 4.219 QT
-3.854 2.719 -3.854 -0.281 QT
-3.854 -3.281 -4.619 -4.781 QT
-5.385 -6.281 -6.916 -6.281 QT
cp
-6.916 -7.844 M
-4.463 -7.844 -3.174 -5.906 QT
-1.885 -3.969 -1.885 -0.281 QT
-1.885 3.406 -3.174 5.344 QT
-4.463 7.281 -6.916 7.281 QT
-9.369 7.281 -10.666 5.344 QT
-11.963 3.406 -11.963 -0.281 QT
-11.963 -3.969 -10.666 -5.906 QT
-9.369 -7.844 -6.916 -7.844 QT
cp
f
GR
GS
[1 0 0 1 124 88.61905] CT
0.149 GC
N
-19.641 0.078 M
-21.047 0.078 -21.852 0.828 QT
-22.656 1.578 -22.656 2.891 QT
-22.656 4.219 -21.852 4.969 QT
-21.047 5.719 -19.641 5.719 QT
-18.234 5.719 -17.422 4.961 QT
-16.609 4.203 -16.609 2.891 QT
-16.609 1.578 -17.414 0.828 QT
-18.219 0.078 -19.641 0.078 QT
cp
-21.609 -0.766 M
-22.891 -1.078 -23.594 -1.945 QT
-24.297 -2.813 -24.297 -4.063 QT
-24.297 -5.813 -23.055 -6.828 QT
-21.813 -7.844 -19.641 -7.844 QT
-17.469 -7.844 -16.227 -6.828 QT
-14.984 -5.813 -14.984 -4.063 QT
-14.984 -2.813 -15.695 -1.945 QT
-16.406 -1.078 -17.656 -0.766 QT
-16.234 -0.438 -15.438 0.531 QT
-14.641 1.5 -14.641 2.891 QT
-14.641 5.016 -15.938 6.148 QT
-17.234 7.281 -19.641 7.281 QT
-22.047 7.281 -23.344 6.148 QT
-24.641 5.016 -24.641 2.891 QT
-24.641 1.5 -23.844 0.531 QT
-23.047 -0.438 -21.609 -0.766 QT
cp
-22.344 -3.875 M
-22.344 -2.75 -21.633 -2.117 QT
-20.922 -1.484 -19.641 -1.484 QT
-18.375 -1.484 -17.656 -2.117 QT
-16.938 -2.75 -16.938 -3.875 QT
-16.938 -5.016 -17.656 -5.648 QT
-18.375 -6.281 -19.641 -6.281 QT
-20.922 -6.281 -21.633 -5.648 QT
-22.344 -5.016 -22.344 -3.875 QT
cp
-6.916 -6.281 M
-8.447 -6.281 -9.213 -4.781 QT
-9.979 -3.281 -9.979 -0.281 QT
-9.979 2.719 -9.213 4.219 QT
-8.447 5.719 -6.916 5.719 QT
-5.385 5.719 -4.619 4.219 QT
-3.854 2.719 -3.854 -0.281 QT
-3.854 -3.281 -4.619 -4.781 QT
-5.385 -6.281 -6.916 -6.281 QT
cp
-6.916 -7.844 M
-4.463 -7.844 -3.174 -5.906 QT
-1.885 -3.969 -1.885 -0.281 QT
-1.885 3.406 -3.174 5.344 QT
-4.463 7.281 -6.916 7.281 QT
-9.369 7.281 -10.666 5.344 QT
-11.963 3.406 -11.963 -0.281 QT
-11.963 -3.969 -10.666 -5.906 QT
-9.369 -7.844 -6.916 -7.844 QT
cp
f
GR
GS
[1 0 0 1 124 38.52381] CT
0.149 GC
N
-36.516 5.344 M
-33.297 5.344 L
-33.297 -5.781 L
-36.797 -5.078 L
-36.797 -6.875 L
-33.313 -7.578 L
-31.344 -7.578 L
-31.344 5.344 L
-28.125 5.344 L
-28.125 7 L
-36.516 7 L
-36.516 5.344 L
cp
-19.916 -6.281 M
-21.447 -6.281 -22.213 -4.781 QT
-22.979 -3.281 -22.979 -0.281 QT
-22.979 2.719 -22.213 4.219 QT
-21.447 5.719 -19.916 5.719 QT
-18.385 5.719 -17.619 4.219 QT
-16.854 2.719 -16.854 -0.281 QT
-16.854 -3.281 -17.619 -4.781 QT
-18.385 -6.281 -19.916 -6.281 QT
cp
-19.916 -7.844 M
-17.463 -7.844 -16.174 -5.906 QT
-14.885 -3.969 -14.885 -0.281 QT
-14.885 3.406 -16.174 5.344 QT
-17.463 7.281 -19.916 7.281 QT
-22.369 7.281 -23.666 5.344 QT
-24.963 3.406 -24.963 -0.281 QT
-24.963 -3.969 -23.666 -5.906 QT
-22.369 -7.844 -19.916 -7.844 QT
cp
-7.191 -6.281 M
-8.723 -6.281 -9.488 -4.781 QT
-10.254 -3.281 -10.254 -0.281 QT
-10.254 2.719 -9.488 4.219 QT
-8.723 5.719 -7.191 5.719 QT
-5.66 5.719 -4.895 4.219 QT
-4.129 2.719 -4.129 -0.281 QT
-4.129 -3.281 -4.895 -4.781 QT
-5.66 -6.281 -7.191 -6.281 QT
cp
-7.191 -7.844 M
-4.738 -7.844 -3.449 -5.906 QT
-2.16 -3.969 -2.16 -0.281 QT
-2.16 3.406 -3.449 5.344 QT
-4.738 7.281 -7.191 7.281 QT
-9.645 7.281 -10.941 5.344 QT
-12.238 3.406 -12.238 -0.281 QT
-12.238 -3.969 -10.941 -5.906 QT
-9.645 -7.844 -7.191 -7.844 QT
cp
f
GR
GS
[0 -1 1 0 82 157.49988] CT
0.149 GC
N
-113.063 -22.031 M
-99.5 -22.031 L
-99.5 -20.219 L
-105.188 -20.219 L
-105.188 -6 L
-107.375 -6 L
-107.375 -20.219 L
-113.063 -20.219 L
-113.063 -22.031 L
cp
-92.015 -12.047 M
-94.421 -12.047 -95.343 -11.5 QT
-96.265 -10.953 -96.265 -9.625 QT
-96.265 -8.578 -95.569 -7.961 QT
-94.874 -7.344 -93.687 -7.344 QT
-92.046 -7.344 -91.054 -8.508 QT
-90.062 -9.672 -90.062 -11.609 QT
-90.062 -12.047 L
-92.015 -12.047 L
cp
-88.077 -12.859 M
-88.077 -6 L
-90.062 -6 L
-90.062 -7.828 L
-90.733 -6.734 -91.741 -6.211 QT
-92.749 -5.688 -94.218 -5.688 QT
-96.062 -5.688 -97.147 -6.727 QT
-98.233 -7.766 -98.233 -9.5 QT
-98.233 -11.531 -96.874 -12.563 QT
-95.515 -13.594 -92.827 -13.594 QT
-90.062 -13.594 L
-90.062 -13.781 L
-90.062 -15.156 -90.952 -15.898 QT
-91.843 -16.641 -93.468 -16.641 QT
-94.499 -16.641 -95.476 -16.398 QT
-96.452 -16.156 -97.358 -15.656 QT
-97.358 -17.484 L
-96.28 -17.906 -95.257 -18.117 QT
-94.233 -18.328 -93.265 -18.328 QT
-90.655 -18.328 -89.366 -16.969 QT
-88.077 -15.609 -88.077 -12.859 QT
cp
-77.033 -16.188 M
-77.361 -16.375 -77.76 -16.469 QT
-78.158 -16.563 -78.627 -16.563 QT
-80.299 -16.563 -81.197 -15.469 QT
-82.096 -14.375 -82.096 -12.344 QT
-82.096 -6 L
-84.08 -6 L
-84.08 -18.031 L
-82.096 -18.031 L
-82.096 -16.156 L
-81.471 -17.266 -80.471 -17.797 QT
-79.471 -18.328 -78.049 -18.328 QT
-77.846 -18.328 -77.596 -18.297 QT
-77.346 -18.266 -77.049 -18.219 QT
-77.033 -16.188 L
cp
-67.051 -12.156 M
-67.051 -14.297 -67.934 -15.484 QT
-68.816 -16.672 -70.41 -16.672 QT
-72.004 -16.672 -72.895 -15.484 QT
-73.785 -14.297 -73.785 -12.156 QT
-73.785 -10.016 -72.895 -8.836 QT
-72.004 -7.656 -70.41 -7.656 QT
-68.816 -7.656 -67.934 -8.836 QT
-67.051 -10.016 -67.051 -12.156 QT
cp
-65.066 -7.5 M
-65.066 -4.422 -66.434 -2.922 QT
-67.801 -1.422 -70.613 -1.422 QT
-71.66 -1.422 -72.582 -1.578 QT
-73.504 -1.734 -74.363 -2.063 QT
-74.363 -3.984 L
-73.504 -3.5 -72.652 -3.281 QT
-71.801 -3.063 -70.926 -3.063 QT
-68.973 -3.063 -68.012 -4.078 QT
-67.051 -5.094 -67.051 -7.141 QT
-67.051 -8.109 L
-67.66 -7.047 -68.613 -6.523 QT
-69.566 -6 -70.895 -6 QT
-73.113 -6 -74.465 -7.688 QT
-75.816 -9.375 -75.816 -12.156 QT
-75.816 -14.953 -74.465 -16.641 QT
-73.113 -18.328 -70.895 -18.328 QT
-69.566 -18.328 -68.613 -17.797 QT
-67.66 -17.266 -67.051 -16.203 QT
-67.051 -18.031 L
-65.066 -18.031 L
-65.066 -7.5 L
cp
-50.711 -12.516 M
-50.711 -11.547 L
-59.789 -11.547 L
-59.664 -9.5 -58.563 -8.43 QT
-57.461 -7.359 -55.492 -7.359 QT
-54.352 -7.359 -53.289 -7.641 QT
-52.227 -7.922 -51.164 -8.484 QT
-51.164 -6.609 L
-52.227 -6.156 -53.344 -5.922 QT
-54.461 -5.688 -55.617 -5.688 QT
-58.492 -5.688 -60.172 -7.367 QT
-61.852 -9.047 -61.852 -11.891 QT
-61.852 -14.859 -60.258 -16.594 QT
-58.664 -18.328 -55.961 -18.328 QT
-53.523 -18.328 -52.117 -16.766 QT
-50.711 -15.203 -50.711 -12.516 QT
cp
-52.68 -13.094 M
-52.711 -14.719 -53.594 -15.68 QT
-54.477 -16.641 -55.93 -16.641 QT
-57.586 -16.641 -58.586 -15.711 QT
-59.586 -14.781 -59.727 -13.078 QT
-52.68 -13.094 L
cp
-45.504 -21.453 M
-45.504 -18.031 L
-41.441 -18.031 L
-41.441 -16.5 L
-45.504 -16.5 L
-45.504 -9.969 L
-45.504 -8.5 -45.105 -8.078 QT
-44.707 -7.656 -43.473 -7.656 QT
-41.441 -7.656 L
-41.441 -6 L
-43.473 -6 L
-45.754 -6 -46.621 -6.852 QT
-47.488 -7.703 -47.488 -9.969 QT
-47.488 -16.5 L
-48.941 -16.5 L
-48.941 -18.031 L
-47.488 -18.031 L
-47.488 -21.453 L
-45.504 -21.453 L
cp
-31.159 -17.672 M
-31.159 -15.813 L
-32.003 -16.234 -32.909 -16.453 QT
-33.815 -16.672 -34.769 -16.672 QT
-36.253 -16.672 -36.987 -16.219 QT
-37.722 -15.766 -37.722 -14.859 QT
-37.722 -14.172 -37.19 -13.781 QT
-36.659 -13.391 -35.081 -13.031 QT
-34.394 -12.891 L
-32.3 -12.438 -31.409 -11.617 QT
-30.519 -10.797 -30.519 -9.313 QT
-30.519 -7.641 -31.847 -6.664 QT
-33.175 -5.688 -35.487 -5.688 QT
-36.456 -5.688 -37.503 -5.875 QT
-38.55 -6.063 -39.722 -6.438 QT
-39.722 -8.484 L
-38.628 -7.906 -37.558 -7.625 QT
-36.487 -7.344 -35.456 -7.344 QT
-34.05 -7.344 -33.3 -7.82 QT
-32.55 -8.297 -32.55 -9.172 QT
-32.55 -9.969 -33.097 -10.398 QT
-33.644 -10.828 -35.472 -11.234 QT
-36.159 -11.391 L
-38.003 -11.781 -38.815 -12.578 QT
-39.628 -13.375 -39.628 -14.781 QT
-39.628 -16.469 -38.425 -17.398 QT
-37.222 -18.328 -35.019 -18.328 QT
-33.909 -18.328 -32.948 -18.164 QT
-31.987 -18 -31.159 -17.672 QT
cp
-13.407 -16.188 M
-13.735 -16.375 -14.134 -16.469 QT
-14.532 -16.563 -15.001 -16.563 QT
-16.673 -16.563 -17.571 -15.469 QT
-18.47 -14.375 -18.47 -12.344 QT
-18.47 -6 L
-20.454 -6 L
-20.454 -18.031 L
-18.47 -18.031 L
-18.47 -16.156 L
-17.845 -17.266 -16.845 -17.797 QT
-15.845 -18.328 -14.423 -18.328 QT
-14.22 -18.328 -13.97 -18.297 QT
-13.72 -18.266 -13.423 -18.219 QT
-13.407 -16.188 L
cp
-1.05 -12.516 M
-1.05 -11.547 L
-10.128 -11.547 L
-10.003 -9.5 -8.901 -8.43 QT
-7.8 -7.359 -5.831 -7.359 QT
-4.69 -7.359 -3.628 -7.641 QT
-2.565 -7.922 -1.503 -8.484 QT
-1.503 -6.609 L
-2.565 -6.156 -3.683 -5.922 QT
-4.8 -5.688 -5.956 -5.688 QT
-8.831 -5.688 -10.511 -7.367 QT
-12.19 -9.047 -12.19 -11.891 QT
-12.19 -14.859 -10.597 -16.594 QT
-9.003 -18.328 -6.3 -18.328 QT
-3.862 -18.328 -2.456 -16.766 QT
-1.05 -15.203 -1.05 -12.516 QT
cp
-3.019 -13.094 M
-3.05 -14.719 -3.933 -15.68 QT
-4.815 -16.641 -6.269 -16.641 QT
-7.925 -16.641 -8.925 -15.711 QT
-9.925 -14.781 -10.065 -13.078 QT
-3.019 -13.094 L
cp
7.673 -12.047 M
5.267 -12.047 4.345 -11.5 QT
3.423 -10.953 3.423 -9.625 QT
3.423 -8.578 4.118 -7.961 QT
4.813 -7.344 6.001 -7.344 QT
7.642 -7.344 8.634 -8.508 QT
9.626 -9.672 9.626 -11.609 QT
9.626 -12.047 L
7.673 -12.047 L
cp
11.61 -12.859 M
11.61 -6 L
9.626 -6 L
9.626 -7.828 L
8.954 -6.734 7.946 -6.211 QT
6.938 -5.688 5.47 -5.688 QT
3.626 -5.688 2.54 -6.727 QT
1.454 -7.766 1.454 -9.5 QT
1.454 -11.531 2.813 -12.563 QT
4.173 -13.594 6.86 -13.594 QT
9.626 -13.594 L
9.626 -13.781 L
9.626 -15.156 8.735 -15.898 QT
7.845 -16.641 6.22 -16.641 QT
5.188 -16.641 4.212 -16.398 QT
3.235 -16.156 2.329 -15.656 QT
2.329 -17.484 L
3.407 -17.906 4.431 -18.117 QT
5.454 -18.328 6.423 -18.328 QT
9.032 -18.328 10.321 -16.969 QT
11.61 -15.609 11.61 -12.859 QT
cp
24.342 -17.563 M
24.342 -15.719 L
23.498 -16.188 22.654 -16.414 QT
21.811 -16.641 20.951 -16.641 QT
19.029 -16.641 17.967 -15.422 QT
16.904 -14.203 16.904 -12 QT
16.904 -9.797 17.967 -8.578 QT
19.029 -7.359 20.951 -7.359 QT
21.811 -7.359 22.654 -7.594 QT
23.498 -7.828 24.342 -8.281 QT
24.342 -6.469 L
23.514 -6.078 22.623 -5.883 QT
21.732 -5.688 20.748 -5.688 QT
18.029 -5.688 16.428 -7.398 QT
14.826 -9.109 14.826 -12 QT
14.826 -14.953 16.443 -16.641 QT
18.061 -18.328 20.873 -18.328 QT
21.779 -18.328 22.654 -18.141 QT
23.529 -17.953 24.342 -17.563 QT
cp
37.781 -13.266 M
37.781 -6 L
35.797 -6 L
35.797 -13.203 L
35.797 -14.906 35.133 -15.758 QT
34.469 -16.609 33.141 -16.609 QT
31.531 -16.609 30.609 -15.586 QT
29.688 -14.563 29.688 -12.797 QT
29.688 -6 L
27.703 -6 L
27.703 -22.719 L
29.688 -22.719 L
29.688 -16.156 L
30.391 -17.25 31.359 -17.789 QT
32.328 -18.328 33.578 -18.328 QT
35.656 -18.328 36.719 -17.039 QT
37.781 -15.75 37.781 -13.266 QT
cp
52.006 -12.516 M
52.006 -11.547 L
42.928 -11.547 L
43.053 -9.5 44.154 -8.43 QT
45.256 -7.359 47.225 -7.359 QT
48.365 -7.359 49.428 -7.641 QT
50.49 -7.922 51.553 -8.484 QT
51.553 -6.609 L
50.49 -6.156 49.373 -5.922 QT
48.256 -5.688 47.1 -5.688 QT
44.225 -5.688 42.545 -7.367 QT
40.865 -9.047 40.865 -11.891 QT
40.865 -14.859 42.459 -16.594 QT
44.053 -18.328 46.756 -18.328 QT
49.193 -18.328 50.6 -16.766 QT
52.006 -15.203 52.006 -12.516 QT
cp
50.037 -13.094 M
50.006 -14.719 49.123 -15.68 QT
48.24 -16.641 46.787 -16.641 QT
45.131 -16.641 44.131 -15.711 QT
43.131 -14.781 42.99 -13.078 QT
50.037 -13.094 L
cp
63.166 -16.203 M
63.166 -22.719 L
65.15 -22.719 L
65.15 -6 L
63.166 -6 L
63.166 -7.813 L
62.557 -6.734 61.604 -6.211 QT
60.65 -5.688 59.322 -5.688 QT
57.135 -5.688 55.768 -7.43 QT
54.4 -9.172 54.4 -12 QT
54.4 -14.844 55.768 -16.586 QT
57.135 -18.328 59.322 -18.328 QT
60.65 -18.328 61.604 -17.805 QT
62.557 -17.281 63.166 -16.203 QT
cp
56.432 -12 M
56.432 -9.828 57.33 -8.586 QT
58.229 -7.344 59.807 -7.344 QT
61.369 -7.344 62.268 -8.586 QT
63.166 -9.828 63.166 -12 QT
63.166 -14.188 62.268 -15.43 QT
61.369 -16.672 59.807 -16.672 QT
58.229 -16.672 57.33 -15.43 QT
56.432 -14.188 56.432 -12 QT
cp
76.03 -22.719 M
80.593 -22.719 L
80.593 -21.172 L
78.015 -21.172 L
78.015 -4.641 L
80.593 -4.641 L
80.593 -3.094 L
76.03 -3.094 L
76.03 -22.719 L
cp
98.723 -13.063 M
97.785 -13.063 97.254 -12.266 QT
96.723 -11.469 96.723 -10.047 QT
96.723 -8.656 97.254 -7.852 QT
97.785 -7.047 98.723 -7.047 QT
99.629 -7.047 100.16 -7.852 QT
100.691 -8.656 100.691 -10.047 QT
100.691 -11.453 100.16 -12.258 QT
99.629 -13.063 98.723 -13.063 QT
cp
98.723 -14.422 M
100.41 -14.422 101.41 -13.242 QT
102.41 -12.063 102.41 -10.047 QT
102.41 -8.047 101.41 -6.867 QT
100.41 -5.688 98.723 -5.688 QT
97.004 -5.688 96.004 -6.867 QT
95.004 -8.047 95.004 -10.047 QT
95.004 -12.063 96.004 -13.242 QT
97.004 -14.422 98.723 -14.422 QT
cp
87.629 -20.969 M
86.707 -20.969 86.176 -20.164 QT
85.645 -19.359 85.645 -17.969 QT
85.645 -16.547 86.168 -15.75 QT
86.691 -14.953 87.629 -14.953 QT
88.566 -14.953 89.098 -15.75 QT
89.629 -16.547 89.629 -17.969 QT
89.629 -19.359 89.09 -20.164 QT
88.551 -20.969 87.629 -20.969 QT
cp
97.332 -22.328 M
99.051 -22.328 L
89.02 -5.688 L
87.301 -5.688 L
97.332 -22.328 L
cp
87.629 -22.328 M
89.332 -22.328 90.34 -21.148 QT
91.348 -19.969 91.348 -17.969 QT
91.348 -15.938 90.348 -14.766 QT
89.348 -13.594 87.629 -13.594 QT
85.926 -13.594 84.934 -14.773 QT
83.941 -15.953 83.941 -17.969 QT
83.941 -19.969 84.941 -21.148 QT
85.941 -22.328 87.629 -22.328 QT
cp
110.314 -22.719 M
110.314 -3.094 L
105.768 -3.094 L
105.768 -4.641 L
108.33 -4.641 L
108.33 -21.172 L
105.768 -21.172 L
105.768 -22.719 L
110.314 -22.719 L
cp
f
GR
GS
0 0.447 0.741 RC
1 LJ
0.5 LW
N
169.525 253.218 M
169.913 255.603 L
170.3 238.905 L
170.688 201.333 L
171.075 271.109 L
171.462 215.331 L
171.85 193.581 L
172.238 219.423 L
172.625 210.726 L
173.012 219.423 L
173.4 238.905 L
173.788 242.036 L
174.175 255.603 L
174.563 272.302 L
174.95 215.331 L
175.337 215.331 L
175.725 255.603 L
176.113 209.902 L
176.5 255.603 L
176.887 235.327 L
177.275 242.036 L
177.663 272.302 L
178.05 242.036 L
178.438 271.109 L
178.825 215.331 L
179.212 242.036 L
179.6 242.036 L
179.988 271.109 L
180.375 271.109 L
180.762 255.603 L
181.15 289 L
181.538 253.218 L
181.925 201.333 L
182.313 255.603 L
182.7 209.902 L
183.087 253.218 L
183.475 257.69 L
183.863 226.381 L
184.25 289 L
184.637 255.603 L
185.025 230.064 L
185.413 271.109 L
185.8 272.302 L
186.188 242.036 L
186.575 255.603 L
186.962 242.036 L
187.35 271.109 L
187.738 242.036 L
188.125 219.423 L
188.512 255.603 L
188.9 255.603 L
189.288 255.603 L
189.675 255.603 L
190.063 230.064 L
190.45 242.036 L
190.837 271.109 L
191.225 230.064 L
191.613 230.064 L
192 219.423 L
192.387 226.381 L
192.775 272.302 L
193.163 205.508 L
193.55 272.302 L
193.938 242.036 L
194.325 289 L
194.712 230.064 L
195.1 215.331 L
195.488 244.798 L
195.875 226.381 L
196.262 271.109 L
196.65 257.69 L
197.038 205.508 L
197.425 226.381 L
197.813 215.331 L
198.2 255.603 L
198.587 242.036 L
198.975 242.036 L
199.363 191.593 L
199.75 223.085 L
200.137 209.902 L
200.525 255.603 L
200.913 226.381 L
201.3 238.905 L
201.688 219.423 L
202.075 226.381 L
202.462 238.905 L
202.85 219.423 L
203.238 210.726 L
203.625 205.508 L
204.012 242.036 L
204.4 219.423 L
204.788 255.603 L
205.175 242.036 L
205.563 230.064 L
205.95 226.381 L
206.337 253.218 L
206.725 233.339 L
207.113 226.381 L
207.5 209.902 L
207.887 226.381 L
208.275 215.331 L
208.663 230.064 L
209.05 230.064 L
209.438 255.603 L
209.825 244.798 L
210.212 230.064 L
210.6 230.064 L
210.988 230.064 L
211.375 226.381 L
211.762 226.381 L
212.15 230.064 L
212.538 289 L
212.925 210.726 L
213.313 215.331 L
213.7 188.81 L
214.087 215.331 L
214.475 253.218 L
214.863 205.508 L
215.25 226.381 L
215.637 226.381 L
216.025 201.333 L
216.413 205.508 L
216.8 205.508 L
217.188 238.905 L
217.575 136.536 L
217.962 200.597 L
218.35 219.423 L
218.738 176.286 L
219.125 205.508 L
219.512 163.762 L
219.9 175.147 L
220.288 205.508 L
220.675 205.508 L
221.063 191.593 L
221.45 200.597 L
221.837 253.218 L
222.225 200.597 L
222.613 170.353 L
223 200.597 L
223.387 201.333 L
223.775 191.593 L
224.163 171.129 L
224.55 200.597 L
224.938 176.286 L
225.325 183.536 L
225.712 171.129 L
226.1 230.064 L
226.488 170.353 L
226.875 163.762 L
227.262 175.147 L
227.65 210.726 L
228.038 153.325 L
228.425 222.206 L
228.813 222.206 L
229.2 163.762 L
229.587 175.147 L
229.975 117.622 L
230.363 163.762 L
230.75 152.377 L
231.137 170.353 L
231.525 191.593 L
231.913 145.871 L
232.3 183.536 L
232.688 271.109 L
233.075 112.739 L
233.462 163.762 L
233.85 163.762 L
234.238 238.905 L
234.625 169.726 L
235.012 196.719 L
235.4 185.863 L
235.788 226.381 L
236.175 152.377 L
236.563 191.593 L
236.95 205.508 L
237.337 181.653 L
237.725 210.726 L
238.113 176.286 L
238.5 170.353 L
238.887 163.762 L
239.275 140.991 L
239.663 196.719 L
240.05 169.726 L
240.438 238.905 L
240.825 163.762 L
241.212 132.452 L
241.6 158.317 L
241.988 169.207 L
242.375 147.426 L
242.762 140.991 L
243.15 157.17 L
243.538 169.726 L
243.925 191.593 L
244.313 205.508 L
244.7 176.286 L
245.087 176.286 L
245.475 188.81 L
245.863 169.726 L
246.25 170.353 L
246.637 140.991 L
247.025 122.016 L
247.413 209.902 L
247.8 134.861 L
248.188 158.317 L
248.575 200.597 L
248.962 125.646 L
249.35 122.016 L
249.738 163.762 L
250.125 205.508 L
250.512 185.863 L
250.9 142.889 L
251.288 144.495 L
251.675 215.331 L
252.063 142.889 L
252.45 138.714 L
252.837 106.836 L
253.225 157.798 L
253.613 112.739 L
254 205.508 L
254.387 185.863 L
254.775 255.603 L
255.163 205.508 L
255.55 176.286 L
255.938 205.508 L
256.325 175.147 L
256.712 147.426 L
257.1 176.286 L
257.487 226.381 L
257.875 209.902 L
258.263 196.719 L
258.65 242.036 L
259.038 176.286 L
259.425 181.653 L
259.813 205.508 L
260.2 200.597 L
260.587 158.317 L
260.975 230.064 L
261.362 163.762 L
261.75 158.317 L
262.138 272.302 L
262.525 144.495 L
262.913 238.905 L
263.3 210.726 L
263.688 181.653 L
264.075 183.536 L
264.462 163.762 L
264.85 226.381 L
265.237 219.423 L
265.625 128.695 L
266.013 205.508 L
266.4 177.677 L
266.788 219.423 L
267.175 205.508 L
267.563 242.036 L
267.95 196.719 L
268.337 169.726 L
268.725 242.036 L
269.112 183.536 L
269.5 176.286 L
269.888 193.581 L
270.275 201.333 L
270.663 157.798 L
271.05 205.508 L
271.438 230.064 L
271.825 163.762 L
272.212 152.377 L
272.6 205.508 L
272.987 177.677 L
273.375 226.381 L
273.763 196.719 L
274.15 226.381 L
274.538 152.377 L
274.925 201.333 L
275.313 196.719 L
275.7 255.603 L
276.087 215.331 L
276.475 272.302 L
276.862 200.597 L
277.25 209.902 L
277.638 193.581 L
278.025 242.036 L
278.413 242.036 L
278.8 209.902 L
279.188 201.333 L
279.575 181.653 L
279.962 158.317 L
280.35 169.207 L
280.737 169.726 L
281.125 169.207 L
281.513 191.593 L
281.9 163.762 L
282.288 200.597 L
282.675 175.147 L
283.063 215.331 L
283.45 188.81 L
283.837 163.762 L
284.225 169.726 L
284.612 219.423 L
285 188.81 L
285.388 119.323 L
285.775 158.317 L
286.163 253.218 L
286.55 158.317 L
286.938 114.426 L
287.325 152.377 L
287.712 125.227 L
288.1 115.593 L
288.487 122.016 L
288.875 158.752 L
289.263 163.762 L
289.65 163.762 L
290.038 157.798 L
290.425 144.495 L
290.813 105.96 L
291.2 153.325 L
291.587 163.762 L
291.975 138.714 L
292.362 205.508 L
292.75 188.81 L
293.138 209.902 L
293.525 219.423 L
293.913 191.593 L
294.3 144.495 L
294.688 163.762 L
295.075 111.243 L
295.462 142.889 L
295.85 116.258 L
296.237 191.593 L
296.625 215.331 L
297.013 128.695 L
297.4 169.726 L
297.788 169.726 L
298.175 193.581 L
298.563 169.207 L
298.95 127.98 L
299.337 181.653 L
299.725 142.889 L
300.112 105.317 L
300.5 119.034 L
300.888 140.57 L
301.275 111.243 L
301.663 140.57 L
302.05 193.581 L
302.438 215.331 L
302.825 131.293 L
303.212 130.365 L
303.6 163.762 L
303.987 125.646 L
304.375 158.317 L
304.763 158.317 L
305.15 169.207 L
305.538 128.695 L
305.925 131.293 L
306.313 144.495 L
306.7 85.911 L
307.087 122.016 L
307.475 88.619 L
307.862 128.695 L
308.25 119.323 L
308.638 112.739 L
309.025 105.317 L
309.413 118.676 L
309.8 163.762 L
310.188 131.293 L
310.575 111.243 L
310.962 122.016 L
311.35 111.243 L
311.737 151.238 L
312.125 169.726 L
312.513 158.752 L
312.9 181.653 L
313.288 138.714 L
313.675 144.495 L
314.063 122.016 L
314.45 169.207 L
314.837 130.365 L
315.225 169.207 L
315.612 169.726 L
316 193.581 L
316.388 153.325 L
316.775 78.073 L
317.163 74.306 L
317.55 157.17 L
317.938 116.258 L
318.325 107.621 L
318.712 71.481 L
319.1 122.016 L
319.487 105.96 L
319.875 77.059 L
320.263 163.762 L
320.65 153.325 L
321.038 136.925 L
321.425 169.207 L
321.813 94.185 L
322.2 122.016 L
322.587 127.98 L
322.975 87.228 L
323.362 144.495 L
323.75 169.207 L
324.138 163.762 L
324.525 131.293 L
324.913 105.317 L
325.3 158.317 L
325.688 176.286 L
326.075 175.147 L
326.462 136.536 L
326.85 116.258 L
327.237 85.488 L
327.625 77.661 L
328.013 108.97 L
328.4 64.214 L
328.788 112.739 L
329.175 119.034 L
329.563 131.293 L
329.95 87.228 L
330.337 191.593 L
330.725 125.646 L
331.112 81.288 L
331.5 119.034 L
331.888 125.227 L
332.275 114.426 L
332.663 158.317 L
333.05 176.286 L
333.438 81.288 L
333.825 140.57 L
334.212 97.459 L
334.6 142.889 L
334.987 119.034 L
335.375 117.245 L
335.763 107.621 L
336.15 118.676 L
336.538 112.739 L
336.925 144.495 L
337.313 115.593 L
337.7 91.655 L
338.087 87.228 L
338.475 119.034 L
338.862 119.323 L
339.25 153.325 L
339.638 97.459 L
340.025 113.667 L
340.413 136.925 L
340.8 219.423 L
341.188 158.317 L
341.575 148.733 L
341.962 102.748 L
342.35 134.861 L
342.737 95.776 L
343.125 128.695 L
343.513 142.889 L
343.9 124.895 L
344.288 163.762 L
344.675 96.326 L
345.063 188.81 L
345.45 174.198 L
345.837 205.508 L
346.225 134.861 L
346.612 138.714 L
347 101.143 L
347.388 88.619 L
347.775 127.98 L
348.163 107.621 L
348.55 57.31 L
348.938 78.923 L
349.325 108.101 L
349.712 110.088 L
350.1 114.426 L
350.487 142.889 L
350.875 91.256 L
351.263 127.98 L
351.65 110.088 L
352.038 130.365 L
352.425 158.752 L
352.813 84.065 L
353.2 138.714 L
353.587 58.298 L
353.975 90.092 L
354.362 119.323 L
354.75 124.895 L
355.138 77.661 L
355.525 106.836 L
355.913 108.97 L
356.3 93.315 L
356.688 163.762 L
357.075 138.714 L
357.462 115.058 L
357.85 127.98 L
358.237 115.593 L
358.625 181.653 L
359.013 93.315 L
359.4 127.98 L
359.788 215.331 L
360.175 157.798 L
360.563 131.293 L
360.95 124.895 L
361.337 129.606 L
361.725 118.676 L
362.112 133.532 L
362.5 153.325 L
362.888 114.426 L
363.275 128.695 L
363.663 209.902 L
364.05 138.714 L
364.438 200.597 L
364.825 158.317 L
365.212 140.57 L
365.6 119.034 L
365.987 97.847 L
366.375 116.258 L
366.763 181.653 L
367.15 163.762 L
367.538 145.871 L
367.925 142.889 L
368.313 111.243 L
368.7 181.653 L
369.087 127.402 L
369.475 144.495 L
369.862 102.932 L
370.25 92.681 L
370.638 69.833 L
371.025 136.925 L
371.413 94.185 L
371.8 169.726 L
372.188 113.667 L
372.575 93.315 L
372.962 140.991 L
373.35 127.98 L
373.737 95.776 L
374.125 85.911 L
374.513 116.798 L
374.9 116.798 L
375.288 122.016 L
375.675 142.169 L
376.063 149.847 L
376.45 119.56 L
376.837 93.506 L
377.225 136.925 L
377.612 158.752 L
378 108.101 L
378.388 112.193 L
378.775 163.762 L
379.163 140.57 L
379.55 145.871 L
379.938 119.56 L
380.325 174.198 L
380.712 114.426 L
381.1 116.798 L
381.487 119.034 L
381.875 103.163 L
382.263 110.088 L
382.65 163.762 L
383.038 131.293 L
383.425 180.097 L
383.813 145.871 L
384.2 131.293 L
384.587 130.365 L
384.975 138.714 L
385.362 115.058 L
385.75 136.925 L
386.138 88.619 L
386.525 140.57 L
386.913 91.655 L
387.3 122.016 L
387.688 111.243 L
388.075 99.45 L
388.462 142.889 L
388.85 127.98 L
389.237 68.581 L
389.625 69.833 L
390.013 127.98 L
390.4 96.968 L
390.788 114.426 L
391.175 153.325 L
391.563 127.98 L
391.95 95.776 L
392.337 147.426 L
392.725 132.452 L
393.112 77.487 L
393.5 99.245 L
393.888 154.128 L
394.275 119.323 L
394.663 104.826 L
395.05 157.798 L
395.438 116.798 L
395.825 88.619 L
396.212 148.733 L
396.6 76.64 L
396.987 62.763 L
397.375 108.101 L
397.763 111.243 L
398.15 125.227 L
398.538 130.365 L
398.925 193.581 L
399.313 158.317 L
399.7 94.881 L
400.087 95.45 L
400.475 127.402 L
400.862 110.088 L
401.25 77.814 L
401.638 89.904 L
402.025 131.293 L
402.413 94.881 L
402.8 107.621 L
403.188 73.678 L
403.575 140.57 L
403.962 163.762 L
404.35 77.487 L
404.737 124.895 L
405.125 101.143 L
405.513 97.459 L
405.9 101.143 L
406.288 90.092 L
406.675 72.68 L
407.063 91.655 L
407.45 81.158 L
407.837 119.323 L
408.225 112.193 L
408.612 69.07 L
409 82.357 L
409.388 71.921 L
409.775 104.439 L
410.163 95.776 L
410.55 108.97 L
410.938 89.904 L
411.325 112.193 L
411.712 70.5 L
412.1 67.649 L
412.487 83.053 L
412.875 101.143 L
413.263 119.323 L
413.65 87.53 L
414.038 68.754 L
414.425 65.848 L
414.813 102.932 L
415.2 81.158 L
415.587 148.733 L
415.975 119.323 L
416.362 73.474 L
416.75 93.506 L
417.138 57.428 L
417.525 83.053 L
417.913 82.085 L
418.3 96.774 L
418.688 84.065 L
419.075 122.016 L
419.462 108.97 L
419.85 102.748 L
420.237 66.355 L
420.625 83.053 L
421.013 111.243 L
421.4 83.481 L
421.788 83.053 L
422.175 113.667 L
422.563 116.798 L
422.95 102.748 L
423.337 89.904 L
423.725 72.487 L
424.112 116.798 L
424.5 81.288 L
424.888 89.641 L
425.275 62.006 L
425.663 81.288 L
426.05 83.053 L
426.438 94.185 L
426.825 77.814 L
427.212 111.03 L
427.6 72.903 L
427.987 104.826 L
428.375 89.904 L
428.763 59.397 L
429.15 88.619 L
429.538 75.829 L
429.925 107.405 L
430.313 79.299 L
430.7 89.904 L
431.087 106.22 L
431.475 73.59 L
431.862 94.185 L
432.25 84.53 L
432.638 102.932 L
433.025 104.826 L
433.413 104.439 L
433.8 101.143 L
434.188 84.065 L
434.575 69.284 L
434.962 79.418 L
435.35 92.197 L
435.737 106.22 L
436.125 83.61 L
436.513 72.903 L
436.9 92.975 L
437.288 112.193 L
437.675 107.405 L
438.063 71.606 L
438.45 90.949 L
438.837 68.754 L
439.225 76.64 L
439.612 74.306 L
440 84.065 L
440.388 72.242 L
440.775 114.426 L
441.163 110.088 L
441.55 80.27 L
441.938 78.6 L
442.325 74.306 L
442.712 101.143 L
443.1 113.667 L
443.487 122.016 L
443.875 67.746 L
444.263 86.692 L
444.65 134.861 L
445.038 75.631 L
445.425 106.22 L
445.813 79.418 L
446.2 76.732 L
446.587 63.571 L
446.975 85.911 L
447.362 96.326 L
447.75 101.143 L
448.138 74.957 L
448.525 97.847 L
448.913 96.774 L
449.3 71.921 L
449.688 89.758 L
450.075 69.833 L
450.462 114.426 L
450.85 98.161 L
451.237 108.101 L
451.625 82.725 L
452.013 76.332 L
452.4 101.143 L
452.788 99.45 L
453.175 86.487 L
453.563 107.405 L
453.95 115.058 L
454.337 74.306 L
454.725 76.332 L
455.112 114.426 L
455.5 72.242 L
455.888 82.725 L
456.275 87.397 L
456.663 81.158 L
457.05 71.606 L
457.438 95.45 L
457.825 89.904 L
458.212 62.006 L
458.6 101.143 L
458.987 82.085 L
459.375 117.245 L
459.763 75.052 L
460.15 81.288 L
460.538 76.095 L
460.925 85.488 L
461.313 80.27 L
461.7 93.506 L
462.087 92.975 L
462.475 94.881 L
462.862 76.095 L
463.25 83.053 L
463.638 82.357 L
464.025 99.45 L
464.413 94.881 L
464.8 115.058 L
465.188 83.61 L
465.575 80.27 L
465.962 124.625 L
466.35 110.088 L
466.737 58.723 L
467.125 64.89 L
467.513 86.234 L
467.9 102.599 L
468.288 73.59 L
468.675 76.732 L
469.063 69.284 L
469.45 82.357 L
469.837 87.228 L
470.225 72.903 L
470.612 93.506 L
471 84.53 L
471.388 88.619 L
471.775 81.875 L
472.163 82.725 L
472.55 90.949 L
472.938 111.03 L
473.325 82.085 L
473.712 48.543 L
474.1 69.284 L
474.487 64.083 L
474.875 96.774 L
475.263 73.59 L
475.65 90.706 L
476.038 84.53 L
476.425 67.425 L
476.813 93.506 L
477.2 97.847 L
477.587 69.833 L
477.975 71.373 L
478.362 61.716 L
478.75 92.197 L
479.138 82.357 L
479.525 64.693 L
479.913 71.921 L
480.3 72.903 L
480.688 55.003 L
481.075 61.645 L
481.462 54.179 L
481.85 75.052 L
482.237 104.439 L
482.625 81.288 L
483.013 86.234 L
483.4 57.499 L
483.788 104.439 L
484.175 92.975 L
484.563 54.179 L
484.95 79.418 L
485.337 65.749 L
485.725 63.08 L
486.112 66.355 L
486.5 59.751 L
486.888 84.065 L
487.275 69.833 L
487.663 69.833 L
488.05 102.932 L
488.438 89.904 L
488.825 101.143 L
489.212 75.052 L
489.6 50.265 L
489.987 68.241 L
490.375 56.74 L
490.763 59.397 L
491.15 83.252 L
491.538 88.619 L
491.925 65.17 L
492.313 82.725 L
492.7 68.241 L
493.087 57.216 L
493.475 79.299 L
493.862 68.754 L
494.25 45.293 L
494.638 42.842 L
495.025 82.357 L
495.413 64.89 L
495.8 49.739 L
496.188 74.306 L
496.575 46.114 L
496.962 89.904 L
497.35 89.758 L
497.737 46.114 L
498.125 63.08 L
498.513 75.052 L
498.9 73.474 L
499.288 62.154 L
499.675 78.372 L
500.063 69.194 L
500.45 69.833 L
500.837 55.602 L
501.225 69.194 L
501.612 77.814 L
502 69.833 L
502.388 38.524 L
502.775 81.463 L
503.163 42.207 L
503.55 41.506 L
503.938 65.848 L
504.325 56.74 L
504.712 49.574 L
505.1 45.784 L
505.487 42.438 L
505.875 50.084 L
506.263 53.258 L
506.65 64.615 L
507.038 60.888 L
507.425 61.294 L
507.813 91.655 L
508.2 62.608 L
508.587 74.306 L
508.975 83.053 L
509.362 64.615 L
509.75 41.655 L
510.138 54.859 L
510.525 74.306 L
510.913 74.306 L
511.3 51.479 L
511.688 79.299 L
512.075 49.574 L
512.463 50.595 L
512.85 52.635 L
513.237 53.478 L
513.625 43.533 L
514.013 57.791 L
514.4 41.735 L
514.787 49.258 L
515.175 69.833 L
515.563 65.089 L
515.95 50.451 L
516.338 38.524 L
516.725 62.379 L
517.112 52.635 L
517.5 48.543 L
517.888 44.152 L
518.275 45.293 L
518.662 54.427 L
519.05 61.294 L
519.438 52.702 L
519.825 71.921 L
520.213 68.581 L
520.6 63.571 L
520.987 74.306 L
521.375 65.848 L
521.763 42.564 L
522.15 51.048 L
522.537 58.298 L
522.925 51.369 L
523.313 60.495 L
523.7 81.875 L
524.088 63.571 L
524.475 68.581 L
524.862 52.837 L
525.25 41.217 L
525.638 74.306 L
526.025 44.559 L
526.412 45.579 L
526.8 44.09 L
527.188 64.693 L
527.575 58.971 L
527.963 75.179 L
528.35 60.117 L
528.737 64.89 L
529.125 42.88 L
529.513 57.078 L
529.9 47.976 L
530.287 55.003 L
530.675 69.194 L
531.063 47.469 L
531.45 46.351 L
531.838 73.474 L
532.225 52.635 L
532.612 46.001 L
533 60.304 L
533.388 56.163 L
533.775 86.234 L
534.162 108.101 L
534.55 54.684 L
534.938 76.095 L
535.325 55.798 L
535.713 51.26 L
536.1 56.415 L
536.487 63.571 L
536.875 65.17 L
537.263 47.364 L
537.65 50.451 L
538.037 92.681 L
538.425 69.833 L
538.813 58.562 L
539.2 54.179 L
539.588 50.644 L
539.975 63.08 L
540.362 63.571 L
540.75 38.524 L
541.138 53.478 L
541.525 56.941 L
541.912 45.203 L
542.3 78.372 L
542.688 44.559 L
543.075 58.723 L
543.463 49.258 L
543.85 47.688 L
544.237 70.636 L
544.625 110.088 L
545.013 71.195 L
545.4 60.495 L
545.787 63.08 L
546.175 79.418 L
546.563 57.791 L
546.95 57.499 L
547.338 62.763 L
547.725 50.084 L
548.112 41.694 L
548.5 56.415 L
548.888 57.216 L
549.275 54.948 L
549.662 52.186 L
550.05 48.283 L
550.438 48.158 L
550.825 65.17 L
551.213 54.427 L
551.6 83.053 L
551.987 60.888 L
552.375 46.736 L
552.763 52.837 L
553.15 78.6 L
553.537 75.829 L
553.925 64.89 L
554.313 99.45 L
554.7 66.88 L
555.088 73.474 L
555.475 71.606 L
555.862 52.702 L
556.25 61.716 L
556.638 67.425 L
557.025 62.763 L
557.412 83.252 L
557.8 68.581 L
558.188 65.848 L
558.575 70.993 L
558.963 83.053 L
559.35 90.949 L
559.737 79.299 L
560.125 67.425 L
560.513 79.299 L
560.9 136.925 L
561.287 68.342 L
561.675 93.506 L
562.063 77.059 L
562.45 73.474 L
562.838 102.932 L
563.225 70.993 L
563.612 112.193 L
564 84.065 L
564.388 78.073 L
564.775 87.228 L
565.162 68.342 L
565.55 78.073 L
565.938 66.355 L
566.325 65.17 L
566.713 145.871 L
567.1 79.418 L
567.487 104.826 L
567.875 59.841 L
568.263 82.357 L
568.65 101.143 L
569.037 70.5 L
569.425 82.725 L
569.813 103.163 L
570.2 98.161 L
570.588 88.619 L
570.975 73.59 L
571.362 116.798 L
571.75 87.397 L
572.138 76.64 L
572.525 58.169 L
572.912 92.681 L
573.3 70.5 L
573.688 97.847 L
574.075 112.193 L
574.463 94.881 L
574.85 46.604 L
575.237 105.317 L
575.625 59.841 L
576.013 77.059 L
576.4 106.836 L
576.787 81.288 L
577.175 70.993 L
577.563 127.98 L
577.95 61.294 L
578.338 63.571 L
578.725 73.474 L
579.112 75.829 L
579.5 99.245 L
579.888 78.372 L
580.275 61.294 L
580.662 66.88 L
581.05 87.397 L
581.438 66.88 L
581.825 66.355 L
582.213 57.791 L
582.6 77.487 L
582.987 99.245 L
583.375 80.27 L
583.763 38.524 L
584.15 78.073 L
584.537 88.619 L
584.925 80.27 L
585.313 62.763 L
585.7 99.245 L
586.088 60.788 L
586.475 65.749 L
586.862 80.27 L
587.25 38.524 L
587.638 45.784 L
588.025 91.817 L
588.412 62.379 L
588.8 71.195 L
589.188 97.459 L
589.575 85.911 L
589.963 73.474 L
590.35 113.667 L
590.737 81.463 L
591.125 101.143 L
591.513 114.426 L
591.9 55.602 L
592.287 64.89 L
592.675 117.245 L
593.063 83.481 L
593.45 79.299 L
593.838 80.27 L
594.225 95.083 L
594.612 133.532 L
595 56.851 L
595.388 87.53 L
595.775 48.543 L
596.162 67.649 L
596.55 93.506 L
596.938 103.163 L
597.325 65.848 L
597.713 80.27 L
598.1 47.312 L
598.487 59.397 L
598.875 38.524 L
599.263 99.616 L
599.65 56.851 L
600.037 101.143 L
600.425 86.234 L
600.813 70.5 L
601.2 91.655 L
601.588 74.306 L
601.975 122.016 L
602.362 88.619 L
602.75 96.326 L
603.138 38.524 L
603.525 70.5 L
603.912 58.971 L
604.3 88.619 L
604.688 99.245 L
605.075 138.714 L
605.463 119.56 L
605.85 94.185 L
606.237 53.859 L
606.625 108.97 L
607.013 85.124 L
607.4 87.397 L
607.787 99.45 L
608.175 97.459 L
608.563 89.904 L
608.95 75.179 L
609.338 68.342 L
609.725 47.801 L
610.112 38.524 L
610.5 82.725 L
610.888 52.186 L
611.275 142.169 L
611.662 96.774 L
612.05 85.124 L
612.438 55.798 L
612.825 106.836 L
613.213 97.847 L
613.6 75.179 L
613.987 92.975 L
614.375 96.326 L
614.763 73.474 L
615.15 53.258 L
615.537 107.621 L
615.925 95.776 L
616.313 102.748 L
616.7 91.256 L
617.088 66.355 L
617.475 41.863 L
617.862 82.357 L
618.25 38.524 L
618.638 78.6 L
619.025 85.911 L
619.412 42.63 L
619.8 127.98 L
620.188 94.185 L
620.575 38.524 L
620.963 84.065 L
621.35 110.088 L
621.737 52.974 L
622.125 108.97 L
622.513 53.552 L
622.9 101.143 L
623.287 96.774 L
623.675 122.016 L
624.063 99.45 L
624.45 69.07 L
624.838 76.64 L
625.225 83.481 L
625.612 65.17 L
626 64.083 L
626.388 83.053 L
626.775 109.171 L
627.162 104.439 L
627.55 106.22 L
627.938 111.243 L
628.325 56.415 L
628.713 94.185 L
629.1 70.5 L
629.487 58.723 L
629.875 38.524 L
630.263 89.758 L
630.65 101.143 L
631.037 116.258 L
631.425 50.742 L
631.813 43.078 L
632.2 84.664 L
632.588 52.702 L
632.975 59.397 L
633.362 80.27 L
633.75 84.065 L
634.138 108.101 L
634.525 76.332 L
634.912 112.99 L
635.3 124.895 L
635.688 67.746 L
636.075 87.397 L
636.463 49.182 L
636.85 69.833 L
637.237 78.372 L
637.625 92.681 L
638.013 92.681 L
638.4 96.774 L
638.787 108.97 L
639.175 101.143 L
639.563 92.681 L
639.95 119.323 L
640.338 147.426 L
640.725 106.22 L
641.112 87.397 L
641.5 97.459 L
641.888 65.17 L
642.275 119.323 L
642.662 74.306 L
643.05 87.397 L
643.438 54.859 L
643.825 112.739 L
644.213 134.861 L
644.6 69.833 L
644.987 69.833 L
645.375 84.664 L
645.763 41.82 L
646.15 67.992 L
646.537 65.17 L
646.925 57.791 L
647.313 104.826 L
647.7 88.619 L
648.088 110.088 L
648.475 105.725 L
648.862 91.655 L
649.25 79.142 L
649.638 85.488 L
650.025 81.158 L
650.412 131.293 L
650.8 90.949 L
651.188 99.45 L
651.575 54.859 L
651.963 72.68 L
652.35 48.543 L
652.737 112.193 L
653.125 71.921 L
653.513 63.08 L
653.9 94.881 L
654.287 110.088 L
654.675 78.6 L
655.063 131.293 L
655.45 97.847 L
655.838 81.463 L
656.225 125.227 L
656.612 94.185 L
657 158.752 L
657.388 66.987 L
657.775 124.895 L
658.162 81.288 L
658.55 104.826 L
658.938 70.636 L
659.325 77.814 L
659.713 71.606 L
660.1 96.326 L
660.487 76.095 L
660.875 85.124 L
661.263 84.065 L
661.65 96.774 L
662.037 104.826 L
662.425 68.241 L
662.813 104.826 L
663.2 57.428 L
663.588 91.256 L
663.975 127.402 L
664.362 69.07 L
664.75 51.479 L
665.138 38.524 L
665.525 89.904 L
665.912 89.758 L
666.3 62.763 L
666.688 104.439 L
667.075 83.053 L
667.463 76.332 L
667.85 62.154 L
668.237 97.459 L
668.625 64.615 L
669.013 77.487 L
669.4 62.154 L
669.787 127.402 L
670.175 78.073 L
670.563 99.45 L
670.95 119.56 L
671.338 117.245 L
671.725 77.059 L
672.112 78.073 L
672.5 76.095 L
672.888 67.425 L
673.275 119.034 L
673.662 69.833 L
674.05 96.774 L
674.438 65.749 L
674.825 89.904 L
675.213 56.74 L
675.6 131.293 L
675.987 91.256 L
676.375 71.606 L
676.763 42.154 L
677.15 109.171 L
677.537 79.299 L
677.925 93.506 L
678.313 101.143 L
678.7 62.608 L
679.088 88.619 L
679.475 83.481 L
679.862 48.543 L
680.25 80.27 L
680.638 106.836 L
681.025 112.193 L
681.412 88.619 L
681.8 92.197 L
682.188 69.07 L
682.575 112.193 L
682.963 108.101 L
683.35 61.716 L
683.737 122.016 L
684.125 131.293 L
684.513 109.171 L
684.9 148.733 L
685.287 71.921 L
685.675 108.101 L
686.063 104.826 L
686.45 119.323 L
686.838 110.088 L
687.225 101.143 L
687.612 91.256 L
688 81.463 L
688.388 38.524 L
688.775 119.56 L
689.162 80.27 L
689.55 127.402 L
689.938 106.22 L
690.325 96.326 L
690.713 174.198 L
691.1 79.142 L
691.487 104.439 L
691.875 99.245 L
692.263 63.571 L
692.65 99.751 L
693.037 153.325 L
693.425 94.881 L
693.813 117.245 L
694.2 85.911 L
694.588 110.088 L
694.975 117.245 L
695.362 125.227 L
695.75 84.065 L
696.138 74.306 L
696.525 103.163 L
696.912 144.495 L
697.3 130.365 L
697.688 134.861 L
698.075 88.619 L
698.463 113.667 L
698.85 97.847 L
699.237 90.092 L
699.625 88.619 L
700.013 101.143 L
700.4 102.748 L
700.787 86.234 L
701.175 87.003 L
701.563 60.625 L
701.95 92.975 L
702.338 94.185 L
702.725 79.299 L
703.112 104.439 L
703.5 82.085 L
703.888 80.27 L
704.275 112.193 L
704.662 88.619 L
705.05 127.98 L
705.438 163.762 L
705.825 90.949 L
706.213 111.03 L
706.6 80.27 L
706.987 69.833 L
707.375 110.088 L
707.763 72.242 L
708.15 71.921 L
708.537 101.143 L
708.925 101.143 L
709.313 85.911 L
709.7 124.895 L
710.088 65.749 L
710.475 78.073 L
710.862 82.357 L
711.25 79.299 L
711.638 49.656 L
712.025 84.065 L
712.412 98.161 L
712.8 92.681 L
713.188 64.083 L
713.575 71.921 L
713.963 71.195 L
714.35 122.016 L
714.737 74.306 L
715.125 79.142 L
715.513 113.667 L
715.9 60.788 L
716.287 87.228 L
716.675 140.57 L
717.063 99.45 L
717.45 77.487 L
717.838 112.99 L
718.225 63.571 L
718.612 57.078 L
719 58.723 L
719.388 88.619 L
719.775 110.088 L
720.162 112.99 L
720.55 87.228 L
720.938 115.593 L
721.325 94.185 L
721.713 82.357 L
722.1 112.193 L
722.487 135.482 L
722.875 64.214 L
723.263 92.681 L
723.65 104.826 L
724.037 74.306 L
724.425 89.904 L
724.813 106.836 L
725.2 80.27 L
725.588 60.788 L
725.975 87.53 L
726.362 54.179 L
726.75 64.083 L
727.138 96.326 L
727.525 96.968 L
727.912 94.185 L
728.3 68.754 L
728.688 119.323 L
729.075 62.379 L
729.463 97.847 L
729.85 58.971 L
730.237 96.968 L
730.625 78.073 L
731.013 81.463 L
731.4 115.058 L
731.787 104.826 L
732.175 66.355 L
732.563 86.487 L
732.95 84.664 L
733.338 92.197 L
733.725 73.312 L
734.112 60.788 L
734.5 65.17 L
734.888 82.085 L
735.275 97.847 L
735.662 77.487 L
736.05 122.016 L
736.438 82.357 L
736.825 70.993 L
737.213 59.397 L
737.6 94.185 L
737.987 60.788 L
738.375 78.372 L
738.763 75.052 L
739.15 89.904 L
739.537 130.365 L
739.925 158.317 L
740.313 60.117 L
740.7 127.98 L
741.088 56.101 L
741.475 58.971 L
741.862 116.798 L
742.25 86.234 L
742.638 58.169 L
743.025 78.6 L
743.412 130.365 L
743.8 89.904 L
744.188 64.083 L
744.575 70.5 L
744.963 66.803 L
745.35 96.326 L
745.737 92.197 L
746.125 63.08 L
746.513 64.083 L
746.9 122.016 L
747.287 85.124 L
747.675 94.185 L
748.063 92.975 L
748.45 99.245 L
748.838 91.256 L
749.225 96.968 L
749.612 99.245 L
750 78.073 L
750.388 106.836 L
750.775 103.163 L
751.162 111.243 L
751.55 68.342 L
751.938 77.059 L
752.325 88.619 L
752.713 104.826 L
753.1 94.185 L
753.487 94.881 L
753.875 51.26 L
754.263 68.581 L
754.65 69.833 L
755.037 67.649 L
755.425 90.092 L
755.813 66.355 L
756.2 75.359 L
756.588 89.904 L
756.975 99.245 L
757.362 92.197 L
757.75 78.372 L
758.138 84.065 L
758.525 61.716 L
758.912 80.27 L
759.3 77.487 L
759.688 101.143 L
760.075 66.88 L
760.463 57.499 L
760.85 61.716 L
761.237 66.355 L
761.625 63.161 L
762.013 80.27 L
762.4 104.826 L
762.787 61.294 L
763.175 56.101 L
763.563 73.59 L
763.95 52.974 L
764.338 101.143 L
764.725 90.949 L
765.112 55.505 L
765.5 75.052 L
765.888 96.326 L
766.275 95.776 L
766.662 86.234 L
767.05 87.228 L
767.438 79.299 L
767.825 70.636 L
768.213 72.903 L
768.6 113.667 L
768.987 68.342 L
769.375 97.459 L
769.763 134.861 L
770.15 75.829 L
770.537 124.625 L
770.925 61.294 L
771.313 90.092 L
771.7 96.326 L
772.088 96.326 L
772.475 104.826 L
772.862 94.185 L
773.25 63.571 L
773.638 93.506 L
774.025 108.101 L
774.412 108.101 L
774.8 107.405 L
775.188 66.987 L
775.575 94.185 L
775.963 78.372 L
776.35 60.495 L
776.737 83.481 L
777.125 99.45 L
777.513 73.678 L
777.9 89.641 L
778.287 62.608 L
778.675 66.987 L
779.063 122.016 L
779.45 55.602 L
779.838 61.294 L
780.225 66.987 L
780.612 70.5 L
781 74.306 L
781.388 78.073 L
781.775 106.22 L
782.162 88.619 L
782.55 73.474 L
782.938 71.921 L
783.325 80.27 L
783.713 78.073 L
784.1 101.143 L
784.487 95.083 L
784.875 48.543 L
785.263 101.143 L
785.65 76.095 L
786.037 78.073 L
786.425 89.758 L
786.813 119.56 L
787.2 73.474 L
787.588 81.463 L
787.975 81.288 L
788.362 93.315 L
788.75 65.361 L
789.138 69.194 L
789.525 124.625 L
789.912 69.833 L
790.3 85.124 L
790.688 101.143 L
791.075 81.463 L
791.463 140.57 L
791.85 65.749 L
792.237 89.758 L
792.625 74.306 L
793.013 78.073 L
793.4 101.143 L
793.787 90.092 L
794.175 93.506 L
794.563 98.161 L
794.95 104.826 L
795.338 69.833 L
795.725 64.89 L
796.112 87.003 L
796.5 56.101 L
796.888 88.619 L
797.275 75.179 L
797.662 78.073 L
798.05 64.083 L
798.438 74.306 L
798.825 69.833 L
799.213 74.306 L
799.6 80.27 L
799.987 94.881 L
800.375 106.836 L
800.763 95.776 L
801.15 99.45 L
801.537 81.463 L
801.925 78.073 L
802.313 66.355 L
802.7 83.053 L
803.088 77.059 L
803.475 142.169 L
803.862 101.143 L
804.25 66.987 L
804.638 106.836 L
805.025 89.904 L
805.412 71.195 L
805.8 98.161 L
806.188 84.664 L
806.575 60.788 L
806.963 75.179 L
807.35 99.45 L
807.737 122.016 L
808.125 52.186 L
808.513 90.706 L
808.9 82.357 L
809.287 97.459 L
809.675 88.619 L
810.063 93.506 L
810.45 69.833 L
810.838 67.649 L
811.225 104.826 L
811.612 113.667 L
812 104.439 L
812.388 119.323 L
812.775 69.194 L
813.162 73.474 L
813.55 73.474 L
813.938 95.083 L
814.325 58.562 L
814.713 69.07 L
815.1 95.45 L
815.487 94.185 L
815.875 70.636 L
816.263 99.245 L
816.65 60.304 L
817.037 79.418 L
817.425 101.143 L
817.813 94.185 L
818.2 77.487 L
818.588 88.619 L
818.975 82.085 L
819.362 108.657 L
819.75 69.833 L
820.138 62.608 L
820.525 77.487 L
820.912 95.776 L
821.3 92.681 L
821.688 62.379 L
822.075 72.242 L
822.463 74.306 L
822.85 47.801 L
823.237 97.459 L
823.625 73.312 L
824.013 57.791 L
824.4 81.288 L
824.787 127.402 L
825.175 81.463 L
825.563 99.616 L
825.95 88.619 L
826.338 84.664 L
826.725 78.073 L
827.112 82.085 L
827.5 56.415 L
827.888 73.474 L
828.275 72.68 L
828.662 77.059 L
829.05 86.234 L
829.438 108.97 L
829.825 87.397 L
830.213 62.154 L
830.6 92.681 L
830.987 67.649 L
831.375 59.993 L
831.763 78.372 L
832.15 85.911 L
832.537 71.921 L
832.925 73.59 L
833.313 112.193 L
833.7 50.842 L
834.088 122.016 L
834.475 84.664 L
834.862 46.475 L
835.25 67.992 L
835.638 56.851 L
836.025 63.08 L
836.412 65.17 L
836.8 74.306 L
837.188 101.143 L
837.575 84.664 L
837.963 76.64 L
838.35 61.294 L
838.737 71.921 L
839.125 86.234 L
839.513 72.68 L
839.9 89.758 L
840.287 106.836 L
840.675 77.059 L
841.063 83.481 L
841.45 62.961 L
841.838 59.751 L
842.225 87.397 L
842.612 56.101 L
843 106.836 L
843.388 94.185 L
843.775 87.228 L
844.162 101.143 L
844.55 73.312 L
844.938 82.085 L
845.325 46.604 L
845.713 112.739 L
846.1 66.987 L
846.487 94.881 L
846.875 80.27 L
847.263 47.801 L
847.65 69.194 L
848.037 86.234 L
848.425 110.088 L
848.813 76.64 L
849.2 70.5 L
849.588 80.27 L
849.975 60.788 L
850.362 62.608 L
850.75 127.98 L
851.138 69.833 L
851.525 90.949 L
851.912 99.45 L
852.3 92.681 L
852.688 70.993 L
853.075 78.6 L
853.463 72.242 L
853.85 56.74 L
854.237 58.971 L
854.625 54.179 L
855.013 94.185 L
855.4 84.065 L
855.787 66.355 L
856.175 78.6 L
856.563 97.847 L
856.95 58.562 L
857.338 50.644 L
857.725 81.158 L
858.112 86.487 L
858.5 66.355 L
858.888 53.258 L
859.275 66.355 L
859.662 153.325 L
860.05 128.695 L
860.438 73.312 L
860.825 110.088 L
861.213 88.619 L
861.6 90.949 L
861.987 88.619 L
862.375 88.619 L
862.763 70.993 L
863.15 92.975 L
863.537 82.357 L
863.925 69.194 L
864.313 66.987 L
864.7 94.881 L
865.088 47.161 L
865.475 66.88 L
865.862 58.971 L
866.25 52.186 L
866.638 86.234 L
867.025 71.195 L
867.412 58.169 L
867.8 69.833 L
868.188 128.695 L
868.575 119.323 L
868.963 50.265 L
869.35 75.052 L
869.737 67.649 L
870.125 71.195 L
870.513 73.59 L
870.9 80.27 L
871.287 73.474 L
871.675 93.506 L
872.063 81.288 L
872.45 75.052 L
872.838 89.904 L
873.225 62.608 L
873.612 85.124 L
874 48.543 L
874.388 90.092 L
874.775 78.6 L
875.162 82.357 L
875.55 116.258 L
875.938 87.397 L
876.325 107.621 L
876.713 108.101 L
877.1 87.003 L
877.487 63.08 L
877.875 59.397 L
878.263 75.829 L
878.65 61.294 L
879.037 104.826 L
879.425 68.342 L
879.813 57.428 L
880.2 74.306 L
880.588 77.059 L
880.975 67.649 L
881.362 106.836 L
881.75 61.294 L
882.138 66.987 L
882.525 61.824 L
882.912 72.68 L
883.3 70.636 L
883.688 108.97 L
884.075 63.996 L
884.463 70.636 L
884.85 88.619 L
885.237 99.245 L
885.625 57.791 L
886.013 66.88 L
886.4 86.234 L
886.787 77.059 L
887.175 68.581 L
887.563 47.015 L
887.95 91.256 L
888.338 66.355 L
888.725 56.101 L
889.112 92.681 L
889.5 116.798 L
889.888 80.27 L
890.275 62.379 L
890.662 58.169 L
891.05 61.294 L
891.438 65.848 L
891.825 61.294 L
892.213 78.073 L
892.6 88.619 L
892.987 55.505 L
893.375 62.006 L
893.763 84.065 L
894.15 109.171 L
894.537 82.085 L
894.925 67.746 L
895.313 77.487 L
895.7 54.427 L
896.088 119.759 L
896.475 62.608 L
896.862 125.227 L
897.25 97.847 L
897.638 73.474 L
898.025 99.616 L
898.412 78.073 L
898.8 65.17 L
899.188 52.439 L
899.575 68.342 L
899.963 89.904 L
900.35 60.304 L
900.737 56.674 L
901.125 70.5 L
901.513 81.288 L
901.9 78.372 L
902.287 63.08 L
902.675 116.258 L
903.063 73.474 L
903.45 102.932 L
903.838 87.228 L
904.225 70.5 L
904.612 89.758 L
905 82.725 L
S
GR
GS
1 0 0 RC
1 LJ
0.5 LW
N
169.525 236.902 M
169.913 237.092 L
170.3 238.307 L
170.688 239.438 L
171.075 239.977 L
171.462 241.558 L
171.85 241.922 L
172.238 240.692 L
172.625 241.131 L
173.012 240.239 L
173.4 240.599 L
173.788 241.061 L
174.175 240.675 L
174.563 241.914 L
174.95 242.256 L
175.337 241.959 L
175.725 242.653 L
176.113 243.342 L
176.5 243.313 L
176.887 243.586 L
177.275 243.552 L
177.663 244.138 L
178.05 244.095 L
178.438 243.591 L
178.825 243.831 L
179.212 244.062 L
179.6 244.109 L
179.988 244.109 L
180.375 243.936 L
180.762 244.734 L
181.15 244.734 L
181.538 245.023 L
181.925 245.738 L
182.313 245.738 L
182.7 246.045 L
183.087 247.082 L
183.475 246.427 L
183.863 247.02 L
184.25 246.754 L
184.637 247.082 L
185.025 247.371 L
185.413 247.371 L
185.8 247.159 L
186.188 247.482 L
186.575 247.786 L
186.962 248.224 L
187.35 247.508 L
187.738 246.608 L
188.125 246.084 L
188.512 245.78 L
188.9 246.304 L
189.288 246.304 L
189.675 245.315 L
190.063 244.373 L
190.45 243.173 L
190.837 243.173 L
191.225 241.945 L
191.613 241.664 L
192 242.019 L
192.387 241.446 L
192.775 242.015 L
193.163 241.352 L
193.55 240.431 L
193.938 240.022 L
194.325 239.101 L
194.712 238.392 L
195.1 238.893 L
195.488 238.322 L
195.875 237.494 L
196.262 237.187 L
196.65 237.141 L
197.038 236.97 L
197.425 236.093 L
197.813 235.463 L
198.2 235.599 L
198.587 234.81 L
198.975 234.309 L
199.363 233.808 L
199.75 233.808 L
200.137 234.097 L
200.525 233.862 L
200.913 233.058 L
201.3 233.058 L
201.688 232.985 L
202.075 233.122 L
202.462 233.194 L
202.85 233.521 L
203.238 233.624 L
203.625 232.507 L
204.012 231.463 L
204.4 230.019 L
204.788 230.472 L
205.175 230.28 L
205.563 229.919 L
205.95 229.919 L
206.337 228.551 L
206.725 227.527 L
207.113 227.527 L
207.5 227.773 L
207.887 226.228 L
208.275 225.149 L
208.663 224.706 L
209.05 223.417 L
209.438 223.69 L
209.825 222.527 L
210.212 221.845 L
210.6 220.863 L
210.988 220.453 L
211.375 219.526 L
211.762 219.157 L
212.15 219.683 L
212.538 218.932 L
212.925 217.97 L
213.313 217.771 L
213.7 217.689 L
214.087 216.7 L
214.475 215.753 L
214.863 214.675 L
215.25 213.385 L
215.637 212.473 L
216.025 211.39 L
216.413 210.936 L
216.8 209.701 L
217.188 208.473 L
217.575 207.791 L
217.962 207.484 L
218.35 206.269 L
218.738 206.115 L
219.125 205.96 L
219.512 204.16 L
219.9 202.794 L
220.288 200.589 L
220.675 199.289 L
221.063 197.766 L
221.45 196.667 L
221.837 195.985 L
222.225 194.334 L
222.613 192.266 L
223 193.45 L
223.387 191.439 L
223.775 190.948 L
224.163 189.936 L
224.55 189.656 L
224.938 188.954 L
225.325 188.373 L
225.712 187.578 L
226.1 188.069 L
226.488 187.027 L
226.875 186.755 L
227.262 186.1 L
227.65 186.984 L
228.038 187.183 L
228.425 186.337 L
228.813 186.221 L
229.2 185.402 L
229.587 184.956 L
229.975 185.379 L
230.363 184.677 L
230.75 185.332 L
231.137 184.786 L
231.525 183.45 L
231.913 181.589 L
232.3 180.974 L
232.688 180.524 L
233.075 179.356 L
233.462 178.49 L
233.85 178.061 L
234.238 178.462 L
234.625 178.558 L
235.012 178.558 L
235.4 178.416 L
235.788 178.763 L
236.175 177.58 L
236.563 177.58 L
236.95 177.133 L
237.337 176.092 L
237.725 176.075 L
238.113 175.713 L
238.5 174.461 L
238.887 174.037 L
239.275 173.29 L
239.663 172.248 L
240.05 173.152 L
240.438 173.971 L
240.825 174.628 L
241.212 174.089 L
241.6 173.166 L
241.988 174.528 L
242.375 173.731 L
242.762 171.135 L
243.15 171.019 L
243.538 170.902 L
243.925 169.901 L
244.313 169.247 L
244.7 169.563 L
245.087 170.718 L
245.475 171.103 L
245.863 170.121 L
246.25 171.162 L
246.637 170.84 L
247.025 169.701 L
247.413 169.596 L
247.8 169.903 L
248.188 170.562 L
248.575 171.079 L
248.962 172.614 L
249.35 173.306 L
249.738 173.01 L
250.125 173.712 L
250.512 172.961 L
250.9 172.854 L
251.288 174.768 L
251.675 174.875 L
252.063 174.661 L
252.45 177.11 L
252.837 177.178 L
253.225 178.781 L
253.613 179.585 L
254 179.39 L
254.387 178.959 L
254.775 178.714 L
255.163 179.696 L
255.55 180.296 L
255.938 179.492 L
256.325 180.181 L
256.712 180.9 L
257.1 182.81 L
257.487 182.724 L
257.875 184.826 L
258.263 185.579 L
258.65 184.973 L
259.038 187.255 L
259.425 188.462 L
259.813 188.707 L
260.2 188.473 L
260.587 188.777 L
260.975 189.069 L
261.362 190.265 L
261.75 190.554 L
262.138 190.964 L
262.525 191.231 L
262.913 193.166 L
263.3 193.556 L
263.688 195.784 L
264.075 195.612 L
264.462 196.406 L
264.85 194.382 L
265.237 194.301 L
265.625 194.701 L
266.013 195.683 L
266.4 196.471 L
266.788 198.92 L
267.175 199.397 L
267.563 199.073 L
267.95 198.753 L
268.337 199.642 L
268.725 199.642 L
269.112 200.301 L
269.5 200.687 L
269.888 200.219 L
270.275 199.39 L
270.663 199.604 L
271.05 198.421 L
271.438 198.527 L
271.825 199.18 L
272.212 197.052 L
272.6 198.152 L
272.987 196.902 L
273.375 196.992 L
273.763 197.132 L
274.15 196.744 L
274.538 196.861 L
274.925 196.725 L
275.313 196.125 L
275.7 195.941 L
276.087 195.016 L
276.475 196.497 L
276.862 195.299 L
277.25 193.513 L
277.638 191.755 L
278.025 190.353 L
278.413 189.291 L
278.8 186.938 L
279.188 186.452 L
279.575 186.207 L
279.962 185.622 L
280.35 184.768 L
280.737 184.507 L
281.125 182.555 L
281.513 181.051 L
281.9 181.051 L
282.288 180.783 L
282.675 180.783 L
283.063 181.001 L
283.45 180.678 L
283.837 181.123 L
284.225 180.441 L
284.612 180.287 L
285 179.55 L
285.388 177.874 L
285.775 175.664 L
286.163 173.721 L
286.55 172.139 L
286.938 172.428 L
287.325 170.835 L
287.712 170.368 L
288.1 168.95 L
288.487 168 L
288.875 167.202 L
289.263 165.763 L
289.65 165.763 L
290.038 165.461 L
290.425 164.208 L
290.813 163.214 L
291.2 162.653 L
291.587 161.077 L
291.975 160.622 L
292.362 160.485 L
292.75 161.273 L
293.138 159.625 L
293.525 158.479 L
293.913 158.479 L
294.3 157.615 L
294.688 156.416 L
295.075 155.819 L
295.462 156.797 L
295.85 156.216 L
296.237 153.825 L
296.625 153.554 L
297.013 152.995 L
297.4 152.4 L
297.788 151.682 L
298.175 151.939 L
298.563 151.886 L
298.95 150.984 L
299.337 149.838 L
299.725 148.954 L
300.112 149.071 L
300.5 148.812 L
300.888 148.915 L
301.275 148.302 L
301.663 147.272 L
302.05 147.517 L
302.438 146.816 L
302.825 146.226 L
303.212 145.672 L
303.6 144.09 L
303.987 143.166 L
304.375 142.726 L
304.763 142.832 L
305.15 143.207 L
305.538 143.723 L
305.925 144.772 L
306.313 144.811 L
306.7 143.595 L
307.087 142.602 L
307.475 140.731 L
307.862 140.485 L
308.25 138.969 L
308.638 137.762 L
309.025 136.654 L
309.413 135.484 L
309.8 134.76 L
310.188 134.206 L
310.575 135.083 L
310.962 135.333 L
311.35 135.837 L
311.737 136.398 L
312.125 134.449 L
312.513 132.62 L
312.9 132.555 L
313.288 131.709 L
313.675 131.331 L
314.063 132.185 L
314.45 132.292 L
314.837 131.762 L
315.225 130.509 L
315.612 131.09 L
316 131.973 L
316.388 132.574 L
316.775 133.566 L
317.163 133.453 L
317.55 133.392 L
317.938 132.391 L
318.325 132.188 L
318.712 131.237 L
319.1 131.382 L
319.487 131.389 L
319.875 130.753 L
320.263 129.889 L
320.65 131.464 L
321.038 131.535 L
321.425 130.948 L
321.813 130.316 L
322.2 129.444 L
322.587 128.575 L
322.975 128.117 L
323.362 128.854 L
323.75 127.615 L
324.138 127.978 L
324.525 126.572 L
324.913 126.817 L
325.3 125.833 L
325.688 124.804 L
326.075 123.119 L
326.462 122.439 L
326.85 123.119 L
327.237 124.495 L
327.625 123.68 L
328.013 123.198 L
328.4 122.798 L
328.788 123.73 L
329.175 123.678 L
329.563 124.606 L
329.95 125.006 L
330.337 124.024 L
330.725 123.702 L
331.112 125.32 L
331.5 125.107 L
331.888 126.176 L
332.275 125.798 L
332.663 125.933 L
333.05 126.101 L
333.438 125.791 L
333.825 125.275 L
334.212 124.513 L
334.6 125.15 L
334.987 124.973 L
335.375 125.571 L
335.763 125.53 L
336.15 126.126 L
336.538 126.093 L
336.925 126.533 L
337.313 126.84 L
337.7 127.055 L
338.087 127.428 L
338.475 128.279 L
338.862 127.192 L
339.25 126.405 L
339.638 125.951 L
340.025 126.399 L
340.413 124.886 L
340.8 125.224 L
341.188 125.419 L
341.575 125.595 L
341.962 125.298 L
342.35 125.61 L
342.737 125.619 L
343.125 123.811 L
343.513 124.937 L
343.9 123.324 L
344.288 123.179 L
344.675 122.717 L
345.063 122.832 L
345.45 122.056 L
345.837 122.04 L
346.225 121.85 L
346.612 121.469 L
347 121.847 L
347.388 122.3 L
347.775 122.759 L
348.163 123.558 L
348.55 123.491 L
348.938 124.713 L
349.325 123.536 L
349.712 124.135 L
350.1 126.128 L
350.487 126.537 L
350.875 124.809 L
351.263 124.154 L
351.65 123.779 L
352.038 124.091 L
352.425 124.065 L
352.813 125.194 L
353.2 124.914 L
353.587 124.636 L
353.975 126.302 L
354.362 125.811 L
354.75 127.856 L
355.138 127.258 L
355.525 126.599 L
355.913 124.903 L
356.3 124.177 L
356.688 123.737 L
357.075 125.315 L
357.462 126.789 L
357.85 127.14 L
358.237 127.831 L
358.625 128.889 L
359.013 130.903 L
359.4 131.282 L
359.788 131.956 L
360.175 131.731 L
360.563 130.746 L
360.95 130.326 L
361.337 130.502 L
361.725 130.19 L
362.112 130.962 L
362.5 130.078 L
362.888 130.259 L
363.275 130.304 L
363.663 131.67 L
364.05 131.781 L
364.438 131.126 L
364.825 130.967 L
365.212 131.735 L
365.6 132.032 L
365.987 132.683 L
366.375 133.792 L
366.763 132.925 L
367.15 132.039 L
367.538 132.468 L
367.925 133.071 L
368.313 132.924 L
368.7 131.562 L
369.087 132.943 L
369.475 133.19 L
369.862 131.828 L
370.25 131.079 L
370.638 131.92 L
371.025 131.715 L
371.413 131.463 L
371.8 131.47 L
372.188 130.875 L
372.575 130.027 L
372.962 130.994 L
373.35 131.045 L
373.737 130.461 L
374.125 130.601 L
374.513 129.242 L
374.9 128.694 L
375.288 128.658 L
375.675 128.58 L
376.063 129.346 L
376.45 128.804 L
376.837 127.999 L
377.225 126.585 L
377.612 126.117 L
378 125.497 L
378.388 125.265 L
378.775 124.505 L
379.163 124.517 L
379.55 123.028 L
379.938 122.379 L
380.325 123.071 L
380.712 123.603 L
381.1 123.162 L
381.487 124.322 L
381.875 123.503 L
382.263 123.152 L
382.65 124.213 L
383.038 124.046 L
383.425 123.056 L
383.813 123.124 L
384.2 124.462 L
384.587 124.511 L
384.975 124.276 L
385.362 124.978 L
385.75 124.481 L
386.138 123.28 L
386.525 123.852 L
386.913 123.521 L
387.3 122.067 L
387.688 121.074 L
388.075 121.136 L
388.462 121.391 L
388.85 120.736 L
389.237 121.776 L
389.625 122.02 L
390.013 121.536 L
390.4 119.992 L
390.788 120.246 L
391.175 120.115 L
391.563 119.306 L
391.95 119.046 L
392.337 119.462 L
392.725 118.112 L
393.112 117.647 L
393.5 115.561 L
393.888 115.457 L
394.275 116.093 L
394.663 115.057 L
395.05 114.786 L
395.438 114.513 L
395.825 113.739 L
396.212 113.985 L
396.6 112.995 L
396.987 112.623 L
397.375 112.027 L
397.763 111.438 L
398.15 111.827 L
398.538 111.225 L
398.925 110.07 L
399.313 110.34 L
399.7 110.381 L
400.087 109.92 L
400.475 109.896 L
400.862 109.789 L
401.25 108.546 L
401.638 108.236 L
402.025 107.741 L
402.413 106.176 L
402.8 105.208 L
403.188 105.672 L
403.575 106.065 L
403.962 104.759 L
404.35 103.768 L
404.737 103.004 L
405.125 101.928 L
405.513 101.229 L
405.9 102.408 L
406.288 101.831 L
406.675 101.769 L
407.063 102.372 L
407.45 101.378 L
407.837 100.825 L
408.225 99.979 L
408.612 99.321 L
409 97.173 L
409.388 96.462 L
409.775 96.738 L
410.163 96.881 L
410.55 95.684 L
410.938 95.154 L
411.325 95.809 L
411.712 95.683 L
412.1 94.738 L
412.487 95.106 L
412.875 95.286 L
413.263 95.856 L
413.65 94.862 L
414.038 93.073 L
414.425 93.843 L
414.813 92.988 L
415.2 92.763 L
415.587 92.068 L
415.975 91.678 L
416.362 91.54 L
416.75 91.962 L
417.138 91.691 L
417.525 92.276 L
417.913 91.366 L
418.3 91.222 L
418.688 91.63 L
419.075 91.18 L
419.462 91.508 L
419.85 90.947 L
420.237 91.175 L
420.625 90.593 L
421.013 90.593 L
421.4 90.476 L
421.788 90.536 L
422.175 91.057 L
422.563 91.086 L
422.95 91.121 L
423.337 90.836 L
423.725 91.168 L
424.112 91.803 L
424.5 92.16 L
424.888 91.5 L
425.275 91.466 L
425.663 90.358 L
426.05 90.101 L
426.438 90.3 L
426.825 89.896 L
427.212 90.593 L
427.6 91.164 L
427.987 91.66 L
428.375 91.167 L
428.763 91.302 L
429.15 90.258 L
429.538 89.624 L
429.925 89.066 L
430.313 89.413 L
430.7 89.201 L
431.087 89.264 L
431.475 89.785 L
431.862 89.731 L
432.25 89.043 L
432.638 88.21 L
433.025 88.179 L
433.413 88.645 L
433.8 89.616 L
434.188 88.654 L
434.575 88.76 L
434.962 89.647 L
435.35 89.914 L
435.737 90.403 L
436.125 90.331 L
436.513 89.989 L
436.9 89.71 L
437.288 89.217 L
437.675 89.677 L
438.063 89.604 L
438.45 89.311 L
438.837 90.065 L
439.225 90.225 L
439.612 90.148 L
440 89.802 L
440.388 89.617 L
440.775 90.098 L
441.163 89.94 L
441.55 90.616 L
441.938 90.392 L
442.325 90.231 L
442.712 90.196 L
443.1 90.09 L
443.487 89.738 L
443.875 89.861 L
444.263 90.469 L
444.65 90.567 L
445.038 90.507 L
445.425 90.943 L
445.813 90.276 L
446.2 90.259 L
446.587 90.543 L
446.975 90.312 L
447.362 89.516 L
447.75 89.281 L
448.138 89.64 L
448.525 89.073 L
448.913 89.708 L
449.3 89.814 L
449.688 90.656 L
450.075 90.48 L
450.462 90.657 L
450.85 89.905 L
451.237 89.423 L
451.625 89.423 L
452.013 89.715 L
452.4 90.081 L
452.788 89.959 L
453.175 89.222 L
453.563 88.458 L
453.95 88.744 L
454.337 88.995 L
454.725 88.211 L
455.112 88.984 L
455.5 88.54 L
455.888 88.557 L
456.275 89.496 L
456.663 90.408 L
457.05 89.875 L
457.438 89.259 L
457.825 88.966 L
458.212 89.508 L
458.6 89.033 L
458.987 88.64 L
459.375 88.588 L
459.763 88.443 L
460.15 88.784 L
460.538 87.97 L
460.925 87.879 L
461.313 87.417 L
461.7 87.532 L
462.087 87.641 L
462.475 87.28 L
462.862 87.113 L
463.25 87.594 L
463.638 87.098 L
464.025 85.794 L
464.413 85.695 L
464.8 85.455 L
465.188 85.109 L
465.575 85.135 L
465.962 85.292 L
466.35 85.235 L
466.737 84.966 L
467.125 85.396 L
467.513 85.443 L
467.9 85.049 L
468.288 85.233 L
468.675 84.46 L
469.063 84.658 L
469.45 83.974 L
469.837 83.771 L
470.225 83.587 L
470.612 83.525 L
471 82.927 L
471.388 82.562 L
471.775 81.79 L
472.163 81.439 L
472.55 81.626 L
472.938 81.728 L
473.325 81.791 L
473.712 81.303 L
474.1 81.401 L
474.487 81.364 L
474.875 80.17 L
475.263 80.088 L
475.65 79.803 L
476.038 78.596 L
476.425 77.739 L
476.813 77.759 L
477.2 78.135 L
477.587 77.813 L
477.975 77.171 L
478.362 77.746 L
478.75 78.004 L
479.138 78.629 L
479.525 78.486 L
479.913 77.761 L
480.3 77.67 L
480.688 76.949 L
481.075 76.456 L
481.462 76.351 L
481.85 76.483 L
482.237 76.139 L
482.625 75.977 L
483.013 75.138 L
483.4 74.651 L
483.788 75.254 L
484.175 75.243 L
484.563 74.875 L
484.95 73.818 L
485.337 73.989 L
485.725 73.483 L
486.112 72.801 L
486.5 72.936 L
486.888 72.007 L
487.275 71.851 L
487.663 72.242 L
488.05 71.746 L
488.438 71.773 L
488.825 71.437 L
489.212 71.263 L
489.6 71.213 L
489.987 71.34 L
490.375 71.267 L
490.763 71.558 L
491.15 71.439 L
491.538 71.734 L
491.925 71.788 L
492.313 71.109 L
492.7 70.271 L
493.087 70.177 L
493.475 69.877 L
493.862 68.643 L
494.25 68.111 L
494.638 68.162 L
495.025 67.576 L
495.413 67.185 L
495.8 66.78 L
496.188 66.461 L
496.575 66.334 L
496.962 65.952 L
497.35 65.777 L
497.737 65.61 L
498.125 65.389 L
498.513 64.853 L
498.9 64.327 L
499.288 64.484 L
499.675 64.765 L
500.063 64.244 L
500.45 64.207 L
500.837 64.5 L
501.225 64.324 L
501.612 63.596 L
502 63.873 L
502.388 63.223 L
502.775 62.877 L
503.163 62.787 L
503.55 62.281 L
503.938 61.786 L
504.325 62.031 L
504.712 62.01 L
505.1 61.361 L
505.487 61.458 L
505.875 61.759 L
506.263 61.291 L
506.65 61.142 L
507.038 60.602 L
507.425 59.874 L
507.813 59.922 L
508.2 59.551 L
508.587 58.967 L
508.975 58.594 L
509.362 58.577 L
509.75 58.074 L
510.138 58.127 L
510.525 58.103 L
510.913 58.259 L
511.3 58.359 L
511.688 58.125 L
512.075 57.59 L
512.463 57.835 L
512.85 57.381 L
513.237 57.561 L
513.625 57.933 L
514.013 58.247 L
514.4 58.381 L
514.787 58.754 L
515.175 58.892 L
515.563 58.868 L
515.95 59.343 L
516.338 59.173 L
516.725 58.8 L
517.112 58.47 L
517.5 58.537 L
517.888 57.896 L
518.275 58.142 L
518.662 57.864 L
519.05 57.508 L
519.438 57.082 L
519.825 57.384 L
520.213 57.249 L
520.6 56.871 L
520.987 56.771 L
521.375 56.692 L
521.763 56.046 L
522.15 56.515 L
522.537 56.555 L
522.925 56.424 L
523.313 56.558 L
523.7 56.806 L
524.088 57.364 L
524.475 58.665 L
524.862 58.771 L
525.25 58.894 L
525.638 58.712 L
526.025 58.728 L
526.412 59.079 L
526.8 59.102 L
527.188 59.348 L
527.575 59.325 L
527.963 59.448 L
528.35 60.377 L
528.737 60.679 L
529.125 60.626 L
529.513 60.655 L
529.9 60.238 L
530.287 60.13 L
530.675 60.13 L
531.063 59.428 L
531.45 59.186 L
531.838 59.467 L
532.225 59.353 L
532.612 59.746 L
533 59.613 L
533.388 59.578 L
533.775 58.939 L
534.162 58.627 L
534.55 58.667 L
534.938 59.79 L
535.325 60.378 L
535.713 60.107 L
536.1 60.47 L
536.487 61.134 L
536.875 61.402 L
537.263 61.261 L
537.65 61.336 L
538.037 60.844 L
538.425 60.482 L
538.813 60.316 L
539.2 60.597 L
539.588 60.556 L
539.975 60.638 L
540.362 60.506 L
540.75 60.094 L
541.138 60.441 L
541.525 60.599 L
541.912 60.787 L
542.3 60.949 L
542.688 60.963 L
543.075 60.817 L
543.463 61.257 L
543.85 61.053 L
544.237 60.206 L
544.625 61.083 L
545.013 60.903 L
545.4 61.249 L
545.787 61.648 L
546.175 61.575 L
546.563 61.539 L
546.95 61.583 L
547.338 61.885 L
547.725 62.528 L
548.112 62.056 L
548.5 61.978 L
548.888 62.221 L
549.275 62.788 L
549.662 63.578 L
550.05 63.896 L
550.438 63.971 L
550.825 64.771 L
551.213 66.407 L
551.6 66.631 L
551.987 67.578 L
552.375 67.552 L
552.763 68.119 L
553.15 68.986 L
553.537 69.412 L
553.925 70.677 L
554.313 70.94 L
554.7 70.312 L
555.088 70.627 L
555.475 70.781 L
555.862 71.075 L
556.25 70.818 L
556.638 70.963 L
557.025 72.696 L
557.412 73.022 L
557.8 74.096 L
558.188 74.452 L
558.575 74.96 L
558.963 75.822 L
559.35 76.127 L
559.737 76.725 L
560.125 77.801 L
560.513 78.782 L
560.9 79.242 L
561.287 79.617 L
561.675 80.279 L
562.063 80.799 L
562.45 81.385 L
562.838 81.49 L
563.225 81.766 L
563.612 81.661 L
564 82.308 L
564.388 82.557 L
564.775 83.107 L
565.162 82.58 L
565.55 83.241 L
565.938 83.381 L
566.325 83.682 L
566.713 84.454 L
567.1 84.817 L
567.487 84.577 L
567.875 85.742 L
568.263 85.653 L
568.65 85.507 L
569.037 85.319 L
569.425 85.023 L
569.813 85.414 L
570.2 85.628 L
570.588 85.275 L
570.975 83.902 L
571.362 84.276 L
571.75 83.754 L
572.138 83.544 L
572.525 83.236 L
572.912 82.737 L
573.3 83.291 L
573.688 82.665 L
574.075 81.772 L
574.463 81.772 L
574.85 81.8 L
575.237 82.033 L
575.625 81.733 L
576.013 82.378 L
576.4 82.292 L
576.787 80.721 L
577.175 80.738 L
577.563 79.438 L
577.95 79.162 L
578.338 79.348 L
578.725 78.588 L
579.112 78.601 L
579.5 78.89 L
579.888 78.552 L
580.275 78.068 L
580.662 78.559 L
581.05 78.713 L
581.438 78.406 L
581.825 78.936 L
582.213 78.524 L
582.6 78.656 L
582.987 79.137 L
583.375 79.392 L
583.763 79.028 L
584.15 78.402 L
584.537 78.406 L
584.925 80.111 L
585.313 79.16 L
585.7 79.703 L
586.088 79.144 L
586.475 78.376 L
586.862 78.615 L
587.25 79.246 L
587.638 78.028 L
588.025 78.4 L
588.412 78.081 L
588.8 77.805 L
589.188 77.074 L
589.575 77.081 L
589.963 76.659 L
590.35 77.44 L
590.737 77.82 L
591.125 77.488 L
591.513 77.974 L
591.9 78.13 L
592.287 79.389 L
592.675 79.608 L
593.063 79.55 L
593.45 78.732 L
593.838 79.359 L
594.225 78.984 L
594.612 78.984 L
595 79.356 L
595.388 80.846 L
595.775 81.244 L
596.162 81.899 L
596.55 81.666 L
596.938 82.228 L
597.325 83.142 L
597.713 83.958 L
598.1 84.108 L
598.487 84.796 L
598.875 85.162 L
599.263 84.726 L
599.65 84.381 L
600.037 83.878 L
600.425 82.404 L
600.813 82.429 L
601.2 81.469 L
601.588 82.013 L
601.975 82.82 L
602.362 83.217 L
602.75 82.012 L
603.138 82.47 L
603.525 82.834 L
603.912 82.734 L
604.3 82.693 L
604.688 81.963 L
605.075 82.289 L
605.463 81.617 L
605.85 82.776 L
606.237 83.327 L
606.625 83.508 L
607.013 83.275 L
607.4 83.285 L
607.787 82.532 L
608.175 83.219 L
608.563 82.81 L
608.95 83.595 L
609.338 83.327 L
609.725 83.048 L
610.112 83.574 L
610.5 83.73 L
610.888 83.103 L
611.275 82.954 L
611.662 83.656 L
612.05 82.302 L
612.438 82.701 L
612.825 81.862 L
613.213 83.09 L
613.6 83.605 L
613.987 84.842 L
614.375 85.054 L
614.763 84.462 L
615.15 83.245 L
615.537 82.538 L
615.925 81.969 L
616.313 82.169 L
616.7 81.661 L
617.088 82.133 L
617.475 82.467 L
617.862 82.599 L
618.25 82.87 L
618.638 82.213 L
619.025 82.586 L
619.412 82.628 L
619.8 82.842 L
620.188 82.842 L
620.575 82.98 L
620.963 83.94 L
621.35 83.432 L
621.737 82.529 L
622.125 81.705 L
622.513 82.271 L
622.9 81.209 L
623.287 80.456 L
623.675 80.555 L
624.063 80.381 L
624.45 80.611 L
624.838 80.668 L
625.225 81.839 L
625.612 82.177 L
626 81.628 L
626.388 81.327 L
626.775 80.502 L
627.162 80.57 L
627.55 81.286 L
627.938 81.488 L
628.325 82.55 L
628.713 82.907 L
629.1 83.359 L
629.487 84.506 L
629.875 83.814 L
630.263 84.307 L
630.65 86.442 L
631.037 86.877 L
631.425 86.432 L
631.813 87.304 L
632.2 86.445 L
632.588 87.735 L
632.975 87.209 L
633.362 87.025 L
633.75 85.708 L
634.138 85.968 L
634.525 87.258 L
634.912 87.125 L
635.3 86.857 L
635.688 87.24 L
636.075 86.803 L
636.463 86.508 L
636.85 85.645 L
637.237 84.73 L
637.625 84.703 L
638.013 84.259 L
638.4 85.312 L
638.787 85.538 L
639.175 85.953 L
639.563 86.353 L
639.95 87.274 L
640.338 87.106 L
640.725 87.697 L
641.112 87.2 L
641.5 88.156 L
641.888 88.387 L
642.275 88.152 L
642.662 88.07 L
643.05 89.105 L
643.438 88.941 L
643.825 88.53 L
644.213 88.271 L
644.6 88.933 L
644.987 88.258 L
645.375 88.384 L
645.763 88.974 L
646.15 88.858 L
646.537 90.349 L
646.925 90.826 L
647.313 92.402 L
647.7 91.899 L
648.088 92.53 L
648.475 92.227 L
648.862 92.145 L
649.25 91.547 L
649.638 91.256 L
650.025 90.32 L
650.412 89.318 L
650.8 88.727 L
651.188 88.683 L
651.575 88.42 L
651.963 89.04 L
652.35 88.756 L
652.737 88.637 L
653.125 88.978 L
653.513 89.029 L
653.9 88.608 L
654.287 88.461 L
654.675 88.446 L
655.063 88.086 L
655.45 87.182 L
655.838 88.125 L
656.225 88.551 L
656.612 88.504 L
657 89.419 L
657.388 88.992 L
657.775 88.751 L
658.162 87.811 L
658.55 87.649 L
658.938 87.119 L
659.325 87.086 L
659.713 86.629 L
660.1 87.536 L
660.487 86.492 L
660.875 86.659 L
661.263 87.053 L
661.65 88.276 L
662.037 88.362 L
662.425 88.941 L
662.813 88.233 L
663.2 88.145 L
663.588 89.242 L
663.975 88.751 L
664.362 88.49 L
664.75 88.238 L
665.138 87.427 L
665.525 86.621 L
665.912 87.598 L
666.3 86.932 L
666.688 86.489 L
667.075 84.203 L
667.463 85.03 L
667.85 84.136 L
668.237 84.375 L
668.625 84.303 L
669.013 84.146 L
669.4 84.357 L
669.787 84.59 L
670.175 83.653 L
670.563 83.735 L
670.95 84.161 L
671.338 84.712 L
671.725 84.553 L
672.112 84.305 L
672.5 84.321 L
672.888 84.466 L
673.275 85.459 L
673.662 84.88 L
674.05 84.774 L
674.438 85.994 L
674.825 87.126 L
675.213 89.287 L
675.6 88.934 L
675.987 89.294 L
676.375 90.118 L
676.763 90.41 L
677.15 90.94 L
677.537 91.427 L
677.925 91.998 L
678.313 91.684 L
678.7 91.172 L
679.088 91.997 L
679.475 92.352 L
679.862 92.352 L
680.25 92.904 L
680.638 92.843 L
681.025 93.914 L
681.412 93.167 L
681.8 93.704 L
682.188 94.119 L
682.575 93.874 L
682.963 94.508 L
683.35 95.18 L
683.737 95.671 L
684.125 96.073 L
684.513 96.468 L
684.9 96.864 L
685.287 98.05 L
685.675 97.931 L
686.063 97.79 L
686.45 97.843 L
686.838 99.039 L
687.225 99.732 L
687.612 100.733 L
688 101.544 L
688.388 101.298 L
688.775 102.3 L
689.162 102.481 L
689.55 102.61 L
689.938 103.396 L
690.325 103.805 L
690.713 103.725 L
691.1 103.216 L
691.487 103.184 L
691.875 102.565 L
692.263 103.034 L
692.65 102.681 L
693.037 102.116 L
693.425 102.954 L
693.813 102.171 L
694.2 101.171 L
694.588 101.23 L
694.975 100.051 L
695.362 101.15 L
695.75 102.242 L
696.138 101.97 L
696.525 101.807 L
696.912 101.222 L
697.3 100.608 L
697.688 100.978 L
698.075 100.797 L
698.463 101.452 L
698.85 101.091 L
699.237 101.5 L
699.625 100.686 L
700.013 101.053 L
700.4 100.453 L
700.787 98.568 L
701.175 98.631 L
701.563 98.138 L
701.95 97.166 L
702.338 97.568 L
702.725 97.537 L
703.112 96.347 L
703.5 95.744 L
703.888 94.855 L
704.275 94.566 L
704.662 94.8 L
705.05 93.958 L
705.438 93.055 L
705.825 93.635 L
706.213 93.37 L
706.6 93.058 L
706.987 92.981 L
707.375 92.374 L
707.763 91.249 L
708.15 91.727 L
708.537 90.745 L
708.925 89.946 L
709.313 89.331 L
709.7 89.331 L
710.088 89.506 L
710.475 89.707 L
710.862 89.726 L
711.25 90.287 L
711.638 90.945 L
712.025 90.737 L
712.412 91.09 L
712.8 92.191 L
713.188 91.403 L
713.575 91.61 L
713.963 92.092 L
714.35 91.349 L
714.737 91.374 L
715.125 90.96 L
715.513 89.323 L
715.9 88.731 L
716.287 88.27 L
716.675 87.759 L
717.063 87.646 L
717.45 87.376 L
717.838 87.861 L
718.225 88.298 L
718.612 87.663 L
719 88.019 L
719.388 87.558 L
719.775 87.027 L
720.162 86.894 L
720.55 87.265 L
720.938 87.181 L
721.325 87.223 L
721.713 88.506 L
722.1 88.913 L
722.487 88.289 L
722.875 88.168 L
723.263 88.571 L
723.65 88.969 L
724.037 89.01 L
724.425 87.81 L
724.813 87.631 L
725.2 87.688 L
725.588 87.378 L
725.975 87.706 L
726.362 88.388 L
726.75 87.246 L
727.138 86.688 L
727.525 86.334 L
727.912 85.965 L
728.3 85.91 L
728.688 86.328 L
729.075 86.648 L
729.463 86.673 L
729.85 87.071 L
730.237 87.959 L
730.625 87.428 L
731.013 87.671 L
731.4 86.924 L
731.787 86.465 L
732.175 86.556 L
732.563 85.59 L
732.95 85.472 L
733.338 85.195 L
733.725 85.696 L
734.112 86.002 L
734.5 85.496 L
734.888 84.783 L
735.275 84.519 L
735.662 85.216 L
736.05 85.308 L
736.438 85.482 L
736.825 85.482 L
737.213 85.986 L
737.6 85.754 L
737.987 85.754 L
738.375 86.229 L
738.763 85.835 L
739.15 86.401 L
739.537 86.384 L
739.925 87.174 L
740.313 86.803 L
740.7 87.367 L
741.088 87.792 L
741.475 87.718 L
741.862 87.002 L
742.25 87.212 L
742.638 87.254 L
743.025 87.649 L
743.412 87.688 L
743.8 88.111 L
744.188 87.924 L
744.575 87.991 L
744.963 87.751 L
745.35 87.159 L
745.737 87.406 L
746.125 86.315 L
746.513 86.177 L
746.9 86.548 L
747.287 87.33 L
747.675 87.291 L
748.063 87.635 L
748.45 87.747 L
748.838 87.486 L
749.225 87.297 L
749.612 86.26 L
750 85.139 L
750.388 85.271 L
750.775 83.889 L
751.162 83.999 L
751.55 84.144 L
751.938 83.093 L
752.325 82.976 L
752.713 83.89 L
753.1 83.551 L
753.487 82.095 L
753.875 81.775 L
754.263 81.557 L
754.65 82.158 L
755.037 82.632 L
755.425 81.831 L
755.813 81.495 L
756.2 82.147 L
756.588 82.768 L
756.975 82.067 L
757.362 82.108 L
757.75 81.816 L
758.138 81.378 L
758.525 80.862 L
758.912 81.301 L
759.3 80.74 L
759.688 80.705 L
760.075 81.818 L
760.463 81.21 L
760.85 81.631 L
761.237 80.652 L
761.625 81.078 L
762.013 81.456 L
762.4 81.607 L
762.787 81.607 L
763.175 81.607 L
763.563 80.993 L
763.95 81.821 L
764.338 82.596 L
764.725 83.347 L
765.112 84.126 L
765.5 83.673 L
765.888 84.219 L
766.275 84.278 L
766.662 83.701 L
767.05 83.392 L
767.438 83.534 L
767.825 83.442 L
768.213 83.552 L
768.6 83.569 L
768.987 83.309 L
769.375 84.182 L
769.763 83.289 L
770.15 83.179 L
770.537 83.365 L
770.925 83.538 L
771.313 83.694 L
771.7 83.986 L
772.088 84.495 L
772.475 84.177 L
772.862 84.416 L
773.25 84.726 L
773.638 84.857 L
774.025 85.349 L
774.412 85.349 L
774.8 85.43 L
775.188 85.294 L
775.575 85.805 L
775.963 85.409 L
776.35 85.061 L
776.737 85.131 L
777.125 85.765 L
777.513 85.65 L
777.9 85.863 L
778.287 86.027 L
778.675 85.628 L
779.063 85.57 L
779.45 85.015 L
779.838 84.815 L
780.225 84.697 L
780.612 83.923 L
781 84.704 L
781.388 84.535 L
781.775 85.402 L
782.162 84.803 L
782.55 84.507 L
782.938 84.117 L
783.325 84.402 L
783.713 84.551 L
784.1 84.198 L
784.487 83.912 L
784.875 83.731 L
785.263 84.473 L
785.65 83.995 L
786.037 83.731 L
786.425 84.251 L
786.813 83.714 L
787.2 83.502 L
787.588 83.531 L
787.975 83.304 L
788.362 83.333 L
788.75 83.477 L
789.138 82.453 L
789.525 82.82 L
789.912 83.192 L
790.3 83.739 L
790.688 84.452 L
791.075 84.873 L
791.463 85.292 L
791.85 84.806 L
792.237 84.6 L
792.625 84.46 L
793.013 84.678 L
793.4 84.615 L
793.787 85.872 L
794.175 85.872 L
794.563 85.321 L
794.95 86.464 L
795.338 86.244 L
795.725 86.148 L
796.112 86.542 L
796.5 86.442 L
796.888 85.289 L
797.275 85.323 L
797.662 85.675 L
798.05 86.474 L
798.438 85.668 L
798.825 86.165 L
799.213 86.423 L
799.6 85.89 L
799.987 86.258 L
800.375 86.423 L
800.763 85.809 L
801.15 85.538 L
801.537 84.837 L
801.925 85.777 L
802.313 86.064 L
802.7 86.947 L
803.088 86.773 L
803.475 86.231 L
803.862 85.905 L
804.25 85.936 L
804.638 85.159 L
805.025 84.458 L
805.412 84.96 L
805.8 85.535 L
806.188 85.214 L
806.575 86.06 L
806.963 85.505 L
807.35 85.588 L
807.737 86.04 L
808.125 86.63 L
808.513 86.693 L
808.9 87.061 L
809.287 87.214 L
809.675 87.77 L
810.063 87.279 L
810.45 86.412 L
810.838 86.053 L
811.225 85.981 L
811.612 86.201 L
812 85.893 L
812.388 86.009 L
812.775 85.837 L
813.162 85.264 L
813.55 84.387 L
813.938 83.841 L
814.325 83.661 L
814.713 83.16 L
815.1 83.895 L
815.487 84.097 L
815.875 84.125 L
816.263 84.203 L
816.65 84.671 L
817.037 84.728 L
817.425 84.387 L
817.813 83.101 L
818.2 83.518 L
818.588 83.165 L
818.975 83.061 L
819.362 82.841 L
819.75 83.24 L
820.138 83.12 L
820.525 82.969 L
820.912 83.46 L
821.3 82.731 L
821.688 81.679 L
822.075 81.168 L
822.463 80.513 L
822.85 80.566 L
823.237 80.568 L
823.625 81.328 L
824.013 80.46 L
824.4 81.704 L
824.787 82.01 L
825.175 81.05 L
825.563 80.536 L
825.95 80.266 L
826.338 79.557 L
826.725 79.652 L
827.112 79.552 L
827.5 79.552 L
827.888 79.365 L
828.275 79.349 L
828.662 78.813 L
829.05 78.614 L
829.438 78.174 L
829.825 78.23 L
830.213 78.762 L
830.6 79.338 L
830.987 78.971 L
831.375 78.79 L
831.763 78.802 L
832.15 78.557 L
832.537 78.813 L
832.925 78.976 L
833.313 79.16 L
833.7 79.569 L
834.088 80.146 L
834.475 80.536 L
834.862 79.475 L
835.25 79.487 L
835.638 78.448 L
836.025 78.921 L
836.412 78.574 L
836.8 78.904 L
837.188 78.868 L
837.575 78.699 L
837.963 78.615 L
838.35 78.881 L
838.737 79.529 L
839.125 79.341 L
839.513 78.586 L
839.9 78.447 L
840.287 78.42 L
840.675 77.83 L
841.063 79.013 L
841.45 79.206 L
841.838 79.453 L
842.225 79.718 L
842.612 80.125 L
843 80.074 L
843.388 79.416 L
843.775 79.835 L
844.162 78.555 L
844.55 78.051 L
844.938 78.202 L
845.325 78.716 L
845.713 79.25 L
846.1 79.314 L
846.487 79.577 L
846.875 80.039 L
847.263 79.204 L
847.65 78.537 L
848.037 78.625 L
848.425 79.119 L
848.813 79.01 L
849.2 78.364 L
849.588 78.24 L
849.975 79.486 L
850.362 79.915 L
850.75 79.841 L
851.138 80.363 L
851.525 80.866 L
851.912 81.478 L
852.3 81.502 L
852.688 82.139 L
853.075 81.437 L
853.463 81.413 L
853.85 81.317 L
854.237 80.691 L
854.625 80.567 L
855.013 80.818 L
855.4 80.829 L
855.787 79.929 L
856.175 79.772 L
856.563 78.935 L
856.95 79.052 L
857.338 79.511 L
857.725 79.295 L
858.112 78.973 L
858.5 79.338 L
858.888 80.175 L
859.275 79.778 L
859.662 79.676 L
860.05 79.81 L
860.438 79.979 L
860.825 78.912 L
861.213 79.117 L
861.6 78.774 L
861.987 78.658 L
862.375 78.434 L
862.763 78.514 L
863.15 78.735 L
863.537 78.547 L
863.925 79.103 L
864.313 78.899 L
864.7 79.603 L
865.088 79.297 L
865.475 79.264 L
865.862 80.242 L
866.25 80.415 L
866.638 80.606 L
867.025 81.578 L
867.412 82.291 L
867.8 81.936 L
868.188 81.405 L
868.575 81.591 L
868.963 81.748 L
869.35 82.503 L
869.737 80.836 L
870.125 79.439 L
870.513 79.458 L
870.9 78.811 L
871.287 78.4 L
871.675 78.711 L
872.063 78.175 L
872.45 77.751 L
872.838 77.571 L
873.225 77.173 L
873.612 76.944 L
874 77.724 L
874.388 77.665 L
874.775 77.189 L
875.162 78.002 L
875.55 78.637 L
875.938 78.614 L
876.325 78.902 L
876.713 78.902 L
877.1 79.017 L
877.487 79.221 L
877.875 78.774 L
878.263 78.04 L
878.65 77.001 L
879.037 77.115 L
879.425 77.461 L
879.813 78.425 L
880.2 78.603 L
880.588 78.383 L
880.975 77.95 L
881.362 77.711 L
881.75 77.168 L
882.138 76.776 L
882.525 76.836 L
882.912 76.81 L
883.3 76.671 L
883.688 76.218 L
884.075 76.914 L
884.463 77.288 L
884.85 77.357 L
885.237 77.07 L
885.625 76.31 L
886.013 75.664 L
886.4 75.902 L
886.787 75.01 L
887.175 75.759 L
887.563 76.441 L
887.95 76.717 L
888.338 77.183 L
888.725 77.512 L
889.112 76.735 L
889.5 76.423 L
889.888 76.637 L
890.275 76.943 L
890.662 76.614 L
891.05 76.399 L
891.438 75.687 L
891.825 76.079 L
892.213 76.302 L
892.6 76.326 L
892.987 77.181 L
893.375 77.237 L
893.763 77.118 L
894.15 77.574 L
894.537 77.571 L
894.925 77.593 L
895.313 77.269 L
895.7 77.659 L
896.088 77.879 L
896.475 77.705 L
896.862 77.719 L
897.25 77.917 L
897.638 78.604 L
898.025 78.316 L
898.412 78.595 L
898.8 79.13 L
899.188 78.8 L
899.575 77.85 L
899.963 77.788 L
900.35 78.193 L
900.737 78.734 L
901.125 79.219 L
901.513 79.601 L
901.9 80.139 L
902.287 80.202 L
902.675 79.939 L
903.063 80.727 L
903.45 81.351 L
903.838 81.257 L
904.225 80.261 L
904.612 80.193 L
905 80.672 L
S
GR
%%Trailer
%%Pages: 1
%%EOF
