%!PS-Adobe-3.0 EPSF-3.0
%%Creator: (MATLAB, The Mathworks, Inc. Version 9.0.0.341360 \(R2016a\). Operating System: Linux)
%%Title: report/figures/sm_base_lin_geoprio2_ratio.eps
%%CreationDate: 2017-02-04T23:56:23
%%Pages: (atend)
%%BoundingBox:    59     4   910   325
%%LanguageLevel: 3
%%EndComments
%%BeginProlog
%%BeginResource: procset (Apache XML Graphics Std ProcSet) 1.2 0
%%Version: 1.2 0
%%Copyright: (Copyright 2001-2003,2010 The Apache Software Foundation. License terms: http://www.apache.org/licenses/LICENSE-2.0)
/bd{bind def}bind def
/ld{load def}bd
/GR/grestore ld
/M/moveto ld
/LJ/setlinejoin ld
/C/curveto ld
/f/fill ld
/LW/setlinewidth ld
/GC/setgray ld
/t/show ld
/N/newpath ld
/CT/concat ld
/cp/closepath ld
/S/stroke ld
/L/lineto ld
/CC/setcmykcolor ld
/A/ashow ld
/GS/gsave ld
/RC/setrgbcolor ld
/RM/rmoveto ld
/ML/setmiterlimit ld
/re {4 2 roll M
1 index 0 rlineto
0 exch rlineto
neg 0 rlineto
cp } bd
/_ctm matrix def
/_tm matrix def
/BT { _ctm currentmatrix pop matrix _tm copy pop 0 0 moveto } bd
/ET { _ctm setmatrix } bd
/iTm { _ctm setmatrix _tm concat } bd
/Tm { _tm astore pop iTm 0 0 moveto } bd
/ux 0.0 def
/uy 0.0 def
/F {
  /Tp exch def
  /Tf exch def
  Tf findfont Tp scalefont setfont
  /cf Tf def  /cs Tp def
} bd
/ULS {currentpoint /uy exch def /ux exch def} bd
/ULE {
  /Tcx currentpoint pop def
  gsave
  newpath
  cf findfont cs scalefont dup
  /FontMatrix get 0 get /Ts exch def /FontInfo get dup
  /UnderlinePosition get Ts mul /To exch def
  /UnderlineThickness get Ts mul /Tt exch def
  ux uy To add moveto  Tcx uy To add lineto
  Tt setlinewidth stroke
  grestore
} bd
/OLE {
  /Tcx currentpoint pop def
  gsave
  newpath
  cf findfont cs scalefont dup
  /FontMatrix get 0 get /Ts exch def /FontInfo get dup
  /UnderlinePosition get Ts mul /To exch def
  /UnderlineThickness get Ts mul /Tt exch def
  ux uy To add cs add moveto Tcx uy To add cs add lineto
  Tt setlinewidth stroke
  grestore
} bd
/SOE {
  /Tcx currentpoint pop def
  gsave
  newpath
  cf findfont cs scalefont dup
  /FontMatrix get 0 get /Ts exch def /FontInfo get dup
  /UnderlinePosition get Ts mul /To exch def
  /UnderlineThickness get Ts mul /Tt exch def
  ux uy To add cs 10 mul 26 idiv add moveto Tcx uy To add cs 10 mul 26 idiv add lineto
  Tt setlinewidth stroke
  grestore
} bd
/QT {
/Y22 exch store
/X22 exch store
/Y21 exch store
/X21 exch store
currentpoint
/Y21 load 2 mul add 3 div exch
/X21 load 2 mul add 3 div exch
/X21 load 2 mul /X22 load add 3 div
/Y21 load 2 mul /Y22 load add 3 div
/X22 load /Y22 load curveto
} bd
/SSPD {
dup length /d exch dict def
{
/v exch def
/k exch def
currentpagedevice k known {
/cpdv currentpagedevice k get def
v cpdv ne {
/upd false def
/nullv v type /nulltype eq def
/nullcpdv cpdv type /nulltype eq def
nullv nullcpdv or
{
/upd true def
} {
/sametype v type cpdv type eq def
sametype {
v type /arraytype eq {
/vlen v length def
/cpdvlen cpdv length def
vlen cpdvlen eq {
0 1 vlen 1 sub {
/i exch def
/obj v i get def
/cpdobj cpdv i get def
obj cpdobj ne {
/upd true def
exit
} if
} for
} {
/upd true def
} ifelse
} {
v type /dicttype eq {
v {
/dv exch def
/dk exch def
/cpddv cpdv dk get def
dv cpddv ne {
/upd true def
exit
} if
} forall
} {
/upd true def
} ifelse
} ifelse
} if
} ifelse
upd true eq {
d k v put
} if
} if
} if
} forall
d length 0 gt {
d setpagedevice
} if
} bd
%%EndResource
%%BeginResource: procset (Apache XML Graphics EPS ProcSet) 1.0 0
%%Version: 1.0 0
%%Copyright: (Copyright 2002-2003 The Apache Software Foundation. License terms: http://www.apache.org/licenses/LICENSE-2.0)
/BeginEPSF { %def
/b4_Inc_state save def         % Save state for cleanup
/dict_count countdictstack def % Count objects on dict stack
/op_count count 1 sub def      % Count objects on operand stack
userdict begin                 % Push userdict on dict stack
/showpage { } def              % Redefine showpage, { } = null proc
0 setgray 0 setlinecap         % Prepare graphics state
1 setlinewidth 0 setlinejoin
10 setmiterlimit [ ] 0 setdash newpath
/languagelevel where           % If level not equal to 1 then
{pop languagelevel             % set strokeadjust and
1 ne                           % overprint to their defaults.
{false setstrokeadjust false setoverprint
} if
} if
} bd
/EndEPSF { %def
count op_count sub {pop} repeat            % Clean up stacks
countdictstack dict_count sub {end} repeat
b4_Inc_state restore
} bd
%%EndResource
%%EndProlog
%%Page: 1 1
%%PageBoundingBox: 0 0 1000 350
%%BeginPageSetup
[1 0 0 -1 0 350] CT
%%EndPageSetup
GS
1 GC
N
0 0 1000 350 re
f
GR
GS
1 GC
N
0 0 1000 350 re
f
GR
GS
1 GC
N
130 289 M
905 289 L
905 26 L
130 26 L
cp
f
GR
GS
0.873 GC
1 LJ
0.5 LW
N
130 289 M
130 26 L
S
GR
GS
0.873 GC
1 LJ
0.5 LW
N
323.75 289 M
323.75 26 L
S
GR
GS
0.873 GC
1 LJ
0.5 LW
N
517.5 289 M
517.5 26 L
S
GR
GS
0.873 GC
1 LJ
0.5 LW
N
711.25 289 M
711.25 26 L
S
GR
GS
0.873 GC
1 LJ
0.5 LW
N
905 289 M
905 26 L
S
GR
GS
0.873 GC
1 LJ
0.5 LW
N
905 289 M
130 289 L
S
GR
GS
0.873 GC
1 LJ
0.5 LW
N
905 238.905 M
130 238.905 L
S
GR
GS
0.873 GC
1 LJ
0.5 LW
N
905 188.81 M
130 188.81 L
S
GR
GS
0.873 GC
1 LJ
0.5 LW
N
905 138.714 M
130 138.714 L
S
GR
GS
0.873 GC
1 LJ
0.5 LW
N
905 88.619 M
130 88.619 L
S
GR
GS
0.873 GC
1 LJ
0.5 LW
N
905 38.524 M
130 38.524 L
S
GR
GS
0.149 GC
2 setlinecap
1 LJ
0.5 LW
N
130 289 M
905 289 L
S
GR
GS
0.149 GC
2 setlinecap
1 LJ
0.5 LW
N
130 289 M
130 281.25 L
S
GR
GS
0.149 GC
2 setlinecap
1 LJ
0.5 LW
N
323.75 289 M
323.75 281.25 L
S
GR
GS
0.149 GC
2 setlinecap
1 LJ
0.5 LW
N
517.5 289 M
517.5 281.25 L
S
GR
GS
0.149 GC
2 setlinecap
1 LJ
0.5 LW
N
711.25 289 M
711.25 281.25 L
S
GR
GS
0.149 GC
2 setlinecap
1 LJ
0.5 LW
N
905 289 M
905 281.25 L
S
GR
GS
[1 0 0 1 130 295] CT
0.149 GC
N
-0.141 5.719 M
-1.672 5.719 -2.438 7.219 QT
-3.203 8.719 -3.203 11.719 QT
-3.203 14.719 -2.438 16.219 QT
-1.672 17.719 -0.141 17.719 QT
1.391 17.719 2.156 16.219 QT
2.922 14.719 2.922 11.719 QT
2.922 8.719 2.156 7.219 QT
1.391 5.719 -0.141 5.719 QT
cp
-0.141 4.156 M
2.313 4.156 3.602 6.094 QT
4.891 8.031 4.891 11.719 QT
4.891 15.406 3.602 17.344 QT
2.313 19.281 -0.141 19.281 QT
-2.594 19.281 -3.891 17.344 QT
-5.188 15.406 -5.188 11.719 QT
-5.188 8.031 -3.891 6.094 QT
-2.594 4.156 -0.141 4.156 QT
cp
f
GR
GS
[1 0 0 1 323.75 295] CT
0.149 GC
N
-9.641 5.719 M
-11.172 5.719 -11.938 7.219 QT
-12.703 8.719 -12.703 11.719 QT
-12.703 14.719 -11.938 16.219 QT
-11.172 17.719 -9.641 17.719 QT
-8.109 17.719 -7.344 16.219 QT
-6.578 14.719 -6.578 11.719 QT
-6.578 8.719 -7.344 7.219 QT
-8.109 5.719 -9.641 5.719 QT
cp
-9.641 4.156 M
-7.188 4.156 -5.898 6.094 QT
-4.609 8.031 -4.609 11.719 QT
-4.609 15.406 -5.898 17.344 QT
-7.188 19.281 -9.641 19.281 QT
-12.094 19.281 -13.391 17.344 QT
-14.688 15.406 -14.688 11.719 QT
-14.688 8.031 -13.391 6.094 QT
-12.094 4.156 -9.641 4.156 QT
cp
-1.135 16.516 M
0.928 16.516 L
0.928 19 L
-1.135 19 L
-1.135 16.516 L
cp
5.238 4.422 M
12.988 4.422 L
12.988 6.078 L
7.051 6.078 L
7.051 9.656 L
7.473 9.5 7.902 9.43 QT
8.332 9.359 8.77 9.359 QT
11.207 9.359 12.637 10.695 QT
14.066 12.031 14.066 14.328 QT
14.066 16.672 12.598 17.977 QT
11.129 19.281 8.457 19.281 QT
7.551 19.281 6.598 19.125 QT
5.645 18.969 4.629 18.656 QT
4.629 16.672 L
5.504 17.156 6.441 17.391 QT
7.379 17.625 8.426 17.625 QT
10.113 17.625 11.098 16.734 QT
12.082 15.844 12.082 14.328 QT
12.082 12.797 11.098 11.906 QT
10.113 11.016 8.426 11.016 QT
7.629 11.016 6.848 11.195 QT
6.066 11.375 5.238 11.75 QT
5.238 4.422 L
cp
f
GR
GS
[1 0 0 1 517.5 295] CT
0.149 GC
N
-4.016 17.344 M
-0.797 17.344 L
-0.797 6.219 L
-4.297 6.922 L
-4.297 5.125 L
-0.813 4.422 L
1.156 4.422 L
1.156 17.344 L
4.375 17.344 L
4.375 19 L
-4.016 19 L
-4.016 17.344 L
cp
f
GR
GS
[1 0 0 1 711.25 295] CT
0.149 GC
N
-13.516 17.344 M
-10.297 17.344 L
-10.297 6.219 L
-13.797 6.922 L
-13.797 5.125 L
-10.313 4.422 L
-8.344 4.422 L
-8.344 17.344 L
-5.125 17.344 L
-5.125 19 L
-13.516 19 L
-13.516 17.344 L
cp
-1.135 16.516 M
0.928 16.516 L
0.928 19 L
-1.135 19 L
-1.135 16.516 L
cp
5.238 4.422 M
12.988 4.422 L
12.988 6.078 L
7.051 6.078 L
7.051 9.656 L
7.473 9.5 7.902 9.43 QT
8.332 9.359 8.77 9.359 QT
11.207 9.359 12.637 10.695 QT
14.066 12.031 14.066 14.328 QT
14.066 16.672 12.598 17.977 QT
11.129 19.281 8.457 19.281 QT
7.551 19.281 6.598 19.125 QT
5.645 18.969 4.629 18.656 QT
4.629 16.672 L
5.504 17.156 6.441 17.391 QT
7.379 17.625 8.426 17.625 QT
10.113 17.625 11.098 16.734 QT
12.082 15.844 12.082 14.328 QT
12.082 12.797 11.098 11.906 QT
10.113 11.016 8.426 11.016 QT
7.629 11.016 6.848 11.195 QT
6.066 11.375 5.238 11.75 QT
5.238 4.422 L
cp
f
GR
GS
[1 0 0 1 905 295] CT
0.149 GC
N
-2.656 17.344 M
4.219 17.344 L
4.219 19 L
-5.031 19 L
-5.031 17.344 L
-3.906 16.172 -1.969 14.219 QT
-0.031 12.266 0.469 11.688 QT
1.406 10.625 1.781 9.891 QT
2.156 9.156 2.156 8.438 QT
2.156 7.281 1.344 6.547 QT
0.531 5.813 -0.781 5.813 QT
-1.703 5.813 -2.734 6.133 QT
-3.766 6.453 -4.938 7.109 QT
-4.938 5.125 L
-3.75 4.641 -2.711 4.398 QT
-1.672 4.156 -0.813 4.156 QT
1.453 4.156 2.797 5.289 QT
4.141 6.422 4.141 8.313 QT
4.141 9.219 3.805 10.023 QT
3.469 10.828 2.578 11.922 QT
2.344 12.203 1.031 13.555 QT
-0.281 14.906 -2.656 17.344 QT
cp
f
GR
GS
[1 0 0 1 517.50037 320] CT
0.149 GC
N
-14.25 9.328 M
-14.25 11.188 L
-15.094 10.766 -16 10.547 QT
-16.906 10.328 -17.859 10.328 QT
-19.344 10.328 -20.078 10.781 QT
-20.813 11.234 -20.813 12.141 QT
-20.813 12.828 -20.281 13.219 QT
-19.75 13.609 -18.172 13.969 QT
-17.484 14.109 L
-15.391 14.563 -14.5 15.383 QT
-13.609 16.203 -13.609 17.688 QT
-13.609 19.359 -14.938 20.336 QT
-16.266 21.313 -18.578 21.313 QT
-19.547 21.313 -20.594 21.125 QT
-21.641 20.938 -22.813 20.563 QT
-22.813 18.516 L
-21.719 19.094 -20.648 19.375 QT
-19.578 19.656 -18.547 19.656 QT
-17.141 19.656 -16.391 19.18 QT
-15.641 18.703 -15.641 17.828 QT
-15.641 17.031 -16.188 16.602 QT
-16.734 16.172 -18.563 15.766 QT
-19.25 15.609 L
-21.094 15.219 -21.906 14.422 QT
-22.719 13.625 -22.719 12.219 QT
-22.719 10.531 -21.516 9.602 QT
-20.313 8.672 -18.109 8.672 QT
-17 8.672 -16.039 8.836 QT
-15.078 9 -14.25 9.328 QT
cp
-8.507 5.547 M
-8.507 8.969 L
-4.444 8.969 L
-4.444 10.5 L
-8.507 10.5 L
-8.507 17.031 L
-8.507 18.5 -8.108 18.922 QT
-7.71 19.344 -6.476 19.344 QT
-4.444 19.344 L
-4.444 21 L
-6.476 21 L
-8.757 21 -9.624 20.148 QT
-10.491 19.297 -10.491 17.031 QT
-10.491 10.5 L
-11.944 10.5 L
-11.944 8.969 L
-10.491 8.969 L
-10.491 5.547 L
-8.507 5.547 L
cp
8.447 14.484 M
8.447 15.453 L
-0.631 15.453 L
-0.506 17.5 0.596 18.57 QT
1.697 19.641 3.666 19.641 QT
4.807 19.641 5.869 19.359 QT
6.932 19.078 7.994 18.516 QT
7.994 20.391 L
6.932 20.844 5.814 21.078 QT
4.697 21.313 3.541 21.313 QT
0.666 21.313 -1.014 19.633 QT
-2.693 17.953 -2.693 15.109 QT
-2.693 12.141 -1.1 10.406 QT
0.494 8.672 3.197 8.672 QT
5.635 8.672 7.041 10.234 QT
8.447 11.797 8.447 14.484 QT
cp
6.479 13.906 M
6.447 12.281 5.564 11.32 QT
4.682 10.359 3.229 10.359 QT
1.572 10.359 0.572 11.289 QT
-0.428 12.219 -0.568 13.922 QT
6.479 13.906 L
cp
13.607 19.188 M
13.607 25.578 L
11.623 25.578 L
11.623 8.969 L
13.607 8.969 L
13.607 10.797 L
14.232 9.719 15.186 9.195 QT
16.139 8.672 17.451 8.672 QT
19.639 8.672 21.014 10.414 QT
22.389 12.156 22.389 15 QT
22.389 17.828 21.014 19.57 QT
19.639 21.313 17.451 21.313 QT
16.139 21.313 15.186 20.789 QT
14.232 20.266 13.607 19.188 QT
cp
20.326 15 M
20.326 12.813 19.436 11.57 QT
18.545 10.328 16.967 10.328 QT
15.404 10.328 14.506 11.57 QT
13.607 12.813 13.607 15 QT
13.607 17.172 14.506 18.414 QT
15.404 19.656 16.967 19.656 QT
18.545 19.656 19.436 18.414 QT
20.326 17.172 20.326 15 QT
cp
f
GR
GS
[1 0 0 1 852 345] CT
0.149 GC
N
2.938 -0.578 M
2.938 -0.734 3.031 -0.859 QT
7.203 -5 L
3.031 -9.156 L
2.938 -9.266 2.938 -9.422 QT
2.938 -9.578 3.055 -9.703 QT
3.172 -9.828 3.344 -9.828 QT
3.484 -9.828 3.641 -9.703 QT
7.781 -5.563 L
11.906 -9.703 L
12.078 -9.828 12.203 -9.828 QT
12.359 -9.828 12.477 -9.711 QT
12.594 -9.594 12.594 -9.422 QT
12.594 -9.266 12.5 -9.156 QT
8.344 -5 L
12.5 -0.859 L
12.594 -0.734 12.594 -0.578 QT
12.594 -0.406 12.477 -0.289 QT
12.359 -0.172 12.203 -0.172 QT
12.047 -0.172 11.906 -0.328 QT
7.781 -4.438 L
3.641 -0.328 L
3.5 -0.172 3.344 -0.172 QT
3.172 -0.172 3.055 -0.305 QT
2.938 -0.438 2.938 -0.578 QT
cp
f
GR
GS
[1 0 0 1 868 345] CT
0.149 GC
N
2.484 -1.656 M
5.703 -1.656 L
5.703 -12.781 L
2.203 -12.078 L
2.203 -13.875 L
5.688 -14.578 L
7.656 -14.578 L
7.656 -1.656 L
10.875 -1.656 L
10.875 0 L
2.484 0 L
2.484 -1.656 L
cp
19.084 -13.281 M
17.553 -13.281 16.787 -11.781 QT
16.021 -10.281 16.021 -7.281 QT
16.021 -4.281 16.787 -2.781 QT
17.553 -1.281 19.084 -1.281 QT
20.615 -1.281 21.381 -2.781 QT
22.146 -4.281 22.146 -7.281 QT
22.146 -10.281 21.381 -11.781 QT
20.615 -13.281 19.084 -13.281 QT
cp
19.084 -14.844 M
21.537 -14.844 22.826 -12.906 QT
24.115 -10.969 24.115 -7.281 QT
24.115 -3.594 22.826 -1.656 QT
21.537 0.281 19.084 0.281 QT
16.631 0.281 15.334 -1.656 QT
14.037 -3.594 14.037 -7.281 QT
14.037 -10.969 15.334 -12.906 QT
16.631 -14.844 19.084 -14.844 QT
cp
f
GR
GS
[1 0 0 1 894 335] CT
0.149 GC
N
5.281 -6.469 M
4.219 -6.469 3.602 -5.742 QT
2.984 -5.016 2.984 -3.75 QT
2.984 -2.484 3.602 -1.758 QT
4.219 -1.031 5.281 -1.031 QT
6.344 -1.031 6.969 -1.758 QT
7.594 -2.484 7.594 -3.75 QT
7.594 -5.016 6.969 -5.742 QT
6.344 -6.469 5.281 -6.469 QT
cp
8.422 -11.406 M
8.422 -9.969 L
7.828 -10.25 7.219 -10.398 QT
6.609 -10.547 6.016 -10.547 QT
4.453 -10.547 3.633 -9.492 QT
2.813 -8.438 2.688 -6.313 QT
3.156 -6.984 3.852 -7.352 QT
4.547 -7.719 5.375 -7.719 QT
7.141 -7.719 8.156 -6.648 QT
9.172 -5.578 9.172 -3.75 QT
9.172 -1.953 8.109 -0.859 QT
7.047 0.234 5.281 0.234 QT
3.266 0.234 2.195 -1.32 QT
1.125 -2.875 1.125 -5.828 QT
1.125 -8.594 2.438 -10.234 QT
3.75 -11.875 5.953 -11.875 QT
6.547 -11.875 7.156 -11.758 QT
7.766 -11.641 8.422 -11.406 QT
cp
f
GR
GS
0.149 GC
2 setlinecap
1 LJ
0.5 LW
N
130 289 M
130 26 L
S
GR
GS
0.149 GC
2 setlinecap
1 LJ
0.5 LW
N
130 289 M
137.75 289 L
S
GR
GS
0.149 GC
2 setlinecap
1 LJ
0.5 LW
N
130 238.905 M
137.75 238.905 L
S
GR
GS
0.149 GC
2 setlinecap
1 LJ
0.5 LW
N
130 188.81 M
137.75 188.81 L
S
GR
GS
0.149 GC
2 setlinecap
1 LJ
0.5 LW
N
130 138.714 M
137.75 138.714 L
S
GR
GS
0.149 GC
2 setlinecap
1 LJ
0.5 LW
N
130 88.619 M
137.75 88.619 L
S
GR
GS
0.149 GC
2 setlinecap
1 LJ
0.5 LW
N
130 38.524 M
137.75 38.524 L
S
GR
GS
[1 0 0 1 124 289] CT
0.149 GC
N
-6.641 -6.281 M
-8.172 -6.281 -8.938 -4.781 QT
-9.703 -3.281 -9.703 -0.281 QT
-9.703 2.719 -8.938 4.219 QT
-8.172 5.719 -6.641 5.719 QT
-5.109 5.719 -4.344 4.219 QT
-3.578 2.719 -3.578 -0.281 QT
-3.578 -3.281 -4.344 -4.781 QT
-5.109 -6.281 -6.641 -6.281 QT
cp
-6.641 -7.844 M
-4.188 -7.844 -2.898 -5.906 QT
-1.609 -3.969 -1.609 -0.281 QT
-1.609 3.406 -2.898 5.344 QT
-4.188 7.281 -6.641 7.281 QT
-9.094 7.281 -10.391 5.344 QT
-11.688 3.406 -11.688 -0.281 QT
-11.688 -3.969 -10.391 -5.906 QT
-9.094 -7.844 -6.641 -7.844 QT
cp
f
GR
GS
[1 0 0 1 124 238.90475] CT
0.149 GC
N
-22.156 5.344 M
-15.281 5.344 L
-15.281 7 L
-24.531 7 L
-24.531 5.344 L
-23.406 4.172 -21.469 2.219 QT
-19.531 0.266 -19.031 -0.313 QT
-18.094 -1.375 -17.719 -2.109 QT
-17.344 -2.844 -17.344 -3.563 QT
-17.344 -4.719 -18.156 -5.453 QT
-18.969 -6.188 -20.281 -6.188 QT
-21.203 -6.188 -22.234 -5.867 QT
-23.266 -5.547 -24.438 -4.891 QT
-24.438 -6.875 L
-23.25 -7.359 -22.211 -7.602 QT
-21.172 -7.844 -20.313 -7.844 QT
-18.047 -7.844 -16.703 -6.711 QT
-15.359 -5.578 -15.359 -3.688 QT
-15.359 -2.781 -15.695 -1.977 QT
-16.031 -1.172 -16.922 -0.078 QT
-17.156 0.203 -18.469 1.555 QT
-19.781 2.906 -22.156 5.344 QT
cp
-6.916 -6.281 M
-8.447 -6.281 -9.213 -4.781 QT
-9.979 -3.281 -9.979 -0.281 QT
-9.979 2.719 -9.213 4.219 QT
-8.447 5.719 -6.916 5.719 QT
-5.385 5.719 -4.619 4.219 QT
-3.854 2.719 -3.854 -0.281 QT
-3.854 -3.281 -4.619 -4.781 QT
-5.385 -6.281 -6.916 -6.281 QT
cp
-6.916 -7.844 M
-4.463 -7.844 -3.174 -5.906 QT
-1.885 -3.969 -1.885 -0.281 QT
-1.885 3.406 -3.174 5.344 QT
-4.463 7.281 -6.916 7.281 QT
-9.369 7.281 -10.666 5.344 QT
-11.963 3.406 -11.963 -0.281 QT
-11.963 -3.969 -10.666 -5.906 QT
-9.369 -7.844 -6.916 -7.844 QT
cp
f
GR
GS
[1 0 0 1 124 188.80952] CT
0.149 GC
N
-18.438 -5.859 M
-23.422 1.922 L
-18.438 1.922 L
-18.438 -5.859 L
cp
-18.953 -7.578 M
-16.484 -7.578 L
-16.484 1.922 L
-14.391 1.922 L
-14.391 3.563 L
-16.484 3.563 L
-16.484 7 L
-18.438 7 L
-18.438 3.563 L
-25.016 3.563 L
-25.016 1.656 L
-18.953 -7.578 L
cp
-6.916 -6.281 M
-8.447 -6.281 -9.213 -4.781 QT
-9.979 -3.281 -9.979 -0.281 QT
-9.979 2.719 -9.213 4.219 QT
-8.447 5.719 -6.916 5.719 QT
-5.385 5.719 -4.619 4.219 QT
-3.854 2.719 -3.854 -0.281 QT
-3.854 -3.281 -4.619 -4.781 QT
-5.385 -6.281 -6.916 -6.281 QT
cp
-6.916 -7.844 M
-4.463 -7.844 -3.174 -5.906 QT
-1.885 -3.969 -1.885 -0.281 QT
-1.885 3.406 -3.174 5.344 QT
-4.463 7.281 -6.916 7.281 QT
-9.369 7.281 -10.666 5.344 QT
-11.963 3.406 -11.963 -0.281 QT
-11.963 -3.969 -10.666 -5.906 QT
-9.369 -7.844 -6.916 -7.844 QT
cp
f
GR
GS
[1 0 0 1 124 138.71428] CT
0.149 GC
N
-19.391 -1.078 M
-20.719 -1.078 -21.5 -0.172 QT
-22.281 0.734 -22.281 2.328 QT
-22.281 3.891 -21.5 4.805 QT
-20.719 5.719 -19.391 5.719 QT
-18.063 5.719 -17.289 4.805 QT
-16.516 3.891 -16.516 2.328 QT
-16.516 0.734 -17.289 -0.172 QT
-18.063 -1.078 -19.391 -1.078 QT
cp
-15.484 -7.266 M
-15.484 -5.469 L
-16.219 -5.813 -16.977 -6 QT
-17.734 -6.188 -18.484 -6.188 QT
-20.438 -6.188 -21.469 -4.867 QT
-22.5 -3.547 -22.641 -0.875 QT
-22.063 -1.734 -21.195 -2.188 QT
-20.328 -2.641 -19.281 -2.641 QT
-17.078 -2.641 -15.805 -1.305 QT
-14.531 0.031 -14.531 2.328 QT
-14.531 4.563 -15.859 5.922 QT
-17.188 7.281 -19.391 7.281 QT
-21.922 7.281 -23.266 5.344 QT
-24.609 3.406 -24.609 -0.281 QT
-24.609 -3.734 -22.969 -5.789 QT
-21.328 -7.844 -18.563 -7.844 QT
-17.813 -7.844 -17.055 -7.695 QT
-16.297 -7.547 -15.484 -7.266 QT
cp
-6.916 -6.281 M
-8.447 -6.281 -9.213 -4.781 QT
-9.979 -3.281 -9.979 -0.281 QT
-9.979 2.719 -9.213 4.219 QT
-8.447 5.719 -6.916 5.719 QT
-5.385 5.719 -4.619 4.219 QT
-3.854 2.719 -3.854 -0.281 QT
-3.854 -3.281 -4.619 -4.781 QT
-5.385 -6.281 -6.916 -6.281 QT
cp
-6.916 -7.844 M
-4.463 -7.844 -3.174 -5.906 QT
-1.885 -3.969 -1.885 -0.281 QT
-1.885 3.406 -3.174 5.344 QT
-4.463 7.281 -6.916 7.281 QT
-9.369 7.281 -10.666 5.344 QT
-11.963 3.406 -11.963 -0.281 QT
-11.963 -3.969 -10.666 -5.906 QT
-9.369 -7.844 -6.916 -7.844 QT
cp
f
GR
GS
[1 0 0 1 124 88.61905] CT
0.149 GC
N
-19.641 0.078 M
-21.047 0.078 -21.852 0.828 QT
-22.656 1.578 -22.656 2.891 QT
-22.656 4.219 -21.852 4.969 QT
-21.047 5.719 -19.641 5.719 QT
-18.234 5.719 -17.422 4.961 QT
-16.609 4.203 -16.609 2.891 QT
-16.609 1.578 -17.414 0.828 QT
-18.219 0.078 -19.641 0.078 QT
cp
-21.609 -0.766 M
-22.891 -1.078 -23.594 -1.945 QT
-24.297 -2.813 -24.297 -4.063 QT
-24.297 -5.813 -23.055 -6.828 QT
-21.813 -7.844 -19.641 -7.844 QT
-17.469 -7.844 -16.227 -6.828 QT
-14.984 -5.813 -14.984 -4.063 QT
-14.984 -2.813 -15.695 -1.945 QT
-16.406 -1.078 -17.656 -0.766 QT
-16.234 -0.438 -15.438 0.531 QT
-14.641 1.5 -14.641 2.891 QT
-14.641 5.016 -15.938 6.148 QT
-17.234 7.281 -19.641 7.281 QT
-22.047 7.281 -23.344 6.148 QT
-24.641 5.016 -24.641 2.891 QT
-24.641 1.5 -23.844 0.531 QT
-23.047 -0.438 -21.609 -0.766 QT
cp
-22.344 -3.875 M
-22.344 -2.75 -21.633 -2.117 QT
-20.922 -1.484 -19.641 -1.484 QT
-18.375 -1.484 -17.656 -2.117 QT
-16.938 -2.75 -16.938 -3.875 QT
-16.938 -5.016 -17.656 -5.648 QT
-18.375 -6.281 -19.641 -6.281 QT
-20.922 -6.281 -21.633 -5.648 QT
-22.344 -5.016 -22.344 -3.875 QT
cp
-6.916 -6.281 M
-8.447 -6.281 -9.213 -4.781 QT
-9.979 -3.281 -9.979 -0.281 QT
-9.979 2.719 -9.213 4.219 QT
-8.447 5.719 -6.916 5.719 QT
-5.385 5.719 -4.619 4.219 QT
-3.854 2.719 -3.854 -0.281 QT
-3.854 -3.281 -4.619 -4.781 QT
-5.385 -6.281 -6.916 -6.281 QT
cp
-6.916 -7.844 M
-4.463 -7.844 -3.174 -5.906 QT
-1.885 -3.969 -1.885 -0.281 QT
-1.885 3.406 -3.174 5.344 QT
-4.463 7.281 -6.916 7.281 QT
-9.369 7.281 -10.666 5.344 QT
-11.963 3.406 -11.963 -0.281 QT
-11.963 -3.969 -10.666 -5.906 QT
-9.369 -7.844 -6.916 -7.844 QT
cp
f
GR
GS
[1 0 0 1 124 38.52381] CT
0.149 GC
N
-36.516 5.344 M
-33.297 5.344 L
-33.297 -5.781 L
-36.797 -5.078 L
-36.797 -6.875 L
-33.313 -7.578 L
-31.344 -7.578 L
-31.344 5.344 L
-28.125 5.344 L
-28.125 7 L
-36.516 7 L
-36.516 5.344 L
cp
-19.916 -6.281 M
-21.447 -6.281 -22.213 -4.781 QT
-22.979 -3.281 -22.979 -0.281 QT
-22.979 2.719 -22.213 4.219 QT
-21.447 5.719 -19.916 5.719 QT
-18.385 5.719 -17.619 4.219 QT
-16.854 2.719 -16.854 -0.281 QT
-16.854 -3.281 -17.619 -4.781 QT
-18.385 -6.281 -19.916 -6.281 QT
cp
-19.916 -7.844 M
-17.463 -7.844 -16.174 -5.906 QT
-14.885 -3.969 -14.885 -0.281 QT
-14.885 3.406 -16.174 5.344 QT
-17.463 7.281 -19.916 7.281 QT
-22.369 7.281 -23.666 5.344 QT
-24.963 3.406 -24.963 -0.281 QT
-24.963 -3.969 -23.666 -5.906 QT
-22.369 -7.844 -19.916 -7.844 QT
cp
-7.191 -6.281 M
-8.723 -6.281 -9.488 -4.781 QT
-10.254 -3.281 -10.254 -0.281 QT
-10.254 2.719 -9.488 4.219 QT
-8.723 5.719 -7.191 5.719 QT
-5.66 5.719 -4.895 4.219 QT
-4.129 2.719 -4.129 -0.281 QT
-4.129 -3.281 -4.895 -4.781 QT
-5.66 -6.281 -7.191 -6.281 QT
cp
-7.191 -7.844 M
-4.738 -7.844 -3.449 -5.906 QT
-2.16 -3.969 -2.16 -0.281 QT
-2.16 3.406 -3.449 5.344 QT
-4.738 7.281 -7.191 7.281 QT
-9.645 7.281 -10.941 5.344 QT
-12.238 3.406 -12.238 -0.281 QT
-12.238 -3.969 -10.941 -5.906 QT
-9.645 -7.844 -7.191 -7.844 QT
cp
f
GR
GS
[0 -1 1 0 82 157.49988] CT
0.149 GC
N
-113.063 -22.031 M
-99.5 -22.031 L
-99.5 -20.219 L
-105.188 -20.219 L
-105.188 -6 L
-107.375 -6 L
-107.375 -20.219 L
-113.063 -20.219 L
-113.063 -22.031 L
cp
-92.015 -12.047 M
-94.421 -12.047 -95.343 -11.5 QT
-96.265 -10.953 -96.265 -9.625 QT
-96.265 -8.578 -95.569 -7.961 QT
-94.874 -7.344 -93.687 -7.344 QT
-92.046 -7.344 -91.054 -8.508 QT
-90.062 -9.672 -90.062 -11.609 QT
-90.062 -12.047 L
-92.015 -12.047 L
cp
-88.077 -12.859 M
-88.077 -6 L
-90.062 -6 L
-90.062 -7.828 L
-90.733 -6.734 -91.741 -6.211 QT
-92.749 -5.688 -94.218 -5.688 QT
-96.062 -5.688 -97.147 -6.727 QT
-98.233 -7.766 -98.233 -9.5 QT
-98.233 -11.531 -96.874 -12.563 QT
-95.515 -13.594 -92.827 -13.594 QT
-90.062 -13.594 L
-90.062 -13.781 L
-90.062 -15.156 -90.952 -15.898 QT
-91.843 -16.641 -93.468 -16.641 QT
-94.499 -16.641 -95.476 -16.398 QT
-96.452 -16.156 -97.358 -15.656 QT
-97.358 -17.484 L
-96.28 -17.906 -95.257 -18.117 QT
-94.233 -18.328 -93.265 -18.328 QT
-90.655 -18.328 -89.366 -16.969 QT
-88.077 -15.609 -88.077 -12.859 QT
cp
-77.033 -16.188 M
-77.361 -16.375 -77.76 -16.469 QT
-78.158 -16.563 -78.627 -16.563 QT
-80.299 -16.563 -81.197 -15.469 QT
-82.096 -14.375 -82.096 -12.344 QT
-82.096 -6 L
-84.08 -6 L
-84.08 -18.031 L
-82.096 -18.031 L
-82.096 -16.156 L
-81.471 -17.266 -80.471 -17.797 QT
-79.471 -18.328 -78.049 -18.328 QT
-77.846 -18.328 -77.596 -18.297 QT
-77.346 -18.266 -77.049 -18.219 QT
-77.033 -16.188 L
cp
-67.051 -12.156 M
-67.051 -14.297 -67.934 -15.484 QT
-68.816 -16.672 -70.41 -16.672 QT
-72.004 -16.672 -72.895 -15.484 QT
-73.785 -14.297 -73.785 -12.156 QT
-73.785 -10.016 -72.895 -8.836 QT
-72.004 -7.656 -70.41 -7.656 QT
-68.816 -7.656 -67.934 -8.836 QT
-67.051 -10.016 -67.051 -12.156 QT
cp
-65.066 -7.5 M
-65.066 -4.422 -66.434 -2.922 QT
-67.801 -1.422 -70.613 -1.422 QT
-71.66 -1.422 -72.582 -1.578 QT
-73.504 -1.734 -74.363 -2.063 QT
-74.363 -3.984 L
-73.504 -3.5 -72.652 -3.281 QT
-71.801 -3.063 -70.926 -3.063 QT
-68.973 -3.063 -68.012 -4.078 QT
-67.051 -5.094 -67.051 -7.141 QT
-67.051 -8.109 L
-67.66 -7.047 -68.613 -6.523 QT
-69.566 -6 -70.895 -6 QT
-73.113 -6 -74.465 -7.688 QT
-75.816 -9.375 -75.816 -12.156 QT
-75.816 -14.953 -74.465 -16.641 QT
-73.113 -18.328 -70.895 -18.328 QT
-69.566 -18.328 -68.613 -17.797 QT
-67.66 -17.266 -67.051 -16.203 QT
-67.051 -18.031 L
-65.066 -18.031 L
-65.066 -7.5 L
cp
-50.711 -12.516 M
-50.711 -11.547 L
-59.789 -11.547 L
-59.664 -9.5 -58.563 -8.43 QT
-57.461 -7.359 -55.492 -7.359 QT
-54.352 -7.359 -53.289 -7.641 QT
-52.227 -7.922 -51.164 -8.484 QT
-51.164 -6.609 L
-52.227 -6.156 -53.344 -5.922 QT
-54.461 -5.688 -55.617 -5.688 QT
-58.492 -5.688 -60.172 -7.367 QT
-61.852 -9.047 -61.852 -11.891 QT
-61.852 -14.859 -60.258 -16.594 QT
-58.664 -18.328 -55.961 -18.328 QT
-53.523 -18.328 -52.117 -16.766 QT
-50.711 -15.203 -50.711 -12.516 QT
cp
-52.68 -13.094 M
-52.711 -14.719 -53.594 -15.68 QT
-54.477 -16.641 -55.93 -16.641 QT
-57.586 -16.641 -58.586 -15.711 QT
-59.586 -14.781 -59.727 -13.078 QT
-52.68 -13.094 L
cp
-45.504 -21.453 M
-45.504 -18.031 L
-41.441 -18.031 L
-41.441 -16.5 L
-45.504 -16.5 L
-45.504 -9.969 L
-45.504 -8.5 -45.105 -8.078 QT
-44.707 -7.656 -43.473 -7.656 QT
-41.441 -7.656 L
-41.441 -6 L
-43.473 -6 L
-45.754 -6 -46.621 -6.852 QT
-47.488 -7.703 -47.488 -9.969 QT
-47.488 -16.5 L
-48.941 -16.5 L
-48.941 -18.031 L
-47.488 -18.031 L
-47.488 -21.453 L
-45.504 -21.453 L
cp
-31.159 -17.672 M
-31.159 -15.813 L
-32.003 -16.234 -32.909 -16.453 QT
-33.815 -16.672 -34.769 -16.672 QT
-36.253 -16.672 -36.987 -16.219 QT
-37.722 -15.766 -37.722 -14.859 QT
-37.722 -14.172 -37.19 -13.781 QT
-36.659 -13.391 -35.081 -13.031 QT
-34.394 -12.891 L
-32.3 -12.438 -31.409 -11.617 QT
-30.519 -10.797 -30.519 -9.313 QT
-30.519 -7.641 -31.847 -6.664 QT
-33.175 -5.688 -35.487 -5.688 QT
-36.456 -5.688 -37.503 -5.875 QT
-38.55 -6.063 -39.722 -6.438 QT
-39.722 -8.484 L
-38.628 -7.906 -37.558 -7.625 QT
-36.487 -7.344 -35.456 -7.344 QT
-34.05 -7.344 -33.3 -7.82 QT
-32.55 -8.297 -32.55 -9.172 QT
-32.55 -9.969 -33.097 -10.398 QT
-33.644 -10.828 -35.472 -11.234 QT
-36.159 -11.391 L
-38.003 -11.781 -38.815 -12.578 QT
-39.628 -13.375 -39.628 -14.781 QT
-39.628 -16.469 -38.425 -17.398 QT
-37.222 -18.328 -35.019 -18.328 QT
-33.909 -18.328 -32.948 -18.164 QT
-31.987 -18 -31.159 -17.672 QT
cp
-13.407 -16.188 M
-13.735 -16.375 -14.134 -16.469 QT
-14.532 -16.563 -15.001 -16.563 QT
-16.673 -16.563 -17.571 -15.469 QT
-18.47 -14.375 -18.47 -12.344 QT
-18.47 -6 L
-20.454 -6 L
-20.454 -18.031 L
-18.47 -18.031 L
-18.47 -16.156 L
-17.845 -17.266 -16.845 -17.797 QT
-15.845 -18.328 -14.423 -18.328 QT
-14.22 -18.328 -13.97 -18.297 QT
-13.72 -18.266 -13.423 -18.219 QT
-13.407 -16.188 L
cp
-1.05 -12.516 M
-1.05 -11.547 L
-10.128 -11.547 L
-10.003 -9.5 -8.901 -8.43 QT
-7.8 -7.359 -5.831 -7.359 QT
-4.69 -7.359 -3.628 -7.641 QT
-2.565 -7.922 -1.503 -8.484 QT
-1.503 -6.609 L
-2.565 -6.156 -3.683 -5.922 QT
-4.8 -5.688 -5.956 -5.688 QT
-8.831 -5.688 -10.511 -7.367 QT
-12.19 -9.047 -12.19 -11.891 QT
-12.19 -14.859 -10.597 -16.594 QT
-9.003 -18.328 -6.3 -18.328 QT
-3.862 -18.328 -2.456 -16.766 QT
-1.05 -15.203 -1.05 -12.516 QT
cp
-3.019 -13.094 M
-3.05 -14.719 -3.933 -15.68 QT
-4.815 -16.641 -6.269 -16.641 QT
-7.925 -16.641 -8.925 -15.711 QT
-9.925 -14.781 -10.065 -13.078 QT
-3.019 -13.094 L
cp
7.673 -12.047 M
5.267 -12.047 4.345 -11.5 QT
3.423 -10.953 3.423 -9.625 QT
3.423 -8.578 4.118 -7.961 QT
4.813 -7.344 6.001 -7.344 QT
7.642 -7.344 8.634 -8.508 QT
9.626 -9.672 9.626 -11.609 QT
9.626 -12.047 L
7.673 -12.047 L
cp
11.61 -12.859 M
11.61 -6 L
9.626 -6 L
9.626 -7.828 L
8.954 -6.734 7.946 -6.211 QT
6.938 -5.688 5.47 -5.688 QT
3.626 -5.688 2.54 -6.727 QT
1.454 -7.766 1.454 -9.5 QT
1.454 -11.531 2.813 -12.563 QT
4.173 -13.594 6.86 -13.594 QT
9.626 -13.594 L
9.626 -13.781 L
9.626 -15.156 8.735 -15.898 QT
7.845 -16.641 6.22 -16.641 QT
5.188 -16.641 4.212 -16.398 QT
3.235 -16.156 2.329 -15.656 QT
2.329 -17.484 L
3.407 -17.906 4.431 -18.117 QT
5.454 -18.328 6.423 -18.328 QT
9.032 -18.328 10.321 -16.969 QT
11.61 -15.609 11.61 -12.859 QT
cp
24.342 -17.563 M
24.342 -15.719 L
23.498 -16.188 22.654 -16.414 QT
21.811 -16.641 20.951 -16.641 QT
19.029 -16.641 17.967 -15.422 QT
16.904 -14.203 16.904 -12 QT
16.904 -9.797 17.967 -8.578 QT
19.029 -7.359 20.951 -7.359 QT
21.811 -7.359 22.654 -7.594 QT
23.498 -7.828 24.342 -8.281 QT
24.342 -6.469 L
23.514 -6.078 22.623 -5.883 QT
21.732 -5.688 20.748 -5.688 QT
18.029 -5.688 16.428 -7.398 QT
14.826 -9.109 14.826 -12 QT
14.826 -14.953 16.443 -16.641 QT
18.061 -18.328 20.873 -18.328 QT
21.779 -18.328 22.654 -18.141 QT
23.529 -17.953 24.342 -17.563 QT
cp
37.781 -13.266 M
37.781 -6 L
35.797 -6 L
35.797 -13.203 L
35.797 -14.906 35.133 -15.758 QT
34.469 -16.609 33.141 -16.609 QT
31.531 -16.609 30.609 -15.586 QT
29.688 -14.563 29.688 -12.797 QT
29.688 -6 L
27.703 -6 L
27.703 -22.719 L
29.688 -22.719 L
29.688 -16.156 L
30.391 -17.25 31.359 -17.789 QT
32.328 -18.328 33.578 -18.328 QT
35.656 -18.328 36.719 -17.039 QT
37.781 -15.75 37.781 -13.266 QT
cp
52.006 -12.516 M
52.006 -11.547 L
42.928 -11.547 L
43.053 -9.5 44.154 -8.43 QT
45.256 -7.359 47.225 -7.359 QT
48.365 -7.359 49.428 -7.641 QT
50.49 -7.922 51.553 -8.484 QT
51.553 -6.609 L
50.49 -6.156 49.373 -5.922 QT
48.256 -5.688 47.1 -5.688 QT
44.225 -5.688 42.545 -7.367 QT
40.865 -9.047 40.865 -11.891 QT
40.865 -14.859 42.459 -16.594 QT
44.053 -18.328 46.756 -18.328 QT
49.193 -18.328 50.6 -16.766 QT
52.006 -15.203 52.006 -12.516 QT
cp
50.037 -13.094 M
50.006 -14.719 49.123 -15.68 QT
48.24 -16.641 46.787 -16.641 QT
45.131 -16.641 44.131 -15.711 QT
43.131 -14.781 42.99 -13.078 QT
50.037 -13.094 L
cp
63.166 -16.203 M
63.166 -22.719 L
65.15 -22.719 L
65.15 -6 L
63.166 -6 L
63.166 -7.813 L
62.557 -6.734 61.604 -6.211 QT
60.65 -5.688 59.322 -5.688 QT
57.135 -5.688 55.768 -7.43 QT
54.4 -9.172 54.4 -12 QT
54.4 -14.844 55.768 -16.586 QT
57.135 -18.328 59.322 -18.328 QT
60.65 -18.328 61.604 -17.805 QT
62.557 -17.281 63.166 -16.203 QT
cp
56.432 -12 M
56.432 -9.828 57.33 -8.586 QT
58.229 -7.344 59.807 -7.344 QT
61.369 -7.344 62.268 -8.586 QT
63.166 -9.828 63.166 -12 QT
63.166 -14.188 62.268 -15.43 QT
61.369 -16.672 59.807 -16.672 QT
58.229 -16.672 57.33 -15.43 QT
56.432 -14.188 56.432 -12 QT
cp
76.03 -22.719 M
80.593 -22.719 L
80.593 -21.172 L
78.015 -21.172 L
78.015 -4.641 L
80.593 -4.641 L
80.593 -3.094 L
76.03 -3.094 L
76.03 -22.719 L
cp
98.723 -13.063 M
97.785 -13.063 97.254 -12.266 QT
96.723 -11.469 96.723 -10.047 QT
96.723 -8.656 97.254 -7.852 QT
97.785 -7.047 98.723 -7.047 QT
99.629 -7.047 100.16 -7.852 QT
100.691 -8.656 100.691 -10.047 QT
100.691 -11.453 100.16 -12.258 QT
99.629 -13.063 98.723 -13.063 QT
cp
98.723 -14.422 M
100.41 -14.422 101.41 -13.242 QT
102.41 -12.063 102.41 -10.047 QT
102.41 -8.047 101.41 -6.867 QT
100.41 -5.688 98.723 -5.688 QT
97.004 -5.688 96.004 -6.867 QT
95.004 -8.047 95.004 -10.047 QT
95.004 -12.063 96.004 -13.242 QT
97.004 -14.422 98.723 -14.422 QT
cp
87.629 -20.969 M
86.707 -20.969 86.176 -20.164 QT
85.645 -19.359 85.645 -17.969 QT
85.645 -16.547 86.168 -15.75 QT
86.691 -14.953 87.629 -14.953 QT
88.566 -14.953 89.098 -15.75 QT
89.629 -16.547 89.629 -17.969 QT
89.629 -19.359 89.09 -20.164 QT
88.551 -20.969 87.629 -20.969 QT
cp
97.332 -22.328 M
99.051 -22.328 L
89.02 -5.688 L
87.301 -5.688 L
97.332 -22.328 L
cp
87.629 -22.328 M
89.332 -22.328 90.34 -21.148 QT
91.348 -19.969 91.348 -17.969 QT
91.348 -15.938 90.348 -14.766 QT
89.348 -13.594 87.629 -13.594 QT
85.926 -13.594 84.934 -14.773 QT
83.941 -15.953 83.941 -17.969 QT
83.941 -19.969 84.941 -21.148 QT
85.941 -22.328 87.629 -22.328 QT
cp
110.314 -22.719 M
110.314 -3.094 L
105.768 -3.094 L
105.768 -4.641 L
108.33 -4.641 L
108.33 -21.172 L
105.768 -21.172 L
105.768 -22.719 L
110.314 -22.719 L
cp
f
GR
GS
0 0.447 0.741 RC
1 LJ
0.5 LW
N
169.525 108.101 M
169.913 74.306 L
170.3 85.488 L
170.688 82.725 L
171.075 177.677 L
171.462 226.381 L
171.85 96.326 L
172.238 67.992 L
172.625 138.714 L
173.012 129.606 L
173.4 113.667 L
173.788 115.593 L
174.175 91.256 L
174.563 122.016 L
174.95 106.836 L
175.337 63.571 L
175.725 71.921 L
176.113 177.677 L
176.5 67.992 L
176.887 82.085 L
177.275 138.714 L
177.663 91.256 L
178.05 74.306 L
178.438 74.306 L
178.825 101.143 L
179.212 64.89 L
179.6 91.256 L
179.988 72.68 L
180.375 38.524 L
180.762 45.481 L
181.15 45.481 L
181.538 82.085 L
181.925 59.397 L
182.313 44.786 L
182.7 48.96 L
183.087 55.222 L
183.475 55.798 L
183.863 38.524 L
184.25 66.355 L
184.637 47.161 L
185.025 38.524 L
185.413 46.351 L
185.8 38.524 L
186.188 38.524 L
186.575 38.524 L
186.962 38.524 L
187.35 38.524 L
187.738 38.524 L
188.125 38.524 L
188.512 38.524 L
188.9 38.524 L
189.288 38.524 L
189.675 38.524 L
190.063 38.524 L
190.45 38.524 L
190.837 38.524 L
191.225 38.524 L
191.613 38.524 L
192 38.524 L
192.387 38.524 L
192.775 38.524 L
193.163 38.524 L
193.55 38.524 L
193.938 38.524 L
194.325 46.604 L
194.712 38.524 L
195.1 38.524 L
195.488 46.873 L
195.875 38.524 L
196.262 38.524 L
196.65 48.96 L
197.038 38.524 L
197.425 47.469 L
197.813 38.524 L
198.2 38.524 L
198.587 38.524 L
198.975 38.524 L
199.363 38.524 L
199.75 38.524 L
200.137 38.524 L
200.525 38.524 L
200.913 38.524 L
201.3 38.524 L
201.688 38.524 L
202.075 38.524 L
202.462 38.524 L
202.85 38.524 L
203.238 38.524 L
203.625 38.524 L
204.012 38.524 L
204.4 38.524 L
204.788 38.524 L
205.175 38.524 L
205.563 46.351 L
205.95 38.524 L
206.337 38.524 L
206.725 48.158 L
207.113 38.524 L
207.5 38.524 L
207.887 38.524 L
208.275 47.801 L
208.663 38.524 L
209.05 38.524 L
209.438 38.524 L
209.825 38.524 L
210.212 38.524 L
210.6 38.524 L
210.988 38.524 L
211.375 38.524 L
211.762 49.414 L
212.15 38.524 L
212.538 38.524 L
212.925 38.524 L
213.313 38.524 L
213.7 38.524 L
214.087 38.524 L
214.475 38.524 L
214.863 38.524 L
215.25 38.524 L
215.637 38.524 L
216.025 49.909 L
216.413 38.524 L
216.8 50.451 L
217.188 38.524 L
217.575 38.524 L
217.962 38.524 L
218.35 38.524 L
218.738 38.524 L
219.125 38.524 L
219.512 38.524 L
219.9 38.524 L
220.288 38.524 L
220.675 38.524 L
221.063 38.524 L
221.45 38.524 L
221.837 38.524 L
222.225 46.873 L
222.613 38.524 L
223 38.524 L
223.387 38.524 L
223.775 38.524 L
224.163 38.524 L
224.55 38.524 L
224.938 38.524 L
225.325 46.873 L
225.712 49.414 L
226.1 38.524 L
226.488 47.161 L
226.875 61.294 L
227.262 38.524 L
227.65 38.524 L
228.038 49.414 L
228.425 47.801 L
228.813 47.801 L
229.2 38.524 L
229.587 38.524 L
229.975 38.524 L
230.363 52.439 L
230.75 38.524 L
231.137 38.524 L
231.525 47.801 L
231.913 38.524 L
232.3 38.524 L
232.688 38.524 L
233.075 55.222 L
233.462 38.524 L
233.85 38.524 L
234.238 49.414 L
234.625 38.524 L
235.012 38.524 L
235.4 51.048 L
235.788 38.524 L
236.175 38.524 L
236.563 38.524 L
236.95 51.048 L
237.337 47.161 L
237.725 38.524 L
238.113 50.451 L
238.5 38.524 L
238.887 38.524 L
239.275 38.524 L
239.663 38.524 L
240.05 63.571 L
240.438 51.048 L
240.825 38.524 L
241.212 49.909 L
241.6 66.355 L
241.988 51.048 L
242.375 38.524 L
242.762 49.909 L
243.15 62.379 L
243.538 38.524 L
243.925 50.451 L
244.313 38.524 L
244.7 38.524 L
245.087 51.707 L
245.475 48.96 L
245.863 38.524 L
246.25 38.524 L
246.637 38.524 L
247.025 51.048 L
247.413 52.439 L
247.8 51.707 L
248.188 66.355 L
248.575 38.524 L
248.962 38.524 L
249.35 38.524 L
249.738 51.707 L
250.125 51.707 L
250.512 52.439 L
250.9 54.179 L
251.288 38.524 L
251.675 67.992 L
252.063 38.524 L
252.45 52.439 L
252.837 48.96 L
253.225 56.415 L
253.613 38.524 L
254 47.469 L
254.387 38.524 L
254.775 55.222 L
255.163 55.222 L
255.55 55.222 L
255.938 38.524 L
256.325 55.222 L
256.712 38.524 L
257.1 53.258 L
257.487 88.619 L
257.875 106.836 L
258.263 84.065 L
258.65 38.524 L
259.038 38.524 L
259.425 54.179 L
259.813 54.179 L
260.2 56.415 L
260.587 69.833 L
260.975 88.619 L
261.362 71.921 L
261.75 71.921 L
262.138 52.439 L
262.525 85.488 L
262.913 50.451 L
263.3 50.451 L
263.688 71.921 L
264.075 38.524 L
264.462 76.095 L
264.85 71.921 L
265.237 51.048 L
265.625 57.791 L
266.013 64.89 L
266.4 38.524 L
266.788 64.89 L
267.175 50.451 L
267.563 69.833 L
267.95 88.619 L
268.337 69.833 L
268.725 51.048 L
269.112 38.524 L
269.5 38.524 L
269.888 38.524 L
270.275 76.095 L
270.663 110.088 L
271.05 74.306 L
271.438 101.143 L
271.825 74.306 L
272.212 55.222 L
272.6 71.921 L
272.987 64.89 L
273.375 92.197 L
273.763 106.836 L
274.15 55.222 L
274.538 67.992 L
274.925 92.197 L
275.313 88.619 L
275.7 38.524 L
276.087 69.833 L
276.475 67.992 L
276.862 53.258 L
277.25 110.088 L
277.638 38.524 L
278.025 50.451 L
278.413 52.439 L
278.8 69.833 L
279.188 101.143 L
279.575 76.095 L
279.962 122.016 L
280.35 56.415 L
280.737 122.016 L
281.125 88.619 L
281.513 88.619 L
281.9 110.088 L
282.288 55.222 L
282.675 101.143 L
283.063 80.27 L
283.45 71.921 L
283.837 69.833 L
284.225 80.27 L
284.612 92.197 L
285 74.306 L
285.388 138.714 L
285.775 96.326 L
286.163 101.143 L
286.55 134.861 L
286.938 92.197 L
287.325 88.619 L
287.712 106.836 L
288.1 96.326 L
288.487 122.016 L
288.875 51.707 L
289.263 149.847 L
289.65 80.27 L
290.038 74.306 L
290.425 85.488 L
290.813 152.377 L
291.2 101.143 L
291.587 110.088 L
291.975 129.606 L
292.362 85.488 L
292.75 149.847 L
293.138 59.397 L
293.525 88.619 L
293.913 74.306 L
294.3 85.488 L
294.688 74.306 L
295.075 138.714 L
295.462 163.762 L
295.85 152.377 L
296.237 101.143 L
296.625 85.488 L
297.013 163.762 L
297.4 92.197 L
297.788 138.714 L
298.175 142.889 L
298.563 134.861 L
298.95 80.27 L
299.337 96.326 L
299.725 96.326 L
300.112 122.016 L
300.5 138.714 L
300.888 106.836 L
301.275 163.762 L
301.663 101.143 L
302.05 92.197 L
302.438 129.606 L
302.825 122.016 L
303.212 69.833 L
303.6 129.606 L
303.987 138.714 L
304.375 105.317 L
304.763 115.593 L
305.15 177.677 L
305.538 163.762 L
305.925 138.714 L
306.313 226.381 L
306.7 129.606 L
307.087 80.27 L
307.475 110.088 L
307.862 188.81 L
308.25 129.606 L
308.638 163.762 L
309.025 175.147 L
309.413 96.326 L
309.8 85.488 L
310.188 84.065 L
310.575 96.326 L
310.962 106.836 L
311.35 129.606 L
311.737 74.306 L
312.125 138.714 L
312.513 134.861 L
312.9 122.016 L
313.288 105.317 L
313.675 127.98 L
314.063 149.847 L
314.45 115.593 L
314.837 84.065 L
315.225 101.143 L
315.612 122.016 L
316 101.143 L
316.388 217.435 L
316.775 152.377 L
317.163 92.197 L
317.55 195.071 L
317.938 122.016 L
318.325 149.847 L
318.712 101.143 L
319.1 67.992 L
319.487 77.059 L
319.875 163.762 L
320.263 101.143 L
320.65 115.593 L
321.038 88.619 L
321.425 105.317 L
321.813 66.355 L
322.2 101.143 L
322.587 115.593 L
322.975 74.306 L
323.362 226.381 L
323.75 69.833 L
324.138 177.677 L
324.525 122.016 L
324.913 163.762 L
325.3 106.836 L
325.688 84.065 L
326.075 88.619 L
326.462 163.762 L
326.85 152.377 L
327.237 163.762 L
327.625 152.377 L
328.013 96.326 L
328.4 142.889 L
328.788 163.762 L
329.175 177.677 L
329.563 122.016 L
329.95 205.508 L
330.337 163.762 L
330.725 134.861 L
331.112 149.847 L
331.5 85.488 L
331.888 96.326 L
332.275 138.714 L
332.663 163.762 L
333.05 149.847 L
333.438 138.714 L
333.825 181.653 L
334.212 105.317 L
334.6 149.847 L
334.987 205.508 L
335.375 106.836 L
335.763 129.606 L
336.15 106.836 L
336.538 188.81 L
336.925 149.847 L
337.313 188.81 L
337.7 195.071 L
338.087 129.606 L
338.475 69.833 L
338.862 163.762 L
339.25 195.071 L
339.638 138.714 L
340.025 195.071 L
340.413 152.377 L
340.8 163.762 L
341.188 152.377 L
341.575 96.326 L
341.962 129.606 L
342.35 152.377 L
342.737 115.593 L
343.125 77.059 L
343.513 142.889 L
343.9 129.606 L
344.288 149.847 L
344.675 106.836 L
345.063 138.714 L
345.45 80.27 L
345.837 110.088 L
346.225 138.714 L
346.612 152.377 L
347 122.016 L
347.388 226.381 L
347.775 115.593 L
348.163 226.381 L
348.55 188.81 L
348.938 129.606 L
349.325 205.508 L
349.712 152.377 L
350.1 88.619 L
350.487 122.016 L
350.875 138.714 L
351.263 129.606 L
351.65 138.714 L
352.038 163.762 L
352.425 163.762 L
352.813 177.677 L
353.2 205.508 L
353.587 115.593 L
353.975 253.218 L
354.362 188.81 L
354.75 217.435 L
355.138 226.381 L
355.525 253.218 L
355.913 226.381 L
356.3 149.847 L
356.688 101.143 L
357.075 149.847 L
357.462 77.059 L
357.85 163.762 L
358.237 142.889 L
358.625 113.667 L
359.013 101.143 L
359.4 138.714 L
359.788 163.762 L
360.175 94.185 L
360.563 142.889 L
360.95 226.381 L
361.337 88.619 L
361.725 188.81 L
362.112 226.381 L
362.5 138.714 L
362.888 122.016 L
363.275 205.508 L
363.663 177.677 L
364.05 152.377 L
364.438 101.143 L
364.825 134.861 L
365.212 152.377 L
365.6 149.847 L
365.987 205.508 L
366.375 226.381 L
366.763 149.847 L
367.15 205.508 L
367.538 205.508 L
367.925 113.667 L
368.313 217.435 L
368.7 122.016 L
369.087 226.381 L
369.475 152.377 L
369.862 188.81 L
370.25 177.677 L
370.638 205.508 L
371.025 253.218 L
371.413 177.677 L
371.8 152.377 L
372.188 177.677 L
372.575 205.508 L
372.962 163.762 L
373.35 188.81 L
373.737 233.339 L
374.125 122.016 L
374.513 188.81 L
374.9 149.847 L
375.288 163.762 L
375.675 149.847 L
376.063 253.218 L
376.45 129.606 L
376.837 226.381 L
377.225 129.606 L
377.612 152.377 L
378 142.889 L
378.388 205.508 L
378.775 177.677 L
379.163 175.147 L
379.55 188.81 L
379.938 217.435 L
380.325 197.918 L
380.712 226.381 L
381.1 177.677 L
381.487 226.381 L
381.875 177.677 L
382.263 175.147 L
382.65 113.667 L
383.038 163.762 L
383.425 149.847 L
383.813 177.677 L
384.2 253.218 L
384.587 177.677 L
384.975 152.377 L
385.362 163.762 L
385.75 177.677 L
386.138 195.071 L
386.525 152.377 L
386.913 163.762 L
387.3 257.69 L
387.688 177.677 L
388.075 163.762 L
388.462 96.326 L
388.85 115.593 L
389.237 253.218 L
389.625 205.508 L
390.013 129.606 L
390.4 106.836 L
390.788 177.677 L
391.175 195.071 L
391.563 145.871 L
391.95 122.016 L
392.337 163.762 L
392.725 129.606 L
393.112 115.593 L
393.5 163.762 L
393.888 113.667 L
394.275 205.508 L
394.663 113.667 L
395.05 177.677 L
395.438 289 L
395.825 205.508 L
396.212 138.714 L
396.6 101.143 L
396.987 163.762 L
397.375 177.677 L
397.763 226.381 L
398.15 129.606 L
398.538 195.071 L
398.925 226.381 L
399.313 142.889 L
399.7 217.435 L
400.087 226.381 L
400.475 289 L
400.862 188.81 L
401.25 217.435 L
401.638 226.381 L
402.025 195.071 L
402.413 175.147 L
402.8 205.508 L
403.188 177.677 L
403.575 205.508 L
403.962 129.606 L
404.35 142.889 L
404.737 110.088 L
405.125 152.377 L
405.513 142.889 L
405.9 152.377 L
406.288 195.071 L
406.675 129.606 L
407.063 129.606 L
407.45 175.147 L
407.837 84.065 L
408.225 188.81 L
408.612 177.677 L
409 106.836 L
409.388 177.677 L
409.775 122.016 L
410.163 138.714 L
410.55 101.143 L
410.938 226.381 L
411.325 188.81 L
411.712 163.762 L
412.1 149.847 L
412.487 226.381 L
412.875 115.593 L
413.263 149.847 L
413.65 138.714 L
414.038 177.677 L
414.425 101.143 L
414.813 181.653 L
415.2 195.071 L
415.587 177.677 L
415.975 213.857 L
416.362 138.714 L
416.75 122.016 L
417.138 115.593 L
417.525 122.016 L
417.913 122.016 L
418.3 92.197 L
418.688 51.048 L
419.075 110.088 L
419.462 122.016 L
419.85 115.593 L
420.237 142.889 L
420.625 163.762 L
421.013 101.143 L
421.4 217.435 L
421.788 226.381 L
422.175 113.667 L
422.563 181.653 L
422.95 63.571 L
423.337 149.847 L
423.725 188.81 L
424.112 177.677 L
424.5 195.071 L
424.888 163.762 L
425.275 188.81 L
425.663 132.452 L
426.05 205.508 L
426.438 195.071 L
426.825 152.377 L
427.212 149.847 L
427.6 152.377 L
427.987 88.619 L
428.375 138.714 L
428.763 122.016 L
429.15 205.508 L
429.538 106.836 L
429.925 163.762 L
430.313 122.016 L
430.7 163.762 L
431.087 217.435 L
431.475 195.071 L
431.862 138.714 L
432.25 152.377 L
432.638 88.619 L
433.025 195.071 L
433.413 154.128 L
433.8 195.071 L
434.188 88.619 L
434.575 205.508 L
434.962 163.762 L
435.35 152.377 L
435.737 74.306 L
436.125 129.606 L
436.513 177.677 L
436.9 122.016 L
437.288 129.606 L
437.675 74.306 L
438.063 129.606 L
438.45 110.088 L
438.837 138.714 L
439.225 101.143 L
439.612 152.377 L
440 175.147 L
440.388 152.377 L
440.775 106.836 L
441.163 122.016 L
441.55 138.714 L
441.938 149.847 L
442.325 217.435 L
442.712 177.677 L
443.1 122.016 L
443.487 106.836 L
443.875 226.381 L
444.263 163.762 L
444.65 177.677 L
445.038 138.714 L
445.425 129.606 L
445.813 195.071 L
446.2 113.667 L
446.587 92.197 L
446.975 106.836 L
447.362 205.508 L
447.75 149.847 L
448.138 177.677 L
448.525 257.69 L
448.913 138.714 L
449.3 188.81 L
449.688 92.197 L
450.075 149.847 L
450.462 177.677 L
450.85 195.071 L
451.237 233.339 L
451.625 122.016 L
452.013 163.762 L
452.4 177.677 L
452.788 163.762 L
453.175 253.218 L
453.563 122.016 L
453.95 149.847 L
454.337 253.218 L
454.725 115.593 L
455.112 138.714 L
455.5 205.508 L
455.888 129.606 L
456.275 149.847 L
456.663 177.677 L
457.05 253.218 L
457.438 188.81 L
457.825 106.836 L
458.212 132.452 L
458.6 177.677 L
458.987 149.847 L
459.375 188.81 L
459.763 226.381 L
460.15 163.762 L
460.538 163.762 L
460.925 253.218 L
461.313 106.836 L
461.7 205.508 L
462.087 134.861 L
462.475 138.714 L
462.862 152.377 L
463.25 163.762 L
463.638 134.861 L
464.025 205.508 L
464.413 163.762 L
464.8 163.762 L
465.188 152.377 L
465.575 213.857 L
465.962 163.762 L
466.35 195.071 L
466.737 195.071 L
467.125 226.381 L
467.513 113.667 L
467.9 127.98 L
468.288 138.714 L
468.675 253.218 L
469.063 175.147 L
469.45 163.762 L
469.837 195.071 L
470.225 195.071 L
470.612 163.762 L
471 163.762 L
471.388 138.714 L
471.775 152.377 L
472.163 181.653 L
472.55 188.81 L
472.938 163.762 L
473.325 142.889 L
473.712 74.306 L
474.1 175.147 L
474.487 253.218 L
474.875 177.677 L
475.263 217.435 L
475.65 106.836 L
476.038 253.218 L
476.425 226.381 L
476.813 188.81 L
477.2 253.218 L
477.587 113.667 L
477.975 217.435 L
478.362 152.377 L
478.75 115.593 L
479.138 163.762 L
479.525 129.606 L
479.913 152.377 L
480.3 217.435 L
480.688 163.762 L
481.075 101.143 L
481.462 195.071 L
481.85 188.81 L
482.237 115.593 L
482.625 195.071 L
483.013 226.381 L
483.4 195.071 L
483.788 233.339 L
484.175 101.143 L
484.563 205.508 L
484.95 138.714 L
485.337 138.714 L
485.725 129.606 L
486.112 127.98 L
486.5 205.508 L
486.888 152.377 L
487.275 177.677 L
487.663 138.714 L
488.05 134.861 L
488.438 163.762 L
488.825 177.677 L
489.212 152.377 L
489.6 122.016 L
489.987 122.016 L
490.375 177.677 L
490.763 110.088 L
491.15 122.016 L
491.538 66.355 L
491.925 80.27 L
492.313 59.397 L
492.7 84.065 L
493.087 101.143 L
493.475 122.016 L
493.862 74.306 L
494.25 122.016 L
494.638 129.606 L
495.025 152.377 L
495.413 106.836 L
495.8 142.889 L
496.188 88.619 L
496.575 163.762 L
496.962 67.992 L
497.35 138.714 L
497.737 77.059 L
498.125 163.762 L
498.513 132.452 L
498.9 101.143 L
499.288 113.667 L
499.675 129.606 L
500.063 88.619 L
500.45 138.714 L
500.837 129.606 L
501.225 134.861 L
501.612 163.762 L
502 85.488 L
502.388 96.326 L
502.775 96.326 L
503.163 177.677 L
503.55 63.571 L
503.938 122.016 L
504.325 101.143 L
504.712 106.836 L
505.1 138.714 L
505.487 138.714 L
505.875 71.921 L
506.263 129.606 L
506.65 80.27 L
507.038 67.992 L
507.425 138.714 L
507.813 96.326 L
508.2 115.593 L
508.587 105.317 L
508.975 115.593 L
509.362 177.677 L
509.75 138.714 L
510.138 74.306 L
510.525 129.606 L
510.913 106.836 L
511.3 177.677 L
511.688 195.071 L
512.075 188.81 L
512.463 132.452 L
512.85 138.714 L
513.237 115.593 L
513.625 163.762 L
514.013 96.326 L
514.4 149.847 L
514.787 88.619 L
515.175 115.593 L
515.563 134.861 L
515.95 122.016 L
516.338 138.714 L
516.725 92.197 L
517.112 113.667 L
517.5 96.326 L
517.888 69.833 L
518.275 138.714 L
518.662 92.197 L
519.05 74.306 L
519.438 92.197 L
519.825 74.306 L
520.213 74.306 L
520.6 106.836 L
520.987 113.667 L
521.375 71.921 L
521.763 163.762 L
522.15 96.326 L
522.537 71.921 L
522.925 82.725 L
523.313 77.059 L
523.7 177.677 L
524.088 74.306 L
524.475 88.619 L
524.862 149.847 L
525.25 97.459 L
525.638 69.833 L
526.025 113.667 L
526.412 101.143 L
526.8 96.326 L
527.188 53.258 L
527.575 96.326 L
527.963 82.725 L
528.35 115.593 L
528.737 53.258 L
529.125 106.836 L
529.513 138.714 L
529.9 53.258 L
530.287 122.016 L
530.675 101.143 L
531.063 122.016 L
531.45 163.762 L
531.838 233.339 L
532.225 77.059 L
532.612 71.921 L
533 101.143 L
533.388 74.306 L
533.775 129.606 L
534.162 113.667 L
534.55 115.593 L
534.938 77.059 L
535.325 92.197 L
535.713 92.197 L
536.1 80.27 L
536.487 38.524 L
536.875 96.326 L
537.263 74.306 L
537.65 69.833 L
538.037 80.27 L
538.425 67.992 L
538.813 74.306 L
539.2 71.921 L
539.588 138.714 L
539.975 74.306 L
540.362 51.707 L
540.75 74.306 L
541.138 85.488 L
541.525 85.488 L
541.912 66.355 L
542.3 152.377 L
542.688 110.088 L
543.075 67.992 L
543.463 96.326 L
543.85 101.143 L
544.237 67.992 L
544.625 138.714 L
545.013 56.415 L
545.4 113.667 L
545.787 92.197 L
546.175 52.439 L
546.563 38.524 L
546.95 96.326 L
547.338 92.197 L
547.725 63.571 L
548.112 67.992 L
548.5 52.439 L
548.888 88.619 L
549.275 88.619 L
549.662 88.619 L
550.05 85.488 L
550.438 38.524 L
550.825 51.707 L
551.213 54.179 L
551.6 55.222 L
551.987 71.921 L
552.375 101.143 L
552.763 71.921 L
553.15 57.791 L
553.537 101.143 L
553.925 88.619 L
554.313 55.222 L
554.7 77.059 L
555.088 113.667 L
555.475 92.197 L
555.862 101.143 L
556.25 115.593 L
556.638 62.379 L
557.025 56.415 L
557.412 115.593 L
557.8 61.294 L
558.188 92.197 L
558.575 56.415 L
558.963 92.197 L
559.35 96.326 L
559.737 129.606 L
560.125 106.836 L
560.513 101.143 L
560.9 74.306 L
561.287 77.059 L
561.675 49.414 L
562.063 77.059 L
562.45 115.593 L
562.838 88.619 L
563.225 122.016 L
563.612 55.222 L
564 71.921 L
564.388 77.059 L
564.775 57.791 L
565.162 77.059 L
565.55 142.889 L
565.938 129.606 L
566.325 195.071 L
566.713 142.889 L
567.1 77.059 L
567.487 177.677 L
567.875 195.071 L
568.263 101.143 L
568.65 106.836 L
569.037 77.059 L
569.425 122.016 L
569.813 122.016 L
570.2 127.98 L
570.588 129.606 L
570.975 80.27 L
571.362 113.667 L
571.75 106.836 L
572.138 106.836 L
572.525 84.065 L
572.912 138.714 L
573.3 188.81 L
573.688 113.667 L
574.075 88.619 L
574.463 101.143 L
574.85 106.836 L
575.237 80.27 L
575.625 61.294 L
576.013 113.667 L
576.4 54.179 L
576.787 129.606 L
577.175 113.667 L
577.563 226.381 L
577.95 129.606 L
578.338 122.016 L
578.725 92.197 L
579.112 84.065 L
579.5 205.508 L
579.888 129.606 L
580.275 138.714 L
580.662 106.836 L
581.05 163.762 L
581.438 80.27 L
581.825 96.326 L
582.213 138.714 L
582.6 92.197 L
582.987 129.606 L
583.375 163.762 L
583.763 101.143 L
584.15 56.415 L
584.537 106.836 L
584.925 122.016 L
585.313 80.27 L
585.7 175.147 L
586.088 106.836 L
586.475 113.667 L
586.862 195.071 L
587.25 77.059 L
587.638 163.762 L
588.025 101.143 L
588.412 49.414 L
588.8 88.619 L
589.188 163.762 L
589.575 55.222 L
589.963 55.222 L
590.35 63.571 L
590.737 96.326 L
591.125 138.714 L
591.513 175.147 L
591.9 163.762 L
592.287 142.889 L
592.675 129.606 L
593.063 149.847 L
593.45 129.606 L
593.838 129.606 L
594.225 113.667 L
594.612 77.059 L
595 138.714 L
595.388 195.071 L
595.775 84.065 L
596.162 54.179 L
596.55 149.847 L
596.938 101.143 L
597.325 38.524 L
597.713 113.667 L
598.1 54.179 L
598.487 92.197 L
598.875 163.762 L
599.263 106.836 L
599.65 112.193 L
600.037 96.326 L
600.425 101.143 L
600.813 129.606 L
601.2 74.306 L
601.588 129.606 L
601.975 138.714 L
602.362 129.606 L
602.75 55.222 L
603.138 57.791 L
603.525 80.27 L
603.912 55.222 L
604.3 82.725 L
604.688 67.992 L
605.075 38.524 L
605.463 55.222 L
605.85 115.593 L
606.237 101.143 L
606.625 80.27 L
607.013 106.836 L
607.4 96.326 L
607.787 71.921 L
608.175 96.326 L
608.563 38.524 L
608.95 54.179 L
609.338 77.059 L
609.725 113.667 L
610.112 163.762 L
610.5 61.294 L
610.888 56.415 L
611.275 129.606 L
611.662 52.439 L
612.05 84.065 L
612.438 94.185 L
612.825 101.143 L
613.213 106.836 L
613.6 38.524 L
613.987 142.889 L
614.375 115.593 L
614.763 122.016 L
615.15 122.016 L
615.537 61.294 L
615.925 82.725 L
616.313 149.847 L
616.7 154.128 L
617.088 106.836 L
617.475 92.197 L
617.862 163.762 L
618.25 149.847 L
618.638 106.836 L
619.025 88.619 L
619.412 55.222 L
619.8 84.065 L
620.188 129.606 L
620.575 80.27 L
620.963 74.306 L
621.35 74.306 L
621.737 101.143 L
622.125 71.921 L
622.513 77.059 L
622.9 106.836 L
623.287 85.488 L
623.675 67.992 L
624.063 106.836 L
624.45 80.27 L
624.838 77.059 L
625.225 115.593 L
625.612 77.059 L
626 175.147 L
626.388 53.258 L
626.775 55.222 L
627.162 50.451 L
627.55 77.059 L
627.938 67.992 L
628.325 66.355 L
628.713 55.222 L
629.1 85.488 L
629.487 181.653 L
629.875 69.833 L
630.263 138.714 L
630.65 51.707 L
631.037 38.524 L
631.425 67.992 L
631.813 38.524 L
632.2 96.326 L
632.588 56.415 L
632.975 80.27 L
633.362 66.355 L
633.75 38.524 L
634.138 85.488 L
634.525 80.27 L
634.912 59.397 L
635.3 71.921 L
635.688 77.059 L
636.075 88.619 L
636.463 106.836 L
636.85 97.459 L
637.237 38.524 L
637.625 74.306 L
638.013 74.306 L
638.4 71.921 L
638.787 38.524 L
639.175 38.524 L
639.563 106.836 L
639.95 84.065 L
640.338 52.439 L
640.725 38.524 L
641.112 49.909 L
641.5 88.619 L
641.888 113.667 L
642.275 69.833 L
642.662 38.524 L
643.05 57.791 L
643.438 51.707 L
643.825 80.27 L
644.213 77.059 L
644.6 53.258 L
644.987 38.524 L
645.375 51.048 L
645.763 50.451 L
646.15 69.833 L
646.537 38.524 L
646.925 74.306 L
647.313 53.258 L
647.7 38.524 L
648.088 71.921 L
648.475 38.524 L
648.862 57.791 L
649.25 51.048 L
649.638 56.415 L
650.025 54.179 L
650.412 63.571 L
650.8 54.179 L
651.188 74.306 L
651.575 38.524 L
651.963 80.27 L
652.35 69.833 L
652.737 38.524 L
653.125 38.524 L
653.513 69.833 L
653.9 38.524 L
654.287 84.065 L
654.675 38.524 L
655.063 69.833 L
655.45 54.179 L
655.838 64.89 L
656.225 69.833 L
656.612 38.524 L
657 57.791 L
657.388 38.524 L
657.775 67.992 L
658.162 74.306 L
658.55 38.524 L
658.938 52.439 L
659.325 77.059 L
659.713 96.326 L
660.1 84.065 L
660.487 96.326 L
660.875 55.222 L
661.263 48.96 L
661.65 84.065 L
662.037 38.524 L
662.425 106.836 L
662.813 51.707 L
663.2 59.397 L
663.588 84.065 L
663.975 96.326 L
664.362 61.294 L
664.75 96.326 L
665.138 106.836 L
665.525 84.065 L
665.912 110.088 L
666.3 106.836 L
666.688 64.89 L
667.075 88.619 L
667.463 71.921 L
667.85 105.317 L
668.237 38.524 L
668.625 69.833 L
669.013 77.059 L
669.4 74.306 L
669.787 101.143 L
670.175 57.791 L
670.563 80.27 L
670.95 56.415 L
671.338 80.27 L
671.725 138.714 L
672.112 106.836 L
672.5 110.088 L
672.888 69.833 L
673.275 94.185 L
673.662 115.593 L
674.05 101.143 L
674.438 85.488 L
674.825 59.397 L
675.213 149.847 L
675.6 113.667 L
675.987 80.27 L
676.375 84.065 L
676.763 84.065 L
677.15 61.294 L
677.537 122.016 L
677.925 149.847 L
678.313 74.306 L
678.7 69.833 L
679.088 67.992 L
679.475 54.179 L
679.862 64.89 L
680.25 77.059 L
680.638 74.306 L
681.025 115.593 L
681.412 92.197 L
681.8 71.921 L
682.188 71.921 L
682.575 74.306 L
682.963 138.714 L
683.35 152.377 L
683.737 55.222 L
684.125 57.791 L
684.513 71.921 L
684.9 80.27 L
685.287 129.606 L
685.675 54.179 L
686.063 110.088 L
686.45 51.707 L
686.838 129.606 L
687.225 113.667 L
687.612 88.619 L
688 110.088 L
688.388 92.197 L
688.775 54.179 L
689.162 152.377 L
689.55 101.143 L
689.938 66.355 L
690.325 57.791 L
690.713 63.571 L
691.1 115.593 L
691.487 51.707 L
691.875 92.197 L
692.263 53.258 L
692.65 84.065 L
693.037 77.059 L
693.425 71.921 L
693.813 38.524 L
694.2 115.593 L
694.588 96.326 L
694.975 55.222 L
695.362 88.619 L
695.75 74.306 L
696.138 69.833 L
696.525 53.258 L
696.912 69.833 L
697.3 80.27 L
697.688 101.143 L
698.075 56.415 L
698.463 52.439 L
698.85 55.222 L
699.237 61.294 L
699.625 49.414 L
700.013 38.524 L
700.4 52.439 L
700.787 67.992 L
701.175 57.791 L
701.563 53.258 L
701.95 38.524 L
702.338 56.415 L
702.725 88.619 L
703.112 106.836 L
703.5 71.921 L
703.888 77.059 L
704.275 106.836 L
704.662 88.619 L
705.05 53.258 L
705.438 49.909 L
705.825 88.619 L
706.213 50.451 L
706.6 61.294 L
706.987 57.791 L
707.375 88.619 L
707.763 38.524 L
708.15 62.379 L
708.537 80.27 L
708.925 149.847 L
709.313 56.415 L
709.7 38.524 L
710.088 38.524 L
710.475 67.992 L
710.862 51.048 L
711.25 52.439 L
711.638 77.059 L
712.025 38.524 L
712.412 77.059 L
712.8 56.415 L
713.188 49.414 L
713.575 96.326 L
713.963 82.725 L
714.35 80.27 L
714.737 142.889 L
715.125 84.065 L
715.513 54.179 L
715.9 74.306 L
716.287 53.258 L
716.675 71.921 L
717.063 129.606 L
717.45 38.524 L
717.838 92.197 L
718.225 122.016 L
718.612 88.619 L
719 55.222 L
719.388 56.415 L
719.775 57.791 L
720.162 71.921 L
720.55 56.415 L
720.938 67.992 L
721.325 115.593 L
721.713 77.059 L
722.1 53.258 L
722.487 106.836 L
722.875 88.619 L
723.263 149.847 L
723.65 55.222 L
724.037 67.992 L
724.425 80.27 L
724.813 149.847 L
725.2 106.836 L
725.588 71.921 L
725.975 55.222 L
726.362 88.619 L
726.75 85.488 L
727.138 38.524 L
727.525 115.593 L
727.912 57.791 L
728.3 88.619 L
728.688 175.147 L
729.075 113.667 L
729.463 122.016 L
729.85 84.065 L
730.237 163.762 L
730.625 105.317 L
731.013 113.667 L
731.4 69.833 L
731.787 80.27 L
732.175 106.836 L
732.563 129.606 L
732.95 92.197 L
733.338 56.415 L
733.725 52.439 L
734.112 152.377 L
734.5 101.143 L
734.888 101.143 L
735.275 71.921 L
735.662 106.836 L
736.05 96.326 L
736.438 67.992 L
736.825 101.143 L
737.213 88.619 L
737.6 67.992 L
737.987 67.992 L
738.375 38.524 L
738.763 129.606 L
739.15 88.619 L
739.537 54.179 L
739.925 122.016 L
740.313 69.833 L
740.7 84.065 L
741.088 77.059 L
741.475 101.143 L
741.862 69.833 L
742.25 96.326 L
742.638 101.143 L
743.025 74.306 L
743.412 92.197 L
743.8 53.258 L
744.188 110.088 L
744.575 53.258 L
744.963 92.197 L
745.35 53.258 L
745.737 55.222 L
746.125 54.179 L
746.513 96.326 L
746.9 52.439 L
747.287 53.258 L
747.675 38.524 L
748.063 52.439 L
748.45 101.143 L
748.838 38.524 L
749.225 142.889 L
749.612 55.222 L
750 51.048 L
750.388 96.326 L
750.775 38.524 L
751.162 38.524 L
751.55 57.791 L
751.938 56.415 L
752.325 71.921 L
752.713 92.197 L
753.1 149.847 L
753.487 77.059 L
753.875 54.179 L
754.263 74.306 L
754.65 54.179 L
755.037 55.222 L
755.425 92.197 L
755.813 38.524 L
756.2 92.197 L
756.588 56.415 L
756.975 57.791 L
757.362 66.355 L
757.75 71.921 L
758.138 54.179 L
758.525 57.791 L
758.912 55.222 L
759.3 71.921 L
759.688 51.707 L
760.075 38.524 L
760.463 66.355 L
760.85 52.439 L
761.237 53.258 L
761.625 56.415 L
762.013 92.197 L
762.4 59.397 L
762.787 52.439 L
763.175 38.524 L
763.563 54.179 L
763.95 38.524 L
764.338 96.326 L
764.725 71.921 L
765.112 51.707 L
765.5 51.707 L
765.888 38.524 L
766.275 85.488 L
766.662 177.677 L
767.05 69.833 L
767.438 80.27 L
767.825 77.059 L
768.213 71.921 L
768.6 101.143 L
768.987 55.222 L
769.375 77.059 L
769.763 63.571 L
770.15 38.524 L
770.537 52.439 L
770.925 67.992 L
771.313 55.222 L
771.7 69.833 L
772.088 38.524 L
772.475 71.921 L
772.862 53.258 L
773.25 92.197 L
773.638 96.326 L
774.025 54.179 L
774.412 77.059 L
774.8 57.791 L
775.188 51.707 L
775.575 67.992 L
775.963 38.524 L
776.35 38.524 L
776.737 67.992 L
777.125 77.059 L
777.513 92.197 L
777.9 69.833 L
778.287 74.306 L
778.675 38.524 L
779.063 88.619 L
779.45 67.992 L
779.838 54.179 L
780.225 56.415 L
780.612 84.065 L
781 74.306 L
781.388 56.415 L
781.775 62.379 L
782.162 56.415 L
782.55 74.306 L
782.938 61.294 L
783.325 38.524 L
783.713 51.707 L
784.1 106.836 L
784.487 54.179 L
784.875 71.921 L
785.263 38.524 L
785.65 84.065 L
786.037 55.222 L
786.425 51.048 L
786.813 92.197 L
787.2 80.27 L
787.588 67.992 L
787.975 54.179 L
788.362 38.524 L
788.75 51.048 L
789.138 55.222 L
789.525 106.836 L
789.912 77.059 L
790.3 88.619 L
790.688 53.258 L
791.075 55.222 L
791.463 61.294 L
791.85 67.992 L
792.237 52.439 L
792.625 71.921 L
793.013 74.306 L
793.4 74.306 L
793.787 80.27 L
794.175 38.524 L
794.563 69.833 L
794.95 59.397 L
795.338 85.488 L
795.725 57.791 L
796.112 80.27 L
796.5 101.143 L
796.888 74.306 L
797.275 67.992 L
797.662 88.619 L
798.05 54.179 L
798.438 54.179 L
798.825 52.439 L
799.213 55.222 L
799.6 101.143 L
799.987 38.524 L
800.375 82.725 L
800.763 53.258 L
801.15 38.524 L
801.537 69.833 L
801.925 66.355 L
802.313 54.179 L
802.7 54.179 L
803.088 84.065 L
803.475 77.059 L
803.862 88.619 L
804.25 127.98 L
804.638 52.439 L
805.025 69.833 L
805.412 106.836 L
805.8 59.397 L
806.188 54.179 L
806.575 96.326 L
806.963 69.833 L
807.35 69.833 L
807.737 82.725 L
808.125 54.179 L
808.513 80.27 L
808.9 115.593 L
809.287 38.524 L
809.675 80.27 L
810.063 52.439 L
810.45 71.921 L
810.838 69.833 L
811.225 38.524 L
811.612 96.326 L
812 96.326 L
812.388 80.27 L
812.775 63.571 L
813.162 56.415 L
813.55 66.355 L
813.938 69.833 L
814.325 69.833 L
814.713 84.065 L
815.1 38.524 L
815.487 51.707 L
815.875 77.059 L
816.263 38.524 L
816.65 85.488 L
817.037 38.524 L
817.425 38.524 L
817.813 52.439 L
818.2 77.059 L
818.588 74.306 L
818.975 92.197 L
819.362 84.065 L
819.75 149.847 L
820.138 106.836 L
820.525 55.222 L
820.912 110.088 L
821.3 56.415 L
821.688 55.222 L
822.075 106.836 L
822.463 53.258 L
822.85 38.524 L
823.237 38.524 L
823.625 52.439 L
824.013 53.258 L
824.4 54.179 L
824.787 54.179 L
825.175 38.524 L
825.563 74.306 L
825.95 138.714 L
826.338 55.222 L
826.725 52.439 L
827.112 88.619 L
827.5 61.294 L
827.888 38.524 L
828.275 51.048 L
828.662 61.294 L
829.05 129.606 L
829.438 74.306 L
829.825 74.306 L
830.213 129.606 L
830.6 92.197 L
830.987 57.791 L
831.375 54.179 L
831.763 38.524 L
832.15 77.059 L
832.537 53.258 L
832.925 85.488 L
833.313 54.179 L
833.7 38.524 L
834.088 38.524 L
834.475 55.222 L
834.862 57.791 L
835.25 57.791 L
835.638 85.488 L
836.025 54.179 L
836.412 77.059 L
836.8 38.524 L
837.188 54.179 L
837.575 50.451 L
837.963 113.667 L
838.35 69.833 L
838.737 88.619 L
839.125 55.222 L
839.513 38.524 L
839.9 51.707 L
840.287 52.439 L
840.675 96.326 L
841.063 38.524 L
841.45 38.524 L
841.838 38.524 L
842.225 38.524 L
842.612 74.306 L
843 67.992 L
843.388 56.415 L
843.775 38.524 L
844.162 129.606 L
844.55 59.397 L
844.938 53.258 L
845.325 56.415 L
845.713 57.791 L
846.1 56.415 L
846.487 38.524 L
846.875 71.921 L
847.263 69.833 L
847.65 50.451 L
848.037 38.524 L
848.425 69.833 L
848.813 77.059 L
849.2 74.306 L
849.588 38.524 L
849.975 62.379 L
850.362 49.414 L
850.75 69.833 L
851.138 54.179 L
851.525 56.415 L
851.912 66.355 L
852.3 38.524 L
852.688 38.524 L
853.075 106.836 L
853.463 54.179 L
853.85 122.016 L
854.237 71.921 L
854.625 38.524 L
855.013 92.197 L
855.4 55.222 L
855.787 96.326 L
856.175 80.27 L
856.563 56.415 L
856.95 67.992 L
857.338 77.059 L
857.725 69.833 L
858.112 77.059 L
858.5 71.921 L
858.888 54.179 L
859.275 67.992 L
859.662 69.833 L
860.05 74.306 L
860.438 53.258 L
860.825 152.377 L
861.213 74.306 L
861.6 92.197 L
861.987 92.197 L
862.375 106.836 L
862.763 52.439 L
863.15 80.27 L
863.537 77.059 L
863.925 38.524 L
864.313 38.524 L
864.7 38.524 L
865.088 38.524 L
865.475 69.833 L
865.862 38.524 L
866.25 38.524 L
866.638 52.439 L
867.025 38.524 L
867.412 38.524 L
867.8 55.222 L
868.188 51.048 L
868.575 55.222 L
868.963 77.059 L
869.35 74.306 L
869.737 71.921 L
870.125 96.326 L
870.513 56.415 L
870.9 62.379 L
871.287 82.725 L
871.675 64.89 L
872.063 56.415 L
872.45 38.524 L
872.838 71.921 L
873.225 55.222 L
873.612 101.143 L
874 51.048 L
874.388 53.258 L
874.775 96.326 L
875.162 38.524 L
875.55 54.179 L
875.938 96.326 L
876.325 57.791 L
876.713 106.836 L
877.1 61.294 L
877.487 113.667 L
877.875 38.524 L
878.263 53.258 L
878.65 62.379 L
879.037 53.258 L
879.425 74.306 L
879.813 38.524 L
880.2 71.921 L
880.588 54.179 L
880.975 54.179 L
881.362 38.524 L
881.75 74.306 L
882.138 51.707 L
882.525 53.258 L
882.912 56.415 L
883.3 38.524 L
883.688 106.836 L
884.075 38.524 L
884.463 115.593 L
884.85 82.725 L
885.237 53.258 L
885.625 54.179 L
886.013 60.304 L
886.4 38.524 L
886.787 38.524 L
887.175 38.524 L
887.563 77.059 L
887.95 66.355 L
888.338 77.059 L
888.725 53.258 L
889.112 74.306 L
889.5 80.27 L
889.888 69.833 L
890.275 67.992 L
890.662 101.143 L
891.05 38.524 L
891.438 71.921 L
891.825 64.89 L
892.213 57.791 L
892.6 51.707 L
892.987 63.571 L
893.375 62.379 L
893.763 55.222 L
894.15 69.833 L
894.537 59.397 L
894.925 67.992 L
895.313 53.258 L
895.7 38.524 L
896.088 55.222 L
896.475 38.524 L
896.862 101.143 L
897.25 38.524 L
897.638 74.306 L
898.025 92.197 L
898.412 54.179 L
898.8 54.179 L
899.188 55.222 L
899.575 38.524 L
899.963 71.921 L
900.35 59.397 L
900.737 74.306 L
901.125 53.258 L
901.513 226.381 L
901.9 106.836 L
902.287 80.27 L
902.675 55.222 L
903.063 52.439 L
903.45 101.143 L
903.838 56.415 L
904.225 38.524 L
904.612 38.524 L
905 101.143 L
S
GR
GS
1 0 0 RC
1 LJ
0.5 LW
N
169.525 105.559 M
169.913 105.03 L
170.3 103.874 L
170.688 101.621 L
171.075 99.749 L
171.462 97.999 L
171.85 97.502 L
172.238 96.347 L
172.625 94.83 L
173.012 93.52 L
173.4 92.456 L
173.788 91.465 L
174.175 90.072 L
174.563 89.464 L
174.95 88.406 L
175.337 87.19 L
175.725 86.217 L
176.113 85.108 L
176.5 84.049 L
176.887 83.038 L
177.275 82.07 L
177.663 81.144 L
178.05 80.256 L
178.438 79.404 L
178.825 78.586 L
179.212 77.801 L
179.6 76.437 L
179.988 75.735 L
180.375 74.814 L
180.762 73.947 L
181.15 71.219 L
181.538 67.535 L
181.925 66.402 L
182.313 65.824 L
182.7 63.86 L
183.087 62.074 L
183.475 60.6 L
183.863 59.089 L
184.25 58.055 L
184.637 56.577 L
185.025 55.237 L
185.413 54.746 L
185.8 54.255 L
186.188 51.526 L
186.575 50.949 L
186.962 50.299 L
187.35 48.335 L
187.738 47.476 L
188.125 46.774 L
188.512 46.073 L
188.9 44.845 L
189.288 44.328 L
189.675 43.294 L
190.063 42.624 L
190.45 42.624 L
190.837 42.488 L
191.225 42.351 L
191.613 41.497 L
192 41.088 L
192.387 40.965 L
192.775 40.761 L
193.163 40.433 L
193.55 40.095 L
193.938 40.095 L
194.325 39.549 L
194.712 39.379 L
195.1 39.379 L
195.488 39.226 L
195.875 39.379 L
196.262 39.379 L
196.65 39.379 L
197.038 39.568 L
197.425 39.568 L
197.813 39.568 L
198.2 39.568 L
198.587 39.75 L
198.975 39.75 L
199.363 39.75 L
199.75 39.75 L
200.137 39.75 L
200.525 39.75 L
200.913 39.75 L
201.3 39.75 L
201.688 39.75 L
202.075 39.964 L
202.462 39.964 L
202.85 39.964 L
203.238 39.964 L
203.625 39.964 L
204.012 39.964 L
204.4 39.805 L
204.788 39.805 L
205.175 39.805 L
205.563 39.642 L
205.95 39.642 L
206.337 39.865 L
206.725 39.66 L
207.113 39.894 L
207.5 39.719 L
207.887 39.719 L
208.275 39.719 L
208.663 39.719 L
209.05 39.719 L
209.438 39.719 L
209.825 39.719 L
210.212 39.719 L
210.6 39.719 L
210.988 39.719 L
211.375 39.719 L
211.762 39.719 L
212.15 39.719 L
212.538 39.882 L
212.925 39.882 L
213.313 39.882 L
213.7 39.882 L
214.087 39.882 L
214.475 39.882 L
214.863 39.882 L
215.25 39.882 L
215.637 39.893 L
216.025 40.106 L
216.413 40.106 L
216.8 40.087 L
217.188 40.533 L
217.575 40.533 L
217.962 40.533 L
218.35 40.565 L
218.738 40.747 L
219.125 40.929 L
219.512 40.929 L
219.9 40.929 L
220.288 40.929 L
220.675 41.201 L
221.063 41.201 L
221.45 41.201 L
221.837 41.17 L
222.225 41.17 L
222.613 41.17 L
223 41.17 L
223.387 41.497 L
223.775 41.497 L
224.163 41.497 L
224.55 41.711 L
224.938 41.711 L
225.325 41.711 L
225.712 41.956 L
226.1 41.733 L
226.488 41.733 L
226.875 41.499 L
227.262 41.745 L
227.65 41.914 L
228.038 41.914 L
228.425 42.148 L
228.813 42.148 L
229.2 42.148 L
229.587 42.148 L
229.975 42.148 L
230.363 42.639 L
230.75 42.885 L
231.137 42.885 L
231.525 43.108 L
231.913 43.654 L
232.3 43.735 L
232.688 43.735 L
233.075 43.959 L
233.462 44.426 L
233.85 44.426 L
234.238 44.66 L
234.625 44.66 L
235.012 44.66 L
235.4 44.755 L
235.788 44.746 L
236.175 44.746 L
236.563 44.577 L
236.95 44.13 L
237.337 44.376 L
237.725 44.649 L
238.113 44.694 L
238.5 45.058 L
238.887 44.876 L
239.275 44.876 L
239.663 44.876 L
240.05 45.134 L
240.438 45.12 L
240.825 45.393 L
241.212 45.7 L
241.6 45.518 L
241.988 46.095 L
242.375 46.095 L
242.762 46.368 L
243.15 46.246 L
243.538 46.596 L
243.925 46.596 L
244.313 46.558 L
244.7 46.558 L
245.087 46.886 L
245.475 46.968 L
245.863 47.295 L
246.25 47.295 L
246.637 47.622 L
247.025 47.377 L
247.413 47.496 L
247.8 48.479 L
248.188 49.584 L
248.575 50.477 L
248.962 50.477 L
249.35 50.477 L
249.738 50.784 L
250.125 50.6 L
250.512 50.705 L
250.9 51.319 L
251.288 52.078 L
251.675 52.187 L
252.063 52.596 L
252.45 52.869 L
252.837 53.567 L
253.225 53.333 L
253.613 53.567 L
254 53.988 L
254.387 53.988 L
254.775 54.725 L
255.163 55.121 L
255.55 55.162 L
255.938 55.54 L
256.325 56.057 L
256.712 56.057 L
257.1 56.328 L
257.487 56.289 L
257.875 56.645 L
258.263 57.081 L
258.65 57.695 L
259.038 57.941 L
259.425 57.941 L
259.813 57.682 L
260.2 57.424 L
260.587 57.887 L
260.975 58.984 L
261.362 59.685 L
261.75 60.335 L
262.138 61.037 L
262.525 61.092 L
262.913 61.542 L
263.3 61.708 L
263.688 62.76 L
264.075 63.924 L
264.462 64.252 L
264.85 64.502 L
265.237 65.227 L
265.625 65.882 L
266.013 65.882 L
266.4 66.169 L
266.788 66.746 L
267.175 66.746 L
267.563 67.167 L
267.95 65.828 L
268.337 65.169 L
268.725 65.442 L
269.112 66.055 L
269.5 66.976 L
269.888 67.406 L
270.275 68.692 L
270.663 68.429 L
271.05 69.084 L
271.438 69.412 L
271.825 69.739 L
272.212 70.869 L
272.6 70.276 L
272.987 71.27 L
273.375 71.855 L
273.763 71.855 L
274.15 72.468 L
274.538 72.55 L
274.925 72.948 L
275.313 73.404 L
275.7 74.991 L
276.087 75.607 L
276.475 76.835 L
276.862 78.207 L
277.25 79.025 L
277.638 79.394 L
278.025 79.751 L
278.413 80.27 L
278.8 81.662 L
279.188 81.92 L
279.575 84.103 L
279.962 84.922 L
280.35 84.887 L
280.737 84.404 L
281.125 85.935 L
281.513 85.935 L
281.9 86.637 L
282.288 88.095 L
282.675 88.361 L
283.063 90.027 L
283.45 89.384 L
283.837 89.027 L
284.225 89.401 L
284.612 89.744 L
285 89.393 L
285.388 90.375 L
285.775 92.831 L
286.163 94.45 L
286.55 95.1 L
286.938 95.732 L
287.325 96.784 L
287.712 97.836 L
288.1 99.567 L
288.487 101.341 L
288.875 102.616 L
289.263 102.206 L
289.65 102.603 L
290.038 102.099 L
290.425 103.386 L
290.813 103.713 L
291.2 104.07 L
291.587 105.544 L
291.975 105.368 L
292.362 106.093 L
292.75 106.651 L
293.138 107.47 L
293.525 107.429 L
293.913 108.601 L
294.3 109.747 L
294.688 110.004 L
295.075 110.814 L
295.462 111.578 L
295.85 112.9 L
296.237 113.637 L
296.625 115.431 L
297.013 116.165 L
297.4 116.001 L
297.788 116.065 L
298.175 117.878 L
298.563 118.027 L
298.95 120.224 L
299.337 120.72 L
299.725 121.035 L
300.112 121.254 L
300.5 121.226 L
300.888 120.127 L
301.275 120.239 L
301.663 120.622 L
302.05 119.537 L
302.438 120.581 L
302.825 120.287 L
303.212 121.515 L
303.6 121.843 L
303.987 122.895 L
304.375 124.157 L
304.763 124.966 L
305.15 123.895 L
305.538 122.667 L
305.925 122.072 L
306.313 122.072 L
306.7 124.659 L
307.087 124.436 L
307.475 124.436 L
307.862 125.541 L
308.25 125.131 L
308.638 125.425 L
309.025 125.835 L
309.413 125.279 L
309.8 124.901 L
310.188 125.72 L
310.575 124.983 L
310.962 125.155 L
311.35 123.681 L
311.737 123.763 L
312.125 123.257 L
312.513 122.698 L
312.9 122.572 L
313.288 122.66 L
313.675 124.558 L
314.063 123.207 L
314.45 124.626 L
314.837 124.752 L
315.225 124.479 L
315.612 123.363 L
316 122.291 L
316.388 119.59 L
316.775 120.26 L
317.163 121.674 L
317.55 122.726 L
317.938 122.012 L
318.325 121.359 L
318.712 120.95 L
319.1 120.727 L
319.487 122.322 L
319.875 123.038 L
320.263 125.419 L
320.65 126.741 L
321.038 127.291 L
321.425 127.688 L
321.813 127.907 L
322.2 127.076 L
322.587 127.152 L
322.975 127.97 L
323.362 128.843 L
323.75 129.054 L
324.138 129.677 L
324.525 129.476 L
324.913 130.766 L
325.3 132.812 L
325.688 132.514 L
326.075 133.073 L
326.462 130.904 L
326.85 131.618 L
327.237 132.749 L
327.625 132.626 L
328.013 134.058 L
328.4 133.661 L
328.788 133.048 L
329.175 134.925 L
329.563 137.239 L
329.95 136.748 L
330.337 138.59 L
330.725 139.311 L
331.112 140.785 L
331.5 141.707 L
331.888 142.295 L
332.275 142.853 L
332.663 143.574 L
333.05 144.384 L
333.438 141.456 L
333.825 142.888 L
334.212 141.946 L
334.6 142.492 L
334.987 141.375 L
335.375 142 L
335.763 141.926 L
336.15 142.347 L
336.538 141.856 L
336.925 141.856 L
337.313 141.037 L
337.7 142.488 L
338.087 142.866 L
338.475 144.503 L
338.862 144.994 L
339.25 144.052 L
339.638 145.689 L
340.025 144.647 L
340.413 143.174 L
340.8 142.922 L
341.188 142.704 L
341.575 143.569 L
341.962 144.4 L
342.35 144.891 L
342.737 144.891 L
343.125 145.437 L
343.513 146.746 L
343.9 145.451 L
344.288 148.351 L
344.675 149.115 L
345.063 149.349 L
345.45 151.693 L
345.837 154.117 L
346.225 156.461 L
346.612 155.697 L
347 154.742 L
347.388 153.978 L
347.775 151.664 L
348.163 152.334 L
348.55 153.766 L
348.938 152.784 L
349.325 150.942 L
349.712 150.942 L
350.1 150.328 L
350.487 149.187 L
350.875 148.778 L
351.263 150.229 L
351.65 150.078 L
352.038 151.239 L
352.425 152.69 L
352.813 153.143 L
353.2 154.025 L
353.587 155.252 L
353.975 156.195 L
354.362 156.245 L
354.75 156.133 L
355.138 156.057 L
355.525 157.471 L
355.913 158.251 L
356.3 159.56 L
356.688 161.012 L
357.075 161.557 L
357.462 161.148 L
357.85 162.911 L
358.237 160.701 L
358.625 161.262 L
359.013 161.113 L
359.4 161.523 L
359.788 161.523 L
360.175 163.487 L
360.563 164.579 L
360.95 165.888 L
361.337 168.312 L
361.725 169.076 L
362.112 168.853 L
362.5 169.126 L
362.888 169.671 L
363.275 168.853 L
363.663 170.288 L
364.05 169.899 L
364.438 168.589 L
364.825 168.028 L
365.212 166.527 L
365.6 164.773 L
365.987 163.272 L
366.375 165.299 L
366.763 165.857 L
367.15 167.358 L
367.538 168.388 L
367.925 168.165 L
368.313 168.165 L
368.7 169.966 L
369.087 171.466 L
369.475 172.181 L
369.862 172.672 L
370.25 175.089 L
370.638 176.168 L
371.025 176.168 L
371.413 177.914 L
371.8 178.651 L
372.188 177.696 L
372.575 178.41 L
372.962 178.246 L
373.35 177.428 L
373.737 176.882 L
374.125 177.378 L
374.513 180.36 L
374.9 181.199 L
375.288 181.199 L
375.675 181.472 L
376.063 180.927 L
376.45 180.313 L
376.837 180.362 L
377.225 179.544 L
377.612 180.567 L
378 181.822 L
378.388 180.77 L
378.775 180.266 L
379.163 178.094 L
379.55 180.071 L
379.938 180.398 L
380.325 179.456 L
380.712 177.521 L
381.1 176.04 L
381.487 176.381 L
381.875 176.253 L
382.263 175.162 L
382.65 174.343 L
383.038 173.674 L
383.425 172.238 L
383.813 170.874 L
384.2 170.71 L
384.587 171.038 L
384.975 170.328 L
385.362 170.601 L
385.75 173.329 L
386.138 172.394 L
386.525 172.573 L
386.913 170.117 L
387.3 170.787 L
387.688 171.283 L
388.075 172.92 L
388.462 171.432 L
388.85 171.773 L
389.237 172.777 L
389.625 171.877 L
390.013 171.877 L
390.4 172.435 L
390.788 173.663 L
391.175 173.881 L
391.563 173.706 L
391.95 174.661 L
392.337 175.051 L
392.725 176.257 L
393.112 177.075 L
393.5 177.621 L
393.888 178.167 L
394.275 175.743 L
394.663 175.061 L
395.05 174.232 L
395.438 174.008 L
395.825 173.326 L
396.212 172.489 L
396.6 173.326 L
396.987 172.657 L
397.375 170.145 L
397.763 170.095 L
398.15 168.533 L
398.538 170.346 L
398.925 171.564 L
399.313 168.693 L
399.7 168.148 L
400.087 167.999 L
400.475 168.624 L
400.862 167.123 L
401.25 167.737 L
401.638 168.579 L
402.025 169.398 L
402.413 169.125 L
402.8 171.022 L
403.188 171.022 L
403.575 170.749 L
403.962 171.241 L
404.35 170.695 L
404.737 170.449 L
405.125 170.527 L
405.513 168.685 L
405.9 168.14 L
406.288 169.613 L
406.675 170.35 L
407.063 169.531 L
407.45 168.314 L
407.837 166.268 L
408.225 166.119 L
408.612 164.102 L
409 160.664 L
409.388 160.021 L
409.775 158.15 L
410.163 155.977 L
410.55 153.112 L
410.938 152.621 L
411.325 150.341 L
411.712 150.166 L
412.1 150.78 L
412.487 149.574 L
412.875 149.106 L
413.263 146.869 L
413.65 145.777 L
414.038 146.938 L
414.425 147.62 L
414.813 149.287 L
415.2 149.51 L
415.587 150.41 L
415.975 150.02 L
416.362 150.224 L
416.75 151.508 L
417.138 151.955 L
417.525 151.458 L
417.913 152.798 L
418.3 150.833 L
418.688 150.069 L
419.075 150.367 L
419.462 150.913 L
419.85 150.615 L
420.237 151.106 L
420.625 151.515 L
421.013 150.288 L
421.4 150.849 L
421.788 151.463 L
422.175 151.245 L
422.563 149.794 L
422.95 149.265 L
423.337 150.151 L
423.725 150.454 L
424.112 150.795 L
424.5 150.549 L
424.888 151.017 L
425.275 150.403 L
425.663 149.907 L
426.05 147.171 L
426.438 146.992 L
426.825 148.083 L
427.212 148.209 L
427.6 148.358 L
427.987 147.423 L
428.375 148.156 L
428.763 149.314 L
429.15 149.875 L
429.538 149.466 L
429.925 150.187 L
430.313 150.82 L
430.7 150.596 L
431.087 150.708 L
431.475 148.837 L
431.862 147.118 L
432.25 147.827 L
432.638 148.529 L
433.025 150.766 L
433.413 150.221 L
433.8 148.613 L
434.188 149.568 L
434.575 148.954 L
434.962 149.227 L
435.35 148.245 L
435.737 148.189 L
436.125 147.985 L
436.513 146.388 L
436.9 145.208 L
437.288 144.365 L
437.675 145.407 L
438.063 146.607 L
438.45 147.371 L
438.837 150.032 L
439.225 148.722 L
439.612 150.329 L
440 148.926 L
440.388 149.472 L
440.775 149.745 L
441.163 149.306 L
441.55 150.056 L
441.938 149.729 L
442.325 149.952 L
442.712 151.699 L
443.1 151.085 L
443.487 153.028 L
443.875 151.595 L
444.263 152.796 L
444.65 153.731 L
445.038 152.787 L
445.425 152.519 L
445.813 155.091 L
446.2 155.091 L
446.587 154.546 L
446.975 155.637 L
447.362 158.061 L
447.75 160.306 L
448.138 159.859 L
448.525 160.298 L
448.913 161.062 L
449.3 162.017 L
449.688 162.731 L
450.075 163.736 L
450.462 163.959 L
450.85 165.075 L
451.237 167.648 L
451.625 167.023 L
452.013 168.114 L
452.4 166.495 L
452.788 165.731 L
453.175 166.326 L
453.563 167.443 L
453.95 165.648 L
454.337 166.467 L
454.725 166.194 L
455.112 166.685 L
455.5 167.131 L
455.888 167.5 L
456.275 168.482 L
456.663 170.499 L
457.05 172.229 L
457.438 172.639 L
457.825 171.929 L
458.212 170.955 L
458.6 168.622 L
458.987 170.867 L
459.375 170.599 L
459.763 172.002 L
460.15 172.889 L
460.538 173.23 L
460.925 172.616 L
461.313 171.252 L
461.7 171.579 L
462.087 171.356 L
462.475 171.434 L
462.862 171.925 L
463.25 170.171 L
463.638 170.581 L
464.025 169.099 L
464.413 167.569 L
464.8 170.267 L
465.188 171.031 L
465.575 171.265 L
465.962 170.818 L
466.35 172.845 L
466.737 173.8 L
467.125 172.537 L
467.513 173.8 L
467.9 173.934 L
468.288 175.601 L
468.675 175.104 L
469.063 174.433 L
469.45 173.942 L
469.837 172.044 L
470.225 171.821 L
470.612 172.873 L
471 171.119 L
471.388 171.008 L
471.775 170.803 L
472.163 171.861 L
472.55 171.408 L
472.938 172.245 L
473.325 173.473 L
473.712 174.653 L
474.1 175.199 L
474.487 173.971 L
474.875 174.79 L
475.263 174.522 L
475.65 173.048 L
476.038 172.379 L
476.425 171.063 L
476.813 171.268 L
477.2 169.817 L
477.587 171.072 L
477.975 171.282 L
478.362 171.207 L
478.75 169.453 L
479.138 169.502 L
479.525 169.279 L
479.913 167.846 L
480.3 166.414 L
480.688 166.687 L
481.075 165.634 L
481.462 165.307 L
481.85 163.62 L
482.237 161.632 L
482.625 159.095 L
483.013 157.532 L
483.4 156.714 L
483.788 157.649 L
484.175 155.672 L
484.563 153.099 L
484.95 152.157 L
485.337 150.881 L
485.725 150.881 L
486.112 148.718 L
486.5 146.017 L
486.888 145.525 L
487.275 141.894 L
487.663 142.385 L
488.05 139.632 L
488.438 139.855 L
488.825 140.186 L
489.212 138.958 L
489.6 138.646 L
489.987 138.199 L
490.375 135.673 L
490.763 135.182 L
491.15 135.74 L
491.538 134.56 L
491.925 134.069 L
492.313 133.478 L
492.7 131.542 L
493.087 128.992 L
493.475 128.651 L
493.862 125.322 L
494.25 125.731 L
494.638 123.685 L
495.025 123.06 L
495.413 123.06 L
495.8 123.239 L
496.188 122.139 L
496.575 120.651 L
496.962 119.237 L
497.35 117.087 L
497.737 117.087 L
498.125 116.331 L
498.513 115.387 L
498.9 113.968 L
499.288 113.246 L
499.675 114.338 L
500.063 114.665 L
500.45 112.638 L
500.837 113.021 L
501.225 112.723 L
501.612 114.906 L
502 117.157 L
502.388 119.695 L
502.775 120.644 L
503.163 121.38 L
503.55 121.254 L
503.938 123.008 L
504.325 122.505 L
504.712 122.901 L
505.1 121.651 L
505.487 121.823 L
505.875 121.666 L
506.263 122.32 L
506.65 121.829 L
507.038 122.304 L
507.425 121.813 L
507.813 122.191 L
508.2 120.349 L
508.587 120.472 L
508.975 120.296 L
509.362 119.524 L
509.75 118.791 L
510.138 118.51 L
510.525 117.247 L
510.913 116.801 L
511.3 116.385 L
511.688 114.585 L
512.075 116.119 L
512.463 116.119 L
512.85 115.641 L
513.237 113.779 L
513.625 114.043 L
514.013 115.135 L
514.4 114.609 L
514.787 114.251 L
515.175 114.47 L
515.563 113.661 L
515.95 113.62 L
516.338 113.307 L
516.725 113.717 L
517.112 114.272 L
517.5 112.597 L
517.888 112.597 L
518.275 111.952 L
518.662 112.154 L
519.05 110.931 L
519.438 109.542 L
519.825 109.542 L
520.213 109.13 L
520.6 108.981 L
520.987 108.869 L
521.375 107.778 L
521.763 107.164 L
522.15 108.037 L
522.537 106.951 L
522.925 105.641 L
523.313 105.358 L
523.7 103.604 L
524.088 104.256 L
524.475 103.547 L
524.862 104.076 L
525.25 103.32 L
525.638 102.484 L
526.025 101.899 L
526.412 100.753 L
526.8 99.701 L
527.188 99.361 L
527.575 98.929 L
527.963 98.929 L
528.35 97.783 L
528.737 97.308 L
529.125 97.308 L
529.513 96.911 L
529.9 98.174 L
530.287 98.174 L
530.675 97.093 L
531.063 96.321 L
531.45 96.587 L
531.838 95.052 L
532.225 94.464 L
532.612 96.042 L
533 96.578 L
533.388 96.401 L
533.775 94.806 L
534.162 95.332 L
534.55 94.927 L
534.938 94.709 L
535.325 93.904 L
535.713 94.764 L
536.1 94.343 L
536.487 93.388 L
536.875 92.254 L
537.263 93.099 L
537.65 93.018 L
538.037 92.642 L
538.425 91.709 L
538.813 91.693 L
539.2 91.336 L
539.588 90.353 L
539.975 91.047 L
540.362 90.331 L
540.75 89.103 L
541.138 87.724 L
541.525 85.576 L
541.912 82.083 L
542.3 81.982 L
542.688 82.555 L
543.075 81.982 L
543.463 81.658 L
543.85 81.1 L
544.237 80.609 L
544.625 79.425 L
545.013 79.425 L
545.4 79.846 L
545.787 79.846 L
546.175 80.256 L
546.563 81.767 L
546.95 81.101 L
547.338 80.75 L
547.725 81.648 L
548.112 81.276 L
548.5 81.75 L
548.888 81.399 L
549.275 81.797 L
549.662 80.966 L
550.05 82.05 L
550.438 83.131 L
550.825 83.657 L
551.213 83.438 L
551.6 83.273 L
551.987 82.941 L
552.375 81.464 L
552.763 81.572 L
553.15 81.976 L
553.537 82.48 L
553.925 81.58 L
554.313 81.657 L
554.7 80.448 L
555.088 80.475 L
555.475 79.757 L
555.862 80.751 L
556.25 82.264 L
556.638 85.333 L
557.025 86.246 L
557.412 85.95 L
557.8 88.187 L
558.188 90.679 L
558.575 91.634 L
558.963 91.991 L
559.35 91.764 L
559.737 92.419 L
560.125 93.135 L
560.513 94.889 L
560.9 96.417 L
561.287 96.928 L
561.675 98.074 L
562.063 98.759 L
562.45 98.871 L
562.838 99.109 L
563.225 100.695 L
563.612 102.414 L
564 102.905 L
564.388 103.56 L
564.775 104.033 L
565.162 103.899 L
565.55 103.665 L
565.938 102.883 L
566.325 102.846 L
566.713 102.685 L
567.1 104.12 L
567.487 104.082 L
567.875 107.319 L
568.263 108.053 L
568.65 109.339 L
569.037 109.339 L
569.425 109.099 L
569.813 110.587 L
570.2 111.033 L
570.588 111.77 L
570.975 112.408 L
571.362 114.108 L
571.75 114.713 L
572.138 115.091 L
572.525 115.544 L
572.912 115.614 L
573.3 115.763 L
573.688 117.891 L
574.075 118.464 L
574.463 118.059 L
574.85 119.021 L
575.237 119.903 L
575.625 118.675 L
576.013 119.568 L
576.4 117.838 L
576.787 117.265 L
577.175 119.579 L
577.563 117.606 L
577.95 116.992 L
578.338 116.992 L
578.725 115.866 L
579.112 116.093 L
579.5 116.911 L
579.888 115.601 L
580.275 114.175 L
580.662 112.88 L
581.05 113.195 L
581.438 113.686 L
581.825 115.025 L
582.213 116.142 L
582.6 117.295 L
582.987 117.116 L
583.375 116.352 L
583.763 116.665 L
584.15 117.469 L
584.537 117.714 L
584.925 117.13 L
585.313 118.276 L
585.7 120.899 L
586.088 120.319 L
586.475 120.319 L
586.862 120.716 L
587.25 120.47 L
587.638 116.787 L
588.025 116.474 L
588.412 115.144 L
588.8 115.144 L
589.188 116.707 L
589.575 114.772 L
589.963 114.431 L
590.35 113.6 L
590.737 113.488 L
591.125 112.818 L
591.513 112.701 L
591.9 113.354 L
592.287 113.354 L
592.675 114.087 L
593.063 112.629 L
593.45 110.551 L
593.838 110.142 L
594.225 110.118 L
594.612 109.646 L
595 108.586 L
595.388 107.768 L
595.775 105.416 L
596.162 105.588 L
596.55 105.342 L
596.938 103.091 L
597.325 103.675 L
597.713 102.353 L
598.1 101.78 L
598.487 102.7 L
598.875 101.718 L
599.263 99.569 L
599.65 99.997 L
600.037 101.143 L
600.425 103.108 L
600.813 102.421 L
601.2 100.807 L
601.588 99.914 L
601.975 97.731 L
602.362 96.578 L
602.75 95.883 L
603.138 94.928 L
603.525 94.482 L
603.912 92.696 L
604.3 93.269 L
604.688 94.024 L
605.075 93.697 L
605.463 92.265 L
605.85 91.818 L
606.237 92.378 L
606.625 92.378 L
607.013 93.417 L
607.4 94.756 L
607.787 94.335 L
608.175 96.484 L
608.563 97.614 L
608.95 96.498 L
609.338 96.141 L
609.725 95.024 L
610.112 94.783 L
610.5 95.341 L
610.888 94.374 L
611.275 94.374 L
611.662 93.29 L
612.05 92.553 L
612.438 91.422 L
612.825 91.85 L
613.213 92.812 L
613.6 92.914 L
613.987 93.165 L
614.375 93.637 L
614.763 93.878 L
615.15 94.634 L
615.537 95.817 L
615.925 95.062 L
616.313 96.513 L
616.7 95.983 L
617.088 94.971 L
617.475 94.072 L
617.862 94.172 L
618.25 93.617 L
618.638 94.163 L
619.025 94.183 L
619.412 94.348 L
619.8 95.681 L
620.188 93.84 L
620.575 95.358 L
620.963 95.265 L
621.35 93.479 L
621.737 93.784 L
622.125 92.891 L
622.513 92.933 L
622.9 92.056 L
623.287 91.535 L
623.675 92.081 L
624.063 90.035 L
624.45 89.444 L
624.838 88.626 L
625.225 87.398 L
625.612 87.606 L
626 87.495 L
626.388 86.295 L
626.775 85.367 L
627.162 85.184 L
627.55 84.131 L
627.938 82.377 L
628.325 80.896 L
628.713 80.211 L
629.1 79.229 L
629.487 78.902 L
629.875 79.348 L
630.263 78.455 L
630.65 77.91 L
631.037 77.208 L
631.425 76.73 L
631.813 76.484 L
632.2 77.303 L
632.588 77.161 L
632.975 75.821 L
633.362 75.278 L
633.75 74.959 L
634.138 74.438 L
634.525 74.375 L
634.912 73.908 L
635.3 72.397 L
635.688 71.887 L
636.075 69.442 L
636.463 69.767 L
636.85 69.44 L
637.237 69.908 L
637.625 69.441 L
638.013 68.863 L
638.4 68.972 L
638.787 68.645 L
639.175 68.102 L
639.563 65.541 L
639.95 65.278 L
640.338 63.62 L
640.725 63.853 L
641.112 64.16 L
641.5 64.284 L
641.888 64.284 L
642.275 63.969 L
642.662 64.232 L
643.05 63.413 L
643.438 62.868 L
643.825 63.482 L
644.213 62.561 L
644.6 62.635 L
644.987 62.226 L
645.375 62.185 L
645.763 61.736 L
646.15 61.271 L
646.537 60.545 L
646.925 59.39 L
647.313 59.768 L
647.7 59.066 L
648.088 58.942 L
648.475 58.989 L
648.862 58.989 L
649.25 59.262 L
649.638 58.678 L
650.025 58.918 L
650.412 59.539 L
650.8 60.672 L
651.188 60.776 L
651.575 59.998 L
651.963 59.418 L
652.35 58.804 L
652.737 60.144 L
653.125 60.024 L
653.513 60.175 L
653.9 60.249 L
654.287 60.627 L
654.675 60.785 L
655.063 61.918 L
655.45 63.012 L
655.838 63.671 L
656.225 64.46 L
656.612 65.8 L
657 65.615 L
657.388 66.309 L
657.775 66.964 L
658.162 67.618 L
658.55 67.618 L
658.938 67.854 L
659.325 68.364 L
659.713 68.715 L
660.1 69.636 L
660.487 69.523 L
660.875 70.034 L
661.263 69.684 L
661.65 70.502 L
662.037 71.648 L
662.425 72.374 L
662.813 73.777 L
663.2 74.391 L
663.588 74.868 L
663.975 76.379 L
664.362 76.714 L
664.75 77.635 L
665.138 77.431 L
665.525 79.306 L
665.912 80.263 L
666.3 80.467 L
666.688 81.36 L
667.075 81.876 L
667.463 82.322 L
667.85 83.381 L
668.237 84.863 L
668.625 85.564 L
669.013 85.905 L
669.4 85.727 L
669.787 84.901 L
670.175 84.525 L
670.563 84.147 L
670.95 84.521 L
671.338 85.828 L
671.725 85.987 L
672.112 86.642 L
672.5 85.958 L
672.888 86.401 L
673.275 87.956 L
673.662 89.295 L
674.05 88.49 L
674.438 88.421 L
674.825 87.942 L
675.213 87.421 L
675.6 88.314 L
675.987 87.218 L
676.375 87.282 L
676.763 87.023 L
677.15 87.827 L
677.537 88.646 L
677.925 88.318 L
678.313 89.721 L
678.7 90.16 L
679.088 89.711 L
679.475 91.242 L
679.862 91.242 L
680.25 91.41 L
680.638 90.969 L
681.025 91.11 L
681.412 91.802 L
681.8 90.096 L
682.188 89.809 L
682.575 88.695 L
682.963 88.974 L
683.35 88.638 L
683.737 87.782 L
684.125 86.554 L
684.513 87.144 L
684.9 87.868 L
685.287 86.013 L
685.675 85.522 L
686.063 85.405 L
686.45 85.126 L
686.838 84.522 L
687.225 84.689 L
687.612 83.871 L
688 82.916 L
688.388 82.565 L
688.775 82.224 L
689.162 81.973 L
689.55 82.113 L
689.938 81.809 L
690.325 81.054 L
690.713 80.625 L
691.1 79.692 L
691.487 79.017 L
691.875 78.651 L
692.263 77.996 L
692.65 77.646 L
693.037 76.663 L
693.425 75.77 L
693.813 76.098 L
694.2 76.476 L
694.588 77.16 L
694.975 77.324 L
695.362 75.827 L
695.75 75.743 L
696.138 75.322 L
696.525 75.298 L
696.912 73.958 L
697.3 72.862 L
697.688 72.862 L
698.075 71.459 L
698.463 70.875 L
698.85 71.386 L
699.237 71.337 L
699.625 70.46 L
700.013 69.914 L
700.4 69.536 L
700.787 69.623 L
701.175 68.357 L
701.563 68.371 L
701.95 68.075 L
702.338 67.786 L
702.725 67.648 L
703.112 67.244 L
703.5 66.802 L
703.888 67.936 L
704.275 67.291 L
704.662 66.976 L
705.05 68.695 L
705.438 68.606 L
705.825 68.211 L
706.213 68.299 L
706.6 68.299 L
706.987 68.34 L
707.375 69.307 L
707.763 68.08 L
708.15 68.781 L
708.537 70.145 L
708.925 70.8 L
709.313 70.681 L
709.7 70.818 L
710.088 71.196 L
710.475 71.578 L
710.862 71.351 L
711.25 71.551 L
711.638 72.773 L
712.025 73.529 L
712.412 73.467 L
712.8 73.824 L
713.188 73.467 L
713.575 74.995 L
713.963 74.567 L
714.35 73.805 L
714.737 73.642 L
715.125 75.536 L
715.513 76.652 L
715.9 76.324 L
716.287 76.418 L
716.675 76.954 L
717.063 77.497 L
717.45 76.514 L
717.838 78.026 L
718.225 77.936 L
718.612 78.099 L
719 78.595 L
719.388 79.718 L
719.775 81.355 L
720.162 82.248 L
720.55 84.126 L
720.938 85.19 L
721.325 86.391 L
721.713 86.249 L
722.1 87.067 L
722.487 87.651 L
722.875 89.086 L
723.263 89.925 L
723.65 89.143 L
724.037 88.549 L
724.425 89.963 L
724.813 89.144 L
725.2 89.479 L
725.588 89.827 L
725.975 90.465 L
726.362 91.309 L
726.75 91.232 L
727.138 90.674 L
727.525 91.656 L
727.912 91.182 L
728.3 90.122 L
728.688 89.14 L
729.075 90.599 L
729.463 91.23 L
729.85 91.159 L
730.237 92.142 L
730.625 92.405 L
731.013 92.72 L
731.4 91.964 L
731.787 92.437 L
732.175 92.762 L
732.563 92.555 L
732.95 92.801 L
733.338 91.32 L
733.725 92.045 L
734.112 91.756 L
734.5 92.341 L
734.888 90.447 L
735.275 90.16 L
735.662 89.794 L
736.05 89.794 L
736.438 89.118 L
736.825 89.331 L
737.213 89.604 L
737.6 88.382 L
737.987 88.004 L
738.375 87.294 L
738.763 85.843 L
739.15 84.37 L
739.537 84.779 L
739.925 84.214 L
740.313 82.004 L
740.7 81.827 L
741.088 80.354 L
741.475 79.74 L
741.862 79.299 L
742.25 78.311 L
742.638 77.179 L
743.025 77.179 L
743.412 79.011 L
743.8 79.494 L
744.188 77.569 L
744.575 77.043 L
744.963 76.122 L
745.35 75.794 L
745.737 75.507 L
746.125 74.374 L
746.513 74.848 L
746.9 73.971 L
747.287 73.367 L
747.675 73.335 L
748.063 73.412 L
748.45 73.719 L
748.838 72.311 L
749.225 71.656 L
749.612 72.004 L
750 70.625 L
750.388 70.011 L
750.775 69.664 L
751.162 69.181 L
751.55 68.242 L
751.938 67.979 L
752.325 67.898 L
752.713 67.08 L
753.1 66.651 L
753.487 65.599 L
753.875 65.617 L
754.263 64.213 L
754.65 65.058 L
755.037 64.66 L
755.425 64.63 L
755.813 64.561 L
756.2 64.254 L
756.588 64.041 L
756.975 66.497 L
757.362 66.822 L
757.75 67.641 L
758.138 68.123 L
758.525 67.55 L
758.912 68.778 L
759.3 67.059 L
759.688 67.487 L
760.075 67.733 L
760.463 66.6 L
760.85 66.872 L
761.237 67.45 L
761.625 67.4 L
762.013 67.663 L
762.4 67.008 L
762.787 66.611 L
763.175 64.717 L
763.563 65.014 L
763.95 65.84 L
764.338 65.445 L
764.725 65.894 L
765.112 65.944 L
765.5 65.15 L
765.888 65.728 L
766.275 64.676 L
766.662 64.325 L
767.05 64.525 L
767.438 64.735 L
767.825 65.132 L
768.213 65.439 L
768.6 65.763 L
768.987 65.436 L
769.375 65.763 L
769.763 66.082 L
770.15 66.389 L
770.537 66.195 L
770.925 66.815 L
771.313 67.227 L
771.7 67.227 L
772.088 66.643 L
772.475 66.584 L
772.862 67.013 L
773.25 67.459 L
773.638 67.153 L
774.025 67.411 L
774.412 67.617 L
774.8 67.269 L
775.188 67.666 L
775.575 67.407 L
775.963 68.3 L
776.35 67.707 L
776.737 65.224 L
777.125 65.662 L
777.513 65.662 L
777.9 65.484 L
778.287 65.137 L
778.675 63.909 L
779.063 63.827 L
779.45 63.399 L
779.838 64.247 L
780.225 65.003 L
780.612 65.712 L
781 65.423 L
781.388 65.423 L
781.775 65.256 L
782.162 65.833 L
782.55 65.451 L
782.938 65.817 L
783.325 65.467 L
783.713 65.035 L
784.1 65.546 L
784.487 64.791 L
784.875 65.027 L
785.263 65.178 L
785.65 65.521 L
786.037 65.899 L
786.425 66.717 L
786.813 67.367 L
787.2 67.313 L
787.588 66.839 L
787.975 67.207 L
788.362 66.812 L
788.75 67.119 L
789.138 66.41 L
789.525 66.159 L
789.912 67.08 L
790.3 66.729 L
790.688 66.703 L
791.075 66.291 L
791.463 65.94 L
791.85 66.086 L
792.237 66.281 L
792.625 65.886 L
793.013 65.747 L
793.4 66.64 L
793.787 67.137 L
794.175 66.779 L
794.563 68.227 L
794.95 67.845 L
795.338 68.458 L
795.725 68.905 L
796.112 68.987 L
796.5 69.048 L
796.888 69.129 L
797.275 68.925 L
797.662 68.961 L
798.05 69.52 L
798.438 69.827 L
798.825 70.4 L
799.213 71.584 L
799.6 70.245 L
799.987 70.308 L
800.375 69.598 L
800.763 69.964 L
801.15 70.251 L
801.537 69.804 L
801.925 70.36 L
802.313 71.22 L
802.7 71.384 L
803.088 71.173 L
803.475 70.823 L
803.862 70.55 L
804.25 71.164 L
804.638 71.164 L
805.025 71.647 L
805.412 70.727 L
805.8 70.607 L
806.188 70.544 L
806.575 69.316 L
806.963 69.536 L
807.35 68.958 L
807.737 67.976 L
808.125 67.941 L
808.513 68.39 L
808.9 68.819 L
809.287 69.544 L
809.675 69.209 L
810.063 71.392 L
810.45 71.865 L
810.838 71.903 L
811.225 73.306 L
811.612 73.043 L
812 72.825 L
812.388 73.857 L
812.775 73.839 L
813.162 72.946 L
813.55 72.191 L
813.938 71.481 L
814.325 70.016 L
814.713 70.05 L
815.1 69.743 L
815.487 68.404 L
815.875 68.696 L
816.263 70.354 L
816.65 69.548 L
817.037 69.207 L
817.425 69.575 L
817.813 69.155 L
818.2 68.848 L
818.588 68.275 L
818.975 67.21 L
819.362 68.996 L
819.75 68.879 L
820.138 69.308 L
820.525 70.439 L
820.912 70.878 L
821.3 71.256 L
821.688 70.429 L
822.075 69.296 L
822.463 69.233 L
822.85 69.031 L
823.237 69.601 L
823.625 69.362 L
824.013 68.748 L
824.4 68.134 L
824.787 67.568 L
825.175 67.946 L
825.563 68.066 L
825.95 68.231 L
826.338 68.538 L
826.725 68.373 L
827.112 68.373 L
827.5 68.679 L
827.888 68.64 L
828.275 69.358 L
828.662 69.271 L
829.05 69.2 L
829.438 68.635 L
829.825 66.452 L
830.213 65.371 L
830.6 65.317 L
830.987 65.047 L
831.375 64.696 L
831.763 64.368 L
832.15 63.029 L
832.537 62.74 L
832.925 63.442 L
833.313 64.02 L
833.7 64.098 L
834.088 63.809 L
834.475 65.288 L
834.862 65.39 L
835.25 65.679 L
835.638 65.328 L
836.025 63.741 L
836.412 63.765 L
836.8 63.492 L
837.188 63.164 L
837.575 63.332 L
837.963 63.566 L
838.35 63.32 L
838.737 63.488 L
839.125 62.457 L
839.513 62.457 L
839.9 61.756 L
840.287 60.437 L
840.675 59.599 L
841.063 59.835 L
841.45 59.835 L
841.838 60.185 L
842.225 59.976 L
842.612 59.687 L
843 58.766 L
843.388 59.798 L
843.775 60.105 L
844.162 61.742 L
844.55 62.07 L
844.938 61.692 L
845.325 62.367 L
845.713 61.773 L
846.1 62.6 L
846.487 62.663 L
846.875 63.013 L
847.263 63.284 L
847.65 63.806 L
848.037 62.946 L
848.425 63.088 L
848.813 62.761 L
849.2 62.74 L
849.588 63.318 L
849.975 63.673 L
850.362 64.102 L
850.75 63.258 L
851.138 65.49 L
851.525 66.192 L
851.912 67.244 L
852.3 68.297 L
852.688 68.934 L
853.075 68.629 L
853.463 69.097 L
853.85 69.853 L
854.237 68.067 L
854.625 67.658 L
855.013 67.369 L
855.4 67.018 L
855.787 67.254 L
856.175 66.903 L
856.563 66.903 L
856.95 66.521 L
857.338 65.907 L
857.725 65.673 L
858.112 66.001 L
858.5 65.633 L
858.888 65.204 L
859.275 65.258 L
859.662 65.96 L
860.05 66.147 L
860.438 67.067 L
860.825 66.804 L
861.213 66.965 L
861.6 67.48 L
861.987 67.452 L
862.375 67.803 L
862.763 67.803 L
863.15 67.118 L
863.537 67.138 L
863.925 66.729 L
864.313 66.32 L
864.7 66.609 L
865.088 66.69 L
865.475 66.362 L
865.862 65.536 L
866.25 65.851 L
866.638 65.878 L
867.025 66.639 L
867.412 66.33 L
867.8 67.19 L
868.188 66.434 L
868.575 66.068 L
868.963 66.229 L
869.35 65.94 L
869.737 66.028 L
870.125 65.326 L
870.513 65.692 L
870.9 63.767 L
871.287 63.372 L
871.675 62.32 L
872.063 61.969 L
872.45 60.888 L
872.838 60.904 L
873.225 60.436 L
873.612 59.681 L
874 61.02 L
874.388 61.02 L
874.775 62.531 L
875.162 63.398 L
875.55 63.073 L
875.938 63.38 L
876.325 63.807 L
876.713 63.534 L
877.1 63.534 L
877.487 63.534 L
877.875 63.962 L
878.263 64.262 L
878.65 64.69 L
879.037 64.224 L
879.425 64.224 L
879.813 64.387 L
880.2 63.868 L
880.588 64.095 L
880.975 64.855 L
881.362 63.988 L
881.75 64.126 L
882.138 64.292 L
882.525 64.67 L
882.912 64.274 L
883.3 64.438 L
883.688 63.677 L
884.075 63.759 L
884.463 64.084 L
884.85 63.36 L
885.237 63.938 L
885.625 63.92 L
886.013 62.787 L
886.4 62.736 L
886.787 61.397 L
887.175 62.178 L
887.563 60.705 L
887.95 61.406 L
888.338 62.17 L
888.725 62.009 L
889.112 62.027 L
889.5 61.653 L
889.888 61.653 L
890.275 61.653 L
890.662 61.755 L
891.05 62.15 L
891.438 62.439 L
891.825 65.421 L
892.213 66.502 L
892.6 67.031 L
892.987 67.008 L
893.375 67.281 L
893.763 67.169 L
894.15 67.52 L
894.537 66.009 L
894.925 65.142 L
895.313 66.081 L
895.7 66.319 L
896.088 66.442 L
896.475 67.023 L
896.862 67.63 L
897.25 68.263 L
897.638 68.067 L
898.025 68.106 L
898.412 67.898 L
898.8 68.246 L
899.188 68.099 L
899.575 67.794 L
899.963 67.742 L
900.35 67.735 L
900.737 66.833 L
901.125 67.619 L
901.513 67.496 L
901.9 67.573 L
902.287 67.869 L
902.675 68.374 L
903.063 68.529 L
903.45 68.734 L
903.838 69.2 L
904.225 69.177 L
904.612 69.54 L
905 69.599 L
S
GR
%%Trailer
%%Pages: 1
%%EOF
