%!PS-Adobe-3.0 EPSF-3.0
%%Creator: (MATLAB, The Mathworks, Inc. Version 9.0.0.341360 \(R2016a\). Operating System: Linux)
%%Title: report/figures/sm_base_lin_geoprio1_ratio.eps
%%CreationDate: 2017-02-04T23:56:23
%%Pages: (atend)
%%BoundingBox:    59     4   910   325
%%LanguageLevel: 3
%%EndComments
%%BeginProlog
%%BeginResource: procset (Apache XML Graphics Std ProcSet) 1.2 0
%%Version: 1.2 0
%%Copyright: (Copyright 2001-2003,2010 The Apache Software Foundation. License terms: http://www.apache.org/licenses/LICENSE-2.0)
/bd{bind def}bind def
/ld{load def}bd
/GR/grestore ld
/M/moveto ld
/LJ/setlinejoin ld
/C/curveto ld
/f/fill ld
/LW/setlinewidth ld
/GC/setgray ld
/t/show ld
/N/newpath ld
/CT/concat ld
/cp/closepath ld
/S/stroke ld
/L/lineto ld
/CC/setcmykcolor ld
/A/ashow ld
/GS/gsave ld
/RC/setrgbcolor ld
/RM/rmoveto ld
/ML/setmiterlimit ld
/re {4 2 roll M
1 index 0 rlineto
0 exch rlineto
neg 0 rlineto
cp } bd
/_ctm matrix def
/_tm matrix def
/BT { _ctm currentmatrix pop matrix _tm copy pop 0 0 moveto } bd
/ET { _ctm setmatrix } bd
/iTm { _ctm setmatrix _tm concat } bd
/Tm { _tm astore pop iTm 0 0 moveto } bd
/ux 0.0 def
/uy 0.0 def
/F {
  /Tp exch def
  /Tf exch def
  Tf findfont Tp scalefont setfont
  /cf Tf def  /cs Tp def
} bd
/ULS {currentpoint /uy exch def /ux exch def} bd
/ULE {
  /Tcx currentpoint pop def
  gsave
  newpath
  cf findfont cs scalefont dup
  /FontMatrix get 0 get /Ts exch def /FontInfo get dup
  /UnderlinePosition get Ts mul /To exch def
  /UnderlineThickness get Ts mul /Tt exch def
  ux uy To add moveto  Tcx uy To add lineto
  Tt setlinewidth stroke
  grestore
} bd
/OLE {
  /Tcx currentpoint pop def
  gsave
  newpath
  cf findfont cs scalefont dup
  /FontMatrix get 0 get /Ts exch def /FontInfo get dup
  /UnderlinePosition get Ts mul /To exch def
  /UnderlineThickness get Ts mul /Tt exch def
  ux uy To add cs add moveto Tcx uy To add cs add lineto
  Tt setlinewidth stroke
  grestore
} bd
/SOE {
  /Tcx currentpoint pop def
  gsave
  newpath
  cf findfont cs scalefont dup
  /FontMatrix get 0 get /Ts exch def /FontInfo get dup
  /UnderlinePosition get Ts mul /To exch def
  /UnderlineThickness get Ts mul /Tt exch def
  ux uy To add cs 10 mul 26 idiv add moveto Tcx uy To add cs 10 mul 26 idiv add lineto
  Tt setlinewidth stroke
  grestore
} bd
/QT {
/Y22 exch store
/X22 exch store
/Y21 exch store
/X21 exch store
currentpoint
/Y21 load 2 mul add 3 div exch
/X21 load 2 mul add 3 div exch
/X21 load 2 mul /X22 load add 3 div
/Y21 load 2 mul /Y22 load add 3 div
/X22 load /Y22 load curveto
} bd
/SSPD {
dup length /d exch dict def
{
/v exch def
/k exch def
currentpagedevice k known {
/cpdv currentpagedevice k get def
v cpdv ne {
/upd false def
/nullv v type /nulltype eq def
/nullcpdv cpdv type /nulltype eq def
nullv nullcpdv or
{
/upd true def
} {
/sametype v type cpdv type eq def
sametype {
v type /arraytype eq {
/vlen v length def
/cpdvlen cpdv length def
vlen cpdvlen eq {
0 1 vlen 1 sub {
/i exch def
/obj v i get def
/cpdobj cpdv i get def
obj cpdobj ne {
/upd true def
exit
} if
} for
} {
/upd true def
} ifelse
} {
v type /dicttype eq {
v {
/dv exch def
/dk exch def
/cpddv cpdv dk get def
dv cpddv ne {
/upd true def
exit
} if
} forall
} {
/upd true def
} ifelse
} ifelse
} if
} ifelse
upd true eq {
d k v put
} if
} if
} if
} forall
d length 0 gt {
d setpagedevice
} if
} bd
%%EndResource
%%BeginResource: procset (Apache XML Graphics EPS ProcSet) 1.0 0
%%Version: 1.0 0
%%Copyright: (Copyright 2002-2003 The Apache Software Foundation. License terms: http://www.apache.org/licenses/LICENSE-2.0)
/BeginEPSF { %def
/b4_Inc_state save def         % Save state for cleanup
/dict_count countdictstack def % Count objects on dict stack
/op_count count 1 sub def      % Count objects on operand stack
userdict begin                 % Push userdict on dict stack
/showpage { } def              % Redefine showpage, { } = null proc
0 setgray 0 setlinecap         % Prepare graphics state
1 setlinewidth 0 setlinejoin
10 setmiterlimit [ ] 0 setdash newpath
/languagelevel where           % If level not equal to 1 then
{pop languagelevel             % set strokeadjust and
1 ne                           % overprint to their defaults.
{false setstrokeadjust false setoverprint
} if
} if
} bd
/EndEPSF { %def
count op_count sub {pop} repeat            % Clean up stacks
countdictstack dict_count sub {end} repeat
b4_Inc_state restore
} bd
%%EndResource
%%EndProlog
%%Page: 1 1
%%PageBoundingBox: 0 0 1000 350
%%BeginPageSetup
[1 0 0 -1 0 350] CT
%%EndPageSetup
GS
1 GC
N
0 0 1000 350 re
f
GR
GS
1 GC
N
0 0 1000 350 re
f
GR
GS
1 GC
N
130 289 M
905 289 L
905 26 L
130 26 L
cp
f
GR
GS
0.873 GC
1 LJ
0.5 LW
N
130 289 M
130 26 L
S
GR
GS
0.873 GC
1 LJ
0.5 LW
N
323.75 289 M
323.75 26 L
S
GR
GS
0.873 GC
1 LJ
0.5 LW
N
517.5 289 M
517.5 26 L
S
GR
GS
0.873 GC
1 LJ
0.5 LW
N
711.25 289 M
711.25 26 L
S
GR
GS
0.873 GC
1 LJ
0.5 LW
N
905 289 M
905 26 L
S
GR
GS
0.873 GC
1 LJ
0.5 LW
N
905 289 M
130 289 L
S
GR
GS
0.873 GC
1 LJ
0.5 LW
N
905 238.905 M
130 238.905 L
S
GR
GS
0.873 GC
1 LJ
0.5 LW
N
905 188.81 M
130 188.81 L
S
GR
GS
0.873 GC
1 LJ
0.5 LW
N
905 138.714 M
130 138.714 L
S
GR
GS
0.873 GC
1 LJ
0.5 LW
N
905 88.619 M
130 88.619 L
S
GR
GS
0.873 GC
1 LJ
0.5 LW
N
905 38.524 M
130 38.524 L
S
GR
GS
0.149 GC
2 setlinecap
1 LJ
0.5 LW
N
130 289 M
905 289 L
S
GR
GS
0.149 GC
2 setlinecap
1 LJ
0.5 LW
N
130 289 M
130 281.25 L
S
GR
GS
0.149 GC
2 setlinecap
1 LJ
0.5 LW
N
323.75 289 M
323.75 281.25 L
S
GR
GS
0.149 GC
2 setlinecap
1 LJ
0.5 LW
N
517.5 289 M
517.5 281.25 L
S
GR
GS
0.149 GC
2 setlinecap
1 LJ
0.5 LW
N
711.25 289 M
711.25 281.25 L
S
GR
GS
0.149 GC
2 setlinecap
1 LJ
0.5 LW
N
905 289 M
905 281.25 L
S
GR
GS
[1 0 0 1 130 295] CT
0.149 GC
N
-0.141 5.719 M
-1.672 5.719 -2.438 7.219 QT
-3.203 8.719 -3.203 11.719 QT
-3.203 14.719 -2.438 16.219 QT
-1.672 17.719 -0.141 17.719 QT
1.391 17.719 2.156 16.219 QT
2.922 14.719 2.922 11.719 QT
2.922 8.719 2.156 7.219 QT
1.391 5.719 -0.141 5.719 QT
cp
-0.141 4.156 M
2.313 4.156 3.602 6.094 QT
4.891 8.031 4.891 11.719 QT
4.891 15.406 3.602 17.344 QT
2.313 19.281 -0.141 19.281 QT
-2.594 19.281 -3.891 17.344 QT
-5.188 15.406 -5.188 11.719 QT
-5.188 8.031 -3.891 6.094 QT
-2.594 4.156 -0.141 4.156 QT
cp
f
GR
GS
[1 0 0 1 323.75 295] CT
0.149 GC
N
-9.641 5.719 M
-11.172 5.719 -11.938 7.219 QT
-12.703 8.719 -12.703 11.719 QT
-12.703 14.719 -11.938 16.219 QT
-11.172 17.719 -9.641 17.719 QT
-8.109 17.719 -7.344 16.219 QT
-6.578 14.719 -6.578 11.719 QT
-6.578 8.719 -7.344 7.219 QT
-8.109 5.719 -9.641 5.719 QT
cp
-9.641 4.156 M
-7.188 4.156 -5.898 6.094 QT
-4.609 8.031 -4.609 11.719 QT
-4.609 15.406 -5.898 17.344 QT
-7.188 19.281 -9.641 19.281 QT
-12.094 19.281 -13.391 17.344 QT
-14.688 15.406 -14.688 11.719 QT
-14.688 8.031 -13.391 6.094 QT
-12.094 4.156 -9.641 4.156 QT
cp
-1.135 16.516 M
0.928 16.516 L
0.928 19 L
-1.135 19 L
-1.135 16.516 L
cp
5.238 4.422 M
12.988 4.422 L
12.988 6.078 L
7.051 6.078 L
7.051 9.656 L
7.473 9.5 7.902 9.43 QT
8.332 9.359 8.77 9.359 QT
11.207 9.359 12.637 10.695 QT
14.066 12.031 14.066 14.328 QT
14.066 16.672 12.598 17.977 QT
11.129 19.281 8.457 19.281 QT
7.551 19.281 6.598 19.125 QT
5.645 18.969 4.629 18.656 QT
4.629 16.672 L
5.504 17.156 6.441 17.391 QT
7.379 17.625 8.426 17.625 QT
10.113 17.625 11.098 16.734 QT
12.082 15.844 12.082 14.328 QT
12.082 12.797 11.098 11.906 QT
10.113 11.016 8.426 11.016 QT
7.629 11.016 6.848 11.195 QT
6.066 11.375 5.238 11.75 QT
5.238 4.422 L
cp
f
GR
GS
[1 0 0 1 517.5 295] CT
0.149 GC
N
-4.016 17.344 M
-0.797 17.344 L
-0.797 6.219 L
-4.297 6.922 L
-4.297 5.125 L
-0.813 4.422 L
1.156 4.422 L
1.156 17.344 L
4.375 17.344 L
4.375 19 L
-4.016 19 L
-4.016 17.344 L
cp
f
GR
GS
[1 0 0 1 711.25 295] CT
0.149 GC
N
-13.516 17.344 M
-10.297 17.344 L
-10.297 6.219 L
-13.797 6.922 L
-13.797 5.125 L
-10.313 4.422 L
-8.344 4.422 L
-8.344 17.344 L
-5.125 17.344 L
-5.125 19 L
-13.516 19 L
-13.516 17.344 L
cp
-1.135 16.516 M
0.928 16.516 L
0.928 19 L
-1.135 19 L
-1.135 16.516 L
cp
5.238 4.422 M
12.988 4.422 L
12.988 6.078 L
7.051 6.078 L
7.051 9.656 L
7.473 9.5 7.902 9.43 QT
8.332 9.359 8.77 9.359 QT
11.207 9.359 12.637 10.695 QT
14.066 12.031 14.066 14.328 QT
14.066 16.672 12.598 17.977 QT
11.129 19.281 8.457 19.281 QT
7.551 19.281 6.598 19.125 QT
5.645 18.969 4.629 18.656 QT
4.629 16.672 L
5.504 17.156 6.441 17.391 QT
7.379 17.625 8.426 17.625 QT
10.113 17.625 11.098 16.734 QT
12.082 15.844 12.082 14.328 QT
12.082 12.797 11.098 11.906 QT
10.113 11.016 8.426 11.016 QT
7.629 11.016 6.848 11.195 QT
6.066 11.375 5.238 11.75 QT
5.238 4.422 L
cp
f
GR
GS
[1 0 0 1 905 295] CT
0.149 GC
N
-2.656 17.344 M
4.219 17.344 L
4.219 19 L
-5.031 19 L
-5.031 17.344 L
-3.906 16.172 -1.969 14.219 QT
-0.031 12.266 0.469 11.688 QT
1.406 10.625 1.781 9.891 QT
2.156 9.156 2.156 8.438 QT
2.156 7.281 1.344 6.547 QT
0.531 5.813 -0.781 5.813 QT
-1.703 5.813 -2.734 6.133 QT
-3.766 6.453 -4.938 7.109 QT
-4.938 5.125 L
-3.75 4.641 -2.711 4.398 QT
-1.672 4.156 -0.813 4.156 QT
1.453 4.156 2.797 5.289 QT
4.141 6.422 4.141 8.313 QT
4.141 9.219 3.805 10.023 QT
3.469 10.828 2.578 11.922 QT
2.344 12.203 1.031 13.555 QT
-0.281 14.906 -2.656 17.344 QT
cp
f
GR
GS
[1 0 0 1 517.50037 320] CT
0.149 GC
N
-14.25 9.328 M
-14.25 11.188 L
-15.094 10.766 -16 10.547 QT
-16.906 10.328 -17.859 10.328 QT
-19.344 10.328 -20.078 10.781 QT
-20.813 11.234 -20.813 12.141 QT
-20.813 12.828 -20.281 13.219 QT
-19.75 13.609 -18.172 13.969 QT
-17.484 14.109 L
-15.391 14.563 -14.5 15.383 QT
-13.609 16.203 -13.609 17.688 QT
-13.609 19.359 -14.938 20.336 QT
-16.266 21.313 -18.578 21.313 QT
-19.547 21.313 -20.594 21.125 QT
-21.641 20.938 -22.813 20.563 QT
-22.813 18.516 L
-21.719 19.094 -20.648 19.375 QT
-19.578 19.656 -18.547 19.656 QT
-17.141 19.656 -16.391 19.18 QT
-15.641 18.703 -15.641 17.828 QT
-15.641 17.031 -16.188 16.602 QT
-16.734 16.172 -18.563 15.766 QT
-19.25 15.609 L
-21.094 15.219 -21.906 14.422 QT
-22.719 13.625 -22.719 12.219 QT
-22.719 10.531 -21.516 9.602 QT
-20.313 8.672 -18.109 8.672 QT
-17 8.672 -16.039 8.836 QT
-15.078 9 -14.25 9.328 QT
cp
-8.507 5.547 M
-8.507 8.969 L
-4.444 8.969 L
-4.444 10.5 L
-8.507 10.5 L
-8.507 17.031 L
-8.507 18.5 -8.108 18.922 QT
-7.71 19.344 -6.476 19.344 QT
-4.444 19.344 L
-4.444 21 L
-6.476 21 L
-8.757 21 -9.624 20.148 QT
-10.491 19.297 -10.491 17.031 QT
-10.491 10.5 L
-11.944 10.5 L
-11.944 8.969 L
-10.491 8.969 L
-10.491 5.547 L
-8.507 5.547 L
cp
8.447 14.484 M
8.447 15.453 L
-0.631 15.453 L
-0.506 17.5 0.596 18.57 QT
1.697 19.641 3.666 19.641 QT
4.807 19.641 5.869 19.359 QT
6.932 19.078 7.994 18.516 QT
7.994 20.391 L
6.932 20.844 5.814 21.078 QT
4.697 21.313 3.541 21.313 QT
0.666 21.313 -1.014 19.633 QT
-2.693 17.953 -2.693 15.109 QT
-2.693 12.141 -1.1 10.406 QT
0.494 8.672 3.197 8.672 QT
5.635 8.672 7.041 10.234 QT
8.447 11.797 8.447 14.484 QT
cp
6.479 13.906 M
6.447 12.281 5.564 11.32 QT
4.682 10.359 3.229 10.359 QT
1.572 10.359 0.572 11.289 QT
-0.428 12.219 -0.568 13.922 QT
6.479 13.906 L
cp
13.607 19.188 M
13.607 25.578 L
11.623 25.578 L
11.623 8.969 L
13.607 8.969 L
13.607 10.797 L
14.232 9.719 15.186 9.195 QT
16.139 8.672 17.451 8.672 QT
19.639 8.672 21.014 10.414 QT
22.389 12.156 22.389 15 QT
22.389 17.828 21.014 19.57 QT
19.639 21.313 17.451 21.313 QT
16.139 21.313 15.186 20.789 QT
14.232 20.266 13.607 19.188 QT
cp
20.326 15 M
20.326 12.813 19.436 11.57 QT
18.545 10.328 16.967 10.328 QT
15.404 10.328 14.506 11.57 QT
13.607 12.813 13.607 15 QT
13.607 17.172 14.506 18.414 QT
15.404 19.656 16.967 19.656 QT
18.545 19.656 19.436 18.414 QT
20.326 17.172 20.326 15 QT
cp
f
GR
GS
[1 0 0 1 852 345] CT
0.149 GC
N
2.938 -0.578 M
2.938 -0.734 3.031 -0.859 QT
7.203 -5 L
3.031 -9.156 L
2.938 -9.266 2.938 -9.422 QT
2.938 -9.578 3.055 -9.703 QT
3.172 -9.828 3.344 -9.828 QT
3.484 -9.828 3.641 -9.703 QT
7.781 -5.563 L
11.906 -9.703 L
12.078 -9.828 12.203 -9.828 QT
12.359 -9.828 12.477 -9.711 QT
12.594 -9.594 12.594 -9.422 QT
12.594 -9.266 12.5 -9.156 QT
8.344 -5 L
12.5 -0.859 L
12.594 -0.734 12.594 -0.578 QT
12.594 -0.406 12.477 -0.289 QT
12.359 -0.172 12.203 -0.172 QT
12.047 -0.172 11.906 -0.328 QT
7.781 -4.438 L
3.641 -0.328 L
3.5 -0.172 3.344 -0.172 QT
3.172 -0.172 3.055 -0.305 QT
2.938 -0.438 2.938 -0.578 QT
cp
f
GR
GS
[1 0 0 1 868 345] CT
0.149 GC
N
2.484 -1.656 M
5.703 -1.656 L
5.703 -12.781 L
2.203 -12.078 L
2.203 -13.875 L
5.688 -14.578 L
7.656 -14.578 L
7.656 -1.656 L
10.875 -1.656 L
10.875 0 L
2.484 0 L
2.484 -1.656 L
cp
19.084 -13.281 M
17.553 -13.281 16.787 -11.781 QT
16.021 -10.281 16.021 -7.281 QT
16.021 -4.281 16.787 -2.781 QT
17.553 -1.281 19.084 -1.281 QT
20.615 -1.281 21.381 -2.781 QT
22.146 -4.281 22.146 -7.281 QT
22.146 -10.281 21.381 -11.781 QT
20.615 -13.281 19.084 -13.281 QT
cp
19.084 -14.844 M
21.537 -14.844 22.826 -12.906 QT
24.115 -10.969 24.115 -7.281 QT
24.115 -3.594 22.826 -1.656 QT
21.537 0.281 19.084 0.281 QT
16.631 0.281 15.334 -1.656 QT
14.037 -3.594 14.037 -7.281 QT
14.037 -10.969 15.334 -12.906 QT
16.631 -14.844 19.084 -14.844 QT
cp
f
GR
GS
[1 0 0 1 894 335] CT
0.149 GC
N
5.281 -6.469 M
4.219 -6.469 3.602 -5.742 QT
2.984 -5.016 2.984 -3.75 QT
2.984 -2.484 3.602 -1.758 QT
4.219 -1.031 5.281 -1.031 QT
6.344 -1.031 6.969 -1.758 QT
7.594 -2.484 7.594 -3.75 QT
7.594 -5.016 6.969 -5.742 QT
6.344 -6.469 5.281 -6.469 QT
cp
8.422 -11.406 M
8.422 -9.969 L
7.828 -10.25 7.219 -10.398 QT
6.609 -10.547 6.016 -10.547 QT
4.453 -10.547 3.633 -9.492 QT
2.813 -8.438 2.688 -6.313 QT
3.156 -6.984 3.852 -7.352 QT
4.547 -7.719 5.375 -7.719 QT
7.141 -7.719 8.156 -6.648 QT
9.172 -5.578 9.172 -3.75 QT
9.172 -1.953 8.109 -0.859 QT
7.047 0.234 5.281 0.234 QT
3.266 0.234 2.195 -1.32 QT
1.125 -2.875 1.125 -5.828 QT
1.125 -8.594 2.438 -10.234 QT
3.75 -11.875 5.953 -11.875 QT
6.547 -11.875 7.156 -11.758 QT
7.766 -11.641 8.422 -11.406 QT
cp
f
GR
GS
0.149 GC
2 setlinecap
1 LJ
0.5 LW
N
130 289 M
130 26 L
S
GR
GS
0.149 GC
2 setlinecap
1 LJ
0.5 LW
N
130 289 M
137.75 289 L
S
GR
GS
0.149 GC
2 setlinecap
1 LJ
0.5 LW
N
130 238.905 M
137.75 238.905 L
S
GR
GS
0.149 GC
2 setlinecap
1 LJ
0.5 LW
N
130 188.81 M
137.75 188.81 L
S
GR
GS
0.149 GC
2 setlinecap
1 LJ
0.5 LW
N
130 138.714 M
137.75 138.714 L
S
GR
GS
0.149 GC
2 setlinecap
1 LJ
0.5 LW
N
130 88.619 M
137.75 88.619 L
S
GR
GS
0.149 GC
2 setlinecap
1 LJ
0.5 LW
N
130 38.524 M
137.75 38.524 L
S
GR
GS
[1 0 0 1 124 289] CT
0.149 GC
N
-6.641 -6.281 M
-8.172 -6.281 -8.938 -4.781 QT
-9.703 -3.281 -9.703 -0.281 QT
-9.703 2.719 -8.938 4.219 QT
-8.172 5.719 -6.641 5.719 QT
-5.109 5.719 -4.344 4.219 QT
-3.578 2.719 -3.578 -0.281 QT
-3.578 -3.281 -4.344 -4.781 QT
-5.109 -6.281 -6.641 -6.281 QT
cp
-6.641 -7.844 M
-4.188 -7.844 -2.898 -5.906 QT
-1.609 -3.969 -1.609 -0.281 QT
-1.609 3.406 -2.898 5.344 QT
-4.188 7.281 -6.641 7.281 QT
-9.094 7.281 -10.391 5.344 QT
-11.688 3.406 -11.688 -0.281 QT
-11.688 -3.969 -10.391 -5.906 QT
-9.094 -7.844 -6.641 -7.844 QT
cp
f
GR
GS
[1 0 0 1 124 238.90475] CT
0.149 GC
N
-22.156 5.344 M
-15.281 5.344 L
-15.281 7 L
-24.531 7 L
-24.531 5.344 L
-23.406 4.172 -21.469 2.219 QT
-19.531 0.266 -19.031 -0.313 QT
-18.094 -1.375 -17.719 -2.109 QT
-17.344 -2.844 -17.344 -3.563 QT
-17.344 -4.719 -18.156 -5.453 QT
-18.969 -6.188 -20.281 -6.188 QT
-21.203 -6.188 -22.234 -5.867 QT
-23.266 -5.547 -24.438 -4.891 QT
-24.438 -6.875 L
-23.25 -7.359 -22.211 -7.602 QT
-21.172 -7.844 -20.313 -7.844 QT
-18.047 -7.844 -16.703 -6.711 QT
-15.359 -5.578 -15.359 -3.688 QT
-15.359 -2.781 -15.695 -1.977 QT
-16.031 -1.172 -16.922 -0.078 QT
-17.156 0.203 -18.469 1.555 QT
-19.781 2.906 -22.156 5.344 QT
cp
-6.916 -6.281 M
-8.447 -6.281 -9.213 -4.781 QT
-9.979 -3.281 -9.979 -0.281 QT
-9.979 2.719 -9.213 4.219 QT
-8.447 5.719 -6.916 5.719 QT
-5.385 5.719 -4.619 4.219 QT
-3.854 2.719 -3.854 -0.281 QT
-3.854 -3.281 -4.619 -4.781 QT
-5.385 -6.281 -6.916 -6.281 QT
cp
-6.916 -7.844 M
-4.463 -7.844 -3.174 -5.906 QT
-1.885 -3.969 -1.885 -0.281 QT
-1.885 3.406 -3.174 5.344 QT
-4.463 7.281 -6.916 7.281 QT
-9.369 7.281 -10.666 5.344 QT
-11.963 3.406 -11.963 -0.281 QT
-11.963 -3.969 -10.666 -5.906 QT
-9.369 -7.844 -6.916 -7.844 QT
cp
f
GR
GS
[1 0 0 1 124 188.80952] CT
0.149 GC
N
-18.438 -5.859 M
-23.422 1.922 L
-18.438 1.922 L
-18.438 -5.859 L
cp
-18.953 -7.578 M
-16.484 -7.578 L
-16.484 1.922 L
-14.391 1.922 L
-14.391 3.563 L
-16.484 3.563 L
-16.484 7 L
-18.438 7 L
-18.438 3.563 L
-25.016 3.563 L
-25.016 1.656 L
-18.953 -7.578 L
cp
-6.916 -6.281 M
-8.447 -6.281 -9.213 -4.781 QT
-9.979 -3.281 -9.979 -0.281 QT
-9.979 2.719 -9.213 4.219 QT
-8.447 5.719 -6.916 5.719 QT
-5.385 5.719 -4.619 4.219 QT
-3.854 2.719 -3.854 -0.281 QT
-3.854 -3.281 -4.619 -4.781 QT
-5.385 -6.281 -6.916 -6.281 QT
cp
-6.916 -7.844 M
-4.463 -7.844 -3.174 -5.906 QT
-1.885 -3.969 -1.885 -0.281 QT
-1.885 3.406 -3.174 5.344 QT
-4.463 7.281 -6.916 7.281 QT
-9.369 7.281 -10.666 5.344 QT
-11.963 3.406 -11.963 -0.281 QT
-11.963 -3.969 -10.666 -5.906 QT
-9.369 -7.844 -6.916 -7.844 QT
cp
f
GR
GS
[1 0 0 1 124 138.71428] CT
0.149 GC
N
-19.391 -1.078 M
-20.719 -1.078 -21.5 -0.172 QT
-22.281 0.734 -22.281 2.328 QT
-22.281 3.891 -21.5 4.805 QT
-20.719 5.719 -19.391 5.719 QT
-18.063 5.719 -17.289 4.805 QT
-16.516 3.891 -16.516 2.328 QT
-16.516 0.734 -17.289 -0.172 QT
-18.063 -1.078 -19.391 -1.078 QT
cp
-15.484 -7.266 M
-15.484 -5.469 L
-16.219 -5.813 -16.977 -6 QT
-17.734 -6.188 -18.484 -6.188 QT
-20.438 -6.188 -21.469 -4.867 QT
-22.5 -3.547 -22.641 -0.875 QT
-22.063 -1.734 -21.195 -2.188 QT
-20.328 -2.641 -19.281 -2.641 QT
-17.078 -2.641 -15.805 -1.305 QT
-14.531 0.031 -14.531 2.328 QT
-14.531 4.563 -15.859 5.922 QT
-17.188 7.281 -19.391 7.281 QT
-21.922 7.281 -23.266 5.344 QT
-24.609 3.406 -24.609 -0.281 QT
-24.609 -3.734 -22.969 -5.789 QT
-21.328 -7.844 -18.563 -7.844 QT
-17.813 -7.844 -17.055 -7.695 QT
-16.297 -7.547 -15.484 -7.266 QT
cp
-6.916 -6.281 M
-8.447 -6.281 -9.213 -4.781 QT
-9.979 -3.281 -9.979 -0.281 QT
-9.979 2.719 -9.213 4.219 QT
-8.447 5.719 -6.916 5.719 QT
-5.385 5.719 -4.619 4.219 QT
-3.854 2.719 -3.854 -0.281 QT
-3.854 -3.281 -4.619 -4.781 QT
-5.385 -6.281 -6.916 -6.281 QT
cp
-6.916 -7.844 M
-4.463 -7.844 -3.174 -5.906 QT
-1.885 -3.969 -1.885 -0.281 QT
-1.885 3.406 -3.174 5.344 QT
-4.463 7.281 -6.916 7.281 QT
-9.369 7.281 -10.666 5.344 QT
-11.963 3.406 -11.963 -0.281 QT
-11.963 -3.969 -10.666 -5.906 QT
-9.369 -7.844 -6.916 -7.844 QT
cp
f
GR
GS
[1 0 0 1 124 88.61905] CT
0.149 GC
N
-19.641 0.078 M
-21.047 0.078 -21.852 0.828 QT
-22.656 1.578 -22.656 2.891 QT
-22.656 4.219 -21.852 4.969 QT
-21.047 5.719 -19.641 5.719 QT
-18.234 5.719 -17.422 4.961 QT
-16.609 4.203 -16.609 2.891 QT
-16.609 1.578 -17.414 0.828 QT
-18.219 0.078 -19.641 0.078 QT
cp
-21.609 -0.766 M
-22.891 -1.078 -23.594 -1.945 QT
-24.297 -2.813 -24.297 -4.063 QT
-24.297 -5.813 -23.055 -6.828 QT
-21.813 -7.844 -19.641 -7.844 QT
-17.469 -7.844 -16.227 -6.828 QT
-14.984 -5.813 -14.984 -4.063 QT
-14.984 -2.813 -15.695 -1.945 QT
-16.406 -1.078 -17.656 -0.766 QT
-16.234 -0.438 -15.438 0.531 QT
-14.641 1.5 -14.641 2.891 QT
-14.641 5.016 -15.938 6.148 QT
-17.234 7.281 -19.641 7.281 QT
-22.047 7.281 -23.344 6.148 QT
-24.641 5.016 -24.641 2.891 QT
-24.641 1.5 -23.844 0.531 QT
-23.047 -0.438 -21.609 -0.766 QT
cp
-22.344 -3.875 M
-22.344 -2.75 -21.633 -2.117 QT
-20.922 -1.484 -19.641 -1.484 QT
-18.375 -1.484 -17.656 -2.117 QT
-16.938 -2.75 -16.938 -3.875 QT
-16.938 -5.016 -17.656 -5.648 QT
-18.375 -6.281 -19.641 -6.281 QT
-20.922 -6.281 -21.633 -5.648 QT
-22.344 -5.016 -22.344 -3.875 QT
cp
-6.916 -6.281 M
-8.447 -6.281 -9.213 -4.781 QT
-9.979 -3.281 -9.979 -0.281 QT
-9.979 2.719 -9.213 4.219 QT
-8.447 5.719 -6.916 5.719 QT
-5.385 5.719 -4.619 4.219 QT
-3.854 2.719 -3.854 -0.281 QT
-3.854 -3.281 -4.619 -4.781 QT
-5.385 -6.281 -6.916 -6.281 QT
cp
-6.916 -7.844 M
-4.463 -7.844 -3.174 -5.906 QT
-1.885 -3.969 -1.885 -0.281 QT
-1.885 3.406 -3.174 5.344 QT
-4.463 7.281 -6.916 7.281 QT
-9.369 7.281 -10.666 5.344 QT
-11.963 3.406 -11.963 -0.281 QT
-11.963 -3.969 -10.666 -5.906 QT
-9.369 -7.844 -6.916 -7.844 QT
cp
f
GR
GS
[1 0 0 1 124 38.52381] CT
0.149 GC
N
-36.516 5.344 M
-33.297 5.344 L
-33.297 -5.781 L
-36.797 -5.078 L
-36.797 -6.875 L
-33.313 -7.578 L
-31.344 -7.578 L
-31.344 5.344 L
-28.125 5.344 L
-28.125 7 L
-36.516 7 L
-36.516 5.344 L
cp
-19.916 -6.281 M
-21.447 -6.281 -22.213 -4.781 QT
-22.979 -3.281 -22.979 -0.281 QT
-22.979 2.719 -22.213 4.219 QT
-21.447 5.719 -19.916 5.719 QT
-18.385 5.719 -17.619 4.219 QT
-16.854 2.719 -16.854 -0.281 QT
-16.854 -3.281 -17.619 -4.781 QT
-18.385 -6.281 -19.916 -6.281 QT
cp
-19.916 -7.844 M
-17.463 -7.844 -16.174 -5.906 QT
-14.885 -3.969 -14.885 -0.281 QT
-14.885 3.406 -16.174 5.344 QT
-17.463 7.281 -19.916 7.281 QT
-22.369 7.281 -23.666 5.344 QT
-24.963 3.406 -24.963 -0.281 QT
-24.963 -3.969 -23.666 -5.906 QT
-22.369 -7.844 -19.916 -7.844 QT
cp
-7.191 -6.281 M
-8.723 -6.281 -9.488 -4.781 QT
-10.254 -3.281 -10.254 -0.281 QT
-10.254 2.719 -9.488 4.219 QT
-8.723 5.719 -7.191 5.719 QT
-5.66 5.719 -4.895 4.219 QT
-4.129 2.719 -4.129 -0.281 QT
-4.129 -3.281 -4.895 -4.781 QT
-5.66 -6.281 -7.191 -6.281 QT
cp
-7.191 -7.844 M
-4.738 -7.844 -3.449 -5.906 QT
-2.16 -3.969 -2.16 -0.281 QT
-2.16 3.406 -3.449 5.344 QT
-4.738 7.281 -7.191 7.281 QT
-9.645 7.281 -10.941 5.344 QT
-12.238 3.406 -12.238 -0.281 QT
-12.238 -3.969 -10.941 -5.906 QT
-9.645 -7.844 -7.191 -7.844 QT
cp
f
GR
GS
[0 -1 1 0 82 157.49988] CT
0.149 GC
N
-113.063 -22.031 M
-99.5 -22.031 L
-99.5 -20.219 L
-105.188 -20.219 L
-105.188 -6 L
-107.375 -6 L
-107.375 -20.219 L
-113.063 -20.219 L
-113.063 -22.031 L
cp
-92.015 -12.047 M
-94.421 -12.047 -95.343 -11.5 QT
-96.265 -10.953 -96.265 -9.625 QT
-96.265 -8.578 -95.569 -7.961 QT
-94.874 -7.344 -93.687 -7.344 QT
-92.046 -7.344 -91.054 -8.508 QT
-90.062 -9.672 -90.062 -11.609 QT
-90.062 -12.047 L
-92.015 -12.047 L
cp
-88.077 -12.859 M
-88.077 -6 L
-90.062 -6 L
-90.062 -7.828 L
-90.733 -6.734 -91.741 -6.211 QT
-92.749 -5.688 -94.218 -5.688 QT
-96.062 -5.688 -97.147 -6.727 QT
-98.233 -7.766 -98.233 -9.5 QT
-98.233 -11.531 -96.874 -12.563 QT
-95.515 -13.594 -92.827 -13.594 QT
-90.062 -13.594 L
-90.062 -13.781 L
-90.062 -15.156 -90.952 -15.898 QT
-91.843 -16.641 -93.468 -16.641 QT
-94.499 -16.641 -95.476 -16.398 QT
-96.452 -16.156 -97.358 -15.656 QT
-97.358 -17.484 L
-96.28 -17.906 -95.257 -18.117 QT
-94.233 -18.328 -93.265 -18.328 QT
-90.655 -18.328 -89.366 -16.969 QT
-88.077 -15.609 -88.077 -12.859 QT
cp
-77.033 -16.188 M
-77.361 -16.375 -77.76 -16.469 QT
-78.158 -16.563 -78.627 -16.563 QT
-80.299 -16.563 -81.197 -15.469 QT
-82.096 -14.375 -82.096 -12.344 QT
-82.096 -6 L
-84.08 -6 L
-84.08 -18.031 L
-82.096 -18.031 L
-82.096 -16.156 L
-81.471 -17.266 -80.471 -17.797 QT
-79.471 -18.328 -78.049 -18.328 QT
-77.846 -18.328 -77.596 -18.297 QT
-77.346 -18.266 -77.049 -18.219 QT
-77.033 -16.188 L
cp
-67.051 -12.156 M
-67.051 -14.297 -67.934 -15.484 QT
-68.816 -16.672 -70.41 -16.672 QT
-72.004 -16.672 -72.895 -15.484 QT
-73.785 -14.297 -73.785 -12.156 QT
-73.785 -10.016 -72.895 -8.836 QT
-72.004 -7.656 -70.41 -7.656 QT
-68.816 -7.656 -67.934 -8.836 QT
-67.051 -10.016 -67.051 -12.156 QT
cp
-65.066 -7.5 M
-65.066 -4.422 -66.434 -2.922 QT
-67.801 -1.422 -70.613 -1.422 QT
-71.66 -1.422 -72.582 -1.578 QT
-73.504 -1.734 -74.363 -2.063 QT
-74.363 -3.984 L
-73.504 -3.5 -72.652 -3.281 QT
-71.801 -3.063 -70.926 -3.063 QT
-68.973 -3.063 -68.012 -4.078 QT
-67.051 -5.094 -67.051 -7.141 QT
-67.051 -8.109 L
-67.66 -7.047 -68.613 -6.523 QT
-69.566 -6 -70.895 -6 QT
-73.113 -6 -74.465 -7.688 QT
-75.816 -9.375 -75.816 -12.156 QT
-75.816 -14.953 -74.465 -16.641 QT
-73.113 -18.328 -70.895 -18.328 QT
-69.566 -18.328 -68.613 -17.797 QT
-67.66 -17.266 -67.051 -16.203 QT
-67.051 -18.031 L
-65.066 -18.031 L
-65.066 -7.5 L
cp
-50.711 -12.516 M
-50.711 -11.547 L
-59.789 -11.547 L
-59.664 -9.5 -58.563 -8.43 QT
-57.461 -7.359 -55.492 -7.359 QT
-54.352 -7.359 -53.289 -7.641 QT
-52.227 -7.922 -51.164 -8.484 QT
-51.164 -6.609 L
-52.227 -6.156 -53.344 -5.922 QT
-54.461 -5.688 -55.617 -5.688 QT
-58.492 -5.688 -60.172 -7.367 QT
-61.852 -9.047 -61.852 -11.891 QT
-61.852 -14.859 -60.258 -16.594 QT
-58.664 -18.328 -55.961 -18.328 QT
-53.523 -18.328 -52.117 -16.766 QT
-50.711 -15.203 -50.711 -12.516 QT
cp
-52.68 -13.094 M
-52.711 -14.719 -53.594 -15.68 QT
-54.477 -16.641 -55.93 -16.641 QT
-57.586 -16.641 -58.586 -15.711 QT
-59.586 -14.781 -59.727 -13.078 QT
-52.68 -13.094 L
cp
-45.504 -21.453 M
-45.504 -18.031 L
-41.441 -18.031 L
-41.441 -16.5 L
-45.504 -16.5 L
-45.504 -9.969 L
-45.504 -8.5 -45.105 -8.078 QT
-44.707 -7.656 -43.473 -7.656 QT
-41.441 -7.656 L
-41.441 -6 L
-43.473 -6 L
-45.754 -6 -46.621 -6.852 QT
-47.488 -7.703 -47.488 -9.969 QT
-47.488 -16.5 L
-48.941 -16.5 L
-48.941 -18.031 L
-47.488 -18.031 L
-47.488 -21.453 L
-45.504 -21.453 L
cp
-31.159 -17.672 M
-31.159 -15.813 L
-32.003 -16.234 -32.909 -16.453 QT
-33.815 -16.672 -34.769 -16.672 QT
-36.253 -16.672 -36.987 -16.219 QT
-37.722 -15.766 -37.722 -14.859 QT
-37.722 -14.172 -37.19 -13.781 QT
-36.659 -13.391 -35.081 -13.031 QT
-34.394 -12.891 L
-32.3 -12.438 -31.409 -11.617 QT
-30.519 -10.797 -30.519 -9.313 QT
-30.519 -7.641 -31.847 -6.664 QT
-33.175 -5.688 -35.487 -5.688 QT
-36.456 -5.688 -37.503 -5.875 QT
-38.55 -6.063 -39.722 -6.438 QT
-39.722 -8.484 L
-38.628 -7.906 -37.558 -7.625 QT
-36.487 -7.344 -35.456 -7.344 QT
-34.05 -7.344 -33.3 -7.82 QT
-32.55 -8.297 -32.55 -9.172 QT
-32.55 -9.969 -33.097 -10.398 QT
-33.644 -10.828 -35.472 -11.234 QT
-36.159 -11.391 L
-38.003 -11.781 -38.815 -12.578 QT
-39.628 -13.375 -39.628 -14.781 QT
-39.628 -16.469 -38.425 -17.398 QT
-37.222 -18.328 -35.019 -18.328 QT
-33.909 -18.328 -32.948 -18.164 QT
-31.987 -18 -31.159 -17.672 QT
cp
-13.407 -16.188 M
-13.735 -16.375 -14.134 -16.469 QT
-14.532 -16.563 -15.001 -16.563 QT
-16.673 -16.563 -17.571 -15.469 QT
-18.47 -14.375 -18.47 -12.344 QT
-18.47 -6 L
-20.454 -6 L
-20.454 -18.031 L
-18.47 -18.031 L
-18.47 -16.156 L
-17.845 -17.266 -16.845 -17.797 QT
-15.845 -18.328 -14.423 -18.328 QT
-14.22 -18.328 -13.97 -18.297 QT
-13.72 -18.266 -13.423 -18.219 QT
-13.407 -16.188 L
cp
-1.05 -12.516 M
-1.05 -11.547 L
-10.128 -11.547 L
-10.003 -9.5 -8.901 -8.43 QT
-7.8 -7.359 -5.831 -7.359 QT
-4.69 -7.359 -3.628 -7.641 QT
-2.565 -7.922 -1.503 -8.484 QT
-1.503 -6.609 L
-2.565 -6.156 -3.683 -5.922 QT
-4.8 -5.688 -5.956 -5.688 QT
-8.831 -5.688 -10.511 -7.367 QT
-12.19 -9.047 -12.19 -11.891 QT
-12.19 -14.859 -10.597 -16.594 QT
-9.003 -18.328 -6.3 -18.328 QT
-3.862 -18.328 -2.456 -16.766 QT
-1.05 -15.203 -1.05 -12.516 QT
cp
-3.019 -13.094 M
-3.05 -14.719 -3.933 -15.68 QT
-4.815 -16.641 -6.269 -16.641 QT
-7.925 -16.641 -8.925 -15.711 QT
-9.925 -14.781 -10.065 -13.078 QT
-3.019 -13.094 L
cp
7.673 -12.047 M
5.267 -12.047 4.345 -11.5 QT
3.423 -10.953 3.423 -9.625 QT
3.423 -8.578 4.118 -7.961 QT
4.813 -7.344 6.001 -7.344 QT
7.642 -7.344 8.634 -8.508 QT
9.626 -9.672 9.626 -11.609 QT
9.626 -12.047 L
7.673 -12.047 L
cp
11.61 -12.859 M
11.61 -6 L
9.626 -6 L
9.626 -7.828 L
8.954 -6.734 7.946 -6.211 QT
6.938 -5.688 5.47 -5.688 QT
3.626 -5.688 2.54 -6.727 QT
1.454 -7.766 1.454 -9.5 QT
1.454 -11.531 2.813 -12.563 QT
4.173 -13.594 6.86 -13.594 QT
9.626 -13.594 L
9.626 -13.781 L
9.626 -15.156 8.735 -15.898 QT
7.845 -16.641 6.22 -16.641 QT
5.188 -16.641 4.212 -16.398 QT
3.235 -16.156 2.329 -15.656 QT
2.329 -17.484 L
3.407 -17.906 4.431 -18.117 QT
5.454 -18.328 6.423 -18.328 QT
9.032 -18.328 10.321 -16.969 QT
11.61 -15.609 11.61 -12.859 QT
cp
24.342 -17.563 M
24.342 -15.719 L
23.498 -16.188 22.654 -16.414 QT
21.811 -16.641 20.951 -16.641 QT
19.029 -16.641 17.967 -15.422 QT
16.904 -14.203 16.904 -12 QT
16.904 -9.797 17.967 -8.578 QT
19.029 -7.359 20.951 -7.359 QT
21.811 -7.359 22.654 -7.594 QT
23.498 -7.828 24.342 -8.281 QT
24.342 -6.469 L
23.514 -6.078 22.623 -5.883 QT
21.732 -5.688 20.748 -5.688 QT
18.029 -5.688 16.428 -7.398 QT
14.826 -9.109 14.826 -12 QT
14.826 -14.953 16.443 -16.641 QT
18.061 -18.328 20.873 -18.328 QT
21.779 -18.328 22.654 -18.141 QT
23.529 -17.953 24.342 -17.563 QT
cp
37.781 -13.266 M
37.781 -6 L
35.797 -6 L
35.797 -13.203 L
35.797 -14.906 35.133 -15.758 QT
34.469 -16.609 33.141 -16.609 QT
31.531 -16.609 30.609 -15.586 QT
29.688 -14.563 29.688 -12.797 QT
29.688 -6 L
27.703 -6 L
27.703 -22.719 L
29.688 -22.719 L
29.688 -16.156 L
30.391 -17.25 31.359 -17.789 QT
32.328 -18.328 33.578 -18.328 QT
35.656 -18.328 36.719 -17.039 QT
37.781 -15.75 37.781 -13.266 QT
cp
52.006 -12.516 M
52.006 -11.547 L
42.928 -11.547 L
43.053 -9.5 44.154 -8.43 QT
45.256 -7.359 47.225 -7.359 QT
48.365 -7.359 49.428 -7.641 QT
50.49 -7.922 51.553 -8.484 QT
51.553 -6.609 L
50.49 -6.156 49.373 -5.922 QT
48.256 -5.688 47.1 -5.688 QT
44.225 -5.688 42.545 -7.367 QT
40.865 -9.047 40.865 -11.891 QT
40.865 -14.859 42.459 -16.594 QT
44.053 -18.328 46.756 -18.328 QT
49.193 -18.328 50.6 -16.766 QT
52.006 -15.203 52.006 -12.516 QT
cp
50.037 -13.094 M
50.006 -14.719 49.123 -15.68 QT
48.24 -16.641 46.787 -16.641 QT
45.131 -16.641 44.131 -15.711 QT
43.131 -14.781 42.99 -13.078 QT
50.037 -13.094 L
cp
63.166 -16.203 M
63.166 -22.719 L
65.15 -22.719 L
65.15 -6 L
63.166 -6 L
63.166 -7.813 L
62.557 -6.734 61.604 -6.211 QT
60.65 -5.688 59.322 -5.688 QT
57.135 -5.688 55.768 -7.43 QT
54.4 -9.172 54.4 -12 QT
54.4 -14.844 55.768 -16.586 QT
57.135 -18.328 59.322 -18.328 QT
60.65 -18.328 61.604 -17.805 QT
62.557 -17.281 63.166 -16.203 QT
cp
56.432 -12 M
56.432 -9.828 57.33 -8.586 QT
58.229 -7.344 59.807 -7.344 QT
61.369 -7.344 62.268 -8.586 QT
63.166 -9.828 63.166 -12 QT
63.166 -14.188 62.268 -15.43 QT
61.369 -16.672 59.807 -16.672 QT
58.229 -16.672 57.33 -15.43 QT
56.432 -14.188 56.432 -12 QT
cp
76.03 -22.719 M
80.593 -22.719 L
80.593 -21.172 L
78.015 -21.172 L
78.015 -4.641 L
80.593 -4.641 L
80.593 -3.094 L
76.03 -3.094 L
76.03 -22.719 L
cp
98.723 -13.063 M
97.785 -13.063 97.254 -12.266 QT
96.723 -11.469 96.723 -10.047 QT
96.723 -8.656 97.254 -7.852 QT
97.785 -7.047 98.723 -7.047 QT
99.629 -7.047 100.16 -7.852 QT
100.691 -8.656 100.691 -10.047 QT
100.691 -11.453 100.16 -12.258 QT
99.629 -13.063 98.723 -13.063 QT
cp
98.723 -14.422 M
100.41 -14.422 101.41 -13.242 QT
102.41 -12.063 102.41 -10.047 QT
102.41 -8.047 101.41 -6.867 QT
100.41 -5.688 98.723 -5.688 QT
97.004 -5.688 96.004 -6.867 QT
95.004 -8.047 95.004 -10.047 QT
95.004 -12.063 96.004 -13.242 QT
97.004 -14.422 98.723 -14.422 QT
cp
87.629 -20.969 M
86.707 -20.969 86.176 -20.164 QT
85.645 -19.359 85.645 -17.969 QT
85.645 -16.547 86.168 -15.75 QT
86.691 -14.953 87.629 -14.953 QT
88.566 -14.953 89.098 -15.75 QT
89.629 -16.547 89.629 -17.969 QT
89.629 -19.359 89.09 -20.164 QT
88.551 -20.969 87.629 -20.969 QT
cp
97.332 -22.328 M
99.051 -22.328 L
89.02 -5.688 L
87.301 -5.688 L
97.332 -22.328 L
cp
87.629 -22.328 M
89.332 -22.328 90.34 -21.148 QT
91.348 -19.969 91.348 -17.969 QT
91.348 -15.938 90.348 -14.766 QT
89.348 -13.594 87.629 -13.594 QT
85.926 -13.594 84.934 -14.773 QT
83.941 -15.953 83.941 -17.969 QT
83.941 -19.969 84.941 -21.148 QT
85.941 -22.328 87.629 -22.328 QT
cp
110.314 -22.719 M
110.314 -3.094 L
105.768 -3.094 L
105.768 -4.641 L
108.33 -4.641 L
108.33 -21.172 L
105.768 -21.172 L
105.768 -22.719 L
110.314 -22.719 L
cp
f
GR
GS
0 0.447 0.741 RC
1 LJ
0.5 LW
N
169.525 106.836 M
169.913 88.619 L
170.3 122.016 L
170.688 115.593 L
171.075 177.677 L
171.462 101.143 L
171.85 110.088 L
172.238 67.992 L
172.625 71.921 L
173.012 63.571 L
173.4 74.306 L
173.788 105.317 L
174.175 105.317 L
174.563 108.101 L
174.95 67.992 L
175.337 71.921 L
175.725 67.992 L
176.113 82.725 L
176.5 112.193 L
176.887 77.059 L
177.275 152.377 L
177.663 92.197 L
178.05 122.016 L
178.438 38.524 L
178.825 38.524 L
179.212 63.571 L
179.6 49.414 L
179.988 38.524 L
180.375 38.524 L
180.762 38.524 L
181.15 57.078 L
181.538 55.222 L
181.925 56.415 L
182.313 50.174 L
182.7 58.562 L
183.087 38.524 L
183.475 47.469 L
183.863 38.524 L
184.25 47.469 L
184.637 54.179 L
185.025 44.349 L
185.413 38.524 L
185.8 38.524 L
186.188 38.524 L
186.575 38.524 L
186.962 38.524 L
187.35 47.801 L
187.738 38.524 L
188.125 38.524 L
188.512 38.524 L
188.9 38.524 L
189.288 38.524 L
189.675 38.524 L
190.063 38.524 L
190.45 38.524 L
190.837 38.524 L
191.225 38.524 L
191.613 38.524 L
192 38.524 L
192.387 38.524 L
192.775 38.524 L
193.163 38.524 L
193.55 38.524 L
193.938 38.524 L
194.325 38.524 L
194.712 38.524 L
195.1 38.524 L
195.488 38.524 L
195.875 38.524 L
196.262 38.524 L
196.65 38.524 L
197.038 38.524 L
197.425 48.158 L
197.813 38.524 L
198.2 38.524 L
198.587 38.524 L
198.975 38.524 L
199.363 38.524 L
199.75 38.524 L
200.137 38.524 L
200.525 38.524 L
200.913 38.524 L
201.3 38.524 L
201.688 60.304 L
202.075 47.801 L
202.462 38.524 L
202.85 38.524 L
203.238 38.524 L
203.625 38.524 L
204.012 38.524 L
204.4 38.524 L
204.788 49.414 L
205.175 49.909 L
205.563 51.707 L
205.95 53.258 L
206.337 38.524 L
206.725 38.524 L
207.113 48.158 L
207.5 38.524 L
207.887 47.469 L
208.275 38.524 L
208.663 50.451 L
209.05 38.524 L
209.438 38.524 L
209.825 51.707 L
210.212 38.524 L
210.6 48.96 L
210.988 38.524 L
211.375 38.524 L
211.762 38.524 L
212.15 38.524 L
212.538 38.524 L
212.925 38.524 L
213.313 38.524 L
213.7 38.524 L
214.087 51.048 L
214.475 49.909 L
214.863 38.524 L
215.25 51.707 L
215.637 38.524 L
216.025 38.524 L
216.413 38.524 L
216.8 38.524 L
217.188 38.524 L
217.575 38.524 L
217.962 38.524 L
218.35 38.524 L
218.738 38.524 L
219.125 38.524 L
219.512 49.909 L
219.9 38.524 L
220.288 38.524 L
220.675 46.873 L
221.063 51.048 L
221.45 48.543 L
221.837 38.524 L
222.225 38.524 L
222.613 38.524 L
223 38.524 L
223.387 61.294 L
223.775 38.524 L
224.163 47.161 L
224.55 38.524 L
224.938 38.524 L
225.325 47.801 L
225.712 47.161 L
226.1 38.524 L
226.488 48.96 L
226.875 38.524 L
227.262 47.161 L
227.65 38.524 L
228.038 38.524 L
228.425 38.524 L
228.813 48.543 L
229.2 38.524 L
229.587 38.524 L
229.975 38.524 L
230.363 80.27 L
230.75 38.524 L
231.137 38.524 L
231.525 49.414 L
231.913 38.524 L
232.3 38.524 L
232.688 38.524 L
233.075 38.524 L
233.462 38.524 L
233.85 38.524 L
234.238 38.524 L
234.625 38.524 L
235.012 51.707 L
235.4 63.571 L
235.788 51.048 L
236.175 38.524 L
236.563 63.571 L
236.95 74.306 L
237.337 38.524 L
237.725 52.439 L
238.113 51.707 L
238.5 38.524 L
238.887 38.524 L
239.275 38.524 L
239.663 96.326 L
240.05 38.524 L
240.438 38.524 L
240.825 48.543 L
241.212 50.451 L
241.6 38.524 L
241.988 63.571 L
242.375 53.258 L
242.762 71.921 L
243.15 77.059 L
243.538 51.707 L
243.925 80.27 L
244.313 55.222 L
244.7 56.415 L
245.087 49.414 L
245.475 38.524 L
245.863 110.088 L
246.25 54.179 L
246.637 56.415 L
247.025 38.524 L
247.413 38.524 L
247.8 47.801 L
248.188 38.524 L
248.575 48.543 L
248.962 38.524 L
249.35 38.524 L
249.738 48.96 L
250.125 38.524 L
250.512 46.873 L
250.9 80.27 L
251.288 55.222 L
251.675 80.27 L
252.063 92.197 L
252.45 113.667 L
252.837 54.179 L
253.225 38.524 L
253.613 55.222 L
254 122.016 L
254.387 74.306 L
254.775 54.179 L
255.163 49.414 L
255.55 62.379 L
255.938 50.451 L
256.325 82.725 L
256.712 85.488 L
257.1 69.833 L
257.487 38.524 L
257.875 82.725 L
258.263 74.306 L
258.65 48.96 L
259.038 64.89 L
259.425 62.379 L
259.813 50.451 L
260.2 77.059 L
260.587 63.571 L
260.975 85.488 L
261.362 52.439 L
261.75 38.524 L
262.138 57.791 L
262.525 74.306 L
262.913 134.861 L
263.3 96.326 L
263.688 96.326 L
264.075 38.524 L
264.462 163.762 L
264.85 77.059 L
265.237 38.524 L
265.625 149.847 L
266.013 92.197 L
266.4 38.524 L
266.788 97.459 L
267.175 92.197 L
267.563 38.524 L
267.95 74.306 L
268.337 76.095 L
268.725 71.921 L
269.112 82.725 L
269.5 101.143 L
269.888 53.258 L
270.275 47.161 L
270.663 66.355 L
271.05 54.179 L
271.438 54.179 L
271.825 88.619 L
272.212 105.317 L
272.6 38.524 L
272.987 116.798 L
273.375 69.833 L
273.763 92.197 L
274.15 69.833 L
274.538 122.016 L
274.925 49.414 L
275.313 55.222 L
275.7 38.524 L
276.087 110.088 L
276.475 38.524 L
276.862 53.258 L
277.25 62.379 L
277.638 82.725 L
278.025 138.714 L
278.413 101.143 L
278.8 113.667 L
279.188 101.143 L
279.575 163.762 L
279.962 84.065 L
280.35 92.197 L
280.737 92.197 L
281.125 59.397 L
281.513 77.059 L
281.9 134.861 L
282.288 92.197 L
282.675 149.847 L
283.063 80.27 L
283.45 195.071 L
283.837 142.889 L
284.225 163.762 L
284.612 71.921 L
285 84.065 L
285.388 113.667 L
285.775 106.836 L
286.163 129.606 L
286.55 122.016 L
286.938 71.921 L
287.325 53.258 L
287.712 113.667 L
288.1 96.326 L
288.487 122.016 L
288.875 129.606 L
289.263 138.714 L
289.65 85.488 L
290.038 96.326 L
290.425 113.667 L
290.813 92.197 L
291.2 71.921 L
291.587 77.059 L
291.975 122.016 L
292.362 82.725 L
292.75 138.714 L
293.138 122.016 L
293.525 142.889 L
293.913 122.016 L
294.3 138.714 L
294.688 106.836 L
295.075 149.847 L
295.462 115.593 L
295.85 226.381 L
296.237 106.836 L
296.625 129.606 L
297.013 101.143 L
297.4 152.377 L
297.788 134.861 L
298.175 66.355 L
298.563 142.889 L
298.95 101.143 L
299.337 205.508 L
299.725 88.619 L
300.112 101.143 L
300.5 88.619 L
300.888 96.326 L
301.275 67.992 L
301.663 52.439 L
302.05 64.89 L
302.438 77.059 L
302.825 101.143 L
303.212 115.593 L
303.6 163.762 L
303.987 113.667 L
304.375 69.833 L
304.763 96.326 L
305.15 217.435 L
305.538 177.677 L
305.925 122.016 L
306.313 175.147 L
306.7 84.065 L
307.087 138.714 L
307.475 195.071 L
307.862 96.326 L
308.25 163.762 L
308.638 129.606 L
309.025 177.677 L
309.413 122.016 L
309.8 66.355 L
310.188 85.488 L
310.575 205.508 L
310.962 84.065 L
311.35 134.861 L
311.737 205.508 L
312.125 101.143 L
312.513 122.016 L
312.9 163.762 L
313.288 129.606 L
313.675 80.27 L
314.063 205.508 L
314.45 106.836 L
314.837 142.889 L
315.225 177.677 L
315.612 57.791 L
316 177.677 L
316.388 163.762 L
316.775 122.016 L
317.163 122.016 L
317.55 92.197 L
317.938 142.889 L
318.325 163.762 L
318.712 106.836 L
319.1 195.071 L
319.487 129.606 L
319.875 115.593 L
320.263 149.847 L
320.65 77.059 L
321.038 54.179 L
321.425 80.27 L
321.813 134.861 L
322.2 88.619 L
322.587 181.653 L
322.975 88.619 L
323.362 80.27 L
323.75 138.714 L
324.138 71.921 L
324.525 101.143 L
324.913 88.619 L
325.3 96.326 L
325.688 253.218 L
326.075 188.81 L
326.462 80.27 L
326.85 138.714 L
327.237 138.714 L
327.625 80.27 L
328.013 138.714 L
328.4 205.508 L
328.788 122.016 L
329.175 122.016 L
329.563 129.606 L
329.95 163.762 L
330.337 55.222 L
330.725 138.714 L
331.112 163.762 L
331.5 96.326 L
331.888 142.889 L
332.275 101.143 L
332.663 163.762 L
333.05 257.69 L
333.438 177.677 L
333.825 289 L
334.212 115.593 L
334.6 138.714 L
334.987 138.714 L
335.375 195.071 L
335.763 163.762 L
336.15 217.435 L
336.538 163.762 L
336.925 177.677 L
337.313 152.377 L
337.7 132.452 L
338.087 289 L
338.475 145.871 L
338.862 195.071 L
339.25 175.147 L
339.638 138.714 L
340.025 138.714 L
340.413 152.377 L
340.8 247.254 L
341.188 127.98 L
341.575 217.435 L
341.962 213.857 L
342.35 205.508 L
342.737 181.653 L
343.125 177.677 L
343.513 149.847 L
343.9 152.377 L
344.288 122.016 L
344.675 122.016 L
345.063 163.762 L
345.45 113.667 L
345.837 188.81 L
346.225 122.016 L
346.612 195.071 L
347 205.508 L
347.388 177.677 L
347.775 122.016 L
348.163 233.339 L
348.55 163.762 L
348.938 205.508 L
349.325 205.508 L
349.712 195.071 L
350.1 113.667 L
350.487 177.677 L
350.875 149.847 L
351.263 205.508 L
351.65 195.071 L
352.038 213.857 L
352.425 113.667 L
352.813 226.381 L
353.2 96.326 L
353.587 226.381 L
353.975 152.377 L
354.362 122.016 L
354.75 129.606 L
355.138 217.435 L
355.525 177.677 L
355.913 205.508 L
356.3 149.847 L
356.688 195.071 L
357.075 152.377 L
357.462 205.508 L
357.85 195.071 L
358.237 188.81 L
358.625 142.889 L
359.013 195.071 L
359.4 226.381 L
359.788 188.81 L
360.175 188.81 L
360.563 205.508 L
360.95 138.714 L
361.337 289 L
361.725 188.81 L
362.112 226.381 L
362.5 233.339 L
362.888 163.762 L
363.275 163.762 L
363.663 226.381 L
364.05 217.435 L
364.438 149.847 L
364.825 253.218 L
365.212 226.381 L
365.6 177.677 L
365.987 177.677 L
366.375 217.435 L
366.763 226.381 L
367.15 205.508 L
367.538 188.81 L
367.925 205.508 L
368.313 217.435 L
368.7 205.508 L
369.087 152.377 L
369.475 226.381 L
369.862 152.377 L
370.25 177.677 L
370.638 177.677 L
371.025 226.381 L
371.413 217.435 L
371.8 289 L
372.188 145.871 L
372.575 205.508 L
372.962 205.508 L
373.35 253.218 L
373.737 253.218 L
374.125 226.381 L
374.513 195.071 L
374.9 253.218 L
375.288 205.508 L
375.675 226.381 L
376.063 149.847 L
376.45 163.762 L
376.837 149.847 L
377.225 149.847 L
377.612 177.677 L
378 289 L
378.388 217.435 L
378.775 205.508 L
379.163 195.071 L
379.55 253.218 L
379.938 205.508 L
380.325 181.653 L
380.712 177.677 L
381.1 253.218 L
381.487 257.69 L
381.875 226.381 L
382.263 226.381 L
382.65 177.677 L
383.038 257.69 L
383.425 195.071 L
383.813 163.762 L
384.2 177.677 L
384.587 253.218 L
384.975 188.81 L
385.362 163.762 L
385.75 149.847 L
386.138 163.762 L
386.525 149.847 L
386.913 217.435 L
387.3 177.677 L
387.688 149.847 L
388.075 226.381 L
388.462 226.381 L
388.85 177.677 L
389.237 113.667 L
389.625 226.381 L
390.013 205.508 L
390.4 226.381 L
390.788 253.218 L
391.175 177.677 L
391.563 129.606 L
391.95 163.762 L
392.337 226.381 L
392.725 217.435 L
393.112 205.508 L
393.5 177.677 L
393.888 122.016 L
394.275 289 L
394.663 177.677 L
395.05 226.381 L
395.438 205.508 L
395.825 217.435 L
396.212 257.69 L
396.6 226.381 L
396.987 195.071 L
397.375 213.857 L
397.763 253.218 L
398.15 134.861 L
398.538 132.452 L
398.925 138.714 L
399.313 226.381 L
399.7 226.381 L
400.087 289 L
400.475 163.762 L
400.862 142.889 L
401.25 217.435 L
401.638 205.508 L
402.025 195.071 L
402.413 177.677 L
402.8 188.81 L
403.188 177.677 L
403.575 257.69 L
403.962 122.016 L
404.35 233.339 L
404.737 205.508 L
405.125 253.218 L
405.513 163.762 L
405.9 253.218 L
406.288 289 L
406.675 226.381 L
407.063 181.653 L
407.45 257.69 L
407.837 253.218 L
408.225 195.071 L
408.612 257.69 L
409 253.218 L
409.388 217.435 L
409.775 149.847 L
410.163 205.508 L
410.55 163.762 L
410.938 163.762 L
411.325 205.508 L
411.712 289 L
412.1 253.218 L
412.487 142.889 L
412.875 149.847 L
413.263 217.435 L
413.65 253.218 L
414.038 152.377 L
414.425 289 L
414.813 149.847 L
415.2 61.294 L
415.587 138.714 L
415.975 205.508 L
416.362 129.606 L
416.75 177.677 L
417.138 205.508 L
417.525 253.218 L
417.913 163.762 L
418.3 163.762 L
418.688 177.677 L
419.075 226.381 L
419.462 188.81 L
419.85 253.218 L
420.237 195.071 L
420.625 181.653 L
421.013 177.677 L
421.4 177.677 L
421.788 253.218 L
422.175 188.81 L
422.563 217.435 L
422.95 205.508 L
423.337 163.762 L
423.725 253.218 L
424.112 163.762 L
424.5 226.381 L
424.888 205.508 L
425.275 163.762 L
425.663 226.381 L
426.05 129.606 L
426.438 188.81 L
426.825 195.071 L
427.212 177.677 L
427.6 217.435 L
427.987 149.847 L
428.375 142.889 L
428.763 163.762 L
429.15 195.071 L
429.538 177.677 L
429.925 177.677 L
430.313 217.435 L
430.7 257.69 L
431.087 226.381 L
431.475 226.381 L
431.862 253.218 L
432.25 163.762 L
432.638 205.508 L
433.025 188.81 L
433.413 177.677 L
433.8 253.218 L
434.188 226.381 L
434.575 195.071 L
434.962 195.071 L
435.35 257.69 L
435.737 226.381 L
436.125 177.677 L
436.513 152.377 L
436.9 195.071 L
437.288 177.677 L
437.675 152.377 L
438.063 177.677 L
438.45 154.128 L
438.837 205.508 L
439.225 163.762 L
439.612 217.435 L
440 152.377 L
440.388 152.377 L
440.775 163.762 L
441.163 138.714 L
441.55 122.016 L
441.938 163.762 L
442.325 152.377 L
442.712 138.714 L
443.1 253.218 L
443.487 149.847 L
443.875 129.606 L
444.263 226.381 L
444.65 138.714 L
445.038 195.071 L
445.425 226.381 L
445.813 195.071 L
446.2 253.218 L
446.587 163.762 L
446.975 253.218 L
447.362 149.847 L
447.75 205.508 L
448.138 122.016 L
448.525 177.677 L
448.913 177.677 L
449.3 226.381 L
449.688 205.508 L
450.075 177.677 L
450.462 226.381 L
450.85 226.381 L
451.237 138.714 L
451.625 163.762 L
452.013 195.071 L
452.4 226.381 L
452.788 163.762 L
453.175 289 L
453.563 253.218 L
453.95 188.81 L
454.337 177.677 L
454.725 226.381 L
455.112 177.677 L
455.5 138.714 L
455.888 226.381 L
456.275 177.677 L
456.663 129.606 L
457.05 195.071 L
457.438 188.81 L
457.825 163.762 L
458.212 195.071 L
458.6 217.435 L
458.987 226.381 L
459.375 122.016 L
459.763 226.381 L
460.15 257.69 L
460.538 195.071 L
460.925 253.218 L
461.313 205.508 L
461.7 253.218 L
462.087 177.677 L
462.475 177.677 L
462.862 188.81 L
463.25 181.653 L
463.638 226.381 L
464.025 257.69 L
464.413 205.508 L
464.8 195.071 L
465.188 253.218 L
465.575 289 L
465.962 195.071 L
466.35 217.435 L
466.737 122.016 L
467.125 233.339 L
467.513 149.847 L
467.9 177.677 L
468.288 253.218 L
468.675 233.339 L
469.063 217.435 L
469.45 188.81 L
469.837 226.381 L
470.225 177.677 L
470.612 195.071 L
471 177.677 L
471.388 226.381 L
471.775 177.677 L
472.163 195.071 L
472.55 205.508 L
472.938 226.381 L
473.325 217.435 L
473.712 149.847 L
474.1 177.677 L
474.487 205.508 L
474.875 226.381 L
475.263 149.847 L
475.65 226.381 L
476.038 253.218 L
476.425 122.016 L
476.813 253.218 L
477.2 253.218 L
477.587 289 L
477.975 205.508 L
478.362 226.381 L
478.75 253.218 L
479.138 226.381 L
479.525 253.218 L
479.913 177.677 L
480.3 163.762 L
480.688 152.377 L
481.075 163.762 L
481.462 226.381 L
481.85 289 L
482.237 217.435 L
482.625 115.593 L
483.013 253.218 L
483.4 175.147 L
483.788 205.508 L
484.175 181.653 L
484.563 163.762 L
484.95 177.677 L
485.337 217.435 L
485.725 289 L
486.112 253.218 L
486.5 195.071 L
486.888 253.218 L
487.275 289 L
487.663 253.218 L
488.05 233.339 L
488.438 253.218 L
488.825 149.847 L
489.212 205.508 L
489.6 188.81 L
489.987 138.714 L
490.375 188.81 L
490.763 195.071 L
491.15 253.218 L
491.538 253.218 L
491.925 177.677 L
492.313 163.762 L
492.7 163.762 L
493.087 226.381 L
493.475 195.071 L
493.862 226.381 L
494.25 177.677 L
494.638 257.69 L
495.025 195.071 L
495.413 195.071 L
495.8 253.218 L
496.188 226.381 L
496.575 163.762 L
496.962 195.071 L
497.35 152.377 L
497.737 226.381 L
498.125 195.071 L
498.513 163.762 L
498.9 92.197 L
499.288 152.377 L
499.675 253.218 L
500.063 195.071 L
500.45 247.254 L
500.837 217.435 L
501.225 163.762 L
501.612 226.381 L
502 289 L
502.388 213.857 L
502.775 253.218 L
503.163 177.677 L
503.55 253.218 L
503.938 113.667 L
504.325 195.071 L
504.712 175.147 L
505.1 226.381 L
505.487 163.762 L
505.875 177.677 L
506.263 195.071 L
506.65 163.762 L
507.038 226.381 L
507.425 205.508 L
507.813 226.381 L
508.2 289 L
508.587 213.857 L
508.975 289 L
509.362 188.81 L
509.75 253.218 L
510.138 289 L
510.525 177.677 L
510.913 253.218 L
511.3 226.381 L
511.688 195.071 L
512.075 177.677 L
512.463 195.071 L
512.85 177.677 L
513.237 195.071 L
513.625 188.81 L
514.013 247.254 L
514.4 138.714 L
514.787 217.435 L
515.175 217.435 L
515.563 122.016 L
515.95 257.69 L
516.338 205.508 L
516.725 195.071 L
517.112 217.435 L
517.5 149.847 L
517.888 253.218 L
518.275 233.339 L
518.662 217.435 L
519.05 152.377 L
519.438 122.016 L
519.825 195.071 L
520.213 195.071 L
520.6 163.762 L
520.987 96.326 L
521.375 152.377 L
521.763 226.381 L
522.15 226.381 L
522.537 177.677 L
522.925 138.714 L
523.313 129.606 L
523.7 195.071 L
524.088 105.317 L
524.475 163.762 L
524.862 226.381 L
525.25 217.435 L
525.638 177.677 L
526.025 152.377 L
526.412 217.435 L
526.8 257.69 L
527.188 217.435 L
527.575 257.69 L
527.963 138.714 L
528.35 195.071 L
528.737 101.143 L
529.125 163.762 L
529.513 253.218 L
529.9 253.218 L
530.287 163.762 L
530.675 149.847 L
531.063 195.071 L
531.45 205.508 L
531.838 142.889 L
532.225 226.381 L
532.612 226.381 L
533 205.508 L
533.388 177.677 L
533.775 217.435 L
534.162 233.339 L
534.55 129.606 L
534.938 177.677 L
535.325 253.218 L
535.713 205.508 L
536.1 226.381 L
536.487 177.677 L
536.875 177.677 L
537.263 226.381 L
537.65 217.435 L
538.037 205.508 L
538.425 177.677 L
538.813 226.381 L
539.2 177.677 L
539.588 253.218 L
539.975 163.762 L
540.362 205.508 L
540.75 226.381 L
541.138 152.377 L
541.525 205.508 L
541.912 205.508 L
542.3 226.381 L
542.688 205.508 L
543.075 195.071 L
543.463 195.071 L
543.85 177.677 L
544.237 217.435 L
544.625 213.857 L
545.013 177.677 L
545.4 188.81 L
545.787 233.339 L
546.175 163.762 L
546.563 253.218 L
546.95 226.381 L
547.338 213.857 L
547.725 195.071 L
548.112 226.381 L
548.5 253.218 L
548.888 253.218 L
549.275 205.508 L
549.662 205.508 L
550.05 289 L
550.438 226.381 L
550.825 205.508 L
551.213 226.381 L
551.6 253.218 L
551.987 163.762 L
552.375 226.381 L
552.763 181.653 L
553.15 175.147 L
553.537 138.714 L
553.925 163.762 L
554.313 177.677 L
554.7 226.381 L
555.088 195.071 L
555.475 188.81 L
555.862 188.81 L
556.25 217.435 L
556.638 175.147 L
557.025 138.714 L
557.412 205.508 L
557.8 195.071 L
558.188 142.889 L
558.575 226.381 L
558.963 188.81 L
559.35 129.606 L
559.737 188.81 L
560.125 177.677 L
560.513 205.508 L
560.9 257.69 L
561.287 253.218 L
561.675 195.071 L
562.063 205.508 L
562.45 205.508 L
562.838 122.016 L
563.225 177.677 L
563.612 142.889 L
564 205.508 L
564.388 177.677 L
564.775 163.762 L
565.162 149.847 L
565.55 205.508 L
565.938 226.381 L
566.325 152.377 L
566.713 253.218 L
567.1 163.762 L
567.487 217.435 L
567.875 205.508 L
568.263 217.435 L
568.65 253.218 L
569.037 257.69 L
569.425 253.218 L
569.813 217.435 L
570.2 195.071 L
570.588 253.218 L
570.975 188.81 L
571.362 226.381 L
571.75 226.381 L
572.138 177.677 L
572.525 195.071 L
572.912 129.606 L
573.3 217.435 L
573.688 253.218 L
574.075 213.857 L
574.463 149.847 L
574.85 188.81 L
575.237 138.714 L
575.625 195.071 L
576.013 289 L
576.4 213.857 L
576.787 217.435 L
577.175 181.653 L
577.563 205.508 L
577.95 195.071 L
578.338 289 L
578.725 217.435 L
579.112 195.071 L
579.5 289 L
579.888 188.81 L
580.275 253.218 L
580.662 217.435 L
581.05 195.071 L
581.438 289 L
581.825 163.762 L
582.213 205.508 L
582.6 253.218 L
582.987 177.677 L
583.375 177.677 L
583.763 122.016 L
584.15 177.677 L
584.537 138.714 L
584.925 217.435 L
585.313 188.81 L
585.7 253.218 L
586.088 205.508 L
586.475 177.677 L
586.862 177.677 L
587.25 175.147 L
587.638 152.377 L
588.025 149.847 L
588.412 257.69 L
588.8 177.677 L
589.188 115.593 L
589.575 138.714 L
589.963 205.508 L
590.35 175.147 L
590.737 106.836 L
591.125 217.435 L
591.513 163.762 L
591.9 253.218 L
592.287 253.218 L
592.675 226.381 L
593.063 217.435 L
593.45 149.847 L
593.838 163.762 L
594.225 205.508 L
594.612 226.381 L
595 163.762 L
595.388 253.218 L
595.775 195.071 L
596.162 205.508 L
596.55 181.653 L
596.938 195.071 L
597.325 163.762 L
597.713 181.653 L
598.1 289 L
598.487 177.677 L
598.875 289 L
599.263 226.381 L
599.65 226.381 L
600.037 205.508 L
600.425 253.218 L
600.813 226.381 L
601.2 163.762 L
601.588 226.381 L
601.975 226.381 L
602.362 195.071 L
602.75 177.677 L
603.138 253.218 L
603.525 205.508 L
603.912 163.762 L
604.3 253.218 L
604.688 205.508 L
605.075 163.762 L
605.463 175.147 L
605.85 149.847 L
606.237 129.606 L
606.625 253.218 L
607.013 138.714 L
607.4 177.677 L
607.787 226.381 L
608.175 152.377 L
608.563 226.381 L
608.95 253.218 L
609.338 289 L
609.725 205.508 L
610.112 142.889 L
610.5 217.435 L
610.888 195.071 L
611.275 217.435 L
611.662 226.381 L
612.05 80.27 L
612.438 163.762 L
612.825 217.435 L
613.213 226.381 L
613.6 226.381 L
613.987 253.218 L
614.375 226.381 L
614.763 177.677 L
615.15 163.762 L
615.537 163.762 L
615.925 163.762 L
616.313 132.452 L
616.7 188.81 L
617.088 247.254 L
617.475 152.377 L
617.862 217.435 L
618.25 152.377 L
618.638 149.847 L
619.025 205.508 L
619.412 205.508 L
619.8 129.606 L
620.188 163.762 L
620.575 289 L
620.963 138.714 L
621.35 177.677 L
621.737 177.677 L
622.125 289 L
622.513 195.071 L
622.9 134.861 L
623.287 226.381 L
623.675 226.381 L
624.063 177.677 L
624.45 205.508 L
624.838 129.606 L
625.225 106.836 L
625.612 195.071 L
626 188.81 L
626.388 84.065 L
626.775 177.677 L
627.162 145.871 L
627.55 152.377 L
627.938 226.381 L
628.325 253.218 L
628.713 188.81 L
629.1 163.762 L
629.487 177.677 L
629.875 217.435 L
630.263 226.381 L
630.65 177.677 L
631.037 195.071 L
631.425 253.218 L
631.813 177.677 L
632.2 205.508 L
632.588 163.762 L
632.975 163.762 L
633.362 96.326 L
633.75 152.377 L
634.138 152.377 L
634.525 122.016 L
634.912 177.677 L
635.3 142.889 L
635.688 177.677 L
636.075 197.918 L
636.463 106.836 L
636.85 152.377 L
637.237 289 L
637.625 138.714 L
638.013 253.218 L
638.4 113.667 L
638.787 101.143 L
639.175 217.435 L
639.563 149.847 L
639.95 205.508 L
640.338 195.071 L
640.725 149.847 L
641.112 163.762 L
641.5 113.667 L
641.888 205.508 L
642.275 177.677 L
642.662 289 L
643.05 129.606 L
643.438 163.762 L
643.825 177.677 L
644.213 149.847 L
644.6 195.071 L
644.987 106.836 L
645.375 289 L
645.763 195.071 L
646.15 233.339 L
646.537 195.071 L
646.925 163.762 L
647.313 226.381 L
647.7 289 L
648.088 205.508 L
648.475 205.508 L
648.862 149.847 L
649.25 142.889 L
649.638 163.762 L
650.025 152.377 L
650.412 253.218 L
650.8 195.071 L
651.188 195.071 L
651.575 163.762 L
651.963 205.508 L
652.35 253.218 L
652.737 253.218 L
653.125 177.677 L
653.513 181.653 L
653.9 149.847 L
654.287 217.435 L
654.675 226.381 L
655.063 226.381 L
655.45 177.677 L
655.838 122.016 L
656.225 149.847 L
656.612 163.762 L
657 122.016 L
657.388 226.381 L
657.775 205.508 L
658.162 163.762 L
658.55 149.847 L
658.938 57.791 L
659.325 142.889 L
659.713 217.435 L
660.1 257.69 L
660.487 152.377 L
660.875 247.254 L
661.263 233.339 L
661.65 226.381 L
662.037 226.381 L
662.425 134.861 L
662.813 226.381 L
663.2 96.326 L
663.588 177.677 L
663.975 142.889 L
664.362 122.016 L
664.75 122.016 L
665.138 152.377 L
665.525 122.016 L
665.912 138.714 L
666.3 152.377 L
666.688 149.847 L
667.075 129.606 L
667.463 134.861 L
667.85 96.326 L
668.237 181.653 L
668.625 188.81 L
669.013 253.218 L
669.4 177.677 L
669.787 177.677 L
670.175 152.377 L
670.563 138.714 L
670.95 82.725 L
671.338 226.381 L
671.725 96.326 L
672.112 181.653 L
672.5 122.016 L
672.888 122.016 L
673.275 106.836 L
673.662 152.377 L
674.05 149.847 L
674.438 195.071 L
674.825 253.218 L
675.213 177.677 L
675.6 205.508 L
675.987 122.016 L
676.375 163.762 L
676.763 177.677 L
677.15 253.218 L
677.537 233.339 L
677.925 195.071 L
678.313 247.254 L
678.7 138.714 L
679.088 138.714 L
679.475 257.69 L
679.862 138.714 L
680.25 226.381 L
680.638 138.714 L
681.025 149.847 L
681.412 129.606 L
681.8 247.254 L
682.188 106.836 L
682.575 163.762 L
682.963 253.218 L
683.35 177.677 L
683.737 134.861 L
684.125 113.667 L
684.513 105.317 L
684.9 177.677 L
685.287 205.508 L
685.675 129.606 L
686.063 177.677 L
686.45 122.016 L
686.838 205.508 L
687.225 289 L
687.612 257.69 L
688 195.071 L
688.388 122.016 L
688.775 175.147 L
689.162 226.381 L
689.55 129.606 L
689.938 253.218 L
690.325 289 L
690.713 149.847 L
691.1 122.016 L
691.487 152.377 L
691.875 138.714 L
692.263 217.435 L
692.65 152.377 L
693.037 122.016 L
693.425 177.677 L
693.813 71.921 L
694.2 129.606 L
694.588 129.606 L
694.975 71.921 L
695.362 138.714 L
695.75 163.762 L
696.138 177.677 L
696.525 149.847 L
696.912 163.762 L
697.3 188.81 L
697.688 217.435 L
698.075 226.381 L
698.463 163.762 L
698.85 233.339 L
699.237 217.435 L
699.625 101.143 L
700.013 175.147 L
700.4 129.606 L
700.787 101.143 L
701.175 138.714 L
701.563 181.653 L
701.95 195.071 L
702.338 149.847 L
702.725 142.889 L
703.112 129.606 L
703.5 205.508 L
703.888 177.677 L
704.275 163.762 L
704.662 289 L
705.05 138.714 L
705.438 163.762 L
705.825 226.381 L
706.213 138.714 L
706.6 122.016 L
706.987 138.714 L
707.375 195.071 L
707.763 188.81 L
708.15 177.677 L
708.537 195.071 L
708.925 195.071 L
709.313 106.836 L
709.7 80.27 L
710.088 226.381 L
710.475 177.677 L
710.862 138.714 L
711.25 163.762 L
711.638 152.377 L
712.025 149.847 L
712.412 195.071 L
712.8 163.762 L
713.188 181.653 L
713.575 149.847 L
713.963 217.435 L
714.35 226.381 L
714.737 233.339 L
715.125 149.847 L
715.513 163.762 L
715.9 122.016 L
716.287 163.762 L
716.675 142.889 L
717.063 205.508 L
717.45 217.435 L
717.838 217.435 L
718.225 113.667 L
718.612 163.762 L
719 138.714 L
719.388 226.381 L
719.775 226.381 L
720.162 195.071 L
720.55 129.606 L
720.938 129.606 L
721.325 149.847 L
721.713 177.677 L
722.1 289 L
722.487 96.326 L
722.875 142.889 L
723.263 122.016 L
723.65 177.677 L
724.037 138.714 L
724.425 188.81 L
724.813 152.377 L
725.2 195.071 L
725.588 188.81 L
725.975 205.508 L
726.362 226.381 L
726.75 205.508 L
727.138 253.218 L
727.525 177.677 L
727.912 163.762 L
728.3 205.508 L
728.688 195.071 L
729.075 163.762 L
729.463 205.508 L
729.85 106.836 L
730.237 177.677 L
730.625 195.071 L
731.013 132.452 L
731.4 122.016 L
731.787 138.714 L
732.175 163.762 L
732.563 163.762 L
732.95 205.508 L
733.338 226.381 L
733.725 163.762 L
734.112 163.762 L
734.5 195.071 L
734.888 233.339 L
735.275 138.714 L
735.662 253.218 L
736.05 149.847 L
736.438 113.667 L
736.825 127.98 L
737.213 253.218 L
737.6 163.762 L
737.987 115.593 L
738.375 195.071 L
738.763 177.677 L
739.15 96.326 L
739.537 177.677 L
739.925 177.677 L
740.313 195.071 L
740.7 152.377 L
741.088 106.836 L
741.475 163.762 L
741.862 122.016 L
742.25 188.81 L
742.638 289 L
743.025 129.606 L
743.412 163.762 L
743.8 152.377 L
744.188 163.762 L
744.575 122.016 L
744.963 96.326 L
745.35 113.667 L
745.737 177.677 L
746.125 96.326 L
746.513 217.435 L
746.9 152.377 L
747.287 138.714 L
747.675 163.762 L
748.063 163.762 L
748.45 195.071 L
748.838 233.339 L
749.225 113.667 L
749.612 138.714 L
750 129.606 L
750.388 115.593 L
750.775 101.143 L
751.162 129.606 L
751.55 138.714 L
751.938 253.218 L
752.325 152.377 L
752.713 226.381 L
753.1 205.508 L
753.487 80.27 L
753.875 149.847 L
754.263 149.847 L
754.65 115.593 L
755.037 122.016 L
755.425 177.677 L
755.813 113.667 L
756.2 101.143 L
756.588 96.326 L
756.975 152.377 L
757.362 113.667 L
757.75 149.847 L
758.138 129.606 L
758.525 152.377 L
758.912 175.147 L
759.3 142.889 L
759.688 80.27 L
760.075 177.677 L
760.463 113.667 L
760.85 213.857 L
761.237 205.508 L
761.625 129.606 L
762.013 138.714 L
762.4 177.677 L
762.787 152.377 L
763.175 129.606 L
763.563 253.218 L
763.95 88.619 L
764.338 138.714 L
764.725 138.714 L
765.112 80.27 L
765.5 138.714 L
765.888 80.27 L
766.275 129.606 L
766.662 163.762 L
767.05 226.381 L
767.438 226.381 L
767.825 134.861 L
768.213 122.016 L
768.6 57.791 L
768.987 88.619 L
769.375 152.377 L
769.763 101.143 L
770.15 138.714 L
770.537 289 L
770.925 106.836 L
771.313 163.762 L
771.7 96.326 L
772.088 163.762 L
772.475 188.81 L
772.862 149.847 L
773.25 188.81 L
773.638 163.762 L
774.025 142.889 L
774.412 138.714 L
774.8 163.762 L
775.188 149.847 L
775.575 113.667 L
775.963 217.435 L
776.35 106.836 L
776.737 177.677 L
777.125 106.836 L
777.513 115.593 L
777.9 106.836 L
778.287 195.071 L
778.675 175.147 L
779.063 132.452 L
779.45 163.762 L
779.838 152.377 L
780.225 163.762 L
780.612 163.762 L
781 226.381 L
781.388 138.714 L
781.775 195.071 L
782.162 122.016 L
782.55 92.197 L
782.938 122.016 L
783.325 226.381 L
783.713 195.071 L
784.1 253.218 L
784.487 129.606 L
784.875 195.071 L
785.263 177.677 L
785.65 106.836 L
786.037 113.667 L
786.425 129.606 L
786.813 217.435 L
787.2 253.218 L
787.588 226.381 L
787.975 188.81 L
788.362 122.016 L
788.75 152.377 L
789.138 226.381 L
789.525 177.677 L
789.912 195.071 L
790.3 195.071 L
790.688 205.508 L
791.075 129.606 L
791.463 163.762 L
791.85 138.714 L
792.237 205.508 L
792.625 129.606 L
793.013 138.714 L
793.4 129.606 L
793.787 138.714 L
794.175 257.69 L
794.563 106.836 L
794.95 163.762 L
795.338 177.677 L
795.725 129.606 L
796.112 129.606 L
796.5 163.762 L
796.888 163.762 L
797.275 226.381 L
797.662 101.143 L
798.05 138.714 L
798.438 177.677 L
798.825 138.714 L
799.213 115.593 L
799.6 122.016 L
799.987 253.218 L
800.375 226.381 L
800.763 129.606 L
801.15 177.677 L
801.537 129.606 L
801.925 226.381 L
802.313 152.377 L
802.7 138.714 L
803.088 129.606 L
803.475 253.218 L
803.862 163.762 L
804.25 163.762 L
804.638 152.377 L
805.025 163.762 L
805.412 77.059 L
805.8 195.071 L
806.188 257.69 L
806.575 177.677 L
806.963 129.606 L
807.35 77.059 L
807.737 188.81 L
808.125 181.653 L
808.513 163.762 L
808.9 195.071 L
809.287 253.218 L
809.675 129.606 L
810.063 195.071 L
810.45 195.071 L
810.838 175.147 L
811.225 96.326 L
811.612 122.016 L
812 175.147 L
812.388 113.667 L
812.775 129.606 L
813.162 195.071 L
813.55 129.606 L
813.938 142.889 L
814.325 188.81 L
814.713 113.667 L
815.1 163.762 L
815.487 74.306 L
815.875 226.381 L
816.263 226.381 L
816.65 226.381 L
817.037 226.381 L
817.425 195.071 L
817.813 113.667 L
818.2 226.381 L
818.588 163.762 L
818.975 195.071 L
819.362 152.377 L
819.75 149.847 L
820.138 122.016 L
820.525 177.677 L
820.912 106.836 L
821.3 177.677 L
821.688 96.326 L
822.075 149.847 L
822.463 122.016 L
822.85 129.606 L
823.237 138.714 L
823.625 149.847 L
824.013 115.593 L
824.4 115.593 L
824.787 129.606 L
825.175 205.508 L
825.563 175.147 L
825.95 253.218 L
826.338 115.593 L
826.725 106.836 L
827.112 226.381 L
827.5 289 L
827.888 134.861 L
828.275 163.762 L
828.662 122.016 L
829.05 205.508 L
829.438 205.508 L
829.825 226.381 L
830.213 138.714 L
830.6 226.381 L
830.987 163.762 L
831.375 188.81 L
831.763 195.071 L
832.15 138.714 L
832.537 163.762 L
832.925 177.677 L
833.313 127.98 L
833.7 138.714 L
834.088 138.714 L
834.475 177.677 L
834.862 163.762 L
835.25 195.071 L
835.638 175.147 L
836.025 226.381 L
836.412 188.81 L
836.8 177.677 L
837.188 163.762 L
837.575 149.847 L
837.963 188.81 L
838.35 163.762 L
838.737 152.377 L
839.125 163.762 L
839.513 195.071 L
839.9 163.762 L
840.287 163.762 L
840.675 188.81 L
841.063 122.016 L
841.45 122.016 L
841.838 226.381 L
842.225 177.677 L
842.612 138.714 L
843 152.377 L
843.388 101.143 L
843.775 253.218 L
844.162 149.847 L
844.55 122.016 L
844.938 163.762 L
845.325 138.714 L
845.713 188.81 L
846.1 253.218 L
846.487 106.836 L
846.875 122.016 L
847.263 84.065 L
847.65 226.381 L
848.037 163.762 L
848.425 106.836 L
848.813 80.27 L
849.2 149.847 L
849.588 149.847 L
849.975 138.714 L
850.362 152.377 L
850.75 163.762 L
851.138 163.762 L
851.525 177.677 L
851.912 152.377 L
852.3 177.677 L
852.688 226.381 L
853.075 138.714 L
853.463 106.836 L
853.85 163.762 L
854.237 129.606 L
854.625 115.593 L
855.013 177.677 L
855.4 163.762 L
855.787 195.071 L
856.175 96.326 L
856.563 101.143 L
856.95 149.847 L
857.338 115.593 L
857.725 106.836 L
858.112 177.677 L
858.5 195.071 L
858.888 138.714 L
859.275 138.714 L
859.662 177.677 L
860.05 106.836 L
860.438 188.81 L
860.825 129.606 L
861.213 92.197 L
861.6 88.619 L
861.987 132.452 L
862.375 205.508 L
862.763 138.714 L
863.15 129.606 L
863.537 177.677 L
863.925 96.326 L
864.313 163.762 L
864.7 253.218 L
865.088 257.69 L
865.475 149.847 L
865.862 106.836 L
866.25 163.762 L
866.638 106.836 L
867.025 106.836 L
867.412 101.143 L
867.8 152.377 L
868.188 138.714 L
868.575 177.677 L
868.963 101.143 L
869.35 122.016 L
869.737 226.381 L
870.125 80.27 L
870.513 134.861 L
870.9 88.619 L
871.287 106.836 L
871.675 253.218 L
872.063 177.677 L
872.45 163.762 L
872.838 129.606 L
873.225 149.847 L
873.612 149.847 L
874 134.861 L
874.388 138.714 L
874.775 84.065 L
875.162 195.071 L
875.55 195.071 L
875.938 129.606 L
876.325 163.762 L
876.713 138.714 L
877.1 110.088 L
877.487 188.81 L
877.875 163.762 L
878.263 110.088 L
878.65 129.606 L
879.037 177.677 L
879.425 138.714 L
879.813 163.762 L
880.2 115.593 L
880.588 152.377 L
880.975 142.889 L
881.362 122.016 L
881.75 152.377 L
882.138 106.836 L
882.525 113.667 L
882.912 101.143 L
883.3 129.606 L
883.688 217.435 L
884.075 149.847 L
884.463 138.714 L
884.85 129.606 L
885.237 101.143 L
885.625 205.508 L
886.013 177.677 L
886.4 92.197 L
886.787 92.197 L
887.175 195.071 L
887.563 138.714 L
887.95 129.606 L
888.338 129.606 L
888.725 163.762 L
889.112 177.677 L
889.5 122.016 L
889.888 113.667 L
890.275 138.714 L
890.662 163.762 L
891.05 138.714 L
891.438 149.847 L
891.825 129.606 L
892.213 253.218 L
892.6 289 L
892.987 152.377 L
893.375 175.147 L
893.763 138.714 L
894.15 92.197 L
894.537 181.653 L
894.925 113.667 L
895.313 163.762 L
895.7 163.762 L
896.088 205.508 L
896.475 122.016 L
896.862 122.016 L
897.25 142.889 L
897.638 205.508 L
898.025 85.488 L
898.412 69.833 L
898.8 57.791 L
899.188 152.377 L
899.575 177.677 L
899.963 195.071 L
900.35 163.762 L
900.737 101.143 L
901.125 138.714 L
901.513 113.667 L
901.9 134.861 L
902.287 77.059 L
902.675 152.377 L
903.063 177.677 L
903.45 175.147 L
903.838 122.016 L
904.225 59.397 L
904.612 101.143 L
905 92.197 L
S
GR
GS
1 0 0 RC
1 LJ
0.5 LW
N
169.525 92.523 M
169.913 90.926 L
170.3 89.054 L
170.688 87.312 L
171.075 85.686 L
171.462 84.763 L
171.85 83.84 L
172.238 83.009 L
172.625 82.043 L
173.012 81.372 L
173.4 80.182 L
173.788 79.298 L
174.175 78.225 L
174.563 77.436 L
174.95 76.855 L
175.337 76.062 L
175.725 75.168 L
176.113 74.316 L
176.5 73.502 L
176.887 72.725 L
177.275 71.982 L
177.663 71.467 L
178.05 70.781 L
178.438 70.123 L
178.825 69.491 L
179.212 68.883 L
179.6 67.544 L
179.988 66.562 L
180.375 64.925 L
180.762 63.413 L
181.15 60.685 L
181.538 59.457 L
181.925 58.054 L
182.313 57.476 L
182.7 56.821 L
183.087 56.33 L
183.475 55.628 L
183.863 54.319 L
184.25 53.009 L
184.637 51.645 L
185.025 51.067 L
185.413 50.412 L
185.8 49.834 L
186.188 48.968 L
186.575 47.523 L
186.962 46.768 L
187.35 44.535 L
187.738 43.672 L
188.125 42.035 L
188.512 42.035 L
188.9 42.035 L
189.288 41.543 L
189.675 41.33 L
190.063 41.33 L
190.45 41.33 L
190.837 41.33 L
191.225 40.966 L
191.613 40.639 L
192 40.715 L
192.387 40.668 L
192.775 40.276 L
193.163 40.276 L
193.55 40.1 L
193.938 40.1 L
194.325 39.925 L
194.712 39.618 L
195.1 39.717 L
195.488 39.94 L
195.875 40.199 L
196.262 40.488 L
196.65 40.488 L
197.038 40.488 L
197.425 40.495 L
197.813 40.495 L
198.2 40.67 L
198.587 40.67 L
198.975 40.904 L
199.363 40.904 L
199.75 40.904 L
200.137 41.162 L
200.525 41.162 L
200.913 41.367 L
201.3 41.367 L
201.688 41.367 L
202.075 41.367 L
202.462 41.367 L
202.85 41.367 L
203.238 41.367 L
203.625 41.367 L
204.012 41.367 L
204.4 41.613 L
204.788 41.836 L
205.175 41.836 L
205.563 42.094 L
205.95 42.094 L
206.337 42.094 L
206.725 42.094 L
207.113 42.094 L
207.5 41.906 L
207.887 41.906 L
208.275 41.906 L
208.663 41.906 L
209.05 41.906 L
209.438 41.906 L
209.825 42.129 L
210.212 42.129 L
210.6 42.129 L
210.988 42.292 L
211.375 42.538 L
211.762 42.307 L
212.15 42.126 L
212.538 42.126 L
212.925 42.126 L
213.313 42.126 L
213.7 42.572 L
214.087 42.572 L
214.475 42.741 L
214.863 42.528 L
215.25 42.305 L
215.637 42.228 L
216.025 42.108 L
216.413 42.108 L
216.8 42.313 L
217.188 42.124 L
217.575 42.294 L
217.962 42.118 L
218.35 42.118 L
218.738 41.884 L
219.125 42.081 L
219.512 42.081 L
219.9 41.822 L
220.288 41.822 L
220.675 42.436 L
221.063 42.436 L
221.45 42.436 L
221.837 42.65 L
222.225 42.65 L
222.613 42.65 L
223 42.65 L
223.387 42.65 L
223.775 42.65 L
224.163 42.404 L
224.55 42.181 L
224.938 42.181 L
225.325 42.181 L
225.712 42.672 L
226.1 42.918 L
226.488 42.918 L
226.875 43.409 L
227.262 44.11 L
227.65 44.11 L
228.038 44.383 L
228.425 44.642 L
228.813 44.642 L
229.2 44.642 L
229.587 44.418 L
229.975 45.552 L
230.363 45.552 L
230.75 45.388 L
231.137 45.339 L
231.525 45.376 L
231.913 45.376 L
232.3 45.868 L
232.688 46.156 L
233.075 46.811 L
233.462 47.12 L
233.85 47.379 L
234.238 48.028 L
234.625 48.355 L
235.012 48.706 L
235.4 48.738 L
235.788 48.569 L
236.175 49.972 L
236.563 50.074 L
236.95 50.425 L
237.337 50.256 L
237.725 50.256 L
238.113 50.437 L
238.5 50.437 L
238.887 50.437 L
239.275 50.437 L
239.663 50.437 L
240.05 50.642 L
240.438 49.824 L
240.825 49.987 L
241.212 50.806 L
241.6 50.92 L
241.988 51.738 L
242.375 52.791 L
242.762 54.264 L
243.15 54.571 L
243.538 54.571 L
243.925 54.898 L
244.313 56.536 L
244.7 57.237 L
245.087 57.286 L
245.475 57.008 L
245.863 57.23 L
246.25 57.464 L
246.637 57.84 L
247.025 58.059 L
247.413 58.673 L
247.8 58.4 L
248.188 59.008 L
248.575 59.71 L
248.962 59.914 L
249.35 60.431 L
249.738 59.766 L
250.125 60 L
250.512 60.755 L
250.9 61.05 L
251.288 61.737 L
251.675 62.01 L
252.063 61.519 L
252.45 61.607 L
252.837 61.654 L
253.225 62.788 L
253.613 63.663 L
254 63.977 L
254.387 63.65 L
254.775 65.755 L
255.163 66.297 L
255.55 66.297 L
255.938 67.076 L
256.325 67.822 L
256.712 67.471 L
257.1 68.627 L
257.487 69.679 L
257.875 69.497 L
258.263 70.199 L
258.65 70.739 L
259.038 71.394 L
259.425 72.261 L
259.813 73.284 L
260.2 73.573 L
260.587 73.578 L
260.975 73.305 L
261.362 73.285 L
261.75 72.773 L
262.138 72.703 L
262.525 72.54 L
262.913 72.233 L
263.3 73.767 L
263.688 74.054 L
264.075 73.469 L
264.462 73.381 L
264.85 74.712 L
265.237 74.712 L
265.625 74.571 L
266.013 74.337 L
266.4 74.874 L
266.788 73.953 L
267.175 73.628 L
267.563 74.096 L
267.95 74.096 L
268.337 75.359 L
268.725 76.382 L
269.112 77.338 L
269.5 78.098 L
269.888 80.32 L
270.275 80.458 L
270.663 81.019 L
271.05 81.15 L
271.438 81.287 L
271.825 82.042 L
272.212 83.554 L
272.6 83.904 L
272.987 84.198 L
273.375 83.883 L
273.763 85.82 L
274.15 87.866 L
274.538 87.866 L
274.925 87.765 L
275.313 88.658 L
275.7 87.949 L
276.087 88.236 L
276.475 90.022 L
276.862 90.503 L
277.25 90.106 L
277.638 90.395 L
278.025 91.166 L
278.413 91.563 L
278.8 92.545 L
279.188 93.464 L
279.575 94.201 L
279.962 94.833 L
280.35 95.797 L
280.737 96.725 L
281.125 97.47 L
281.513 97.818 L
281.9 97.592 L
282.288 97.919 L
282.675 98.786 L
283.063 99.215 L
283.45 100.239 L
283.837 101.233 L
284.225 102.256 L
284.612 102.583 L
285 103.709 L
285.388 105.564 L
285.775 107.076 L
286.163 109.356 L
286.55 110.695 L
286.938 112.192 L
287.325 112.952 L
287.712 114.318 L
288.1 114.243 L
288.487 113.56 L
288.875 114.133 L
289.263 114.133 L
289.65 114.952 L
290.038 115.041 L
290.425 115.217 L
290.813 115.146 L
291.2 115.871 L
291.587 115.693 L
291.975 114.077 L
292.362 113.541 L
292.75 112.114 L
293.138 112.523 L
293.525 110.965 L
293.913 111.374 L
294.3 110.392 L
294.688 110.351 L
295.075 110.591 L
295.462 112.626 L
295.85 114.015 L
296.237 113.866 L
296.625 114.908 L
297.013 115.146 L
297.4 116.822 L
297.788 118.418 L
298.175 118.418 L
298.563 119.237 L
298.95 119.237 L
299.337 120.001 L
299.725 120.717 L
300.112 120.129 L
300.5 119.577 L
300.888 121.798 L
301.275 122.036 L
301.663 123.17 L
302.05 124.807 L
302.438 125.168 L
302.825 124.841 L
303.212 125.659 L
303.6 125.399 L
303.987 124.58 L
304.375 125.89 L
304.763 125.89 L
305.15 125.753 L
305.538 126.971 L
305.925 123.665 L
306.313 125.054 L
306.7 125.724 L
307.087 126.133 L
307.475 125.538 L
307.862 124.701 L
308.25 126.202 L
308.638 126.611 L
309.025 126.723 L
309.413 126.518 L
309.8 127.322 L
310.188 127.605 L
310.575 128.806 L
310.962 128.428 L
311.35 128.157 L
311.737 128.703 L
312.125 130.075 L
312.513 130.302 L
312.9 131.88 L
313.288 131.351 L
313.675 129.714 L
314.063 130.205 L
314.45 130.246 L
314.837 130.341 L
315.225 127.815 L
315.612 126.22 L
316 128.792 L
316.388 129.06 L
316.775 128.986 L
317.163 128.986 L
317.55 127.881 L
317.938 127.566 L
318.325 127.075 L
318.712 128.563 L
319.1 127.472 L
319.487 127.472 L
319.875 128.712 L
320.263 130.247 L
320.65 127.3 L
321.038 128.371 L
321.425 128.938 L
321.813 126.797 L
322.2 127.616 L
322.587 127.207 L
322.975 127.207 L
323.362 129.718 L
323.75 131.628 L
324.138 133.265 L
324.525 133.437 L
324.913 133.355 L
325.3 132.591 L
325.688 135.283 L
326.075 135.01 L
326.462 136.062 L
326.85 136.881 L
327.237 137.972 L
327.625 139.152 L
328.013 138.948 L
328.4 141.403 L
328.788 142.169 L
329.175 142.169 L
329.563 143.062 L
329.95 143.515 L
330.337 143.297 L
330.725 144.774 L
331.112 148.559 L
331.5 149.495 L
331.888 151.114 L
332.275 153.57 L
332.663 154.037 L
333.05 155.861 L
333.438 157.771 L
333.825 157.99 L
334.212 159.567 L
334.6 159.977 L
334.987 160.631 L
335.375 161.954 L
335.763 159.217 L
336.15 159.217 L
336.538 160.036 L
336.925 161.141 L
337.313 162.451 L
337.7 164.361 L
338.087 164.033 L
338.475 164.579 L
338.862 165.397 L
339.25 167.035 L
339.638 168.523 L
340.025 169.137 L
340.413 170.283 L
340.8 171.047 L
341.188 170.774 L
341.575 172.915 L
341.962 173.938 L
342.35 176.148 L
342.737 175.166 L
343.125 174.552 L
343.513 172.957 L
343.9 171.729 L
344.288 172.45 L
344.675 172.123 L
345.063 171.944 L
345.45 172.383 L
345.837 172.655 L
346.225 172.422 L
346.612 172.149 L
347 172.49 L
347.388 172.49 L
347.775 173.922 L
348.163 172.08 L
348.55 172.922 L
348.938 171.899 L
349.325 172.29 L
349.712 174.009 L
350.1 174.991 L
350.487 175.705 L
350.875 174.887 L
351.263 175.097 L
351.65 176.501 L
352.038 176.009 L
352.425 176.419 L
352.813 177.432 L
353.2 177.159 L
353.587 177.432 L
353.975 178.883 L
354.362 180.754 L
354.75 181.3 L
355.138 183.054 L
355.525 185.264 L
355.913 185.046 L
356.3 186.137 L
356.688 186.576 L
357.075 186.985 L
357.462 187.531 L
357.85 188.84 L
358.237 188.295 L
358.625 189.347 L
359.013 189.347 L
359.4 188.305 L
359.788 188.919 L
360.175 189.678 L
360.563 189.678 L
360.95 190.224 L
361.337 190.633 L
361.725 191.072 L
362.112 192.545 L
362.5 193.177 L
362.888 192.767 L
363.275 194.908 L
363.663 195.434 L
364.05 197.412 L
364.438 199.458 L
364.825 200.742 L
365.212 201.443 L
365.6 201.989 L
365.987 202.398 L
366.375 202.398 L
366.763 201.784 L
367.15 201.735 L
367.538 200.643 L
367.925 200.302 L
368.313 202.267 L
368.7 203.728 L
369.087 203.933 L
369.475 203.319 L
369.862 204.582 L
370.25 204.909 L
370.638 204.442 L
371.025 205.206 L
371.413 204.504 L
371.8 205.855 L
372.188 205.855 L
372.575 205.718 L
372.962 205.991 L
373.35 207.833 L
373.737 207.219 L
374.125 206.166 L
374.513 206.712 L
374.9 206.712 L
375.288 205.975 L
375.675 205.703 L
376.063 205.157 L
376.45 204.105 L
376.837 202.604 L
377.225 202.838 L
377.612 202.619 L
378 201.528 L
378.388 201.703 L
378.775 202.113 L
379.163 202.609 L
379.55 200.399 L
379.938 201.85 L
380.325 202.395 L
380.712 203.35 L
381.1 203.877 L
381.487 203.097 L
381.875 199.972 L
382.263 200.323 L
382.65 200.732 L
383.038 200.966 L
383.425 200.03 L
383.813 198.549 L
384.2 196.503 L
384.587 198.344 L
384.975 196.863 L
385.362 197.272 L
385.75 196.863 L
386.138 198.188 L
386.525 200.03 L
386.913 201.531 L
387.3 202.418 L
387.688 203.127 L
388.075 202.425 L
388.462 200.806 L
388.85 199.374 L
389.237 198.269 L
389.625 197.743 L
390.013 198.152 L
390.4 200.257 L
390.788 199.984 L
391.175 197.821 L
391.563 197.031 L
391.95 196.622 L
392.337 196.008 L
392.725 196.008 L
393.112 194.657 L
393.5 194.316 L
393.888 196.158 L
394.275 195.067 L
394.663 194.677 L
395.05 195.004 L
395.438 196.758 L
395.825 197.031 L
396.212 198.785 L
396.6 201.514 L
396.987 201.689 L
397.375 201.767 L
397.763 203.882 L
398.15 204.408 L
398.538 203.794 L
398.925 205.363 L
399.313 208.099 L
399.7 207.924 L
400.087 206.832 L
400.475 206.423 L
400.862 204.669 L
401.25 204.396 L
401.638 205.885 L
402.025 208.34 L
402.413 208.866 L
402.8 207.405 L
403.188 206.313 L
403.575 207.093 L
403.962 209.665 L
404.35 206.987 L
404.737 209.169 L
405.125 207.669 L
405.513 204.841 L
405.9 203.297 L
406.288 202.274 L
406.675 200.377 L
407.063 200.036 L
407.45 199.872 L
407.837 199.872 L
408.225 200.439 L
408.612 201.053 L
409 201.816 L
409.388 201.816 L
409.775 201.08 L
410.163 200.378 L
410.55 200.992 L
410.938 201.752 L
411.325 200.973 L
411.712 200.427 L
412.1 201.567 L
412.487 201.785 L
412.875 202.347 L
413.263 202.892 L
413.65 201.051 L
414.038 203.623 L
414.425 202.259 L
414.813 202.668 L
415.2 201.733 L
415.587 201.733 L
415.975 201.206 L
416.362 198.081 L
416.75 197.344 L
417.138 197.608 L
417.525 196.039 L
417.913 195.337 L
418.3 194.45 L
418.688 192.199 L
419.075 190.445 L
419.462 190.007 L
419.85 190.552 L
420.237 190.007 L
420.625 191.059 L
421.013 192.901 L
421.4 193.31 L
421.788 192.082 L
422.175 192.082 L
422.563 192.492 L
422.95 193.583 L
423.337 193.022 L
423.725 191.541 L
424.112 193.518 L
424.5 192.29 L
424.888 193.177 L
425.275 195.8 L
425.663 198.133 L
426.05 198.542 L
426.438 199.485 L
426.825 198.988 L
427.212 198.784 L
427.6 197.303 L
427.987 197.079 L
428.375 197.352 L
428.763 196.89 L
429.15 196.481 L
429.538 195.99 L
429.925 195.288 L
430.313 194.451 L
430.7 193.877 L
431.087 193.604 L
431.475 192.84 L
431.862 190.268 L
432.25 189.777 L
432.638 188.501 L
433.025 187.191 L
433.413 188.945 L
433.8 186.919 L
434.188 186.249 L
434.575 186.249 L
434.962 184.939 L
435.35 185.553 L
435.737 185.553 L
436.125 186.837 L
436.513 188.1 L
436.9 187.486 L
437.288 188.967 L
437.675 187.642 L
438.063 188.733 L
438.45 188.324 L
438.837 188.597 L
439.225 188.255 L
439.612 189.21 L
440 189.756 L
440.388 188.977 L
440.775 188.363 L
441.163 188.363 L
441.55 186.644 L
441.938 184.89 L
442.325 185.504 L
442.712 185.913 L
443.1 185.422 L
443.487 187.605 L
443.875 187.605 L
444.263 186.868 L
444.65 186.527 L
445.038 187.141 L
445.425 185.572 L
445.813 183.853 L
446.2 184.808 L
446.587 185.304 L
446.975 184.02 L
447.362 184.361 L
447.75 185.076 L
448.138 184.803 L
448.525 185.606 L
448.913 185.84 L
449.3 187.067 L
449.688 185.196 L
450.075 186.647 L
450.462 188.712 L
450.85 189.326 L
451.237 191.572 L
451.625 193.209 L
452.013 194.963 L
452.4 195.459 L
452.788 196.223 L
453.175 194.96 L
453.563 195.583 L
453.95 197.481 L
454.337 198.095 L
454.725 199.405 L
455.112 199.405 L
455.5 199.931 L
455.888 201.773 L
456.275 200.632 L
456.663 201.685 L
457.05 199.112 L
457.438 200.749 L
457.825 199.658 L
458.212 200.749 L
458.6 202.231 L
458.987 203.322 L
459.375 203.147 L
459.763 202.819 L
460.15 203.774 L
460.538 202.819 L
460.925 202.205 L
461.313 202.969 L
461.7 204.197 L
462.087 203.856 L
462.475 203.242 L
462.862 204.061 L
463.25 202.833 L
463.638 202.131 L
464.025 201.367 L
464.413 201.367 L
464.8 200.958 L
465.188 201.913 L
465.575 202.131 L
465.962 202.131 L
466.35 203.612 L
466.737 203.464 L
467.125 204.604 L
467.513 205.867 L
467.9 208.322 L
468.288 208.527 L
468.675 208.702 L
469.063 209.228 L
469.45 211.275 L
469.837 211.801 L
470.225 210.232 L
470.612 209.618 L
471 207.641 L
471.388 206.822 L
471.775 206.296 L
472.163 208.479 L
472.55 209.259 L
472.938 207.823 L
473.325 209.226 L
473.712 208.222 L
474.1 207.198 L
474.487 206.731 L
474.875 206.117 L
475.263 204.636 L
475.65 203.232 L
476.038 205.074 L
476.425 205.776 L
476.813 207.208 L
477.2 207.598 L
477.587 210.326 L
477.975 211.808 L
478.362 211.418 L
478.75 211.808 L
479.138 210.482 L
479.525 210.81 L
479.913 210.073 L
480.3 209.309 L
480.688 209.186 L
481.075 209.527 L
481.462 210.054 L
481.85 211.535 L
482.237 211.194 L
482.625 210.375 L
483.013 209.147 L
483.4 209.323 L
483.788 210.21 L
484.175 211.164 L
484.563 210.619 L
484.95 211.233 L
485.337 212.119 L
485.725 211.506 L
486.112 211.506 L
486.5 213.552 L
486.888 211.798 L
487.275 210.658 L
487.663 207.979 L
488.05 208.388 L
488.438 207.774 L
488.825 206.02 L
489.212 203.389 L
489.6 201.412 L
489.987 202.893 L
490.375 203.507 L
490.763 205.367 L
491.15 206.42 L
491.538 205.192 L
491.925 203.964 L
492.313 205.367 L
492.7 207.294 L
493.087 207.294 L
493.475 207.344 L
493.862 208.279 L
494.25 206.946 L
494.638 207.56 L
495.025 207.51 L
495.413 207.686 L
495.8 205.23 L
496.188 203.749 L
496.575 203.749 L
496.962 201.995 L
497.35 200.767 L
497.737 199.832 L
498.125 199.695 L
498.513 200.397 L
498.9 201.652 L
499.288 203.289 L
499.675 203.289 L
500.063 205.534 L
500.45 207.499 L
500.837 207.158 L
501.225 207.158 L
501.612 206.631 L
502 206.972 L
502.388 207.245 L
502.775 207.859 L
503.163 206.904 L
503.55 206.904 L
503.938 206.168 L
504.325 207.532 L
504.712 205.199 L
505.1 205.637 L
505.487 206.076 L
505.875 203.503 L
506.263 204.117 L
506.65 204.936 L
507.038 204.936 L
507.425 206.212 L
507.813 204.711 L
508.2 205.851 L
508.587 207.215 L
508.975 209.671 L
509.362 209.671 L
509.75 207.098 L
510.138 207.098 L
510.525 206.075 L
510.913 205.023 L
511.3 203.7 L
511.688 202.249 L
512.075 201.021 L
512.463 201.267 L
512.85 199.786 L
513.237 199.022 L
513.625 196.598 L
514.013 198.194 L
514.4 196.434 L
514.787 196.211 L
515.175 196.211 L
515.563 197.264 L
515.95 197.264 L
516.338 196.426 L
516.725 197.479 L
517.112 198.093 L
517.5 198.327 L
517.888 198.941 L
518.275 195.994 L
518.662 195.625 L
519.05 191.942 L
519.438 191.451 L
519.825 191.451 L
520.213 190.749 L
520.6 190.476 L
520.987 188.449 L
521.375 187.836 L
521.763 188.04 L
522.15 187.358 L
522.537 187.972 L
522.925 188.927 L
523.313 189.132 L
523.7 188.913 L
524.088 188.329 L
524.475 190.184 L
524.862 188.462 L
525.25 187.682 L
525.638 190.255 L
526.025 189.232 L
526.412 189.641 L
526.8 189.3 L
527.188 188.52 L
527.575 190.021 L
527.963 189.319 L
528.35 188.774 L
528.737 187.994 L
529.125 189.445 L
529.513 190.537 L
529.9 191.677 L
530.287 191.063 L
530.675 191.881 L
531.063 194.431 L
531.45 194.431 L
531.838 194.022 L
532.225 193.613 L
532.612 194.568 L
533 195.878 L
533.388 197.161 L
533.775 197.161 L
534.162 198.58 L
534.55 199.632 L
534.938 199.387 L
535.325 198.607 L
535.713 198.826 L
536.1 200.413 L
536.487 199.361 L
536.875 199.273 L
537.263 199.448 L
537.65 198.589 L
538.037 199.694 L
538.425 200.308 L
538.813 203.29 L
539.2 205.044 L
539.588 204.108 L
539.975 203.173 L
540.362 205.628 L
540.75 207.129 L
541.138 207.334 L
541.525 207.743 L
541.912 209.906 L
542.3 208.678 L
542.688 208.678 L
543.075 208.211 L
543.463 208.161 L
543.85 206.618 L
544.237 205.253 L
544.625 206.196 L
545.013 207.151 L
545.4 206.011 L
545.787 205.683 L
546.175 204.947 L
546.563 205.726 L
546.95 205.677 L
547.338 203.958 L
547.725 203.724 L
548.112 203.519 L
548.5 202.837 L
548.888 202.837 L
549.275 203.055 L
549.662 200.632 L
550.05 201.123 L
550.438 200.577 L
550.825 200.168 L
551.213 202.233 L
551.6 203.168 L
551.987 202.964 L
552.375 202.554 L
552.763 202.554 L
553.15 201.122 L
553.537 200.781 L
553.925 200.099 L
554.313 199.865 L
554.7 199.155 L
555.088 198.882 L
555.475 198.118 L
555.862 197.573 L
556.25 198.801 L
556.638 196.823 L
557.025 197.35 L
557.412 196.367 L
557.8 196.806 L
558.188 196.397 L
558.575 195.695 L
558.963 195.695 L
559.35 196.718 L
559.737 197.654 L
560.125 196.25 L
560.513 195.636 L
560.9 196.572 L
561.287 195.835 L
561.675 195.309 L
562.063 196.537 L
562.45 195.582 L
562.838 195.845 L
563.225 194.952 L
563.612 196.496 L
564 198.25 L
564.388 198.959 L
564.775 197.458 L
565.162 197.336 L
565.55 196.353 L
565.938 196.476 L
566.325 197.879 L
566.713 198.638 L
567.1 200.182 L
567.487 199.714 L
567.875 199.919 L
568.263 200.942 L
568.65 202.17 L
569.037 202.731 L
569.425 204.015 L
569.813 205.979 L
570.2 206.197 L
570.588 207.133 L
570.975 206.344 L
571.362 205.204 L
571.75 207.045 L
572.138 206.227 L
572.525 206.227 L
572.912 208.799 L
573.3 208.799 L
573.688 209.481 L
574.075 207.844 L
574.463 207.844 L
574.85 207.353 L
575.237 208.678 L
575.625 208.351 L
576.013 208.877 L
576.4 209.919 L
576.787 208.438 L
577.175 208.711 L
577.563 207.882 L
577.95 206.84 L
578.338 205.514 L
578.725 205.602 L
579.112 204.033 L
579.5 201.335 L
579.888 199.791 L
580.275 199.996 L
580.662 198.465 L
581.05 196.858 L
581.438 196.682 L
581.825 195.455 L
582.213 196.936 L
582.6 198.076 L
582.987 199.973 L
583.375 199.973 L
583.763 197.946 L
584.15 196.964 L
584.537 198.056 L
584.925 198.792 L
585.313 199.283 L
585.7 200.424 L
586.088 198.582 L
586.475 198.418 L
586.862 197.717 L
587.25 197.98 L
587.638 197.161 L
588.025 196.898 L
588.412 196.898 L
588.8 196.118 L
589.188 197.96 L
589.575 196.732 L
589.963 197.469 L
590.35 196.534 L
590.737 197.235 L
591.125 197.849 L
591.513 195.393 L
591.9 196.621 L
592.287 197.031 L
592.675 195.89 L
593.063 195.89 L
593.45 197.372 L
593.838 199.009 L
594.225 198.736 L
594.612 200.981 L
595 200.747 L
595.388 200.256 L
595.775 198.725 L
596.162 197.634 L
596.55 196.691 L
596.938 198.172 L
597.325 197.458 L
597.713 197.954 L
598.1 199.455 L
598.487 197.39 L
598.875 198.345 L
599.263 201.043 L
599.65 203.99 L
600.037 203.99 L
600.425 203.358 L
600.813 205.526 L
601.2 205.088 L
601.588 206.14 L
601.975 205.614 L
602.362 202.223 L
602.75 200.995 L
603.138 200.995 L
603.525 202.496 L
603.912 203.723 L
604.3 204.659 L
604.688 204.659 L
605.075 204.932 L
605.463 203.178 L
605.85 202.564 L
606.237 201.745 L
606.625 200.781 L
607.013 200.658 L
607.4 202.295 L
607.787 201.721 L
608.175 200.318 L
608.563 199.822 L
608.95 197.093 L
609.338 196.684 L
609.725 196.274 L
610.112 194.786 L
610.5 193.032 L
610.888 194.26 L
611.275 193.769 L
611.662 192.814 L
612.05 191.859 L
612.438 193.701 L
612.825 194.042 L
613.213 191.721 L
613.6 192.13 L
613.987 193.358 L
614.375 191.877 L
614.763 191.877 L
615.15 191.207 L
615.537 189.868 L
615.925 190.754 L
616.313 191.915 L
616.7 188.599 L
617.088 189.363 L
617.475 188.739 L
617.862 187.288 L
618.25 188.739 L
618.638 189.265 L
619.025 188.002 L
619.412 185.547 L
619.8 185.001 L
620.188 186.463 L
620.575 186.638 L
620.963 186.297 L
621.35 185.858 L
621.737 186.385 L
622.125 188.295 L
622.513 189.113 L
622.9 188.061 L
623.287 186.833 L
623.675 184.283 L
624.063 182.305 L
624.45 180.854 L
624.838 179.763 L
625.225 180.036 L
625.612 179.627 L
626 179.899 L
626.388 181.183 L
626.775 179.576 L
627.162 177.715 L
627.55 180.394 L
627.938 178.851 L
628.325 180.828 L
628.713 180.119 L
629.1 178.072 L
629.487 178.306 L
629.875 178.703 L
630.263 179.522 L
630.65 177.68 L
631.037 177.898 L
631.425 177.625 L
631.813 176.37 L
632.2 174.733 L
632.588 174.392 L
632.975 177.414 L
633.362 175.517 L
633.75 174.289 L
634.138 174.289 L
634.525 173.198 L
634.912 174.481 L
635.3 174.481 L
635.688 176.323 L
636.075 176.446 L
636.463 179.373 L
636.85 179.714 L
637.237 180.064 L
637.625 181.516 L
638.013 182.743 L
638.4 181.808 L
638.787 182.135 L
639.175 181.862 L
639.563 181.18 L
639.95 180.128 L
640.338 178.677 L
640.725 180.158 L
641.112 180.158 L
641.5 179.018 L
641.888 178.745 L
642.275 178.745 L
642.662 180.499 L
643.05 182.253 L
643.438 183.848 L
643.825 184.422 L
644.213 184.373 L
644.6 186.244 L
644.987 187.199 L
645.375 188.836 L
645.763 188.836 L
646.15 187.347 L
646.537 188.191 L
646.925 188.414 L
647.313 185.14 L
647.7 186.859 L
648.088 185.923 L
648.475 186.906 L
648.862 187.861 L
649.25 184.73 L
649.638 184.594 L
650.025 184.828 L
650.412 186.056 L
650.8 186.105 L
651.188 187.742 L
651.575 190.089 L
651.963 190.498 L
652.35 191.453 L
652.737 188.431 L
653.125 190.328 L
653.513 189.006 L
653.9 189.006 L
654.287 188.87 L
654.675 187.437 L
655.063 187.735 L
655.45 185.056 L
655.838 183.623 L
656.225 181.768 L
656.612 180.931 L
657 180.658 L
657.388 178.76 L
657.775 175.738 L
658.162 173.597 L
658.55 173.13 L
658.938 173.894 L
659.325 176.057 L
659.713 176.33 L
660.1 176.826 L
660.487 174.849 L
660.875 173.743 L
661.263 171.541 L
661.65 172.768 L
662.037 170.628 L
662.425 169.224 L
662.813 166.652 L
663.2 165.56 L
663.588 164.093 L
663.975 164.143 L
664.362 162.818 L
664.75 162.204 L
665.138 162.73 L
665.525 162.73 L
665.912 164.367 L
666.3 163.821 L
666.688 163.821 L
667.075 164.913 L
667.463 165.439 L
667.85 165.985 L
668.237 166.599 L
668.625 168.509 L
669.013 170.095 L
669.4 170.013 L
669.787 170.803 L
670.175 168.47 L
670.563 169.921 L
670.95 167.793 L
671.338 166.156 L
671.725 164.258 L
672.112 164.667 L
672.5 164.118 L
672.888 162.89 L
673.275 165.966 L
673.662 165.966 L
674.05 165.809 L
674.438 165.645 L
674.825 165.318 L
675.213 165.814 L
675.6 167.451 L
675.987 167.272 L
676.375 167.768 L
676.763 167.223 L
677.15 168.711 L
677.537 171.733 L
677.925 174.897 L
678.313 175.161 L
678.7 173.851 L
679.088 172.32 L
679.475 173.275 L
679.862 172.332 L
680.25 174.31 L
680.638 177.257 L
681.025 178.573 L
681.412 176.526 L
681.8 177.625 L
682.188 176.783 L
682.575 178.654 L
682.963 179.25 L
683.35 179.547 L
683.737 180.043 L
684.125 178.515 L
684.513 177.232 L
684.9 174.808 L
685.287 172.734 L
685.675 171.425 L
686.063 172.243 L
686.45 172.516 L
686.838 171.97 L
687.225 170.216 L
687.612 169.343 L
688 169.782 L
688.388 169.372 L
688.775 169.864 L
689.162 171.719 L
689.55 170.93 L
689.938 170.193 L
690.325 169.188 L
690.713 169.01 L
691.1 168.055 L
691.487 168.233 L
691.875 166.947 L
692.263 168.677 L
692.65 168.404 L
693.037 166.241 L
693.425 165.298 L
693.813 166.684 L
694.2 167.939 L
694.588 169.085 L
694.975 171.268 L
695.362 169.958 L
695.75 170.628 L
696.138 171.583 L
696.525 171.91 L
696.912 170.273 L
697.3 167.326 L
697.688 166.098 L
698.075 165.976 L
698.463 167.067 L
698.85 167.458 L
699.237 166.844 L
699.625 166.397 L
700.013 163.006 L
700.4 161.778 L
700.787 162.324 L
701.175 162.651 L
701.563 162.875 L
701.95 163.143 L
702.338 161.817 L
702.725 162.654 L
703.112 163.473 L
703.5 163.551 L
703.888 165.079 L
704.275 166.801 L
704.662 168.699 L
705.05 171.864 L
705.438 172.082 L
705.825 172.082 L
706.213 170.99 L
706.6 171.263 L
706.987 170.854 L
707.375 171.181 L
707.763 171.181 L
708.15 171.006 L
708.537 170.024 L
708.925 168.66 L
709.313 167.116 L
709.7 169.572 L
710.088 170.576 L
710.475 171.86 L
710.862 172.418 L
711.25 172.239 L
711.638 171.616 L
712.025 171.275 L
712.412 174.003 L
712.8 173.09 L
713.188 173.351 L
713.575 171.714 L
713.963 171.714 L
714.35 171.222 L
714.737 169.258 L
715.125 169.526 L
715.513 170.14 L
715.9 169.403 L
716.287 170.713 L
716.675 172.759 L
717.063 174.069 L
717.45 175.209 L
717.838 174.991 L
718.225 174.718 L
718.612 174.922 L
719 174.922 L
719.388 176.039 L
719.775 178.494 L
720.162 176.15 L
720.55 176.15 L
720.938 177.255 L
721.325 176.641 L
721.713 176.046 L
722.1 175.828 L
722.487 175.214 L
722.875 175.214 L
723.263 175.682 L
723.65 177.182 L
724.037 176.13 L
724.425 174.902 L
724.813 174.152 L
725.2 175.789 L
725.588 175.298 L
725.975 177.87 L
726.362 177.597 L
726.75 177.024 L
727.138 175.504 L
727.525 176.206 L
727.912 175.153 L
728.3 175.191 L
728.688 175.805 L
729.075 176.569 L
729.463 174.019 L
729.85 173.064 L
730.237 172.723 L
730.625 174.007 L
731.013 174.453 L
731.4 173.61 L
731.787 173.337 L
732.175 170.063 L
732.563 171.876 L
732.95 174.741 L
733.338 174.89 L
733.725 174.617 L
734.112 174.885 L
734.5 174.394 L
734.888 173.798 L
735.275 171.862 L
735.662 170.389 L
736.05 169.843 L
736.438 167.293 L
736.825 167.527 L
737.213 165.55 L
737.6 164.786 L
737.987 164.786 L
738.375 163.967 L
738.763 163.967 L
739.15 165.331 L
739.537 163.531 L
739.925 164.156 L
740.313 163.213 L
740.7 161.655 L
741.088 161.041 L
741.475 161.19 L
741.862 161.19 L
742.25 162.944 L
742.638 162.72 L
743.025 163.13 L
743.412 162.72 L
743.8 161.083 L
744.188 160.81 L
744.575 159.924 L
744.963 157.615 L
745.35 157.287 L
745.737 155.806 L
746.125 155.097 L
746.513 154.851 L
746.9 154.231 L
747.287 152.253 L
747.675 151.271 L
748.063 151.943 L
748.45 150.659 L
748.838 150.163 L
749.225 151.709 L
749.612 151.026 L
750 149.116 L
750.388 148.775 L
750.775 148.016 L
751.162 150.115 L
751.55 150.933 L
751.938 151.082 L
752.325 150.1 L
752.713 147.917 L
753.1 148.364 L
753.487 147.694 L
753.875 149.671 L
754.263 148.198 L
754.65 148.525 L
755.037 149.356 L
755.425 148.702 L
755.813 147.938 L
756.2 147.623 L
756.588 145.901 L
756.975 146.124 L
757.362 147.843 L
757.75 149.071 L
758.138 148.504 L
758.525 147.071 L
758.912 143.629 L
759.3 143.138 L
759.688 143.406 L
760.075 142.848 L
760.463 143.301 L
760.85 146.985 L
761.237 146.538 L
761.625 147.029 L
762.013 143.953 L
762.4 144.176 L
762.787 143.44 L
763.175 142.348 L
763.563 144.477 L
763.95 144.749 L
764.338 144.613 L
764.725 145.066 L
765.112 145.885 L
765.5 145.339 L
765.888 145.339 L
766.275 147.619 L
766.662 147.825 L
767.05 148.322 L
767.438 148.188 L
767.825 147.516 L
768.213 147.07 L
768.6 147.907 L
768.987 147.907 L
769.375 147.702 L
769.763 149.339 L
770.15 148.843 L
770.537 149.825 L
770.925 148.843 L
771.313 149.252 L
771.7 149.431 L
772.088 150.536 L
772.475 149.445 L
772.862 148.265 L
773.25 148.116 L
773.638 147.59 L
774.025 149.677 L
774.412 151.922 L
774.8 151.743 L
775.188 153.994 L
775.575 154.758 L
775.963 155.279 L
776.35 154.967 L
776.737 154.297 L
777.125 154.122 L
777.513 154.648 L
777.9 156.442 L
778.287 157.752 L
778.675 159.011 L
779.063 160.261 L
779.45 161.713 L
779.838 163.213 L
780.225 164.318 L
780.612 162.477 L
781 164.411 L
781.388 163.742 L
781.775 165.064 L
782.162 164.573 L
782.55 164.9 L
782.938 164.503 L
783.325 163.521 L
783.713 162.851 L
784.1 162.769 L
784.487 165.102 L
784.875 163.986 L
785.263 164.259 L
785.65 165.514 L
786.037 163.792 L
786.425 164.238 L
786.813 163.966 L
787.2 165.082 L
787.588 167.254 L
787.975 167.142 L
788.362 166.037 L
788.75 166.087 L
789.138 166.21 L
789.525 165.265 L
789.912 164.67 L
790.3 166.424 L
790.688 167.652 L
791.075 165.754 L
791.463 166.518 L
791.85 165.235 L
792.237 167.281 L
792.625 168.461 L
793.013 168.788 L
793.4 166.891 L
793.787 168.031 L
794.175 166.277 L
794.563 166.947 L
794.95 166.11 L
795.338 165.837 L
795.725 165.253 L
796.112 166.849 L
796.5 169.36 L
796.888 168.581 L
797.275 166.157 L
797.662 163.229 L
798.05 163.229 L
798.438 164.399 L
798.825 164.622 L
799.213 164.008 L
799.6 165.489 L
799.987 164.205 L
800.375 164.205 L
800.763 164.001 L
801.15 164.894 L
801.537 163.572 L
801.925 163.244 L
802.313 162.649 L
802.7 162.336 L
803.088 162.158 L
803.475 163.441 L
803.862 163.263 L
804.25 161.012 L
804.638 162.619 L
805.025 161.637 L
805.412 161.364 L
805.8 160.28 L
806.188 162.177 L
806.575 163.405 L
806.963 164.633 L
807.35 164.633 L
807.737 166.475 L
808.125 165.983 L
808.513 166.938 L
808.9 167.43 L
809.287 168.988 L
809.675 169.583 L
810.063 167.556 L
810.45 165.51 L
810.838 166.453 L
811.225 165.063 L
811.612 166.006 L
812 163.456 L
812.388 163.406 L
812.775 163.079 L
813.162 163.079 L
813.55 160.834 L
813.938 160.561 L
814.325 159.616 L
814.713 158.895 L
815.1 158.225 L
815.487 160.744 L
815.875 160.353 L
816.263 160.266 L
816.65 159.048 L
817.037 158.602 L
817.425 161.53 L
817.813 163.494 L
818.2 162.577 L
818.588 162.577 L
818.975 161.144 L
819.362 160.209 L
819.75 161.697 L
820.138 162.311 L
820.525 161.206 L
820.912 162.211 L
821.3 163.533 L
821.688 164.843 L
822.075 165.233 L
822.463 165.724 L
822.85 166.394 L
823.237 166.053 L
823.625 166.021 L
824.013 165.939 L
824.4 164.957 L
824.787 166.212 L
825.175 166.212 L
825.563 168.58 L
825.95 167.575 L
826.338 167.575 L
826.725 166.839 L
827.112 165.884 L
827.5 165.27 L
827.888 165.979 L
828.275 165.243 L
828.662 165.243 L
829.05 164.405 L
829.438 164.629 L
829.825 165.515 L
830.213 166.334 L
830.6 166.061 L
830.987 167.668 L
831.375 166.577 L
831.763 167.081 L
832.15 168.581 L
832.537 169.673 L
832.925 169.851 L
833.313 170.119 L
833.7 169.164 L
834.088 171.863 L
834.475 172.535 L
834.862 172.386 L
835.25 171.567 L
835.638 170.853 L
836.025 169.59 L
836.412 172.288 L
836.8 172.288 L
837.188 170.242 L
837.575 166.224 L
837.963 168.018 L
838.35 168.018 L
838.737 167.721 L
839.125 165.265 L
839.513 164.173 L
839.9 162.673 L
840.287 162.673 L
840.675 161.222 L
841.063 161.222 L
841.45 160.731 L
841.838 160.39 L
842.225 160.657 L
842.612 160.93 L
843 161.885 L
843.388 162.096 L
843.775 161.471 L
844.162 161.962 L
844.55 161.019 L
844.938 160.075 L
845.325 159.734 L
845.713 159.51 L
846.1 158.897 L
846.487 157.083 L
846.875 155.582 L
847.263 155.31 L
847.65 154.638 L
848.037 153.031 L
848.425 153.303 L
848.813 154.141 L
849.2 153.65 L
849.588 152.544 L
849.975 152.817 L
850.362 151.701 L
850.75 151.701 L
851.138 151.85 L
851.525 151.265 L
851.912 148.564 L
852.3 147.677 L
852.688 148.987 L
853.075 148.719 L
853.463 149.277 L
853.85 147.796 L
854.237 146.747 L
854.625 147.565 L
855.013 149.319 L
855.4 151.652 L
855.787 150.888 L
856.175 148.018 L
856.563 149.134 L
856.95 148.836 L
857.338 149.283 L
857.725 146.827 L
858.112 146.604 L
858.5 147.229 L
858.888 149.139 L
859.275 148.184 L
859.662 147.638 L
860.05 149.357 L
860.438 147.943 L
860.825 147.377 L
861.213 145.903 L
861.6 144.514 L
861.987 146.492 L
862.375 146.492 L
862.763 145.264 L
863.15 145.085 L
863.537 145.928 L
863.925 145.656 L
864.313 145.759 L
864.7 146.212 L
865.088 144.376 L
865.475 144.99 L
865.862 144.99 L
866.25 145.643 L
866.638 146.871 L
867.025 146.652 L
867.412 146.545 L
867.8 148.152 L
868.188 147.879 L
868.575 146.213 L
868.963 146.034 L
869.35 146.798 L
869.737 146.034 L
870.125 147.15 L
870.513 145.715 L
870.9 146.161 L
871.287 147.155 L
871.675 147.81 L
872.063 148.201 L
872.45 146.266 L
872.838 145.775 L
873.225 145.217 L
873.612 144.274 L
874 146.649 L
874.388 146.376 L
874.775 144.131 L
875.162 141.619 L
875.55 140.664 L
875.938 142.599 L
876.325 142.872 L
876.713 142.585 L
877.1 142.298 L
877.487 144.14 L
877.875 143.872 L
878.263 143.693 L
878.65 142.751 L
879.037 143.978 L
879.425 145.07 L
879.813 143.023 L
880.2 143.678 L
880.588 143.754 L
880.975 145.227 L
881.362 145.852 L
881.75 143.825 L
882.138 142.883 L
882.525 144.637 L
882.912 147.762 L
883.3 147.812 L
883.688 148.308 L
884.075 148.383 L
884.463 147.471 L
884.85 149.385 L
885.237 147.789 L
885.625 147.175 L
886.013 147.845 L
886.4 148.663 L
886.787 148.336 L
887.175 148.57 L
887.563 147.669 L
887.95 148.488 L
888.338 148.005 L
888.725 146.833 L
889.112 144.483 L
889.5 144.75 L
889.888 145.023 L
890.275 146.582 L
890.662 146.805 L
891.05 145.986 L
891.438 146.314 L
891.825 145.555 L
892.213 146.104 L
892.6 145.387 L
892.987 146.391 L
893.375 147.334 L
893.763 146.505 L
894.15 145.959 L
894.537 144.404 L
894.925 143.845 L
895.313 143.67 L
895.7 142.433 L
896.088 141.714 L
896.475 142.746 L
896.862 143.821 L
897.25 142.707 L
897.638 142.796 L
898.025 143.095 L
898.412 143.409 L
898.8 142.925 L
899.188 142.077 L
899.575 142.578 L
899.963 143.32 L
900.35 143.441 L
900.737 142.892 L
901.125 143.008 L
901.513 142.812 L
901.9 143.201 L
902.287 139.867 L
902.675 135.207 L
903.063 134.653 L
903.45 133.303 L
903.838 133.116 L
904.225 134.578 L
904.612 132.834 L
905 133.571 L
S
GR
%%Trailer
%%Pages: 1
%%EOF
