%!PS-Adobe-3.0 EPSF-3.0
%%Creator: (MATLAB, The Mathworks, Inc. Version 9.0.0.341360 \(R2016a\). Operating System: Linux)
%%Title: report/figures/sm_base_log_softmax4_ratio.eps
%%CreationDate: 2017-02-04T23:56:34
%%Pages: (atend)
%%BoundingBox:    59     4   910   325
%%LanguageLevel: 3
%%EndComments
%%BeginProlog
%%BeginResource: procset (Apache XML Graphics Std ProcSet) 1.2 0
%%Version: 1.2 0
%%Copyright: (Copyright 2001-2003,2010 The Apache Software Foundation. License terms: http://www.apache.org/licenses/LICENSE-2.0)
/bd{bind def}bind def
/ld{load def}bd
/GR/grestore ld
/M/moveto ld
/LJ/setlinejoin ld
/C/curveto ld
/f/fill ld
/LW/setlinewidth ld
/GC/setgray ld
/t/show ld
/N/newpath ld
/CT/concat ld
/cp/closepath ld
/S/stroke ld
/L/lineto ld
/CC/setcmykcolor ld
/A/ashow ld
/GS/gsave ld
/RC/setrgbcolor ld
/RM/rmoveto ld
/ML/setmiterlimit ld
/re {4 2 roll M
1 index 0 rlineto
0 exch rlineto
neg 0 rlineto
cp } bd
/_ctm matrix def
/_tm matrix def
/BT { _ctm currentmatrix pop matrix _tm copy pop 0 0 moveto } bd
/ET { _ctm setmatrix } bd
/iTm { _ctm setmatrix _tm concat } bd
/Tm { _tm astore pop iTm 0 0 moveto } bd
/ux 0.0 def
/uy 0.0 def
/F {
  /Tp exch def
  /Tf exch def
  Tf findfont Tp scalefont setfont
  /cf Tf def  /cs Tp def
} bd
/ULS {currentpoint /uy exch def /ux exch def} bd
/ULE {
  /Tcx currentpoint pop def
  gsave
  newpath
  cf findfont cs scalefont dup
  /FontMatrix get 0 get /Ts exch def /FontInfo get dup
  /UnderlinePosition get Ts mul /To exch def
  /UnderlineThickness get Ts mul /Tt exch def
  ux uy To add moveto  Tcx uy To add lineto
  Tt setlinewidth stroke
  grestore
} bd
/OLE {
  /Tcx currentpoint pop def
  gsave
  newpath
  cf findfont cs scalefont dup
  /FontMatrix get 0 get /Ts exch def /FontInfo get dup
  /UnderlinePosition get Ts mul /To exch def
  /UnderlineThickness get Ts mul /Tt exch def
  ux uy To add cs add moveto Tcx uy To add cs add lineto
  Tt setlinewidth stroke
  grestore
} bd
/SOE {
  /Tcx currentpoint pop def
  gsave
  newpath
  cf findfont cs scalefont dup
  /FontMatrix get 0 get /Ts exch def /FontInfo get dup
  /UnderlinePosition get Ts mul /To exch def
  /UnderlineThickness get Ts mul /Tt exch def
  ux uy To add cs 10 mul 26 idiv add moveto Tcx uy To add cs 10 mul 26 idiv add lineto
  Tt setlinewidth stroke
  grestore
} bd
/QT {
/Y22 exch store
/X22 exch store
/Y21 exch store
/X21 exch store
currentpoint
/Y21 load 2 mul add 3 div exch
/X21 load 2 mul add 3 div exch
/X21 load 2 mul /X22 load add 3 div
/Y21 load 2 mul /Y22 load add 3 div
/X22 load /Y22 load curveto
} bd
/SSPD {
dup length /d exch dict def
{
/v exch def
/k exch def
currentpagedevice k known {
/cpdv currentpagedevice k get def
v cpdv ne {
/upd false def
/nullv v type /nulltype eq def
/nullcpdv cpdv type /nulltype eq def
nullv nullcpdv or
{
/upd true def
} {
/sametype v type cpdv type eq def
sametype {
v type /arraytype eq {
/vlen v length def
/cpdvlen cpdv length def
vlen cpdvlen eq {
0 1 vlen 1 sub {
/i exch def
/obj v i get def
/cpdobj cpdv i get def
obj cpdobj ne {
/upd true def
exit
} if
} for
} {
/upd true def
} ifelse
} {
v type /dicttype eq {
v {
/dv exch def
/dk exch def
/cpddv cpdv dk get def
dv cpddv ne {
/upd true def
exit
} if
} forall
} {
/upd true def
} ifelse
} ifelse
} if
} ifelse
upd true eq {
d k v put
} if
} if
} if
} forall
d length 0 gt {
d setpagedevice
} if
} bd
%%EndResource
%%BeginResource: procset (Apache XML Graphics EPS ProcSet) 1.0 0
%%Version: 1.0 0
%%Copyright: (Copyright 2002-2003 The Apache Software Foundation. License terms: http://www.apache.org/licenses/LICENSE-2.0)
/BeginEPSF { %def
/b4_Inc_state save def         % Save state for cleanup
/dict_count countdictstack def % Count objects on dict stack
/op_count count 1 sub def      % Count objects on operand stack
userdict begin                 % Push userdict on dict stack
/showpage { } def              % Redefine showpage, { } = null proc
0 setgray 0 setlinecap         % Prepare graphics state
1 setlinewidth 0 setlinejoin
10 setmiterlimit [ ] 0 setdash newpath
/languagelevel where           % If level not equal to 1 then
{pop languagelevel             % set strokeadjust and
1 ne                           % overprint to their defaults.
{false setstrokeadjust false setoverprint
} if
} if
} bd
/EndEPSF { %def
count op_count sub {pop} repeat            % Clean up stacks
countdictstack dict_count sub {end} repeat
b4_Inc_state restore
} bd
%%EndResource
%%EndProlog
%%Page: 1 1
%%PageBoundingBox: 0 0 1000 350
%%BeginPageSetup
[1 0 0 -1 0 350] CT
%%EndPageSetup
GS
1 GC
N
0 0 1000 350 re
f
GR
GS
1 GC
N
0 0 1000 350 re
f
GR
GS
1 GC
N
130 289 M
905 289 L
905 26 L
130 26 L
cp
f
GR
GS
0.873 GC
1 LJ
0.5 LW
N
130 289 M
130 26 L
S
GR
GS
0.873 GC
1 LJ
0.5 LW
N
323.75 289 M
323.75 26 L
S
GR
GS
0.873 GC
1 LJ
0.5 LW
N
517.5 289 M
517.5 26 L
S
GR
GS
0.873 GC
1 LJ
0.5 LW
N
711.25 289 M
711.25 26 L
S
GR
GS
0.873 GC
1 LJ
0.5 LW
N
905 289 M
905 26 L
S
GR
GS
0.873 GC
1 LJ
0.5 LW
N
905 289 M
130 289 L
S
GR
GS
0.873 GC
1 LJ
0.5 LW
N
905 238.905 M
130 238.905 L
S
GR
GS
0.873 GC
1 LJ
0.5 LW
N
905 188.81 M
130 188.81 L
S
GR
GS
0.873 GC
1 LJ
0.5 LW
N
905 138.714 M
130 138.714 L
S
GR
GS
0.873 GC
1 LJ
0.5 LW
N
905 88.619 M
130 88.619 L
S
GR
GS
0.873 GC
1 LJ
0.5 LW
N
905 38.524 M
130 38.524 L
S
GR
GS
0.149 GC
2 setlinecap
1 LJ
0.5 LW
N
130 289 M
905 289 L
S
GR
GS
0.149 GC
2 setlinecap
1 LJ
0.5 LW
N
130 289 M
130 281.25 L
S
GR
GS
0.149 GC
2 setlinecap
1 LJ
0.5 LW
N
323.75 289 M
323.75 281.25 L
S
GR
GS
0.149 GC
2 setlinecap
1 LJ
0.5 LW
N
517.5 289 M
517.5 281.25 L
S
GR
GS
0.149 GC
2 setlinecap
1 LJ
0.5 LW
N
711.25 289 M
711.25 281.25 L
S
GR
GS
0.149 GC
2 setlinecap
1 LJ
0.5 LW
N
905 289 M
905 281.25 L
S
GR
GS
[1 0 0 1 130 295] CT
0.149 GC
N
-0.141 5.719 M
-1.672 5.719 -2.438 7.219 QT
-3.203 8.719 -3.203 11.719 QT
-3.203 14.719 -2.438 16.219 QT
-1.672 17.719 -0.141 17.719 QT
1.391 17.719 2.156 16.219 QT
2.922 14.719 2.922 11.719 QT
2.922 8.719 2.156 7.219 QT
1.391 5.719 -0.141 5.719 QT
cp
-0.141 4.156 M
2.313 4.156 3.602 6.094 QT
4.891 8.031 4.891 11.719 QT
4.891 15.406 3.602 17.344 QT
2.313 19.281 -0.141 19.281 QT
-2.594 19.281 -3.891 17.344 QT
-5.188 15.406 -5.188 11.719 QT
-5.188 8.031 -3.891 6.094 QT
-2.594 4.156 -0.141 4.156 QT
cp
f
GR
GS
[1 0 0 1 323.75 295] CT
0.149 GC
N
-9.641 5.719 M
-11.172 5.719 -11.938 7.219 QT
-12.703 8.719 -12.703 11.719 QT
-12.703 14.719 -11.938 16.219 QT
-11.172 17.719 -9.641 17.719 QT
-8.109 17.719 -7.344 16.219 QT
-6.578 14.719 -6.578 11.719 QT
-6.578 8.719 -7.344 7.219 QT
-8.109 5.719 -9.641 5.719 QT
cp
-9.641 4.156 M
-7.188 4.156 -5.898 6.094 QT
-4.609 8.031 -4.609 11.719 QT
-4.609 15.406 -5.898 17.344 QT
-7.188 19.281 -9.641 19.281 QT
-12.094 19.281 -13.391 17.344 QT
-14.688 15.406 -14.688 11.719 QT
-14.688 8.031 -13.391 6.094 QT
-12.094 4.156 -9.641 4.156 QT
cp
-1.135 16.516 M
0.928 16.516 L
0.928 19 L
-1.135 19 L
-1.135 16.516 L
cp
5.238 4.422 M
12.988 4.422 L
12.988 6.078 L
7.051 6.078 L
7.051 9.656 L
7.473 9.5 7.902 9.43 QT
8.332 9.359 8.77 9.359 QT
11.207 9.359 12.637 10.695 QT
14.066 12.031 14.066 14.328 QT
14.066 16.672 12.598 17.977 QT
11.129 19.281 8.457 19.281 QT
7.551 19.281 6.598 19.125 QT
5.645 18.969 4.629 18.656 QT
4.629 16.672 L
5.504 17.156 6.441 17.391 QT
7.379 17.625 8.426 17.625 QT
10.113 17.625 11.098 16.734 QT
12.082 15.844 12.082 14.328 QT
12.082 12.797 11.098 11.906 QT
10.113 11.016 8.426 11.016 QT
7.629 11.016 6.848 11.195 QT
6.066 11.375 5.238 11.75 QT
5.238 4.422 L
cp
f
GR
GS
[1 0 0 1 517.5 295] CT
0.149 GC
N
-4.016 17.344 M
-0.797 17.344 L
-0.797 6.219 L
-4.297 6.922 L
-4.297 5.125 L
-0.813 4.422 L
1.156 4.422 L
1.156 17.344 L
4.375 17.344 L
4.375 19 L
-4.016 19 L
-4.016 17.344 L
cp
f
GR
GS
[1 0 0 1 711.25 295] CT
0.149 GC
N
-13.516 17.344 M
-10.297 17.344 L
-10.297 6.219 L
-13.797 6.922 L
-13.797 5.125 L
-10.313 4.422 L
-8.344 4.422 L
-8.344 17.344 L
-5.125 17.344 L
-5.125 19 L
-13.516 19 L
-13.516 17.344 L
cp
-1.135 16.516 M
0.928 16.516 L
0.928 19 L
-1.135 19 L
-1.135 16.516 L
cp
5.238 4.422 M
12.988 4.422 L
12.988 6.078 L
7.051 6.078 L
7.051 9.656 L
7.473 9.5 7.902 9.43 QT
8.332 9.359 8.77 9.359 QT
11.207 9.359 12.637 10.695 QT
14.066 12.031 14.066 14.328 QT
14.066 16.672 12.598 17.977 QT
11.129 19.281 8.457 19.281 QT
7.551 19.281 6.598 19.125 QT
5.645 18.969 4.629 18.656 QT
4.629 16.672 L
5.504 17.156 6.441 17.391 QT
7.379 17.625 8.426 17.625 QT
10.113 17.625 11.098 16.734 QT
12.082 15.844 12.082 14.328 QT
12.082 12.797 11.098 11.906 QT
10.113 11.016 8.426 11.016 QT
7.629 11.016 6.848 11.195 QT
6.066 11.375 5.238 11.75 QT
5.238 4.422 L
cp
f
GR
GS
[1 0 0 1 905 295] CT
0.149 GC
N
-2.656 17.344 M
4.219 17.344 L
4.219 19 L
-5.031 19 L
-5.031 17.344 L
-3.906 16.172 -1.969 14.219 QT
-0.031 12.266 0.469 11.688 QT
1.406 10.625 1.781 9.891 QT
2.156 9.156 2.156 8.438 QT
2.156 7.281 1.344 6.547 QT
0.531 5.813 -0.781 5.813 QT
-1.703 5.813 -2.734 6.133 QT
-3.766 6.453 -4.938 7.109 QT
-4.938 5.125 L
-3.75 4.641 -2.711 4.398 QT
-1.672 4.156 -0.813 4.156 QT
1.453 4.156 2.797 5.289 QT
4.141 6.422 4.141 8.313 QT
4.141 9.219 3.805 10.023 QT
3.469 10.828 2.578 11.922 QT
2.344 12.203 1.031 13.555 QT
-0.281 14.906 -2.656 17.344 QT
cp
f
GR
GS
[1 0 0 1 517.50037 320] CT
0.149 GC
N
-14.25 9.328 M
-14.25 11.188 L
-15.094 10.766 -16 10.547 QT
-16.906 10.328 -17.859 10.328 QT
-19.344 10.328 -20.078 10.781 QT
-20.813 11.234 -20.813 12.141 QT
-20.813 12.828 -20.281 13.219 QT
-19.75 13.609 -18.172 13.969 QT
-17.484 14.109 L
-15.391 14.563 -14.5 15.383 QT
-13.609 16.203 -13.609 17.688 QT
-13.609 19.359 -14.938 20.336 QT
-16.266 21.313 -18.578 21.313 QT
-19.547 21.313 -20.594 21.125 QT
-21.641 20.938 -22.813 20.563 QT
-22.813 18.516 L
-21.719 19.094 -20.648 19.375 QT
-19.578 19.656 -18.547 19.656 QT
-17.141 19.656 -16.391 19.18 QT
-15.641 18.703 -15.641 17.828 QT
-15.641 17.031 -16.188 16.602 QT
-16.734 16.172 -18.563 15.766 QT
-19.25 15.609 L
-21.094 15.219 -21.906 14.422 QT
-22.719 13.625 -22.719 12.219 QT
-22.719 10.531 -21.516 9.602 QT
-20.313 8.672 -18.109 8.672 QT
-17 8.672 -16.039 8.836 QT
-15.078 9 -14.25 9.328 QT
cp
-8.507 5.547 M
-8.507 8.969 L
-4.444 8.969 L
-4.444 10.5 L
-8.507 10.5 L
-8.507 17.031 L
-8.507 18.5 -8.108 18.922 QT
-7.71 19.344 -6.476 19.344 QT
-4.444 19.344 L
-4.444 21 L
-6.476 21 L
-8.757 21 -9.624 20.148 QT
-10.491 19.297 -10.491 17.031 QT
-10.491 10.5 L
-11.944 10.5 L
-11.944 8.969 L
-10.491 8.969 L
-10.491 5.547 L
-8.507 5.547 L
cp
8.447 14.484 M
8.447 15.453 L
-0.631 15.453 L
-0.506 17.5 0.596 18.57 QT
1.697 19.641 3.666 19.641 QT
4.807 19.641 5.869 19.359 QT
6.932 19.078 7.994 18.516 QT
7.994 20.391 L
6.932 20.844 5.814 21.078 QT
4.697 21.313 3.541 21.313 QT
0.666 21.313 -1.014 19.633 QT
-2.693 17.953 -2.693 15.109 QT
-2.693 12.141 -1.1 10.406 QT
0.494 8.672 3.197 8.672 QT
5.635 8.672 7.041 10.234 QT
8.447 11.797 8.447 14.484 QT
cp
6.479 13.906 M
6.447 12.281 5.564 11.32 QT
4.682 10.359 3.229 10.359 QT
1.572 10.359 0.572 11.289 QT
-0.428 12.219 -0.568 13.922 QT
6.479 13.906 L
cp
13.607 19.188 M
13.607 25.578 L
11.623 25.578 L
11.623 8.969 L
13.607 8.969 L
13.607 10.797 L
14.232 9.719 15.186 9.195 QT
16.139 8.672 17.451 8.672 QT
19.639 8.672 21.014 10.414 QT
22.389 12.156 22.389 15 QT
22.389 17.828 21.014 19.57 QT
19.639 21.313 17.451 21.313 QT
16.139 21.313 15.186 20.789 QT
14.232 20.266 13.607 19.188 QT
cp
20.326 15 M
20.326 12.813 19.436 11.57 QT
18.545 10.328 16.967 10.328 QT
15.404 10.328 14.506 11.57 QT
13.607 12.813 13.607 15 QT
13.607 17.172 14.506 18.414 QT
15.404 19.656 16.967 19.656 QT
18.545 19.656 19.436 18.414 QT
20.326 17.172 20.326 15 QT
cp
f
GR
GS
[1 0 0 1 852 345] CT
0.149 GC
N
2.938 -0.578 M
2.938 -0.734 3.031 -0.859 QT
7.203 -5 L
3.031 -9.156 L
2.938 -9.266 2.938 -9.422 QT
2.938 -9.578 3.055 -9.703 QT
3.172 -9.828 3.344 -9.828 QT
3.484 -9.828 3.641 -9.703 QT
7.781 -5.563 L
11.906 -9.703 L
12.078 -9.828 12.203 -9.828 QT
12.359 -9.828 12.477 -9.711 QT
12.594 -9.594 12.594 -9.422 QT
12.594 -9.266 12.5 -9.156 QT
8.344 -5 L
12.5 -0.859 L
12.594 -0.734 12.594 -0.578 QT
12.594 -0.406 12.477 -0.289 QT
12.359 -0.172 12.203 -0.172 QT
12.047 -0.172 11.906 -0.328 QT
7.781 -4.438 L
3.641 -0.328 L
3.5 -0.172 3.344 -0.172 QT
3.172 -0.172 3.055 -0.305 QT
2.938 -0.438 2.938 -0.578 QT
cp
f
GR
GS
[1 0 0 1 868 345] CT
0.149 GC
N
2.484 -1.656 M
5.703 -1.656 L
5.703 -12.781 L
2.203 -12.078 L
2.203 -13.875 L
5.688 -14.578 L
7.656 -14.578 L
7.656 -1.656 L
10.875 -1.656 L
10.875 0 L
2.484 0 L
2.484 -1.656 L
cp
19.084 -13.281 M
17.553 -13.281 16.787 -11.781 QT
16.021 -10.281 16.021 -7.281 QT
16.021 -4.281 16.787 -2.781 QT
17.553 -1.281 19.084 -1.281 QT
20.615 -1.281 21.381 -2.781 QT
22.146 -4.281 22.146 -7.281 QT
22.146 -10.281 21.381 -11.781 QT
20.615 -13.281 19.084 -13.281 QT
cp
19.084 -14.844 M
21.537 -14.844 22.826 -12.906 QT
24.115 -10.969 24.115 -7.281 QT
24.115 -3.594 22.826 -1.656 QT
21.537 0.281 19.084 0.281 QT
16.631 0.281 15.334 -1.656 QT
14.037 -3.594 14.037 -7.281 QT
14.037 -10.969 15.334 -12.906 QT
16.631 -14.844 19.084 -14.844 QT
cp
f
GR
GS
[1 0 0 1 894 335] CT
0.149 GC
N
5.281 -6.469 M
4.219 -6.469 3.602 -5.742 QT
2.984 -5.016 2.984 -3.75 QT
2.984 -2.484 3.602 -1.758 QT
4.219 -1.031 5.281 -1.031 QT
6.344 -1.031 6.969 -1.758 QT
7.594 -2.484 7.594 -3.75 QT
7.594 -5.016 6.969 -5.742 QT
6.344 -6.469 5.281 -6.469 QT
cp
8.422 -11.406 M
8.422 -9.969 L
7.828 -10.25 7.219 -10.398 QT
6.609 -10.547 6.016 -10.547 QT
4.453 -10.547 3.633 -9.492 QT
2.813 -8.438 2.688 -6.313 QT
3.156 -6.984 3.852 -7.352 QT
4.547 -7.719 5.375 -7.719 QT
7.141 -7.719 8.156 -6.648 QT
9.172 -5.578 9.172 -3.75 QT
9.172 -1.953 8.109 -0.859 QT
7.047 0.234 5.281 0.234 QT
3.266 0.234 2.195 -1.32 QT
1.125 -2.875 1.125 -5.828 QT
1.125 -8.594 2.438 -10.234 QT
3.75 -11.875 5.953 -11.875 QT
6.547 -11.875 7.156 -11.758 QT
7.766 -11.641 8.422 -11.406 QT
cp
f
GR
GS
0.149 GC
2 setlinecap
1 LJ
0.5 LW
N
130 289 M
130 26 L
S
GR
GS
0.149 GC
2 setlinecap
1 LJ
0.5 LW
N
130 289 M
137.75 289 L
S
GR
GS
0.149 GC
2 setlinecap
1 LJ
0.5 LW
N
130 238.905 M
137.75 238.905 L
S
GR
GS
0.149 GC
2 setlinecap
1 LJ
0.5 LW
N
130 188.81 M
137.75 188.81 L
S
GR
GS
0.149 GC
2 setlinecap
1 LJ
0.5 LW
N
130 138.714 M
137.75 138.714 L
S
GR
GS
0.149 GC
2 setlinecap
1 LJ
0.5 LW
N
130 88.619 M
137.75 88.619 L
S
GR
GS
0.149 GC
2 setlinecap
1 LJ
0.5 LW
N
130 38.524 M
137.75 38.524 L
S
GR
GS
[1 0 0 1 124 289] CT
0.149 GC
N
-6.641 -6.281 M
-8.172 -6.281 -8.938 -4.781 QT
-9.703 -3.281 -9.703 -0.281 QT
-9.703 2.719 -8.938 4.219 QT
-8.172 5.719 -6.641 5.719 QT
-5.109 5.719 -4.344 4.219 QT
-3.578 2.719 -3.578 -0.281 QT
-3.578 -3.281 -4.344 -4.781 QT
-5.109 -6.281 -6.641 -6.281 QT
cp
-6.641 -7.844 M
-4.188 -7.844 -2.898 -5.906 QT
-1.609 -3.969 -1.609 -0.281 QT
-1.609 3.406 -2.898 5.344 QT
-4.188 7.281 -6.641 7.281 QT
-9.094 7.281 -10.391 5.344 QT
-11.688 3.406 -11.688 -0.281 QT
-11.688 -3.969 -10.391 -5.906 QT
-9.094 -7.844 -6.641 -7.844 QT
cp
f
GR
GS
[1 0 0 1 124 238.90475] CT
0.149 GC
N
-22.156 5.344 M
-15.281 5.344 L
-15.281 7 L
-24.531 7 L
-24.531 5.344 L
-23.406 4.172 -21.469 2.219 QT
-19.531 0.266 -19.031 -0.313 QT
-18.094 -1.375 -17.719 -2.109 QT
-17.344 -2.844 -17.344 -3.563 QT
-17.344 -4.719 -18.156 -5.453 QT
-18.969 -6.188 -20.281 -6.188 QT
-21.203 -6.188 -22.234 -5.867 QT
-23.266 -5.547 -24.438 -4.891 QT
-24.438 -6.875 L
-23.25 -7.359 -22.211 -7.602 QT
-21.172 -7.844 -20.313 -7.844 QT
-18.047 -7.844 -16.703 -6.711 QT
-15.359 -5.578 -15.359 -3.688 QT
-15.359 -2.781 -15.695 -1.977 QT
-16.031 -1.172 -16.922 -0.078 QT
-17.156 0.203 -18.469 1.555 QT
-19.781 2.906 -22.156 5.344 QT
cp
-6.916 -6.281 M
-8.447 -6.281 -9.213 -4.781 QT
-9.979 -3.281 -9.979 -0.281 QT
-9.979 2.719 -9.213 4.219 QT
-8.447 5.719 -6.916 5.719 QT
-5.385 5.719 -4.619 4.219 QT
-3.854 2.719 -3.854 -0.281 QT
-3.854 -3.281 -4.619 -4.781 QT
-5.385 -6.281 -6.916 -6.281 QT
cp
-6.916 -7.844 M
-4.463 -7.844 -3.174 -5.906 QT
-1.885 -3.969 -1.885 -0.281 QT
-1.885 3.406 -3.174 5.344 QT
-4.463 7.281 -6.916 7.281 QT
-9.369 7.281 -10.666 5.344 QT
-11.963 3.406 -11.963 -0.281 QT
-11.963 -3.969 -10.666 -5.906 QT
-9.369 -7.844 -6.916 -7.844 QT
cp
f
GR
GS
[1 0 0 1 124 188.80952] CT
0.149 GC
N
-18.438 -5.859 M
-23.422 1.922 L
-18.438 1.922 L
-18.438 -5.859 L
cp
-18.953 -7.578 M
-16.484 -7.578 L
-16.484 1.922 L
-14.391 1.922 L
-14.391 3.563 L
-16.484 3.563 L
-16.484 7 L
-18.438 7 L
-18.438 3.563 L
-25.016 3.563 L
-25.016 1.656 L
-18.953 -7.578 L
cp
-6.916 -6.281 M
-8.447 -6.281 -9.213 -4.781 QT
-9.979 -3.281 -9.979 -0.281 QT
-9.979 2.719 -9.213 4.219 QT
-8.447 5.719 -6.916 5.719 QT
-5.385 5.719 -4.619 4.219 QT
-3.854 2.719 -3.854 -0.281 QT
-3.854 -3.281 -4.619 -4.781 QT
-5.385 -6.281 -6.916 -6.281 QT
cp
-6.916 -7.844 M
-4.463 -7.844 -3.174 -5.906 QT
-1.885 -3.969 -1.885 -0.281 QT
-1.885 3.406 -3.174 5.344 QT
-4.463 7.281 -6.916 7.281 QT
-9.369 7.281 -10.666 5.344 QT
-11.963 3.406 -11.963 -0.281 QT
-11.963 -3.969 -10.666 -5.906 QT
-9.369 -7.844 -6.916 -7.844 QT
cp
f
GR
GS
[1 0 0 1 124 138.71428] CT
0.149 GC
N
-19.391 -1.078 M
-20.719 -1.078 -21.5 -0.172 QT
-22.281 0.734 -22.281 2.328 QT
-22.281 3.891 -21.5 4.805 QT
-20.719 5.719 -19.391 5.719 QT
-18.063 5.719 -17.289 4.805 QT
-16.516 3.891 -16.516 2.328 QT
-16.516 0.734 -17.289 -0.172 QT
-18.063 -1.078 -19.391 -1.078 QT
cp
-15.484 -7.266 M
-15.484 -5.469 L
-16.219 -5.813 -16.977 -6 QT
-17.734 -6.188 -18.484 -6.188 QT
-20.438 -6.188 -21.469 -4.867 QT
-22.5 -3.547 -22.641 -0.875 QT
-22.063 -1.734 -21.195 -2.188 QT
-20.328 -2.641 -19.281 -2.641 QT
-17.078 -2.641 -15.805 -1.305 QT
-14.531 0.031 -14.531 2.328 QT
-14.531 4.563 -15.859 5.922 QT
-17.188 7.281 -19.391 7.281 QT
-21.922 7.281 -23.266 5.344 QT
-24.609 3.406 -24.609 -0.281 QT
-24.609 -3.734 -22.969 -5.789 QT
-21.328 -7.844 -18.563 -7.844 QT
-17.813 -7.844 -17.055 -7.695 QT
-16.297 -7.547 -15.484 -7.266 QT
cp
-6.916 -6.281 M
-8.447 -6.281 -9.213 -4.781 QT
-9.979 -3.281 -9.979 -0.281 QT
-9.979 2.719 -9.213 4.219 QT
-8.447 5.719 -6.916 5.719 QT
-5.385 5.719 -4.619 4.219 QT
-3.854 2.719 -3.854 -0.281 QT
-3.854 -3.281 -4.619 -4.781 QT
-5.385 -6.281 -6.916 -6.281 QT
cp
-6.916 -7.844 M
-4.463 -7.844 -3.174 -5.906 QT
-1.885 -3.969 -1.885 -0.281 QT
-1.885 3.406 -3.174 5.344 QT
-4.463 7.281 -6.916 7.281 QT
-9.369 7.281 -10.666 5.344 QT
-11.963 3.406 -11.963 -0.281 QT
-11.963 -3.969 -10.666 -5.906 QT
-9.369 -7.844 -6.916 -7.844 QT
cp
f
GR
GS
[1 0 0 1 124 88.61905] CT
0.149 GC
N
-19.641 0.078 M
-21.047 0.078 -21.852 0.828 QT
-22.656 1.578 -22.656 2.891 QT
-22.656 4.219 -21.852 4.969 QT
-21.047 5.719 -19.641 5.719 QT
-18.234 5.719 -17.422 4.961 QT
-16.609 4.203 -16.609 2.891 QT
-16.609 1.578 -17.414 0.828 QT
-18.219 0.078 -19.641 0.078 QT
cp
-21.609 -0.766 M
-22.891 -1.078 -23.594 -1.945 QT
-24.297 -2.813 -24.297 -4.063 QT
-24.297 -5.813 -23.055 -6.828 QT
-21.813 -7.844 -19.641 -7.844 QT
-17.469 -7.844 -16.227 -6.828 QT
-14.984 -5.813 -14.984 -4.063 QT
-14.984 -2.813 -15.695 -1.945 QT
-16.406 -1.078 -17.656 -0.766 QT
-16.234 -0.438 -15.438 0.531 QT
-14.641 1.5 -14.641 2.891 QT
-14.641 5.016 -15.938 6.148 QT
-17.234 7.281 -19.641 7.281 QT
-22.047 7.281 -23.344 6.148 QT
-24.641 5.016 -24.641 2.891 QT
-24.641 1.5 -23.844 0.531 QT
-23.047 -0.438 -21.609 -0.766 QT
cp
-22.344 -3.875 M
-22.344 -2.75 -21.633 -2.117 QT
-20.922 -1.484 -19.641 -1.484 QT
-18.375 -1.484 -17.656 -2.117 QT
-16.938 -2.75 -16.938 -3.875 QT
-16.938 -5.016 -17.656 -5.648 QT
-18.375 -6.281 -19.641 -6.281 QT
-20.922 -6.281 -21.633 -5.648 QT
-22.344 -5.016 -22.344 -3.875 QT
cp
-6.916 -6.281 M
-8.447 -6.281 -9.213 -4.781 QT
-9.979 -3.281 -9.979 -0.281 QT
-9.979 2.719 -9.213 4.219 QT
-8.447 5.719 -6.916 5.719 QT
-5.385 5.719 -4.619 4.219 QT
-3.854 2.719 -3.854 -0.281 QT
-3.854 -3.281 -4.619 -4.781 QT
-5.385 -6.281 -6.916 -6.281 QT
cp
-6.916 -7.844 M
-4.463 -7.844 -3.174 -5.906 QT
-1.885 -3.969 -1.885 -0.281 QT
-1.885 3.406 -3.174 5.344 QT
-4.463 7.281 -6.916 7.281 QT
-9.369 7.281 -10.666 5.344 QT
-11.963 3.406 -11.963 -0.281 QT
-11.963 -3.969 -10.666 -5.906 QT
-9.369 -7.844 -6.916 -7.844 QT
cp
f
GR
GS
[1 0 0 1 124 38.52381] CT
0.149 GC
N
-36.516 5.344 M
-33.297 5.344 L
-33.297 -5.781 L
-36.797 -5.078 L
-36.797 -6.875 L
-33.313 -7.578 L
-31.344 -7.578 L
-31.344 5.344 L
-28.125 5.344 L
-28.125 7 L
-36.516 7 L
-36.516 5.344 L
cp
-19.916 -6.281 M
-21.447 -6.281 -22.213 -4.781 QT
-22.979 -3.281 -22.979 -0.281 QT
-22.979 2.719 -22.213 4.219 QT
-21.447 5.719 -19.916 5.719 QT
-18.385 5.719 -17.619 4.219 QT
-16.854 2.719 -16.854 -0.281 QT
-16.854 -3.281 -17.619 -4.781 QT
-18.385 -6.281 -19.916 -6.281 QT
cp
-19.916 -7.844 M
-17.463 -7.844 -16.174 -5.906 QT
-14.885 -3.969 -14.885 -0.281 QT
-14.885 3.406 -16.174 5.344 QT
-17.463 7.281 -19.916 7.281 QT
-22.369 7.281 -23.666 5.344 QT
-24.963 3.406 -24.963 -0.281 QT
-24.963 -3.969 -23.666 -5.906 QT
-22.369 -7.844 -19.916 -7.844 QT
cp
-7.191 -6.281 M
-8.723 -6.281 -9.488 -4.781 QT
-10.254 -3.281 -10.254 -0.281 QT
-10.254 2.719 -9.488 4.219 QT
-8.723 5.719 -7.191 5.719 QT
-5.66 5.719 -4.895 4.219 QT
-4.129 2.719 -4.129 -0.281 QT
-4.129 -3.281 -4.895 -4.781 QT
-5.66 -6.281 -7.191 -6.281 QT
cp
-7.191 -7.844 M
-4.738 -7.844 -3.449 -5.906 QT
-2.16 -3.969 -2.16 -0.281 QT
-2.16 3.406 -3.449 5.344 QT
-4.738 7.281 -7.191 7.281 QT
-9.645 7.281 -10.941 5.344 QT
-12.238 3.406 -12.238 -0.281 QT
-12.238 -3.969 -10.941 -5.906 QT
-9.645 -7.844 -7.191 -7.844 QT
cp
f
GR
GS
[0 -1 1 0 82 157.49988] CT
0.149 GC
N
-113.063 -22.031 M
-99.5 -22.031 L
-99.5 -20.219 L
-105.188 -20.219 L
-105.188 -6 L
-107.375 -6 L
-107.375 -20.219 L
-113.063 -20.219 L
-113.063 -22.031 L
cp
-92.015 -12.047 M
-94.421 -12.047 -95.343 -11.5 QT
-96.265 -10.953 -96.265 -9.625 QT
-96.265 -8.578 -95.569 -7.961 QT
-94.874 -7.344 -93.687 -7.344 QT
-92.046 -7.344 -91.054 -8.508 QT
-90.062 -9.672 -90.062 -11.609 QT
-90.062 -12.047 L
-92.015 -12.047 L
cp
-88.077 -12.859 M
-88.077 -6 L
-90.062 -6 L
-90.062 -7.828 L
-90.733 -6.734 -91.741 -6.211 QT
-92.749 -5.688 -94.218 -5.688 QT
-96.062 -5.688 -97.147 -6.727 QT
-98.233 -7.766 -98.233 -9.5 QT
-98.233 -11.531 -96.874 -12.563 QT
-95.515 -13.594 -92.827 -13.594 QT
-90.062 -13.594 L
-90.062 -13.781 L
-90.062 -15.156 -90.952 -15.898 QT
-91.843 -16.641 -93.468 -16.641 QT
-94.499 -16.641 -95.476 -16.398 QT
-96.452 -16.156 -97.358 -15.656 QT
-97.358 -17.484 L
-96.28 -17.906 -95.257 -18.117 QT
-94.233 -18.328 -93.265 -18.328 QT
-90.655 -18.328 -89.366 -16.969 QT
-88.077 -15.609 -88.077 -12.859 QT
cp
-77.033 -16.188 M
-77.361 -16.375 -77.76 -16.469 QT
-78.158 -16.563 -78.627 -16.563 QT
-80.299 -16.563 -81.197 -15.469 QT
-82.096 -14.375 -82.096 -12.344 QT
-82.096 -6 L
-84.08 -6 L
-84.08 -18.031 L
-82.096 -18.031 L
-82.096 -16.156 L
-81.471 -17.266 -80.471 -17.797 QT
-79.471 -18.328 -78.049 -18.328 QT
-77.846 -18.328 -77.596 -18.297 QT
-77.346 -18.266 -77.049 -18.219 QT
-77.033 -16.188 L
cp
-67.051 -12.156 M
-67.051 -14.297 -67.934 -15.484 QT
-68.816 -16.672 -70.41 -16.672 QT
-72.004 -16.672 -72.895 -15.484 QT
-73.785 -14.297 -73.785 -12.156 QT
-73.785 -10.016 -72.895 -8.836 QT
-72.004 -7.656 -70.41 -7.656 QT
-68.816 -7.656 -67.934 -8.836 QT
-67.051 -10.016 -67.051 -12.156 QT
cp
-65.066 -7.5 M
-65.066 -4.422 -66.434 -2.922 QT
-67.801 -1.422 -70.613 -1.422 QT
-71.66 -1.422 -72.582 -1.578 QT
-73.504 -1.734 -74.363 -2.063 QT
-74.363 -3.984 L
-73.504 -3.5 -72.652 -3.281 QT
-71.801 -3.063 -70.926 -3.063 QT
-68.973 -3.063 -68.012 -4.078 QT
-67.051 -5.094 -67.051 -7.141 QT
-67.051 -8.109 L
-67.66 -7.047 -68.613 -6.523 QT
-69.566 -6 -70.895 -6 QT
-73.113 -6 -74.465 -7.688 QT
-75.816 -9.375 -75.816 -12.156 QT
-75.816 -14.953 -74.465 -16.641 QT
-73.113 -18.328 -70.895 -18.328 QT
-69.566 -18.328 -68.613 -17.797 QT
-67.66 -17.266 -67.051 -16.203 QT
-67.051 -18.031 L
-65.066 -18.031 L
-65.066 -7.5 L
cp
-50.711 -12.516 M
-50.711 -11.547 L
-59.789 -11.547 L
-59.664 -9.5 -58.563 -8.43 QT
-57.461 -7.359 -55.492 -7.359 QT
-54.352 -7.359 -53.289 -7.641 QT
-52.227 -7.922 -51.164 -8.484 QT
-51.164 -6.609 L
-52.227 -6.156 -53.344 -5.922 QT
-54.461 -5.688 -55.617 -5.688 QT
-58.492 -5.688 -60.172 -7.367 QT
-61.852 -9.047 -61.852 -11.891 QT
-61.852 -14.859 -60.258 -16.594 QT
-58.664 -18.328 -55.961 -18.328 QT
-53.523 -18.328 -52.117 -16.766 QT
-50.711 -15.203 -50.711 -12.516 QT
cp
-52.68 -13.094 M
-52.711 -14.719 -53.594 -15.68 QT
-54.477 -16.641 -55.93 -16.641 QT
-57.586 -16.641 -58.586 -15.711 QT
-59.586 -14.781 -59.727 -13.078 QT
-52.68 -13.094 L
cp
-45.504 -21.453 M
-45.504 -18.031 L
-41.441 -18.031 L
-41.441 -16.5 L
-45.504 -16.5 L
-45.504 -9.969 L
-45.504 -8.5 -45.105 -8.078 QT
-44.707 -7.656 -43.473 -7.656 QT
-41.441 -7.656 L
-41.441 -6 L
-43.473 -6 L
-45.754 -6 -46.621 -6.852 QT
-47.488 -7.703 -47.488 -9.969 QT
-47.488 -16.5 L
-48.941 -16.5 L
-48.941 -18.031 L
-47.488 -18.031 L
-47.488 -21.453 L
-45.504 -21.453 L
cp
-31.159 -17.672 M
-31.159 -15.813 L
-32.003 -16.234 -32.909 -16.453 QT
-33.815 -16.672 -34.769 -16.672 QT
-36.253 -16.672 -36.987 -16.219 QT
-37.722 -15.766 -37.722 -14.859 QT
-37.722 -14.172 -37.19 -13.781 QT
-36.659 -13.391 -35.081 -13.031 QT
-34.394 -12.891 L
-32.3 -12.438 -31.409 -11.617 QT
-30.519 -10.797 -30.519 -9.313 QT
-30.519 -7.641 -31.847 -6.664 QT
-33.175 -5.688 -35.487 -5.688 QT
-36.456 -5.688 -37.503 -5.875 QT
-38.55 -6.063 -39.722 -6.438 QT
-39.722 -8.484 L
-38.628 -7.906 -37.558 -7.625 QT
-36.487 -7.344 -35.456 -7.344 QT
-34.05 -7.344 -33.3 -7.82 QT
-32.55 -8.297 -32.55 -9.172 QT
-32.55 -9.969 -33.097 -10.398 QT
-33.644 -10.828 -35.472 -11.234 QT
-36.159 -11.391 L
-38.003 -11.781 -38.815 -12.578 QT
-39.628 -13.375 -39.628 -14.781 QT
-39.628 -16.469 -38.425 -17.398 QT
-37.222 -18.328 -35.019 -18.328 QT
-33.909 -18.328 -32.948 -18.164 QT
-31.987 -18 -31.159 -17.672 QT
cp
-13.407 -16.188 M
-13.735 -16.375 -14.134 -16.469 QT
-14.532 -16.563 -15.001 -16.563 QT
-16.673 -16.563 -17.571 -15.469 QT
-18.47 -14.375 -18.47 -12.344 QT
-18.47 -6 L
-20.454 -6 L
-20.454 -18.031 L
-18.47 -18.031 L
-18.47 -16.156 L
-17.845 -17.266 -16.845 -17.797 QT
-15.845 -18.328 -14.423 -18.328 QT
-14.22 -18.328 -13.97 -18.297 QT
-13.72 -18.266 -13.423 -18.219 QT
-13.407 -16.188 L
cp
-1.05 -12.516 M
-1.05 -11.547 L
-10.128 -11.547 L
-10.003 -9.5 -8.901 -8.43 QT
-7.8 -7.359 -5.831 -7.359 QT
-4.69 -7.359 -3.628 -7.641 QT
-2.565 -7.922 -1.503 -8.484 QT
-1.503 -6.609 L
-2.565 -6.156 -3.683 -5.922 QT
-4.8 -5.688 -5.956 -5.688 QT
-8.831 -5.688 -10.511 -7.367 QT
-12.19 -9.047 -12.19 -11.891 QT
-12.19 -14.859 -10.597 -16.594 QT
-9.003 -18.328 -6.3 -18.328 QT
-3.862 -18.328 -2.456 -16.766 QT
-1.05 -15.203 -1.05 -12.516 QT
cp
-3.019 -13.094 M
-3.05 -14.719 -3.933 -15.68 QT
-4.815 -16.641 -6.269 -16.641 QT
-7.925 -16.641 -8.925 -15.711 QT
-9.925 -14.781 -10.065 -13.078 QT
-3.019 -13.094 L
cp
7.673 -12.047 M
5.267 -12.047 4.345 -11.5 QT
3.423 -10.953 3.423 -9.625 QT
3.423 -8.578 4.118 -7.961 QT
4.813 -7.344 6.001 -7.344 QT
7.642 -7.344 8.634 -8.508 QT
9.626 -9.672 9.626 -11.609 QT
9.626 -12.047 L
7.673 -12.047 L
cp
11.61 -12.859 M
11.61 -6 L
9.626 -6 L
9.626 -7.828 L
8.954 -6.734 7.946 -6.211 QT
6.938 -5.688 5.47 -5.688 QT
3.626 -5.688 2.54 -6.727 QT
1.454 -7.766 1.454 -9.5 QT
1.454 -11.531 2.813 -12.563 QT
4.173 -13.594 6.86 -13.594 QT
9.626 -13.594 L
9.626 -13.781 L
9.626 -15.156 8.735 -15.898 QT
7.845 -16.641 6.22 -16.641 QT
5.188 -16.641 4.212 -16.398 QT
3.235 -16.156 2.329 -15.656 QT
2.329 -17.484 L
3.407 -17.906 4.431 -18.117 QT
5.454 -18.328 6.423 -18.328 QT
9.032 -18.328 10.321 -16.969 QT
11.61 -15.609 11.61 -12.859 QT
cp
24.342 -17.563 M
24.342 -15.719 L
23.498 -16.188 22.654 -16.414 QT
21.811 -16.641 20.951 -16.641 QT
19.029 -16.641 17.967 -15.422 QT
16.904 -14.203 16.904 -12 QT
16.904 -9.797 17.967 -8.578 QT
19.029 -7.359 20.951 -7.359 QT
21.811 -7.359 22.654 -7.594 QT
23.498 -7.828 24.342 -8.281 QT
24.342 -6.469 L
23.514 -6.078 22.623 -5.883 QT
21.732 -5.688 20.748 -5.688 QT
18.029 -5.688 16.428 -7.398 QT
14.826 -9.109 14.826 -12 QT
14.826 -14.953 16.443 -16.641 QT
18.061 -18.328 20.873 -18.328 QT
21.779 -18.328 22.654 -18.141 QT
23.529 -17.953 24.342 -17.563 QT
cp
37.781 -13.266 M
37.781 -6 L
35.797 -6 L
35.797 -13.203 L
35.797 -14.906 35.133 -15.758 QT
34.469 -16.609 33.141 -16.609 QT
31.531 -16.609 30.609 -15.586 QT
29.688 -14.563 29.688 -12.797 QT
29.688 -6 L
27.703 -6 L
27.703 -22.719 L
29.688 -22.719 L
29.688 -16.156 L
30.391 -17.25 31.359 -17.789 QT
32.328 -18.328 33.578 -18.328 QT
35.656 -18.328 36.719 -17.039 QT
37.781 -15.75 37.781 -13.266 QT
cp
52.006 -12.516 M
52.006 -11.547 L
42.928 -11.547 L
43.053 -9.5 44.154 -8.43 QT
45.256 -7.359 47.225 -7.359 QT
48.365 -7.359 49.428 -7.641 QT
50.49 -7.922 51.553 -8.484 QT
51.553 -6.609 L
50.49 -6.156 49.373 -5.922 QT
48.256 -5.688 47.1 -5.688 QT
44.225 -5.688 42.545 -7.367 QT
40.865 -9.047 40.865 -11.891 QT
40.865 -14.859 42.459 -16.594 QT
44.053 -18.328 46.756 -18.328 QT
49.193 -18.328 50.6 -16.766 QT
52.006 -15.203 52.006 -12.516 QT
cp
50.037 -13.094 M
50.006 -14.719 49.123 -15.68 QT
48.24 -16.641 46.787 -16.641 QT
45.131 -16.641 44.131 -15.711 QT
43.131 -14.781 42.99 -13.078 QT
50.037 -13.094 L
cp
63.166 -16.203 M
63.166 -22.719 L
65.15 -22.719 L
65.15 -6 L
63.166 -6 L
63.166 -7.813 L
62.557 -6.734 61.604 -6.211 QT
60.65 -5.688 59.322 -5.688 QT
57.135 -5.688 55.768 -7.43 QT
54.4 -9.172 54.4 -12 QT
54.4 -14.844 55.768 -16.586 QT
57.135 -18.328 59.322 -18.328 QT
60.65 -18.328 61.604 -17.805 QT
62.557 -17.281 63.166 -16.203 QT
cp
56.432 -12 M
56.432 -9.828 57.33 -8.586 QT
58.229 -7.344 59.807 -7.344 QT
61.369 -7.344 62.268 -8.586 QT
63.166 -9.828 63.166 -12 QT
63.166 -14.188 62.268 -15.43 QT
61.369 -16.672 59.807 -16.672 QT
58.229 -16.672 57.33 -15.43 QT
56.432 -14.188 56.432 -12 QT
cp
76.03 -22.719 M
80.593 -22.719 L
80.593 -21.172 L
78.015 -21.172 L
78.015 -4.641 L
80.593 -4.641 L
80.593 -3.094 L
76.03 -3.094 L
76.03 -22.719 L
cp
98.723 -13.063 M
97.785 -13.063 97.254 -12.266 QT
96.723 -11.469 96.723 -10.047 QT
96.723 -8.656 97.254 -7.852 QT
97.785 -7.047 98.723 -7.047 QT
99.629 -7.047 100.16 -7.852 QT
100.691 -8.656 100.691 -10.047 QT
100.691 -11.453 100.16 -12.258 QT
99.629 -13.063 98.723 -13.063 QT
cp
98.723 -14.422 M
100.41 -14.422 101.41 -13.242 QT
102.41 -12.063 102.41 -10.047 QT
102.41 -8.047 101.41 -6.867 QT
100.41 -5.688 98.723 -5.688 QT
97.004 -5.688 96.004 -6.867 QT
95.004 -8.047 95.004 -10.047 QT
95.004 -12.063 96.004 -13.242 QT
97.004 -14.422 98.723 -14.422 QT
cp
87.629 -20.969 M
86.707 -20.969 86.176 -20.164 QT
85.645 -19.359 85.645 -17.969 QT
85.645 -16.547 86.168 -15.75 QT
86.691 -14.953 87.629 -14.953 QT
88.566 -14.953 89.098 -15.75 QT
89.629 -16.547 89.629 -17.969 QT
89.629 -19.359 89.09 -20.164 QT
88.551 -20.969 87.629 -20.969 QT
cp
97.332 -22.328 M
99.051 -22.328 L
89.02 -5.688 L
87.301 -5.688 L
97.332 -22.328 L
cp
87.629 -22.328 M
89.332 -22.328 90.34 -21.148 QT
91.348 -19.969 91.348 -17.969 QT
91.348 -15.938 90.348 -14.766 QT
89.348 -13.594 87.629 -13.594 QT
85.926 -13.594 84.934 -14.773 QT
83.941 -15.953 83.941 -17.969 QT
83.941 -19.969 84.941 -21.148 QT
85.941 -22.328 87.629 -22.328 QT
cp
110.314 -22.719 M
110.314 -3.094 L
105.768 -3.094 L
105.768 -4.641 L
108.33 -4.641 L
108.33 -21.172 L
105.768 -21.172 L
105.768 -22.719 L
110.314 -22.719 L
cp
f
GR
GS
0 0.447 0.741 RC
1 LJ
0.5 LW
N
169.525 289 M
169.913 257.69 L
170.3 255.603 L
170.688 271.109 L
171.075 242.036 L
171.462 188.81 L
171.85 255.603 L
172.238 242.036 L
172.625 253.218 L
173.012 289 L
173.4 215.331 L
173.788 230.064 L
174.175 242.036 L
174.563 242.036 L
174.95 230.064 L
175.337 255.603 L
175.725 271.109 L
176.113 271.109 L
176.5 257.69 L
176.887 205.508 L
177.275 272.302 L
177.663 271.109 L
178.05 226.381 L
178.438 272.302 L
178.825 226.381 L
179.212 257.69 L
179.6 271.109 L
179.988 255.603 L
180.375 230.064 L
180.762 255.603 L
181.15 289 L
181.538 289 L
181.925 271.109 L
182.313 289 L
182.7 255.603 L
183.087 271.109 L
183.475 272.302 L
183.863 271.109 L
184.25 255.603 L
184.637 271.109 L
185.025 289 L
185.413 230.064 L
185.8 271.109 L
186.188 257.69 L
186.575 289 L
186.962 271.109 L
187.35 230.064 L
187.738 271.109 L
188.125 230.064 L
188.512 230.064 L
188.9 255.603 L
189.288 272.302 L
189.675 219.423 L
190.063 230.064 L
190.45 255.603 L
190.837 271.109 L
191.225 242.036 L
191.613 230.064 L
192 242.036 L
192.387 271.109 L
192.775 242.036 L
193.163 271.109 L
193.55 255.603 L
193.938 257.69 L
194.325 242.036 L
194.712 255.603 L
195.1 255.603 L
195.488 255.603 L
195.875 255.603 L
196.262 238.905 L
196.65 219.423 L
197.038 255.603 L
197.425 255.603 L
197.813 271.109 L
198.2 230.064 L
198.587 272.302 L
198.975 255.603 L
199.363 289 L
199.75 289 L
200.137 272.302 L
200.525 205.508 L
200.913 242.036 L
201.3 255.603 L
201.688 242.036 L
202.075 272.302 L
202.462 289 L
202.85 271.109 L
203.238 255.603 L
203.625 271.109 L
204.012 255.603 L
204.4 272.302 L
204.788 255.603 L
205.175 271.109 L
205.563 230.064 L
205.95 209.902 L
206.337 255.603 L
206.725 271.109 L
207.113 255.603 L
207.5 272.302 L
207.887 242.036 L
208.275 289 L
208.663 255.603 L
209.05 255.603 L
209.438 233.339 L
209.825 205.508 L
210.212 257.69 L
210.6 289 L
210.988 242.036 L
211.375 242.036 L
211.762 289 L
212.15 230.064 L
212.538 242.036 L
212.925 242.036 L
213.313 271.109 L
213.7 271.109 L
214.087 242.036 L
214.475 230.064 L
214.863 255.603 L
215.25 257.69 L
215.637 226.381 L
216.025 233.339 L
216.413 255.603 L
216.8 271.109 L
217.188 255.603 L
217.575 289 L
217.962 257.69 L
218.35 255.603 L
218.738 230.064 L
219.125 230.064 L
219.512 255.603 L
219.9 289 L
220.288 193.581 L
220.675 271.109 L
221.063 242.036 L
221.45 242.036 L
221.837 289 L
222.225 257.69 L
222.613 255.603 L
223 255.603 L
223.387 271.109 L
223.775 255.603 L
224.163 271.109 L
224.55 272.302 L
224.938 219.423 L
225.325 289 L
225.712 271.109 L
226.1 193.581 L
226.488 219.423 L
226.875 271.109 L
227.262 209.902 L
227.65 244.798 L
228.038 271.109 L
228.425 255.603 L
228.813 242.036 L
229.2 272.302 L
229.587 255.603 L
229.975 271.109 L
230.363 255.603 L
230.75 271.109 L
231.137 244.798 L
231.525 271.109 L
231.913 255.603 L
232.3 255.603 L
232.688 271.109 L
233.075 272.302 L
233.462 255.603 L
233.85 289 L
234.238 244.798 L
234.625 255.603 L
235.012 255.603 L
235.4 271.109 L
235.788 244.798 L
236.175 226.381 L
236.563 242.036 L
236.95 289 L
237.337 271.109 L
237.725 257.69 L
238.113 255.603 L
238.5 289 L
238.887 289 L
239.275 272.302 L
239.663 271.109 L
240.05 271.109 L
240.438 242.036 L
240.825 230.064 L
241.212 289 L
241.6 257.69 L
241.988 255.603 L
242.375 289 L
242.762 242.036 L
243.15 193.581 L
243.538 271.109 L
243.925 209.902 L
244.313 242.036 L
244.7 272.302 L
245.087 289 L
245.475 289 L
245.863 257.69 L
246.25 255.603 L
246.637 242.036 L
247.025 255.603 L
247.413 271.109 L
247.8 244.798 L
248.188 271.109 L
248.575 242.036 L
248.962 209.902 L
249.35 289 L
249.738 242.036 L
250.125 255.603 L
250.512 257.69 L
250.9 253.218 L
251.288 289 L
251.675 289 L
252.063 255.603 L
252.45 255.603 L
252.837 272.302 L
253.225 271.109 L
253.613 271.109 L
254 255.603 L
254.387 257.69 L
254.775 289 L
255.163 255.603 L
255.55 242.036 L
255.938 242.036 L
256.325 244.798 L
256.712 226.381 L
257.1 255.603 L
257.487 271.109 L
257.875 269.733 L
258.263 242.036 L
258.65 191.593 L
259.038 230.064 L
259.425 242.036 L
259.813 271.109 L
260.2 289 L
260.587 271.109 L
260.975 230.064 L
261.362 271.109 L
261.75 219.423 L
262.138 271.109 L
262.525 271.109 L
262.913 271.109 L
263.3 255.603 L
263.688 242.036 L
264.075 255.603 L
264.462 289 L
264.85 223.085 L
265.237 230.064 L
265.625 271.109 L
266.013 255.603 L
266.4 272.302 L
266.788 242.036 L
267.175 255.603 L
267.563 253.218 L
267.95 289 L
268.337 255.603 L
268.725 289 L
269.112 219.423 L
269.5 255.603 L
269.888 230.064 L
270.275 219.423 L
270.663 238.905 L
271.05 271.109 L
271.438 255.603 L
271.825 271.109 L
272.212 289 L
272.6 244.798 L
272.987 289 L
273.375 242.036 L
273.763 238.905 L
274.15 230.064 L
274.538 230.064 L
274.925 226.381 L
275.313 233.339 L
275.7 289 L
276.087 230.064 L
276.475 238.905 L
276.862 242.036 L
277.25 238.905 L
277.638 244.798 L
278.025 235.327 L
278.413 209.902 L
278.8 176.286 L
279.188 271.109 L
279.575 230.064 L
279.962 242.036 L
280.35 289 L
280.737 210.726 L
281.125 238.905 L
281.513 271.109 L
281.9 271.109 L
282.288 233.339 L
282.675 253.218 L
283.063 210.726 L
283.45 205.508 L
283.837 255.603 L
284.225 242.036 L
284.612 235.327 L
285 196.719 L
285.388 177.677 L
285.775 210.726 L
286.163 253.218 L
286.55 215.331 L
286.938 255.603 L
287.325 145.871 L
287.712 215.331 L
288.1 205.508 L
288.487 210.726 L
288.875 200.597 L
289.263 191.593 L
289.65 200.597 L
290.038 200.597 L
290.425 195.071 L
290.813 177.677 L
291.2 200.597 L
291.587 205.508 L
291.975 217.435 L
292.362 185.863 L
292.75 205.508 L
293.138 177.677 L
293.525 230.064 L
293.913 255.603 L
294.3 142.889 L
294.688 230.064 L
295.075 200.597 L
295.462 238.905 L
295.85 222.206 L
296.237 205.508 L
296.625 177.677 L
297.013 170.353 L
297.4 226.381 L
297.788 271.109 L
298.175 157.798 L
298.563 222.206 L
298.95 196.719 L
299.337 255.603 L
299.725 269.733 L
300.112 238.905 L
300.5 205.508 L
300.888 177.677 L
301.275 226.381 L
301.663 205.508 L
302.05 242.036 L
302.438 242.036 L
302.825 238.905 L
303.212 230.064 L
303.6 226.381 L
303.987 163.762 L
304.375 205.508 L
304.763 170.353 L
305.15 196.719 L
305.538 238.905 L
305.925 176.286 L
306.313 226.381 L
306.7 205.508 L
307.087 253.218 L
307.475 177.677 L
307.862 177.677 L
308.25 226.381 L
308.638 215.331 L
309.025 185.863 L
309.413 200.597 L
309.8 226.381 L
310.188 171.129 L
310.575 209.902 L
310.962 177.677 L
311.35 201.333 L
311.737 151.238 L
312.125 226.381 L
312.513 191.593 L
312.9 163.762 L
313.288 191.593 L
313.675 235.327 L
314.063 238.905 L
314.45 205.508 L
314.837 158.317 L
315.225 222.206 L
315.612 145.871 L
316 179.417 L
316.388 163.762 L
316.775 215.331 L
317.163 185.863 L
317.55 185.863 L
317.938 219.423 L
318.325 238.905 L
318.712 242.036 L
319.1 222.206 L
319.487 242.036 L
319.875 181.653 L
320.263 172.111 L
320.65 191.593 L
321.038 230.064 L
321.425 200.597 L
321.813 179.417 L
322.2 210.726 L
322.587 191.593 L
322.975 191.593 L
323.362 196.719 L
323.75 157.798 L
324.138 230.064 L
324.525 177.677 L
324.913 181.653 L
325.3 179.417 L
325.688 200.597 L
326.075 210.726 L
326.462 222.206 L
326.85 230.064 L
327.237 242.036 L
327.625 183.536 L
328.013 205.508 L
328.4 183.536 L
328.788 219.423 L
329.175 210.726 L
329.563 200.597 L
329.95 200.597 L
330.337 226.381 L
330.725 205.508 L
331.112 200.597 L
331.5 191.593 L
331.888 157.798 L
332.275 176.286 L
332.663 255.603 L
333.05 205.508 L
333.438 196.719 L
333.825 255.603 L
334.212 152.377 L
334.6 238.905 L
334.987 226.381 L
335.375 230.064 L
335.763 253.218 L
336.15 183.536 L
336.538 226.381 L
336.925 205.508 L
337.313 205.508 L
337.7 196.719 L
338.087 210.726 L
338.475 257.69 L
338.862 179.417 L
339.25 136.536 L
339.638 210.726 L
340.025 195.071 L
340.413 219.423 L
340.8 271.109 L
341.188 181.653 L
341.575 163.762 L
341.962 242.036 L
342.35 253.218 L
342.737 157.17 L
343.125 191.593 L
343.513 185.863 L
343.9 176.286 L
344.288 183.536 L
344.675 271.109 L
345.063 222.206 L
345.45 219.423 L
345.837 200.597 L
346.225 222.206 L
346.612 215.331 L
347 200.597 L
347.388 183.536 L
347.775 210.726 L
348.163 226.381 L
348.55 191.593 L
348.938 271.109 L
349.325 253.218 L
349.712 205.508 L
350.1 196.719 L
350.487 238.905 L
350.875 238.905 L
351.263 188.81 L
351.65 183.536 L
352.038 157.17 L
352.425 200.597 L
352.813 210.726 L
353.2 191.593 L
353.587 176.286 L
353.975 226.381 L
354.362 253.218 L
354.75 226.381 L
355.138 255.603 L
355.525 289 L
355.913 242.036 L
356.3 215.331 L
356.688 222.206 L
357.075 196.719 L
357.462 255.603 L
357.85 209.902 L
358.237 271.109 L
358.625 205.508 L
359.013 253.218 L
359.4 215.331 L
359.788 238.905 L
360.175 255.603 L
360.563 210.726 L
360.95 191.593 L
361.337 226.381 L
361.725 195.071 L
362.112 230.064 L
362.5 177.677 L
362.888 183.536 L
363.275 200.597 L
363.663 238.905 L
364.05 163.762 L
364.438 210.726 L
364.825 215.331 L
365.212 255.603 L
365.6 215.331 L
365.987 176.286 L
366.375 238.905 L
366.763 200.597 L
367.15 226.381 L
367.538 238.905 L
367.925 163.762 L
368.313 215.331 L
368.7 210.726 L
369.087 200.597 L
369.475 205.508 L
369.862 238.905 L
370.25 242.036 L
370.638 148.733 L
371.025 149.847 L
371.413 272.302 L
371.8 185.863 L
372.188 215.331 L
372.575 226.381 L
372.962 176.286 L
373.35 242.036 L
373.737 176.286 L
374.125 205.508 L
374.513 238.905 L
374.9 230.064 L
375.288 147.426 L
375.675 205.508 L
376.063 238.905 L
376.45 255.603 L
376.837 179.417 L
377.225 200.597 L
377.612 177.677 L
378 156.395 L
378.388 177.677 L
378.775 163.762 L
379.163 163.762 L
379.55 196.719 L
379.938 185.863 L
380.325 183.536 L
380.712 253.218 L
381.1 222.206 L
381.487 152.377 L
381.875 222.206 L
382.263 157.798 L
382.65 222.206 L
383.038 185.863 L
383.425 200.597 L
383.813 152.377 L
384.2 179.417 L
384.587 163.762 L
384.975 185.863 L
385.362 183.536 L
385.75 170.353 L
386.138 122.016 L
386.525 200.597 L
386.913 157.17 L
387.3 195.071 L
387.688 219.423 L
388.075 205.508 L
388.462 145.871 L
388.85 122.016 L
389.237 133.943 L
389.625 129.606 L
390.013 185.863 L
390.4 185.863 L
390.788 195.071 L
391.175 132.452 L
391.563 157.798 L
391.95 157.17 L
392.337 176.286 L
392.725 151.238 L
393.112 170.353 L
393.5 183.536 L
393.888 210.726 L
394.275 183.536 L
394.663 126.19 L
395.05 177.677 L
395.438 122.016 L
395.825 169.726 L
396.212 157.798 L
396.6 103.865 L
396.987 142.889 L
397.375 130.805 L
397.763 138.714 L
398.15 138.714 L
398.538 157.17 L
398.925 163.762 L
399.313 129.606 L
399.7 177.677 L
400.087 101.143 L
400.475 200.597 L
400.862 145.871 L
401.25 151.238 L
401.638 111.579 L
402.025 125.646 L
402.413 147.426 L
402.8 163.762 L
403.188 157.17 L
403.575 101.143 L
403.962 145.871 L
404.35 128.695 L
404.737 92.975 L
405.125 140.991 L
405.513 136.536 L
405.9 122.016 L
406.288 108.657 L
406.675 113.667 L
407.063 98.638 L
407.45 140.991 L
407.837 133.943 L
408.225 169.726 L
408.612 101.143 L
409 170.353 L
409.388 83.252 L
409.775 143.987 L
410.163 136.536 L
410.55 105.317 L
410.938 157.798 L
411.325 103.462 L
411.712 138.714 L
412.1 111.579 L
412.487 122.016 L
412.875 188.81 L
413.263 177.677 L
413.65 125.646 L
414.038 113.667 L
414.425 124.625 L
414.813 145.871 L
415.2 105.96 L
415.587 111.579 L
415.975 122.016 L
416.362 142.889 L
416.75 125.646 L
417.138 136.536 L
417.525 132.452 L
417.913 108.657 L
418.3 128.695 L
418.688 122.016 L
419.075 157.798 L
419.462 170.353 L
419.85 122.016 L
420.237 103.462 L
420.625 91.655 L
421.013 112.739 L
421.4 125.227 L
421.788 191.593 L
422.175 101.143 L
422.563 205.508 L
422.95 128.695 L
423.337 145.871 L
423.725 134.861 L
424.112 106.836 L
424.5 151.238 L
424.888 147.426 L
425.275 127.98 L
425.663 134.861 L
426.05 191.593 L
426.438 134.861 L
426.825 125.227 L
427.212 122.016 L
427.6 157.798 L
427.987 118.676 L
428.375 191.593 L
428.763 140.57 L
429.15 134.861 L
429.538 152.377 L
429.925 122.016 L
430.313 151.238 L
430.7 163.762 L
431.087 205.508 L
431.475 147.426 L
431.862 122.016 L
432.25 170.353 L
432.638 107.621 L
433.025 134.861 L
433.413 163.762 L
433.8 153.325 L
434.188 124.895 L
434.575 169.207 L
434.962 132.452 L
435.35 145.871 L
435.737 124.895 L
436.125 157.17 L
436.513 147.426 L
436.9 169.207 L
437.288 170.353 L
437.675 148.733 L
438.063 136.536 L
438.45 158.317 L
438.837 176.286 L
439.225 177.677 L
439.612 134.861 L
440 147.426 L
440.388 124.895 L
440.775 105.317 L
441.163 116.258 L
441.55 152.377 L
441.938 113.667 L
442.325 101.143 L
442.712 132.452 L
443.1 144.495 L
443.487 136.536 L
443.875 181.653 L
444.263 122.016 L
444.65 188.81 L
445.038 169.726 L
445.425 132.452 L
445.813 191.593 L
446.2 205.508 L
446.587 157.798 L
446.975 133.532 L
447.362 140.991 L
447.75 133.532 L
448.138 113.667 L
448.525 125.646 L
448.913 127.98 L
449.3 115.593 L
449.688 122.016 L
450.075 152.377 L
450.462 131.293 L
450.85 94.185 L
451.237 152.377 L
451.625 132.452 L
452.013 118.676 L
452.4 140.57 L
452.788 151.238 L
453.175 112.739 L
453.563 113.667 L
453.95 105.96 L
454.337 183.536 L
454.725 125.227 L
455.112 153.325 L
455.5 128.695 L
455.888 148.733 L
456.275 124.895 L
456.663 144.495 L
457.05 113.667 L
457.438 200.597 L
457.825 138.714 L
458.212 145.871 L
458.6 119.323 L
458.987 128.695 L
459.375 122.016 L
459.763 136.536 L
460.15 118.676 L
460.538 116.258 L
460.925 114.426 L
461.313 176.286 L
461.7 140.991 L
462.087 111.243 L
462.475 108.97 L
462.862 111.243 L
463.25 170.353 L
463.638 134.861 L
464.025 128.695 L
464.413 108.657 L
464.8 125.646 L
465.188 90.346 L
465.575 84.065 L
465.962 110.088 L
466.35 98.984 L
466.737 138.714 L
467.125 129.606 L
467.513 80.27 L
467.9 191.593 L
468.288 125.646 L
468.675 152.377 L
469.063 145.871 L
469.45 152.377 L
469.837 125.227 L
470.225 134.861 L
470.612 118.676 L
471 88.619 L
471.388 108.97 L
471.775 128.695 L
472.163 191.593 L
472.55 147.426 L
472.938 108.97 L
473.325 118.676 L
473.712 152.377 L
474.1 125.227 L
474.487 116.258 L
474.875 96.968 L
475.263 111.243 L
475.65 98.984 L
476.038 122.016 L
476.425 113.667 L
476.813 103.462 L
477.2 88.619 L
477.587 124.895 L
477.975 116.258 L
478.362 99.45 L
478.75 142.889 L
479.138 97.847 L
479.525 93.315 L
479.913 91.655 L
480.3 85.124 L
480.688 112.193 L
481.075 185.863 L
481.462 145.871 L
481.85 106.22 L
482.237 122.016 L
482.625 122.016 L
483.013 122.016 L
483.4 112.739 L
483.788 119.034 L
484.175 67.15 L
484.563 114.426 L
484.95 127.98 L
485.337 111.243 L
485.725 122.016 L
486.112 104.826 L
486.5 131.293 L
486.888 108.97 L
487.275 97.459 L
487.663 111.243 L
488.05 128.695 L
488.438 95.776 L
488.825 105.96 L
489.212 88.619 L
489.6 74.306 L
489.987 74.306 L
490.375 153.325 L
490.763 111.243 L
491.15 103.163 L
491.538 148.733 L
491.925 106.836 L
492.313 157.798 L
492.7 83.481 L
493.087 96.968 L
493.475 125.646 L
493.862 95.083 L
494.25 115.593 L
494.638 87.228 L
495.025 94.185 L
495.413 76.095 L
495.8 110.088 L
496.188 62.961 L
496.575 85.488 L
496.962 133.943 L
497.35 95.776 L
497.737 108.657 L
498.125 63.571 L
498.513 56.415 L
498.9 82.357 L
499.288 59.993 L
499.675 144.495 L
500.063 101.143 L
500.45 73.312 L
500.837 95.083 L
501.225 107.621 L
501.612 93.315 L
502 107.621 L
502.388 90.092 L
502.775 122.016 L
503.163 169.726 L
503.55 95.083 L
503.938 96.968 L
504.325 112.739 L
504.712 71.921 L
505.1 157.798 L
505.487 85.488 L
505.875 58.298 L
506.263 96.968 L
506.65 105.96 L
507.038 119.323 L
507.425 60.625 L
507.813 163.762 L
508.2 115.593 L
508.587 103.163 L
508.975 116.798 L
509.362 124.895 L
509.75 88.619 L
510.138 93.315 L
510.525 127.98 L
510.913 113.667 L
511.3 116.258 L
511.688 103.462 L
512.075 92.197 L
512.463 134.861 L
512.85 106.836 L
513.237 129.606 L
513.625 76.095 L
514.013 79.142 L
514.4 114.756 L
514.787 158.317 L
515.175 132.452 L
515.563 163.762 L
515.95 136.536 L
516.338 142.889 L
516.725 98.984 L
517.112 132.452 L
517.5 88.619 L
517.888 183.536 L
518.275 132.452 L
518.662 103.865 L
519.05 88.619 L
519.438 134.861 L
519.825 127.98 L
520.213 115.593 L
520.6 145.871 L
520.987 128.695 L
521.375 105.317 L
521.763 92.197 L
522.15 98.984 L
522.537 112.193 L
522.925 81.463 L
523.313 140.991 L
523.7 101.143 L
524.088 122.016 L
524.475 157.17 L
524.862 113.667 L
525.25 97.459 L
525.638 116.798 L
526.025 125.227 L
526.412 111.243 L
526.8 148.733 L
527.188 108.657 L
527.575 118.676 L
527.963 115.593 L
528.35 107.621 L
528.737 107.621 L
529.125 132.452 L
529.513 115.593 L
529.9 85.488 L
530.287 134.861 L
530.675 106.836 L
531.063 112.739 L
531.45 132.452 L
531.838 113.667 L
532.225 132.452 L
532.612 132.452 L
533 125.227 L
533.388 134.861 L
533.775 82.725 L
534.162 85.488 L
534.55 125.227 L
534.938 127.98 L
535.325 125.227 L
535.713 125.646 L
536.1 105.96 L
536.487 101.143 L
536.875 119.034 L
537.263 125.227 L
537.65 128.695 L
538.037 85.488 L
538.425 122.016 L
538.813 132.452 L
539.2 138.714 L
539.588 82.725 L
539.975 132.452 L
540.362 145.871 L
540.75 153.325 L
541.138 116.258 L
541.525 108.657 L
541.912 119.034 L
542.3 131.293 L
542.688 113.667 L
543.075 118.676 L
543.463 101.143 L
543.85 136.536 L
544.237 111.243 L
544.625 169.207 L
545.013 94.881 L
545.4 134.861 L
545.787 107.621 L
546.175 115.058 L
546.563 140.991 L
546.95 157.798 L
547.338 119.034 L
547.725 101.143 L
548.112 145.871 L
548.5 132.452 L
548.888 101.143 L
549.275 108.657 L
549.662 145.871 L
550.05 90.346 L
550.438 80.27 L
550.825 104.826 L
551.213 152.377 L
551.6 131.293 L
551.987 113.667 L
552.375 157.798 L
552.763 97.459 L
553.15 128.695 L
553.537 138.714 L
553.925 157.17 L
554.313 93.315 L
554.7 118.676 L
555.088 110.088 L
555.475 92.197 L
555.862 142.889 L
556.25 122.016 L
556.638 113.667 L
557.025 140.991 L
557.412 80.27 L
557.8 107.621 L
558.188 128.695 L
558.575 131.293 L
558.963 147.426 L
559.35 163.762 L
559.737 93.315 L
560.125 136.536 L
560.513 82.357 L
560.9 107.621 L
561.287 158.317 L
561.675 92.197 L
562.063 108.97 L
562.45 119.034 L
562.838 105.96 L
563.225 99.245 L
563.612 132.452 L
564 95.083 L
564.388 106.836 L
564.775 125.227 L
565.162 107.621 L
565.55 122.016 L
565.938 115.593 L
566.325 103.462 L
566.713 112.739 L
567.1 80.27 L
567.487 177.677 L
567.875 104.826 L
568.263 134.861 L
568.65 79.142 L
569.037 51.369 L
569.425 131.293 L
569.813 91.655 L
570.2 111.243 L
570.588 82.725 L
570.975 142.889 L
571.362 73.474 L
571.75 88.619 L
572.138 73.474 L
572.525 110.088 L
572.912 105.96 L
573.3 58.833 L
573.688 87.228 L
574.075 80.27 L
574.463 82.725 L
574.85 72.372 L
575.237 55.602 L
575.625 80.27 L
576.013 122.016 L
576.4 101.143 L
576.787 148.733 L
577.175 66.355 L
577.563 68.342 L
577.95 106.836 L
578.338 98.984 L
578.725 101.143 L
579.112 82.725 L
579.5 92.197 L
579.888 87.228 L
580.275 83.053 L
580.662 80.27 L
581.05 85.124 L
581.438 79.299 L
581.825 58.298 L
582.213 87.397 L
582.6 136.925 L
582.987 112.193 L
583.375 74.306 L
583.763 85.911 L
584.15 116.798 L
584.537 95.776 L
584.925 142.169 L
585.313 140.991 L
585.7 119.034 L
586.088 104.439 L
586.475 105.96 L
586.862 94.881 L
587.25 105.317 L
587.638 84.065 L
588.025 82.357 L
588.412 75.829 L
588.8 114.756 L
589.188 112.193 L
589.575 105.317 L
589.963 81.463 L
590.35 93.315 L
590.737 79.142 L
591.125 84.065 L
591.513 74.306 L
591.9 104.826 L
592.287 71.481 L
592.675 107.621 L
593.063 116.798 L
593.45 95.083 L
593.838 87.003 L
594.225 84.664 L
594.612 104.826 L
595 111.243 L
595.388 74.306 L
595.775 85.124 L
596.162 119.323 L
596.55 131.293 L
596.938 75.179 L
597.325 90.346 L
597.713 71.481 L
598.1 65.749 L
598.487 80.27 L
598.875 78.073 L
599.263 142.889 L
599.65 105.317 L
600.037 108.101 L
600.425 96.968 L
600.813 102.932 L
601.2 134.861 L
601.588 69.833 L
601.975 71.921 L
602.362 111.243 L
602.75 157.798 L
603.138 54.512 L
603.525 122.016 L
603.912 98.638 L
604.3 142.889 L
604.688 90.092 L
605.075 114.756 L
605.463 70.843 L
605.85 111.579 L
606.237 158.317 L
606.625 112.739 L
607.013 90.346 L
607.4 133.943 L
607.787 129.606 L
608.175 75.359 L
608.563 67.992 L
608.95 122.016 L
609.338 55.222 L
609.725 116.798 L
610.112 87.003 L
610.5 72.372 L
610.888 86.692 L
611.275 119.034 L
611.662 152.377 L
612.05 142.889 L
612.438 145.871 L
612.825 124.895 L
613.213 88.619 L
613.6 90.346 L
613.987 53.704 L
614.375 96.968 L
614.763 114.756 L
615.15 118.221 L
615.537 226.381 L
615.925 136.536 L
616.313 95.776 L
616.7 103.462 L
617.088 71.921 L
617.475 102.932 L
617.862 103.163 L
618.25 103.462 L
618.638 101.143 L
619.025 144.495 L
619.412 103.163 L
619.8 84.664 L
620.188 103.462 L
620.575 70.843 L
620.963 98.984 L
621.35 145.871 L
621.737 113.667 L
622.125 85.488 L
622.513 56.851 L
622.9 108.97 L
623.287 163.762 L
623.675 136.536 L
624.063 119.034 L
624.45 140.57 L
624.838 86.692 L
625.225 83.481 L
625.612 122.016 L
626 134.861 L
626.388 116.258 L
626.775 108.97 L
627.162 105.317 L
627.55 138.714 L
627.938 81.709 L
628.325 81.463 L
628.713 119.034 L
629.1 81.463 L
629.487 74.306 L
629.875 92.197 L
630.263 72.372 L
630.65 99.45 L
631.037 88.619 L
631.425 122.016 L
631.813 122.016 L
632.2 97.459 L
632.588 88.619 L
632.975 152.377 L
633.362 116.258 L
633.75 157.798 L
634.138 112.193 L
634.525 66.355 L
634.912 136.536 L
635.3 122.016 L
635.688 108.97 L
636.075 105.317 L
636.463 116.258 L
636.85 93.315 L
637.237 152.377 L
637.625 116.798 L
638.013 106.836 L
638.4 90.092 L
638.787 73.312 L
639.175 103.163 L
639.563 71.921 L
639.95 95.083 L
640.338 87.228 L
640.725 108.97 L
641.112 131.293 L
641.5 66.355 L
641.888 101.143 L
642.275 69.833 L
642.662 88.619 L
643.05 82.725 L
643.438 91.256 L
643.825 76.475 L
644.213 93.315 L
644.6 127.98 L
644.987 95.083 L
645.375 72.372 L
645.763 97.459 L
646.15 96.968 L
646.537 118.676 L
646.925 119.323 L
647.313 110.088 L
647.7 65.602 L
648.088 111.243 L
648.475 101.143 L
648.862 119.323 L
649.25 78.073 L
649.638 95.083 L
650.025 78.073 L
650.412 93.315 L
650.8 90.346 L
651.188 103.163 L
651.575 82.725 L
651.963 106.836 L
652.35 107.621 L
652.737 115.593 L
653.125 107.621 L
653.513 116.258 L
653.9 97.459 L
654.287 93.315 L
654.675 56.851 L
655.063 78.372 L
655.45 72.372 L
655.838 90.092 L
656.225 88.619 L
656.612 82.725 L
657 98.984 L
657.388 144.495 L
657.775 116.258 L
658.162 163.762 L
658.55 104.826 L
658.938 134.861 L
659.325 101.143 L
659.713 104.826 L
660.1 88.619 L
660.487 80.27 L
660.875 81.288 L
661.263 65.17 L
661.65 79.142 L
662.037 95.083 L
662.425 97.459 L
662.813 90.092 L
663.2 113.667 L
663.588 63.571 L
663.975 82.357 L
664.362 101.143 L
664.75 51.369 L
665.138 87.228 L
665.525 101.143 L
665.912 134.861 L
666.3 105.317 L
666.688 128.695 L
667.075 122.016 L
667.463 131.293 L
667.85 116.258 L
668.237 83.481 L
668.625 65.749 L
669.013 82.725 L
669.4 133.943 L
669.787 73.474 L
670.175 84.664 L
670.563 78.923 L
670.95 93.315 L
671.338 125.227 L
671.725 142.889 L
672.112 70.636 L
672.5 147.426 L
672.888 103.462 L
673.275 134.861 L
673.662 85.911 L
674.05 113.667 L
674.438 91.655 L
674.825 101.143 L
675.213 81.463 L
675.6 122.016 L
675.987 128.695 L
676.375 96.968 L
676.763 103.163 L
677.15 71.481 L
677.537 113.667 L
677.925 90.346 L
678.313 89.904 L
678.7 132.452 L
679.088 99.245 L
679.475 82.357 L
679.862 77.059 L
680.25 66.355 L
680.638 64.214 L
681.025 84.664 L
681.412 116.258 L
681.8 105.317 L
682.188 113.667 L
682.575 163.762 L
682.963 57.31 L
683.35 94.185 L
683.737 105.317 L
684.125 128.695 L
684.513 119.323 L
684.9 113.667 L
685.287 131.293 L
685.675 107.621 L
686.063 91.256 L
686.45 99.245 L
686.838 88.619 L
687.225 72.68 L
687.612 90.092 L
688 118.676 L
688.388 85.911 L
688.775 115.593 L
689.162 118.676 L
689.55 116.258 L
689.938 76.475 L
690.325 147.426 L
690.713 105.96 L
691.1 116.258 L
691.487 103.462 L
691.875 87.228 L
692.263 85.488 L
692.65 119.034 L
693.037 122.016 L
693.425 113.667 L
693.813 126.19 L
694.2 110.088 L
694.588 177.677 L
694.975 107.621 L
695.362 105.317 L
695.75 88.619 L
696.138 103.462 L
696.525 108.97 L
696.912 196.719 L
697.3 97.459 L
697.688 105.96 L
698.075 63.571 L
698.463 129.606 L
698.85 99.245 L
699.237 75.359 L
699.625 140.991 L
700.013 116.258 L
700.4 125.646 L
700.787 76.475 L
701.175 98.638 L
701.563 105.96 L
701.95 90.346 L
702.338 132.452 L
702.725 84.908 L
703.112 170.353 L
703.5 83.252 L
703.888 111.579 L
704.275 132.452 L
704.662 111.579 L
705.05 101.143 L
705.438 70.636 L
705.825 170.353 L
706.213 142.889 L
706.6 142.889 L
706.987 61.294 L
707.375 75.359 L
707.763 142.889 L
708.15 171.129 L
708.537 140.991 L
708.925 157.798 L
709.313 122.016 L
709.7 200.597 L
710.088 114.756 L
710.475 90.346 L
710.862 128.695 L
711.25 87.003 L
711.638 115.593 L
712.025 145.871 L
712.412 118.221 L
712.8 132.452 L
713.188 118.676 L
713.575 83.252 L
713.963 111.579 L
714.35 170.353 L
714.737 119.034 L
715.125 125.646 L
715.513 86.692 L
715.9 129.606 L
716.287 148.733 L
716.675 133.943 L
717.063 101.143 L
717.45 145.871 L
717.838 92.197 L
718.225 170.353 L
718.612 169.726 L
719 132.452 L
719.388 129.606 L
719.775 112.739 L
720.162 101.143 L
720.55 153.325 L
720.938 122.016 L
721.325 114.756 L
721.713 117.622 L
722.1 157.798 L
722.487 129.606 L
722.875 145.871 L
723.263 136.536 L
723.65 84.065 L
724.037 110.088 L
724.425 157.17 L
724.813 169.726 L
725.2 125.646 L
725.588 125.646 L
725.975 134.861 L
726.362 170.353 L
726.75 105.96 L
727.138 122.016 L
727.525 205.508 L
727.912 152.377 L
728.3 163.762 L
728.688 112.739 L
729.075 151.238 L
729.463 157.17 L
729.85 163.762 L
730.237 157.17 L
730.625 110.088 L
731.013 129.606 L
731.4 156.395 L
731.787 108.657 L
732.175 132.452 L
732.563 125.646 L
732.95 157.17 L
733.338 191.593 L
733.725 125.646 L
734.112 118.676 L
734.5 147.426 L
734.888 101.143 L
735.275 88.619 L
735.662 113.667 L
736.05 133.943 L
736.438 128.695 L
736.825 122.016 L
737.213 126.19 L
737.6 112.739 L
737.987 125.646 L
738.375 118.676 L
738.763 90.346 L
739.15 157.798 L
739.537 128.695 L
739.925 125.646 L
740.313 96.326 L
740.7 98.161 L
741.088 142.889 L
741.475 148.107 L
741.862 136.536 L
742.25 115.593 L
742.638 122.016 L
743.025 126.19 L
743.412 86.692 L
743.8 122.016 L
744.188 103.462 L
744.575 98.984 L
744.963 138.714 L
745.35 136.536 L
745.737 94.185 L
746.125 126.19 L
746.513 163.762 L
746.9 149.847 L
747.287 125.646 L
747.675 108.657 L
748.063 118.676 L
748.45 158.317 L
748.838 122.016 L
749.225 69.833 L
749.612 113.667 L
750 106.836 L
750.388 108.101 L
750.775 152.377 L
751.162 163.762 L
751.55 129.606 L
751.938 133.943 L
752.325 88.619 L
752.713 114.756 L
753.1 126.19 L
753.487 140.991 L
753.875 103.865 L
754.263 118.221 L
754.65 163.762 L
755.037 110.088 L
755.425 140.991 L
755.813 96.326 L
756.2 122.016 L
756.588 110.088 L
756.975 171.129 L
757.362 80.27 L
757.75 140.991 L
758.138 163.762 L
758.525 118.676 L
758.912 129.606 L
759.3 143.987 L
759.688 106.836 L
760.075 104.439 L
760.463 108.657 L
760.85 171.129 L
761.237 103.865 L
761.625 157.798 L
762.013 114.756 L
762.4 147.426 L
762.787 143.987 L
763.175 117.622 L
763.563 98.638 L
763.95 118.221 L
764.338 98.638 L
764.725 81.463 L
765.112 111.579 L
765.5 75.631 L
765.888 88.619 L
766.275 111.579 L
766.662 142.889 L
767.05 87.003 L
767.438 77.059 L
767.825 133.943 L
768.213 66.355 L
768.6 122.016 L
768.987 106.836 L
769.375 116.258 L
769.763 126.19 L
770.15 132.452 L
770.537 133.943 L
770.925 138.714 L
771.313 157.17 L
771.7 143.987 L
772.088 110.088 L
772.475 74.306 L
772.862 122.016 L
773.25 170.353 L
773.638 122.016 L
774.025 101.143 L
774.412 122.016 L
774.8 98.638 L
775.188 103.865 L
775.575 101.143 L
775.963 65.361 L
776.35 106.836 L
776.737 136.536 L
777.125 136.536 L
777.513 80.27 L
777.9 96.326 L
778.287 145.871 L
778.675 101.143 L
779.063 90.346 L
779.45 112.739 L
779.838 183.536 L
780.225 152.377 L
780.612 92.975 L
781 98.638 L
781.388 108.657 L
781.775 106.836 L
782.162 82.085 L
782.55 103.865 L
782.938 157.798 L
783.325 96.326 L
783.713 57.791 L
784.1 114.756 L
784.487 98.638 L
784.875 106.836 L
785.263 92.197 L
785.65 103.865 L
786.037 129.606 L
786.425 133.943 L
786.813 92.197 L
787.2 113.667 L
787.588 122.016 L
787.975 95.083 L
788.362 78.923 L
788.75 92.197 L
789.138 65.361 L
789.525 81.709 L
789.912 83.252 L
790.3 118.221 L
790.688 103.462 L
791.075 118.221 L
791.463 147.426 L
791.85 140.991 L
792.237 105.96 L
792.625 86.692 L
793.013 96.326 L
793.4 157.17 L
793.787 122.016 L
794.175 114.756 L
794.563 117.622 L
794.95 115.593 L
795.338 122.016 L
795.725 156.395 L
796.112 145.871 L
796.5 90.346 L
796.888 111.579 L
797.275 133.943 L
797.662 86.692 L
798.05 133.943 L
798.438 114.756 L
798.825 106.836 L
799.213 163.762 L
799.6 136.536 L
799.987 133.943 L
800.375 78.923 L
800.763 101.143 L
801.15 78.6 L
801.537 122.016 L
801.925 111.579 L
802.313 106.836 L
802.7 92.197 L
803.088 95.45 L
803.475 90.706 L
803.862 96.326 L
804.25 115.593 L
804.638 129.606 L
805.025 81.709 L
805.412 81.709 L
805.8 143.987 L
806.188 101.143 L
806.575 86.692 L
806.963 86.234 L
807.35 98.638 L
807.737 114.756 L
808.125 122.016 L
808.513 115.593 L
808.9 125.227 L
809.287 105.96 L
809.675 191.593 L
810.063 185.863 L
810.45 64.435 L
810.838 95.083 L
811.225 130.805 L
811.612 108.657 L
812 138.714 L
812.388 84.908 L
812.775 81.709 L
813.162 103.462 L
813.55 106.836 L
813.938 71.921 L
814.325 90.346 L
814.713 108.657 L
815.1 143.987 L
815.487 95.45 L
815.875 84.908 L
816.263 111.579 L
816.65 157.798 L
817.037 112.739 L
817.425 122.016 L
817.813 111.579 L
818.2 73.072 L
818.588 114.756 L
818.975 105.96 L
819.362 132.452 L
819.75 114.756 L
820.138 133.943 L
820.525 105.96 L
820.912 126.19 L
821.3 96.326 L
821.688 101.143 L
822.075 114.756 L
822.463 122.016 L
822.85 84.908 L
823.237 105.96 L
823.625 98.638 L
824.013 98.638 L
824.4 85.488 L
824.787 111.579 L
825.175 101.143 L
825.563 90.706 L
825.95 115.593 L
826.338 114.756 L
826.725 115.593 L
827.112 71.921 L
827.5 118.221 L
827.888 94.185 L
828.275 84.065 L
828.662 118.676 L
829.05 138.714 L
829.438 88.619 L
829.825 118.221 L
830.213 136.536 L
830.6 118.676 L
830.987 81.709 L
831.375 98.638 L
831.763 80.27 L
832.15 90.706 L
832.537 88.619 L
832.925 64.435 L
833.313 128.695 L
833.7 62.006 L
834.088 106.836 L
834.475 118.676 L
834.862 80.27 L
835.25 71.921 L
835.638 105.96 L
836.025 95.45 L
836.412 143.987 L
836.8 163.762 L
837.188 110.088 L
837.575 96.326 L
837.963 71.195 L
838.35 125.646 L
838.737 92.197 L
839.125 78.923 L
839.513 88.619 L
839.9 58.833 L
840.287 67.425 L
840.675 94.185 L
841.063 122.016 L
841.45 88.619 L
841.838 111.579 L
842.225 103.865 L
842.612 98.984 L
843 71.921 L
843.388 64.615 L
843.775 58.833 L
844.162 92.975 L
844.55 71.921 L
844.938 97.459 L
845.325 59.993 L
845.713 57.791 L
846.1 92.197 L
846.487 92.197 L
846.875 108.657 L
847.263 128.695 L
847.65 57.31 L
848.037 95.083 L
848.425 110.088 L
848.813 75.359 L
849.2 82.725 L
849.588 84.908 L
849.975 84.908 L
850.362 80.27 L
850.75 73.312 L
851.138 84.065 L
851.525 98.984 L
851.912 75.359 L
852.3 103.865 L
852.688 96.968 L
853.075 87.003 L
853.463 122.016 L
853.85 80.27 L
854.237 87.003 L
854.625 87.003 L
855.013 119.034 L
855.4 101.143 L
855.787 118.676 L
856.175 62.006 L
856.563 69.07 L
856.95 82.357 L
857.338 90.346 L
857.725 71.481 L
858.112 103.163 L
858.5 59.397 L
858.888 60.304 L
859.275 87.003 L
859.662 78.923 L
860.05 80.27 L
860.438 99.45 L
860.825 55.602 L
861.213 67.649 L
861.6 94.881 L
861.987 65.17 L
862.375 64.615 L
862.763 65.749 L
863.15 69.833 L
863.537 57.791 L
863.925 69.07 L
864.313 93.506 L
864.7 66.88 L
865.088 47.312 L
865.475 62.006 L
865.862 56.415 L
866.25 79.299 L
866.638 52.974 L
867.025 158.752 L
867.412 67.425 L
867.8 61.824 L
868.188 75.179 L
868.575 65.17 L
868.963 61.294 L
869.35 81.288 L
869.737 75.052 L
870.125 85.911 L
870.513 56.415 L
870.9 52.974 L
871.287 85.911 L
871.675 78.073 L
872.063 65.749 L
872.45 85.911 L
872.838 55.602 L
873.225 95.776 L
873.612 55.505 L
874 78.073 L
874.388 78.6 L
874.775 81.709 L
875.162 64.435 L
875.55 114.756 L
875.938 107.621 L
876.325 67.425 L
876.713 83.252 L
877.1 75.179 L
877.487 68.342 L
877.875 91.655 L
878.263 118.221 L
878.65 157.17 L
879.037 80.27 L
879.425 75.179 L
879.813 77.059 L
880.2 61.294 L
880.588 132.452 L
880.975 105.96 L
881.362 133.943 L
881.75 111.579 L
882.138 96.968 L
882.525 111.579 L
882.912 68.581 L
883.3 86.692 L
883.688 90.706 L
884.075 96.968 L
884.463 92.975 L
884.85 83.252 L
885.237 141.661 L
885.625 72.372 L
886.013 115.593 L
886.4 73.59 L
886.787 110.088 L
887.175 71.195 L
887.563 85.911 L
887.95 98.984 L
888.338 97.459 L
888.725 78.073 L
889.112 92.197 L
889.5 80.27 L
889.888 64.214 L
890.275 114.756 L
890.662 98.638 L
891.05 63.08 L
891.438 71.921 L
891.825 92.975 L
892.213 77.661 L
892.6 90.346 L
892.987 105.96 L
893.375 84.065 L
893.763 77.661 L
894.15 163.762 L
894.537 90.346 L
894.925 92.197 L
895.313 77.059 L
895.7 57.31 L
896.088 75.359 L
896.475 68.581 L
896.862 118.676 L
897.25 91.655 L
897.638 57.31 L
898.025 106.836 L
898.412 76.095 L
898.8 77.487 L
899.188 69.194 L
899.575 89.758 L
899.963 63.571 L
900.35 69.07 L
900.737 85.911 L
901.125 69.833 L
901.513 56.851 L
901.9 74.306 L
902.287 140.991 L
902.675 54.859 L
903.063 74.306 L
903.45 85.488 L
903.838 50.174 L
904.225 90.346 L
904.612 68.342 L
905 76.475 L
S
GR
GS
1 0 0 RC
1 LJ
0.5 LW
N
169.525 249.647 M
169.913 250.442 L
170.3 250.626 L
170.688 249.917 L
171.075 250.107 L
171.462 251.361 L
171.85 252.537 L
172.238 253.1 L
172.625 254.156 L
173.012 254.197 L
173.4 254.667 L
173.788 255.144 L
174.175 255.564 L
174.563 255.565 L
174.95 255.954 L
175.337 256.76 L
175.725 256.124 L
176.113 256.472 L
176.5 256.5 L
176.887 257.222 L
177.275 257.524 L
177.663 256.94 L
178.05 257.235 L
178.438 256.681 L
178.825 256.148 L
179.212 256.138 L
179.6 255.81 L
179.988 255.06 L
180.375 254.559 L
180.762 254.255 L
181.15 254.825 L
181.538 255.869 L
181.925 255.368 L
182.313 255.368 L
182.7 255.719 L
183.087 254.798 L
183.475 255.892 L
183.863 256.392 L
184.25 256.699 L
184.637 256.699 L
185.025 257.2 L
185.413 257.2 L
185.8 256.896 L
186.188 256.592 L
186.575 256.224 L
186.962 256.497 L
187.35 256.169 L
187.738 255.865 L
188.125 256.742 L
188.512 255.914 L
188.9 256.814 L
189.288 256.773 L
189.675 257.124 L
190.063 257.779 L
190.45 258.607 L
190.837 257.625 L
191.225 256.704 L
191.613 256.049 L
192 255.479 L
192.387 255.152 L
192.775 255.807 L
193.163 255.807 L
193.55 255.479 L
193.938 255.479 L
194.325 255.479 L
194.712 255.503 L
195.1 254.848 L
195.488 255.653 L
195.875 254.848 L
196.262 253.911 L
196.65 253.256 L
197.038 253.256 L
197.425 253.757 L
197.813 253.78 L
198.2 254.015 L
198.587 255.17 L
198.975 255.17 L
199.363 254.843 L
199.75 255.116 L
200.137 254.634 L
200.525 254.675 L
200.913 255.026 L
201.3 255.026 L
201.688 255.261 L
202.075 256.182 L
202.462 255.377 L
202.85 255.377 L
203.238 254.807 L
203.625 255.111 L
204.012 255.374 L
204.4 255.374 L
204.788 254.873 L
205.175 254.873 L
205.563 254.914 L
205.95 254.341 L
206.337 254.232 L
206.725 254.941 L
207.113 255.245 L
207.5 255.245 L
207.887 255.596 L
208.275 256.138 L
208.663 255.811 L
209.05 255.31 L
209.438 254.154 L
209.825 253.499 L
210.212 253.827 L
210.6 253.593 L
210.988 254.163 L
211.375 253.897 L
211.762 253.897 L
212.15 254.224 L
212.538 253.61 L
212.925 253.306 L
213.313 253.306 L
213.7 253.306 L
214.087 253.306 L
214.475 253.283 L
214.863 253.61 L
215.25 252.597 L
215.637 253.753 L
216.025 254.953 L
216.413 253.737 L
216.8 252.723 L
217.188 253.027 L
217.575 251.804 L
217.962 251.858 L
218.35 251.507 L
218.738 251.507 L
219.125 251.241 L
219.512 252.005 L
219.9 252.987 L
220.288 253.25 L
220.675 252.595 L
221.063 253.166 L
221.45 253.22 L
221.837 252.869 L
222.225 253.37 L
222.613 253.636 L
223 254.206 L
223.387 254.229 L
223.775 253.925 L
224.163 254.846 L
224.55 255.135 L
224.938 255.135 L
225.325 255.094 L
225.712 255.971 L
226.1 256.196 L
226.488 255.623 L
226.875 255.053 L
227.262 255.707 L
227.65 255.357 L
228.038 255.357 L
228.425 255.357 L
228.813 256.512 L
229.2 257.668 L
229.587 257.995 L
229.975 257.644 L
230.363 259.165 L
230.75 258.595 L
231.137 258.36 L
231.525 259.281 L
231.913 258.667 L
232.3 258.626 L
232.688 259.281 L
233.075 259.015 L
233.462 257.495 L
233.85 257.799 L
234.238 256.598 L
234.625 256.005 L
235.012 257.042 L
235.4 257.042 L
235.788 257.393 L
236.175 258.65 L
236.563 259.359 L
236.95 258.789 L
237.337 259.685 L
237.725 260.201 L
238.113 259.685 L
238.5 259.989 L
238.887 259.989 L
239.275 258.766 L
239.663 259.42 L
240.05 258.85 L
240.438 258.85 L
240.825 258.587 L
241.212 258.752 L
241.6 259.103 L
241.988 259.758 L
242.375 259.758 L
242.762 259.454 L
243.15 259.454 L
243.538 259.758 L
243.925 259.407 L
244.313 259.619 L
244.7 259.66 L
245.087 260.315 L
245.475 260.011 L
245.863 259.957 L
246.25 260.264 L
246.637 260.318 L
247.025 259.09 L
247.413 258.786 L
247.8 259.049 L
248.188 259.326 L
248.575 258.405 L
248.962 256.495 L
249.35 255.667 L
249.738 255.097 L
250.125 255.097 L
250.512 256.018 L
250.9 256.823 L
251.288 255.667 L
251.675 255.93 L
252.063 255.221 L
252.45 254.87 L
252.837 255.44 L
253.225 256.96 L
253.613 256.656 L
254 257.286 L
254.387 257.552 L
254.775 257.88 L
255.163 256.587 L
255.55 255.432 L
255.938 255.695 L
256.325 255.695 L
256.712 256.288 L
257.1 256.022 L
257.487 255.718 L
257.875 255.883 L
258.263 256.234 L
258.65 256.5 L
259.038 258.051 L
259.425 256.687 L
259.813 256.953 L
260.2 256.452 L
260.587 255.702 L
260.975 255.421 L
261.362 255.07 L
261.75 254.415 L
262.138 254.719 L
262.525 255.374 L
262.913 254.835 L
263.3 255.186 L
263.688 254.616 L
264.075 254.288 L
264.462 253.747 L
264.85 252.591 L
265.237 252.018 L
265.625 251.847 L
266.013 252.768 L
266.4 252.479 L
266.788 252.725 L
267.175 252.459 L
267.563 251.828 L
267.95 251.339 L
268.337 251.207 L
268.725 251.566 L
269.112 250.512 L
269.5 251.082 L
269.888 250.277 L
270.275 249.356 L
270.663 249.707 L
271.05 249.328 L
271.438 248.696 L
271.825 249.71 L
272.212 249.71 L
272.6 248.969 L
272.987 248.618 L
273.375 247.738 L
273.763 247.022 L
274.15 247.022 L
274.538 246.101 L
274.925 246.341 L
275.313 245.687 L
275.7 243.855 L
276.087 242.975 L
276.475 242.601 L
276.862 242.078 L
277.25 242.078 L
277.638 239.973 L
278.025 238.528 L
278.413 237.546 L
278.8 236.011 L
279.188 235.642 L
279.575 234.387 L
279.962 233.809 L
280.35 233.44 L
280.737 232.581 L
281.125 230.749 L
281.513 229.67 L
281.9 228.384 L
282.288 226.98 L
282.675 225.825 L
283.063 224.188 L
283.45 222.926 L
283.837 222.753 L
284.225 223.253 L
284.612 221.544 L
285 221.616 L
285.388 220.974 L
285.775 219.992 L
286.163 219.838 L
286.55 219.183 L
286.938 217.921 L
287.325 216.577 L
287.712 216.216 L
288.1 216.917 L
288.487 215.896 L
288.875 216.796 L
289.263 215.338 L
289.65 215.838 L
290.038 216.381 L
290.425 215.399 L
290.813 215.297 L
291.2 214.096 L
291.587 213.219 L
291.975 211.933 L
292.362 212.103 L
292.75 211.884 L
293.138 212.437 L
293.525 212.918 L
293.913 212.345 L
294.3 210.81 L
294.688 210.226 L
295.075 209.709 L
295.462 210.082 L
295.85 210.635 L
296.237 209.126 L
296.625 209.343 L
297.013 208.361 L
297.4 210.465 L
297.788 209.727 L
298.175 209.182 L
298.563 209.488 L
298.95 209.777 L
299.337 209.665 L
299.725 209.665 L
300.112 210.171 L
300.5 209.701 L
300.888 210.333 L
301.275 209.884 L
301.663 209.802 L
302.05 208.504 L
302.438 209.298 L
302.825 209.025 L
303.212 208.753 L
303.6 207.998 L
303.987 207.601 L
304.375 209.483 L
304.763 209.002 L
305.15 208.173 L
305.538 207.845 L
305.925 206.349 L
306.313 205.837 L
306.7 205.564 L
307.087 206.446 L
307.475 205.652 L
307.862 203.98 L
308.25 205.188 L
308.638 205.516 L
309.025 206.404 L
309.413 205.749 L
309.8 205.206 L
310.188 204.084 L
310.575 203.429 L
310.962 203.702 L
311.35 203.774 L
311.737 203.678 L
312.125 202.45 L
312.513 201.836 L
312.9 200.908 L
313.288 200.154 L
313.675 199.572 L
314.063 199.455 L
314.45 199.937 L
314.837 200.081 L
315.225 199.785 L
315.612 198.619 L
316 199.095 L
316.388 198.788 L
316.775 199.116 L
317.163 198.662 L
317.55 199.924 L
317.938 200.039 L
318.325 199.629 L
318.712 199.006 L
319.1 199.664 L
319.487 199.863 L
319.875 199.357 L
320.263 199.935 L
320.65 200.258 L
321.038 200.804 L
321.425 200.789 L
321.813 201.581 L
322.2 200.236 L
322.587 199.936 L
322.975 201.736 L
323.362 202.009 L
323.75 201.252 L
324.138 201.58 L
324.525 200.538 L
324.913 202.118 L
325.3 202.2 L
325.688 203.851 L
326.075 205.298 L
326.462 205.686 L
326.85 205.902 L
327.237 206.287 L
327.625 206.673 L
328.013 206.227 L
328.4 205.675 L
328.788 205.982 L
329.175 205.143 L
329.563 203.074 L
329.95 203.644 L
330.337 204.095 L
330.725 204.64 L
331.112 205.445 L
331.5 205.074 L
331.888 204.767 L
332.275 205.381 L
332.663 206.589 L
333.05 205.914 L
333.438 205.813 L
333.825 206.364 L
334.212 205.309 L
334.6 205.424 L
334.987 207.178 L
335.375 208.017 L
335.763 208.386 L
336.15 208.188 L
336.538 208.188 L
336.925 207.899 L
337.313 207.086 L
337.7 207.086 L
338.087 207.189 L
338.475 208.029 L
338.862 207.483 L
339.25 208.667 L
339.638 209.699 L
340.025 209.795 L
340.413 209.213 L
340.8 209.868 L
341.188 210.619 L
341.575 210.565 L
341.962 211.07 L
342.35 210.695 L
342.737 209.616 L
343.125 209.718 L
343.513 209.618 L
343.9 208.063 L
344.288 209.514 L
344.675 209.794 L
345.063 209.794 L
345.45 210.295 L
345.837 210.997 L
346.225 212.144 L
346.612 211.927 L
347 212.255 L
347.388 212.082 L
347.775 213.237 L
348.163 213.221 L
348.55 213.484 L
348.938 213.995 L
349.325 216.283 L
349.712 216.374 L
350.1 217.233 L
350.487 217.942 L
350.875 216.758 L
351.263 216.953 L
351.65 218.181 L
352.038 217.26 L
352.425 216.806 L
352.813 217.208 L
353.2 217.05 L
353.587 217.339 L
353.975 218.567 L
354.362 218.179 L
354.75 216.995 L
355.138 216.861 L
355.525 217.57 L
355.913 217.859 L
356.3 216.959 L
356.688 217.421 L
357.075 217.421 L
357.462 218.261 L
357.85 218.813 L
358.237 217.586 L
358.625 218.051 L
359.013 216.867 L
359.4 215.835 L
359.788 215.835 L
360.175 216.662 L
360.563 216.724 L
360.95 214.956 L
361.337 214.192 L
361.725 215.932 L
362.112 216.495 L
362.5 216.784 L
362.888 217.091 L
363.275 216.791 L
363.663 218.08 L
364.05 217.098 L
364.438 216.162 L
364.825 216.408 L
365.212 215.907 L
365.6 213.131 L
365.987 212.415 L
366.375 212.877 L
366.763 213.532 L
367.15 213.192 L
367.538 212.114 L
367.925 211.482 L
368.313 209.233 L
368.7 208.687 L
369.087 206.933 L
369.475 205.922 L
369.862 205.095 L
370.25 203.727 L
370.638 203.194 L
371.025 204.402 L
371.413 204.321 L
371.8 203.483 L
372.188 203.329 L
372.575 202.94 L
372.962 203.698 L
373.35 203.409 L
373.737 202.658 L
374.125 202.435 L
374.513 201.821 L
374.9 200.809 L
375.288 199.442 L
375.675 198.819 L
376.063 198.702 L
376.45 196.41 L
376.837 196.41 L
377.225 195.053 L
377.612 194.194 L
378 195.285 L
378.388 195.093 L
378.775 193.821 L
379.163 192.28 L
379.55 190.877 L
379.938 188.734 L
380.325 187.632 L
380.712 188.36 L
381.1 189.247 L
381.487 186.505 L
381.875 185.955 L
382.263 184.814 L
382.65 183.832 L
383.038 183.341 L
383.425 181.935 L
383.813 182.078 L
384.2 182.18 L
384.587 181.094 L
384.975 179.057 L
385.362 179.651 L
385.75 178.014 L
386.138 176.657 L
386.525 174.739 L
386.913 173.258 L
387.3 172.126 L
387.688 171.207 L
388.075 170.861 L
388.462 170.097 L
388.85 169.967 L
389.237 169.967 L
389.625 168.651 L
390.013 168.491 L
390.4 166.875 L
390.788 165.844 L
391.175 164.347 L
391.563 164.325 L
391.95 162.155 L
392.337 161.525 L
392.725 160.059 L
393.112 159.625 L
393.5 158.774 L
393.888 157.769 L
394.275 157.111 L
394.663 156.424 L
395.05 154.603 L
395.438 153.768 L
395.825 153.105 L
396.212 153.105 L
396.6 151.303 L
396.987 150.45 L
397.375 148.559 L
397.763 147.021 L
398.15 145.618 L
398.538 146.085 L
398.925 145.676 L
399.313 146.39 L
399.7 145.481 L
400.087 144.66 L
400.475 143.693 L
400.862 141.933 L
401.25 142.43 L
401.638 141.364 L
402.025 141.003 L
402.413 139.734 L
402.8 139.161 L
403.188 139.523 L
403.575 139.408 L
403.962 137.74 L
404.35 136.37 L
404.737 136.339 L
405.125 135.715 L
405.513 135.4 L
405.9 134.26 L
406.288 133.559 L
406.675 134.324 L
407.063 133.986 L
407.45 134.098 L
407.837 133.975 L
408.225 133.386 L
408.612 132.828 L
409 132.009 L
409.388 132.562 L
409.775 132.418 L
410.163 132.828 L
410.55 130.923 L
410.938 129.86 L
411.325 129.105 L
411.712 129.373 L
412.1 130.666 L
412.487 129.758 L
412.875 130.577 L
413.263 130.018 L
413.65 130.895 L
414.038 130.68 L
414.425 130.251 L
414.813 131.393 L
415.2 131.52 L
415.587 131.352 L
415.975 131.604 L
416.362 133.23 L
416.75 133.645 L
417.138 134.167 L
417.525 133.795 L
417.913 134.262 L
418.3 133.261 L
418.688 135.035 L
419.075 134.451 L
419.462 135.463 L
419.85 135.627 L
420.237 135.343 L
420.625 136.243 L
421.013 136.36 L
421.4 138.361 L
421.788 138.532 L
422.175 138.736 L
422.563 139.684 L
422.95 138.092 L
423.337 137.253 L
423.725 138 L
424.112 138.778 L
424.5 138.783 L
424.888 139.241 L
425.275 139.76 L
425.663 140.432 L
426.05 140.489 L
426.438 140.769 L
426.825 141.196 L
427.212 141.837 L
427.6 142.58 L
427.987 143.366 L
428.375 143.519 L
428.763 144.231 L
429.15 144.594 L
429.538 144.737 L
429.925 144.989 L
430.313 145.851 L
430.7 146.503 L
431.087 146.357 L
431.475 146.181 L
431.862 145.413 L
432.25 145.658 L
432.638 143.612 L
433.025 143.685 L
433.413 143.658 L
433.8 143.691 L
434.188 145.158 L
434.575 144.585 L
434.962 145.397 L
435.35 146.215 L
435.737 146.168 L
436.125 146.168 L
436.513 147.553 L
436.9 148.192 L
437.288 148.418 L
437.675 148.088 L
438.063 148.379 L
438.45 146.852 L
438.837 146.559 L
439.225 146.424 L
439.612 145.703 L
440 145.703 L
440.388 145.725 L
440.775 145.088 L
441.163 142.906 L
441.55 143.003 L
441.938 143.207 L
442.325 142.194 L
442.712 142.84 L
443.1 143.161 L
443.487 142.161 L
443.875 141.383 L
444.263 141.012 L
444.65 141.293 L
445.038 141.151 L
445.425 141.297 L
445.813 141.372 L
446.2 141.206 L
446.587 140.765 L
446.975 140.28 L
447.362 139.169 L
447.75 140.185 L
448.138 140.228 L
448.525 139.984 L
448.913 138.867 L
449.3 137.907 L
449.688 137.655 L
450.075 137.441 L
450.462 137.319 L
450.85 137.534 L
451.237 137.498 L
451.625 137.967 L
452.013 138.503 L
452.4 138.701 L
452.788 138.24 L
453.175 137.588 L
453.563 138.251 L
453.95 137.334 L
454.337 137.465 L
454.725 135.893 L
455.112 135.029 L
455.5 134.203 L
455.888 132.095 L
456.275 130.224 L
456.663 129.071 L
457.05 129.172 L
457.438 128.949 L
457.825 127.905 L
458.212 129.433 L
458.6 129.433 L
458.987 129.911 L
459.375 130.505 L
459.763 131.1 L
460.15 130.568 L
460.538 130.638 L
460.925 131.118 L
461.313 129.868 L
461.7 129.407 L
462.087 129.604 L
462.475 130.604 L
462.862 130.529 L
463.25 130.456 L
463.638 130.554 L
464.025 131.464 L
464.413 130.321 L
464.8 130.145 L
465.188 129.04 L
465.575 128.697 L
465.962 127.722 L
466.35 127.665 L
466.737 127.061 L
467.125 126.861 L
467.513 124.665 L
467.9 124.394 L
468.288 123.814 L
468.675 123.424 L
469.063 123.702 L
469.45 123.228 L
469.837 122.381 L
470.225 121.851 L
470.612 121.241 L
471 121.197 L
471.388 121.385 L
471.775 121.48 L
472.163 121.382 L
472.55 121.638 L
472.938 121.849 L
473.325 120.901 L
473.712 120.467 L
474.1 120.278 L
474.487 119.464 L
474.875 119.244 L
475.263 119.982 L
475.65 120.515 L
476.038 120.749 L
476.425 120.863 L
476.813 120.718 L
477.2 120.313 L
477.587 120.65 L
477.975 119.075 L
478.362 119.134 L
478.75 118.025 L
479.138 117.242 L
479.525 115.992 L
479.913 114.993 L
480.3 113.806 L
480.688 114.486 L
481.075 114.929 L
481.462 114.815 L
481.85 115.208 L
482.237 113.546 L
482.625 113.75 L
483.013 113.25 L
483.4 112.824 L
483.788 112.3 L
484.175 111.709 L
484.563 111.696 L
484.95 111.505 L
485.337 111.171 L
485.725 110.722 L
486.112 110.488 L
486.5 109.494 L
486.888 109.141 L
487.275 110.03 L
487.663 109.459 L
488.05 109.31 L
488.438 108.606 L
488.825 106.911 L
489.212 106.607 L
489.6 105.954 L
489.987 106.99 L
490.375 107.304 L
490.763 106.542 L
491.15 104.762 L
491.538 104.012 L
491.925 103.758 L
492.313 103.476 L
492.7 102.85 L
493.087 102.85 L
493.475 103.968 L
493.862 103.498 L
494.25 104.083 L
494.638 104.05 L
495.025 102.95 L
495.413 103.863 L
495.8 103.147 L
496.188 102.235 L
496.575 101.562 L
496.962 101.503 L
497.35 101.931 L
497.737 100.939 L
498.125 101.626 L
498.513 102.015 L
498.9 101.96 L
499.288 102.513 L
499.675 103.505 L
500.063 103.785 L
500.45 102.609 L
500.837 102.937 L
501.225 103.143 L
501.612 102.506 L
502 102.44 L
502.388 101.154 L
502.775 102.161 L
503.163 102.354 L
503.55 102.432 L
503.938 102.06 L
504.325 101.345 L
504.712 101.885 L
505.1 103.142 L
505.487 104.247 L
505.875 105.3 L
506.263 106.742 L
506.65 107.868 L
507.038 107.182 L
507.425 107.902 L
507.813 107.509 L
508.2 109.861 L
508.587 111.352 L
508.975 111.774 L
509.362 112.335 L
509.75 112.146 L
510.138 112.672 L
510.525 113.501 L
510.913 114.497 L
511.3 114.91 L
511.688 115.146 L
512.075 114.843 L
512.463 115.018 L
512.85 114.825 L
513.237 113.094 L
513.625 113.995 L
514.013 114.076 L
514.4 114.258 L
514.787 115.93 L
515.175 115.065 L
515.563 115.299 L
515.95 116.446 L
516.338 117 L
516.725 117.104 L
517.112 117.681 L
517.5 118.622 L
517.888 117.738 L
518.275 117.738 L
518.662 117.826 L
519.05 117.646 L
519.438 117.794 L
519.825 118.323 L
520.213 118.17 L
520.6 118.304 L
520.987 118.171 L
521.375 118.102 L
521.763 118.67 L
522.15 119.091 L
522.537 119.044 L
522.925 119.546 L
523.313 119.46 L
523.7 120.612 L
524.088 120.683 L
524.475 120.109 L
524.862 119.46 L
525.25 119.372 L
525.638 118.617 L
526.025 118.403 L
526.412 117.679 L
526.8 117.721 L
527.188 117.458 L
527.575 118.176 L
527.963 117.101 L
528.35 116.18 L
528.737 116.536 L
529.125 117.395 L
529.513 117.471 L
529.9 116.583 L
530.287 116.914 L
530.675 116.914 L
531.063 117.397 L
531.45 117.612 L
531.838 117.934 L
532.225 118.327 L
532.612 118.702 L
533 119.333 L
533.388 118.896 L
533.775 118.896 L
534.162 119.181 L
534.55 118.28 L
534.938 119.369 L
535.325 119.318 L
535.713 119.673 L
536.1 119.327 L
536.487 119.402 L
536.875 119.25 L
537.263 120.214 L
537.65 120.221 L
538.037 119.938 L
538.425 120.688 L
538.813 121.175 L
539.2 120.561 L
539.588 120.425 L
539.975 121.609 L
540.362 120.736 L
540.75 120.215 L
541.138 120.06 L
541.525 120.45 L
541.912 120.796 L
542.3 120.428 L
542.688 120.925 L
543.075 120.38 L
543.463 120.259 L
543.85 121.357 L
544.237 122.763 L
544.625 122.137 L
545.013 121.954 L
545.4 121.658 L
545.787 121.002 L
546.175 121.726 L
546.563 122.135 L
546.95 122.03 L
547.338 122.339 L
547.725 121.39 L
548.112 121.823 L
548.5 121.954 L
548.888 121.932 L
549.275 122.103 L
549.662 123.691 L
550.05 122.924 L
550.438 122.741 L
550.825 121.35 L
551.213 121.18 L
551.6 122.154 L
551.987 121.628 L
552.375 121.19 L
552.763 121.295 L
553.15 121.046 L
553.537 121.009 L
553.925 120.929 L
554.313 120.612 L
554.7 119.389 L
555.088 119.984 L
555.475 119.45 L
555.862 119.732 L
556.25 119.742 L
556.638 119.007 L
557.025 118.123 L
557.412 117.363 L
557.8 118.864 L
558.188 118.059 L
558.575 118.106 L
558.963 117.675 L
559.35 116.551 L
559.737 116.266 L
560.125 116.291 L
560.513 116.898 L
560.9 116.465 L
561.287 116.279 L
561.675 115.145 L
562.063 114.654 L
562.45 113.001 L
562.838 113.249 L
563.225 112.803 L
563.612 111.236 L
564 109.865 L
564.388 109.609 L
564.775 108.904 L
565.162 108.165 L
565.55 107.447 L
565.938 106.219 L
566.325 106.219 L
566.713 105.974 L
567.1 106.126 L
567.487 105.853 L
567.875 105.083 L
568.263 104.654 L
568.65 104.02 L
569.037 103.113 L
569.425 101.524 L
569.813 101.502 L
570.2 100.535 L
570.588 100.549 L
570.975 100.013 L
571.362 98.577 L
571.75 98.324 L
572.138 97.331 L
572.525 96.711 L
572.912 97.318 L
573.3 97.572 L
573.688 96.432 L
574.075 96.252 L
574.463 96.447 L
574.85 95.87 L
575.237 96.547 L
575.625 96.919 L
576.013 96.986 L
576.4 97.006 L
576.787 96.873 L
577.175 97.159 L
577.563 95.74 L
577.95 95.333 L
578.338 94.304 L
578.725 94.239 L
579.112 95.482 L
579.5 95.107 L
579.888 95.375 L
580.275 94.791 L
580.662 94.999 L
581.05 93.749 L
581.438 93.957 L
581.825 93.676 L
582.213 94.291 L
582.6 93.534 L
582.987 93.566 L
583.375 94.703 L
583.763 94.857 L
584.15 94.989 L
584.537 95.027 L
584.925 95.663 L
585.313 96.754 L
585.7 96.637 L
586.088 95.914 L
586.475 96.27 L
586.862 95.928 L
587.25 96.101 L
587.638 96.533 L
588.025 95.84 L
588.412 95.188 L
588.8 94.779 L
589.188 94.688 L
589.575 95.681 L
589.963 96.036 L
590.35 96.527 L
590.737 96.855 L
591.125 97.204 L
591.513 98.293 L
591.9 98.52 L
592.287 98.216 L
592.675 97.712 L
593.063 98.607 L
593.45 98.219 L
593.838 98.926 L
594.225 98.57 L
594.612 99.494 L
595 98.473 L
595.388 97.959 L
595.775 97.014 L
596.162 97.154 L
596.55 98.18 L
596.938 98.531 L
597.325 98.237 L
597.713 99.215 L
598.1 100.141 L
598.487 100.132 L
598.875 99.215 L
599.263 99.408 L
599.65 98.426 L
600.037 99.118 L
600.425 98.995 L
600.813 98.862 L
601.2 98.913 L
601.588 99.791 L
601.975 100.723 L
602.362 102.123 L
602.75 102.873 L
603.138 103.032 L
603.525 102.905 L
603.912 102.971 L
604.3 102.364 L
604.688 102.209 L
605.075 102.278 L
605.463 103.139 L
605.85 105.909 L
606.237 106.247 L
606.625 105.55 L
607.013 106.105 L
607.4 105.744 L
607.787 106.36 L
608.175 107.094 L
608.563 107.549 L
608.95 108.001 L
609.338 108.032 L
609.725 107.99 L
610.112 107.531 L
610.5 107.658 L
610.888 107.029 L
611.275 106.325 L
611.662 107.816 L
612.05 108.635 L
612.438 108.13 L
612.825 106.15 L
613.213 107.218 L
613.6 108.037 L
613.987 108.78 L
614.375 108.312 L
614.763 109.302 L
615.15 108.752 L
615.537 108.999 L
615.925 109.204 L
616.313 108.744 L
616.7 108.813 L
617.088 109.178 L
617.475 108.617 L
617.862 108.796 L
618.25 108.92 L
618.638 109.184 L
619.025 109.126 L
619.412 109.64 L
619.8 108.807 L
620.188 108.909 L
620.575 108.909 L
620.963 109.159 L
621.35 108.563 L
621.737 107.968 L
622.125 107.558 L
622.513 106.609 L
622.9 105.898 L
623.287 107.148 L
623.675 107.656 L
624.063 109.697 L
624.45 109.995 L
624.838 109.046 L
625.225 109.406 L
625.612 107.359 L
626 106.819 L
626.388 107.006 L
626.775 107.257 L
627.162 107.676 L
627.55 108.646 L
627.938 108.913 L
628.325 108.979 L
628.713 108.763 L
629.1 107.367 L
629.487 107.367 L
629.875 107.117 L
630.263 106.953 L
630.65 107.274 L
631.037 107.47 L
631.425 107.184 L
631.813 106.256 L
632.2 106.563 L
632.588 106.818 L
632.975 106.419 L
633.362 104.83 L
633.75 103.942 L
634.138 103.107 L
634.525 102.181 L
634.912 102.99 L
635.3 103.218 L
635.688 102.244 L
636.075 101.511 L
636.463 101.133 L
636.85 101.323 L
637.237 101.598 L
637.625 101.036 L
638.013 100.721 L
638.4 101.305 L
638.787 100.954 L
639.175 101.696 L
639.563 101.77 L
639.95 101.827 L
640.338 101.938 L
640.725 101.818 L
641.112 101.852 L
641.5 101.482 L
641.888 100.712 L
642.275 100.896 L
642.662 101.268 L
643.05 100.547 L
643.438 100.378 L
643.825 99.563 L
644.213 99.274 L
644.6 99.803 L
644.987 98.24 L
645.375 97.385 L
645.763 96.667 L
646.15 96.369 L
646.537 95.827 L
646.925 95.619 L
647.313 94.572 L
647.7 95.115 L
648.088 95.3 L
648.475 96.744 L
648.862 97.362 L
649.25 97.984 L
649.638 98.557 L
650.025 98.748 L
650.412 98.775 L
650.8 98.212 L
651.188 97.232 L
651.575 97.209 L
651.963 96.777 L
652.35 97.272 L
652.737 97.446 L
653.125 97.59 L
653.513 98.03 L
653.9 97.777 L
654.287 97.562 L
654.675 97.035 L
655.063 96.178 L
655.45 96.47 L
655.838 96.542 L
656.225 97.285 L
656.612 97.023 L
657 97.207 L
657.388 97.441 L
657.775 98.729 L
658.162 98.827 L
658.55 98.481 L
658.938 97.43 L
659.325 97.521 L
659.713 98.283 L
660.1 98.193 L
660.487 98.024 L
660.875 97.8 L
661.263 97.607 L
661.65 98.44 L
662.037 99.147 L
662.425 98.422 L
662.813 99.046 L
663.2 98.964 L
663.588 99.329 L
663.975 99.103 L
664.362 99.502 L
664.75 100.184 L
665.138 100.631 L
665.525 100.809 L
665.912 101.435 L
666.3 102.221 L
666.688 102.5 L
667.075 102.582 L
667.463 101.15 L
667.85 101.099 L
668.237 99.66 L
668.625 99.367 L
669.013 99.32 L
669.4 99.283 L
669.787 98.842 L
670.175 98.616 L
670.563 98.343 L
670.95 98.008 L
671.338 98.39 L
671.725 99.118 L
672.112 99.319 L
672.5 99.636 L
672.888 101.081 L
673.275 99.976 L
673.662 100.576 L
674.05 101.026 L
674.438 101.567 L
674.825 102.899 L
675.213 103.417 L
675.6 104.009 L
675.987 103.474 L
676.375 103.199 L
676.763 102.621 L
677.15 101.966 L
677.537 100.817 L
677.925 100.304 L
678.313 100.994 L
678.7 101.39 L
679.088 102.034 L
679.475 101.735 L
679.862 102.574 L
680.25 102.413 L
680.638 103.756 L
681.025 104.004 L
681.412 103.828 L
681.8 103.055 L
682.188 103.38 L
682.575 102.166 L
682.963 102.471 L
683.35 102.219 L
683.737 102.764 L
684.125 103.009 L
684.513 103.371 L
684.9 104.871 L
685.287 105.384 L
685.675 105.057 L
686.063 104.271 L
686.45 104.398 L
686.838 104.512 L
687.225 106.968 L
687.612 106.65 L
688 106.956 L
688.388 106.44 L
688.775 106.384 L
689.162 106.384 L
689.55 106.247 L
689.938 107.5 L
690.325 108.479 L
690.713 109.683 L
691.1 109.523 L
691.487 109.177 L
691.875 109.19 L
692.263 108.733 L
692.65 108.119 L
693.037 108.66 L
693.425 110.153 L
693.813 109.721 L
694.2 109.385 L
694.588 109.643 L
694.975 109.602 L
695.362 109.011 L
695.75 108.285 L
696.138 109.836 L
696.525 110.692 L
696.912 111.756 L
697.3 111.533 L
697.688 111.244 L
698.075 111.719 L
698.463 113.39 L
698.85 113.888 L
699.237 114.655 L
699.625 114.768 L
700.013 117.202 L
700.4 116.561 L
700.787 116.255 L
701.175 116.499 L
701.563 116.176 L
701.95 116.732 L
702.338 117.916 L
702.725 117.9 L
703.112 118.105 L
703.5 118.203 L
703.888 117.361 L
704.275 117.39 L
704.662 117.247 L
705.05 117.47 L
705.438 117.869 L
705.825 117.831 L
706.213 118.344 L
706.6 119.124 L
706.987 117.893 L
707.375 117.965 L
707.763 118.747 L
708.15 119.309 L
708.537 120.108 L
708.925 121.49 L
709.313 122.609 L
709.7 122.386 L
710.088 122.317 L
710.475 121.837 L
710.862 123.343 L
711.25 123.802 L
711.638 123.974 L
712.025 124.509 L
712.412 125.006 L
712.8 125.882 L
713.188 125.402 L
713.575 126.447 L
713.963 125.908 L
714.35 125.469 L
714.737 126.363 L
715.125 127.708 L
715.513 128.787 L
715.9 127.91 L
716.287 127.752 L
716.675 128.291 L
717.063 129.167 L
717.45 130.082 L
717.838 131.309 L
718.225 130.942 L
718.612 131.388 L
719 130.505 L
719.388 131.078 L
719.775 130.226 L
720.162 131.187 L
720.55 132.497 L
720.938 132.133 L
721.325 132.968 L
721.713 133.768 L
722.1 133.038 L
722.487 133.317 L
722.875 133.184 L
723.263 133.939 L
723.65 136.063 L
724.037 136.339 L
724.425 135.326 L
724.813 135.882 L
725.2 135.402 L
725.588 135.44 L
725.975 135.127 L
726.362 134.837 L
726.75 134.734 L
727.138 135.143 L
727.525 134.758 L
727.912 135.16 L
728.3 134.284 L
728.688 133.283 L
729.075 132.457 L
729.463 133.01 L
729.85 133.323 L
730.237 133.803 L
730.625 132.686 L
731.013 132.218 L
731.4 132.769 L
731.787 133.367 L
732.175 132.95 L
732.563 132.676 L
732.95 132.208 L
733.338 132.005 L
733.725 132.056 L
734.112 132.29 L
734.5 131.237 L
734.888 129.85 L
735.275 130.106 L
735.662 130.32 L
736.05 129.522 L
736.438 128.656 L
736.825 129.79 L
737.213 130.336 L
737.6 128.77 L
737.987 127.912 L
738.375 127.028 L
738.763 127.922 L
739.15 127.349 L
739.537 125.637 L
739.925 124.654 L
740.313 123.667 L
740.7 123.628 L
741.088 124.075 L
741.475 124.219 L
741.862 124.63 L
742.25 124.659 L
742.638 123.933 L
743.025 123.102 L
743.412 121.819 L
743.8 122.12 L
744.188 121.83 L
744.575 121.257 L
744.963 122.485 L
745.35 122.906 L
745.737 123.442 L
746.125 122.704 L
746.513 122.573 L
746.9 122.339 L
747.287 123.22 L
747.675 122.584 L
748.063 122.885 L
748.45 123.769 L
748.838 124.324 L
749.225 123.771 L
749.612 124.071 L
750 123.702 L
750.388 123.861 L
750.775 124.067 L
751.162 124.621 L
751.55 123.753 L
751.938 124.17 L
752.325 124.154 L
752.713 124.652 L
753.1 125.001 L
753.487 125.608 L
753.875 125.149 L
754.263 125.439 L
754.65 125.432 L
755.037 124.309 L
755.425 123.82 L
755.813 123.456 L
756.2 122.719 L
756.588 121.696 L
756.975 121.56 L
757.362 120.802 L
757.75 120.182 L
758.138 120.482 L
758.525 118.679 L
758.912 118.679 L
759.3 119.404 L
759.688 119.455 L
760.075 119.834 L
760.463 120.312 L
760.85 119.95 L
761.237 119.459 L
761.625 120 L
762.013 120.197 L
762.4 120.618 L
762.787 119.825 L
763.175 119.743 L
763.563 120.318 L
763.95 120.674 L
764.338 120.34 L
764.725 119.521 L
765.112 119.296 L
765.5 118.569 L
765.888 118.663 L
766.275 117.552 L
766.662 117.488 L
767.05 116.81 L
767.438 117.913 L
767.825 116.723 L
768.213 115.4 L
768.6 115.934 L
768.987 115.375 L
769.375 114.324 L
769.763 114.439 L
770.15 115.99 L
770.537 116.848 L
770.925 115.315 L
771.313 115.213 L
771.7 114.249 L
772.088 114.094 L
772.475 112.813 L
772.862 112.026 L
773.25 112.814 L
773.638 112.768 L
774.025 111.584 L
774.412 111.9 L
774.8 112.236 L
775.188 112.143 L
775.575 112.468 L
775.963 112.767 L
776.35 113.121 L
776.737 112.945 L
777.125 113.047 L
777.513 113.765 L
777.9 113.531 L
778.287 114.094 L
778.675 113.249 L
779.063 112.962 L
779.45 111.964 L
779.838 111.092 L
780.225 110.127 L
780.612 109.819 L
781 109.128 L
781.388 108.364 L
781.775 108.432 L
782.162 109.037 L
782.55 109.658 L
782.938 108.966 L
783.325 107.514 L
783.713 108.203 L
784.1 108.613 L
784.487 108.47 L
784.875 108.842 L
785.263 109.072 L
785.65 109.482 L
786.037 111.267 L
786.425 112.032 L
786.813 111.126 L
787.2 110.637 L
787.588 111.689 L
787.975 111.501 L
788.362 111.267 L
788.75 111.534 L
789.138 111.857 L
789.525 112.857 L
789.912 111.936 L
790.3 111.574 L
790.688 111.299 L
791.075 111.348 L
791.463 110.759 L
791.85 111.056 L
792.237 111.635 L
792.625 111.693 L
793.013 110.407 L
793.4 110.389 L
793.787 111.035 L
794.175 110.673 L
794.563 111.006 L
794.95 111.452 L
795.338 111.247 L
795.725 110.812 L
796.112 111.094 L
796.5 110.451 L
796.888 110.343 L
797.275 109.805 L
797.662 109.347 L
798.05 109.733 L
798.438 110.578 L
798.825 111.036 L
799.213 112.21 L
799.6 112.686 L
799.987 114.81 L
800.375 116.136 L
800.763 115.371 L
801.15 114.917 L
801.537 114.591 L
801.925 113.957 L
802.313 114.6 L
802.7 114.565 L
803.088 114.278 L
803.475 113.225 L
803.862 112.927 L
804.25 112.087 L
804.638 111.553 L
805.025 111.417 L
805.412 111.847 L
805.8 110.652 L
806.188 109.457 L
806.575 109.873 L
806.963 110.78 L
807.35 110.364 L
807.737 111.057 L
808.125 110.618 L
808.513 109.801 L
808.9 109.956 L
809.287 108.823 L
809.675 108.743 L
810.063 108.366 L
810.45 109.445 L
810.838 109.54 L
811.225 110.473 L
811.612 109.969 L
812 109.764 L
812.388 109.92 L
812.775 110.504 L
813.162 110.298 L
813.55 110.597 L
813.938 110.642 L
814.325 110.31 L
814.713 109.445 L
815.1 110.03 L
815.487 110.411 L
815.875 109.367 L
816.263 109.65 L
816.65 110.2 L
817.037 110.776 L
817.425 110.252 L
817.813 110.32 L
818.2 109.774 L
818.588 109.156 L
818.975 109.028 L
819.362 109.67 L
819.75 107.651 L
820.138 106.324 L
820.525 107.738 L
820.912 108.201 L
821.3 107.238 L
821.688 107.042 L
822.075 105.896 L
822.463 106.009 L
822.85 106.145 L
823.237 105.38 L
823.625 105.808 L
824.013 105.614 L
824.4 105.937 L
824.787 106.134 L
825.175 104.884 L
825.563 104.423 L
825.95 104.836 L
826.338 104.519 L
826.725 104.249 L
827.112 105.249 L
827.5 105.015 L
827.888 104.716 L
828.275 104.679 L
828.662 104.893 L
829.05 104.623 L
829.438 103.573 L
829.825 103.061 L
830.213 101.588 L
830.6 100.833 L
830.987 100.205 L
831.375 100.709 L
831.763 100.463 L
832.15 100.401 L
832.537 100.045 L
832.925 100.321 L
833.313 99.654 L
833.7 98.986 L
834.088 98.206 L
834.475 98.353 L
834.862 97.575 L
835.25 97.503 L
835.638 96.901 L
836.025 95.767 L
836.412 95.325 L
836.8 94.866 L
837.188 95.587 L
837.575 95.792 L
837.963 95.069 L
838.35 95.285 L
838.737 95.117 L
839.125 93.874 L
839.513 93.759 L
839.9 93.106 L
840.287 92.093 L
840.675 91.34 L
841.063 91.175 L
841.45 90.89 L
841.838 91.257 L
842.225 90.956 L
842.612 91.255 L
843 91.893 L
843.388 91.075 L
843.775 92.252 L
844.162 91.731 L
844.55 91.11 L
844.938 91.242 L
845.325 92.166 L
845.713 92.071 L
846.1 92.527 L
846.487 90.919 L
846.875 89.062 L
847.263 88.519 L
847.65 88.401 L
848.037 88.407 L
848.425 87.966 L
848.813 87.323 L
849.2 86.958 L
849.588 86.926 L
849.975 87.32 L
850.362 87.572 L
850.75 87.675 L
851.138 86.373 L
851.525 85.962 L
851.912 85.634 L
852.3 84.876 L
852.688 84.202 L
853.075 84.081 L
853.463 84.183 L
853.85 84.163 L
854.237 83.694 L
854.625 84.117 L
855.013 83.518 L
855.4 83.269 L
855.787 83.352 L
856.175 82.65 L
856.563 82.397 L
856.95 81.305 L
857.338 81.895 L
857.725 82.093 L
858.112 81.441 L
858.5 80.756 L
858.888 80.557 L
859.275 80.136 L
859.662 80.065 L
860.05 79.872 L
860.438 79.983 L
860.825 79.651 L
861.213 79.042 L
861.6 78.785 L
861.987 78.839 L
862.375 78.091 L
862.763 77.875 L
863.15 77.259 L
863.537 76.744 L
863.925 76.259 L
864.313 76.084 L
864.7 75.919 L
865.088 75.187 L
865.475 74.467 L
865.862 74.39 L
866.25 75.285 L
866.638 75.253 L
867.025 75.27 L
867.412 74.973 L
867.8 74.911 L
868.188 74.685 L
868.575 75.839 L
868.963 77.738 L
869.35 77.606 L
869.737 77.533 L
870.125 77.47 L
870.513 76.722 L
870.9 78.229 L
871.287 78.98 L
871.675 79.746 L
872.063 80.656 L
872.45 81.29 L
872.838 82.189 L
873.225 82.164 L
873.612 82.731 L
874 83.155 L
874.388 83.223 L
874.775 83.735 L
875.162 84.439 L
875.55 86.001 L
875.938 86.314 L
876.325 87.026 L
876.713 87.43 L
877.1 86.476 L
877.487 86.55 L
877.875 87.022 L
878.263 87.489 L
878.65 88.122 L
879.037 88.451 L
879.425 88.665 L
879.813 88.767 L
880.2 88.342 L
880.588 89.486 L
880.975 90.381 L
881.362 89.933 L
881.75 89.813 L
882.138 90.346 L
882.525 90.185 L
882.912 90.866 L
883.3 91.066 L
883.688 91.626 L
884.075 91.618 L
884.463 93.287 L
884.85 93.457 L
885.237 94.001 L
885.625 93.262 L
886.013 92.275 L
886.4 92.431 L
886.787 92.143 L
887.175 92.996 L
887.563 93.453 L
887.95 92.78 L
888.338 92.557 L
888.725 90.967 L
889.112 90.912 L
889.5 90.795 L
889.888 91.044 L
890.275 91.089 L
890.662 89.846 L
891.05 89.453 L
891.438 88.196 L
891.825 87.123 L
892.213 86.678 L
892.6 87.255 L
892.987 86.986 L
893.375 86.743 L
893.763 86.641 L
894.15 85.723 L
894.537 85.672 L
894.925 85.379 L
895.313 84.101 L
895.7 84.336 L
896.088 83.698 L
896.475 83.908 L
896.862 83.351 L
897.25 83.616 L
897.638 83.565 L
898.025 83.214 L
898.412 82.883 L
898.8 82.997 L
899.188 82.773 L
899.575 82.836 L
899.963 83.313 L
900.35 82.486 L
900.737 82.049 L
901.125 82.576 L
901.513 82.88 L
901.9 82.584 L
902.287 82.733 L
902.675 82.495 L
903.063 81.738 L
903.45 81.66 L
903.838 81.798 L
904.225 78.871 L
904.612 78.446 L
905 77.917 L
S
GR
%%Trailer
%%Pages: 1
%%EOF
