%!PS-Adobe-3.0 EPSF-3.0
%%Creator: (MATLAB, The Mathworks, Inc. Version 9.0.0.341360 \(R2016a\). Operating System: Linux)
%%Title: report/figures/sm_base_additional_fc_layer4_ratio.eps
%%CreationDate: 2017-02-04T23:56:22
%%Pages: (atend)
%%BoundingBox:    59     4   910   325
%%LanguageLevel: 3
%%EndComments
%%BeginProlog
%%BeginResource: procset (Apache XML Graphics Std ProcSet) 1.2 0
%%Version: 1.2 0
%%Copyright: (Copyright 2001-2003,2010 The Apache Software Foundation. License terms: http://www.apache.org/licenses/LICENSE-2.0)
/bd{bind def}bind def
/ld{load def}bd
/GR/grestore ld
/M/moveto ld
/LJ/setlinejoin ld
/C/curveto ld
/f/fill ld
/LW/setlinewidth ld
/GC/setgray ld
/t/show ld
/N/newpath ld
/CT/concat ld
/cp/closepath ld
/S/stroke ld
/L/lineto ld
/CC/setcmykcolor ld
/A/ashow ld
/GS/gsave ld
/RC/setrgbcolor ld
/RM/rmoveto ld
/ML/setmiterlimit ld
/re {4 2 roll M
1 index 0 rlineto
0 exch rlineto
neg 0 rlineto
cp } bd
/_ctm matrix def
/_tm matrix def
/BT { _ctm currentmatrix pop matrix _tm copy pop 0 0 moveto } bd
/ET { _ctm setmatrix } bd
/iTm { _ctm setmatrix _tm concat } bd
/Tm { _tm astore pop iTm 0 0 moveto } bd
/ux 0.0 def
/uy 0.0 def
/F {
  /Tp exch def
  /Tf exch def
  Tf findfont Tp scalefont setfont
  /cf Tf def  /cs Tp def
} bd
/ULS {currentpoint /uy exch def /ux exch def} bd
/ULE {
  /Tcx currentpoint pop def
  gsave
  newpath
  cf findfont cs scalefont dup
  /FontMatrix get 0 get /Ts exch def /FontInfo get dup
  /UnderlinePosition get Ts mul /To exch def
  /UnderlineThickness get Ts mul /Tt exch def
  ux uy To add moveto  Tcx uy To add lineto
  Tt setlinewidth stroke
  grestore
} bd
/OLE {
  /Tcx currentpoint pop def
  gsave
  newpath
  cf findfont cs scalefont dup
  /FontMatrix get 0 get /Ts exch def /FontInfo get dup
  /UnderlinePosition get Ts mul /To exch def
  /UnderlineThickness get Ts mul /Tt exch def
  ux uy To add cs add moveto Tcx uy To add cs add lineto
  Tt setlinewidth stroke
  grestore
} bd
/SOE {
  /Tcx currentpoint pop def
  gsave
  newpath
  cf findfont cs scalefont dup
  /FontMatrix get 0 get /Ts exch def /FontInfo get dup
  /UnderlinePosition get Ts mul /To exch def
  /UnderlineThickness get Ts mul /Tt exch def
  ux uy To add cs 10 mul 26 idiv add moveto Tcx uy To add cs 10 mul 26 idiv add lineto
  Tt setlinewidth stroke
  grestore
} bd
/QT {
/Y22 exch store
/X22 exch store
/Y21 exch store
/X21 exch store
currentpoint
/Y21 load 2 mul add 3 div exch
/X21 load 2 mul add 3 div exch
/X21 load 2 mul /X22 load add 3 div
/Y21 load 2 mul /Y22 load add 3 div
/X22 load /Y22 load curveto
} bd
/SSPD {
dup length /d exch dict def
{
/v exch def
/k exch def
currentpagedevice k known {
/cpdv currentpagedevice k get def
v cpdv ne {
/upd false def
/nullv v type /nulltype eq def
/nullcpdv cpdv type /nulltype eq def
nullv nullcpdv or
{
/upd true def
} {
/sametype v type cpdv type eq def
sametype {
v type /arraytype eq {
/vlen v length def
/cpdvlen cpdv length def
vlen cpdvlen eq {
0 1 vlen 1 sub {
/i exch def
/obj v i get def
/cpdobj cpdv i get def
obj cpdobj ne {
/upd true def
exit
} if
} for
} {
/upd true def
} ifelse
} {
v type /dicttype eq {
v {
/dv exch def
/dk exch def
/cpddv cpdv dk get def
dv cpddv ne {
/upd true def
exit
} if
} forall
} {
/upd true def
} ifelse
} ifelse
} if
} ifelse
upd true eq {
d k v put
} if
} if
} if
} forall
d length 0 gt {
d setpagedevice
} if
} bd
%%EndResource
%%BeginResource: procset (Apache XML Graphics EPS ProcSet) 1.0 0
%%Version: 1.0 0
%%Copyright: (Copyright 2002-2003 The Apache Software Foundation. License terms: http://www.apache.org/licenses/LICENSE-2.0)
/BeginEPSF { %def
/b4_Inc_state save def         % Save state for cleanup
/dict_count countdictstack def % Count objects on dict stack
/op_count count 1 sub def      % Count objects on operand stack
userdict begin                 % Push userdict on dict stack
/showpage { } def              % Redefine showpage, { } = null proc
0 setgray 0 setlinecap         % Prepare graphics state
1 setlinewidth 0 setlinejoin
10 setmiterlimit [ ] 0 setdash newpath
/languagelevel where           % If level not equal to 1 then
{pop languagelevel             % set strokeadjust and
1 ne                           % overprint to their defaults.
{false setstrokeadjust false setoverprint
} if
} if
} bd
/EndEPSF { %def
count op_count sub {pop} repeat            % Clean up stacks
countdictstack dict_count sub {end} repeat
b4_Inc_state restore
} bd
%%EndResource
%%EndProlog
%%Page: 1 1
%%PageBoundingBox: 0 0 1000 350
%%BeginPageSetup
[1 0 0 -1 0 350] CT
%%EndPageSetup
GS
1 GC
N
0 0 1000 350 re
f
GR
GS
1 GC
N
0 0 1000 350 re
f
GR
GS
1 GC
N
130 289 M
905 289 L
905 26 L
130 26 L
cp
f
GR
GS
0.873 GC
1 LJ
0.5 LW
N
130 289 M
130 26 L
S
GR
GS
0.873 GC
1 LJ
0.5 LW
N
323.75 289 M
323.75 26 L
S
GR
GS
0.873 GC
1 LJ
0.5 LW
N
517.5 289 M
517.5 26 L
S
GR
GS
0.873 GC
1 LJ
0.5 LW
N
711.25 289 M
711.25 26 L
S
GR
GS
0.873 GC
1 LJ
0.5 LW
N
905 289 M
905 26 L
S
GR
GS
0.873 GC
1 LJ
0.5 LW
N
905 289 M
130 289 L
S
GR
GS
0.873 GC
1 LJ
0.5 LW
N
905 238.905 M
130 238.905 L
S
GR
GS
0.873 GC
1 LJ
0.5 LW
N
905 188.81 M
130 188.81 L
S
GR
GS
0.873 GC
1 LJ
0.5 LW
N
905 138.714 M
130 138.714 L
S
GR
GS
0.873 GC
1 LJ
0.5 LW
N
905 88.619 M
130 88.619 L
S
GR
GS
0.873 GC
1 LJ
0.5 LW
N
905 38.524 M
130 38.524 L
S
GR
GS
0.149 GC
2 setlinecap
1 LJ
0.5 LW
N
130 289 M
905 289 L
S
GR
GS
0.149 GC
2 setlinecap
1 LJ
0.5 LW
N
130 289 M
130 281.25 L
S
GR
GS
0.149 GC
2 setlinecap
1 LJ
0.5 LW
N
323.75 289 M
323.75 281.25 L
S
GR
GS
0.149 GC
2 setlinecap
1 LJ
0.5 LW
N
517.5 289 M
517.5 281.25 L
S
GR
GS
0.149 GC
2 setlinecap
1 LJ
0.5 LW
N
711.25 289 M
711.25 281.25 L
S
GR
GS
0.149 GC
2 setlinecap
1 LJ
0.5 LW
N
905 289 M
905 281.25 L
S
GR
GS
[1 0 0 1 130 295] CT
0.149 GC
N
-0.141 5.719 M
-1.672 5.719 -2.438 7.219 QT
-3.203 8.719 -3.203 11.719 QT
-3.203 14.719 -2.438 16.219 QT
-1.672 17.719 -0.141 17.719 QT
1.391 17.719 2.156 16.219 QT
2.922 14.719 2.922 11.719 QT
2.922 8.719 2.156 7.219 QT
1.391 5.719 -0.141 5.719 QT
cp
-0.141 4.156 M
2.313 4.156 3.602 6.094 QT
4.891 8.031 4.891 11.719 QT
4.891 15.406 3.602 17.344 QT
2.313 19.281 -0.141 19.281 QT
-2.594 19.281 -3.891 17.344 QT
-5.188 15.406 -5.188 11.719 QT
-5.188 8.031 -3.891 6.094 QT
-2.594 4.156 -0.141 4.156 QT
cp
f
GR
GS
[1 0 0 1 323.75 295] CT
0.149 GC
N
-9.641 5.719 M
-11.172 5.719 -11.938 7.219 QT
-12.703 8.719 -12.703 11.719 QT
-12.703 14.719 -11.938 16.219 QT
-11.172 17.719 -9.641 17.719 QT
-8.109 17.719 -7.344 16.219 QT
-6.578 14.719 -6.578 11.719 QT
-6.578 8.719 -7.344 7.219 QT
-8.109 5.719 -9.641 5.719 QT
cp
-9.641 4.156 M
-7.188 4.156 -5.898 6.094 QT
-4.609 8.031 -4.609 11.719 QT
-4.609 15.406 -5.898 17.344 QT
-7.188 19.281 -9.641 19.281 QT
-12.094 19.281 -13.391 17.344 QT
-14.688 15.406 -14.688 11.719 QT
-14.688 8.031 -13.391 6.094 QT
-12.094 4.156 -9.641 4.156 QT
cp
-1.135 16.516 M
0.928 16.516 L
0.928 19 L
-1.135 19 L
-1.135 16.516 L
cp
5.238 4.422 M
12.988 4.422 L
12.988 6.078 L
7.051 6.078 L
7.051 9.656 L
7.473 9.5 7.902 9.43 QT
8.332 9.359 8.77 9.359 QT
11.207 9.359 12.637 10.695 QT
14.066 12.031 14.066 14.328 QT
14.066 16.672 12.598 17.977 QT
11.129 19.281 8.457 19.281 QT
7.551 19.281 6.598 19.125 QT
5.645 18.969 4.629 18.656 QT
4.629 16.672 L
5.504 17.156 6.441 17.391 QT
7.379 17.625 8.426 17.625 QT
10.113 17.625 11.098 16.734 QT
12.082 15.844 12.082 14.328 QT
12.082 12.797 11.098 11.906 QT
10.113 11.016 8.426 11.016 QT
7.629 11.016 6.848 11.195 QT
6.066 11.375 5.238 11.75 QT
5.238 4.422 L
cp
f
GR
GS
[1 0 0 1 517.5 295] CT
0.149 GC
N
-4.016 17.344 M
-0.797 17.344 L
-0.797 6.219 L
-4.297 6.922 L
-4.297 5.125 L
-0.813 4.422 L
1.156 4.422 L
1.156 17.344 L
4.375 17.344 L
4.375 19 L
-4.016 19 L
-4.016 17.344 L
cp
f
GR
GS
[1 0 0 1 711.25 295] CT
0.149 GC
N
-13.516 17.344 M
-10.297 17.344 L
-10.297 6.219 L
-13.797 6.922 L
-13.797 5.125 L
-10.313 4.422 L
-8.344 4.422 L
-8.344 17.344 L
-5.125 17.344 L
-5.125 19 L
-13.516 19 L
-13.516 17.344 L
cp
-1.135 16.516 M
0.928 16.516 L
0.928 19 L
-1.135 19 L
-1.135 16.516 L
cp
5.238 4.422 M
12.988 4.422 L
12.988 6.078 L
7.051 6.078 L
7.051 9.656 L
7.473 9.5 7.902 9.43 QT
8.332 9.359 8.77 9.359 QT
11.207 9.359 12.637 10.695 QT
14.066 12.031 14.066 14.328 QT
14.066 16.672 12.598 17.977 QT
11.129 19.281 8.457 19.281 QT
7.551 19.281 6.598 19.125 QT
5.645 18.969 4.629 18.656 QT
4.629 16.672 L
5.504 17.156 6.441 17.391 QT
7.379 17.625 8.426 17.625 QT
10.113 17.625 11.098 16.734 QT
12.082 15.844 12.082 14.328 QT
12.082 12.797 11.098 11.906 QT
10.113 11.016 8.426 11.016 QT
7.629 11.016 6.848 11.195 QT
6.066 11.375 5.238 11.75 QT
5.238 4.422 L
cp
f
GR
GS
[1 0 0 1 905 295] CT
0.149 GC
N
-2.656 17.344 M
4.219 17.344 L
4.219 19 L
-5.031 19 L
-5.031 17.344 L
-3.906 16.172 -1.969 14.219 QT
-0.031 12.266 0.469 11.688 QT
1.406 10.625 1.781 9.891 QT
2.156 9.156 2.156 8.438 QT
2.156 7.281 1.344 6.547 QT
0.531 5.813 -0.781 5.813 QT
-1.703 5.813 -2.734 6.133 QT
-3.766 6.453 -4.938 7.109 QT
-4.938 5.125 L
-3.75 4.641 -2.711 4.398 QT
-1.672 4.156 -0.813 4.156 QT
1.453 4.156 2.797 5.289 QT
4.141 6.422 4.141 8.313 QT
4.141 9.219 3.805 10.023 QT
3.469 10.828 2.578 11.922 QT
2.344 12.203 1.031 13.555 QT
-0.281 14.906 -2.656 17.344 QT
cp
f
GR
GS
[1 0 0 1 517.50037 320] CT
0.149 GC
N
-14.25 9.328 M
-14.25 11.188 L
-15.094 10.766 -16 10.547 QT
-16.906 10.328 -17.859 10.328 QT
-19.344 10.328 -20.078 10.781 QT
-20.813 11.234 -20.813 12.141 QT
-20.813 12.828 -20.281 13.219 QT
-19.75 13.609 -18.172 13.969 QT
-17.484 14.109 L
-15.391 14.563 -14.5 15.383 QT
-13.609 16.203 -13.609 17.688 QT
-13.609 19.359 -14.938 20.336 QT
-16.266 21.313 -18.578 21.313 QT
-19.547 21.313 -20.594 21.125 QT
-21.641 20.938 -22.813 20.563 QT
-22.813 18.516 L
-21.719 19.094 -20.648 19.375 QT
-19.578 19.656 -18.547 19.656 QT
-17.141 19.656 -16.391 19.18 QT
-15.641 18.703 -15.641 17.828 QT
-15.641 17.031 -16.188 16.602 QT
-16.734 16.172 -18.563 15.766 QT
-19.25 15.609 L
-21.094 15.219 -21.906 14.422 QT
-22.719 13.625 -22.719 12.219 QT
-22.719 10.531 -21.516 9.602 QT
-20.313 8.672 -18.109 8.672 QT
-17 8.672 -16.039 8.836 QT
-15.078 9 -14.25 9.328 QT
cp
-8.507 5.547 M
-8.507 8.969 L
-4.444 8.969 L
-4.444 10.5 L
-8.507 10.5 L
-8.507 17.031 L
-8.507 18.5 -8.108 18.922 QT
-7.71 19.344 -6.476 19.344 QT
-4.444 19.344 L
-4.444 21 L
-6.476 21 L
-8.757 21 -9.624 20.148 QT
-10.491 19.297 -10.491 17.031 QT
-10.491 10.5 L
-11.944 10.5 L
-11.944 8.969 L
-10.491 8.969 L
-10.491 5.547 L
-8.507 5.547 L
cp
8.447 14.484 M
8.447 15.453 L
-0.631 15.453 L
-0.506 17.5 0.596 18.57 QT
1.697 19.641 3.666 19.641 QT
4.807 19.641 5.869 19.359 QT
6.932 19.078 7.994 18.516 QT
7.994 20.391 L
6.932 20.844 5.814 21.078 QT
4.697 21.313 3.541 21.313 QT
0.666 21.313 -1.014 19.633 QT
-2.693 17.953 -2.693 15.109 QT
-2.693 12.141 -1.1 10.406 QT
0.494 8.672 3.197 8.672 QT
5.635 8.672 7.041 10.234 QT
8.447 11.797 8.447 14.484 QT
cp
6.479 13.906 M
6.447 12.281 5.564 11.32 QT
4.682 10.359 3.229 10.359 QT
1.572 10.359 0.572 11.289 QT
-0.428 12.219 -0.568 13.922 QT
6.479 13.906 L
cp
13.607 19.188 M
13.607 25.578 L
11.623 25.578 L
11.623 8.969 L
13.607 8.969 L
13.607 10.797 L
14.232 9.719 15.186 9.195 QT
16.139 8.672 17.451 8.672 QT
19.639 8.672 21.014 10.414 QT
22.389 12.156 22.389 15 QT
22.389 17.828 21.014 19.57 QT
19.639 21.313 17.451 21.313 QT
16.139 21.313 15.186 20.789 QT
14.232 20.266 13.607 19.188 QT
cp
20.326 15 M
20.326 12.813 19.436 11.57 QT
18.545 10.328 16.967 10.328 QT
15.404 10.328 14.506 11.57 QT
13.607 12.813 13.607 15 QT
13.607 17.172 14.506 18.414 QT
15.404 19.656 16.967 19.656 QT
18.545 19.656 19.436 18.414 QT
20.326 17.172 20.326 15 QT
cp
f
GR
GS
[1 0 0 1 852 345] CT
0.149 GC
N
2.938 -0.578 M
2.938 -0.734 3.031 -0.859 QT
7.203 -5 L
3.031 -9.156 L
2.938 -9.266 2.938 -9.422 QT
2.938 -9.578 3.055 -9.703 QT
3.172 -9.828 3.344 -9.828 QT
3.484 -9.828 3.641 -9.703 QT
7.781 -5.563 L
11.906 -9.703 L
12.078 -9.828 12.203 -9.828 QT
12.359 -9.828 12.477 -9.711 QT
12.594 -9.594 12.594 -9.422 QT
12.594 -9.266 12.5 -9.156 QT
8.344 -5 L
12.5 -0.859 L
12.594 -0.734 12.594 -0.578 QT
12.594 -0.406 12.477 -0.289 QT
12.359 -0.172 12.203 -0.172 QT
12.047 -0.172 11.906 -0.328 QT
7.781 -4.438 L
3.641 -0.328 L
3.5 -0.172 3.344 -0.172 QT
3.172 -0.172 3.055 -0.305 QT
2.938 -0.438 2.938 -0.578 QT
cp
f
GR
GS
[1 0 0 1 868 345] CT
0.149 GC
N
2.484 -1.656 M
5.703 -1.656 L
5.703 -12.781 L
2.203 -12.078 L
2.203 -13.875 L
5.688 -14.578 L
7.656 -14.578 L
7.656 -1.656 L
10.875 -1.656 L
10.875 0 L
2.484 0 L
2.484 -1.656 L
cp
19.084 -13.281 M
17.553 -13.281 16.787 -11.781 QT
16.021 -10.281 16.021 -7.281 QT
16.021 -4.281 16.787 -2.781 QT
17.553 -1.281 19.084 -1.281 QT
20.615 -1.281 21.381 -2.781 QT
22.146 -4.281 22.146 -7.281 QT
22.146 -10.281 21.381 -11.781 QT
20.615 -13.281 19.084 -13.281 QT
cp
19.084 -14.844 M
21.537 -14.844 22.826 -12.906 QT
24.115 -10.969 24.115 -7.281 QT
24.115 -3.594 22.826 -1.656 QT
21.537 0.281 19.084 0.281 QT
16.631 0.281 15.334 -1.656 QT
14.037 -3.594 14.037 -7.281 QT
14.037 -10.969 15.334 -12.906 QT
16.631 -14.844 19.084 -14.844 QT
cp
f
GR
GS
[1 0 0 1 894 335] CT
0.149 GC
N
5.281 -6.469 M
4.219 -6.469 3.602 -5.742 QT
2.984 -5.016 2.984 -3.75 QT
2.984 -2.484 3.602 -1.758 QT
4.219 -1.031 5.281 -1.031 QT
6.344 -1.031 6.969 -1.758 QT
7.594 -2.484 7.594 -3.75 QT
7.594 -5.016 6.969 -5.742 QT
6.344 -6.469 5.281 -6.469 QT
cp
8.422 -11.406 M
8.422 -9.969 L
7.828 -10.25 7.219 -10.398 QT
6.609 -10.547 6.016 -10.547 QT
4.453 -10.547 3.633 -9.492 QT
2.813 -8.438 2.688 -6.313 QT
3.156 -6.984 3.852 -7.352 QT
4.547 -7.719 5.375 -7.719 QT
7.141 -7.719 8.156 -6.648 QT
9.172 -5.578 9.172 -3.75 QT
9.172 -1.953 8.109 -0.859 QT
7.047 0.234 5.281 0.234 QT
3.266 0.234 2.195 -1.32 QT
1.125 -2.875 1.125 -5.828 QT
1.125 -8.594 2.438 -10.234 QT
3.75 -11.875 5.953 -11.875 QT
6.547 -11.875 7.156 -11.758 QT
7.766 -11.641 8.422 -11.406 QT
cp
f
GR
GS
0.149 GC
2 setlinecap
1 LJ
0.5 LW
N
130 289 M
130 26 L
S
GR
GS
0.149 GC
2 setlinecap
1 LJ
0.5 LW
N
130 289 M
137.75 289 L
S
GR
GS
0.149 GC
2 setlinecap
1 LJ
0.5 LW
N
130 238.905 M
137.75 238.905 L
S
GR
GS
0.149 GC
2 setlinecap
1 LJ
0.5 LW
N
130 188.81 M
137.75 188.81 L
S
GR
GS
0.149 GC
2 setlinecap
1 LJ
0.5 LW
N
130 138.714 M
137.75 138.714 L
S
GR
GS
0.149 GC
2 setlinecap
1 LJ
0.5 LW
N
130 88.619 M
137.75 88.619 L
S
GR
GS
0.149 GC
2 setlinecap
1 LJ
0.5 LW
N
130 38.524 M
137.75 38.524 L
S
GR
GS
[1 0 0 1 124 289] CT
0.149 GC
N
-6.641 -6.281 M
-8.172 -6.281 -8.938 -4.781 QT
-9.703 -3.281 -9.703 -0.281 QT
-9.703 2.719 -8.938 4.219 QT
-8.172 5.719 -6.641 5.719 QT
-5.109 5.719 -4.344 4.219 QT
-3.578 2.719 -3.578 -0.281 QT
-3.578 -3.281 -4.344 -4.781 QT
-5.109 -6.281 -6.641 -6.281 QT
cp
-6.641 -7.844 M
-4.188 -7.844 -2.898 -5.906 QT
-1.609 -3.969 -1.609 -0.281 QT
-1.609 3.406 -2.898 5.344 QT
-4.188 7.281 -6.641 7.281 QT
-9.094 7.281 -10.391 5.344 QT
-11.688 3.406 -11.688 -0.281 QT
-11.688 -3.969 -10.391 -5.906 QT
-9.094 -7.844 -6.641 -7.844 QT
cp
f
GR
GS
[1 0 0 1 124 238.90475] CT
0.149 GC
N
-22.156 5.344 M
-15.281 5.344 L
-15.281 7 L
-24.531 7 L
-24.531 5.344 L
-23.406 4.172 -21.469 2.219 QT
-19.531 0.266 -19.031 -0.313 QT
-18.094 -1.375 -17.719 -2.109 QT
-17.344 -2.844 -17.344 -3.563 QT
-17.344 -4.719 -18.156 -5.453 QT
-18.969 -6.188 -20.281 -6.188 QT
-21.203 -6.188 -22.234 -5.867 QT
-23.266 -5.547 -24.438 -4.891 QT
-24.438 -6.875 L
-23.25 -7.359 -22.211 -7.602 QT
-21.172 -7.844 -20.313 -7.844 QT
-18.047 -7.844 -16.703 -6.711 QT
-15.359 -5.578 -15.359 -3.688 QT
-15.359 -2.781 -15.695 -1.977 QT
-16.031 -1.172 -16.922 -0.078 QT
-17.156 0.203 -18.469 1.555 QT
-19.781 2.906 -22.156 5.344 QT
cp
-6.916 -6.281 M
-8.447 -6.281 -9.213 -4.781 QT
-9.979 -3.281 -9.979 -0.281 QT
-9.979 2.719 -9.213 4.219 QT
-8.447 5.719 -6.916 5.719 QT
-5.385 5.719 -4.619 4.219 QT
-3.854 2.719 -3.854 -0.281 QT
-3.854 -3.281 -4.619 -4.781 QT
-5.385 -6.281 -6.916 -6.281 QT
cp
-6.916 -7.844 M
-4.463 -7.844 -3.174 -5.906 QT
-1.885 -3.969 -1.885 -0.281 QT
-1.885 3.406 -3.174 5.344 QT
-4.463 7.281 -6.916 7.281 QT
-9.369 7.281 -10.666 5.344 QT
-11.963 3.406 -11.963 -0.281 QT
-11.963 -3.969 -10.666 -5.906 QT
-9.369 -7.844 -6.916 -7.844 QT
cp
f
GR
GS
[1 0 0 1 124 188.80952] CT
0.149 GC
N
-18.438 -5.859 M
-23.422 1.922 L
-18.438 1.922 L
-18.438 -5.859 L
cp
-18.953 -7.578 M
-16.484 -7.578 L
-16.484 1.922 L
-14.391 1.922 L
-14.391 3.563 L
-16.484 3.563 L
-16.484 7 L
-18.438 7 L
-18.438 3.563 L
-25.016 3.563 L
-25.016 1.656 L
-18.953 -7.578 L
cp
-6.916 -6.281 M
-8.447 -6.281 -9.213 -4.781 QT
-9.979 -3.281 -9.979 -0.281 QT
-9.979 2.719 -9.213 4.219 QT
-8.447 5.719 -6.916 5.719 QT
-5.385 5.719 -4.619 4.219 QT
-3.854 2.719 -3.854 -0.281 QT
-3.854 -3.281 -4.619 -4.781 QT
-5.385 -6.281 -6.916 -6.281 QT
cp
-6.916 -7.844 M
-4.463 -7.844 -3.174 -5.906 QT
-1.885 -3.969 -1.885 -0.281 QT
-1.885 3.406 -3.174 5.344 QT
-4.463 7.281 -6.916 7.281 QT
-9.369 7.281 -10.666 5.344 QT
-11.963 3.406 -11.963 -0.281 QT
-11.963 -3.969 -10.666 -5.906 QT
-9.369 -7.844 -6.916 -7.844 QT
cp
f
GR
GS
[1 0 0 1 124 138.71428] CT
0.149 GC
N
-19.391 -1.078 M
-20.719 -1.078 -21.5 -0.172 QT
-22.281 0.734 -22.281 2.328 QT
-22.281 3.891 -21.5 4.805 QT
-20.719 5.719 -19.391 5.719 QT
-18.063 5.719 -17.289 4.805 QT
-16.516 3.891 -16.516 2.328 QT
-16.516 0.734 -17.289 -0.172 QT
-18.063 -1.078 -19.391 -1.078 QT
cp
-15.484 -7.266 M
-15.484 -5.469 L
-16.219 -5.813 -16.977 -6 QT
-17.734 -6.188 -18.484 -6.188 QT
-20.438 -6.188 -21.469 -4.867 QT
-22.5 -3.547 -22.641 -0.875 QT
-22.063 -1.734 -21.195 -2.188 QT
-20.328 -2.641 -19.281 -2.641 QT
-17.078 -2.641 -15.805 -1.305 QT
-14.531 0.031 -14.531 2.328 QT
-14.531 4.563 -15.859 5.922 QT
-17.188 7.281 -19.391 7.281 QT
-21.922 7.281 -23.266 5.344 QT
-24.609 3.406 -24.609 -0.281 QT
-24.609 -3.734 -22.969 -5.789 QT
-21.328 -7.844 -18.563 -7.844 QT
-17.813 -7.844 -17.055 -7.695 QT
-16.297 -7.547 -15.484 -7.266 QT
cp
-6.916 -6.281 M
-8.447 -6.281 -9.213 -4.781 QT
-9.979 -3.281 -9.979 -0.281 QT
-9.979 2.719 -9.213 4.219 QT
-8.447 5.719 -6.916 5.719 QT
-5.385 5.719 -4.619 4.219 QT
-3.854 2.719 -3.854 -0.281 QT
-3.854 -3.281 -4.619 -4.781 QT
-5.385 -6.281 -6.916 -6.281 QT
cp
-6.916 -7.844 M
-4.463 -7.844 -3.174 -5.906 QT
-1.885 -3.969 -1.885 -0.281 QT
-1.885 3.406 -3.174 5.344 QT
-4.463 7.281 -6.916 7.281 QT
-9.369 7.281 -10.666 5.344 QT
-11.963 3.406 -11.963 -0.281 QT
-11.963 -3.969 -10.666 -5.906 QT
-9.369 -7.844 -6.916 -7.844 QT
cp
f
GR
GS
[1 0 0 1 124 88.61905] CT
0.149 GC
N
-19.641 0.078 M
-21.047 0.078 -21.852 0.828 QT
-22.656 1.578 -22.656 2.891 QT
-22.656 4.219 -21.852 4.969 QT
-21.047 5.719 -19.641 5.719 QT
-18.234 5.719 -17.422 4.961 QT
-16.609 4.203 -16.609 2.891 QT
-16.609 1.578 -17.414 0.828 QT
-18.219 0.078 -19.641 0.078 QT
cp
-21.609 -0.766 M
-22.891 -1.078 -23.594 -1.945 QT
-24.297 -2.813 -24.297 -4.063 QT
-24.297 -5.813 -23.055 -6.828 QT
-21.813 -7.844 -19.641 -7.844 QT
-17.469 -7.844 -16.227 -6.828 QT
-14.984 -5.813 -14.984 -4.063 QT
-14.984 -2.813 -15.695 -1.945 QT
-16.406 -1.078 -17.656 -0.766 QT
-16.234 -0.438 -15.438 0.531 QT
-14.641 1.5 -14.641 2.891 QT
-14.641 5.016 -15.938 6.148 QT
-17.234 7.281 -19.641 7.281 QT
-22.047 7.281 -23.344 6.148 QT
-24.641 5.016 -24.641 2.891 QT
-24.641 1.5 -23.844 0.531 QT
-23.047 -0.438 -21.609 -0.766 QT
cp
-22.344 -3.875 M
-22.344 -2.75 -21.633 -2.117 QT
-20.922 -1.484 -19.641 -1.484 QT
-18.375 -1.484 -17.656 -2.117 QT
-16.938 -2.75 -16.938 -3.875 QT
-16.938 -5.016 -17.656 -5.648 QT
-18.375 -6.281 -19.641 -6.281 QT
-20.922 -6.281 -21.633 -5.648 QT
-22.344 -5.016 -22.344 -3.875 QT
cp
-6.916 -6.281 M
-8.447 -6.281 -9.213 -4.781 QT
-9.979 -3.281 -9.979 -0.281 QT
-9.979 2.719 -9.213 4.219 QT
-8.447 5.719 -6.916 5.719 QT
-5.385 5.719 -4.619 4.219 QT
-3.854 2.719 -3.854 -0.281 QT
-3.854 -3.281 -4.619 -4.781 QT
-5.385 -6.281 -6.916 -6.281 QT
cp
-6.916 -7.844 M
-4.463 -7.844 -3.174 -5.906 QT
-1.885 -3.969 -1.885 -0.281 QT
-1.885 3.406 -3.174 5.344 QT
-4.463 7.281 -6.916 7.281 QT
-9.369 7.281 -10.666 5.344 QT
-11.963 3.406 -11.963 -0.281 QT
-11.963 -3.969 -10.666 -5.906 QT
-9.369 -7.844 -6.916 -7.844 QT
cp
f
GR
GS
[1 0 0 1 124 38.52381] CT
0.149 GC
N
-36.516 5.344 M
-33.297 5.344 L
-33.297 -5.781 L
-36.797 -5.078 L
-36.797 -6.875 L
-33.313 -7.578 L
-31.344 -7.578 L
-31.344 5.344 L
-28.125 5.344 L
-28.125 7 L
-36.516 7 L
-36.516 5.344 L
cp
-19.916 -6.281 M
-21.447 -6.281 -22.213 -4.781 QT
-22.979 -3.281 -22.979 -0.281 QT
-22.979 2.719 -22.213 4.219 QT
-21.447 5.719 -19.916 5.719 QT
-18.385 5.719 -17.619 4.219 QT
-16.854 2.719 -16.854 -0.281 QT
-16.854 -3.281 -17.619 -4.781 QT
-18.385 -6.281 -19.916 -6.281 QT
cp
-19.916 -7.844 M
-17.463 -7.844 -16.174 -5.906 QT
-14.885 -3.969 -14.885 -0.281 QT
-14.885 3.406 -16.174 5.344 QT
-17.463 7.281 -19.916 7.281 QT
-22.369 7.281 -23.666 5.344 QT
-24.963 3.406 -24.963 -0.281 QT
-24.963 -3.969 -23.666 -5.906 QT
-22.369 -7.844 -19.916 -7.844 QT
cp
-7.191 -6.281 M
-8.723 -6.281 -9.488 -4.781 QT
-10.254 -3.281 -10.254 -0.281 QT
-10.254 2.719 -9.488 4.219 QT
-8.723 5.719 -7.191 5.719 QT
-5.66 5.719 -4.895 4.219 QT
-4.129 2.719 -4.129 -0.281 QT
-4.129 -3.281 -4.895 -4.781 QT
-5.66 -6.281 -7.191 -6.281 QT
cp
-7.191 -7.844 M
-4.738 -7.844 -3.449 -5.906 QT
-2.16 -3.969 -2.16 -0.281 QT
-2.16 3.406 -3.449 5.344 QT
-4.738 7.281 -7.191 7.281 QT
-9.645 7.281 -10.941 5.344 QT
-12.238 3.406 -12.238 -0.281 QT
-12.238 -3.969 -10.941 -5.906 QT
-9.645 -7.844 -7.191 -7.844 QT
cp
f
GR
GS
[0 -1 1 0 82 157.49988] CT
0.149 GC
N
-113.063 -22.031 M
-99.5 -22.031 L
-99.5 -20.219 L
-105.188 -20.219 L
-105.188 -6 L
-107.375 -6 L
-107.375 -20.219 L
-113.063 -20.219 L
-113.063 -22.031 L
cp
-92.015 -12.047 M
-94.421 -12.047 -95.343 -11.5 QT
-96.265 -10.953 -96.265 -9.625 QT
-96.265 -8.578 -95.569 -7.961 QT
-94.874 -7.344 -93.687 -7.344 QT
-92.046 -7.344 -91.054 -8.508 QT
-90.062 -9.672 -90.062 -11.609 QT
-90.062 -12.047 L
-92.015 -12.047 L
cp
-88.077 -12.859 M
-88.077 -6 L
-90.062 -6 L
-90.062 -7.828 L
-90.733 -6.734 -91.741 -6.211 QT
-92.749 -5.688 -94.218 -5.688 QT
-96.062 -5.688 -97.147 -6.727 QT
-98.233 -7.766 -98.233 -9.5 QT
-98.233 -11.531 -96.874 -12.563 QT
-95.515 -13.594 -92.827 -13.594 QT
-90.062 -13.594 L
-90.062 -13.781 L
-90.062 -15.156 -90.952 -15.898 QT
-91.843 -16.641 -93.468 -16.641 QT
-94.499 -16.641 -95.476 -16.398 QT
-96.452 -16.156 -97.358 -15.656 QT
-97.358 -17.484 L
-96.28 -17.906 -95.257 -18.117 QT
-94.233 -18.328 -93.265 -18.328 QT
-90.655 -18.328 -89.366 -16.969 QT
-88.077 -15.609 -88.077 -12.859 QT
cp
-77.033 -16.188 M
-77.361 -16.375 -77.76 -16.469 QT
-78.158 -16.563 -78.627 -16.563 QT
-80.299 -16.563 -81.197 -15.469 QT
-82.096 -14.375 -82.096 -12.344 QT
-82.096 -6 L
-84.08 -6 L
-84.08 -18.031 L
-82.096 -18.031 L
-82.096 -16.156 L
-81.471 -17.266 -80.471 -17.797 QT
-79.471 -18.328 -78.049 -18.328 QT
-77.846 -18.328 -77.596 -18.297 QT
-77.346 -18.266 -77.049 -18.219 QT
-77.033 -16.188 L
cp
-67.051 -12.156 M
-67.051 -14.297 -67.934 -15.484 QT
-68.816 -16.672 -70.41 -16.672 QT
-72.004 -16.672 -72.895 -15.484 QT
-73.785 -14.297 -73.785 -12.156 QT
-73.785 -10.016 -72.895 -8.836 QT
-72.004 -7.656 -70.41 -7.656 QT
-68.816 -7.656 -67.934 -8.836 QT
-67.051 -10.016 -67.051 -12.156 QT
cp
-65.066 -7.5 M
-65.066 -4.422 -66.434 -2.922 QT
-67.801 -1.422 -70.613 -1.422 QT
-71.66 -1.422 -72.582 -1.578 QT
-73.504 -1.734 -74.363 -2.063 QT
-74.363 -3.984 L
-73.504 -3.5 -72.652 -3.281 QT
-71.801 -3.063 -70.926 -3.063 QT
-68.973 -3.063 -68.012 -4.078 QT
-67.051 -5.094 -67.051 -7.141 QT
-67.051 -8.109 L
-67.66 -7.047 -68.613 -6.523 QT
-69.566 -6 -70.895 -6 QT
-73.113 -6 -74.465 -7.688 QT
-75.816 -9.375 -75.816 -12.156 QT
-75.816 -14.953 -74.465 -16.641 QT
-73.113 -18.328 -70.895 -18.328 QT
-69.566 -18.328 -68.613 -17.797 QT
-67.66 -17.266 -67.051 -16.203 QT
-67.051 -18.031 L
-65.066 -18.031 L
-65.066 -7.5 L
cp
-50.711 -12.516 M
-50.711 -11.547 L
-59.789 -11.547 L
-59.664 -9.5 -58.563 -8.43 QT
-57.461 -7.359 -55.492 -7.359 QT
-54.352 -7.359 -53.289 -7.641 QT
-52.227 -7.922 -51.164 -8.484 QT
-51.164 -6.609 L
-52.227 -6.156 -53.344 -5.922 QT
-54.461 -5.688 -55.617 -5.688 QT
-58.492 -5.688 -60.172 -7.367 QT
-61.852 -9.047 -61.852 -11.891 QT
-61.852 -14.859 -60.258 -16.594 QT
-58.664 -18.328 -55.961 -18.328 QT
-53.523 -18.328 -52.117 -16.766 QT
-50.711 -15.203 -50.711 -12.516 QT
cp
-52.68 -13.094 M
-52.711 -14.719 -53.594 -15.68 QT
-54.477 -16.641 -55.93 -16.641 QT
-57.586 -16.641 -58.586 -15.711 QT
-59.586 -14.781 -59.727 -13.078 QT
-52.68 -13.094 L
cp
-45.504 -21.453 M
-45.504 -18.031 L
-41.441 -18.031 L
-41.441 -16.5 L
-45.504 -16.5 L
-45.504 -9.969 L
-45.504 -8.5 -45.105 -8.078 QT
-44.707 -7.656 -43.473 -7.656 QT
-41.441 -7.656 L
-41.441 -6 L
-43.473 -6 L
-45.754 -6 -46.621 -6.852 QT
-47.488 -7.703 -47.488 -9.969 QT
-47.488 -16.5 L
-48.941 -16.5 L
-48.941 -18.031 L
-47.488 -18.031 L
-47.488 -21.453 L
-45.504 -21.453 L
cp
-31.159 -17.672 M
-31.159 -15.813 L
-32.003 -16.234 -32.909 -16.453 QT
-33.815 -16.672 -34.769 -16.672 QT
-36.253 -16.672 -36.987 -16.219 QT
-37.722 -15.766 -37.722 -14.859 QT
-37.722 -14.172 -37.19 -13.781 QT
-36.659 -13.391 -35.081 -13.031 QT
-34.394 -12.891 L
-32.3 -12.438 -31.409 -11.617 QT
-30.519 -10.797 -30.519 -9.313 QT
-30.519 -7.641 -31.847 -6.664 QT
-33.175 -5.688 -35.487 -5.688 QT
-36.456 -5.688 -37.503 -5.875 QT
-38.55 -6.063 -39.722 -6.438 QT
-39.722 -8.484 L
-38.628 -7.906 -37.558 -7.625 QT
-36.487 -7.344 -35.456 -7.344 QT
-34.05 -7.344 -33.3 -7.82 QT
-32.55 -8.297 -32.55 -9.172 QT
-32.55 -9.969 -33.097 -10.398 QT
-33.644 -10.828 -35.472 -11.234 QT
-36.159 -11.391 L
-38.003 -11.781 -38.815 -12.578 QT
-39.628 -13.375 -39.628 -14.781 QT
-39.628 -16.469 -38.425 -17.398 QT
-37.222 -18.328 -35.019 -18.328 QT
-33.909 -18.328 -32.948 -18.164 QT
-31.987 -18 -31.159 -17.672 QT
cp
-13.407 -16.188 M
-13.735 -16.375 -14.134 -16.469 QT
-14.532 -16.563 -15.001 -16.563 QT
-16.673 -16.563 -17.571 -15.469 QT
-18.47 -14.375 -18.47 -12.344 QT
-18.47 -6 L
-20.454 -6 L
-20.454 -18.031 L
-18.47 -18.031 L
-18.47 -16.156 L
-17.845 -17.266 -16.845 -17.797 QT
-15.845 -18.328 -14.423 -18.328 QT
-14.22 -18.328 -13.97 -18.297 QT
-13.72 -18.266 -13.423 -18.219 QT
-13.407 -16.188 L
cp
-1.05 -12.516 M
-1.05 -11.547 L
-10.128 -11.547 L
-10.003 -9.5 -8.901 -8.43 QT
-7.8 -7.359 -5.831 -7.359 QT
-4.69 -7.359 -3.628 -7.641 QT
-2.565 -7.922 -1.503 -8.484 QT
-1.503 -6.609 L
-2.565 -6.156 -3.683 -5.922 QT
-4.8 -5.688 -5.956 -5.688 QT
-8.831 -5.688 -10.511 -7.367 QT
-12.19 -9.047 -12.19 -11.891 QT
-12.19 -14.859 -10.597 -16.594 QT
-9.003 -18.328 -6.3 -18.328 QT
-3.862 -18.328 -2.456 -16.766 QT
-1.05 -15.203 -1.05 -12.516 QT
cp
-3.019 -13.094 M
-3.05 -14.719 -3.933 -15.68 QT
-4.815 -16.641 -6.269 -16.641 QT
-7.925 -16.641 -8.925 -15.711 QT
-9.925 -14.781 -10.065 -13.078 QT
-3.019 -13.094 L
cp
7.673 -12.047 M
5.267 -12.047 4.345 -11.5 QT
3.423 -10.953 3.423 -9.625 QT
3.423 -8.578 4.118 -7.961 QT
4.813 -7.344 6.001 -7.344 QT
7.642 -7.344 8.634 -8.508 QT
9.626 -9.672 9.626 -11.609 QT
9.626 -12.047 L
7.673 -12.047 L
cp
11.61 -12.859 M
11.61 -6 L
9.626 -6 L
9.626 -7.828 L
8.954 -6.734 7.946 -6.211 QT
6.938 -5.688 5.47 -5.688 QT
3.626 -5.688 2.54 -6.727 QT
1.454 -7.766 1.454 -9.5 QT
1.454 -11.531 2.813 -12.563 QT
4.173 -13.594 6.86 -13.594 QT
9.626 -13.594 L
9.626 -13.781 L
9.626 -15.156 8.735 -15.898 QT
7.845 -16.641 6.22 -16.641 QT
5.188 -16.641 4.212 -16.398 QT
3.235 -16.156 2.329 -15.656 QT
2.329 -17.484 L
3.407 -17.906 4.431 -18.117 QT
5.454 -18.328 6.423 -18.328 QT
9.032 -18.328 10.321 -16.969 QT
11.61 -15.609 11.61 -12.859 QT
cp
24.342 -17.563 M
24.342 -15.719 L
23.498 -16.188 22.654 -16.414 QT
21.811 -16.641 20.951 -16.641 QT
19.029 -16.641 17.967 -15.422 QT
16.904 -14.203 16.904 -12 QT
16.904 -9.797 17.967 -8.578 QT
19.029 -7.359 20.951 -7.359 QT
21.811 -7.359 22.654 -7.594 QT
23.498 -7.828 24.342 -8.281 QT
24.342 -6.469 L
23.514 -6.078 22.623 -5.883 QT
21.732 -5.688 20.748 -5.688 QT
18.029 -5.688 16.428 -7.398 QT
14.826 -9.109 14.826 -12 QT
14.826 -14.953 16.443 -16.641 QT
18.061 -18.328 20.873 -18.328 QT
21.779 -18.328 22.654 -18.141 QT
23.529 -17.953 24.342 -17.563 QT
cp
37.781 -13.266 M
37.781 -6 L
35.797 -6 L
35.797 -13.203 L
35.797 -14.906 35.133 -15.758 QT
34.469 -16.609 33.141 -16.609 QT
31.531 -16.609 30.609 -15.586 QT
29.688 -14.563 29.688 -12.797 QT
29.688 -6 L
27.703 -6 L
27.703 -22.719 L
29.688 -22.719 L
29.688 -16.156 L
30.391 -17.25 31.359 -17.789 QT
32.328 -18.328 33.578 -18.328 QT
35.656 -18.328 36.719 -17.039 QT
37.781 -15.75 37.781 -13.266 QT
cp
52.006 -12.516 M
52.006 -11.547 L
42.928 -11.547 L
43.053 -9.5 44.154 -8.43 QT
45.256 -7.359 47.225 -7.359 QT
48.365 -7.359 49.428 -7.641 QT
50.49 -7.922 51.553 -8.484 QT
51.553 -6.609 L
50.49 -6.156 49.373 -5.922 QT
48.256 -5.688 47.1 -5.688 QT
44.225 -5.688 42.545 -7.367 QT
40.865 -9.047 40.865 -11.891 QT
40.865 -14.859 42.459 -16.594 QT
44.053 -18.328 46.756 -18.328 QT
49.193 -18.328 50.6 -16.766 QT
52.006 -15.203 52.006 -12.516 QT
cp
50.037 -13.094 M
50.006 -14.719 49.123 -15.68 QT
48.24 -16.641 46.787 -16.641 QT
45.131 -16.641 44.131 -15.711 QT
43.131 -14.781 42.99 -13.078 QT
50.037 -13.094 L
cp
63.166 -16.203 M
63.166 -22.719 L
65.15 -22.719 L
65.15 -6 L
63.166 -6 L
63.166 -7.813 L
62.557 -6.734 61.604 -6.211 QT
60.65 -5.688 59.322 -5.688 QT
57.135 -5.688 55.768 -7.43 QT
54.4 -9.172 54.4 -12 QT
54.4 -14.844 55.768 -16.586 QT
57.135 -18.328 59.322 -18.328 QT
60.65 -18.328 61.604 -17.805 QT
62.557 -17.281 63.166 -16.203 QT
cp
56.432 -12 M
56.432 -9.828 57.33 -8.586 QT
58.229 -7.344 59.807 -7.344 QT
61.369 -7.344 62.268 -8.586 QT
63.166 -9.828 63.166 -12 QT
63.166 -14.188 62.268 -15.43 QT
61.369 -16.672 59.807 -16.672 QT
58.229 -16.672 57.33 -15.43 QT
56.432 -14.188 56.432 -12 QT
cp
76.03 -22.719 M
80.593 -22.719 L
80.593 -21.172 L
78.015 -21.172 L
78.015 -4.641 L
80.593 -4.641 L
80.593 -3.094 L
76.03 -3.094 L
76.03 -22.719 L
cp
98.723 -13.063 M
97.785 -13.063 97.254 -12.266 QT
96.723 -11.469 96.723 -10.047 QT
96.723 -8.656 97.254 -7.852 QT
97.785 -7.047 98.723 -7.047 QT
99.629 -7.047 100.16 -7.852 QT
100.691 -8.656 100.691 -10.047 QT
100.691 -11.453 100.16 -12.258 QT
99.629 -13.063 98.723 -13.063 QT
cp
98.723 -14.422 M
100.41 -14.422 101.41 -13.242 QT
102.41 -12.063 102.41 -10.047 QT
102.41 -8.047 101.41 -6.867 QT
100.41 -5.688 98.723 -5.688 QT
97.004 -5.688 96.004 -6.867 QT
95.004 -8.047 95.004 -10.047 QT
95.004 -12.063 96.004 -13.242 QT
97.004 -14.422 98.723 -14.422 QT
cp
87.629 -20.969 M
86.707 -20.969 86.176 -20.164 QT
85.645 -19.359 85.645 -17.969 QT
85.645 -16.547 86.168 -15.75 QT
86.691 -14.953 87.629 -14.953 QT
88.566 -14.953 89.098 -15.75 QT
89.629 -16.547 89.629 -17.969 QT
89.629 -19.359 89.09 -20.164 QT
88.551 -20.969 87.629 -20.969 QT
cp
97.332 -22.328 M
99.051 -22.328 L
89.02 -5.688 L
87.301 -5.688 L
97.332 -22.328 L
cp
87.629 -22.328 M
89.332 -22.328 90.34 -21.148 QT
91.348 -19.969 91.348 -17.969 QT
91.348 -15.938 90.348 -14.766 QT
89.348 -13.594 87.629 -13.594 QT
85.926 -13.594 84.934 -14.773 QT
83.941 -15.953 83.941 -17.969 QT
83.941 -19.969 84.941 -21.148 QT
85.941 -22.328 87.629 -22.328 QT
cp
110.314 -22.719 M
110.314 -3.094 L
105.768 -3.094 L
105.768 -4.641 L
108.33 -4.641 L
108.33 -21.172 L
105.768 -21.172 L
105.768 -22.719 L
110.314 -22.719 L
cp
f
GR
GS
0 0.447 0.741 RC
1 LJ
0.5 LW
N
169.525 271.109 M
169.913 215.331 L
170.3 188.81 L
170.688 144.495 L
171.075 215.331 L
171.462 253.218 L
171.85 272.302 L
172.238 215.331 L
172.625 219.423 L
173.012 175.147 L
173.4 215.331 L
173.788 242.036 L
174.175 188.81 L
174.563 242.036 L
174.95 205.508 L
175.337 193.581 L
175.725 215.331 L
176.113 230.064 L
176.5 219.423 L
176.887 255.603 L
177.275 209.902 L
177.663 230.064 L
178.05 230.064 L
178.438 215.331 L
178.825 174.198 L
179.212 230.064 L
179.6 271.109 L
179.988 219.423 L
180.375 226.381 L
180.762 209.902 L
181.15 242.036 L
181.538 163.762 L
181.925 238.905 L
182.313 169.207 L
182.7 242.036 L
183.087 255.603 L
183.475 219.423 L
183.863 219.423 L
184.25 242.036 L
184.637 253.218 L
185.025 242.036 L
185.413 271.109 L
185.8 242.036 L
186.188 215.331 L
186.575 209.902 L
186.962 215.331 L
187.35 219.423 L
187.738 176.286 L
188.125 271.109 L
188.512 230.064 L
188.9 186.532 L
189.288 238.905 L
189.675 201.333 L
190.063 242.036 L
190.45 255.603 L
190.837 205.508 L
191.225 242.036 L
191.613 205.508 L
192 196.719 L
192.387 233.339 L
192.775 205.508 L
193.163 255.603 L
193.55 186.532 L
193.938 230.064 L
194.325 255.603 L
194.712 230.064 L
195.1 253.218 L
195.488 255.603 L
195.875 255.603 L
196.262 242.036 L
196.65 242.036 L
197.038 209.902 L
197.425 289 L
197.813 242.036 L
198.2 272.302 L
198.587 181.653 L
198.975 242.036 L
199.363 242.036 L
199.75 219.423 L
200.137 272.302 L
200.525 242.036 L
200.913 253.218 L
201.3 242.036 L
201.688 230.064 L
202.075 219.423 L
202.462 215.331 L
202.85 289 L
203.238 219.423 L
203.625 205.508 L
204.012 205.508 L
204.4 215.331 L
204.788 205.508 L
205.175 230.064 L
205.563 242.036 L
205.95 230.064 L
206.337 205.508 L
206.725 185.863 L
207.113 230.064 L
207.5 154.128 L
207.887 209.902 L
208.275 226.381 L
208.663 255.603 L
209.05 183.536 L
209.438 242.036 L
209.825 230.064 L
210.212 181.653 L
210.6 238.905 L
210.988 269.733 L
211.375 219.423 L
211.762 230.064 L
212.15 191.593 L
212.538 171.129 L
212.925 196.719 L
213.313 255.603 L
213.7 255.603 L
214.087 205.508 L
214.475 185.863 L
214.863 152.377 L
215.25 171.129 L
215.637 183.536 L
216.025 163.762 L
216.413 175.147 L
216.8 125.646 L
217.188 151.238 L
217.575 103.462 L
217.962 152.377 L
218.35 157.17 L
218.738 175.147 L
219.125 122.016 L
219.512 163.762 L
219.9 151.238 L
220.288 138.714 L
220.675 106.836 L
221.063 151.238 L
221.45 103.865 L
221.837 101.143 L
222.225 151.238 L
222.613 157.798 L
223 151.238 L
223.387 118.221 L
223.775 133.943 L
224.163 142.889 L
224.55 183.536 L
224.938 138.714 L
225.325 142.889 L
225.712 145.871 L
226.1 157.17 L
226.488 157.17 L
226.875 196.719 L
227.262 128.695 L
227.65 157.798 L
228.038 145.871 L
228.425 200.597 L
228.813 191.593 L
229.2 153.325 L
229.587 163.762 L
229.975 133.532 L
230.363 169.726 L
230.75 177.677 L
231.137 188.81 L
231.525 196.719 L
231.913 181.653 L
232.3 219.423 L
232.688 200.597 L
233.075 176.286 L
233.462 158.317 L
233.85 158.317 L
234.238 210.726 L
234.625 158.317 L
235.012 196.719 L
235.4 169.726 L
235.788 183.536 L
236.175 138.714 L
236.563 147.426 L
236.95 191.593 L
237.337 242.036 L
237.725 152.377 L
238.113 177.677 L
238.5 200.597 L
238.887 131.293 L
239.275 196.719 L
239.663 195.071 L
240.05 151.238 L
240.438 183.536 L
240.825 125.646 L
241.212 142.889 L
241.6 145.871 L
241.988 158.317 L
242.375 163.762 L
242.762 255.603 L
243.15 181.653 L
243.538 200.597 L
243.925 142.889 L
244.313 195.071 L
244.7 147.426 L
245.087 94.185 L
245.475 136.536 L
245.863 119.034 L
246.25 176.286 L
246.637 112.739 L
247.025 133.943 L
247.413 163.762 L
247.8 122.016 L
248.188 193.581 L
248.575 140.991 L
248.962 128.695 L
249.35 125.646 L
249.738 183.536 L
250.125 170.353 L
250.512 147.426 L
250.9 176.286 L
251.288 132.452 L
251.675 142.889 L
252.063 177.677 L
252.45 108.657 L
252.837 151.238 L
253.225 122.016 L
253.613 132.452 L
254 157.17 L
254.387 110.088 L
254.775 147.426 L
255.163 157.798 L
255.55 112.739 L
255.938 177.677 L
256.325 130.365 L
256.712 91.655 L
257.1 97.459 L
257.487 169.726 L
257.875 169.207 L
258.263 176.286 L
258.65 116.798 L
259.038 116.258 L
259.425 142.889 L
259.813 111.243 L
260.2 119.323 L
260.587 122.016 L
260.975 140.57 L
261.362 90.092 L
261.75 169.726 L
262.138 85.911 L
262.525 144.495 L
262.913 169.207 L
263.3 95.776 L
263.688 133.532 L
264.075 108.97 L
264.462 132.452 L
264.85 83.481 L
265.237 108.97 L
265.625 95.776 L
266.013 92.681 L
266.4 91.256 L
266.788 105.317 L
267.175 98.984 L
267.563 64.214 L
267.95 119.323 L
268.337 95.083 L
268.725 158.752 L
269.112 158.317 L
269.5 76.095 L
269.888 90.092 L
270.275 108.97 L
270.663 106.836 L
271.05 116.798 L
271.438 83.481 L
271.825 108.97 L
272.212 79.142 L
272.6 119.034 L
272.987 134.861 L
273.375 101.143 L
273.763 122.016 L
274.15 96.326 L
274.538 93.506 L
274.925 115.593 L
275.313 102.932 L
275.7 158.317 L
276.087 86.234 L
276.475 106.22 L
276.862 122.016 L
277.25 148.733 L
277.638 82.085 L
278.025 118.221 L
278.413 153.325 L
278.8 96.968 L
279.188 81.463 L
279.575 97.459 L
279.962 101.143 L
280.35 96.968 L
280.737 70.636 L
281.125 142.889 L
281.513 108.97 L
281.9 138.714 L
282.288 140.57 L
282.675 112.739 L
283.063 90.092 L
283.45 131.293 L
283.837 122.016 L
284.225 158.317 L
284.612 80.27 L
285 91.655 L
285.388 102.932 L
285.775 84.664 L
286.163 140.57 L
286.55 108.657 L
286.938 131.293 L
287.325 129.606 L
287.712 87.003 L
288.1 84.908 L
288.487 128.695 L
288.875 77.059 L
289.263 101.143 L
289.65 132.452 L
290.038 125.227 L
290.425 122.016 L
290.813 112.739 L
291.2 92.681 L
291.587 163.762 L
291.975 119.323 L
292.362 103.163 L
292.75 127.98 L
293.138 98.984 L
293.525 118.676 L
293.913 103.462 L
294.3 77.661 L
294.688 105.317 L
295.075 163.762 L
295.462 128.695 L
295.85 147.426 L
296.237 145.871 L
296.625 147.426 L
297.013 136.536 L
297.4 129.606 L
297.788 119.323 L
298.175 119.034 L
298.563 118.676 L
298.95 142.889 L
299.337 118.676 L
299.725 103.462 L
300.112 106.836 L
300.5 122.016 L
300.888 176.286 L
301.275 157.798 L
301.663 96.968 L
302.05 105.96 L
302.438 157.798 L
302.825 116.258 L
303.212 118.676 L
303.6 112.739 L
303.987 122.016 L
304.375 147.426 L
304.763 116.798 L
305.15 101.143 L
305.538 134.861 L
305.925 125.227 L
306.313 88.619 L
306.7 95.083 L
307.087 140.991 L
307.475 104.826 L
307.862 131.293 L
308.25 140.57 L
308.638 127.98 L
309.025 106.836 L
309.413 125.646 L
309.8 138.714 L
310.188 114.756 L
310.575 110.088 L
310.962 111.243 L
311.35 188.81 L
311.737 122.016 L
312.125 122.016 L
312.513 142.889 L
312.9 170.353 L
313.288 181.653 L
313.675 92.197 L
314.063 125.227 L
314.45 122.016 L
314.837 142.889 L
315.225 112.739 L
315.612 134.861 L
316 112.739 L
316.388 110.088 L
316.775 118.676 L
317.163 112.739 L
317.55 133.943 L
317.938 111.243 L
318.325 82.725 L
318.712 122.016 L
319.1 147.426 L
319.487 157.798 L
319.875 116.258 L
320.263 127.98 L
320.65 92.197 L
321.038 132.452 L
321.425 122.016 L
321.813 105.317 L
322.2 142.889 L
322.587 103.462 L
322.975 67.992 L
323.362 116.258 L
323.75 116.258 L
324.138 95.083 L
324.525 90.346 L
324.913 105.317 L
325.3 122.016 L
325.688 111.243 L
326.075 147.426 L
326.462 118.676 L
326.85 105.96 L
327.237 115.593 L
327.625 122.016 L
328.013 157.798 L
328.4 153.325 L
328.788 124.895 L
329.175 103.462 L
329.563 68.885 L
329.95 76.475 L
330.337 108.657 L
330.725 138.714 L
331.112 84.065 L
331.5 169.726 L
331.888 122.016 L
332.275 142.889 L
332.663 119.034 L
333.05 148.733 L
333.438 107.621 L
333.825 118.676 L
334.212 82.725 L
334.6 122.016 L
334.987 96.968 L
335.375 125.646 L
335.763 122.016 L
336.15 132.452 L
336.538 138.714 L
336.925 85.488 L
337.313 115.593 L
337.7 131.293 L
338.087 136.536 L
338.475 110.088 L
338.862 125.227 L
339.25 136.925 L
339.638 140.57 L
340.025 183.536 L
340.413 118.676 L
340.8 138.714 L
341.188 108.657 L
341.575 170.353 L
341.962 128.695 L
342.35 108.657 L
342.737 147.426 L
343.125 108.657 L
343.513 118.221 L
343.9 81.709 L
344.288 105.96 L
344.675 122.016 L
345.063 115.593 L
345.45 128.695 L
345.837 116.258 L
346.225 122.016 L
346.612 107.621 L
347 62.763 L
347.388 111.579 L
347.775 127.98 L
348.163 115.593 L
348.55 142.889 L
348.938 101.143 L
349.325 107.621 L
349.712 95.083 L
350.1 105.317 L
350.487 140.57 L
350.875 128.695 L
351.263 111.579 L
351.65 152.377 L
352.038 67.15 L
352.425 85.488 L
352.813 58.298 L
353.2 80.27 L
353.587 101.143 L
353.975 108.657 L
354.362 103.462 L
354.75 62.379 L
355.138 92.197 L
355.525 79.142 L
355.913 75.359 L
356.3 65.602 L
356.688 38.524 L
357.075 88.619 L
357.462 81.709 L
357.85 53.258 L
358.237 78.923 L
358.625 98.638 L
359.013 74.306 L
359.4 84.908 L
359.788 82.725 L
360.175 58.298 L
360.563 53.704 L
360.95 50.451 L
361.337 70.843 L
361.725 88.619 L
362.112 63.571 L
362.5 63.571 L
362.888 57.791 L
363.275 98.638 L
363.663 67.992 L
364.05 57.791 L
364.438 80.27 L
364.825 70.843 L
365.212 69.833 L
365.6 70.843 L
365.987 75.631 L
366.375 76.475 L
366.763 77.059 L
367.15 70.843 L
367.538 67.649 L
367.925 84.908 L
368.313 74.306 L
368.7 53.258 L
369.087 83.252 L
369.475 64.89 L
369.862 67.992 L
370.25 66.355 L
370.638 59.993 L
371.025 50.742 L
371.413 71.921 L
371.8 101.143 L
372.188 101.143 L
372.575 50.742 L
372.962 81.709 L
373.35 45.293 L
373.737 64.89 L
374.125 101.143 L
374.513 101.143 L
374.9 44.946 L
375.288 105.96 L
375.675 103.865 L
376.063 80.27 L
376.45 69.833 L
376.837 59.397 L
377.225 86.692 L
377.612 51.048 L
378 67.992 L
378.388 62.006 L
378.775 71.921 L
379.163 73.312 L
379.55 86.692 L
379.938 86.692 L
380.325 47.161 L
380.712 94.185 L
381.1 65.602 L
381.487 63.571 L
381.875 83.252 L
382.263 96.326 L
382.65 94.185 L
383.038 70.636 L
383.425 91.256 L
383.813 94.185 L
384.2 83.252 L
384.587 114.756 L
384.975 67.15 L
385.362 88.619 L
385.75 88.619 L
386.138 53.258 L
386.525 80.27 L
386.913 92.197 L
387.3 96.326 L
387.688 58.298 L
388.075 105.96 L
388.462 110.088 L
388.85 54.179 L
389.237 73.312 L
389.625 84.065 L
390.013 63.571 L
390.4 105.96 L
390.788 61.294 L
391.175 98.984 L
391.563 69.833 L
391.95 71.921 L
392.337 84.908 L
392.725 69.833 L
393.112 52.837 L
393.5 88.619 L
393.888 63.571 L
394.275 45.891 L
394.663 87.003 L
395.05 78.6 L
395.438 67.992 L
395.825 71.481 L
396.212 52.439 L
396.6 53.258 L
396.987 60.625 L
397.375 103.163 L
397.763 74.306 L
398.15 74.306 L
398.538 86.692 L
398.925 71.921 L
399.313 70.843 L
399.7 88.619 L
400.087 82.725 L
400.475 59.993 L
400.862 73.072 L
401.25 64.435 L
401.638 84.908 L
402.025 84.908 L
402.413 58.833 L
402.8 75.359 L
403.188 88.619 L
403.575 62.006 L
403.962 81.709 L
404.35 92.197 L
404.737 52.837 L
405.125 78.923 L
405.513 76.475 L
405.9 66.355 L
406.288 88.619 L
406.675 56.851 L
407.063 73.072 L
407.45 55.222 L
407.837 72.372 L
408.225 75.631 L
408.612 129.606 L
409 64.89 L
409.388 67.992 L
409.775 88.619 L
410.163 45.891 L
410.55 90.346 L
410.938 95.45 L
411.325 88.619 L
411.712 81.709 L
412.1 82.725 L
412.487 51.707 L
412.875 74.306 L
413.263 62.379 L
413.65 96.326 L
414.038 87.003 L
414.425 85.488 L
414.813 118.221 L
415.2 122.016 L
415.587 84.908 L
415.975 60.625 L
416.362 88.619 L
416.75 85.488 L
417.138 87.003 L
417.525 82.357 L
417.913 86.692 L
418.3 101.143 L
418.688 83.252 L
419.075 90.346 L
419.462 77.059 L
419.85 65.602 L
420.237 66.355 L
420.625 58.298 L
421.013 84.908 L
421.4 85.488 L
421.788 83.252 L
422.175 101.143 L
422.563 67.425 L
422.95 82.085 L
423.337 88.619 L
423.725 129.606 L
424.112 98.984 L
424.5 88.619 L
424.888 98.984 L
425.275 83.252 L
425.663 63.571 L
426.05 105.317 L
426.438 83.252 L
426.825 83.252 L
427.212 92.197 L
427.6 75.359 L
427.987 81.709 L
428.375 46.351 L
428.763 66.355 L
429.15 83.252 L
429.538 81.709 L
429.925 60.625 L
430.313 98.984 L
430.7 80.27 L
431.087 98.984 L
431.475 85.488 L
431.862 96.326 L
432.25 96.326 L
432.638 110.088 L
433.025 47.469 L
433.413 108.657 L
433.8 85.488 L
434.188 84.065 L
434.575 71.921 L
434.962 96.326 L
435.35 122.016 L
435.737 75.631 L
436.125 71.481 L
436.513 107.621 L
436.9 73.072 L
437.288 84.065 L
437.675 96.326 L
438.063 110.088 L
438.45 81.709 L
438.837 111.579 L
439.225 142.889 L
439.612 83.252 L
440 87.003 L
440.388 103.865 L
440.775 112.739 L
441.163 85.488 L
441.55 68.885 L
441.938 84.065 L
442.325 73.072 L
442.712 62.763 L
443.1 75.631 L
443.487 98.984 L
443.875 98.984 L
444.263 69.833 L
444.65 81.709 L
445.038 84.908 L
445.425 74.306 L
445.813 86.692 L
446.2 157.798 L
446.587 60.625 L
446.975 81.709 L
447.362 118.221 L
447.75 92.197 L
448.138 76.475 L
448.525 81.709 L
448.913 84.065 L
449.3 85.488 L
449.688 101.143 L
450.075 87.003 L
450.462 67.992 L
450.85 69.833 L
451.237 94.185 L
451.625 69.833 L
452.013 98.638 L
452.4 87.003 L
452.788 96.326 L
453.175 65.361 L
453.563 92.197 L
453.95 74.306 L
454.337 77.661 L
454.725 134.861 L
455.112 83.252 L
455.5 66.355 L
455.888 61.294 L
456.275 103.163 L
456.663 101.143 L
457.05 92.197 L
457.438 78.923 L
457.825 67.992 L
458.212 82.725 L
458.6 85.488 L
458.987 92.197 L
459.375 101.143 L
459.763 83.252 L
460.15 71.195 L
460.538 85.488 L
460.925 112.739 L
461.313 81.709 L
461.7 58.298 L
462.087 111.579 L
462.475 81.463 L
462.862 75.359 L
463.25 96.326 L
463.638 76.475 L
464.025 63.571 L
464.413 73.312 L
464.8 53.704 L
465.188 101.143 L
465.575 103.462 L
465.962 116.258 L
466.35 103.865 L
466.737 86.692 L
467.125 83.252 L
467.513 96.326 L
467.9 101.143 L
468.288 98.984 L
468.675 83.252 L
469.063 84.065 L
469.45 108.657 L
469.837 78.923 L
470.225 76.475 L
470.612 63.571 L
471 101.143 L
471.388 106.836 L
471.775 145.871 L
472.163 64.214 L
472.55 88.619 L
472.938 82.725 L
473.325 87.003 L
473.712 95.083 L
474.1 75.631 L
474.487 84.908 L
474.875 83.252 L
475.263 110.088 L
475.65 71.921 L
476.038 59.993 L
476.425 70.843 L
476.813 98.638 L
477.2 78.6 L
477.587 68.885 L
477.975 84.065 L
478.362 68.885 L
478.75 63.571 L
479.138 105.96 L
479.525 88.619 L
479.913 105.96 L
480.3 71.481 L
480.688 74.306 L
481.075 51.048 L
481.462 92.197 L
481.85 108.657 L
482.237 77.661 L
482.625 76.475 L
483.013 94.185 L
483.4 129.606 L
483.788 96.326 L
484.175 63.571 L
484.563 67.992 L
484.95 64.89 L
485.337 92.197 L
485.725 63.571 L
486.112 98.638 L
486.5 84.065 L
486.888 92.197 L
487.275 82.725 L
487.663 64.435 L
488.05 88.619 L
488.438 69.833 L
488.825 73.072 L
489.212 125.227 L
489.6 76.475 L
489.987 81.709 L
490.375 54.684 L
490.763 85.488 L
491.15 77.059 L
491.538 110.088 L
491.925 94.185 L
492.313 69.833 L
492.7 105.96 L
493.087 96.326 L
493.475 88.619 L
493.862 103.865 L
494.25 83.252 L
494.638 54.179 L
495.025 59.397 L
495.413 75.631 L
495.8 96.326 L
496.188 86.692 L
496.575 55.222 L
496.962 76.475 L
497.35 106.836 L
497.737 71.921 L
498.125 58.833 L
498.513 74.306 L
498.9 85.488 L
499.288 73.072 L
499.675 65.361 L
500.063 64.435 L
500.45 96.326 L
500.837 96.968 L
501.225 128.695 L
501.612 84.065 L
502 163.762 L
502.388 71.921 L
502.775 152.377 L
503.163 118.676 L
503.55 94.185 L
503.938 96.326 L
504.325 64.214 L
504.712 85.488 L
505.1 96.968 L
505.487 80.27 L
505.875 103.462 L
506.263 88.619 L
506.65 77.661 L
507.038 106.836 L
507.425 64.435 L
507.813 85.488 L
508.2 163.762 L
508.587 138.714 L
508.975 122.016 L
509.362 85.488 L
509.75 115.593 L
510.138 92.197 L
510.525 78.6 L
510.913 110.088 L
511.3 81.709 L
511.688 63.571 L
512.075 81.709 L
512.463 82.725 L
512.85 86.692 L
513.237 92.197 L
513.625 118.676 L
514.013 94.185 L
514.4 80.27 L
514.787 112.739 L
515.175 77.059 L
515.563 77.059 L
515.95 98.638 L
516.338 93.315 L
516.725 77.059 L
517.112 75.631 L
517.5 90.346 L
517.888 75.631 L
518.275 87.003 L
518.662 114.756 L
519.05 90.346 L
519.438 68.885 L
519.825 101.143 L
520.213 118.221 L
520.6 59.993 L
520.987 74.306 L
521.375 88.619 L
521.763 115.593 L
522.15 96.968 L
522.537 51.369 L
522.925 98.638 L
523.313 62.763 L
523.7 107.621 L
524.088 94.185 L
524.475 77.661 L
524.862 157.17 L
525.25 75.631 L
525.638 81.709 L
526.025 77.059 L
526.412 83.252 L
526.8 86.692 L
527.188 92.197 L
527.575 87.228 L
527.963 107.621 L
528.35 86.692 L
528.737 63.571 L
529.125 111.579 L
529.513 75.359 L
529.9 111.579 L
530.287 84.908 L
530.675 81.709 L
531.063 105.96 L
531.45 114.756 L
531.838 84.065 L
532.225 78.923 L
532.612 83.252 L
533 92.197 L
533.388 110.088 L
533.775 70.843 L
534.162 90.706 L
534.55 84.908 L
534.938 103.462 L
535.325 90.346 L
535.713 69.833 L
536.1 53.704 L
536.487 105.96 L
536.875 95.45 L
537.263 108.657 L
537.65 83.252 L
538.037 67.15 L
538.425 94.185 L
538.813 94.185 L
539.2 77.059 L
539.588 88.619 L
539.975 87.003 L
540.362 77.661 L
540.75 90.706 L
541.138 53.704 L
541.525 92.197 L
541.912 74.306 L
542.3 103.865 L
542.688 72.372 L
543.075 87.003 L
543.463 77.661 L
543.85 128.695 L
544.237 75.631 L
544.625 124.895 L
545.013 71.195 L
545.4 84.065 L
545.787 88.619 L
546.175 62.379 L
546.563 80.27 L
546.95 87.003 L
547.338 83.252 L
547.725 74.306 L
548.112 74.306 L
548.5 78.923 L
548.888 61.294 L
549.275 71.921 L
549.662 70.843 L
550.05 75.359 L
550.438 71.921 L
550.825 54.179 L
551.213 73.072 L
551.6 114.756 L
551.987 78.923 L
552.375 51.707 L
552.763 114.756 L
553.15 96.968 L
553.537 66.355 L
553.925 57.791 L
554.313 90.706 L
554.7 145.871 L
555.088 90.346 L
555.475 94.185 L
555.862 86.692 L
556.25 94.185 L
556.638 69.833 L
557.025 78.923 L
557.412 84.908 L
557.8 80.27 L
558.188 105.317 L
558.575 65.361 L
558.963 57.078 L
559.35 74.306 L
559.737 95.45 L
560.125 74.306 L
560.513 78.6 L
560.9 152.377 L
561.287 69.833 L
561.675 118.676 L
562.063 103.163 L
562.45 90.346 L
562.838 129.606 L
563.225 140.991 L
563.612 101.143 L
564 83.252 L
564.388 83.252 L
564.775 145.871 L
565.162 101.143 L
565.55 78.6 L
565.938 78.923 L
566.325 116.258 L
566.713 111.243 L
567.1 73.072 L
567.487 94.185 L
567.875 74.306 L
568.263 68.885 L
568.65 53.704 L
569.037 129.606 L
569.425 140.991 L
569.813 84.908 L
570.2 74.306 L
570.588 85.488 L
570.975 96.968 L
571.362 62.006 L
571.75 98.638 L
572.138 82.085 L
572.525 70.843 L
572.912 74.306 L
573.3 69.833 L
573.688 66.355 L
574.075 129.606 L
574.463 105.96 L
574.85 88.619 L
575.237 83.252 L
575.625 74.306 L
576.013 71.921 L
576.4 105.96 L
576.787 92.197 L
577.175 105.96 L
577.563 90.706 L
577.95 73.072 L
578.338 92.197 L
578.725 111.579 L
579.112 98.638 L
579.5 98.984 L
579.888 108.657 L
580.275 90.092 L
580.662 68.885 L
581.05 78.923 L
581.438 74.306 L
581.825 98.638 L
582.213 130.805 L
582.6 74.306 L
582.987 77.059 L
583.375 103.163 L
583.763 73.072 L
584.15 90.346 L
584.537 80.27 L
584.925 83.252 L
585.313 126.19 L
585.7 136.536 L
586.088 101.143 L
586.475 88.619 L
586.862 78.073 L
587.25 87.003 L
587.638 98.638 L
588.025 88.619 L
588.412 78.923 L
588.8 170.353 L
589.188 73.072 L
589.575 83.252 L
589.963 94.185 L
590.35 84.908 L
590.737 81.709 L
591.125 101.143 L
591.513 78.6 L
591.9 75.631 L
592.287 101.143 L
592.675 95.083 L
593.063 95.45 L
593.45 96.326 L
593.838 98.638 L
594.225 122.016 L
594.612 77.059 L
595 88.619 L
595.388 126.19 L
595.775 126.19 L
596.162 64.435 L
596.55 69.833 L
596.938 81.709 L
597.325 66.355 L
597.713 59.993 L
598.1 80.27 L
598.487 98.638 L
598.875 85.488 L
599.263 81.709 L
599.65 125.227 L
600.037 125.646 L
600.425 101.143 L
600.813 69.833 L
601.2 91.655 L
601.588 94.185 L
601.975 122.016 L
602.362 62.006 L
602.75 57.31 L
603.138 84.065 L
603.525 73.072 L
603.912 103.163 L
604.3 66.355 L
604.688 105.96 L
605.075 74.306 L
605.463 74.306 L
605.85 73.072 L
606.237 125.646 L
606.625 122.016 L
607.013 98.984 L
607.4 98.984 L
607.787 62.006 L
608.175 92.197 L
608.563 73.072 L
608.95 112.739 L
609.338 95.083 L
609.725 74.306 L
610.112 103.865 L
610.5 98.638 L
610.888 77.661 L
611.275 63.571 L
611.662 80.27 L
612.05 103.462 L
612.438 69.833 L
612.825 85.488 L
613.213 108.657 L
613.6 101.143 L
613.987 118.676 L
614.375 84.908 L
614.763 101.143 L
615.15 75.359 L
615.537 54.684 L
615.925 115.593 L
616.313 81.463 L
616.7 90.346 L
617.088 98.638 L
617.475 118.676 L
617.862 98.638 L
618.25 92.197 L
618.638 122.016 L
619.025 98.638 L
619.412 88.619 L
619.8 128.695 L
620.188 118.221 L
620.575 83.252 L
620.963 122.016 L
621.35 98.638 L
621.737 78.923 L
622.125 95.083 L
622.513 96.326 L
622.9 114.756 L
623.287 57.791 L
623.675 101.143 L
624.063 76.475 L
624.45 87.003 L
624.838 129.606 L
625.225 110.088 L
625.612 94.185 L
626 101.143 L
626.388 96.326 L
626.775 78.923 L
627.162 96.326 L
627.55 75.359 L
627.938 76.475 L
628.325 80.27 L
628.713 103.462 L
629.1 105.96 L
629.487 114.756 L
629.875 133.943 L
630.263 92.197 L
630.65 69.833 L
631.037 87.003 L
631.425 94.185 L
631.813 62.006 L
632.2 81.709 L
632.588 119.034 L
632.975 110.088 L
633.362 151.238 L
633.75 61.824 L
634.138 82.085 L
634.525 96.326 L
634.912 54.179 L
635.3 76.475 L
635.688 84.908 L
636.075 98.161 L
636.463 125.227 L
636.85 73.312 L
637.237 84.908 L
637.625 84.664 L
638.013 74.306 L
638.4 101.143 L
638.787 96.968 L
639.175 94.185 L
639.563 163.762 L
639.95 96.968 L
640.338 101.143 L
640.725 81.709 L
641.112 83.252 L
641.5 70.843 L
641.888 61.294 L
642.275 73.312 L
642.662 70.843 L
643.05 88.619 L
643.438 59.993 L
643.825 61.294 L
644.213 93.315 L
644.6 118.221 L
644.987 68.581 L
645.375 108.657 L
645.763 108.657 L
646.15 96.968 L
646.537 115.593 L
646.925 108.657 L
647.313 90.706 L
647.7 88.619 L
648.088 66.355 L
648.475 138.714 L
648.862 88.619 L
649.25 86.692 L
649.638 122.016 L
650.025 171.129 L
650.412 125.227 L
650.8 79.142 L
651.188 86.692 L
651.575 86.692 L
651.963 75.631 L
652.35 86.692 L
652.737 77.059 L
653.125 74.306 L
653.513 75.631 L
653.9 84.908 L
654.287 81.709 L
654.675 88.619 L
655.063 71.921 L
655.45 84.908 L
655.838 59.993 L
656.225 108.657 L
656.612 68.885 L
657 78.923 L
657.388 114.756 L
657.775 96.968 L
658.162 84.065 L
658.55 90.346 L
658.938 108.657 L
659.325 105.96 L
659.713 80.27 L
660.1 76.475 L
660.487 110.088 L
660.875 90.092 L
661.263 80.27 L
661.65 78.923 L
662.037 131.293 L
662.425 80.27 L
662.813 68.581 L
663.2 111.579 L
663.588 110.088 L
663.975 76.475 L
664.362 98.984 L
664.75 105.96 L
665.138 80.27 L
665.525 95.083 L
665.912 101.143 L
666.3 86.692 L
666.688 78.923 L
667.075 80.27 L
667.463 59.993 L
667.85 110.088 L
668.237 133.943 L
668.625 65.602 L
669.013 67.992 L
669.4 66.355 L
669.787 88.619 L
670.175 122.016 L
670.563 80.27 L
670.95 98.638 L
671.338 127.98 L
671.725 83.252 L
672.112 98.984 L
672.5 78.923 L
672.888 136.536 L
673.275 55.222 L
673.662 108.657 L
674.05 75.631 L
674.438 111.579 L
674.825 95.083 L
675.213 69.833 L
675.6 130.805 L
675.987 114.756 L
676.375 118.676 L
676.763 76.475 L
677.15 84.908 L
677.537 64.435 L
677.925 145.871 L
678.313 118.676 L
678.7 73.072 L
679.088 88.619 L
679.475 101.143 L
679.862 81.709 L
680.25 125.227 L
680.638 86.692 L
681.025 67.992 L
681.412 96.326 L
681.8 54.179 L
682.188 87.003 L
682.575 60.625 L
682.963 170.353 L
683.35 77.661 L
683.737 88.619 L
684.125 81.463 L
684.513 63.571 L
684.9 75.631 L
685.287 111.579 L
685.675 54.684 L
686.063 125.646 L
686.45 145.871 L
686.838 118.676 L
687.225 110.088 L
687.612 96.326 L
688 113.667 L
688.388 114.756 L
688.775 101.143 L
689.162 84.065 L
689.55 83.252 L
689.938 75.359 L
690.325 126.19 L
690.713 84.908 L
691.1 136.536 L
691.487 80.27 L
691.875 73.072 L
692.263 77.661 L
692.65 103.462 L
693.037 101.143 L
693.425 96.326 L
693.813 93.315 L
694.2 106.836 L
694.588 92.197 L
694.975 98.638 L
695.362 70.843 L
695.75 84.908 L
696.138 65.602 L
696.525 101.143 L
696.912 83.252 L
697.3 96.326 L
697.688 122.016 L
698.075 83.252 L
698.463 111.579 L
698.85 71.921 L
699.237 80.27 L
699.625 71.921 L
700.013 85.488 L
700.4 92.197 L
700.787 62.006 L
701.175 78.923 L
701.563 92.975 L
701.95 122.016 L
702.338 111.579 L
702.725 84.908 L
703.112 96.326 L
703.5 108.657 L
703.888 78.923 L
704.275 90.706 L
704.662 96.968 L
705.05 83.252 L
705.438 66.355 L
705.825 118.221 L
706.213 81.709 L
706.6 110.088 L
706.987 98.984 L
707.375 52.439 L
707.763 94.185 L
708.15 78.923 L
708.537 101.143 L
708.925 96.326 L
709.313 77.661 L
709.7 115.593 L
710.088 92.197 L
710.475 98.638 L
710.862 81.709 L
711.25 115.593 L
711.638 101.143 L
712.025 110.088 L
712.412 81.709 L
712.8 84.065 L
713.188 105.96 L
713.575 157.17 L
713.963 92.197 L
714.35 115.593 L
714.737 88.619 L
715.125 88.619 L
715.513 101.143 L
715.9 112.739 L
716.287 59.993 L
716.675 88.619 L
717.063 107.621 L
717.45 84.908 L
717.838 84.908 L
718.225 71.921 L
718.612 94.185 L
719 74.306 L
719.388 88.619 L
719.775 73.072 L
720.162 74.306 L
720.55 59.993 L
720.938 138.714 L
721.325 85.911 L
721.713 54.684 L
722.1 106.836 L
722.487 118.676 L
722.875 59.397 L
723.263 103.462 L
723.65 83.252 L
724.037 115.593 L
724.425 108.657 L
724.813 105.96 L
725.2 93.315 L
725.588 80.27 L
725.975 81.709 L
726.362 101.143 L
726.75 76.475 L
727.138 140.991 L
727.525 88.619 L
727.912 90.346 L
728.3 112.739 L
728.688 96.326 L
729.075 64.435 L
729.463 44.946 L
729.85 84.908 L
730.237 114.756 L
730.625 122.016 L
731.013 69.833 L
731.4 86.692 L
731.787 67.15 L
732.175 90.346 L
732.563 113.667 L
732.95 101.143 L
733.338 81.709 L
733.725 90.346 L
734.112 81.709 L
734.5 73.072 L
734.888 88.619 L
735.275 94.185 L
735.662 84.908 L
736.05 90.346 L
736.438 98.984 L
736.825 101.143 L
737.213 76.095 L
737.6 90.346 L
737.987 75.631 L
738.375 70.843 L
738.763 107.621 L
739.15 71.921 L
739.537 70.843 L
739.925 118.676 L
740.313 118.221 L
740.7 87.003 L
741.088 94.185 L
741.475 87.228 L
741.862 68.885 L
742.25 80.27 L
742.638 77.661 L
743.025 93.315 L
743.412 114.756 L
743.8 98.161 L
744.188 111.579 L
744.575 82.725 L
744.963 101.143 L
745.35 58.833 L
745.737 84.065 L
746.125 95.45 L
746.513 111.579 L
746.9 87.003 L
747.287 83.252 L
747.675 82.085 L
748.063 87.003 L
748.45 96.968 L
748.838 103.163 L
749.225 59.993 L
749.612 67.992 L
750 68.885 L
750.388 75.631 L
750.775 84.065 L
751.162 69.833 L
751.55 90.346 L
751.938 119.034 L
752.325 142.889 L
752.713 95.45 L
753.1 94.185 L
753.487 74.306 L
753.875 114.756 L
754.263 81.709 L
754.65 122.016 L
755.037 136.536 L
755.425 82.725 L
755.813 95.45 L
756.2 88.619 L
756.588 93.315 L
756.975 94.185 L
757.362 58.833 L
757.75 94.185 L
758.138 74.306 L
758.525 85.488 L
758.912 103.462 L
759.3 81.463 L
759.688 103.865 L
760.075 92.197 L
760.463 94.185 L
760.85 94.185 L
761.237 73.312 L
761.625 108.657 L
762.013 118.221 L
762.4 61.294 L
762.787 93.315 L
763.175 86.692 L
763.563 86.692 L
763.95 101.143 L
764.338 101.143 L
764.725 94.185 L
765.112 90.346 L
765.5 96.326 L
765.888 98.638 L
766.275 105.317 L
766.662 75.631 L
767.05 118.221 L
767.438 76.475 L
767.825 74.306 L
768.213 122.016 L
768.6 74.306 L
768.987 63.571 L
769.375 126.19 L
769.763 73.072 L
770.15 113.667 L
770.537 103.462 L
770.925 92.197 L
771.313 107.621 L
771.7 80.27 L
772.088 110.088 L
772.475 106.836 L
772.862 68.885 L
773.25 64.615 L
773.638 98.638 L
774.025 118.676 L
774.412 81.463 L
774.8 73.312 L
775.188 62.763 L
775.575 61.294 L
775.963 92.197 L
776.35 125.646 L
776.737 80.27 L
777.125 94.185 L
777.513 55.222 L
777.9 79.142 L
778.287 95.083 L
778.675 122.016 L
779.063 125.646 L
779.45 74.306 L
779.838 88.619 L
780.225 125.646 L
780.612 69.833 L
781 92.197 L
781.388 78.923 L
781.775 99.245 L
782.162 66.355 L
782.55 111.579 L
782.938 67.992 L
783.325 107.621 L
783.713 75.829 L
784.1 74.306 L
784.487 65.749 L
784.875 88.619 L
785.263 98.984 L
785.65 84.908 L
786.037 101.143 L
786.425 69.833 L
786.813 101.143 L
787.2 57.791 L
787.588 83.252 L
787.975 80.27 L
788.362 64.083 L
788.75 86.692 L
789.138 64.214 L
789.525 62.006 L
789.912 129.606 L
790.3 88.619 L
790.688 61.294 L
791.075 95.083 L
791.463 88.619 L
791.85 61.294 L
792.237 90.092 L
792.625 96.326 L
793.013 140.991 L
793.4 108.657 L
793.787 135.931 L
794.175 70.843 L
794.563 103.462 L
794.95 101.143 L
795.338 77.661 L
795.725 163.762 L
796.112 81.709 L
796.5 84.065 L
796.888 122.016 L
797.275 107.621 L
797.662 66.355 L
798.05 69.833 L
798.438 92.197 L
798.825 108.657 L
799.213 62.006 L
799.6 77.661 L
799.987 90.346 L
800.375 98.984 L
800.763 89.904 L
801.15 57.791 L
801.537 118.221 L
801.925 86.692 L
802.313 78.923 L
802.7 112.739 L
803.088 108.657 L
803.475 84.908 L
803.862 142.889 L
804.25 96.968 L
804.638 101.143 L
805.025 69.833 L
805.412 67.15 L
805.8 67.992 L
806.188 92.975 L
806.575 79.142 L
806.963 108.657 L
807.35 68.885 L
807.737 72.372 L
808.125 101.143 L
808.513 108.657 L
808.9 87.003 L
809.287 122.016 L
809.675 90.346 L
810.063 71.921 L
810.45 98.638 L
810.838 71.921 L
811.225 101.143 L
811.612 81.709 L
812 84.065 L
812.388 64.214 L
812.775 92.197 L
813.162 65.602 L
813.55 68.885 L
813.938 66.355 L
814.325 67.425 L
814.713 118.676 L
815.1 87.003 L
815.487 105.96 L
815.875 79.142 L
816.263 95.083 L
816.65 86.692 L
817.037 96.326 L
817.425 81.709 L
817.813 58.298 L
818.2 105.96 L
818.588 73.072 L
818.975 59.397 L
819.362 52.063 L
819.75 111.579 L
820.138 80.27 L
820.525 74.306 L
820.912 95.083 L
821.3 84.065 L
821.688 105.317 L
822.075 81.709 L
822.463 103.865 L
822.85 96.968 L
823.237 78.923 L
823.625 73.072 L
824.013 105.96 L
824.4 73.312 L
824.787 110.088 L
825.175 129.606 L
825.563 81.709 L
825.95 68.885 L
826.338 101.143 L
826.725 67.15 L
827.112 118.676 L
827.5 122.016 L
827.888 88.619 L
828.275 68.885 L
828.662 103.163 L
829.05 114.756 L
829.438 81.709 L
829.825 84.908 L
830.213 80.27 L
830.6 69.833 L
830.987 77.661 L
831.375 122.016 L
831.763 67.992 L
832.15 78.6 L
832.537 92.197 L
832.925 115.593 L
833.313 88.619 L
833.7 60.625 L
834.088 83.252 L
834.475 96.968 L
834.862 78.923 L
835.25 93.315 L
835.638 98.984 L
836.025 73.072 L
836.412 98.638 L
836.8 65.602 L
837.188 118.221 L
837.575 65.602 L
837.963 125.646 L
838.35 99.245 L
838.737 112.739 L
839.125 118.676 L
839.513 77.661 L
839.9 83.252 L
840.287 58.298 L
840.675 88.619 L
841.063 66.355 L
841.45 85.911 L
841.838 110.088 L
842.225 111.579 L
842.612 73.312 L
843 62.961 L
843.388 74.306 L
843.775 77.661 L
844.162 81.709 L
844.55 92.975 L
844.938 75.359 L
845.325 59.397 L
845.713 92.197 L
846.1 105.317 L
846.487 115.593 L
846.875 110.088 L
847.263 106.836 L
847.65 96.326 L
848.037 81.709 L
848.425 88.619 L
848.813 44.349 L
849.2 98.638 L
849.588 65.602 L
849.975 75.359 L
850.362 125.646 L
850.75 128.695 L
851.138 114.756 L
851.525 142.889 L
851.912 76.475 L
852.3 76.475 L
852.688 98.984 L
853.075 107.621 L
853.463 90.706 L
853.85 82.357 L
854.237 88.619 L
854.625 95.083 L
855.013 96.968 L
855.4 56.415 L
855.787 88.619 L
856.175 87.003 L
856.563 76.475 L
856.95 110.088 L
857.338 88.619 L
857.725 80.27 L
858.112 92.197 L
858.5 84.065 L
858.888 63.571 L
859.275 81.709 L
859.662 112.739 L
860.05 128.695 L
860.438 78.923 L
860.825 90.346 L
861.213 112.739 L
861.6 67.425 L
861.987 112.739 L
862.375 98.984 L
862.763 58.833 L
863.15 129.606 L
863.537 73.072 L
863.925 77.661 L
864.313 84.908 L
864.7 84.908 L
865.088 53.704 L
865.475 94.185 L
865.862 67.15 L
866.25 64.435 L
866.638 78.923 L
867.025 80.27 L
867.412 76.475 L
867.8 87.003 L
868.188 80.27 L
868.575 98.984 L
868.963 90.346 L
869.35 90.346 L
869.737 82.725 L
870.125 85.488 L
870.513 58.971 L
870.9 84.908 L
871.287 98.984 L
871.675 67.15 L
872.063 118.676 L
872.45 90.092 L
872.838 92.197 L
873.225 95.083 L
873.612 78.923 L
874 69.833 L
874.388 80.27 L
874.775 59.993 L
875.162 108.657 L
875.55 68.342 L
875.938 84.065 L
876.325 69.833 L
876.713 78.923 L
877.1 132.452 L
877.487 77.661 L
877.875 62.379 L
878.263 60.625 L
878.65 70.843 L
879.037 140.991 L
879.425 114.756 L
879.813 113.667 L
880.2 66.355 L
880.588 72.372 L
880.975 107.621 L
881.362 98.984 L
881.75 90.706 L
882.138 105.96 L
882.525 73.312 L
882.912 103.865 L
883.3 96.326 L
883.688 77.661 L
884.075 93.315 L
884.463 111.243 L
884.85 72.372 L
885.237 62.006 L
885.625 72.372 L
886.013 59.397 L
886.4 90.346 L
886.787 56.851 L
887.175 88.619 L
887.563 78.923 L
887.95 83.252 L
888.338 96.326 L
888.725 140.991 L
889.112 111.579 L
889.5 111.579 L
889.888 101.143 L
890.275 80.27 L
890.662 101.143 L
891.05 84.908 L
891.438 67.992 L
891.825 142.889 L
892.213 56.851 L
892.6 60.625 L
892.987 108.657 L
893.375 118.676 L
893.763 64.214 L
894.15 115.593 L
894.537 103.865 L
894.925 134.861 L
895.313 84.664 L
895.7 74.306 L
896.088 81.709 L
896.475 71.481 L
896.862 71.481 L
897.25 64.89 L
897.638 52.837 L
898.025 73.072 L
898.412 96.968 L
898.8 77.661 L
899.188 73.072 L
899.575 96.326 L
899.963 49.182 L
900.35 68.885 L
900.737 79.142 L
901.125 91.655 L
901.513 74.306 L
901.9 92.681 L
902.287 75.631 L
902.675 108.657 L
903.063 118.221 L
903.45 81.463 L
903.838 80.27 L
904.225 80.27 L
904.612 74.306 L
905 73.072 L
S
GR
GS
1 0 0 RC
1 LJ
0.5 LW
N
169.525 217.994 M
169.913 219.961 L
170.3 219.942 L
170.688 220.164 L
171.075 219.822 L
171.462 220.538 L
171.85 218.764 L
172.238 219.374 L
172.625 217.899 L
173.012 218.589 L
173.4 219.617 L
173.788 219.612 L
174.175 219.607 L
174.563 220.182 L
174.95 221.008 L
175.337 221.52 L
175.725 222.701 L
176.113 223.151 L
176.5 222.973 L
176.887 222.683 L
177.275 222.523 L
177.663 222.457 L
178.05 221.495 L
178.438 222.507 L
178.825 222.659 L
179.212 221.95 L
179.6 221.319 L
179.988 221.044 L
180.375 222.088 L
180.762 224.267 L
181.15 224.074 L
181.538 223.855 L
181.925 222.545 L
182.313 222.18 L
182.7 222.453 L
183.087 223.048 L
183.475 223.838 L
183.863 222.75 L
184.25 223.559 L
184.637 223.825 L
185.025 224.306 L
185.413 225.475 L
185.8 226.265 L
186.188 226.766 L
186.575 227.209 L
186.962 226.943 L
187.35 226.943 L
187.738 228.099 L
188.125 228.334 L
188.512 229.451 L
188.9 229.597 L
189.288 229.832 L
189.675 229.261 L
190.063 229.261 L
190.45 230.162 L
190.837 230.792 L
191.225 231.011 L
191.613 232.546 L
192 232.373 L
192.387 233.357 L
192.775 232.834 L
193.163 233.488 L
193.55 233.488 L
193.938 233.216 L
194.325 232.499 L
194.712 231.757 L
195.1 231.04 L
195.488 230.235 L
195.875 230.235 L
196.262 230.524 L
196.65 230.438 L
197.038 229.86 L
197.425 230.069 L
197.813 229.635 L
198.2 228.434 L
198.587 228.362 L
198.975 229.717 L
199.363 228.631 L
199.75 229.429 L
200.137 229.194 L
200.525 227.744 L
200.913 228.399 L
201.3 228.942 L
201.688 229.215 L
202.075 229.869 L
202.462 229.05 L
202.85 228.376 L
203.238 227.222 L
203.625 228.576 L
204.012 229.077 L
204.4 228.094 L
204.788 227.228 L
205.175 225.25 L
205.563 223.594 L
205.95 222.181 L
206.337 220.646 L
206.725 219.335 L
207.113 217.683 L
207.5 214.981 L
207.887 212.264 L
208.275 209.913 L
208.663 209.433 L
209.05 208.121 L
209.438 205.768 L
209.825 204.677 L
210.212 202.303 L
210.6 200.277 L
210.988 197.407 L
211.375 195.626 L
211.762 193.152 L
212.15 190.833 L
212.538 189.576 L
212.925 187.003 L
213.313 185.666 L
213.7 183.955 L
214.087 182.552 L
214.475 181.131 L
214.863 180.7 L
215.25 178.909 L
215.637 176.965 L
216.025 175.314 L
216.413 174.366 L
216.8 173.804 L
217.188 173.15 L
217.575 172.651 L
217.962 171.63 L
218.35 170.051 L
218.738 168.972 L
219.125 169.13 L
219.512 167.391 L
219.9 166.091 L
220.288 165.147 L
220.675 163.791 L
221.063 161.986 L
221.45 161.386 L
221.837 160.732 L
222.225 160.537 L
222.613 161.484 L
223 161.56 L
223.387 160.005 L
223.775 158.097 L
224.163 157.172 L
224.55 157.659 L
224.938 157.776 L
225.325 158.278 L
225.712 158.007 L
226.1 158.394 L
226.488 157.68 L
226.875 158.107 L
227.262 158.898 L
227.65 161.616 L
228.038 161.616 L
228.425 162.018 L
228.813 162.517 L
229.2 162.699 L
229.587 163.345 L
229.975 164.204 L
230.363 164.45 L
230.75 165.954 L
231.137 165.452 L
231.525 166.217 L
231.913 167.094 L
232.3 167.233 L
232.688 167.35 L
233.075 169.396 L
233.462 170.64 L
233.85 171.947 L
234.238 171.947 L
234.625 172.173 L
235.012 172.344 L
235.4 171.389 L
235.788 171.206 L
236.175 170.458 L
236.563 170.833 L
236.95 169.186 L
237.337 169.289 L
237.725 169.406 L
238.113 168.938 L
238.5 168.801 L
238.887 167.809 L
239.275 167.326 L
239.663 166.578 L
240.05 167.559 L
240.438 167.571 L
240.825 166.978 L
241.212 166.732 L
241.6 165.472 L
241.988 164.712 L
242.375 163.894 L
242.762 162.091 L
243.15 161.6 L
243.538 160.888 L
243.925 160.381 L
244.313 159.331 L
244.7 158.385 L
245.087 157.419 L
245.475 157.185 L
245.863 155.797 L
246.25 156.561 L
246.637 156.226 L
247.025 154.266 L
247.413 151.432 L
247.8 151.772 L
248.188 151.606 L
248.575 151.129 L
248.962 150.845 L
249.35 149.267 L
249.738 148.244 L
250.125 147.46 L
250.512 146.201 L
250.9 146.129 L
251.288 146.084 L
251.675 144.99 L
252.063 145.214 L
252.45 143.687 L
252.837 141.509 L
253.225 141.265 L
253.613 139.21 L
254 139.026 L
254.387 137.338 L
254.775 137.044 L
255.163 136.834 L
255.55 136.294 L
255.938 135.838 L
256.325 134.198 L
256.712 133.777 L
257.1 133.216 L
257.487 131.946 L
257.875 130.812 L
258.263 129.356 L
258.65 128.456 L
259.038 129.045 L
259.425 129.686 L
259.813 127.579 L
260.2 126.006 L
260.587 125.252 L
260.975 123.89 L
261.362 123.583 L
261.75 122.418 L
262.138 121.071 L
262.525 120.492 L
262.913 119.861 L
263.3 120.113 L
263.688 119.499 L
264.075 118.809 L
264.462 118.539 L
264.85 117.482 L
265.237 116.655 L
265.625 116.462 L
266.013 116.083 L
266.4 115.217 L
266.788 115.503 L
267.175 115.984 L
267.563 115.573 L
267.95 113.865 L
268.337 112.726 L
268.725 113.442 L
269.112 113.064 L
269.5 111.86 L
269.888 111.589 L
270.275 111.233 L
270.663 110.742 L
271.05 109.371 L
271.438 110.406 L
271.825 109.214 L
272.212 110.25 L
272.6 110.173 L
272.987 109.066 L
273.375 108.954 L
273.763 108.91 L
274.15 109.166 L
274.538 109.673 L
274.925 109.61 L
275.313 109.271 L
275.7 109.411 L
276.087 109.254 L
276.475 110.221 L
276.862 110.286 L
277.25 110.92 L
277.638 112.202 L
278.025 111.568 L
278.413 111.369 L
278.8 110.779 L
279.188 109.186 L
279.575 109.677 L
279.962 110.508 L
280.35 110.827 L
280.737 111.124 L
281.125 111.045 L
281.513 111.225 L
281.9 112.299 L
282.288 113.087 L
282.675 112.776 L
283.063 112.641 L
283.45 112.599 L
283.837 112.533 L
284.225 112.673 L
284.612 112.363 L
285 112.161 L
285.388 113.354 L
285.775 112.773 L
286.163 113.973 L
286.55 114.75 L
286.938 115.249 L
287.325 115.009 L
287.712 115.941 L
288.1 115.963 L
288.487 115.29 L
288.875 115.716 L
289.263 116.921 L
289.65 117.337 L
290.038 117.382 L
290.425 117.576 L
290.813 118.583 L
291.2 119.238 L
291.587 120.195 L
291.975 119.377 L
292.362 118.698 L
292.75 119.582 L
293.138 120.095 L
293.525 119.847 L
293.913 119.665 L
294.3 118.954 L
294.688 120.27 L
295.075 120.763 L
295.462 120.728 L
295.85 121.712 L
296.237 121.412 L
296.625 121.019 L
297.013 120.309 L
297.4 120.532 L
297.788 120.881 L
298.175 121.791 L
298.563 122.024 L
298.95 123.022 L
299.337 123.134 L
299.725 123 L
300.112 123.265 L
300.5 123.123 L
300.888 123.071 L
301.275 123.434 L
301.663 123.926 L
302.05 123.978 L
302.438 124.348 L
302.825 124.64 L
303.212 126.04 L
303.6 127.275 L
303.987 127.054 L
304.375 127.986 L
304.763 128.314 L
305.15 127.905 L
305.538 127.592 L
305.925 127.345 L
306.313 126.696 L
306.7 125.964 L
307.087 125.613 L
307.475 125.283 L
307.862 125.569 L
308.25 125.417 L
308.638 124.712 L
309.025 124.302 L
309.413 124.866 L
309.8 125.932 L
310.188 126.116 L
310.575 126.233 L
310.962 124.584 L
311.35 124.087 L
311.737 124.579 L
312.125 124.566 L
312.513 124.274 L
312.9 124.023 L
313.288 123.029 L
313.675 123.098 L
314.063 122.985 L
314.45 121.959 L
314.837 121.44 L
315.225 121.522 L
315.612 121.27 L
316 120.996 L
316.388 122.149 L
316.775 122.612 L
317.163 121.925 L
317.55 122.136 L
317.938 121.954 L
318.325 122.292 L
318.712 122.789 L
319.1 123.143 L
319.487 122.708 L
319.875 121.339 L
320.263 120.588 L
320.65 120.56 L
321.038 121.099 L
321.425 119.045 L
321.813 119.98 L
322.2 119.98 L
322.587 119.98 L
322.975 118.974 L
323.362 118.328 L
323.75 118.631 L
324.138 118.502 L
324.525 117.732 L
324.913 117.323 L
325.3 117.014 L
325.688 116.833 L
326.075 117.015 L
326.462 117.453 L
326.85 117.846 L
327.237 117.312 L
327.625 116.952 L
328.013 117.345 L
328.4 118.4 L
328.788 118.166 L
329.175 117.731 L
329.563 117.322 L
329.95 117.799 L
330.337 118.888 L
330.725 119.407 L
331.112 119.53 L
331.5 119.268 L
331.888 120.543 L
332.275 120.265 L
332.663 120.367 L
333.05 121.924 L
333.438 121.775 L
333.825 121.814 L
334.212 121.552 L
334.6 121.858 L
334.987 122.185 L
335.375 122.059 L
335.763 122.401 L
336.15 121.79 L
336.538 121.856 L
336.925 121.888 L
337.313 120.852 L
337.7 120.648 L
338.087 120.063 L
338.475 119.323 L
338.862 119.676 L
339.25 119.631 L
339.638 120.39 L
340.025 120.755 L
340.413 120.689 L
340.8 120.726 L
341.188 121.601 L
341.575 120.461 L
341.962 121.056 L
342.35 119.571 L
342.737 118.913 L
343.125 117.14 L
343.513 116.604 L
343.9 116.26 L
344.288 116.768 L
344.675 116.405 L
345.063 115.726 L
345.45 115.071 L
345.837 114.23 L
346.225 113.11 L
346.612 111.677 L
347 110.756 L
347.388 110.227 L
347.775 109.255 L
348.163 107.622 L
348.55 107.011 L
348.938 106.489 L
349.325 105.262 L
349.712 104.17 L
350.1 102.194 L
350.487 101.01 L
350.875 99.343 L
351.263 98.202 L
351.65 96.25 L
352.038 95.465 L
352.425 94.581 L
352.813 92.936 L
353.2 91.939 L
353.587 91.555 L
353.975 91.286 L
354.362 90.342 L
354.75 89.523 L
355.138 88.645 L
355.525 87.491 L
355.913 86.601 L
356.3 85.691 L
356.688 85.081 L
357.075 85.361 L
357.462 84.562 L
357.85 83.379 L
358.237 82.778 L
358.625 81.433 L
359.013 80.494 L
359.4 80.016 L
359.788 79.424 L
360.175 78.692 L
360.563 77.237 L
360.95 75.89 L
361.337 74.697 L
361.725 73.119 L
362.112 73.786 L
362.5 74.093 L
362.888 73.945 L
363.275 73.973 L
363.663 72.878 L
364.05 72.02 L
364.438 71.974 L
364.825 72.734 L
365.212 71.808 L
365.6 72.334 L
365.987 72.893 L
366.375 73.18 L
366.763 73.794 L
367.15 73.221 L
367.538 73.319 L
367.925 73.276 L
368.313 73.061 L
368.7 72.343 L
369.087 72.296 L
369.475 72.069 L
369.862 72.147 L
370.25 72.703 L
370.638 72.575 L
371.025 73.433 L
371.413 73.33 L
371.8 72.839 L
372.188 73.225 L
372.575 73.867 L
372.962 74.58 L
373.35 74.031 L
373.737 74.487 L
374.125 75.201 L
374.513 75.26 L
374.9 76.121 L
375.288 76.068 L
375.675 76.416 L
376.063 76.671 L
376.45 76.216 L
376.837 76.279 L
377.225 76.698 L
377.612 77.26 L
378 76.738 L
378.388 77.359 L
378.775 78.473 L
379.163 77.903 L
379.55 78.068 L
379.938 78.383 L
380.325 78.329 L
380.712 79.23 L
381.1 79.437 L
381.487 79.968 L
381.875 79.354 L
382.263 78.781 L
382.65 79.451 L
383.038 79.218 L
383.425 79.366 L
383.813 79.831 L
384.2 79.094 L
384.587 78.011 L
384.975 78.836 L
385.362 78.299 L
385.75 77.596 L
386.138 77.423 L
386.525 77.082 L
386.913 76.962 L
387.3 76.451 L
387.688 77.473 L
388.075 77.596 L
388.462 77.838 L
388.85 78.127 L
389.237 78.1 L
389.625 77.789 L
390.013 77.827 L
390.4 78.524 L
390.788 77.854 L
391.175 78 L
391.563 78.017 L
391.95 78.05 L
392.337 77.826 L
392.725 77.133 L
393.112 77.225 L
393.5 77.174 L
393.888 76.543 L
394.275 76.512 L
394.663 76.07 L
395.05 75.789 L
395.438 75.599 L
395.825 75.361 L
396.212 75.618 L
396.6 75.782 L
396.987 75.089 L
397.375 74.633 L
397.763 74.572 L
398.15 73.914 L
398.538 73.238 L
398.925 74.717 L
399.313 74.552 L
399.7 74.237 L
400.087 74.728 L
400.475 73.55 L
400.862 74.12 L
401.25 74.051 L
401.638 74.419 L
402.025 74.611 L
402.413 74.568 L
402.8 74.213 L
403.188 74.634 L
403.575 74.119 L
403.962 74.761 L
404.35 75.567 L
404.737 75.538 L
405.125 76.315 L
405.513 77.374 L
405.9 77.637 L
406.288 77.798 L
406.675 78.491 L
407.063 78.979 L
407.45 78.662 L
407.837 78.82 L
408.225 79.062 L
408.612 79.346 L
409 79.568 L
409.388 79.95 L
409.775 79.724 L
410.163 79.388 L
410.55 79.513 L
410.938 79.223 L
411.325 79.624 L
411.712 79.636 L
412.1 79.603 L
412.487 80.433 L
412.875 80.277 L
413.263 80.149 L
413.65 80.671 L
414.038 81.61 L
414.425 81.743 L
414.813 82.445 L
415.2 82.838 L
415.587 82.971 L
415.975 82.917 L
416.362 83.244 L
416.75 83.762 L
417.138 83.961 L
417.525 84.686 L
417.913 84.745 L
418.3 84.864 L
418.688 83.232 L
419.075 83.26 L
419.462 83.559 L
419.85 83.424 L
420.237 83.713 L
420.625 83.882 L
421.013 83.585 L
421.4 83.788 L
421.788 83.862 L
422.175 84.129 L
422.563 85.003 L
422.95 85.705 L
423.337 85.413 L
423.725 85.655 L
424.112 85.625 L
424.5 85.597 L
424.888 84.689 L
425.275 84.185 L
425.663 84.913 L
426.05 85.207 L
426.438 84.871 L
426.825 85.305 L
427.212 85.032 L
427.6 85.065 L
427.987 85.254 L
428.375 85.43 L
428.763 85.4 L
429.15 85.816 L
429.538 87.107 L
429.925 87.453 L
430.313 87.858 L
430.7 88.751 L
431.087 89.297 L
431.475 89.297 L
431.862 89.015 L
432.25 88.68 L
432.638 88.791 L
433.025 88.412 L
433.413 88.157 L
433.8 87.557 L
434.188 87.557 L
434.575 87.189 L
434.962 86.85 L
435.35 86.882 L
435.737 87.093 L
436.125 86.728 L
436.513 88.189 L
436.9 87.746 L
437.288 87.54 L
437.675 88.38 L
438.063 88.586 L
438.45 89.177 L
438.837 89.478 L
439.225 89.494 L
439.612 89.568 L
440 90.362 L
440.388 90.127 L
440.775 89.887 L
441.163 89.315 L
441.55 89.486 L
441.938 88.966 L
442.325 89.012 L
442.712 88.559 L
443.1 89.517 L
443.487 88.668 L
443.875 88.799 L
444.263 88.608 L
444.65 88.721 L
445.038 89.476 L
445.425 88.716 L
445.813 88.534 L
446.2 88.335 L
446.587 88.247 L
446.975 88.798 L
447.362 88.957 L
447.75 88.616 L
448.138 87.79 L
448.525 87.81 L
448.913 87.299 L
449.3 86.305 L
449.688 86.655 L
450.075 86.582 L
450.462 85.941 L
450.85 85.407 L
451.237 85.941 L
451.625 86.193 L
452.013 85.688 L
452.4 86.443 L
452.788 86.809 L
453.175 86.804 L
453.563 86.752 L
453.95 86.31 L
454.337 86.188 L
454.725 86.023 L
455.112 85.411 L
455.5 85.937 L
455.888 86.266 L
456.275 85.452 L
456.663 86.3 L
457.05 86.397 L
457.438 85.712 L
457.825 85.793 L
458.212 86.276 L
458.6 86.615 L
458.987 86.599 L
459.375 86.571 L
459.763 86.718 L
460.15 86.56 L
460.538 86.726 L
460.925 86.604 L
461.313 86.74 L
461.7 87.465 L
462.087 88.392 L
462.475 87.945 L
462.862 87.794 L
463.25 88.134 L
463.638 88.032 L
464.025 88.44 L
464.413 88.4 L
464.8 87.42 L
465.188 87.42 L
465.575 88.278 L
465.962 88.486 L
466.35 87.64 L
466.737 87.046 L
467.125 87.172 L
467.513 87.166 L
467.9 87.183 L
468.288 87.209 L
468.675 86.884 L
469.063 86.323 L
469.45 86.417 L
469.837 86.522 L
470.225 87.204 L
470.612 86.929 L
471 86.176 L
471.388 85.575 L
471.775 86.239 L
472.163 86.182 L
472.55 86.107 L
472.938 86.129 L
473.325 86.087 L
473.712 87.129 L
474.1 87.771 L
474.487 87.58 L
474.875 87.861 L
475.263 87.15 L
475.65 86.929 L
476.038 85.896 L
476.425 85.793 L
476.813 85.742 L
477.2 85.917 L
477.587 85.65 L
477.975 84.931 L
478.362 84.727 L
478.75 84.464 L
479.138 84.249 L
479.525 84.574 L
479.913 84.526 L
480.3 84.628 L
480.688 84.454 L
481.075 84.147 L
481.462 83.563 L
481.85 82.862 L
482.237 83.449 L
482.625 83.081 L
483.013 83.537 L
483.4 83.719 L
483.788 83.593 L
484.175 84.146 L
484.563 84.114 L
484.95 83.544 L
485.337 82.55 L
485.725 82.622 L
486.112 83.335 L
486.5 83.646 L
486.888 82.794 L
487.275 82.753 L
487.663 83.497 L
488.05 83.259 L
488.438 83.062 L
488.825 83.272 L
489.212 82.871 L
489.6 82.566 L
489.987 81.77 L
490.375 81.632 L
490.763 82.063 L
491.15 82.964 L
491.538 83.679 L
491.925 83.197 L
492.313 84.885 L
492.7 84.796 L
493.087 85.937 L
493.475 85.723 L
493.862 85.681 L
494.25 86.323 L
494.638 86.249 L
495.025 86.653 L
495.413 86.746 L
495.8 87.074 L
496.188 87.168 L
496.575 87.258 L
496.962 86.973 L
497.35 87.446 L
497.737 87.446 L
498.125 87.384 L
498.513 89.226 L
498.9 90.513 L
499.288 90.45 L
499.675 90.627 L
500.063 91.291 L
500.45 92.027 L
500.837 91.892 L
501.225 92.539 L
501.612 91.983 L
502 91.383 L
502.388 91.615 L
502.775 91.16 L
503.163 90.971 L
503.55 91.041 L
503.938 91.332 L
504.325 91.546 L
504.712 92.057 L
505.1 93.103 L
505.487 93.131 L
505.875 92.754 L
506.263 92.988 L
506.65 93.735 L
507.038 93.746 L
507.425 93.134 L
507.813 93.496 L
508.2 93.825 L
508.587 94.074 L
508.975 94.648 L
509.362 94.987 L
509.75 95.056 L
510.138 95.775 L
510.525 96.205 L
510.913 95.48 L
511.3 94.413 L
511.688 94.503 L
512.075 93.558 L
512.463 94.049 L
512.85 92.069 L
513.237 91.676 L
513.625 91.06 L
514.013 91.281 L
514.4 91.869 L
514.787 91.715 L
515.175 92.896 L
515.563 92.805 L
515.95 92.378 L
516.338 92.152 L
516.725 92.261 L
517.112 91.866 L
517.5 92.411 L
517.888 92.445 L
518.275 91.344 L
518.662 90.324 L
519.05 89.178 L
519.438 89.69 L
519.825 88.901 L
520.213 89.281 L
520.6 89.404 L
520.987 88.848 L
521.375 89.323 L
521.763 90.327 L
522.15 90.373 L
522.537 90.299 L
522.925 90.231 L
523.313 90.231 L
523.7 90.063 L
524.088 89.605 L
524.475 89.81 L
524.862 89.264 L
525.25 89.782 L
525.638 90.042 L
526.025 89.478 L
526.412 88.701 L
526.8 89.268 L
527.188 89.656 L
527.575 90.015 L
527.963 90.165 L
528.35 89.775 L
528.737 89.372 L
529.125 89.447 L
529.513 89.607 L
529.9 89.362 L
530.287 88.75 L
530.675 89.096 L
531.063 89.418 L
531.45 88.733 L
531.838 88.274 L
532.225 87.83 L
532.612 88.859 L
533 88.344 L
533.388 88.82 L
533.775 88.232 L
534.162 88.909 L
534.55 88.869 L
534.938 88.236 L
535.325 88.149 L
535.713 88.195 L
536.1 88.422 L
536.487 88.013 L
536.875 87.887 L
537.263 87.785 L
537.65 87.707 L
538.037 87.054 L
538.425 86.811 L
538.813 87.112 L
539.2 86.126 L
539.588 86.059 L
539.975 85.26 L
540.362 85.073 L
540.75 84.881 L
541.138 83.865 L
541.525 83.048 L
541.912 83.65 L
542.3 83.65 L
542.688 83.031 L
543.075 83.474 L
543.463 83.216 L
543.85 83.128 L
544.237 82.483 L
544.625 82.597 L
545.013 83.428 L
545.4 83.428 L
545.787 83.906 L
546.175 84.553 L
546.563 84.322 L
546.95 83.819 L
547.338 83.236 L
547.725 83.269 L
548.112 83.526 L
548.5 83.744 L
548.888 83.179 L
549.275 82.787 L
549.662 82.507 L
550.05 82.672 L
550.438 82.607 L
550.825 82.369 L
551.213 84.304 L
551.6 83.865 L
551.987 84.735 L
552.375 84.722 L
552.763 85.074 L
553.15 85.909 L
553.537 87.151 L
553.925 86.611 L
554.313 86.76 L
554.7 85.944 L
555.088 87.408 L
555.475 87.743 L
555.862 87.547 L
556.25 87.871 L
556.638 88.577 L
557.025 89.052 L
557.412 88.852 L
557.8 89.242 L
558.188 89.242 L
558.575 89.045 L
558.963 88.896 L
559.35 90.027 L
559.737 91.403 L
560.125 91.59 L
560.513 91.637 L
560.9 92.251 L
561.287 92.719 L
561.675 91.685 L
562.063 92.072 L
562.45 92.667 L
562.838 91.806 L
563.225 91.362 L
563.612 91.43 L
564 91.598 L
564.388 92.361 L
564.775 91.578 L
565.162 91.544 L
565.55 91.33 L
565.938 91.087 L
566.325 90.651 L
566.713 91.359 L
567.1 91.619 L
567.487 92.032 L
567.875 92.237 L
568.263 91.604 L
568.65 92.131 L
569.037 93.199 L
569.425 93.676 L
569.813 93.746 L
570.2 94.419 L
570.588 94.645 L
570.975 93.007 L
571.362 93.186 L
571.75 92.316 L
572.138 92.227 L
572.525 93.02 L
572.912 91.936 L
573.3 90.682 L
573.688 90.722 L
574.075 90.522 L
574.463 90.661 L
574.85 89.375 L
575.237 89.024 L
575.625 89.957 L
576.013 91.087 L
576.4 90.791 L
576.787 90.347 L
577.175 90.445 L
577.563 90.304 L
577.95 90.781 L
578.338 91.168 L
578.725 91.663 L
579.112 92.462 L
579.5 91.13 L
579.888 91.098 L
580.275 91.487 L
580.662 91.476 L
581.05 91.177 L
581.438 91.944 L
581.825 91.551 L
582.213 91.425 L
582.6 92.019 L
582.987 92.426 L
583.375 92.929 L
583.763 93.516 L
584.15 92.909 L
584.537 93.224 L
584.925 92.997 L
585.313 93.103 L
585.7 94.12 L
586.088 95.184 L
586.475 94.37 L
586.862 93.931 L
587.25 93.456 L
587.638 92.978 L
588.025 92.722 L
588.412 92.488 L
588.8 92.234 L
589.188 91.976 L
589.575 91.638 L
589.963 91.963 L
590.35 92.66 L
590.737 93.292 L
591.125 93.114 L
591.513 93.454 L
591.9 93.367 L
592.287 93.194 L
592.675 92.953 L
593.063 92.566 L
593.45 92.192 L
593.838 92.192 L
594.225 92.443 L
594.612 92.17 L
595 92.615 L
595.388 91.598 L
595.775 90.378 L
596.162 89.827 L
596.55 90.553 L
596.938 91.415 L
597.325 91.65 L
597.713 91.657 L
598.1 91.135 L
598.487 91.395 L
598.875 89.488 L
599.263 90.265 L
599.65 90.497 L
600.037 90.108 L
600.425 90.479 L
600.813 90.811 L
601.2 90.351 L
601.588 90.056 L
601.975 90.147 L
602.362 90.193 L
602.75 89.698 L
603.138 89.502 L
603.525 89.744 L
603.912 89.793 L
604.3 89.728 L
604.688 89.882 L
605.075 90.127 L
605.463 89.13 L
605.85 87.728 L
606.237 88.731 L
606.625 88.959 L
607.013 89.129 L
607.4 89.762 L
607.787 90.912 L
608.175 91.273 L
608.563 91.146 L
608.95 91.863 L
609.338 92.194 L
609.725 91.477 L
610.112 91.536 L
610.5 91.871 L
610.888 92.134 L
611.275 92.73 L
611.662 92.817 L
612.05 91.972 L
612.438 92.621 L
612.825 93.386 L
613.213 93.987 L
613.6 93.688 L
613.987 93.648 L
614.375 93.847 L
614.763 93.475 L
615.15 94.559 L
615.537 95.261 L
615.925 95.675 L
616.313 95.194 L
616.7 94.691 L
617.088 94.297 L
617.475 94.245 L
617.862 94.507 L
618.25 94.199 L
618.638 94.34 L
619.025 94.158 L
619.412 94.371 L
619.8 95.164 L
620.188 95.754 L
620.575 95.628 L
620.963 95.474 L
621.35 95.934 L
621.737 96.207 L
622.125 95.394 L
622.513 95.627 L
622.9 96.284 L
623.287 96.312 L
623.675 97.295 L
624.063 96.18 L
624.45 96.125 L
624.838 96.03 L
625.225 95.615 L
625.612 96.042 L
626 95.441 L
626.388 95.768 L
626.775 96.452 L
627.162 95.955 L
627.55 95.293 L
627.938 95.019 L
628.325 94.668 L
628.713 94.259 L
629.1 94.226 L
629.487 94.335 L
629.875 95.023 L
630.263 94.606 L
630.65 94.957 L
631.037 94.167 L
631.425 93.865 L
631.813 93.707 L
632.2 93.044 L
632.588 92.593 L
632.975 91.732 L
633.362 92.336 L
633.75 91.53 L
634.138 91.232 L
634.525 91.356 L
634.912 91.132 L
635.3 90.319 L
635.688 90.602 L
636.075 90.75 L
636.463 90.762 L
636.85 91.481 L
637.237 91.723 L
637.625 92.024 L
638.013 92.262 L
638.4 91.989 L
638.787 92.68 L
639.175 92.34 L
639.563 91.79 L
639.95 91.556 L
640.338 93.104 L
640.725 94.19 L
641.112 94.036 L
641.5 93.889 L
641.888 94.373 L
642.275 94.254 L
642.662 93.62 L
643.05 92.972 L
643.438 91.464 L
643.825 91.734 L
644.213 91.79 L
644.6 91.503 L
644.987 92.178 L
645.375 92.089 L
645.763 92.089 L
646.15 91.341 L
646.537 91.016 L
646.925 90.929 L
647.313 90.812 L
647.7 91.402 L
648.088 91.846 L
648.475 91.511 L
648.862 91.381 L
649.25 91.665 L
649.638 90.532 L
650.025 90.204 L
650.412 89.721 L
650.8 90.277 L
651.188 90.411 L
651.575 90.596 L
651.963 90.942 L
652.35 92.079 L
652.737 92.263 L
653.125 91.871 L
653.513 92.882 L
653.9 93.839 L
654.287 93.509 L
654.675 93.131 L
655.063 93.864 L
655.45 93.308 L
655.838 93.042 L
656.225 93.123 L
656.612 92.557 L
657 91.974 L
657.388 91.769 L
657.775 91.208 L
658.162 92.065 L
658.55 91.972 L
658.938 91.52 L
659.325 91.154 L
659.713 90.062 L
660.1 88.445 L
660.487 88.382 L
660.875 88.404 L
661.263 88.638 L
661.65 89.447 L
662.037 89.597 L
662.425 89.838 L
662.813 89.874 L
663.2 91.095 L
663.588 90.694 L
663.975 91.16 L
664.362 91.041 L
664.75 91.491 L
665.138 91.945 L
665.525 91.65 L
665.912 93.038 L
666.3 93.158 L
666.688 94.134 L
667.075 94.086 L
667.463 93.501 L
667.85 92.863 L
668.237 94.075 L
668.625 94.63 L
669.013 93.933 L
669.4 93.593 L
669.787 94.002 L
670.175 94.104 L
670.563 94.401 L
670.95 94.335 L
671.338 94.094 L
671.725 94.435 L
672.112 92.923 L
672.5 93.055 L
672.888 92.899 L
673.275 94.051 L
673.662 93.416 L
674.05 93.654 L
674.438 93.31 L
674.825 92.479 L
675.213 92.388 L
675.6 92.712 L
675.987 91.801 L
676.375 92.564 L
676.763 93.877 L
677.15 94.63 L
677.537 95.612 L
677.925 95.343 L
678.313 94.945 L
678.7 95.909 L
679.088 96.559 L
679.475 96.906 L
679.862 96.801 L
680.25 95.886 L
680.638 96.786 L
681.025 96.517 L
681.412 96.685 L
681.8 96.627 L
682.188 96.118 L
682.575 96.094 L
682.963 95.445 L
683.35 96.346 L
683.737 96.104 L
684.125 96.451 L
684.513 96.358 L
684.9 96.301 L
685.287 96.866 L
685.675 95.69 L
686.063 95.105 L
686.45 94.064 L
686.838 94.548 L
687.225 94.515 L
687.612 95.141 L
688 94.673 L
688.388 93.978 L
688.775 94.733 L
689.162 94.406 L
689.55 93.997 L
689.938 93.805 L
690.325 93.026 L
690.713 93.133 L
691.1 93.016 L
691.487 92.675 L
691.875 93.436 L
692.263 94.122 L
692.65 95.121 L
693.037 93.446 L
693.425 93.812 L
693.813 94.205 L
694.2 94.155 L
694.588 94.687 L
694.975 95.105 L
695.362 94.55 L
695.75 94.779 L
696.138 94.633 L
696.525 93.375 L
696.912 93.207 L
697.3 92.989 L
697.688 92.128 L
698.075 91.746 L
698.463 91.044 L
698.85 91.044 L
699.237 91.284 L
699.625 91.175 L
700.013 91.964 L
700.4 91.297 L
700.787 91.566 L
701.175 90.491 L
701.563 91.184 L
701.95 91.734 L
702.338 92.37 L
702.725 91.944 L
703.112 91.609 L
703.5 91.798 L
703.888 93.05 L
704.275 92.763 L
704.662 93.221 L
705.05 93.025 L
705.438 93.373 L
705.825 93.692 L
706.213 94.616 L
706.6 93.809 L
706.987 93.914 L
707.375 94.136 L
707.763 93.408 L
708.15 93.441 L
708.537 92.663 L
708.925 93.1 L
709.313 92.983 L
709.7 93.31 L
710.088 93.067 L
710.475 92.716 L
710.862 92.676 L
711.25 93.849 L
711.638 93.71 L
712.025 92.39 L
712.412 92.297 L
712.8 92.959 L
713.188 92.235 L
713.575 92.133 L
713.963 92.218 L
714.35 92.706 L
714.737 92.935 L
715.125 93.38 L
715.513 93.909 L
715.9 93.165 L
716.287 93.165 L
716.675 92.99 L
717.063 92.548 L
717.45 94.285 L
717.838 94.175 L
718.225 94.399 L
718.612 94.627 L
719 94.627 L
719.388 94.367 L
719.775 92.982 L
720.162 92.839 L
720.55 93.155 L
720.938 93.946 L
721.325 93.048 L
721.713 92.765 L
722.1 91.923 L
722.487 92.092 L
722.875 92.673 L
723.263 92.578 L
723.65 91.099 L
724.037 91.063 L
724.425 90.398 L
724.813 90.093 L
725.2 90.093 L
725.588 89.957 L
725.975 89.411 L
726.362 90.006 L
726.75 90.21 L
727.138 90.083 L
727.525 89.91 L
727.912 90.016 L
728.3 90.089 L
728.688 89.631 L
729.075 90.285 L
729.463 89.957 L
729.85 89.914 L
730.237 90.784 L
730.625 91.925 L
731.013 90.911 L
731.4 91.074 L
731.787 91.712 L
732.175 90.968 L
732.563 90.214 L
732.95 90.573 L
733.338 90.374 L
733.725 90.991 L
734.112 90.65 L
734.5 90.707 L
734.888 90.251 L
735.275 90.405 L
735.662 89.984 L
736.05 90.031 L
736.438 89.919 L
736.825 90.607 L
737.213 89.549 L
737.6 89.443 L
737.987 89.281 L
738.375 88.777 L
738.763 88.789 L
739.15 89.549 L
739.537 89.844 L
739.925 89.512 L
740.313 88.613 L
740.7 87.703 L
741.088 87.982 L
741.475 87.652 L
741.862 88.107 L
742.25 88.669 L
742.638 89.242 L
743.025 89.13 L
743.412 89.375 L
743.8 89.061 L
744.188 89.708 L
744.575 89.878 L
744.963 90.533 L
745.35 91.363 L
745.737 91.32 L
746.125 91.42 L
746.513 91.217 L
746.9 91.064 L
747.287 91.418 L
747.675 90.8 L
748.063 91.164 L
748.45 91.232 L
748.838 90.798 L
749.225 91.417 L
749.612 91.625 L
750 91.334 L
750.388 90.824 L
750.775 90.965 L
751.162 90.965 L
751.55 90.692 L
751.938 91.472 L
752.325 92.216 L
752.713 91.895 L
753.1 91.895 L
753.487 91.345 L
753.875 91.12 L
754.263 90.915 L
754.65 91.277 L
755.037 91.14 L
755.425 91.758 L
755.813 91.999 L
756.2 92.061 L
756.588 91.938 L
756.975 91.715 L
757.362 92.401 L
757.75 92.291 L
758.138 92.042 L
758.525 92.533 L
758.912 91.967 L
759.3 92.037 L
759.688 93.179 L
760.075 93.261 L
760.463 94.006 L
760.85 94.387 L
761.237 94.825 L
761.625 95.164 L
762.013 94.404 L
762.4 93.761 L
762.787 93.984 L
763.175 93.488 L
763.563 93.298 L
763.95 92.982 L
764.338 93.707 L
764.725 92.912 L
765.112 91.672 L
765.5 91.28 L
765.888 90.611 L
766.275 90.681 L
766.662 91.315 L
767.05 91.042 L
767.438 91.735 L
767.825 90.971 L
768.213 91.066 L
768.6 91.254 L
768.987 91.618 L
769.375 92.484 L
769.763 91.905 L
770.15 91.835 L
770.537 92.451 L
770.925 91.974 L
771.313 92.344 L
771.7 91.761 L
772.088 91.389 L
772.475 91.488 L
772.862 91.846 L
773.25 91.48 L
773.638 91.89 L
774.025 91.394 L
774.412 90.868 L
774.8 90.31 L
775.188 90.276 L
775.575 90.328 L
775.963 90.059 L
776.35 89.977 L
776.737 89.864 L
777.125 89.529 L
777.513 89.162 L
777.9 89.338 L
778.287 88.519 L
778.675 88.319 L
779.063 88.772 L
779.45 87.557 L
779.838 87.34 L
780.225 87.652 L
780.612 87.361 L
781 86.755 L
781.388 86.51 L
781.775 86.673 L
782.162 85.717 L
782.55 85.388 L
782.938 85.926 L
783.325 87.424 L
783.713 87.62 L
784.1 87.959 L
784.487 87.75 L
784.875 88.342 L
785.263 89.094 L
785.65 89.415 L
786.037 90.818 L
786.425 89.957 L
786.813 90.031 L
787.2 90.577 L
787.588 91.604 L
787.975 91.354 L
788.362 90.859 L
788.75 90.274 L
789.138 89.941 L
789.525 89.7 L
789.912 89.485 L
790.3 88.793 L
790.688 89.364 L
791.075 89.319 L
791.463 88.905 L
791.85 89.277 L
792.237 89.676 L
792.625 89.035 L
793.013 89.913 L
793.4 89.933 L
793.787 90.111 L
794.175 91.456 L
794.563 92.068 L
794.95 92.313 L
795.338 91.742 L
795.725 91.394 L
796.112 90.744 L
796.5 91.197 L
796.888 90.766 L
797.275 91.763 L
797.662 91.482 L
798.05 91.327 L
798.438 92.054 L
798.825 92.484 L
799.213 92.931 L
799.6 94.108 L
799.987 93.338 L
800.375 93.011 L
800.763 93.743 L
801.15 93.289 L
801.537 93.534 L
801.925 93.934 L
802.313 93.816 L
802.7 93.187 L
803.088 92.23 L
803.475 91.386 L
803.862 90.071 L
804.25 89.983 L
804.638 89.276 L
805.025 89.62 L
805.412 89.803 L
805.8 88.67 L
806.188 88.62 L
806.575 88.836 L
806.963 88.143 L
807.35 87.922 L
807.737 88.223 L
808.125 87.996 L
808.513 88.266 L
808.9 87.569 L
809.287 87.517 L
809.675 87.016 L
810.063 87.432 L
810.45 87.065 L
810.838 86.759 L
811.225 87.49 L
811.612 86.821 L
812 87.186 L
812.388 87.24 L
812.775 87.066 L
813.162 86.837 L
813.55 86.72 L
813.938 85.351 L
814.325 85.527 L
814.713 84.981 L
815.1 85.771 L
815.487 86.995 L
815.875 87.264 L
816.263 86.792 L
816.65 87.223 L
817.037 86.41 L
817.425 87.386 L
817.813 88.359 L
818.2 88.114 L
818.588 87.334 L
818.975 87.651 L
819.362 87.508 L
819.75 87.339 L
820.138 87.594 L
820.525 87.234 L
820.912 87.193 L
821.3 86.732 L
821.688 87.522 L
822.075 87.207 L
822.463 87.489 L
822.85 87.489 L
823.237 88.47 L
823.625 88.857 L
824.013 88.744 L
824.4 89.055 L
824.787 88.629 L
825.175 88.47 L
825.563 88.223 L
825.95 88.612 L
826.338 88.18 L
826.725 88.414 L
827.112 87.812 L
827.5 88.528 L
827.888 88.671 L
828.275 89.057 L
828.662 89.57 L
829.05 90.616 L
829.438 91.922 L
829.825 91.257 L
830.213 91.316 L
830.6 91.002 L
830.987 90.875 L
831.375 90.528 L
831.763 90.147 L
832.15 90.704 L
832.537 90.855 L
832.925 90.391 L
833.313 90.078 L
833.7 90.102 L
834.088 89.547 L
834.475 89.712 L
834.862 89.377 L
835.25 88.313 L
835.638 87.875 L
836.025 88.332 L
836.412 88.414 L
836.8 89.364 L
837.188 89.196 L
837.575 88.898 L
837.963 89.049 L
838.35 89.301 L
838.737 89.016 L
839.125 87.635 L
839.513 87.967 L
839.9 87.588 L
840.287 87.492 L
840.675 88.586 L
841.063 89.587 L
841.45 89.445 L
841.838 90.913 L
842.225 90.872 L
842.612 90.563 L
843 90.238 L
843.388 90.61 L
843.775 91.2 L
844.162 91.183 L
844.55 91.019 L
844.938 91.336 L
845.325 91.407 L
845.713 90.573 L
846.1 90.878 L
846.487 90.649 L
846.875 90.863 L
847.263 90.703 L
847.65 91.154 L
848.037 90.265 L
848.425 90.127 L
848.813 89.564 L
849.2 88.484 L
849.588 88.563 L
849.975 89.141 L
850.362 90.522 L
850.75 90.332 L
851.138 90.802 L
851.525 91.328 L
851.912 90.492 L
852.3 90.514 L
852.688 91.018 L
853.075 90.937 L
853.463 92.021 L
853.85 91.931 L
854.237 91.852 L
854.625 91.693 L
855.013 91.881 L
855.4 91.769 L
855.787 91.808 L
856.175 91.06 L
856.563 90.057 L
856.95 89.445 L
857.338 88.925 L
857.725 88.535 L
858.112 88.639 L
858.5 88.475 L
858.888 89.547 L
859.275 89.384 L
859.662 89.869 L
860.05 90.014 L
860.438 89.226 L
860.825 87.859 L
861.213 87.274 L
861.6 86.413 L
861.987 86.23 L
862.375 87.058 L
862.763 86.883 L
863.15 86.581 L
863.537 86.667 L
863.925 86.599 L
864.313 86.231 L
864.7 85.941 L
865.088 85.216 L
865.475 86.24 L
865.862 85.842 L
866.25 85.785 L
866.638 85.655 L
867.025 85.043 L
867.412 85.903 L
867.8 85.852 L
868.188 85.267 L
868.575 84.808 L
868.963 84.95 L
869.35 86.112 L
869.737 86.152 L
870.125 85.857 L
870.513 85.611 L
870.9 85.258 L
871.287 85.158 L
871.675 85.777 L
872.063 85.345 L
872.45 85.482 L
872.838 85.766 L
873.225 85.261 L
873.612 85.717 L
874 85.717 L
874.388 85.882 L
874.775 86.398 L
875.162 86.764 L
875.55 86.133 L
875.938 86.235 L
876.325 86.137 L
876.713 86.361 L
877.1 85.901 L
877.487 86.14 L
877.875 85.981 L
878.263 86.04 L
878.65 85.988 L
879.037 86.981 L
879.425 87.397 L
879.813 87.963 L
880.2 88.27 L
880.588 88.687 L
880.975 89.006 L
881.362 88.73 L
881.75 88.746 L
882.138 89.221 L
882.525 88.569 L
882.912 87.95 L
883.3 88.216 L
883.688 88.996 L
884.075 88.885 L
884.463 89.578 L
884.85 90.438 L
885.237 90.952 L
885.625 91.272 L
886.013 91.081 L
886.4 91.314 L
886.787 91.168 L
887.175 89.972 L
887.563 89.722 L
887.95 89.535 L
888.338 89.779 L
888.725 90.291 L
889.112 89.049 L
889.5 88.232 L
889.888 87.892 L
890.275 87.555 L
890.662 87.487 L
891.05 86.928 L
891.438 86.785 L
891.825 86.463 L
892.213 86.203 L
892.6 86.248 L
892.987 86.342 L
893.375 86.772 L
893.763 86.846 L
894.15 86.59 L
894.537 85.983 L
894.925 86.021 L
895.313 86.238 L
895.7 86.515 L
896.088 87.069 L
896.475 87 L
896.862 87.642 L
897.25 87.621 L
897.638 87.814 L
898.025 87.918 L
898.412 87.722 L
898.8 86.454 L
899.188 85.841 L
899.575 85.197 L
899.963 84.789 L
900.35 84.907 L
900.737 84.469 L
901.125 84.456 L
901.513 84.927 L
901.9 83.222 L
902.287 84.021 L
902.675 84.752 L
903.063 83.981 L
903.45 82.825 L
903.838 83.466 L
904.225 82.319 L
904.612 81.521 L
905 79.47 L
S
GR
%%Trailer
%%Pages: 1
%%EOF
