%!PS-Adobe-3.0 EPSF-3.0
%%Creator: (MATLAB, The Mathworks, Inc. Version 9.0.0.341360 \(R2016a\). Operating System: Linux)
%%Title: report/figures/sm_base_mtgt_additional_fc_layer1_ratio.eps
%%CreationDate: 2017-02-04T23:56:34
%%Pages: (atend)
%%BoundingBox:    59     4   910   325
%%LanguageLevel: 3
%%EndComments
%%BeginProlog
%%BeginResource: procset (Apache XML Graphics Std ProcSet) 1.2 0
%%Version: 1.2 0
%%Copyright: (Copyright 2001-2003,2010 The Apache Software Foundation. License terms: http://www.apache.org/licenses/LICENSE-2.0)
/bd{bind def}bind def
/ld{load def}bd
/GR/grestore ld
/M/moveto ld
/LJ/setlinejoin ld
/C/curveto ld
/f/fill ld
/LW/setlinewidth ld
/GC/setgray ld
/t/show ld
/N/newpath ld
/CT/concat ld
/cp/closepath ld
/S/stroke ld
/L/lineto ld
/CC/setcmykcolor ld
/A/ashow ld
/GS/gsave ld
/RC/setrgbcolor ld
/RM/rmoveto ld
/ML/setmiterlimit ld
/re {4 2 roll M
1 index 0 rlineto
0 exch rlineto
neg 0 rlineto
cp } bd
/_ctm matrix def
/_tm matrix def
/BT { _ctm currentmatrix pop matrix _tm copy pop 0 0 moveto } bd
/ET { _ctm setmatrix } bd
/iTm { _ctm setmatrix _tm concat } bd
/Tm { _tm astore pop iTm 0 0 moveto } bd
/ux 0.0 def
/uy 0.0 def
/F {
  /Tp exch def
  /Tf exch def
  Tf findfont Tp scalefont setfont
  /cf Tf def  /cs Tp def
} bd
/ULS {currentpoint /uy exch def /ux exch def} bd
/ULE {
  /Tcx currentpoint pop def
  gsave
  newpath
  cf findfont cs scalefont dup
  /FontMatrix get 0 get /Ts exch def /FontInfo get dup
  /UnderlinePosition get Ts mul /To exch def
  /UnderlineThickness get Ts mul /Tt exch def
  ux uy To add moveto  Tcx uy To add lineto
  Tt setlinewidth stroke
  grestore
} bd
/OLE {
  /Tcx currentpoint pop def
  gsave
  newpath
  cf findfont cs scalefont dup
  /FontMatrix get 0 get /Ts exch def /FontInfo get dup
  /UnderlinePosition get Ts mul /To exch def
  /UnderlineThickness get Ts mul /Tt exch def
  ux uy To add cs add moveto Tcx uy To add cs add lineto
  Tt setlinewidth stroke
  grestore
} bd
/SOE {
  /Tcx currentpoint pop def
  gsave
  newpath
  cf findfont cs scalefont dup
  /FontMatrix get 0 get /Ts exch def /FontInfo get dup
  /UnderlinePosition get Ts mul /To exch def
  /UnderlineThickness get Ts mul /Tt exch def
  ux uy To add cs 10 mul 26 idiv add moveto Tcx uy To add cs 10 mul 26 idiv add lineto
  Tt setlinewidth stroke
  grestore
} bd
/QT {
/Y22 exch store
/X22 exch store
/Y21 exch store
/X21 exch store
currentpoint
/Y21 load 2 mul add 3 div exch
/X21 load 2 mul add 3 div exch
/X21 load 2 mul /X22 load add 3 div
/Y21 load 2 mul /Y22 load add 3 div
/X22 load /Y22 load curveto
} bd
/SSPD {
dup length /d exch dict def
{
/v exch def
/k exch def
currentpagedevice k known {
/cpdv currentpagedevice k get def
v cpdv ne {
/upd false def
/nullv v type /nulltype eq def
/nullcpdv cpdv type /nulltype eq def
nullv nullcpdv or
{
/upd true def
} {
/sametype v type cpdv type eq def
sametype {
v type /arraytype eq {
/vlen v length def
/cpdvlen cpdv length def
vlen cpdvlen eq {
0 1 vlen 1 sub {
/i exch def
/obj v i get def
/cpdobj cpdv i get def
obj cpdobj ne {
/upd true def
exit
} if
} for
} {
/upd true def
} ifelse
} {
v type /dicttype eq {
v {
/dv exch def
/dk exch def
/cpddv cpdv dk get def
dv cpddv ne {
/upd true def
exit
} if
} forall
} {
/upd true def
} ifelse
} ifelse
} if
} ifelse
upd true eq {
d k v put
} if
} if
} if
} forall
d length 0 gt {
d setpagedevice
} if
} bd
%%EndResource
%%BeginResource: procset (Apache XML Graphics EPS ProcSet) 1.0 0
%%Version: 1.0 0
%%Copyright: (Copyright 2002-2003 The Apache Software Foundation. License terms: http://www.apache.org/licenses/LICENSE-2.0)
/BeginEPSF { %def
/b4_Inc_state save def         % Save state for cleanup
/dict_count countdictstack def % Count objects on dict stack
/op_count count 1 sub def      % Count objects on operand stack
userdict begin                 % Push userdict on dict stack
/showpage { } def              % Redefine showpage, { } = null proc
0 setgray 0 setlinecap         % Prepare graphics state
1 setlinewidth 0 setlinejoin
10 setmiterlimit [ ] 0 setdash newpath
/languagelevel where           % If level not equal to 1 then
{pop languagelevel             % set strokeadjust and
1 ne                           % overprint to their defaults.
{false setstrokeadjust false setoverprint
} if
} if
} bd
/EndEPSF { %def
count op_count sub {pop} repeat            % Clean up stacks
countdictstack dict_count sub {end} repeat
b4_Inc_state restore
} bd
%%EndResource
%%EndProlog
%%Page: 1 1
%%PageBoundingBox: 0 0 1000 350
%%BeginPageSetup
[1 0 0 -1 0 350] CT
%%EndPageSetup
GS
1 GC
N
0 0 1000 350 re
f
GR
GS
1 GC
N
0 0 1000 350 re
f
GR
GS
1 GC
N
130 289 M
905 289 L
905 26 L
130 26 L
cp
f
GR
GS
0.873 GC
1 LJ
0.5 LW
N
130 289 M
130 26 L
S
GR
GS
0.873 GC
1 LJ
0.5 LW
N
323.75 289 M
323.75 26 L
S
GR
GS
0.873 GC
1 LJ
0.5 LW
N
517.5 289 M
517.5 26 L
S
GR
GS
0.873 GC
1 LJ
0.5 LW
N
711.25 289 M
711.25 26 L
S
GR
GS
0.873 GC
1 LJ
0.5 LW
N
905 289 M
905 26 L
S
GR
GS
0.873 GC
1 LJ
0.5 LW
N
905 289 M
130 289 L
S
GR
GS
0.873 GC
1 LJ
0.5 LW
N
905 238.905 M
130 238.905 L
S
GR
GS
0.873 GC
1 LJ
0.5 LW
N
905 188.81 M
130 188.81 L
S
GR
GS
0.873 GC
1 LJ
0.5 LW
N
905 138.714 M
130 138.714 L
S
GR
GS
0.873 GC
1 LJ
0.5 LW
N
905 88.619 M
130 88.619 L
S
GR
GS
0.873 GC
1 LJ
0.5 LW
N
905 38.524 M
130 38.524 L
S
GR
GS
0.149 GC
2 setlinecap
1 LJ
0.5 LW
N
130 289 M
905 289 L
S
GR
GS
0.149 GC
2 setlinecap
1 LJ
0.5 LW
N
130 289 M
130 281.25 L
S
GR
GS
0.149 GC
2 setlinecap
1 LJ
0.5 LW
N
323.75 289 M
323.75 281.25 L
S
GR
GS
0.149 GC
2 setlinecap
1 LJ
0.5 LW
N
517.5 289 M
517.5 281.25 L
S
GR
GS
0.149 GC
2 setlinecap
1 LJ
0.5 LW
N
711.25 289 M
711.25 281.25 L
S
GR
GS
0.149 GC
2 setlinecap
1 LJ
0.5 LW
N
905 289 M
905 281.25 L
S
GR
GS
[1 0 0 1 130 295] CT
0.149 GC
N
-0.141 5.719 M
-1.672 5.719 -2.438 7.219 QT
-3.203 8.719 -3.203 11.719 QT
-3.203 14.719 -2.438 16.219 QT
-1.672 17.719 -0.141 17.719 QT
1.391 17.719 2.156 16.219 QT
2.922 14.719 2.922 11.719 QT
2.922 8.719 2.156 7.219 QT
1.391 5.719 -0.141 5.719 QT
cp
-0.141 4.156 M
2.313 4.156 3.602 6.094 QT
4.891 8.031 4.891 11.719 QT
4.891 15.406 3.602 17.344 QT
2.313 19.281 -0.141 19.281 QT
-2.594 19.281 -3.891 17.344 QT
-5.188 15.406 -5.188 11.719 QT
-5.188 8.031 -3.891 6.094 QT
-2.594 4.156 -0.141 4.156 QT
cp
f
GR
GS
[1 0 0 1 323.75 295] CT
0.149 GC
N
-9.641 5.719 M
-11.172 5.719 -11.938 7.219 QT
-12.703 8.719 -12.703 11.719 QT
-12.703 14.719 -11.938 16.219 QT
-11.172 17.719 -9.641 17.719 QT
-8.109 17.719 -7.344 16.219 QT
-6.578 14.719 -6.578 11.719 QT
-6.578 8.719 -7.344 7.219 QT
-8.109 5.719 -9.641 5.719 QT
cp
-9.641 4.156 M
-7.188 4.156 -5.898 6.094 QT
-4.609 8.031 -4.609 11.719 QT
-4.609 15.406 -5.898 17.344 QT
-7.188 19.281 -9.641 19.281 QT
-12.094 19.281 -13.391 17.344 QT
-14.688 15.406 -14.688 11.719 QT
-14.688 8.031 -13.391 6.094 QT
-12.094 4.156 -9.641 4.156 QT
cp
-1.135 16.516 M
0.928 16.516 L
0.928 19 L
-1.135 19 L
-1.135 16.516 L
cp
5.238 4.422 M
12.988 4.422 L
12.988 6.078 L
7.051 6.078 L
7.051 9.656 L
7.473 9.5 7.902 9.43 QT
8.332 9.359 8.77 9.359 QT
11.207 9.359 12.637 10.695 QT
14.066 12.031 14.066 14.328 QT
14.066 16.672 12.598 17.977 QT
11.129 19.281 8.457 19.281 QT
7.551 19.281 6.598 19.125 QT
5.645 18.969 4.629 18.656 QT
4.629 16.672 L
5.504 17.156 6.441 17.391 QT
7.379 17.625 8.426 17.625 QT
10.113 17.625 11.098 16.734 QT
12.082 15.844 12.082 14.328 QT
12.082 12.797 11.098 11.906 QT
10.113 11.016 8.426 11.016 QT
7.629 11.016 6.848 11.195 QT
6.066 11.375 5.238 11.75 QT
5.238 4.422 L
cp
f
GR
GS
[1 0 0 1 517.5 295] CT
0.149 GC
N
-4.016 17.344 M
-0.797 17.344 L
-0.797 6.219 L
-4.297 6.922 L
-4.297 5.125 L
-0.813 4.422 L
1.156 4.422 L
1.156 17.344 L
4.375 17.344 L
4.375 19 L
-4.016 19 L
-4.016 17.344 L
cp
f
GR
GS
[1 0 0 1 711.25 295] CT
0.149 GC
N
-13.516 17.344 M
-10.297 17.344 L
-10.297 6.219 L
-13.797 6.922 L
-13.797 5.125 L
-10.313 4.422 L
-8.344 4.422 L
-8.344 17.344 L
-5.125 17.344 L
-5.125 19 L
-13.516 19 L
-13.516 17.344 L
cp
-1.135 16.516 M
0.928 16.516 L
0.928 19 L
-1.135 19 L
-1.135 16.516 L
cp
5.238 4.422 M
12.988 4.422 L
12.988 6.078 L
7.051 6.078 L
7.051 9.656 L
7.473 9.5 7.902 9.43 QT
8.332 9.359 8.77 9.359 QT
11.207 9.359 12.637 10.695 QT
14.066 12.031 14.066 14.328 QT
14.066 16.672 12.598 17.977 QT
11.129 19.281 8.457 19.281 QT
7.551 19.281 6.598 19.125 QT
5.645 18.969 4.629 18.656 QT
4.629 16.672 L
5.504 17.156 6.441 17.391 QT
7.379 17.625 8.426 17.625 QT
10.113 17.625 11.098 16.734 QT
12.082 15.844 12.082 14.328 QT
12.082 12.797 11.098 11.906 QT
10.113 11.016 8.426 11.016 QT
7.629 11.016 6.848 11.195 QT
6.066 11.375 5.238 11.75 QT
5.238 4.422 L
cp
f
GR
GS
[1 0 0 1 905 295] CT
0.149 GC
N
-2.656 17.344 M
4.219 17.344 L
4.219 19 L
-5.031 19 L
-5.031 17.344 L
-3.906 16.172 -1.969 14.219 QT
-0.031 12.266 0.469 11.688 QT
1.406 10.625 1.781 9.891 QT
2.156 9.156 2.156 8.438 QT
2.156 7.281 1.344 6.547 QT
0.531 5.813 -0.781 5.813 QT
-1.703 5.813 -2.734 6.133 QT
-3.766 6.453 -4.938 7.109 QT
-4.938 5.125 L
-3.75 4.641 -2.711 4.398 QT
-1.672 4.156 -0.813 4.156 QT
1.453 4.156 2.797 5.289 QT
4.141 6.422 4.141 8.313 QT
4.141 9.219 3.805 10.023 QT
3.469 10.828 2.578 11.922 QT
2.344 12.203 1.031 13.555 QT
-0.281 14.906 -2.656 17.344 QT
cp
f
GR
GS
[1 0 0 1 517.50037 320] CT
0.149 GC
N
-14.25 9.328 M
-14.25 11.188 L
-15.094 10.766 -16 10.547 QT
-16.906 10.328 -17.859 10.328 QT
-19.344 10.328 -20.078 10.781 QT
-20.813 11.234 -20.813 12.141 QT
-20.813 12.828 -20.281 13.219 QT
-19.75 13.609 -18.172 13.969 QT
-17.484 14.109 L
-15.391 14.563 -14.5 15.383 QT
-13.609 16.203 -13.609 17.688 QT
-13.609 19.359 -14.938 20.336 QT
-16.266 21.313 -18.578 21.313 QT
-19.547 21.313 -20.594 21.125 QT
-21.641 20.938 -22.813 20.563 QT
-22.813 18.516 L
-21.719 19.094 -20.648 19.375 QT
-19.578 19.656 -18.547 19.656 QT
-17.141 19.656 -16.391 19.18 QT
-15.641 18.703 -15.641 17.828 QT
-15.641 17.031 -16.188 16.602 QT
-16.734 16.172 -18.563 15.766 QT
-19.25 15.609 L
-21.094 15.219 -21.906 14.422 QT
-22.719 13.625 -22.719 12.219 QT
-22.719 10.531 -21.516 9.602 QT
-20.313 8.672 -18.109 8.672 QT
-17 8.672 -16.039 8.836 QT
-15.078 9 -14.25 9.328 QT
cp
-8.507 5.547 M
-8.507 8.969 L
-4.444 8.969 L
-4.444 10.5 L
-8.507 10.5 L
-8.507 17.031 L
-8.507 18.5 -8.108 18.922 QT
-7.71 19.344 -6.476 19.344 QT
-4.444 19.344 L
-4.444 21 L
-6.476 21 L
-8.757 21 -9.624 20.148 QT
-10.491 19.297 -10.491 17.031 QT
-10.491 10.5 L
-11.944 10.5 L
-11.944 8.969 L
-10.491 8.969 L
-10.491 5.547 L
-8.507 5.547 L
cp
8.447 14.484 M
8.447 15.453 L
-0.631 15.453 L
-0.506 17.5 0.596 18.57 QT
1.697 19.641 3.666 19.641 QT
4.807 19.641 5.869 19.359 QT
6.932 19.078 7.994 18.516 QT
7.994 20.391 L
6.932 20.844 5.814 21.078 QT
4.697 21.313 3.541 21.313 QT
0.666 21.313 -1.014 19.633 QT
-2.693 17.953 -2.693 15.109 QT
-2.693 12.141 -1.1 10.406 QT
0.494 8.672 3.197 8.672 QT
5.635 8.672 7.041 10.234 QT
8.447 11.797 8.447 14.484 QT
cp
6.479 13.906 M
6.447 12.281 5.564 11.32 QT
4.682 10.359 3.229 10.359 QT
1.572 10.359 0.572 11.289 QT
-0.428 12.219 -0.568 13.922 QT
6.479 13.906 L
cp
13.607 19.188 M
13.607 25.578 L
11.623 25.578 L
11.623 8.969 L
13.607 8.969 L
13.607 10.797 L
14.232 9.719 15.186 9.195 QT
16.139 8.672 17.451 8.672 QT
19.639 8.672 21.014 10.414 QT
22.389 12.156 22.389 15 QT
22.389 17.828 21.014 19.57 QT
19.639 21.313 17.451 21.313 QT
16.139 21.313 15.186 20.789 QT
14.232 20.266 13.607 19.188 QT
cp
20.326 15 M
20.326 12.813 19.436 11.57 QT
18.545 10.328 16.967 10.328 QT
15.404 10.328 14.506 11.57 QT
13.607 12.813 13.607 15 QT
13.607 17.172 14.506 18.414 QT
15.404 19.656 16.967 19.656 QT
18.545 19.656 19.436 18.414 QT
20.326 17.172 20.326 15 QT
cp
f
GR
GS
[1 0 0 1 852 345] CT
0.149 GC
N
2.938 -0.578 M
2.938 -0.734 3.031 -0.859 QT
7.203 -5 L
3.031 -9.156 L
2.938 -9.266 2.938 -9.422 QT
2.938 -9.578 3.055 -9.703 QT
3.172 -9.828 3.344 -9.828 QT
3.484 -9.828 3.641 -9.703 QT
7.781 -5.563 L
11.906 -9.703 L
12.078 -9.828 12.203 -9.828 QT
12.359 -9.828 12.477 -9.711 QT
12.594 -9.594 12.594 -9.422 QT
12.594 -9.266 12.5 -9.156 QT
8.344 -5 L
12.5 -0.859 L
12.594 -0.734 12.594 -0.578 QT
12.594 -0.406 12.477 -0.289 QT
12.359 -0.172 12.203 -0.172 QT
12.047 -0.172 11.906 -0.328 QT
7.781 -4.438 L
3.641 -0.328 L
3.5 -0.172 3.344 -0.172 QT
3.172 -0.172 3.055 -0.305 QT
2.938 -0.438 2.938 -0.578 QT
cp
f
GR
GS
[1 0 0 1 868 345] CT
0.149 GC
N
2.484 -1.656 M
5.703 -1.656 L
5.703 -12.781 L
2.203 -12.078 L
2.203 -13.875 L
5.688 -14.578 L
7.656 -14.578 L
7.656 -1.656 L
10.875 -1.656 L
10.875 0 L
2.484 0 L
2.484 -1.656 L
cp
19.084 -13.281 M
17.553 -13.281 16.787 -11.781 QT
16.021 -10.281 16.021 -7.281 QT
16.021 -4.281 16.787 -2.781 QT
17.553 -1.281 19.084 -1.281 QT
20.615 -1.281 21.381 -2.781 QT
22.146 -4.281 22.146 -7.281 QT
22.146 -10.281 21.381 -11.781 QT
20.615 -13.281 19.084 -13.281 QT
cp
19.084 -14.844 M
21.537 -14.844 22.826 -12.906 QT
24.115 -10.969 24.115 -7.281 QT
24.115 -3.594 22.826 -1.656 QT
21.537 0.281 19.084 0.281 QT
16.631 0.281 15.334 -1.656 QT
14.037 -3.594 14.037 -7.281 QT
14.037 -10.969 15.334 -12.906 QT
16.631 -14.844 19.084 -14.844 QT
cp
f
GR
GS
[1 0 0 1 894 335] CT
0.149 GC
N
5.281 -6.469 M
4.219 -6.469 3.602 -5.742 QT
2.984 -5.016 2.984 -3.75 QT
2.984 -2.484 3.602 -1.758 QT
4.219 -1.031 5.281 -1.031 QT
6.344 -1.031 6.969 -1.758 QT
7.594 -2.484 7.594 -3.75 QT
7.594 -5.016 6.969 -5.742 QT
6.344 -6.469 5.281 -6.469 QT
cp
8.422 -11.406 M
8.422 -9.969 L
7.828 -10.25 7.219 -10.398 QT
6.609 -10.547 6.016 -10.547 QT
4.453 -10.547 3.633 -9.492 QT
2.813 -8.438 2.688 -6.313 QT
3.156 -6.984 3.852 -7.352 QT
4.547 -7.719 5.375 -7.719 QT
7.141 -7.719 8.156 -6.648 QT
9.172 -5.578 9.172 -3.75 QT
9.172 -1.953 8.109 -0.859 QT
7.047 0.234 5.281 0.234 QT
3.266 0.234 2.195 -1.32 QT
1.125 -2.875 1.125 -5.828 QT
1.125 -8.594 2.438 -10.234 QT
3.75 -11.875 5.953 -11.875 QT
6.547 -11.875 7.156 -11.758 QT
7.766 -11.641 8.422 -11.406 QT
cp
f
GR
GS
0.149 GC
2 setlinecap
1 LJ
0.5 LW
N
130 289 M
130 26 L
S
GR
GS
0.149 GC
2 setlinecap
1 LJ
0.5 LW
N
130 289 M
137.75 289 L
S
GR
GS
0.149 GC
2 setlinecap
1 LJ
0.5 LW
N
130 238.905 M
137.75 238.905 L
S
GR
GS
0.149 GC
2 setlinecap
1 LJ
0.5 LW
N
130 188.81 M
137.75 188.81 L
S
GR
GS
0.149 GC
2 setlinecap
1 LJ
0.5 LW
N
130 138.714 M
137.75 138.714 L
S
GR
GS
0.149 GC
2 setlinecap
1 LJ
0.5 LW
N
130 88.619 M
137.75 88.619 L
S
GR
GS
0.149 GC
2 setlinecap
1 LJ
0.5 LW
N
130 38.524 M
137.75 38.524 L
S
GR
GS
[1 0 0 1 124 289] CT
0.149 GC
N
-6.641 -6.281 M
-8.172 -6.281 -8.938 -4.781 QT
-9.703 -3.281 -9.703 -0.281 QT
-9.703 2.719 -8.938 4.219 QT
-8.172 5.719 -6.641 5.719 QT
-5.109 5.719 -4.344 4.219 QT
-3.578 2.719 -3.578 -0.281 QT
-3.578 -3.281 -4.344 -4.781 QT
-5.109 -6.281 -6.641 -6.281 QT
cp
-6.641 -7.844 M
-4.188 -7.844 -2.898 -5.906 QT
-1.609 -3.969 -1.609 -0.281 QT
-1.609 3.406 -2.898 5.344 QT
-4.188 7.281 -6.641 7.281 QT
-9.094 7.281 -10.391 5.344 QT
-11.688 3.406 -11.688 -0.281 QT
-11.688 -3.969 -10.391 -5.906 QT
-9.094 -7.844 -6.641 -7.844 QT
cp
f
GR
GS
[1 0 0 1 124 238.90475] CT
0.149 GC
N
-22.156 5.344 M
-15.281 5.344 L
-15.281 7 L
-24.531 7 L
-24.531 5.344 L
-23.406 4.172 -21.469 2.219 QT
-19.531 0.266 -19.031 -0.313 QT
-18.094 -1.375 -17.719 -2.109 QT
-17.344 -2.844 -17.344 -3.563 QT
-17.344 -4.719 -18.156 -5.453 QT
-18.969 -6.188 -20.281 -6.188 QT
-21.203 -6.188 -22.234 -5.867 QT
-23.266 -5.547 -24.438 -4.891 QT
-24.438 -6.875 L
-23.25 -7.359 -22.211 -7.602 QT
-21.172 -7.844 -20.313 -7.844 QT
-18.047 -7.844 -16.703 -6.711 QT
-15.359 -5.578 -15.359 -3.688 QT
-15.359 -2.781 -15.695 -1.977 QT
-16.031 -1.172 -16.922 -0.078 QT
-17.156 0.203 -18.469 1.555 QT
-19.781 2.906 -22.156 5.344 QT
cp
-6.916 -6.281 M
-8.447 -6.281 -9.213 -4.781 QT
-9.979 -3.281 -9.979 -0.281 QT
-9.979 2.719 -9.213 4.219 QT
-8.447 5.719 -6.916 5.719 QT
-5.385 5.719 -4.619 4.219 QT
-3.854 2.719 -3.854 -0.281 QT
-3.854 -3.281 -4.619 -4.781 QT
-5.385 -6.281 -6.916 -6.281 QT
cp
-6.916 -7.844 M
-4.463 -7.844 -3.174 -5.906 QT
-1.885 -3.969 -1.885 -0.281 QT
-1.885 3.406 -3.174 5.344 QT
-4.463 7.281 -6.916 7.281 QT
-9.369 7.281 -10.666 5.344 QT
-11.963 3.406 -11.963 -0.281 QT
-11.963 -3.969 -10.666 -5.906 QT
-9.369 -7.844 -6.916 -7.844 QT
cp
f
GR
GS
[1 0 0 1 124 188.80952] CT
0.149 GC
N
-18.438 -5.859 M
-23.422 1.922 L
-18.438 1.922 L
-18.438 -5.859 L
cp
-18.953 -7.578 M
-16.484 -7.578 L
-16.484 1.922 L
-14.391 1.922 L
-14.391 3.563 L
-16.484 3.563 L
-16.484 7 L
-18.438 7 L
-18.438 3.563 L
-25.016 3.563 L
-25.016 1.656 L
-18.953 -7.578 L
cp
-6.916 -6.281 M
-8.447 -6.281 -9.213 -4.781 QT
-9.979 -3.281 -9.979 -0.281 QT
-9.979 2.719 -9.213 4.219 QT
-8.447 5.719 -6.916 5.719 QT
-5.385 5.719 -4.619 4.219 QT
-3.854 2.719 -3.854 -0.281 QT
-3.854 -3.281 -4.619 -4.781 QT
-5.385 -6.281 -6.916 -6.281 QT
cp
-6.916 -7.844 M
-4.463 -7.844 -3.174 -5.906 QT
-1.885 -3.969 -1.885 -0.281 QT
-1.885 3.406 -3.174 5.344 QT
-4.463 7.281 -6.916 7.281 QT
-9.369 7.281 -10.666 5.344 QT
-11.963 3.406 -11.963 -0.281 QT
-11.963 -3.969 -10.666 -5.906 QT
-9.369 -7.844 -6.916 -7.844 QT
cp
f
GR
GS
[1 0 0 1 124 138.71428] CT
0.149 GC
N
-19.391 -1.078 M
-20.719 -1.078 -21.5 -0.172 QT
-22.281 0.734 -22.281 2.328 QT
-22.281 3.891 -21.5 4.805 QT
-20.719 5.719 -19.391 5.719 QT
-18.063 5.719 -17.289 4.805 QT
-16.516 3.891 -16.516 2.328 QT
-16.516 0.734 -17.289 -0.172 QT
-18.063 -1.078 -19.391 -1.078 QT
cp
-15.484 -7.266 M
-15.484 -5.469 L
-16.219 -5.813 -16.977 -6 QT
-17.734 -6.188 -18.484 -6.188 QT
-20.438 -6.188 -21.469 -4.867 QT
-22.5 -3.547 -22.641 -0.875 QT
-22.063 -1.734 -21.195 -2.188 QT
-20.328 -2.641 -19.281 -2.641 QT
-17.078 -2.641 -15.805 -1.305 QT
-14.531 0.031 -14.531 2.328 QT
-14.531 4.563 -15.859 5.922 QT
-17.188 7.281 -19.391 7.281 QT
-21.922 7.281 -23.266 5.344 QT
-24.609 3.406 -24.609 -0.281 QT
-24.609 -3.734 -22.969 -5.789 QT
-21.328 -7.844 -18.563 -7.844 QT
-17.813 -7.844 -17.055 -7.695 QT
-16.297 -7.547 -15.484 -7.266 QT
cp
-6.916 -6.281 M
-8.447 -6.281 -9.213 -4.781 QT
-9.979 -3.281 -9.979 -0.281 QT
-9.979 2.719 -9.213 4.219 QT
-8.447 5.719 -6.916 5.719 QT
-5.385 5.719 -4.619 4.219 QT
-3.854 2.719 -3.854 -0.281 QT
-3.854 -3.281 -4.619 -4.781 QT
-5.385 -6.281 -6.916 -6.281 QT
cp
-6.916 -7.844 M
-4.463 -7.844 -3.174 -5.906 QT
-1.885 -3.969 -1.885 -0.281 QT
-1.885 3.406 -3.174 5.344 QT
-4.463 7.281 -6.916 7.281 QT
-9.369 7.281 -10.666 5.344 QT
-11.963 3.406 -11.963 -0.281 QT
-11.963 -3.969 -10.666 -5.906 QT
-9.369 -7.844 -6.916 -7.844 QT
cp
f
GR
GS
[1 0 0 1 124 88.61905] CT
0.149 GC
N
-19.641 0.078 M
-21.047 0.078 -21.852 0.828 QT
-22.656 1.578 -22.656 2.891 QT
-22.656 4.219 -21.852 4.969 QT
-21.047 5.719 -19.641 5.719 QT
-18.234 5.719 -17.422 4.961 QT
-16.609 4.203 -16.609 2.891 QT
-16.609 1.578 -17.414 0.828 QT
-18.219 0.078 -19.641 0.078 QT
cp
-21.609 -0.766 M
-22.891 -1.078 -23.594 -1.945 QT
-24.297 -2.813 -24.297 -4.063 QT
-24.297 -5.813 -23.055 -6.828 QT
-21.813 -7.844 -19.641 -7.844 QT
-17.469 -7.844 -16.227 -6.828 QT
-14.984 -5.813 -14.984 -4.063 QT
-14.984 -2.813 -15.695 -1.945 QT
-16.406 -1.078 -17.656 -0.766 QT
-16.234 -0.438 -15.438 0.531 QT
-14.641 1.5 -14.641 2.891 QT
-14.641 5.016 -15.938 6.148 QT
-17.234 7.281 -19.641 7.281 QT
-22.047 7.281 -23.344 6.148 QT
-24.641 5.016 -24.641 2.891 QT
-24.641 1.5 -23.844 0.531 QT
-23.047 -0.438 -21.609 -0.766 QT
cp
-22.344 -3.875 M
-22.344 -2.75 -21.633 -2.117 QT
-20.922 -1.484 -19.641 -1.484 QT
-18.375 -1.484 -17.656 -2.117 QT
-16.938 -2.75 -16.938 -3.875 QT
-16.938 -5.016 -17.656 -5.648 QT
-18.375 -6.281 -19.641 -6.281 QT
-20.922 -6.281 -21.633 -5.648 QT
-22.344 -5.016 -22.344 -3.875 QT
cp
-6.916 -6.281 M
-8.447 -6.281 -9.213 -4.781 QT
-9.979 -3.281 -9.979 -0.281 QT
-9.979 2.719 -9.213 4.219 QT
-8.447 5.719 -6.916 5.719 QT
-5.385 5.719 -4.619 4.219 QT
-3.854 2.719 -3.854 -0.281 QT
-3.854 -3.281 -4.619 -4.781 QT
-5.385 -6.281 -6.916 -6.281 QT
cp
-6.916 -7.844 M
-4.463 -7.844 -3.174 -5.906 QT
-1.885 -3.969 -1.885 -0.281 QT
-1.885 3.406 -3.174 5.344 QT
-4.463 7.281 -6.916 7.281 QT
-9.369 7.281 -10.666 5.344 QT
-11.963 3.406 -11.963 -0.281 QT
-11.963 -3.969 -10.666 -5.906 QT
-9.369 -7.844 -6.916 -7.844 QT
cp
f
GR
GS
[1 0 0 1 124 38.52381] CT
0.149 GC
N
-36.516 5.344 M
-33.297 5.344 L
-33.297 -5.781 L
-36.797 -5.078 L
-36.797 -6.875 L
-33.313 -7.578 L
-31.344 -7.578 L
-31.344 5.344 L
-28.125 5.344 L
-28.125 7 L
-36.516 7 L
-36.516 5.344 L
cp
-19.916 -6.281 M
-21.447 -6.281 -22.213 -4.781 QT
-22.979 -3.281 -22.979 -0.281 QT
-22.979 2.719 -22.213 4.219 QT
-21.447 5.719 -19.916 5.719 QT
-18.385 5.719 -17.619 4.219 QT
-16.854 2.719 -16.854 -0.281 QT
-16.854 -3.281 -17.619 -4.781 QT
-18.385 -6.281 -19.916 -6.281 QT
cp
-19.916 -7.844 M
-17.463 -7.844 -16.174 -5.906 QT
-14.885 -3.969 -14.885 -0.281 QT
-14.885 3.406 -16.174 5.344 QT
-17.463 7.281 -19.916 7.281 QT
-22.369 7.281 -23.666 5.344 QT
-24.963 3.406 -24.963 -0.281 QT
-24.963 -3.969 -23.666 -5.906 QT
-22.369 -7.844 -19.916 -7.844 QT
cp
-7.191 -6.281 M
-8.723 -6.281 -9.488 -4.781 QT
-10.254 -3.281 -10.254 -0.281 QT
-10.254 2.719 -9.488 4.219 QT
-8.723 5.719 -7.191 5.719 QT
-5.66 5.719 -4.895 4.219 QT
-4.129 2.719 -4.129 -0.281 QT
-4.129 -3.281 -4.895 -4.781 QT
-5.66 -6.281 -7.191 -6.281 QT
cp
-7.191 -7.844 M
-4.738 -7.844 -3.449 -5.906 QT
-2.16 -3.969 -2.16 -0.281 QT
-2.16 3.406 -3.449 5.344 QT
-4.738 7.281 -7.191 7.281 QT
-9.645 7.281 -10.941 5.344 QT
-12.238 3.406 -12.238 -0.281 QT
-12.238 -3.969 -10.941 -5.906 QT
-9.645 -7.844 -7.191 -7.844 QT
cp
f
GR
GS
[0 -1 1 0 82 157.49988] CT
0.149 GC
N
-113.063 -22.031 M
-99.5 -22.031 L
-99.5 -20.219 L
-105.188 -20.219 L
-105.188 -6 L
-107.375 -6 L
-107.375 -20.219 L
-113.063 -20.219 L
-113.063 -22.031 L
cp
-92.015 -12.047 M
-94.421 -12.047 -95.343 -11.5 QT
-96.265 -10.953 -96.265 -9.625 QT
-96.265 -8.578 -95.569 -7.961 QT
-94.874 -7.344 -93.687 -7.344 QT
-92.046 -7.344 -91.054 -8.508 QT
-90.062 -9.672 -90.062 -11.609 QT
-90.062 -12.047 L
-92.015 -12.047 L
cp
-88.077 -12.859 M
-88.077 -6 L
-90.062 -6 L
-90.062 -7.828 L
-90.733 -6.734 -91.741 -6.211 QT
-92.749 -5.688 -94.218 -5.688 QT
-96.062 -5.688 -97.147 -6.727 QT
-98.233 -7.766 -98.233 -9.5 QT
-98.233 -11.531 -96.874 -12.563 QT
-95.515 -13.594 -92.827 -13.594 QT
-90.062 -13.594 L
-90.062 -13.781 L
-90.062 -15.156 -90.952 -15.898 QT
-91.843 -16.641 -93.468 -16.641 QT
-94.499 -16.641 -95.476 -16.398 QT
-96.452 -16.156 -97.358 -15.656 QT
-97.358 -17.484 L
-96.28 -17.906 -95.257 -18.117 QT
-94.233 -18.328 -93.265 -18.328 QT
-90.655 -18.328 -89.366 -16.969 QT
-88.077 -15.609 -88.077 -12.859 QT
cp
-77.033 -16.188 M
-77.361 -16.375 -77.76 -16.469 QT
-78.158 -16.563 -78.627 -16.563 QT
-80.299 -16.563 -81.197 -15.469 QT
-82.096 -14.375 -82.096 -12.344 QT
-82.096 -6 L
-84.08 -6 L
-84.08 -18.031 L
-82.096 -18.031 L
-82.096 -16.156 L
-81.471 -17.266 -80.471 -17.797 QT
-79.471 -18.328 -78.049 -18.328 QT
-77.846 -18.328 -77.596 -18.297 QT
-77.346 -18.266 -77.049 -18.219 QT
-77.033 -16.188 L
cp
-67.051 -12.156 M
-67.051 -14.297 -67.934 -15.484 QT
-68.816 -16.672 -70.41 -16.672 QT
-72.004 -16.672 -72.895 -15.484 QT
-73.785 -14.297 -73.785 -12.156 QT
-73.785 -10.016 -72.895 -8.836 QT
-72.004 -7.656 -70.41 -7.656 QT
-68.816 -7.656 -67.934 -8.836 QT
-67.051 -10.016 -67.051 -12.156 QT
cp
-65.066 -7.5 M
-65.066 -4.422 -66.434 -2.922 QT
-67.801 -1.422 -70.613 -1.422 QT
-71.66 -1.422 -72.582 -1.578 QT
-73.504 -1.734 -74.363 -2.063 QT
-74.363 -3.984 L
-73.504 -3.5 -72.652 -3.281 QT
-71.801 -3.063 -70.926 -3.063 QT
-68.973 -3.063 -68.012 -4.078 QT
-67.051 -5.094 -67.051 -7.141 QT
-67.051 -8.109 L
-67.66 -7.047 -68.613 -6.523 QT
-69.566 -6 -70.895 -6 QT
-73.113 -6 -74.465 -7.688 QT
-75.816 -9.375 -75.816 -12.156 QT
-75.816 -14.953 -74.465 -16.641 QT
-73.113 -18.328 -70.895 -18.328 QT
-69.566 -18.328 -68.613 -17.797 QT
-67.66 -17.266 -67.051 -16.203 QT
-67.051 -18.031 L
-65.066 -18.031 L
-65.066 -7.5 L
cp
-50.711 -12.516 M
-50.711 -11.547 L
-59.789 -11.547 L
-59.664 -9.5 -58.563 -8.43 QT
-57.461 -7.359 -55.492 -7.359 QT
-54.352 -7.359 -53.289 -7.641 QT
-52.227 -7.922 -51.164 -8.484 QT
-51.164 -6.609 L
-52.227 -6.156 -53.344 -5.922 QT
-54.461 -5.688 -55.617 -5.688 QT
-58.492 -5.688 -60.172 -7.367 QT
-61.852 -9.047 -61.852 -11.891 QT
-61.852 -14.859 -60.258 -16.594 QT
-58.664 -18.328 -55.961 -18.328 QT
-53.523 -18.328 -52.117 -16.766 QT
-50.711 -15.203 -50.711 -12.516 QT
cp
-52.68 -13.094 M
-52.711 -14.719 -53.594 -15.68 QT
-54.477 -16.641 -55.93 -16.641 QT
-57.586 -16.641 -58.586 -15.711 QT
-59.586 -14.781 -59.727 -13.078 QT
-52.68 -13.094 L
cp
-45.504 -21.453 M
-45.504 -18.031 L
-41.441 -18.031 L
-41.441 -16.5 L
-45.504 -16.5 L
-45.504 -9.969 L
-45.504 -8.5 -45.105 -8.078 QT
-44.707 -7.656 -43.473 -7.656 QT
-41.441 -7.656 L
-41.441 -6 L
-43.473 -6 L
-45.754 -6 -46.621 -6.852 QT
-47.488 -7.703 -47.488 -9.969 QT
-47.488 -16.5 L
-48.941 -16.5 L
-48.941 -18.031 L
-47.488 -18.031 L
-47.488 -21.453 L
-45.504 -21.453 L
cp
-31.159 -17.672 M
-31.159 -15.813 L
-32.003 -16.234 -32.909 -16.453 QT
-33.815 -16.672 -34.769 -16.672 QT
-36.253 -16.672 -36.987 -16.219 QT
-37.722 -15.766 -37.722 -14.859 QT
-37.722 -14.172 -37.19 -13.781 QT
-36.659 -13.391 -35.081 -13.031 QT
-34.394 -12.891 L
-32.3 -12.438 -31.409 -11.617 QT
-30.519 -10.797 -30.519 -9.313 QT
-30.519 -7.641 -31.847 -6.664 QT
-33.175 -5.688 -35.487 -5.688 QT
-36.456 -5.688 -37.503 -5.875 QT
-38.55 -6.063 -39.722 -6.438 QT
-39.722 -8.484 L
-38.628 -7.906 -37.558 -7.625 QT
-36.487 -7.344 -35.456 -7.344 QT
-34.05 -7.344 -33.3 -7.82 QT
-32.55 -8.297 -32.55 -9.172 QT
-32.55 -9.969 -33.097 -10.398 QT
-33.644 -10.828 -35.472 -11.234 QT
-36.159 -11.391 L
-38.003 -11.781 -38.815 -12.578 QT
-39.628 -13.375 -39.628 -14.781 QT
-39.628 -16.469 -38.425 -17.398 QT
-37.222 -18.328 -35.019 -18.328 QT
-33.909 -18.328 -32.948 -18.164 QT
-31.987 -18 -31.159 -17.672 QT
cp
-13.407 -16.188 M
-13.735 -16.375 -14.134 -16.469 QT
-14.532 -16.563 -15.001 -16.563 QT
-16.673 -16.563 -17.571 -15.469 QT
-18.47 -14.375 -18.47 -12.344 QT
-18.47 -6 L
-20.454 -6 L
-20.454 -18.031 L
-18.47 -18.031 L
-18.47 -16.156 L
-17.845 -17.266 -16.845 -17.797 QT
-15.845 -18.328 -14.423 -18.328 QT
-14.22 -18.328 -13.97 -18.297 QT
-13.72 -18.266 -13.423 -18.219 QT
-13.407 -16.188 L
cp
-1.05 -12.516 M
-1.05 -11.547 L
-10.128 -11.547 L
-10.003 -9.5 -8.901 -8.43 QT
-7.8 -7.359 -5.831 -7.359 QT
-4.69 -7.359 -3.628 -7.641 QT
-2.565 -7.922 -1.503 -8.484 QT
-1.503 -6.609 L
-2.565 -6.156 -3.683 -5.922 QT
-4.8 -5.688 -5.956 -5.688 QT
-8.831 -5.688 -10.511 -7.367 QT
-12.19 -9.047 -12.19 -11.891 QT
-12.19 -14.859 -10.597 -16.594 QT
-9.003 -18.328 -6.3 -18.328 QT
-3.862 -18.328 -2.456 -16.766 QT
-1.05 -15.203 -1.05 -12.516 QT
cp
-3.019 -13.094 M
-3.05 -14.719 -3.933 -15.68 QT
-4.815 -16.641 -6.269 -16.641 QT
-7.925 -16.641 -8.925 -15.711 QT
-9.925 -14.781 -10.065 -13.078 QT
-3.019 -13.094 L
cp
7.673 -12.047 M
5.267 -12.047 4.345 -11.5 QT
3.423 -10.953 3.423 -9.625 QT
3.423 -8.578 4.118 -7.961 QT
4.813 -7.344 6.001 -7.344 QT
7.642 -7.344 8.634 -8.508 QT
9.626 -9.672 9.626 -11.609 QT
9.626 -12.047 L
7.673 -12.047 L
cp
11.61 -12.859 M
11.61 -6 L
9.626 -6 L
9.626 -7.828 L
8.954 -6.734 7.946 -6.211 QT
6.938 -5.688 5.47 -5.688 QT
3.626 -5.688 2.54 -6.727 QT
1.454 -7.766 1.454 -9.5 QT
1.454 -11.531 2.813 -12.563 QT
4.173 -13.594 6.86 -13.594 QT
9.626 -13.594 L
9.626 -13.781 L
9.626 -15.156 8.735 -15.898 QT
7.845 -16.641 6.22 -16.641 QT
5.188 -16.641 4.212 -16.398 QT
3.235 -16.156 2.329 -15.656 QT
2.329 -17.484 L
3.407 -17.906 4.431 -18.117 QT
5.454 -18.328 6.423 -18.328 QT
9.032 -18.328 10.321 -16.969 QT
11.61 -15.609 11.61 -12.859 QT
cp
24.342 -17.563 M
24.342 -15.719 L
23.498 -16.188 22.654 -16.414 QT
21.811 -16.641 20.951 -16.641 QT
19.029 -16.641 17.967 -15.422 QT
16.904 -14.203 16.904 -12 QT
16.904 -9.797 17.967 -8.578 QT
19.029 -7.359 20.951 -7.359 QT
21.811 -7.359 22.654 -7.594 QT
23.498 -7.828 24.342 -8.281 QT
24.342 -6.469 L
23.514 -6.078 22.623 -5.883 QT
21.732 -5.688 20.748 -5.688 QT
18.029 -5.688 16.428 -7.398 QT
14.826 -9.109 14.826 -12 QT
14.826 -14.953 16.443 -16.641 QT
18.061 -18.328 20.873 -18.328 QT
21.779 -18.328 22.654 -18.141 QT
23.529 -17.953 24.342 -17.563 QT
cp
37.781 -13.266 M
37.781 -6 L
35.797 -6 L
35.797 -13.203 L
35.797 -14.906 35.133 -15.758 QT
34.469 -16.609 33.141 -16.609 QT
31.531 -16.609 30.609 -15.586 QT
29.688 -14.563 29.688 -12.797 QT
29.688 -6 L
27.703 -6 L
27.703 -22.719 L
29.688 -22.719 L
29.688 -16.156 L
30.391 -17.25 31.359 -17.789 QT
32.328 -18.328 33.578 -18.328 QT
35.656 -18.328 36.719 -17.039 QT
37.781 -15.75 37.781 -13.266 QT
cp
52.006 -12.516 M
52.006 -11.547 L
42.928 -11.547 L
43.053 -9.5 44.154 -8.43 QT
45.256 -7.359 47.225 -7.359 QT
48.365 -7.359 49.428 -7.641 QT
50.49 -7.922 51.553 -8.484 QT
51.553 -6.609 L
50.49 -6.156 49.373 -5.922 QT
48.256 -5.688 47.1 -5.688 QT
44.225 -5.688 42.545 -7.367 QT
40.865 -9.047 40.865 -11.891 QT
40.865 -14.859 42.459 -16.594 QT
44.053 -18.328 46.756 -18.328 QT
49.193 -18.328 50.6 -16.766 QT
52.006 -15.203 52.006 -12.516 QT
cp
50.037 -13.094 M
50.006 -14.719 49.123 -15.68 QT
48.24 -16.641 46.787 -16.641 QT
45.131 -16.641 44.131 -15.711 QT
43.131 -14.781 42.99 -13.078 QT
50.037 -13.094 L
cp
63.166 -16.203 M
63.166 -22.719 L
65.15 -22.719 L
65.15 -6 L
63.166 -6 L
63.166 -7.813 L
62.557 -6.734 61.604 -6.211 QT
60.65 -5.688 59.322 -5.688 QT
57.135 -5.688 55.768 -7.43 QT
54.4 -9.172 54.4 -12 QT
54.4 -14.844 55.768 -16.586 QT
57.135 -18.328 59.322 -18.328 QT
60.65 -18.328 61.604 -17.805 QT
62.557 -17.281 63.166 -16.203 QT
cp
56.432 -12 M
56.432 -9.828 57.33 -8.586 QT
58.229 -7.344 59.807 -7.344 QT
61.369 -7.344 62.268 -8.586 QT
63.166 -9.828 63.166 -12 QT
63.166 -14.188 62.268 -15.43 QT
61.369 -16.672 59.807 -16.672 QT
58.229 -16.672 57.33 -15.43 QT
56.432 -14.188 56.432 -12 QT
cp
76.03 -22.719 M
80.593 -22.719 L
80.593 -21.172 L
78.015 -21.172 L
78.015 -4.641 L
80.593 -4.641 L
80.593 -3.094 L
76.03 -3.094 L
76.03 -22.719 L
cp
98.723 -13.063 M
97.785 -13.063 97.254 -12.266 QT
96.723 -11.469 96.723 -10.047 QT
96.723 -8.656 97.254 -7.852 QT
97.785 -7.047 98.723 -7.047 QT
99.629 -7.047 100.16 -7.852 QT
100.691 -8.656 100.691 -10.047 QT
100.691 -11.453 100.16 -12.258 QT
99.629 -13.063 98.723 -13.063 QT
cp
98.723 -14.422 M
100.41 -14.422 101.41 -13.242 QT
102.41 -12.063 102.41 -10.047 QT
102.41 -8.047 101.41 -6.867 QT
100.41 -5.688 98.723 -5.688 QT
97.004 -5.688 96.004 -6.867 QT
95.004 -8.047 95.004 -10.047 QT
95.004 -12.063 96.004 -13.242 QT
97.004 -14.422 98.723 -14.422 QT
cp
87.629 -20.969 M
86.707 -20.969 86.176 -20.164 QT
85.645 -19.359 85.645 -17.969 QT
85.645 -16.547 86.168 -15.75 QT
86.691 -14.953 87.629 -14.953 QT
88.566 -14.953 89.098 -15.75 QT
89.629 -16.547 89.629 -17.969 QT
89.629 -19.359 89.09 -20.164 QT
88.551 -20.969 87.629 -20.969 QT
cp
97.332 -22.328 M
99.051 -22.328 L
89.02 -5.688 L
87.301 -5.688 L
97.332 -22.328 L
cp
87.629 -22.328 M
89.332 -22.328 90.34 -21.148 QT
91.348 -19.969 91.348 -17.969 QT
91.348 -15.938 90.348 -14.766 QT
89.348 -13.594 87.629 -13.594 QT
85.926 -13.594 84.934 -14.773 QT
83.941 -15.953 83.941 -17.969 QT
83.941 -19.969 84.941 -21.148 QT
85.941 -22.328 87.629 -22.328 QT
cp
110.314 -22.719 M
110.314 -3.094 L
105.768 -3.094 L
105.768 -4.641 L
108.33 -4.641 L
108.33 -21.172 L
105.768 -21.172 L
105.768 -22.719 L
110.314 -22.719 L
cp
f
GR
GS
0 0.447 0.741 RC
1 LJ
0.5 LW
N
169.525 289 M
169.913 253.218 L
170.3 255.603 L
170.688 219.423 L
171.075 230.064 L
171.462 253.218 L
171.85 209.902 L
172.238 188.81 L
172.625 238.905 L
173.012 272.302 L
173.4 226.381 L
173.788 205.508 L
174.175 196.719 L
174.563 222.206 L
174.95 253.218 L
175.337 226.381 L
175.725 205.508 L
176.113 255.603 L
176.5 226.381 L
176.887 238.905 L
177.275 242.036 L
177.663 195.071 L
178.05 271.109 L
178.438 242.036 L
178.825 215.331 L
179.212 226.381 L
179.6 238.905 L
179.988 215.331 L
180.375 235.327 L
180.762 253.218 L
181.15 271.109 L
181.538 215.331 L
181.925 289 L
182.313 226.381 L
182.7 226.381 L
183.087 271.109 L
183.475 242.036 L
183.863 238.905 L
184.25 242.036 L
184.637 289 L
185.025 191.593 L
185.413 215.331 L
185.8 226.381 L
186.188 253.218 L
186.575 257.69 L
186.962 238.905 L
187.35 210.726 L
187.738 255.603 L
188.125 238.905 L
188.512 219.423 L
188.9 238.905 L
189.288 242.036 L
189.675 222.206 L
190.063 200.597 L
190.45 191.593 L
190.837 219.423 L
191.225 255.603 L
191.613 255.603 L
192 255.603 L
192.387 210.726 L
192.775 238.905 L
193.163 205.508 L
193.55 195.071 L
193.938 177.677 L
194.325 222.206 L
194.712 185.863 L
195.1 255.603 L
195.488 169.726 L
195.875 242.036 L
196.262 185.863 L
196.65 183.536 L
197.038 238.905 L
197.425 215.331 L
197.813 205.508 L
198.2 191.593 L
198.587 271.109 L
198.975 255.603 L
199.363 191.593 L
199.75 205.508 L
200.137 177.677 L
200.525 226.381 L
200.913 185.863 L
201.3 222.206 L
201.688 238.905 L
202.075 215.331 L
202.462 195.071 L
202.85 226.381 L
203.238 215.331 L
203.625 226.381 L
204.012 200.597 L
204.4 238.905 L
204.788 185.863 L
205.175 205.508 L
205.563 238.905 L
205.95 238.905 L
206.337 183.536 L
206.725 253.218 L
207.113 191.593 L
207.5 191.593 L
207.887 238.905 L
208.275 242.036 L
208.663 253.218 L
209.05 242.036 L
209.438 188.81 L
209.825 188.81 L
210.212 176.286 L
210.6 169.726 L
210.988 226.381 L
211.375 215.331 L
211.762 238.905 L
212.15 176.286 L
212.538 183.536 L
212.925 170.353 L
213.313 215.331 L
213.7 238.905 L
214.087 215.331 L
214.475 226.381 L
214.863 226.381 L
215.25 215.331 L
215.637 238.905 L
216.025 200.597 L
216.413 183.536 L
216.8 200.597 L
217.188 196.719 L
217.575 253.218 L
217.962 272.302 L
218.35 253.218 L
218.738 219.423 L
219.125 271.109 L
219.512 210.726 L
219.9 271.109 L
220.288 215.331 L
220.675 238.905 L
221.063 253.218 L
221.45 230.064 L
221.837 210.726 L
222.225 230.064 L
222.613 188.81 L
223 253.218 L
223.387 215.331 L
223.775 222.206 L
224.163 226.381 L
224.55 215.331 L
224.938 157.798 L
225.325 215.331 L
225.712 210.726 L
226.1 205.508 L
226.488 238.905 L
226.875 205.508 L
227.262 219.423 L
227.65 238.905 L
228.038 238.905 L
228.425 200.597 L
228.813 271.109 L
229.2 230.064 L
229.587 255.603 L
229.975 217.435 L
230.363 196.719 L
230.75 170.353 L
231.137 222.206 L
231.525 215.331 L
231.913 253.218 L
232.3 145.871 L
232.688 181.653 L
233.075 215.331 L
233.462 210.726 L
233.85 215.331 L
234.238 196.719 L
234.625 242.036 L
235.012 215.331 L
235.4 242.036 L
235.788 222.206 L
236.175 205.508 L
236.563 169.726 L
236.95 183.536 L
237.337 242.036 L
237.725 183.536 L
238.113 238.905 L
238.5 205.508 L
238.887 177.677 L
239.275 226.381 L
239.663 125.646 L
240.05 191.593 L
240.438 183.536 L
240.825 205.508 L
241.212 253.218 L
241.6 215.331 L
241.988 238.905 L
242.375 196.719 L
242.762 238.905 L
243.15 215.331 L
243.538 242.036 L
243.925 222.206 L
244.313 226.381 L
244.7 238.905 L
245.087 269.733 L
245.475 253.218 L
245.863 215.331 L
246.25 271.109 L
246.637 230.064 L
247.025 230.064 L
247.413 238.905 L
247.8 255.603 L
248.188 195.071 L
248.575 242.036 L
248.962 163.762 L
249.35 205.508 L
249.738 215.331 L
250.125 205.508 L
250.512 185.863 L
250.9 200.597 L
251.288 219.423 L
251.675 271.109 L
252.063 183.536 L
252.45 169.207 L
252.837 177.677 L
253.225 242.036 L
253.613 177.677 L
254 200.597 L
254.387 230.064 L
254.775 181.653 L
255.163 183.536 L
255.55 191.593 L
255.938 200.597 L
256.325 163.762 L
256.712 210.726 L
257.1 215.331 L
257.487 196.719 L
257.875 185.863 L
258.263 242.036 L
258.65 185.863 L
259.038 205.508 L
259.425 176.286 L
259.813 145.871 L
260.2 138.714 L
260.587 195.071 L
260.975 169.726 L
261.362 255.603 L
261.75 205.508 L
262.138 175.147 L
262.525 205.508 L
262.913 200.597 L
263.3 215.331 L
263.688 255.603 L
264.075 238.905 L
264.462 209.902 L
264.85 196.719 L
265.237 195.071 L
265.625 177.677 L
266.013 200.597 L
266.4 191.593 L
266.788 181.653 L
267.175 185.863 L
267.563 215.331 L
267.95 196.719 L
268.337 238.905 L
268.725 176.286 L
269.112 185.863 L
269.5 196.719 L
269.888 209.902 L
270.275 238.905 L
270.663 196.719 L
271.05 163.762 L
271.438 238.905 L
271.825 163.762 L
272.212 185.863 L
272.6 226.381 L
272.987 242.036 L
273.375 158.317 L
273.763 215.331 L
274.15 205.508 L
274.538 183.536 L
274.925 201.333 L
275.313 157.798 L
275.7 219.423 L
276.087 205.508 L
276.475 158.317 L
276.862 238.905 L
277.25 242.036 L
277.638 210.726 L
278.025 191.593 L
278.413 205.508 L
278.8 205.508 L
279.188 253.218 L
279.575 191.593 L
279.962 271.109 L
280.35 226.381 L
280.737 157.798 L
281.125 183.536 L
281.513 195.071 L
281.9 196.719 L
282.288 230.064 L
282.675 215.331 L
283.063 185.863 L
283.45 215.331 L
283.837 200.597 L
284.225 222.206 L
284.612 181.653 L
285 226.381 L
285.388 215.331 L
285.775 188.81 L
286.163 230.064 L
286.55 226.381 L
286.938 176.286 L
287.325 210.726 L
287.712 196.719 L
288.1 210.726 L
288.487 177.677 L
288.875 226.381 L
289.263 257.69 L
289.65 196.719 L
290.038 226.381 L
290.425 163.762 L
290.813 226.381 L
291.2 175.147 L
291.587 205.508 L
291.975 210.726 L
292.362 183.536 L
292.75 230.064 L
293.138 191.593 L
293.525 215.331 L
293.913 201.333 L
294.3 242.036 L
294.688 201.333 L
295.075 188.81 L
295.462 255.603 L
295.85 163.762 L
296.237 195.071 L
296.625 255.603 L
297.013 196.719 L
297.4 272.302 L
297.788 215.331 L
298.175 200.597 L
298.563 222.206 L
298.95 238.905 L
299.337 193.581 L
299.725 226.381 L
300.112 151.238 L
300.5 238.905 L
300.888 169.726 L
301.275 210.726 L
301.663 242.036 L
302.05 215.331 L
302.438 238.905 L
302.825 183.536 L
303.212 219.423 L
303.6 253.218 L
303.987 163.762 L
304.375 177.677 L
304.763 200.597 L
305.15 169.726 L
305.538 181.653 L
305.925 253.218 L
306.313 255.603 L
306.7 193.581 L
307.087 188.81 L
307.475 205.508 L
307.862 226.381 L
308.25 230.064 L
308.638 238.905 L
309.025 205.508 L
309.413 253.218 L
309.8 177.677 L
310.188 242.036 L
310.575 200.597 L
310.962 222.206 L
311.35 238.905 L
311.737 226.381 L
312.125 205.508 L
312.513 191.593 L
312.9 210.726 L
313.288 226.381 L
313.675 196.719 L
314.063 191.593 L
314.45 226.381 L
314.837 272.302 L
315.225 210.726 L
315.612 272.302 L
316 210.726 L
316.388 230.064 L
316.775 230.064 L
317.163 210.726 L
317.55 176.286 L
317.938 196.719 L
318.325 163.762 L
318.712 185.863 L
319.1 226.381 L
319.487 210.726 L
319.875 215.331 L
320.263 235.327 L
320.65 230.064 L
321.038 219.423 L
321.425 191.593 L
321.813 183.536 L
322.2 253.218 L
322.587 230.064 L
322.975 226.381 L
323.362 215.331 L
323.75 253.218 L
324.138 230.064 L
324.525 242.036 L
324.913 219.423 L
325.3 238.905 L
325.688 170.353 L
326.075 215.331 L
326.462 188.81 L
326.85 177.677 L
327.237 191.593 L
327.625 255.603 L
328.013 242.036 L
328.4 175.147 L
328.788 196.719 L
329.175 253.218 L
329.563 196.719 L
329.95 222.206 L
330.337 271.109 L
330.725 200.597 L
331.112 181.653 L
331.5 205.508 L
331.888 188.81 L
332.275 238.905 L
332.663 215.331 L
333.05 219.423 L
333.438 242.036 L
333.825 200.597 L
334.212 238.905 L
334.6 215.331 L
334.987 238.905 L
335.375 219.423 L
335.763 183.536 L
336.15 191.593 L
336.538 226.381 L
336.925 230.064 L
337.313 169.726 L
337.7 205.508 L
338.087 188.81 L
338.475 271.109 L
338.862 205.508 L
339.25 191.593 L
339.638 226.381 L
340.025 242.036 L
340.413 196.719 L
340.8 196.719 L
341.188 215.331 L
341.575 238.905 L
341.962 209.902 L
342.35 219.423 L
342.737 215.331 L
343.125 177.677 L
343.513 219.423 L
343.9 238.905 L
344.288 191.593 L
344.675 253.218 L
345.063 209.902 L
345.45 226.381 L
345.837 191.593 L
346.225 215.331 L
346.612 253.218 L
347 226.381 L
347.388 244.798 L
347.775 171.129 L
348.163 215.331 L
348.55 222.206 L
348.938 175.147 L
349.325 215.331 L
349.712 226.381 L
350.1 176.286 L
350.487 226.381 L
350.875 230.064 L
351.263 242.036 L
351.65 238.905 L
352.038 201.333 L
352.425 226.381 L
352.813 222.206 L
353.2 200.597 L
353.587 271.109 L
353.975 209.902 L
354.362 226.381 L
354.75 195.071 L
355.138 186.532 L
355.525 200.597 L
355.913 226.381 L
356.3 215.331 L
356.688 196.719 L
357.075 242.036 L
357.462 230.064 L
357.85 255.603 L
358.237 242.036 L
358.625 200.597 L
359.013 242.036 L
359.4 226.381 L
359.788 219.423 L
360.175 242.036 L
360.563 205.508 L
360.95 205.508 L
361.337 188.81 L
361.725 205.508 L
362.112 238.905 L
362.5 209.902 L
362.888 226.381 L
363.275 176.286 L
363.663 230.064 L
364.05 253.218 L
364.438 209.902 L
364.825 222.206 L
365.212 196.719 L
365.6 242.036 L
365.987 222.206 L
366.375 196.719 L
366.763 205.508 L
367.15 195.071 L
367.538 242.036 L
367.925 242.036 L
368.313 215.331 L
368.7 215.331 L
369.087 195.071 L
369.475 230.064 L
369.862 181.653 L
370.25 242.036 L
370.638 215.331 L
371.025 210.726 L
371.413 255.603 L
371.8 205.508 L
372.188 242.036 L
372.575 253.218 L
372.962 219.423 L
373.35 169.726 L
373.737 253.218 L
374.125 242.036 L
374.513 242.036 L
374.9 242.036 L
375.288 200.597 L
375.675 230.064 L
376.063 238.905 L
376.45 200.597 L
376.837 185.863 L
377.225 255.603 L
377.612 215.331 L
378 253.218 L
378.388 244.798 L
378.775 226.381 L
379.163 215.331 L
379.55 255.603 L
379.938 242.036 L
380.325 238.905 L
380.712 255.603 L
381.1 183.536 L
381.487 272.302 L
381.875 238.905 L
382.263 226.381 L
382.65 193.581 L
383.038 215.331 L
383.425 201.333 L
383.813 191.593 L
384.2 242.036 L
384.587 209.902 L
384.975 177.677 L
385.362 219.423 L
385.75 219.423 L
386.138 230.064 L
386.525 255.603 L
386.913 215.331 L
387.3 238.905 L
387.688 215.331 L
388.075 238.905 L
388.462 271.109 L
388.85 215.331 L
389.237 271.109 L
389.625 219.423 L
390.013 215.331 L
390.4 226.381 L
390.788 210.726 L
391.175 205.508 L
391.563 226.381 L
391.95 219.423 L
392.337 215.331 L
392.725 205.508 L
393.112 230.064 L
393.5 201.333 L
393.888 222.206 L
394.275 193.581 L
394.663 163.762 L
395.05 238.905 L
395.438 242.036 L
395.825 201.333 L
396.212 230.064 L
396.6 230.064 L
396.987 238.905 L
397.375 226.381 L
397.763 242.036 L
398.15 205.508 L
398.538 219.423 L
398.925 271.109 L
399.313 205.508 L
399.7 269.733 L
400.087 289 L
400.475 219.423 L
400.862 205.508 L
401.25 181.653 L
401.638 205.508 L
402.025 226.381 L
402.413 230.064 L
402.8 215.331 L
403.188 230.064 L
403.575 238.905 L
403.962 255.603 L
404.35 205.508 L
404.737 244.798 L
405.125 215.331 L
405.513 271.109 L
405.9 188.81 L
406.288 271.109 L
406.675 253.218 L
407.063 219.423 L
407.45 200.597 L
407.837 209.902 L
408.225 215.331 L
408.612 205.508 L
409 226.381 L
409.388 242.036 L
409.775 183.536 L
410.163 219.423 L
410.55 238.905 L
410.938 253.218 L
411.325 238.905 L
411.712 205.508 L
412.1 255.603 L
412.487 271.109 L
412.875 222.206 L
413.263 215.331 L
413.65 271.109 L
414.038 272.302 L
414.425 196.719 L
414.813 226.381 L
415.2 238.905 L
415.587 238.905 L
415.975 196.719 L
416.362 226.381 L
416.75 255.603 L
417.138 205.508 L
417.525 230.064 L
417.913 255.603 L
418.3 230.064 L
418.688 289 L
419.075 191.593 L
419.462 215.331 L
419.85 242.036 L
420.237 215.331 L
420.625 242.036 L
421.013 215.331 L
421.4 255.603 L
421.788 238.905 L
422.175 215.331 L
422.563 244.798 L
422.95 253.218 L
423.337 210.726 L
423.725 175.147 L
424.112 176.286 L
424.5 230.064 L
424.888 255.603 L
425.275 186.532 L
425.663 238.905 L
426.05 238.905 L
426.438 205.508 L
426.825 230.064 L
427.212 271.109 L
427.6 242.036 L
427.987 219.423 L
428.375 238.905 L
428.763 201.333 L
429.15 215.331 L
429.538 209.902 L
429.925 175.147 L
430.313 242.036 L
430.7 205.508 L
431.087 257.69 L
431.475 215.331 L
431.862 242.036 L
432.25 219.423 L
432.638 242.036 L
433.025 219.423 L
433.413 242.036 L
433.8 209.902 L
434.188 186.532 L
434.575 181.653 L
434.962 215.331 L
435.35 209.902 L
435.737 271.109 L
436.125 219.423 L
436.513 188.81 L
436.9 219.423 L
437.288 158.752 L
437.675 255.603 L
438.063 242.036 L
438.45 253.218 L
438.837 180.097 L
439.225 158.317 L
439.612 163.762 L
440 196.719 L
440.388 219.423 L
440.775 201.333 L
441.163 205.508 L
441.55 226.381 L
441.938 230.064 L
442.325 219.423 L
442.712 200.597 L
443.1 209.902 L
443.487 196.719 L
443.875 219.423 L
444.263 175.147 L
444.65 215.331 L
445.038 257.69 L
445.425 205.508 L
445.813 242.036 L
446.2 255.603 L
446.587 242.036 L
446.975 201.333 L
447.362 271.109 L
447.75 235.327 L
448.138 193.581 L
448.525 230.064 L
448.913 238.905 L
449.3 205.508 L
449.688 255.603 L
450.075 230.064 L
450.462 271.109 L
450.85 196.719 L
451.237 205.508 L
451.625 272.302 L
452.013 238.905 L
452.4 271.109 L
452.788 215.331 L
453.175 255.603 L
453.563 271.109 L
453.95 230.064 L
454.337 205.508 L
454.725 215.331 L
455.112 255.603 L
455.5 226.381 L
455.888 271.109 L
456.275 242.036 L
456.663 226.381 L
457.05 255.603 L
457.438 271.109 L
457.825 238.905 L
458.212 238.905 L
458.6 255.603 L
458.987 215.331 L
459.375 238.905 L
459.763 272.302 L
460.15 289 L
460.538 242.036 L
460.925 230.064 L
461.313 242.036 L
461.7 238.905 L
462.087 219.423 L
462.475 222.206 L
462.862 238.905 L
463.25 238.905 L
463.638 255.603 L
464.025 226.381 L
464.413 255.603 L
464.8 255.603 L
465.188 289 L
465.575 230.064 L
465.962 255.603 L
466.35 271.109 L
466.737 238.905 L
467.125 255.603 L
467.513 289 L
467.9 255.603 L
468.288 271.109 L
468.675 215.331 L
469.063 244.798 L
469.45 205.508 L
469.837 230.064 L
470.225 219.423 L
470.612 271.109 L
471 191.593 L
471.388 215.331 L
471.775 255.603 L
472.163 215.331 L
472.55 170.353 L
472.938 188.81 L
473.325 176.286 L
473.712 163.762 L
474.1 215.331 L
474.487 271.109 L
474.875 201.333 L
475.263 200.597 L
475.65 200.597 L
476.038 271.109 L
476.425 226.381 L
476.813 226.381 L
477.2 210.726 L
477.587 255.603 L
477.975 215.331 L
478.362 219.423 L
478.75 255.603 L
479.138 242.036 L
479.525 271.109 L
479.913 219.423 L
480.3 219.423 L
480.688 255.603 L
481.075 289 L
481.462 226.381 L
481.85 215.331 L
482.237 181.653 L
482.625 205.508 L
483.013 242.036 L
483.4 226.381 L
483.788 196.719 L
484.175 230.064 L
484.563 253.218 L
484.95 255.603 L
485.337 255.603 L
485.725 226.381 L
486.112 196.719 L
486.5 230.064 L
486.888 242.036 L
487.275 271.109 L
487.663 253.218 L
488.05 205.508 L
488.438 242.036 L
488.825 238.905 L
489.212 219.423 L
489.6 163.762 L
489.987 226.381 L
490.375 230.064 L
490.763 215.331 L
491.15 238.905 L
491.538 215.331 L
491.925 242.036 L
492.313 205.508 L
492.7 255.603 L
493.087 205.508 L
493.475 200.597 L
493.862 257.69 L
494.25 235.327 L
494.638 253.218 L
495.025 271.109 L
495.413 271.109 L
495.8 226.381 L
496.188 230.064 L
496.575 289 L
496.962 253.218 L
497.35 215.331 L
497.737 255.603 L
498.125 255.603 L
498.513 255.603 L
498.9 289 L
499.288 205.508 L
499.675 242.036 L
500.063 226.381 L
500.45 271.109 L
500.837 183.536 L
501.225 238.905 L
501.612 255.603 L
502 242.036 L
502.388 255.603 L
502.775 230.064 L
503.163 215.331 L
503.55 255.603 L
503.938 196.719 L
504.325 196.719 L
504.712 188.81 L
505.1 230.064 L
505.487 271.109 L
505.875 242.036 L
506.263 176.286 L
506.65 271.109 L
507.038 242.036 L
507.425 271.109 L
507.813 253.218 L
508.2 242.036 L
508.587 226.381 L
508.975 242.036 L
509.362 226.381 L
509.75 219.423 L
510.138 215.331 L
510.525 230.064 L
510.913 181.653 L
511.3 242.036 L
511.688 201.333 L
512.075 219.423 L
512.463 183.536 L
512.85 242.036 L
513.237 255.603 L
513.625 238.905 L
514.013 209.902 L
514.4 205.508 L
514.787 238.905 L
515.175 250.465 L
515.563 272.302 L
515.95 238.905 L
516.338 226.381 L
516.725 205.508 L
517.112 230.064 L
517.5 271.109 L
517.888 238.905 L
518.275 219.423 L
518.662 253.218 L
519.05 289 L
519.438 215.331 L
519.825 195.071 L
520.213 205.508 L
520.6 238.905 L
520.987 253.218 L
521.375 272.302 L
521.763 255.603 L
522.15 255.603 L
522.537 191.593 L
522.925 215.331 L
523.313 219.423 L
523.7 219.423 L
524.088 255.603 L
524.475 238.905 L
524.862 242.036 L
525.25 222.206 L
525.638 215.331 L
526.025 158.317 L
526.412 209.902 L
526.8 242.036 L
527.188 219.423 L
527.575 226.381 L
527.963 271.109 L
528.35 196.719 L
528.737 201.333 L
529.125 226.381 L
529.513 238.905 L
529.9 242.036 L
530.287 242.036 L
530.675 255.603 L
531.063 253.218 L
531.45 215.331 L
531.838 215.331 L
532.225 226.381 L
532.612 191.593 L
533 219.423 L
533.388 253.218 L
533.775 215.331 L
534.162 188.81 L
534.55 269.733 L
534.938 255.603 L
535.325 242.036 L
535.713 226.381 L
536.1 215.331 L
536.487 219.423 L
536.875 169.726 L
537.263 196.719 L
537.65 201.333 L
538.037 231.198 L
538.425 257.69 L
538.813 205.508 L
539.2 257.69 L
539.588 226.381 L
539.975 230.064 L
540.362 215.331 L
540.75 215.331 L
541.138 222.206 L
541.525 242.036 L
541.912 219.423 L
542.3 188.81 L
542.688 242.036 L
543.075 226.381 L
543.463 230.064 L
543.85 238.905 L
544.237 255.603 L
544.625 255.603 L
545.013 181.653 L
545.4 191.593 L
545.787 219.423 L
546.175 191.593 L
546.563 176.286 L
546.95 193.581 L
547.338 255.603 L
547.725 289 L
548.112 255.603 L
548.5 226.381 L
548.888 272.302 L
549.275 226.381 L
549.662 196.719 L
550.05 209.902 L
550.438 255.603 L
550.825 226.381 L
551.213 223.085 L
551.6 230.064 L
551.987 177.677 L
552.375 242.036 L
552.763 148.733 L
553.15 200.597 L
553.537 230.064 L
553.925 230.064 L
554.313 253.218 L
554.7 255.603 L
555.088 219.423 L
555.475 238.905 L
555.862 289 L
556.25 242.036 L
556.638 271.109 L
557.025 181.653 L
557.412 255.603 L
557.8 230.064 L
558.188 255.603 L
558.575 255.603 L
558.963 255.603 L
559.35 230.064 L
559.737 191.593 L
560.125 215.331 L
560.513 242.036 L
560.9 257.69 L
561.287 230.064 L
561.675 226.381 L
562.063 209.902 L
562.45 209.902 L
562.838 242.036 L
563.225 175.147 L
563.612 271.109 L
564 193.581 L
564.388 269.733 L
564.775 136.536 L
565.162 193.581 L
565.55 215.331 L
565.938 255.603 L
566.325 215.331 L
566.713 215.331 L
567.1 242.036 L
567.487 226.381 L
567.875 181.653 L
568.263 209.902 L
568.65 230.064 L
569.037 210.726 L
569.425 271.109 L
569.813 230.064 L
570.2 238.905 L
570.588 230.064 L
570.975 255.603 L
571.362 238.905 L
571.75 215.331 L
572.138 230.064 L
572.525 289 L
572.912 196.719 L
573.3 183.536 L
573.688 230.064 L
574.075 219.423 L
574.463 215.331 L
574.85 255.603 L
575.237 255.603 L
575.625 196.719 L
576.013 226.381 L
576.4 209.902 L
576.787 226.381 L
577.175 257.69 L
577.563 255.603 L
577.95 158.317 L
578.338 242.036 L
578.725 255.603 L
579.112 226.381 L
579.5 215.331 L
579.888 233.339 L
580.275 238.905 L
580.662 219.423 L
581.05 222.206 L
581.438 242.036 L
581.825 196.719 L
582.213 205.508 L
582.6 238.905 L
582.987 209.902 L
583.375 205.508 L
583.763 209.902 L
584.15 255.603 L
584.537 289 L
584.925 183.536 L
585.313 183.536 L
585.7 181.653 L
586.088 209.902 L
586.475 226.381 L
586.862 215.331 L
587.25 238.905 L
587.638 244.798 L
588.025 157.798 L
588.412 201.333 L
588.8 188.81 L
589.188 226.381 L
589.575 200.597 L
589.963 272.302 L
590.35 238.905 L
590.737 188.81 L
591.125 215.331 L
591.513 200.597 L
591.9 174.198 L
592.287 255.603 L
592.675 226.381 L
593.063 255.603 L
593.45 226.381 L
593.838 242.036 L
594.225 230.064 L
594.612 226.381 L
595 209.902 L
595.388 205.508 L
595.775 181.653 L
596.162 255.603 L
596.55 238.905 L
596.938 238.905 L
597.325 209.902 L
597.713 226.381 L
598.1 255.603 L
598.487 226.381 L
598.875 242.036 L
599.263 253.218 L
599.65 226.381 L
600.037 196.719 L
600.425 230.064 L
600.813 209.902 L
601.2 210.726 L
601.588 196.719 L
601.975 242.036 L
602.362 181.653 L
602.75 169.726 L
603.138 219.423 L
603.525 205.508 L
603.912 205.508 L
604.3 188.81 L
604.688 215.331 L
605.075 210.726 L
605.463 226.381 L
605.85 188.81 L
606.237 196.719 L
606.625 226.381 L
607.013 183.536 L
607.4 253.218 L
607.787 195.071 L
608.175 196.719 L
608.563 230.064 L
608.95 219.423 L
609.338 215.331 L
609.725 209.902 L
610.112 242.036 L
610.5 289 L
610.888 257.69 L
611.275 271.109 L
611.662 205.508 L
612.05 242.036 L
612.438 230.064 L
612.825 255.603 L
613.213 163.762 L
613.6 242.036 L
613.987 238.905 L
614.375 242.036 L
614.763 205.508 L
615.15 169.207 L
615.537 222.206 L
615.925 238.905 L
616.313 226.381 L
616.7 226.381 L
617.088 230.064 L
617.475 253.218 L
617.862 230.064 L
618.25 238.905 L
618.638 253.218 L
619.025 253.218 L
619.412 219.423 L
619.8 230.064 L
620.188 242.036 L
620.575 230.064 L
620.963 238.905 L
621.35 191.593 L
621.737 205.508 L
622.125 219.423 L
622.513 255.603 L
622.9 230.064 L
623.287 175.147 L
623.675 233.339 L
624.063 242.036 L
624.45 209.902 L
624.838 191.593 L
625.225 191.593 L
625.612 230.064 L
626 238.905 L
626.388 255.603 L
626.775 226.381 L
627.162 215.331 L
627.55 201.333 L
627.938 205.508 L
628.325 215.331 L
628.713 238.905 L
629.1 183.536 L
629.487 230.064 L
629.875 255.603 L
630.263 183.536 L
630.65 238.905 L
631.037 191.593 L
631.425 215.331 L
631.813 219.423 L
632.2 215.331 L
632.588 272.302 L
632.975 188.81 L
633.362 226.381 L
633.75 242.036 L
634.138 195.071 L
634.525 272.302 L
634.912 200.597 L
635.3 230.064 L
635.688 238.905 L
636.075 185.863 L
636.463 238.905 L
636.85 238.905 L
637.237 271.109 L
637.625 210.726 L
638.013 196.719 L
638.4 209.902 L
638.787 215.331 L
639.175 238.905 L
639.563 230.064 L
639.95 242.036 L
640.338 271.109 L
640.725 230.064 L
641.112 255.603 L
641.5 215.331 L
641.888 226.381 L
642.275 230.064 L
642.662 176.286 L
643.05 193.581 L
643.438 215.331 L
643.825 226.381 L
644.213 188.81 L
644.6 255.603 L
644.987 209.902 L
645.375 215.331 L
645.763 205.508 L
646.15 226.381 L
646.537 271.109 L
646.925 226.381 L
647.313 200.597 L
647.7 230.064 L
648.088 230.064 L
648.475 230.064 L
648.862 230.064 L
649.25 226.381 L
649.638 188.81 L
650.025 257.69 L
650.412 255.603 L
650.8 242.036 L
651.188 253.218 L
651.575 242.036 L
651.963 242.036 L
652.35 226.381 L
652.737 255.603 L
653.125 209.902 L
653.513 230.064 L
653.9 183.536 L
654.287 289 L
654.675 219.423 L
655.063 183.536 L
655.45 222.206 L
655.838 188.81 L
656.225 209.902 L
656.612 200.597 L
657 210.726 L
657.388 289 L
657.775 191.593 L
658.162 242.036 L
658.55 215.331 L
658.938 289 L
659.325 271.109 L
659.713 230.064 L
660.1 242.036 L
660.487 196.719 L
660.875 188.81 L
661.263 215.331 L
661.65 215.331 L
662.037 242.036 L
662.425 196.719 L
662.813 242.036 L
663.2 219.423 L
663.588 205.508 L
663.975 193.581 L
664.362 215.331 L
664.75 226.381 L
665.138 215.331 L
665.525 230.064 L
665.912 242.036 L
666.3 271.109 L
666.688 230.064 L
667.075 196.719 L
667.463 230.064 L
667.85 215.331 L
668.237 196.719 L
668.625 226.381 L
669.013 219.423 L
669.4 226.381 L
669.787 183.536 L
670.175 230.064 L
670.563 210.726 L
670.95 196.719 L
671.338 242.036 L
671.725 271.109 L
672.112 219.423 L
672.5 209.902 L
672.888 210.726 L
673.275 242.036 L
673.662 158.317 L
674.05 255.603 L
674.438 201.333 L
674.825 255.603 L
675.213 255.603 L
675.6 289 L
675.987 215.331 L
676.375 272.302 L
676.763 177.677 L
677.15 215.331 L
677.537 242.036 L
677.925 230.064 L
678.313 210.726 L
678.7 209.902 L
679.088 255.603 L
679.475 205.508 L
679.862 181.653 L
680.25 222.206 L
680.638 238.905 L
681.025 200.597 L
681.412 272.302 L
681.8 255.603 L
682.188 200.597 L
682.575 230.064 L
682.963 253.218 L
683.35 191.593 L
683.737 226.381 L
684.125 209.902 L
684.513 269.733 L
684.9 230.064 L
685.287 255.603 L
685.675 230.064 L
686.063 205.508 L
686.45 215.331 L
686.838 226.381 L
687.225 272.302 L
687.612 255.603 L
688 205.508 L
688.388 215.331 L
688.775 219.423 L
689.162 242.036 L
689.55 205.508 L
689.938 242.036 L
690.325 200.597 L
690.713 269.733 L
691.1 219.423 L
691.487 255.603 L
691.875 255.603 L
692.263 230.064 L
692.65 210.726 L
693.037 219.423 L
693.425 209.902 L
693.813 181.653 L
694.2 183.536 L
694.588 255.603 L
694.975 188.81 L
695.362 271.109 L
695.75 242.036 L
696.138 242.036 L
696.525 196.719 L
696.912 215.331 L
697.3 205.508 L
697.688 205.508 L
698.075 226.381 L
698.463 200.597 L
698.85 230.064 L
699.237 215.331 L
699.625 196.719 L
700.013 210.726 L
700.4 242.036 L
700.787 242.036 L
701.175 226.381 L
701.563 255.603 L
701.95 255.603 L
702.338 215.331 L
702.725 242.036 L
703.112 205.508 L
703.5 255.603 L
703.888 269.733 L
704.275 181.653 L
704.662 255.603 L
705.05 188.81 L
705.438 255.603 L
705.825 196.719 L
706.213 209.902 L
706.6 238.905 L
706.987 219.423 L
707.375 209.902 L
707.763 209.902 L
708.15 205.508 L
708.537 255.603 L
708.925 271.109 L
709.313 209.902 L
709.7 238.905 L
710.088 269.733 L
710.475 242.036 L
710.862 242.036 L
711.25 209.902 L
711.638 219.423 L
712.025 242.036 L
712.412 215.331 L
712.8 196.719 L
713.188 253.218 L
713.575 255.603 L
713.963 271.109 L
714.35 226.381 L
714.737 238.905 L
715.125 255.603 L
715.513 219.423 L
715.9 205.508 L
716.287 271.109 L
716.675 242.036 L
717.063 215.331 L
717.45 219.423 L
717.838 242.036 L
718.225 230.064 L
718.612 210.726 L
719 242.036 L
719.388 186.532 L
719.775 238.905 L
720.162 210.726 L
720.55 215.331 L
720.938 230.064 L
721.325 230.064 L
721.713 188.81 L
722.1 188.81 L
722.487 242.036 L
722.875 183.536 L
723.263 242.036 L
723.65 188.81 L
724.037 289 L
724.425 253.218 L
724.813 257.69 L
725.2 230.064 L
725.588 222.206 L
725.975 242.036 L
726.362 242.036 L
726.75 181.653 L
727.138 253.218 L
727.525 226.381 L
727.912 219.423 L
728.3 271.109 L
728.688 196.719 L
729.075 196.719 L
729.463 230.064 L
729.85 193.581 L
730.237 205.508 L
730.625 272.302 L
731.013 209.902 L
731.4 226.381 L
731.787 257.69 L
732.175 196.719 L
732.563 226.381 L
732.95 257.69 L
733.338 271.109 L
733.725 210.726 L
734.112 255.603 L
734.5 209.902 L
734.888 242.036 L
735.275 183.536 L
735.662 215.331 L
736.05 205.508 L
736.438 242.036 L
736.825 226.381 L
737.213 272.302 L
737.6 196.719 L
737.987 255.603 L
738.375 226.381 L
738.763 233.339 L
739.15 205.508 L
739.537 188.81 L
739.925 209.902 L
740.313 238.905 L
740.7 226.381 L
741.088 205.508 L
741.475 219.423 L
741.862 226.381 L
742.25 205.508 L
742.638 193.581 L
743.025 242.036 L
743.412 193.581 L
743.8 219.423 L
744.188 242.036 L
744.575 226.381 L
744.963 219.423 L
745.35 230.064 L
745.737 181.653 L
746.125 193.581 L
746.513 169.726 L
746.9 219.423 L
747.287 255.603 L
747.675 205.508 L
748.063 219.423 L
748.45 215.331 L
748.838 205.508 L
749.225 242.036 L
749.612 205.508 L
750 200.597 L
750.388 230.064 L
750.775 222.206 L
751.162 205.508 L
751.55 219.423 L
751.938 144.495 L
752.325 238.905 L
752.713 201.333 L
753.1 205.508 L
753.487 255.603 L
753.875 233.339 L
754.263 255.603 L
754.65 183.536 L
755.037 271.109 L
755.425 238.905 L
755.813 209.902 L
756.2 255.603 L
756.588 226.381 L
756.975 242.036 L
757.362 191.593 L
757.75 230.064 L
758.138 191.593 L
758.525 230.064 L
758.912 230.064 L
759.3 191.593 L
759.688 193.581 L
760.075 271.109 L
760.463 219.423 L
760.85 210.726 L
761.237 209.902 L
761.625 271.109 L
762.013 169.726 L
762.4 238.905 L
762.787 253.218 L
763.175 255.603 L
763.563 242.036 L
763.95 230.064 L
764.338 201.333 L
764.725 175.147 L
765.112 271.109 L
765.5 255.603 L
765.888 271.109 L
766.275 253.218 L
766.662 230.064 L
767.05 175.147 L
767.438 219.423 L
767.825 205.508 L
768.213 209.902 L
768.6 196.719 L
768.987 255.603 L
769.375 176.286 L
769.763 255.603 L
770.15 238.905 L
770.537 163.762 L
770.925 242.036 L
771.313 209.902 L
771.7 219.423 L
772.088 253.218 L
772.475 230.064 L
772.862 269.733 L
773.25 205.508 L
773.638 215.331 L
774.025 238.905 L
774.412 201.333 L
774.8 196.719 L
775.188 201.333 L
775.575 219.423 L
775.963 250.465 L
776.35 238.905 L
776.737 271.109 L
777.125 257.69 L
777.513 271.109 L
777.9 253.218 L
778.287 201.333 L
778.675 183.536 L
779.063 233.339 L
779.45 196.719 L
779.838 230.064 L
780.225 271.109 L
780.612 188.81 L
781 253.218 L
781.388 271.109 L
781.775 193.581 L
782.162 230.064 L
782.55 183.536 L
782.938 233.339 L
783.325 238.905 L
783.713 242.036 L
784.1 253.218 L
784.487 201.333 L
784.875 271.109 L
785.263 183.536 L
785.65 153.325 L
786.037 242.036 L
786.425 271.109 L
786.813 226.381 L
787.2 209.902 L
787.588 183.536 L
787.975 242.036 L
788.362 242.036 L
788.75 253.218 L
789.138 242.036 L
789.525 215.331 L
789.912 219.423 L
790.3 215.331 L
790.688 209.902 L
791.075 210.726 L
791.463 215.331 L
791.85 238.905 L
792.237 196.719 L
792.625 255.603 L
793.013 201.333 L
793.4 255.603 L
793.787 196.719 L
794.175 230.064 L
794.563 196.719 L
794.95 289 L
795.338 215.331 L
795.725 255.603 L
796.112 255.603 L
796.5 196.719 L
796.888 183.536 L
797.275 196.719 L
797.662 210.726 L
798.05 209.902 L
798.438 253.218 L
798.825 205.508 L
799.213 205.508 L
799.6 169.207 L
799.987 181.653 L
800.375 200.597 L
800.763 181.653 L
801.15 238.905 L
801.537 253.218 L
801.925 215.331 L
802.313 272.302 L
802.7 226.381 L
803.088 238.905 L
803.475 200.597 L
803.862 238.905 L
804.25 215.331 L
804.638 219.423 L
805.025 181.653 L
805.412 209.902 L
805.8 226.381 L
806.188 219.423 L
806.575 219.423 L
806.963 242.036 L
807.35 181.653 L
807.737 215.331 L
808.125 271.109 L
808.513 219.423 L
808.9 219.423 L
809.287 289 L
809.675 215.331 L
810.063 255.603 L
810.45 209.902 L
810.838 255.603 L
811.225 205.508 L
811.612 255.603 L
812 215.331 L
812.388 210.726 L
812.775 205.508 L
813.162 226.381 L
813.55 230.064 L
813.938 148.733 L
814.325 181.653 L
814.713 163.762 L
815.1 242.036 L
815.487 238.905 L
815.875 242.036 L
816.263 233.339 L
816.65 181.653 L
817.037 242.036 L
817.425 242.036 L
817.813 196.719 L
818.2 196.719 L
818.588 186.532 L
818.975 253.218 L
819.362 196.719 L
819.75 176.286 L
820.138 230.064 L
820.525 226.381 L
820.912 188.81 L
821.3 230.064 L
821.688 215.331 L
822.075 188.81 L
822.463 253.218 L
822.85 219.423 L
823.237 255.603 L
823.625 255.603 L
824.013 226.381 L
824.4 233.339 L
824.787 271.109 L
825.175 289 L
825.563 215.331 L
825.95 255.603 L
826.338 230.064 L
826.725 186.532 L
827.112 289 L
827.5 242.036 L
827.888 238.905 L
828.275 219.423 L
828.662 215.331 L
829.05 242.036 L
829.438 215.331 L
829.825 238.905 L
830.213 200.597 L
830.6 215.331 L
830.987 242.036 L
831.375 271.109 L
831.763 242.036 L
832.15 238.905 L
832.537 230.064 L
832.925 219.423 L
833.313 215.331 L
833.7 210.726 L
834.088 169.726 L
834.475 230.064 L
834.862 226.381 L
835.25 210.726 L
835.638 175.147 L
836.025 242.036 L
836.412 255.603 L
836.8 230.064 L
837.188 255.603 L
837.575 230.064 L
837.963 215.331 L
838.35 271.109 L
838.737 255.603 L
839.125 215.331 L
839.513 271.109 L
839.9 148.733 L
840.287 209.902 L
840.675 230.064 L
841.063 196.719 L
841.45 209.902 L
841.838 253.218 L
842.225 255.603 L
842.612 257.69 L
843 210.726 L
843.388 193.581 L
843.775 193.581 L
844.162 176.286 L
844.55 255.603 L
844.938 215.331 L
845.325 238.905 L
845.713 213.857 L
846.1 183.536 L
846.487 242.036 L
846.875 170.353 L
847.263 176.286 L
847.65 188.81 L
848.037 205.508 L
848.425 209.902 L
848.813 209.902 L
849.2 169.207 L
849.588 230.064 L
849.975 196.719 L
850.362 226.381 L
850.75 242.036 L
851.138 196.719 L
851.525 242.036 L
851.912 255.603 L
852.3 191.593 L
852.688 200.597 L
853.075 219.423 L
853.463 196.719 L
853.85 158.317 L
854.237 145.871 L
854.625 242.036 L
855.013 171.129 L
855.4 226.381 L
855.787 205.508 L
856.175 200.597 L
856.563 185.863 L
856.95 209.902 L
857.338 230.064 L
857.725 209.902 L
858.112 255.603 L
858.5 201.333 L
858.888 209.902 L
859.275 196.719 L
859.662 205.508 L
860.05 230.064 L
860.438 271.109 L
860.825 226.381 L
861.213 255.603 L
861.6 196.719 L
861.987 215.331 L
862.375 230.064 L
862.763 169.726 L
863.15 175.147 L
863.537 163.762 L
863.925 242.036 L
864.313 169.207 L
864.7 230.064 L
865.088 210.726 L
865.475 255.603 L
865.862 253.218 L
866.25 188.81 L
866.638 183.536 L
867.025 176.286 L
867.412 209.902 L
867.8 226.381 L
868.188 209.902 L
868.575 271.109 L
868.963 209.902 L
869.35 271.109 L
869.737 200.597 L
870.125 200.597 L
870.513 196.719 L
870.9 215.331 L
871.287 226.381 L
871.675 215.331 L
872.063 215.331 L
872.45 215.331 L
872.838 230.064 L
873.225 242.036 L
873.612 219.423 L
874 188.81 L
874.388 219.423 L
874.775 205.508 L
875.162 226.381 L
875.55 219.423 L
875.938 205.508 L
876.325 226.381 L
876.713 183.536 L
877.1 222.206 L
877.487 158.317 L
877.875 244.798 L
878.263 215.331 L
878.65 242.036 L
879.037 210.726 L
879.425 230.064 L
879.813 219.423 L
880.2 230.064 L
880.588 230.064 L
880.975 242.036 L
881.362 253.218 L
881.75 255.603 L
882.138 219.423 L
882.525 226.381 L
882.912 255.603 L
883.3 222.206 L
883.688 255.603 L
884.075 209.902 L
884.463 210.726 L
884.85 174.198 L
885.237 205.508 L
885.625 226.381 L
886.013 215.331 L
886.4 205.508 L
886.787 219.423 L
887.175 257.69 L
887.563 230.064 L
887.95 255.603 L
888.338 238.905 L
888.725 196.719 L
889.112 255.603 L
889.5 205.508 L
889.888 196.719 L
890.275 253.218 L
890.662 181.653 L
891.05 205.508 L
891.438 222.206 L
891.825 176.286 L
892.213 242.036 L
892.6 183.536 L
892.987 215.331 L
893.375 196.719 L
893.763 226.381 L
894.15 255.603 L
894.537 238.905 L
894.925 181.653 L
895.313 181.653 L
895.7 142.889 L
896.088 219.423 L
896.475 157.798 L
896.862 188.81 L
897.25 181.653 L
897.638 196.719 L
898.025 181.653 L
898.412 188.81 L
898.8 157.798 L
899.188 230.064 L
899.575 215.331 L
899.963 219.423 L
900.35 191.593 L
900.737 255.603 L
901.125 180.097 L
901.513 219.423 L
901.9 186.532 L
902.287 181.653 L
902.675 188.81 L
903.063 196.719 L
903.45 271.109 L
903.838 242.036 L
904.225 201.333 L
904.612 219.423 L
905 222.206 L
S
GR
GS
1 0 0 RC
1 LJ
0.5 LW
N
169.525 233.047 M
169.913 233.264 L
170.3 232.623 L
170.688 232.717 L
171.075 233.4 L
171.462 234.616 L
171.85 234.014 L
172.238 235.68 L
172.625 235.406 L
173.012 235.149 L
173.4 236.147 L
173.788 236.307 L
174.175 236.375 L
174.563 236.52 L
174.95 237.832 L
175.337 236.704 L
175.725 236.195 L
176.113 235.967 L
176.5 236.359 L
176.887 236.833 L
177.275 236.878 L
177.663 236.322 L
178.05 236.724 L
178.438 236.768 L
178.825 236.421 L
179.212 236.47 L
179.6 235.549 L
179.988 234.941 L
180.375 233.862 L
180.762 233.317 L
181.15 233.108 L
181.538 233.155 L
181.925 234.051 L
182.313 235.361 L
182.7 234.808 L
183.087 234.153 L
183.475 233.744 L
183.863 233.539 L
184.25 233.166 L
184.637 233.166 L
185.025 231.845 L
185.413 232.418 L
185.8 231.717 L
186.188 231.451 L
186.575 230.656 L
186.962 229.57 L
187.35 229.509 L
187.738 229.906 L
188.125 228.62 L
188.512 227.631 L
188.9 228.725 L
189.288 229.298 L
189.675 228.37 L
190.063 228.177 L
190.45 227.047 L
190.837 226.521 L
191.225 224.849 L
191.613 224.984 L
192 224.002 L
192.387 223.785 L
192.775 223.171 L
193.163 222.294 L
193.55 221.771 L
193.938 221.525 L
194.325 220.712 L
194.712 219.73 L
195.1 219.618 L
195.488 219.425 L
195.875 219.671 L
196.262 219.39 L
196.65 217.936 L
197.038 218.217 L
197.425 217.842 L
197.813 216.587 L
198.2 216.587 L
198.587 217.03 L
198.975 217.311 L
199.363 217.311 L
199.75 216.656 L
200.137 216.425 L
200.525 216.124 L
200.913 215.15 L
201.3 214.577 L
201.688 213.787 L
202.075 213.46 L
202.462 212.785 L
202.85 211.699 L
203.238 211.01 L
203.625 211.407 L
204.012 212.607 L
204.4 212.473 L
204.788 213.267 L
205.175 212.694 L
205.563 213.588 L
205.95 213.527 L
206.337 213.816 L
206.725 213.816 L
207.113 213.065 L
207.5 212.7 L
207.887 213.635 L
208.275 215.218 L
208.663 214.867 L
209.05 214.158 L
209.438 215.717 L
209.825 215.819 L
210.212 217.651 L
210.6 217.434 L
210.988 218.474 L
211.375 219.082 L
211.762 218.909 L
212.15 218.819 L
212.538 219.505 L
212.925 218.768 L
213.313 219.511 L
213.7 219.294 L
214.087 219.718 L
214.475 219.473 L
214.863 220.05 L
215.25 219.115 L
215.637 218.653 L
216.025 218.1 L
216.413 218.531 L
216.8 218.25 L
217.188 218.523 L
217.575 219.069 L
217.962 219.069 L
218.35 219.008 L
218.738 217.976 L
219.125 218.546 L
219.512 219.355 L
219.9 220.664 L
220.288 221.471 L
220.675 222.001 L
221.063 220.902 L
221.45 221.037 L
221.837 220.575 L
222.225 222.083 L
222.613 221.344 L
223 221.566 L
223.387 221.566 L
223.775 221.014 L
224.163 221.014 L
224.55 220.432 L
224.938 220.739 L
225.325 220.739 L
225.712 220.8 L
226.1 221.224 L
226.488 221.655 L
226.875 221.049 L
227.262 220.791 L
227.65 220.572 L
228.038 218.831 L
228.425 218.551 L
228.813 218.278 L
229.2 216.446 L
229.587 216.753 L
229.975 213.9 L
230.363 213.435 L
230.75 212.349 L
231.137 211.414 L
231.525 211.868 L
231.913 211.958 L
232.3 212.132 L
232.688 212.287 L
233.075 212.006 L
233.462 212.006 L
233.85 212.395 L
234.238 212.313 L
234.625 212.53 L
235.012 214.12 L
235.4 215.187 L
235.788 216.02 L
236.175 216.212 L
236.563 216.844 L
236.95 217.325 L
237.337 217.534 L
237.725 217.534 L
238.113 217.861 L
238.5 217.753 L
238.887 217.183 L
239.275 215.883 L
239.663 214.901 L
240.05 214.859 L
240.438 215.032 L
240.825 215.336 L
241.212 214.912 L
241.6 214.992 L
241.988 215.343 L
242.375 216.082 L
242.762 215.838 L
243.15 215.099 L
243.538 215.713 L
243.925 214.975 L
244.313 215.051 L
244.7 214.816 L
245.087 214.156 L
245.475 213.009 L
245.863 212.409 L
246.25 212.312 L
246.637 212.195 L
247.025 212.729 L
247.413 212.205 L
247.8 212.463 L
248.188 211.423 L
248.575 212.14 L
248.962 212.3 L
249.35 211.891 L
249.738 212.884 L
250.125 211.987 L
250.512 211.108 L
250.9 210.904 L
251.288 209.267 L
251.675 210.056 L
252.063 209.401 L
252.45 208.978 L
252.837 208.324 L
253.225 208.035 L
253.613 207.511 L
254 208.166 L
254.387 208.412 L
254.775 207.843 L
255.163 206.411 L
255.55 205.271 L
255.938 204.533 L
256.325 203.15 L
256.712 202.396 L
257.1 201.447 L
257.487 200.407 L
257.875 199.617 L
258.263 199.649 L
258.65 199.588 L
259.038 199.833 L
259.425 199.448 L
259.813 199.083 L
260.2 199.169 L
260.587 200.209 L
260.975 200.133 L
261.362 199.042 L
261.75 198.411 L
262.138 198.023 L
262.525 198.349 L
262.913 199.304 L
263.3 199.304 L
263.688 198.925 L
264.075 199.214 L
264.462 198.732 L
264.85 198.769 L
265.237 199.118 L
265.625 198.455 L
266.013 198.825 L
266.4 199.643 L
266.788 198.616 L
267.175 199.078 L
267.563 199.966 L
267.95 200.454 L
268.337 199.465 L
268.725 199.85 L
269.112 199.85 L
269.5 201.358 L
269.888 202.255 L
270.275 204.851 L
270.663 205.465 L
271.05 205.231 L
271.438 203.818 L
271.825 203.613 L
272.212 204.036 L
272.6 204.518 L
272.987 204.807 L
273.375 204.229 L
273.763 203.439 L
274.15 202.688 L
274.538 202.929 L
274.925 202.634 L
275.313 203.248 L
275.7 203.986 L
276.087 203.755 L
276.475 204.509 L
276.862 205.386 L
277.25 205.199 L
277.638 205.108 L
278.025 205.108 L
278.413 204.556 L
278.8 204.583 L
279.188 205.377 L
279.575 206.573 L
279.962 206.314 L
280.35 206.069 L
280.737 205.423 L
281.125 206.651 L
281.513 205.4 L
281.9 206.219 L
282.288 206.706 L
282.675 205.866 L
283.063 205.632 L
283.45 206.284 L
283.837 206.284 L
284.225 206.202 L
284.612 207.349 L
285 207.349 L
285.388 207.957 L
285.775 208.667 L
286.163 207.848 L
286.55 208.569 L
286.938 208.896 L
287.325 208.008 L
287.712 209.215 L
288.1 209.681 L
288.487 209.584 L
288.875 209.912 L
289.263 209.631 L
289.65 209.67 L
290.038 208.793 L
290.425 207.32 L
290.813 208.91 L
291.2 208.639 L
291.587 208.946 L
291.975 209.835 L
292.362 209.546 L
292.75 210.008 L
293.138 209.962 L
293.525 210.043 L
293.913 211.074 L
294.3 209.928 L
294.688 209.85 L
295.075 209.345 L
295.462 208.451 L
295.85 208.31 L
296.237 208.764 L
296.625 209.337 L
297.013 209.676 L
297.4 209.247 L
297.788 209.419 L
298.175 209.726 L
298.563 210.753 L
298.95 210.999 L
299.337 209.976 L
299.725 211.083 L
300.112 210.128 L
300.5 211.663 L
300.888 211.158 L
301.275 212.08 L
301.663 212.735 L
302.05 213.042 L
302.438 213.473 L
302.825 212.719 L
303.212 213.094 L
303.6 213.31 L
303.987 213.22 L
304.375 212.231 L
304.763 212.722 L
305.15 214.359 L
305.538 213.479 L
305.925 215.607 L
306.313 215.914 L
306.7 215.414 L
307.087 216.067 L
307.475 214.86 L
307.862 214.095 L
308.25 214.018 L
308.638 212.873 L
309.025 211.832 L
309.413 212.476 L
309.8 212.169 L
310.188 213.425 L
310.575 213.355 L
310.962 214.538 L
311.35 214.709 L
311.737 213.72 L
312.125 213.096 L
312.513 213.377 L
312.9 214.289 L
313.288 214.426 L
313.675 213.683 L
314.063 215.437 L
314.45 216.464 L
314.837 217.277 L
315.225 218.251 L
315.612 219.374 L
316 217.749 L
316.388 216.959 L
316.775 216.866 L
317.163 216.647 L
317.55 216.375 L
317.938 216.948 L
318.325 217.182 L
318.712 215.932 L
319.1 215.76 L
319.487 215.76 L
319.875 216.133 L
320.263 215.744 L
320.65 217.127 L
321.038 216.703 L
321.425 215.581 L
321.813 215.171 L
322.2 214.844 L
322.587 215.772 L
322.975 215.862 L
323.362 215.725 L
323.75 216.614 L
324.138 216.791 L
324.525 217.036 L
324.913 215.919 L
325.3 216.472 L
325.688 215.435 L
326.075 214.902 L
326.462 214.147 L
326.85 214.075 L
327.237 214.454 L
327.625 214.326 L
328.013 214.498 L
328.4 214.989 L
328.788 216.661 L
329.175 216.251 L
329.563 215.876 L
329.95 216.093 L
330.337 216.224 L
330.725 215.571 L
331.112 215.125 L
331.5 215.591 L
331.888 216.676 L
332.275 215.827 L
332.663 215.618 L
333.05 215.402 L
333.438 214.663 L
333.825 214.001 L
334.212 214.174 L
334.6 213.185 L
334.987 213.848 L
335.375 213.279 L
335.763 214.378 L
336.15 213.912 L
336.538 214.432 L
336.925 215.913 L
337.313 216.596 L
337.7 216.384 L
338.087 214.993 L
338.475 215.781 L
338.862 216.281 L
339.25 214.75 L
339.638 215.115 L
340.025 215.197 L
340.413 213.338 L
340.8 213.843 L
341.188 214.793 L
341.575 215.509 L
341.962 216.491 L
342.35 215.754 L
342.737 215.971 L
343.125 216.026 L
343.513 215.213 L
343.9 216.596 L
344.288 216.027 L
344.675 216.244 L
345.063 215.384 L
345.45 214.739 L
345.837 215.074 L
346.225 215.756 L
346.612 215.539 L
347 214.885 L
347.388 216.303 L
347.775 216.785 L
348.163 218.094 L
348.55 217.524 L
348.938 217.428 L
349.325 218.417 L
349.712 218.417 L
350.1 217.974 L
350.487 218.862 L
350.875 219.035 L
351.263 218.842 L
351.65 217.86 L
352.038 217.774 L
352.425 218.156 L
352.813 218.049 L
353.2 219.004 L
353.587 218.158 L
353.975 217.985 L
354.362 219.193 L
354.75 218.344 L
355.138 218.585 L
355.525 218.004 L
355.913 218.993 L
356.3 219.128 L
356.688 218.02 L
357.075 217.61 L
357.462 216.635 L
357.85 218.026 L
358.237 218.549 L
358.625 218.415 L
359.013 219.202 L
359.4 218.805 L
359.788 218.877 L
360.175 218.983 L
360.563 219.29 L
360.95 219.001 L
361.337 218.387 L
361.725 218.714 L
362.112 218.796 L
362.5 219.103 L
362.888 219.711 L
363.275 220.08 L
363.663 218.092 L
364.05 218.942 L
364.438 219.249 L
364.825 220.17 L
365.212 221.258 L
365.6 221.258 L
365.987 221.33 L
366.375 221.792 L
366.763 221.868 L
367.15 220.767 L
367.538 221.268 L
367.925 220.478 L
368.313 220.697 L
368.7 221.564 L
369.087 221.257 L
369.475 221.04 L
369.862 221.75 L
370.25 221.75 L
370.638 222.405 L
371.025 223.387 L
371.413 223.283 L
371.8 224.593 L
372.188 224.593 L
372.575 224.916 L
372.962 224.273 L
373.35 225.039 L
373.737 224.475 L
374.125 223.267 L
374.513 223.897 L
374.9 223.656 L
375.288 223.282 L
375.675 222.839 L
376.063 222.784 L
376.45 223.438 L
376.837 224.421 L
377.225 224.818 L
377.612 224.756 L
378 224.233 L
378.388 224.695 L
378.775 225.789 L
379.163 226.186 L
379.55 226.991 L
379.938 227.731 L
380.325 227.208 L
380.712 227.424 L
381.1 227.424 L
381.487 226.442 L
381.875 226.851 L
382.263 226.408 L
382.65 225.665 L
383.038 225.392 L
383.425 226.575 L
383.813 225.558 L
384.2 225.169 L
384.587 224.219 L
384.975 222.684 L
385.362 223.435 L
385.75 223.67 L
386.138 222.933 L
386.525 223.511 L
386.913 224.378 L
387.3 224.051 L
387.688 224.267 L
388.075 224.048 L
388.462 223.278 L
388.85 223.141 L
389.237 224.235 L
389.625 223.253 L
390.013 223.796 L
390.4 224.778 L
390.788 224.069 L
391.175 224.499 L
391.563 222.722 L
391.95 222.067 L
392.337 222.067 L
392.725 222.782 L
393.112 222.782 L
393.5 223.346 L
393.888 224.273 L
394.275 224.54 L
394.663 224.453 L
395.05 225.769 L
395.438 225.689 L
395.825 226.703 L
396.212 225.894 L
396.6 226.198 L
396.987 226.941 L
397.375 226.559 L
397.763 226.27 L
398.15 225.701 L
398.538 224.607 L
398.925 224.415 L
399.313 223.538 L
399.7 223.981 L
400.087 223.358 L
400.475 223.221 L
400.862 223.774 L
401.25 224.709 L
401.638 224.955 L
402.025 224.682 L
402.413 225.472 L
402.8 226.758 L
403.188 226.604 L
403.575 226.878 L
403.962 227.837 L
404.35 229.381 L
404.737 230.027 L
405.125 229.781 L
405.513 229.72 L
405.9 230.457 L
406.288 229.803 L
406.675 229.731 L
407.063 230.058 L
407.45 229.649 L
407.837 229.414 L
408.225 230.396 L
408.612 230.605 L
409 230.956 L
409.388 230.683 L
409.775 229.616 L
410.163 228.695 L
410.55 228.615 L
410.938 229.331 L
411.325 229.992 L
411.712 230.974 L
412.1 231.22 L
412.487 230.931 L
412.875 231.508 L
413.263 231.962 L
413.65 231.41 L
414.038 229.832 L
414.425 229.259 L
414.813 228.97 L
415.2 229.76 L
415.587 228.102 L
415.975 229.084 L
416.362 228.453 L
416.75 227.517 L
417.138 227.726 L
417.525 229.108 L
417.913 229.738 L
418.3 229.819 L
418.688 230.473 L
419.075 229.982 L
419.462 229.459 L
419.85 229.976 L
420.237 229.108 L
420.625 229.169 L
421.013 228.233 L
421.4 228.602 L
421.788 228.794 L
422.175 228.528 L
422.563 227.515 L
422.95 227.904 L
423.337 227.984 L
423.725 227.414 L
424.112 226.19 L
424.5 225.991 L
424.888 225.114 L
425.275 224.651 L
425.663 224.083 L
426.05 225.541 L
426.438 225.405 L
426.825 224.095 L
427.212 224.368 L
427.6 222.97 L
427.987 222.97 L
428.375 223.205 L
428.763 222.503 L
429.15 222.278 L
429.538 221.16 L
429.925 219.625 L
430.313 219.26 L
430.7 218.817 L
431.087 218.542 L
431.475 217.56 L
431.862 217.314 L
432.25 217.603 L
432.638 217.106 L
433.025 216.074 L
433.413 216.058 L
433.8 216.481 L
434.188 217.326 L
434.575 216.25 L
434.962 215.46 L
435.35 216.855 L
435.737 216.2 L
436.125 216.262 L
436.513 217.244 L
436.9 217.479 L
437.288 216.111 L
437.675 216.681 L
438.063 216.993 L
438.45 216.104 L
438.837 216.667 L
439.225 217.129 L
439.612 217.043 L
440 218.621 L
440.388 218.386 L
440.775 219.672 L
441.163 218.477 L
441.55 218.284 L
441.938 218.878 L
442.325 219.26 L
442.712 219.83 L
443.1 219.75 L
443.487 220.016 L
443.875 221.216 L
444.263 222.069 L
444.65 222.537 L
445.038 222.537 L
445.425 223.433 L
445.813 222.556 L
446.2 223.57 L
446.587 224.613 L
446.975 224.75 L
447.362 226.649 L
447.75 226.953 L
448.138 226.891 L
448.525 226.611 L
448.913 228.091 L
449.3 229.209 L
449.688 230.682 L
450.075 232.164 L
450.462 233.529 L
450.85 234.327 L
451.237 234.808 L
451.625 235.115 L
452.013 235.289 L
452.4 235.289 L
452.788 235.712 L
453.175 236.281 L
453.563 237.108 L
453.95 237.818 L
454.337 238.822 L
454.725 239.612 L
455.112 239.571 L
455.5 241.208 L
455.888 240.973 L
456.275 240.973 L
456.663 241.543 L
457.05 242.28 L
457.438 241.976 L
457.825 243.028 L
458.212 244.245 L
458.6 245.049 L
458.987 244.587 L
459.375 245.357 L
459.763 244.375 L
460.15 244.375 L
460.538 243.362 L
460.925 244.82 L
461.313 244.548 L
461.7 243.43 L
462.087 243.758 L
462.475 242.664 L
462.862 241.782 L
463.25 240.473 L
463.638 238.613 L
464.025 237.313 L
464.413 237.506 L
464.8 238.6 L
465.188 237.535 L
465.575 237.03 L
465.962 235.647 L
466.35 236.217 L
466.737 236.217 L
467.125 235.644 L
467.513 234.46 L
467.9 234.788 L
468.288 234.326 L
468.675 233.616 L
469.063 234.406 L
469.45 234.467 L
469.837 234.444 L
470.225 233.08 L
470.612 232.636 L
471 233.137 L
471.388 234.058 L
471.775 233.812 L
472.163 233.732 L
472.55 232.937 L
472.938 232.282 L
473.325 232.343 L
473.712 231.77 L
474.1 231.189 L
474.487 230.688 L
474.875 230.641 L
475.263 229.986 L
475.65 230.487 L
476.038 229.914 L
476.425 228.456 L
476.813 228.282 L
477.2 228.016 L
477.587 227.665 L
477.975 227.619 L
478.362 226.332 L
478.75 226.856 L
479.138 226.74 L
479.525 227.013 L
479.913 225.713 L
480.3 225.85 L
480.688 225.045 L
481.075 225.51 L
481.462 225.973 L
481.85 225.183 L
482.237 225.707 L
482.625 226.396 L
483.013 227.706 L
483.4 228.278 L
483.788 229.001 L
484.175 229.831 L
484.563 229.13 L
484.95 230.147 L
485.337 231.53 L
485.725 232.912 L
486.112 232.035 L
486.5 232.107 L
486.888 233.335 L
487.275 234.168 L
487.663 233.379 L
488.05 234.168 L
488.438 234.878 L
488.825 234.878 L
489.212 235.799 L
489.6 234.512 L
489.987 234.956 L
490.375 235.092 L
490.763 235.396 L
491.15 233.328 L
491.538 233.574 L
491.925 234.364 L
492.313 235.548 L
492.7 236.53 L
493.087 236.295 L
493.475 236.078 L
493.862 237.233 L
494.25 236.579 L
494.638 235.471 L
495.025 234.162 L
495.413 233.661 L
495.8 234.538 L
496.188 235.426 L
496.575 234.372 L
496.962 234.942 L
497.35 234.372 L
497.737 234.723 L
498.125 235.658 L
498.513 235.658 L
498.9 235.413 L
499.288 235.856 L
499.675 237.084 L
500.063 236.947 L
500.45 236.659 L
500.837 236.947 L
501.225 235.825 L
501.612 236.349 L
502 235.55 L
502.388 235.823 L
502.775 234.41 L
503.163 235.126 L
503.55 236.205 L
503.938 235.837 L
504.325 235.338 L
504.712 234.403 L
505.1 233.771 L
505.487 233.366 L
505.875 234.267 L
506.263 234.44 L
506.65 233.212 L
507.038 232.277 L
507.425 232.566 L
507.813 232.87 L
508.2 232.542 L
508.587 231.833 L
508.975 231.131 L
509.362 232.768 L
509.75 232.245 L
510.138 231.631 L
510.525 230.345 L
510.913 231.43 L
511.3 231.711 L
511.688 232.038 L
512.075 232.304 L
512.463 232.304 L
512.85 231.55 L
513.237 231.55 L
513.625 230.841 L
514.013 231.286 L
514.4 232.44 L
514.787 233.423 L
515.175 233.657 L
515.563 232.699 L
515.95 232.175 L
516.338 231.823 L
516.725 230.622 L
517.112 230.622 L
517.5 229.609 L
517.888 229.083 L
518.275 229.653 L
518.662 229.071 L
519.05 228.273 L
519.438 228.273 L
519.825 228.655 L
520.213 229.179 L
520.6 229.413 L
520.987 230.863 L
521.375 231.083 L
521.763 231.357 L
522.15 231.277 L
522.537 232.117 L
522.925 231.128 L
523.313 230.419 L
523.7 230.699 L
524.088 230.806 L
524.475 230.478 L
524.862 231.083 L
525.25 231.183 L
525.638 230.59 L
526.025 230.344 L
526.412 230.128 L
526.8 230.401 L
527.188 229.217 L
527.575 227.759 L
527.963 227.022 L
528.35 227.253 L
528.737 227.341 L
529.125 225.704 L
529.513 226.534 L
529.9 227.148 L
530.287 227.63 L
530.675 227.167 L
531.063 226.425 L
531.45 225.442 L
531.838 225.176 L
532.225 224.467 L
532.612 224.412 L
533 224.936 L
533.388 225.072 L
533.775 225.281 L
534.162 224.954 L
534.55 225.281 L
534.938 225.547 L
535.325 224.752 L
535.713 224.286 L
536.1 225.485 L
536.487 225.126 L
536.875 223.836 L
537.263 223.33 L
537.65 223.903 L
538.037 224.253 L
538.425 225.408 L
538.813 225.899 L
539.2 226.799 L
539.588 226.554 L
539.975 225.665 L
540.362 225.035 L
540.75 225.035 L
541.138 224.509 L
541.525 224.661 L
541.912 224.95 L
542.3 223.995 L
542.688 224.984 L
543.075 223.598 L
543.463 222.566 L
543.85 222.855 L
544.237 223.664 L
544.625 223.34 L
545.013 223.34 L
545.4 222.897 L
545.787 223.142 L
546.175 224.587 L
546.563 225.03 L
546.95 227.018 L
547.338 226.723 L
547.725 227.787 L
548.112 227.765 L
548.5 227.724 L
548.888 228.706 L
549.275 228.665 L
549.662 228.737 L
550.05 227.983 L
550.438 227.983 L
550.825 228.507 L
551.213 229.202 L
551.6 228.968 L
551.987 229.104 L
552.375 229.518 L
552.763 228.888 L
553.15 229.195 L
553.537 228.118 L
553.925 228.749 L
554.313 227.533 L
554.7 227.81 L
555.088 226.925 L
555.475 226.964 L
555.862 226.884 L
556.25 228.139 L
556.638 228.905 L
557.025 229.331 L
557.412 229.065 L
557.8 227.838 L
558.188 226.388 L
558.575 226.064 L
558.963 225.236 L
559.35 224.929 L
559.737 226.388 L
560.125 226.783 L
560.513 226.456 L
560.9 226.528 L
561.287 227.166 L
561.675 227.339 L
562.063 228.077 L
562.45 227.843 L
562.838 230.593 L
563.225 230.517 L
563.612 229.605 L
564 229.605 L
564.388 228.942 L
564.775 228.152 L
565.162 228.862 L
565.55 229.189 L
565.938 227.38 L
566.325 227.073 L
566.713 225.873 L
567.1 226.75 L
567.487 226.791 L
567.875 227.291 L
568.263 225.384 L
568.65 225.118 L
569.037 225.118 L
569.425 225.045 L
569.813 225.511 L
570.2 225.864 L
570.588 225.803 L
570.975 225.052 L
571.362 224.898 L
571.75 225.205 L
572.138 224.947 L
572.525 224.86 L
572.912 224.799 L
573.3 225.481 L
573.688 224.194 L
574.075 224.514 L
574.463 224.237 L
574.85 227.227 L
575.237 227.03 L
575.625 226.406 L
576.013 224.956 L
576.4 224.85 L
576.787 225.067 L
577.175 224.543 L
577.563 224.789 L
577.95 226.027 L
578.338 225.005 L
578.725 224.442 L
579.112 224.012 L
579.5 223.135 L
579.888 222.557 L
580.275 223.212 L
580.662 223.385 L
581.05 222.076 L
581.438 221.613 L
581.825 221.324 L
582.213 220.229 L
582.6 219.574 L
582.987 220.156 L
583.375 221.569 L
583.763 221.497 L
584.15 221.94 L
584.537 222.229 L
584.925 221.656 L
585.313 220.76 L
585.7 220.932 L
586.088 220.055 L
586.475 220.951 L
586.862 221.197 L
587.25 220.829 L
587.638 219.932 L
588.025 221.267 L
588.412 221.533 L
588.8 220.96 L
589.188 221.267 L
589.575 222.01 L
589.963 221.873 L
590.35 221.046 L
590.737 221.255 L
591.125 221.014 L
591.513 220.4 L
591.9 220.4 L
592.287 221.116 L
592.675 219.993 L
593.063 219.206 L
593.45 219.479 L
593.838 219.392 L
594.225 218.41 L
594.612 216.446 L
595 217.069 L
595.388 217.602 L
595.775 218.479 L
596.162 218.066 L
596.55 217.484 L
596.938 217.701 L
597.325 216.615 L
597.713 216.78 L
598.1 217.511 L
598.487 217.42 L
598.875 218.229 L
599.263 218.093 L
599.65 218.382 L
600.037 217.158 L
600.425 217.22 L
600.813 219.184 L
601.2 220.015 L
601.588 221.397 L
601.975 222.011 L
602.362 221.745 L
602.75 221.818 L
603.138 221.818 L
603.525 220.59 L
603.912 220.59 L
604.3 220.763 L
604.688 221.07 L
605.075 220.984 L
605.463 220.272 L
605.85 221.067 L
606.237 220.74 L
606.625 220.494 L
607.013 220.249 L
607.4 220.644 L
607.787 221.17 L
608.175 220.669 L
608.563 220.915 L
608.95 221.134 L
609.338 221.134 L
609.725 220.998 L
610.112 221.652 L
610.5 221.886 L
610.888 222.282 L
611.275 222.834 L
611.662 222.734 L
612.05 222.017 L
612.438 222.758 L
612.825 224.442 L
613.213 224.651 L
613.6 224.055 L
613.987 224.601 L
614.375 225.645 L
614.763 225.538 L
615.15 225.163 L
615.537 224.481 L
615.925 225.29 L
616.313 226.117 L
616.7 226.69 L
617.088 227.53 L
617.475 226.787 L
617.862 226.91 L
618.25 227.082 L
618.638 226.793 L
619.025 227.175 L
619.412 226.552 L
619.8 226.947 L
620.188 227.213 L
620.575 225.145 L
620.963 224.777 L
621.35 223.218 L
621.737 223.411 L
622.125 222.967 L
622.513 222.678 L
622.9 223.006 L
623.287 223.497 L
623.675 223.19 L
624.063 223.251 L
624.45 222.33 L
624.838 223.64 L
625.225 224.256 L
625.612 224.41 L
626 224.41 L
626.388 223.615 L
626.775 223.861 L
627.162 224.034 L
627.55 224.385 L
627.938 224.006 L
628.325 223.179 L
628.713 222.329 L
629.1 221.586 L
629.487 221.968 L
629.875 221.968 L
630.263 221.968 L
630.65 222.773 L
631.037 222.6 L
631.425 223.855 L
631.813 224.047 L
632.2 224.184 L
632.588 223.683 L
632.975 222.629 L
633.362 222.99 L
633.75 222.637 L
634.138 222.33 L
634.525 221.916 L
634.912 223.172 L
635.3 223.531 L
635.688 223.242 L
636.075 222.587 L
636.463 222.014 L
636.85 222.891 L
637.237 223.108 L
637.625 223.093 L
638.013 223.575 L
638.4 223.863 L
638.787 223.69 L
639.175 224.602 L
639.563 224.53 L
639.95 223.221 L
640.338 224.675 L
640.725 225.002 L
641.112 225.991 L
641.5 226.734 L
641.888 227.177 L
642.275 227.701 L
642.662 226.801 L
643.05 228.11 L
643.438 227.787 L
643.825 227.552 L
644.213 227.326 L
644.6 227.654 L
644.987 228.023 L
645.375 227.11 L
645.763 226.783 L
646.15 226.841 L
646.537 226.272 L
646.925 225.521 L
647.313 224.337 L
647.7 225.872 L
648.088 225.771 L
648.475 226.401 L
648.862 226.401 L
649.25 227.384 L
649.638 228.188 L
650.025 227.954 L
650.412 227.384 L
650.8 226.73 L
651.188 225.42 L
651.575 225.42 L
651.963 225.203 L
652.35 225.438 L
652.737 225.839 L
653.125 226.789 L
653.513 226.869 L
653.9 226.46 L
654.287 226.553 L
654.675 225.764 L
655.063 226.087 L
655.45 226.087 L
655.838 226.568 L
656.225 226.875 L
656.612 226.875 L
657 226.948 L
657.388 226.872 L
657.775 226.872 L
658.162 226.583 L
658.55 225.929 L
658.938 225.857 L
659.325 225.72 L
659.713 226.457 L
660.1 225.003 L
660.487 224.502 L
660.875 223.888 L
661.263 222.78 L
661.65 222.78 L
662.037 223.35 L
662.425 223.214 L
662.813 222.318 L
663.2 222.334 L
663.588 222.569 L
663.975 222.074 L
664.362 221.419 L
664.75 221.065 L
665.138 222.478 L
665.525 223.133 L
665.912 225.097 L
666.3 225.204 L
666.688 226.61 L
667.075 225.962 L
667.463 224.517 L
667.85 225.506 L
668.237 225.271 L
668.625 225.181 L
669.013 223.63 L
669.4 223.326 L
669.787 222.845 L
670.175 221.661 L
670.563 222.16 L
670.95 223.143 L
671.338 222.854 L
671.725 223.971 L
672.112 224.237 L
672.5 224.313 L
672.888 224.078 L
673.275 224.741 L
673.662 224.468 L
674.05 225.111 L
674.438 225.005 L
674.825 225.855 L
675.213 226.144 L
675.6 226.644 L
675.987 226.41 L
676.375 225.123 L
676.763 224.835 L
677.15 225.416 L
677.537 226.244 L
677.925 227.034 L
678.313 227.206 L
678.7 226.99 L
679.088 226.99 L
679.475 227.297 L
679.862 227.727 L
680.25 227.962 L
680.638 227.763 L
681.025 229.195 L
681.412 228.752 L
681.8 228.448 L
682.188 229.157 L
682.575 229.552 L
682.963 229.552 L
683.35 229.109 L
683.737 230.121 L
684.125 228.671 L
684.513 228.322 L
684.9 228.322 L
685.287 227.012 L
685.675 226.661 L
686.063 227.185 L
686.45 226.591 L
686.838 226.965 L
687.225 226.965 L
687.612 226.248 L
688 225.767 L
688.388 226.074 L
688.775 225.891 L
689.162 225.391 L
689.55 225.583 L
689.938 225.879 L
690.325 225.654 L
690.713 225.715 L
691.1 226.527 L
691.487 225.627 L
691.875 225.627 L
692.263 226.706 L
692.65 226.417 L
693.037 226.197 L
693.425 226.47 L
693.813 227.043 L
694.2 228.216 L
694.588 226.489 L
694.975 226.99 L
695.362 225.68 L
695.75 226.181 L
696.138 226.009 L
696.525 225.902 L
696.912 226.148 L
697.3 225.111 L
697.688 224.215 L
698.075 224.301 L
698.463 224.109 L
698.85 224.818 L
699.237 225.388 L
699.625 225.474 L
700.013 225.413 L
700.4 226.769 L
700.787 226.225 L
701.175 226.669 L
701.563 225.773 L
701.95 225.063 L
702.338 225.298 L
702.725 225.388 L
703.112 224.943 L
703.5 225.793 L
703.888 227.243 L
704.275 228.96 L
704.662 228.387 L
705.05 229.369 L
705.438 229.065 L
705.825 228.621 L
706.213 227.905 L
706.6 229.364 L
706.987 229.887 L
707.375 230.08 L
707.763 230.353 L
708.15 230.66 L
708.537 231.238 L
708.925 230.859 L
709.313 231.382 L
709.7 231.182 L
710.088 231.735 L
710.475 231.121 L
710.862 230.597 L
711.25 230.67 L
711.638 230.169 L
712.025 228.859 L
712.412 228.339 L
712.8 228.339 L
713.188 227.908 L
713.575 227.642 L
713.963 226.056 L
714.35 228.16 L
714.737 228.114 L
715.125 229.464 L
715.513 228.963 L
715.9 229.463 L
716.287 230.093 L
716.675 230.155 L
717.063 229.414 L
717.45 230.263 L
717.838 230.587 L
718.225 230.859 L
718.612 231.163 L
719 229.705 L
719.388 229.446 L
719.775 229.273 L
720.162 227.78 L
720.55 227.064 L
720.938 227.657 L
721.325 227.657 L
721.713 227.793 L
722.1 228.1 L
722.487 227.735 L
722.875 228.317 L
723.263 228.405 L
723.65 228.709 L
724.037 227.525 L
724.425 228.098 L
724.813 227.529 L
725.2 227.263 L
725.588 226.559 L
725.975 226.752 L
726.362 225.466 L
726.75 225.466 L
727.138 225.682 L
727.525 226.719 L
727.912 225.831 L
728.3 226.331 L
728.688 226.638 L
729.075 226.468 L
729.463 226.84 L
729.85 225.858 L
730.237 225.842 L
730.625 226.304 L
731.013 226.232 L
731.4 225.75 L
731.787 226.35 L
732.175 227.087 L
732.563 226.371 L
732.95 226.568 L
733.338 226.568 L
733.725 226.661 L
734.112 225.297 L
734.5 225.078 L
734.888 224.464 L
735.275 224.255 L
735.662 224.409 L
736.05 223.225 L
736.438 222.275 L
736.825 222.041 L
737.213 221.379 L
737.6 221.952 L
737.987 221.679 L
738.375 220.665 L
738.763 221.03 L
739.15 221.203 L
739.537 221.437 L
739.925 221.671 L
740.313 221.575 L
740.7 220.747 L
741.088 220.988 L
741.475 220.579 L
741.862 219.828 L
742.25 218.804 L
742.638 219.05 L
743.025 217.945 L
743.412 216.659 L
743.8 217.539 L
744.188 217.102 L
744.575 217.998 L
744.963 216.851 L
745.35 218.568 L
745.737 219.03 L
746.125 219.117 L
746.513 219.383 L
746.9 219.383 L
747.287 218.789 L
747.675 218.689 L
748.063 218.188 L
748.45 217.506 L
748.838 217.442 L
749.225 217.923 L
749.612 217.978 L
750 217.658 L
750.388 218.289 L
750.775 218.153 L
751.162 218.255 L
751.55 218.068 L
751.938 218.945 L
752.325 218.244 L
752.713 219.132 L
753.1 219.352 L
753.487 220.568 L
753.875 221.011 L
754.263 220.776 L
754.65 220.285 L
755.037 219.417 L
755.425 220.222 L
755.813 221.672 L
756.2 223.192 L
756.588 224.829 L
756.975 225.038 L
757.362 223.46 L
757.75 223.733 L
758.138 223.46 L
758.525 223.354 L
758.912 223.181 L
759.3 223.448 L
759.688 222.875 L
760.075 223.953 L
760.463 224.126 L
760.85 222.98 L
761.237 223.697 L
761.625 223.51 L
762.013 224.979 L
762.4 225.26 L
762.787 225.823 L
763.175 227.083 L
763.563 226.1 L
763.95 225.747 L
764.338 225.42 L
764.725 225.769 L
765.112 224.31 L
765.5 223.573 L
765.888 223.76 L
766.275 223.659 L
766.662 223.905 L
767.05 224.475 L
767.438 225.771 L
767.825 226.576 L
768.213 227.784 L
768.6 227.221 L
768.987 226.308 L
769.375 227.127 L
769.763 227.189 L
770.15 226.384 L
770.537 227.397 L
770.925 226.967 L
771.313 227.817 L
771.7 227.817 L
772.088 228.285 L
772.475 228.111 L
772.862 226.745 L
773.25 226.308 L
773.638 226.247 L
774.025 226.482 L
774.412 227.499 L
774.8 228.012 L
775.188 228.012 L
775.575 226.599 L
775.963 224.29 L
776.35 224.071 L
776.737 224.875 L
777.125 225.88 L
777.513 225.693 L
777.9 225.262 L
778.287 225.893 L
778.675 226.781 L
779.063 226.734 L
779.45 228.024 L
779.838 227.234 L
780.225 226.852 L
780.612 227.863 L
781 227.233 L
781.388 227.249 L
781.775 227.169 L
782.162 226.888 L
782.55 226.234 L
782.938 225.957 L
783.325 225.876 L
783.713 226.665 L
784.1 225.838 L
784.487 226.401 L
784.875 226.401 L
785.263 228.12 L
785.65 228.04 L
786.037 228.141 L
786.425 228.468 L
786.813 227.01 L
787.2 225.556 L
787.588 224.097 L
787.975 223.264 L
788.362 223.432 L
788.75 224.798 L
789.138 224.252 L
789.525 224.425 L
789.912 223.232 L
790.3 221.477 L
790.688 221.709 L
791.075 220.305 L
791.463 219.674 L
791.85 220.843 L
792.237 220.554 L
792.625 222.295 L
793.013 222.158 L
793.4 222.158 L
793.787 221.346 L
794.175 221.065 L
794.563 221.34 L
794.95 220.326 L
795.338 220.289 L
795.725 221.399 L
796.112 221.092 L
796.5 220.078 L
796.888 219.942 L
797.275 220.572 L
797.662 220.535 L
798.05 220.011 L
798.438 220.581 L
798.825 219.919 L
799.213 219.475 L
799.6 220.92 L
799.987 220.84 L
800.375 221.629 L
800.763 221.629 L
801.15 222.509 L
801.537 222.317 L
801.925 222.644 L
802.313 223.009 L
802.7 222.129 L
803.088 222.211 L
803.475 221.638 L
803.862 222.292 L
804.25 220.697 L
804.638 220.402 L
805.025 217.946 L
805.412 218.47 L
805.8 218.142 L
806.188 217.876 L
806.575 218.594 L
806.963 218.557 L
807.35 219.446 L
807.737 220.06 L
808.125 219.801 L
808.513 218.693 L
808.9 218.321 L
809.287 219.257 L
809.675 219.796 L
810.063 219.691 L
810.45 220.269 L
810.838 221.146 L
811.225 220.164 L
811.612 219.71 L
812 219.71 L
812.388 218.073 L
812.775 218.599 L
813.162 218.217 L
813.55 219.295 L
813.938 219.623 L
814.325 219.839 L
814.713 220.112 L
815.1 221.866 L
815.487 223.417 L
815.875 223.201 L
816.263 223.91 L
816.65 224.119 L
817.037 223.03 L
817.425 225.135 L
817.813 225.659 L
818.2 225.027 L
818.588 225.027 L
818.975 224.947 L
819.362 224.026 L
819.75 224.026 L
820.138 223.699 L
820.525 223.516 L
820.912 222.727 L
821.3 223.443 L
821.688 223.747 L
822.075 224.271 L
822.463 224.823 L
822.85 225.305 L
823.237 225.168 L
823.625 224.879 L
824.013 226.095 L
824.4 225.861 L
824.787 227.161 L
825.175 226.854 L
825.563 226.302 L
825.95 224.99 L
826.338 225.161 L
826.725 226.611 L
827.112 226.376 L
827.5 226.642 L
827.888 227.296 L
828.275 227.661 L
828.662 229.319 L
829.05 229.366 L
829.438 229.731 L
829.825 231.59 L
830.213 229.995 L
830.6 229.672 L
830.987 230.481 L
831.375 229.827 L
831.763 229.721 L
832.15 230.984 L
832.537 231.03 L
832.925 231.781 L
833.313 230.901 L
833.7 229.685 L
834.088 229.042 L
834.475 227.923 L
834.862 227.619 L
835.25 226.174 L
835.638 226.637 L
836.025 225.818 L
836.412 224.906 L
836.8 225.994 L
837.188 223.668 L
837.575 222.378 L
837.963 221.396 L
838.35 221.123 L
838.737 221.017 L
839.125 220.387 L
839.513 219.482 L
839.9 219.309 L
840.287 219.233 L
840.675 219.45 L
841.063 219.45 L
841.45 217.991 L
841.838 217.991 L
842.225 218.318 L
842.612 217.564 L
843 217.195 L
843.388 217.275 L
843.775 217.001 L
844.162 216.777 L
844.55 215.126 L
844.938 215.433 L
845.325 214.657 L
845.713 215.661 L
846.1 214.945 L
846.487 213.866 L
846.875 213 L
847.263 212.104 L
847.65 212.104 L
848.037 211.997 L
848.425 211.693 L
848.813 210.629 L
849.2 210.523 L
849.588 209.064 L
849.975 210.177 L
850.362 210.572 L
850.75 211.377 L
851.138 211.959 L
851.525 212.855 L
851.912 211.747 L
852.3 210.957 L
852.688 210.416 L
853.075 209.612 L
853.463 209.25 L
853.85 208.666 L
854.237 209.955 L
854.625 208.261 L
855.013 208.55 L
855.4 207.997 L
855.787 208.816 L
856.175 210.182 L
856.563 209.139 L
856.95 209.397 L
857.338 209.397 L
857.725 209.811 L
858.112 210.22 L
858.5 210.22 L
858.888 211.42 L
859.275 212.218 L
859.662 213.023 L
860.05 213.099 L
860.438 212.593 L
860.825 211.705 L
861.213 212.07 L
861.6 211.763 L
861.987 210.973 L
862.375 211.438 L
862.763 211.727 L
863.15 211.936 L
863.537 212.824 L
863.925 214.023 L
864.313 214.865 L
864.7 214.421 L
865.088 215.095 L
865.475 215.095 L
865.862 215.368 L
866.25 215.464 L
866.638 216.259 L
867.025 215.742 L
867.412 215.588 L
867.8 214.576 L
868.188 214.365 L
868.575 214.639 L
868.963 215.269 L
869.35 215.544 L
869.737 216.025 L
870.125 215.817 L
870.513 215.012 L
870.9 215.084 L
871.287 214.818 L
871.675 215.926 L
872.063 216.715 L
872.45 216.507 L
872.838 217.618 L
873.225 219.195 L
873.612 220.341 L
874 220.607 L
874.388 221.405 L
874.775 221.026 L
875.162 220.31 L
875.55 219.327 L
875.938 218.801 L
876.325 219.321 L
876.713 219.752 L
877.1 220.598 L
877.487 221.535 L
877.875 221.607 L
878.263 222.503 L
878.65 221.872 L
879.037 221.613 L
879.425 221.309 L
879.813 221.406 L
880.2 221.33 L
880.588 222.437 L
880.975 221.777 L
881.362 221.368 L
881.75 221.503 L
882.138 220.737 L
882.525 221.261 L
882.912 220.348 L
883.3 219.825 L
883.688 219.38 L
884.075 220.116 L
884.463 220.826 L
884.85 221.48 L
885.237 220.603 L
885.625 219.863 L
886.013 218.635 L
886.4 218.499 L
886.787 217.994 L
887.175 217.339 L
887.563 217.797 L
887.95 216.854 L
888.338 216.194 L
888.725 215.15 L
889.112 214.112 L
889.5 214.112 L
889.888 214.032 L
890.275 213.823 L
890.662 213.069 L
891.05 213.335 L
891.438 211.901 L
891.825 211.192 L
892.213 210.547 L
892.6 209.67 L
892.987 208.36 L
893.375 207.86 L
893.763 208.164 L
894.15 208.795 L
894.537 208.61 L
894.925 209.497 L
895.313 209.825 L
895.7 209.493 L
896.088 209.374 L
896.475 209.455 L
896.862 209.243 L
897.25 208.19 L
897.638 207.703 L
898.025 206.615 L
898.412 205.864 L
898.8 206.082 L
899.188 204.874 L
899.575 204.858 L
899.963 205.067 L
900.35 203.799 L
900.737 204.398 L
901.125 204.367 L
901.513 203.857 L
901.9 204.668 L
902.287 203.536 L
902.675 204.161 L
903.063 203.801 L
903.45 204.037 L
903.838 203.266 L
904.225 201.397 L
904.612 200.008 L
905 200.714 L
S
GR
%%Trailer
%%Pages: 1
%%EOF
