%!PS-Adobe-3.0 EPSF-3.0
%%Creator: (MATLAB, The Mathworks, Inc. Version 9.0.0.341360 \(R2016a\). Operating System: Linux)
%%Title: report/figures/sm_base_lin_nopriosampling2_ratio.eps
%%CreationDate: 2017-02-04T23:56:26
%%Pages: (atend)
%%BoundingBox:    59     4   910   325
%%LanguageLevel: 3
%%EndComments
%%BeginProlog
%%BeginResource: procset (Apache XML Graphics Std ProcSet) 1.2 0
%%Version: 1.2 0
%%Copyright: (Copyright 2001-2003,2010 The Apache Software Foundation. License terms: http://www.apache.org/licenses/LICENSE-2.0)
/bd{bind def}bind def
/ld{load def}bd
/GR/grestore ld
/M/moveto ld
/LJ/setlinejoin ld
/C/curveto ld
/f/fill ld
/LW/setlinewidth ld
/GC/setgray ld
/t/show ld
/N/newpath ld
/CT/concat ld
/cp/closepath ld
/S/stroke ld
/L/lineto ld
/CC/setcmykcolor ld
/A/ashow ld
/GS/gsave ld
/RC/setrgbcolor ld
/RM/rmoveto ld
/ML/setmiterlimit ld
/re {4 2 roll M
1 index 0 rlineto
0 exch rlineto
neg 0 rlineto
cp } bd
/_ctm matrix def
/_tm matrix def
/BT { _ctm currentmatrix pop matrix _tm copy pop 0 0 moveto } bd
/ET { _ctm setmatrix } bd
/iTm { _ctm setmatrix _tm concat } bd
/Tm { _tm astore pop iTm 0 0 moveto } bd
/ux 0.0 def
/uy 0.0 def
/F {
  /Tp exch def
  /Tf exch def
  Tf findfont Tp scalefont setfont
  /cf Tf def  /cs Tp def
} bd
/ULS {currentpoint /uy exch def /ux exch def} bd
/ULE {
  /Tcx currentpoint pop def
  gsave
  newpath
  cf findfont cs scalefont dup
  /FontMatrix get 0 get /Ts exch def /FontInfo get dup
  /UnderlinePosition get Ts mul /To exch def
  /UnderlineThickness get Ts mul /Tt exch def
  ux uy To add moveto  Tcx uy To add lineto
  Tt setlinewidth stroke
  grestore
} bd
/OLE {
  /Tcx currentpoint pop def
  gsave
  newpath
  cf findfont cs scalefont dup
  /FontMatrix get 0 get /Ts exch def /FontInfo get dup
  /UnderlinePosition get Ts mul /To exch def
  /UnderlineThickness get Ts mul /Tt exch def
  ux uy To add cs add moveto Tcx uy To add cs add lineto
  Tt setlinewidth stroke
  grestore
} bd
/SOE {
  /Tcx currentpoint pop def
  gsave
  newpath
  cf findfont cs scalefont dup
  /FontMatrix get 0 get /Ts exch def /FontInfo get dup
  /UnderlinePosition get Ts mul /To exch def
  /UnderlineThickness get Ts mul /Tt exch def
  ux uy To add cs 10 mul 26 idiv add moveto Tcx uy To add cs 10 mul 26 idiv add lineto
  Tt setlinewidth stroke
  grestore
} bd
/QT {
/Y22 exch store
/X22 exch store
/Y21 exch store
/X21 exch store
currentpoint
/Y21 load 2 mul add 3 div exch
/X21 load 2 mul add 3 div exch
/X21 load 2 mul /X22 load add 3 div
/Y21 load 2 mul /Y22 load add 3 div
/X22 load /Y22 load curveto
} bd
/SSPD {
dup length /d exch dict def
{
/v exch def
/k exch def
currentpagedevice k known {
/cpdv currentpagedevice k get def
v cpdv ne {
/upd false def
/nullv v type /nulltype eq def
/nullcpdv cpdv type /nulltype eq def
nullv nullcpdv or
{
/upd true def
} {
/sametype v type cpdv type eq def
sametype {
v type /arraytype eq {
/vlen v length def
/cpdvlen cpdv length def
vlen cpdvlen eq {
0 1 vlen 1 sub {
/i exch def
/obj v i get def
/cpdobj cpdv i get def
obj cpdobj ne {
/upd true def
exit
} if
} for
} {
/upd true def
} ifelse
} {
v type /dicttype eq {
v {
/dv exch def
/dk exch def
/cpddv cpdv dk get def
dv cpddv ne {
/upd true def
exit
} if
} forall
} {
/upd true def
} ifelse
} ifelse
} if
} ifelse
upd true eq {
d k v put
} if
} if
} if
} forall
d length 0 gt {
d setpagedevice
} if
} bd
%%EndResource
%%BeginResource: procset (Apache XML Graphics EPS ProcSet) 1.0 0
%%Version: 1.0 0
%%Copyright: (Copyright 2002-2003 The Apache Software Foundation. License terms: http://www.apache.org/licenses/LICENSE-2.0)
/BeginEPSF { %def
/b4_Inc_state save def         % Save state for cleanup
/dict_count countdictstack def % Count objects on dict stack
/op_count count 1 sub def      % Count objects on operand stack
userdict begin                 % Push userdict on dict stack
/showpage { } def              % Redefine showpage, { } = null proc
0 setgray 0 setlinecap         % Prepare graphics state
1 setlinewidth 0 setlinejoin
10 setmiterlimit [ ] 0 setdash newpath
/languagelevel where           % If level not equal to 1 then
{pop languagelevel             % set strokeadjust and
1 ne                           % overprint to their defaults.
{false setstrokeadjust false setoverprint
} if
} if
} bd
/EndEPSF { %def
count op_count sub {pop} repeat            % Clean up stacks
countdictstack dict_count sub {end} repeat
b4_Inc_state restore
} bd
%%EndResource
%%EndProlog
%%Page: 1 1
%%PageBoundingBox: 0 0 1000 350
%%BeginPageSetup
[1 0 0 -1 0 350] CT
%%EndPageSetup
GS
1 GC
N
0 0 1000 350 re
f
GR
GS
1 GC
N
0 0 1000 350 re
f
GR
GS
1 GC
N
130 289 M
905 289 L
905 26 L
130 26 L
cp
f
GR
GS
0.873 GC
1 LJ
0.5 LW
N
130 289 M
130 26 L
S
GR
GS
0.873 GC
1 LJ
0.5 LW
N
323.75 289 M
323.75 26 L
S
GR
GS
0.873 GC
1 LJ
0.5 LW
N
517.5 289 M
517.5 26 L
S
GR
GS
0.873 GC
1 LJ
0.5 LW
N
711.25 289 M
711.25 26 L
S
GR
GS
0.873 GC
1 LJ
0.5 LW
N
905 289 M
905 26 L
S
GR
GS
0.873 GC
1 LJ
0.5 LW
N
905 289 M
130 289 L
S
GR
GS
0.873 GC
1 LJ
0.5 LW
N
905 238.905 M
130 238.905 L
S
GR
GS
0.873 GC
1 LJ
0.5 LW
N
905 188.81 M
130 188.81 L
S
GR
GS
0.873 GC
1 LJ
0.5 LW
N
905 138.714 M
130 138.714 L
S
GR
GS
0.873 GC
1 LJ
0.5 LW
N
905 88.619 M
130 88.619 L
S
GR
GS
0.873 GC
1 LJ
0.5 LW
N
905 38.524 M
130 38.524 L
S
GR
GS
0.149 GC
2 setlinecap
1 LJ
0.5 LW
N
130 289 M
905 289 L
S
GR
GS
0.149 GC
2 setlinecap
1 LJ
0.5 LW
N
130 289 M
130 281.25 L
S
GR
GS
0.149 GC
2 setlinecap
1 LJ
0.5 LW
N
323.75 289 M
323.75 281.25 L
S
GR
GS
0.149 GC
2 setlinecap
1 LJ
0.5 LW
N
517.5 289 M
517.5 281.25 L
S
GR
GS
0.149 GC
2 setlinecap
1 LJ
0.5 LW
N
711.25 289 M
711.25 281.25 L
S
GR
GS
0.149 GC
2 setlinecap
1 LJ
0.5 LW
N
905 289 M
905 281.25 L
S
GR
GS
[1 0 0 1 130 295] CT
0.149 GC
N
-0.141 5.719 M
-1.672 5.719 -2.438 7.219 QT
-3.203 8.719 -3.203 11.719 QT
-3.203 14.719 -2.438 16.219 QT
-1.672 17.719 -0.141 17.719 QT
1.391 17.719 2.156 16.219 QT
2.922 14.719 2.922 11.719 QT
2.922 8.719 2.156 7.219 QT
1.391 5.719 -0.141 5.719 QT
cp
-0.141 4.156 M
2.313 4.156 3.602 6.094 QT
4.891 8.031 4.891 11.719 QT
4.891 15.406 3.602 17.344 QT
2.313 19.281 -0.141 19.281 QT
-2.594 19.281 -3.891 17.344 QT
-5.188 15.406 -5.188 11.719 QT
-5.188 8.031 -3.891 6.094 QT
-2.594 4.156 -0.141 4.156 QT
cp
f
GR
GS
[1 0 0 1 323.75 295] CT
0.149 GC
N
-9.641 5.719 M
-11.172 5.719 -11.938 7.219 QT
-12.703 8.719 -12.703 11.719 QT
-12.703 14.719 -11.938 16.219 QT
-11.172 17.719 -9.641 17.719 QT
-8.109 17.719 -7.344 16.219 QT
-6.578 14.719 -6.578 11.719 QT
-6.578 8.719 -7.344 7.219 QT
-8.109 5.719 -9.641 5.719 QT
cp
-9.641 4.156 M
-7.188 4.156 -5.898 6.094 QT
-4.609 8.031 -4.609 11.719 QT
-4.609 15.406 -5.898 17.344 QT
-7.188 19.281 -9.641 19.281 QT
-12.094 19.281 -13.391 17.344 QT
-14.688 15.406 -14.688 11.719 QT
-14.688 8.031 -13.391 6.094 QT
-12.094 4.156 -9.641 4.156 QT
cp
-1.135 16.516 M
0.928 16.516 L
0.928 19 L
-1.135 19 L
-1.135 16.516 L
cp
5.238 4.422 M
12.988 4.422 L
12.988 6.078 L
7.051 6.078 L
7.051 9.656 L
7.473 9.5 7.902 9.43 QT
8.332 9.359 8.77 9.359 QT
11.207 9.359 12.637 10.695 QT
14.066 12.031 14.066 14.328 QT
14.066 16.672 12.598 17.977 QT
11.129 19.281 8.457 19.281 QT
7.551 19.281 6.598 19.125 QT
5.645 18.969 4.629 18.656 QT
4.629 16.672 L
5.504 17.156 6.441 17.391 QT
7.379 17.625 8.426 17.625 QT
10.113 17.625 11.098 16.734 QT
12.082 15.844 12.082 14.328 QT
12.082 12.797 11.098 11.906 QT
10.113 11.016 8.426 11.016 QT
7.629 11.016 6.848 11.195 QT
6.066 11.375 5.238 11.75 QT
5.238 4.422 L
cp
f
GR
GS
[1 0 0 1 517.5 295] CT
0.149 GC
N
-4.016 17.344 M
-0.797 17.344 L
-0.797 6.219 L
-4.297 6.922 L
-4.297 5.125 L
-0.813 4.422 L
1.156 4.422 L
1.156 17.344 L
4.375 17.344 L
4.375 19 L
-4.016 19 L
-4.016 17.344 L
cp
f
GR
GS
[1 0 0 1 711.25 295] CT
0.149 GC
N
-13.516 17.344 M
-10.297 17.344 L
-10.297 6.219 L
-13.797 6.922 L
-13.797 5.125 L
-10.313 4.422 L
-8.344 4.422 L
-8.344 17.344 L
-5.125 17.344 L
-5.125 19 L
-13.516 19 L
-13.516 17.344 L
cp
-1.135 16.516 M
0.928 16.516 L
0.928 19 L
-1.135 19 L
-1.135 16.516 L
cp
5.238 4.422 M
12.988 4.422 L
12.988 6.078 L
7.051 6.078 L
7.051 9.656 L
7.473 9.5 7.902 9.43 QT
8.332 9.359 8.77 9.359 QT
11.207 9.359 12.637 10.695 QT
14.066 12.031 14.066 14.328 QT
14.066 16.672 12.598 17.977 QT
11.129 19.281 8.457 19.281 QT
7.551 19.281 6.598 19.125 QT
5.645 18.969 4.629 18.656 QT
4.629 16.672 L
5.504 17.156 6.441 17.391 QT
7.379 17.625 8.426 17.625 QT
10.113 17.625 11.098 16.734 QT
12.082 15.844 12.082 14.328 QT
12.082 12.797 11.098 11.906 QT
10.113 11.016 8.426 11.016 QT
7.629 11.016 6.848 11.195 QT
6.066 11.375 5.238 11.75 QT
5.238 4.422 L
cp
f
GR
GS
[1 0 0 1 905 295] CT
0.149 GC
N
-2.656 17.344 M
4.219 17.344 L
4.219 19 L
-5.031 19 L
-5.031 17.344 L
-3.906 16.172 -1.969 14.219 QT
-0.031 12.266 0.469 11.688 QT
1.406 10.625 1.781 9.891 QT
2.156 9.156 2.156 8.438 QT
2.156 7.281 1.344 6.547 QT
0.531 5.813 -0.781 5.813 QT
-1.703 5.813 -2.734 6.133 QT
-3.766 6.453 -4.938 7.109 QT
-4.938 5.125 L
-3.75 4.641 -2.711 4.398 QT
-1.672 4.156 -0.813 4.156 QT
1.453 4.156 2.797 5.289 QT
4.141 6.422 4.141 8.313 QT
4.141 9.219 3.805 10.023 QT
3.469 10.828 2.578 11.922 QT
2.344 12.203 1.031 13.555 QT
-0.281 14.906 -2.656 17.344 QT
cp
f
GR
GS
[1 0 0 1 517.50037 320] CT
0.149 GC
N
-14.25 9.328 M
-14.25 11.188 L
-15.094 10.766 -16 10.547 QT
-16.906 10.328 -17.859 10.328 QT
-19.344 10.328 -20.078 10.781 QT
-20.813 11.234 -20.813 12.141 QT
-20.813 12.828 -20.281 13.219 QT
-19.75 13.609 -18.172 13.969 QT
-17.484 14.109 L
-15.391 14.563 -14.5 15.383 QT
-13.609 16.203 -13.609 17.688 QT
-13.609 19.359 -14.938 20.336 QT
-16.266 21.313 -18.578 21.313 QT
-19.547 21.313 -20.594 21.125 QT
-21.641 20.938 -22.813 20.563 QT
-22.813 18.516 L
-21.719 19.094 -20.648 19.375 QT
-19.578 19.656 -18.547 19.656 QT
-17.141 19.656 -16.391 19.18 QT
-15.641 18.703 -15.641 17.828 QT
-15.641 17.031 -16.188 16.602 QT
-16.734 16.172 -18.563 15.766 QT
-19.25 15.609 L
-21.094 15.219 -21.906 14.422 QT
-22.719 13.625 -22.719 12.219 QT
-22.719 10.531 -21.516 9.602 QT
-20.313 8.672 -18.109 8.672 QT
-17 8.672 -16.039 8.836 QT
-15.078 9 -14.25 9.328 QT
cp
-8.507 5.547 M
-8.507 8.969 L
-4.444 8.969 L
-4.444 10.5 L
-8.507 10.5 L
-8.507 17.031 L
-8.507 18.5 -8.108 18.922 QT
-7.71 19.344 -6.476 19.344 QT
-4.444 19.344 L
-4.444 21 L
-6.476 21 L
-8.757 21 -9.624 20.148 QT
-10.491 19.297 -10.491 17.031 QT
-10.491 10.5 L
-11.944 10.5 L
-11.944 8.969 L
-10.491 8.969 L
-10.491 5.547 L
-8.507 5.547 L
cp
8.447 14.484 M
8.447 15.453 L
-0.631 15.453 L
-0.506 17.5 0.596 18.57 QT
1.697 19.641 3.666 19.641 QT
4.807 19.641 5.869 19.359 QT
6.932 19.078 7.994 18.516 QT
7.994 20.391 L
6.932 20.844 5.814 21.078 QT
4.697 21.313 3.541 21.313 QT
0.666 21.313 -1.014 19.633 QT
-2.693 17.953 -2.693 15.109 QT
-2.693 12.141 -1.1 10.406 QT
0.494 8.672 3.197 8.672 QT
5.635 8.672 7.041 10.234 QT
8.447 11.797 8.447 14.484 QT
cp
6.479 13.906 M
6.447 12.281 5.564 11.32 QT
4.682 10.359 3.229 10.359 QT
1.572 10.359 0.572 11.289 QT
-0.428 12.219 -0.568 13.922 QT
6.479 13.906 L
cp
13.607 19.188 M
13.607 25.578 L
11.623 25.578 L
11.623 8.969 L
13.607 8.969 L
13.607 10.797 L
14.232 9.719 15.186 9.195 QT
16.139 8.672 17.451 8.672 QT
19.639 8.672 21.014 10.414 QT
22.389 12.156 22.389 15 QT
22.389 17.828 21.014 19.57 QT
19.639 21.313 17.451 21.313 QT
16.139 21.313 15.186 20.789 QT
14.232 20.266 13.607 19.188 QT
cp
20.326 15 M
20.326 12.813 19.436 11.57 QT
18.545 10.328 16.967 10.328 QT
15.404 10.328 14.506 11.57 QT
13.607 12.813 13.607 15 QT
13.607 17.172 14.506 18.414 QT
15.404 19.656 16.967 19.656 QT
18.545 19.656 19.436 18.414 QT
20.326 17.172 20.326 15 QT
cp
f
GR
GS
[1 0 0 1 852 345] CT
0.149 GC
N
2.938 -0.578 M
2.938 -0.734 3.031 -0.859 QT
7.203 -5 L
3.031 -9.156 L
2.938 -9.266 2.938 -9.422 QT
2.938 -9.578 3.055 -9.703 QT
3.172 -9.828 3.344 -9.828 QT
3.484 -9.828 3.641 -9.703 QT
7.781 -5.563 L
11.906 -9.703 L
12.078 -9.828 12.203 -9.828 QT
12.359 -9.828 12.477 -9.711 QT
12.594 -9.594 12.594 -9.422 QT
12.594 -9.266 12.5 -9.156 QT
8.344 -5 L
12.5 -0.859 L
12.594 -0.734 12.594 -0.578 QT
12.594 -0.406 12.477 -0.289 QT
12.359 -0.172 12.203 -0.172 QT
12.047 -0.172 11.906 -0.328 QT
7.781 -4.438 L
3.641 -0.328 L
3.5 -0.172 3.344 -0.172 QT
3.172 -0.172 3.055 -0.305 QT
2.938 -0.438 2.938 -0.578 QT
cp
f
GR
GS
[1 0 0 1 868 345] CT
0.149 GC
N
2.484 -1.656 M
5.703 -1.656 L
5.703 -12.781 L
2.203 -12.078 L
2.203 -13.875 L
5.688 -14.578 L
7.656 -14.578 L
7.656 -1.656 L
10.875 -1.656 L
10.875 0 L
2.484 0 L
2.484 -1.656 L
cp
19.084 -13.281 M
17.553 -13.281 16.787 -11.781 QT
16.021 -10.281 16.021 -7.281 QT
16.021 -4.281 16.787 -2.781 QT
17.553 -1.281 19.084 -1.281 QT
20.615 -1.281 21.381 -2.781 QT
22.146 -4.281 22.146 -7.281 QT
22.146 -10.281 21.381 -11.781 QT
20.615 -13.281 19.084 -13.281 QT
cp
19.084 -14.844 M
21.537 -14.844 22.826 -12.906 QT
24.115 -10.969 24.115 -7.281 QT
24.115 -3.594 22.826 -1.656 QT
21.537 0.281 19.084 0.281 QT
16.631 0.281 15.334 -1.656 QT
14.037 -3.594 14.037 -7.281 QT
14.037 -10.969 15.334 -12.906 QT
16.631 -14.844 19.084 -14.844 QT
cp
f
GR
GS
[1 0 0 1 894 335] CT
0.149 GC
N
5.281 -6.469 M
4.219 -6.469 3.602 -5.742 QT
2.984 -5.016 2.984 -3.75 QT
2.984 -2.484 3.602 -1.758 QT
4.219 -1.031 5.281 -1.031 QT
6.344 -1.031 6.969 -1.758 QT
7.594 -2.484 7.594 -3.75 QT
7.594 -5.016 6.969 -5.742 QT
6.344 -6.469 5.281 -6.469 QT
cp
8.422 -11.406 M
8.422 -9.969 L
7.828 -10.25 7.219 -10.398 QT
6.609 -10.547 6.016 -10.547 QT
4.453 -10.547 3.633 -9.492 QT
2.813 -8.438 2.688 -6.313 QT
3.156 -6.984 3.852 -7.352 QT
4.547 -7.719 5.375 -7.719 QT
7.141 -7.719 8.156 -6.648 QT
9.172 -5.578 9.172 -3.75 QT
9.172 -1.953 8.109 -0.859 QT
7.047 0.234 5.281 0.234 QT
3.266 0.234 2.195 -1.32 QT
1.125 -2.875 1.125 -5.828 QT
1.125 -8.594 2.438 -10.234 QT
3.75 -11.875 5.953 -11.875 QT
6.547 -11.875 7.156 -11.758 QT
7.766 -11.641 8.422 -11.406 QT
cp
f
GR
GS
0.149 GC
2 setlinecap
1 LJ
0.5 LW
N
130 289 M
130 26 L
S
GR
GS
0.149 GC
2 setlinecap
1 LJ
0.5 LW
N
130 289 M
137.75 289 L
S
GR
GS
0.149 GC
2 setlinecap
1 LJ
0.5 LW
N
130 238.905 M
137.75 238.905 L
S
GR
GS
0.149 GC
2 setlinecap
1 LJ
0.5 LW
N
130 188.81 M
137.75 188.81 L
S
GR
GS
0.149 GC
2 setlinecap
1 LJ
0.5 LW
N
130 138.714 M
137.75 138.714 L
S
GR
GS
0.149 GC
2 setlinecap
1 LJ
0.5 LW
N
130 88.619 M
137.75 88.619 L
S
GR
GS
0.149 GC
2 setlinecap
1 LJ
0.5 LW
N
130 38.524 M
137.75 38.524 L
S
GR
GS
[1 0 0 1 124 289] CT
0.149 GC
N
-6.641 -6.281 M
-8.172 -6.281 -8.938 -4.781 QT
-9.703 -3.281 -9.703 -0.281 QT
-9.703 2.719 -8.938 4.219 QT
-8.172 5.719 -6.641 5.719 QT
-5.109 5.719 -4.344 4.219 QT
-3.578 2.719 -3.578 -0.281 QT
-3.578 -3.281 -4.344 -4.781 QT
-5.109 -6.281 -6.641 -6.281 QT
cp
-6.641 -7.844 M
-4.188 -7.844 -2.898 -5.906 QT
-1.609 -3.969 -1.609 -0.281 QT
-1.609 3.406 -2.898 5.344 QT
-4.188 7.281 -6.641 7.281 QT
-9.094 7.281 -10.391 5.344 QT
-11.688 3.406 -11.688 -0.281 QT
-11.688 -3.969 -10.391 -5.906 QT
-9.094 -7.844 -6.641 -7.844 QT
cp
f
GR
GS
[1 0 0 1 124 238.90475] CT
0.149 GC
N
-22.156 5.344 M
-15.281 5.344 L
-15.281 7 L
-24.531 7 L
-24.531 5.344 L
-23.406 4.172 -21.469 2.219 QT
-19.531 0.266 -19.031 -0.313 QT
-18.094 -1.375 -17.719 -2.109 QT
-17.344 -2.844 -17.344 -3.563 QT
-17.344 -4.719 -18.156 -5.453 QT
-18.969 -6.188 -20.281 -6.188 QT
-21.203 -6.188 -22.234 -5.867 QT
-23.266 -5.547 -24.438 -4.891 QT
-24.438 -6.875 L
-23.25 -7.359 -22.211 -7.602 QT
-21.172 -7.844 -20.313 -7.844 QT
-18.047 -7.844 -16.703 -6.711 QT
-15.359 -5.578 -15.359 -3.688 QT
-15.359 -2.781 -15.695 -1.977 QT
-16.031 -1.172 -16.922 -0.078 QT
-17.156 0.203 -18.469 1.555 QT
-19.781 2.906 -22.156 5.344 QT
cp
-6.916 -6.281 M
-8.447 -6.281 -9.213 -4.781 QT
-9.979 -3.281 -9.979 -0.281 QT
-9.979 2.719 -9.213 4.219 QT
-8.447 5.719 -6.916 5.719 QT
-5.385 5.719 -4.619 4.219 QT
-3.854 2.719 -3.854 -0.281 QT
-3.854 -3.281 -4.619 -4.781 QT
-5.385 -6.281 -6.916 -6.281 QT
cp
-6.916 -7.844 M
-4.463 -7.844 -3.174 -5.906 QT
-1.885 -3.969 -1.885 -0.281 QT
-1.885 3.406 -3.174 5.344 QT
-4.463 7.281 -6.916 7.281 QT
-9.369 7.281 -10.666 5.344 QT
-11.963 3.406 -11.963 -0.281 QT
-11.963 -3.969 -10.666 -5.906 QT
-9.369 -7.844 -6.916 -7.844 QT
cp
f
GR
GS
[1 0 0 1 124 188.80952] CT
0.149 GC
N
-18.438 -5.859 M
-23.422 1.922 L
-18.438 1.922 L
-18.438 -5.859 L
cp
-18.953 -7.578 M
-16.484 -7.578 L
-16.484 1.922 L
-14.391 1.922 L
-14.391 3.563 L
-16.484 3.563 L
-16.484 7 L
-18.438 7 L
-18.438 3.563 L
-25.016 3.563 L
-25.016 1.656 L
-18.953 -7.578 L
cp
-6.916 -6.281 M
-8.447 -6.281 -9.213 -4.781 QT
-9.979 -3.281 -9.979 -0.281 QT
-9.979 2.719 -9.213 4.219 QT
-8.447 5.719 -6.916 5.719 QT
-5.385 5.719 -4.619 4.219 QT
-3.854 2.719 -3.854 -0.281 QT
-3.854 -3.281 -4.619 -4.781 QT
-5.385 -6.281 -6.916 -6.281 QT
cp
-6.916 -7.844 M
-4.463 -7.844 -3.174 -5.906 QT
-1.885 -3.969 -1.885 -0.281 QT
-1.885 3.406 -3.174 5.344 QT
-4.463 7.281 -6.916 7.281 QT
-9.369 7.281 -10.666 5.344 QT
-11.963 3.406 -11.963 -0.281 QT
-11.963 -3.969 -10.666 -5.906 QT
-9.369 -7.844 -6.916 -7.844 QT
cp
f
GR
GS
[1 0 0 1 124 138.71428] CT
0.149 GC
N
-19.391 -1.078 M
-20.719 -1.078 -21.5 -0.172 QT
-22.281 0.734 -22.281 2.328 QT
-22.281 3.891 -21.5 4.805 QT
-20.719 5.719 -19.391 5.719 QT
-18.063 5.719 -17.289 4.805 QT
-16.516 3.891 -16.516 2.328 QT
-16.516 0.734 -17.289 -0.172 QT
-18.063 -1.078 -19.391 -1.078 QT
cp
-15.484 -7.266 M
-15.484 -5.469 L
-16.219 -5.813 -16.977 -6 QT
-17.734 -6.188 -18.484 -6.188 QT
-20.438 -6.188 -21.469 -4.867 QT
-22.5 -3.547 -22.641 -0.875 QT
-22.063 -1.734 -21.195 -2.188 QT
-20.328 -2.641 -19.281 -2.641 QT
-17.078 -2.641 -15.805 -1.305 QT
-14.531 0.031 -14.531 2.328 QT
-14.531 4.563 -15.859 5.922 QT
-17.188 7.281 -19.391 7.281 QT
-21.922 7.281 -23.266 5.344 QT
-24.609 3.406 -24.609 -0.281 QT
-24.609 -3.734 -22.969 -5.789 QT
-21.328 -7.844 -18.563 -7.844 QT
-17.813 -7.844 -17.055 -7.695 QT
-16.297 -7.547 -15.484 -7.266 QT
cp
-6.916 -6.281 M
-8.447 -6.281 -9.213 -4.781 QT
-9.979 -3.281 -9.979 -0.281 QT
-9.979 2.719 -9.213 4.219 QT
-8.447 5.719 -6.916 5.719 QT
-5.385 5.719 -4.619 4.219 QT
-3.854 2.719 -3.854 -0.281 QT
-3.854 -3.281 -4.619 -4.781 QT
-5.385 -6.281 -6.916 -6.281 QT
cp
-6.916 -7.844 M
-4.463 -7.844 -3.174 -5.906 QT
-1.885 -3.969 -1.885 -0.281 QT
-1.885 3.406 -3.174 5.344 QT
-4.463 7.281 -6.916 7.281 QT
-9.369 7.281 -10.666 5.344 QT
-11.963 3.406 -11.963 -0.281 QT
-11.963 -3.969 -10.666 -5.906 QT
-9.369 -7.844 -6.916 -7.844 QT
cp
f
GR
GS
[1 0 0 1 124 88.61905] CT
0.149 GC
N
-19.641 0.078 M
-21.047 0.078 -21.852 0.828 QT
-22.656 1.578 -22.656 2.891 QT
-22.656 4.219 -21.852 4.969 QT
-21.047 5.719 -19.641 5.719 QT
-18.234 5.719 -17.422 4.961 QT
-16.609 4.203 -16.609 2.891 QT
-16.609 1.578 -17.414 0.828 QT
-18.219 0.078 -19.641 0.078 QT
cp
-21.609 -0.766 M
-22.891 -1.078 -23.594 -1.945 QT
-24.297 -2.813 -24.297 -4.063 QT
-24.297 -5.813 -23.055 -6.828 QT
-21.813 -7.844 -19.641 -7.844 QT
-17.469 -7.844 -16.227 -6.828 QT
-14.984 -5.813 -14.984 -4.063 QT
-14.984 -2.813 -15.695 -1.945 QT
-16.406 -1.078 -17.656 -0.766 QT
-16.234 -0.438 -15.438 0.531 QT
-14.641 1.5 -14.641 2.891 QT
-14.641 5.016 -15.938 6.148 QT
-17.234 7.281 -19.641 7.281 QT
-22.047 7.281 -23.344 6.148 QT
-24.641 5.016 -24.641 2.891 QT
-24.641 1.5 -23.844 0.531 QT
-23.047 -0.438 -21.609 -0.766 QT
cp
-22.344 -3.875 M
-22.344 -2.75 -21.633 -2.117 QT
-20.922 -1.484 -19.641 -1.484 QT
-18.375 -1.484 -17.656 -2.117 QT
-16.938 -2.75 -16.938 -3.875 QT
-16.938 -5.016 -17.656 -5.648 QT
-18.375 -6.281 -19.641 -6.281 QT
-20.922 -6.281 -21.633 -5.648 QT
-22.344 -5.016 -22.344 -3.875 QT
cp
-6.916 -6.281 M
-8.447 -6.281 -9.213 -4.781 QT
-9.979 -3.281 -9.979 -0.281 QT
-9.979 2.719 -9.213 4.219 QT
-8.447 5.719 -6.916 5.719 QT
-5.385 5.719 -4.619 4.219 QT
-3.854 2.719 -3.854 -0.281 QT
-3.854 -3.281 -4.619 -4.781 QT
-5.385 -6.281 -6.916 -6.281 QT
cp
-6.916 -7.844 M
-4.463 -7.844 -3.174 -5.906 QT
-1.885 -3.969 -1.885 -0.281 QT
-1.885 3.406 -3.174 5.344 QT
-4.463 7.281 -6.916 7.281 QT
-9.369 7.281 -10.666 5.344 QT
-11.963 3.406 -11.963 -0.281 QT
-11.963 -3.969 -10.666 -5.906 QT
-9.369 -7.844 -6.916 -7.844 QT
cp
f
GR
GS
[1 0 0 1 124 38.52381] CT
0.149 GC
N
-36.516 5.344 M
-33.297 5.344 L
-33.297 -5.781 L
-36.797 -5.078 L
-36.797 -6.875 L
-33.313 -7.578 L
-31.344 -7.578 L
-31.344 5.344 L
-28.125 5.344 L
-28.125 7 L
-36.516 7 L
-36.516 5.344 L
cp
-19.916 -6.281 M
-21.447 -6.281 -22.213 -4.781 QT
-22.979 -3.281 -22.979 -0.281 QT
-22.979 2.719 -22.213 4.219 QT
-21.447 5.719 -19.916 5.719 QT
-18.385 5.719 -17.619 4.219 QT
-16.854 2.719 -16.854 -0.281 QT
-16.854 -3.281 -17.619 -4.781 QT
-18.385 -6.281 -19.916 -6.281 QT
cp
-19.916 -7.844 M
-17.463 -7.844 -16.174 -5.906 QT
-14.885 -3.969 -14.885 -0.281 QT
-14.885 3.406 -16.174 5.344 QT
-17.463 7.281 -19.916 7.281 QT
-22.369 7.281 -23.666 5.344 QT
-24.963 3.406 -24.963 -0.281 QT
-24.963 -3.969 -23.666 -5.906 QT
-22.369 -7.844 -19.916 -7.844 QT
cp
-7.191 -6.281 M
-8.723 -6.281 -9.488 -4.781 QT
-10.254 -3.281 -10.254 -0.281 QT
-10.254 2.719 -9.488 4.219 QT
-8.723 5.719 -7.191 5.719 QT
-5.66 5.719 -4.895 4.219 QT
-4.129 2.719 -4.129 -0.281 QT
-4.129 -3.281 -4.895 -4.781 QT
-5.66 -6.281 -7.191 -6.281 QT
cp
-7.191 -7.844 M
-4.738 -7.844 -3.449 -5.906 QT
-2.16 -3.969 -2.16 -0.281 QT
-2.16 3.406 -3.449 5.344 QT
-4.738 7.281 -7.191 7.281 QT
-9.645 7.281 -10.941 5.344 QT
-12.238 3.406 -12.238 -0.281 QT
-12.238 -3.969 -10.941 -5.906 QT
-9.645 -7.844 -7.191 -7.844 QT
cp
f
GR
GS
[0 -1 1 0 82 157.49988] CT
0.149 GC
N
-113.063 -22.031 M
-99.5 -22.031 L
-99.5 -20.219 L
-105.188 -20.219 L
-105.188 -6 L
-107.375 -6 L
-107.375 -20.219 L
-113.063 -20.219 L
-113.063 -22.031 L
cp
-92.015 -12.047 M
-94.421 -12.047 -95.343 -11.5 QT
-96.265 -10.953 -96.265 -9.625 QT
-96.265 -8.578 -95.569 -7.961 QT
-94.874 -7.344 -93.687 -7.344 QT
-92.046 -7.344 -91.054 -8.508 QT
-90.062 -9.672 -90.062 -11.609 QT
-90.062 -12.047 L
-92.015 -12.047 L
cp
-88.077 -12.859 M
-88.077 -6 L
-90.062 -6 L
-90.062 -7.828 L
-90.733 -6.734 -91.741 -6.211 QT
-92.749 -5.688 -94.218 -5.688 QT
-96.062 -5.688 -97.147 -6.727 QT
-98.233 -7.766 -98.233 -9.5 QT
-98.233 -11.531 -96.874 -12.563 QT
-95.515 -13.594 -92.827 -13.594 QT
-90.062 -13.594 L
-90.062 -13.781 L
-90.062 -15.156 -90.952 -15.898 QT
-91.843 -16.641 -93.468 -16.641 QT
-94.499 -16.641 -95.476 -16.398 QT
-96.452 -16.156 -97.358 -15.656 QT
-97.358 -17.484 L
-96.28 -17.906 -95.257 -18.117 QT
-94.233 -18.328 -93.265 -18.328 QT
-90.655 -18.328 -89.366 -16.969 QT
-88.077 -15.609 -88.077 -12.859 QT
cp
-77.033 -16.188 M
-77.361 -16.375 -77.76 -16.469 QT
-78.158 -16.563 -78.627 -16.563 QT
-80.299 -16.563 -81.197 -15.469 QT
-82.096 -14.375 -82.096 -12.344 QT
-82.096 -6 L
-84.08 -6 L
-84.08 -18.031 L
-82.096 -18.031 L
-82.096 -16.156 L
-81.471 -17.266 -80.471 -17.797 QT
-79.471 -18.328 -78.049 -18.328 QT
-77.846 -18.328 -77.596 -18.297 QT
-77.346 -18.266 -77.049 -18.219 QT
-77.033 -16.188 L
cp
-67.051 -12.156 M
-67.051 -14.297 -67.934 -15.484 QT
-68.816 -16.672 -70.41 -16.672 QT
-72.004 -16.672 -72.895 -15.484 QT
-73.785 -14.297 -73.785 -12.156 QT
-73.785 -10.016 -72.895 -8.836 QT
-72.004 -7.656 -70.41 -7.656 QT
-68.816 -7.656 -67.934 -8.836 QT
-67.051 -10.016 -67.051 -12.156 QT
cp
-65.066 -7.5 M
-65.066 -4.422 -66.434 -2.922 QT
-67.801 -1.422 -70.613 -1.422 QT
-71.66 -1.422 -72.582 -1.578 QT
-73.504 -1.734 -74.363 -2.063 QT
-74.363 -3.984 L
-73.504 -3.5 -72.652 -3.281 QT
-71.801 -3.063 -70.926 -3.063 QT
-68.973 -3.063 -68.012 -4.078 QT
-67.051 -5.094 -67.051 -7.141 QT
-67.051 -8.109 L
-67.66 -7.047 -68.613 -6.523 QT
-69.566 -6 -70.895 -6 QT
-73.113 -6 -74.465 -7.688 QT
-75.816 -9.375 -75.816 -12.156 QT
-75.816 -14.953 -74.465 -16.641 QT
-73.113 -18.328 -70.895 -18.328 QT
-69.566 -18.328 -68.613 -17.797 QT
-67.66 -17.266 -67.051 -16.203 QT
-67.051 -18.031 L
-65.066 -18.031 L
-65.066 -7.5 L
cp
-50.711 -12.516 M
-50.711 -11.547 L
-59.789 -11.547 L
-59.664 -9.5 -58.563 -8.43 QT
-57.461 -7.359 -55.492 -7.359 QT
-54.352 -7.359 -53.289 -7.641 QT
-52.227 -7.922 -51.164 -8.484 QT
-51.164 -6.609 L
-52.227 -6.156 -53.344 -5.922 QT
-54.461 -5.688 -55.617 -5.688 QT
-58.492 -5.688 -60.172 -7.367 QT
-61.852 -9.047 -61.852 -11.891 QT
-61.852 -14.859 -60.258 -16.594 QT
-58.664 -18.328 -55.961 -18.328 QT
-53.523 -18.328 -52.117 -16.766 QT
-50.711 -15.203 -50.711 -12.516 QT
cp
-52.68 -13.094 M
-52.711 -14.719 -53.594 -15.68 QT
-54.477 -16.641 -55.93 -16.641 QT
-57.586 -16.641 -58.586 -15.711 QT
-59.586 -14.781 -59.727 -13.078 QT
-52.68 -13.094 L
cp
-45.504 -21.453 M
-45.504 -18.031 L
-41.441 -18.031 L
-41.441 -16.5 L
-45.504 -16.5 L
-45.504 -9.969 L
-45.504 -8.5 -45.105 -8.078 QT
-44.707 -7.656 -43.473 -7.656 QT
-41.441 -7.656 L
-41.441 -6 L
-43.473 -6 L
-45.754 -6 -46.621 -6.852 QT
-47.488 -7.703 -47.488 -9.969 QT
-47.488 -16.5 L
-48.941 -16.5 L
-48.941 -18.031 L
-47.488 -18.031 L
-47.488 -21.453 L
-45.504 -21.453 L
cp
-31.159 -17.672 M
-31.159 -15.813 L
-32.003 -16.234 -32.909 -16.453 QT
-33.815 -16.672 -34.769 -16.672 QT
-36.253 -16.672 -36.987 -16.219 QT
-37.722 -15.766 -37.722 -14.859 QT
-37.722 -14.172 -37.19 -13.781 QT
-36.659 -13.391 -35.081 -13.031 QT
-34.394 -12.891 L
-32.3 -12.438 -31.409 -11.617 QT
-30.519 -10.797 -30.519 -9.313 QT
-30.519 -7.641 -31.847 -6.664 QT
-33.175 -5.688 -35.487 -5.688 QT
-36.456 -5.688 -37.503 -5.875 QT
-38.55 -6.063 -39.722 -6.438 QT
-39.722 -8.484 L
-38.628 -7.906 -37.558 -7.625 QT
-36.487 -7.344 -35.456 -7.344 QT
-34.05 -7.344 -33.3 -7.82 QT
-32.55 -8.297 -32.55 -9.172 QT
-32.55 -9.969 -33.097 -10.398 QT
-33.644 -10.828 -35.472 -11.234 QT
-36.159 -11.391 L
-38.003 -11.781 -38.815 -12.578 QT
-39.628 -13.375 -39.628 -14.781 QT
-39.628 -16.469 -38.425 -17.398 QT
-37.222 -18.328 -35.019 -18.328 QT
-33.909 -18.328 -32.948 -18.164 QT
-31.987 -18 -31.159 -17.672 QT
cp
-13.407 -16.188 M
-13.735 -16.375 -14.134 -16.469 QT
-14.532 -16.563 -15.001 -16.563 QT
-16.673 -16.563 -17.571 -15.469 QT
-18.47 -14.375 -18.47 -12.344 QT
-18.47 -6 L
-20.454 -6 L
-20.454 -18.031 L
-18.47 -18.031 L
-18.47 -16.156 L
-17.845 -17.266 -16.845 -17.797 QT
-15.845 -18.328 -14.423 -18.328 QT
-14.22 -18.328 -13.97 -18.297 QT
-13.72 -18.266 -13.423 -18.219 QT
-13.407 -16.188 L
cp
-1.05 -12.516 M
-1.05 -11.547 L
-10.128 -11.547 L
-10.003 -9.5 -8.901 -8.43 QT
-7.8 -7.359 -5.831 -7.359 QT
-4.69 -7.359 -3.628 -7.641 QT
-2.565 -7.922 -1.503 -8.484 QT
-1.503 -6.609 L
-2.565 -6.156 -3.683 -5.922 QT
-4.8 -5.688 -5.956 -5.688 QT
-8.831 -5.688 -10.511 -7.367 QT
-12.19 -9.047 -12.19 -11.891 QT
-12.19 -14.859 -10.597 -16.594 QT
-9.003 -18.328 -6.3 -18.328 QT
-3.862 -18.328 -2.456 -16.766 QT
-1.05 -15.203 -1.05 -12.516 QT
cp
-3.019 -13.094 M
-3.05 -14.719 -3.933 -15.68 QT
-4.815 -16.641 -6.269 -16.641 QT
-7.925 -16.641 -8.925 -15.711 QT
-9.925 -14.781 -10.065 -13.078 QT
-3.019 -13.094 L
cp
7.673 -12.047 M
5.267 -12.047 4.345 -11.5 QT
3.423 -10.953 3.423 -9.625 QT
3.423 -8.578 4.118 -7.961 QT
4.813 -7.344 6.001 -7.344 QT
7.642 -7.344 8.634 -8.508 QT
9.626 -9.672 9.626 -11.609 QT
9.626 -12.047 L
7.673 -12.047 L
cp
11.61 -12.859 M
11.61 -6 L
9.626 -6 L
9.626 -7.828 L
8.954 -6.734 7.946 -6.211 QT
6.938 -5.688 5.47 -5.688 QT
3.626 -5.688 2.54 -6.727 QT
1.454 -7.766 1.454 -9.5 QT
1.454 -11.531 2.813 -12.563 QT
4.173 -13.594 6.86 -13.594 QT
9.626 -13.594 L
9.626 -13.781 L
9.626 -15.156 8.735 -15.898 QT
7.845 -16.641 6.22 -16.641 QT
5.188 -16.641 4.212 -16.398 QT
3.235 -16.156 2.329 -15.656 QT
2.329 -17.484 L
3.407 -17.906 4.431 -18.117 QT
5.454 -18.328 6.423 -18.328 QT
9.032 -18.328 10.321 -16.969 QT
11.61 -15.609 11.61 -12.859 QT
cp
24.342 -17.563 M
24.342 -15.719 L
23.498 -16.188 22.654 -16.414 QT
21.811 -16.641 20.951 -16.641 QT
19.029 -16.641 17.967 -15.422 QT
16.904 -14.203 16.904 -12 QT
16.904 -9.797 17.967 -8.578 QT
19.029 -7.359 20.951 -7.359 QT
21.811 -7.359 22.654 -7.594 QT
23.498 -7.828 24.342 -8.281 QT
24.342 -6.469 L
23.514 -6.078 22.623 -5.883 QT
21.732 -5.688 20.748 -5.688 QT
18.029 -5.688 16.428 -7.398 QT
14.826 -9.109 14.826 -12 QT
14.826 -14.953 16.443 -16.641 QT
18.061 -18.328 20.873 -18.328 QT
21.779 -18.328 22.654 -18.141 QT
23.529 -17.953 24.342 -17.563 QT
cp
37.781 -13.266 M
37.781 -6 L
35.797 -6 L
35.797 -13.203 L
35.797 -14.906 35.133 -15.758 QT
34.469 -16.609 33.141 -16.609 QT
31.531 -16.609 30.609 -15.586 QT
29.688 -14.563 29.688 -12.797 QT
29.688 -6 L
27.703 -6 L
27.703 -22.719 L
29.688 -22.719 L
29.688 -16.156 L
30.391 -17.25 31.359 -17.789 QT
32.328 -18.328 33.578 -18.328 QT
35.656 -18.328 36.719 -17.039 QT
37.781 -15.75 37.781 -13.266 QT
cp
52.006 -12.516 M
52.006 -11.547 L
42.928 -11.547 L
43.053 -9.5 44.154 -8.43 QT
45.256 -7.359 47.225 -7.359 QT
48.365 -7.359 49.428 -7.641 QT
50.49 -7.922 51.553 -8.484 QT
51.553 -6.609 L
50.49 -6.156 49.373 -5.922 QT
48.256 -5.688 47.1 -5.688 QT
44.225 -5.688 42.545 -7.367 QT
40.865 -9.047 40.865 -11.891 QT
40.865 -14.859 42.459 -16.594 QT
44.053 -18.328 46.756 -18.328 QT
49.193 -18.328 50.6 -16.766 QT
52.006 -15.203 52.006 -12.516 QT
cp
50.037 -13.094 M
50.006 -14.719 49.123 -15.68 QT
48.24 -16.641 46.787 -16.641 QT
45.131 -16.641 44.131 -15.711 QT
43.131 -14.781 42.99 -13.078 QT
50.037 -13.094 L
cp
63.166 -16.203 M
63.166 -22.719 L
65.15 -22.719 L
65.15 -6 L
63.166 -6 L
63.166 -7.813 L
62.557 -6.734 61.604 -6.211 QT
60.65 -5.688 59.322 -5.688 QT
57.135 -5.688 55.768 -7.43 QT
54.4 -9.172 54.4 -12 QT
54.4 -14.844 55.768 -16.586 QT
57.135 -18.328 59.322 -18.328 QT
60.65 -18.328 61.604 -17.805 QT
62.557 -17.281 63.166 -16.203 QT
cp
56.432 -12 M
56.432 -9.828 57.33 -8.586 QT
58.229 -7.344 59.807 -7.344 QT
61.369 -7.344 62.268 -8.586 QT
63.166 -9.828 63.166 -12 QT
63.166 -14.188 62.268 -15.43 QT
61.369 -16.672 59.807 -16.672 QT
58.229 -16.672 57.33 -15.43 QT
56.432 -14.188 56.432 -12 QT
cp
76.03 -22.719 M
80.593 -22.719 L
80.593 -21.172 L
78.015 -21.172 L
78.015 -4.641 L
80.593 -4.641 L
80.593 -3.094 L
76.03 -3.094 L
76.03 -22.719 L
cp
98.723 -13.063 M
97.785 -13.063 97.254 -12.266 QT
96.723 -11.469 96.723 -10.047 QT
96.723 -8.656 97.254 -7.852 QT
97.785 -7.047 98.723 -7.047 QT
99.629 -7.047 100.16 -7.852 QT
100.691 -8.656 100.691 -10.047 QT
100.691 -11.453 100.16 -12.258 QT
99.629 -13.063 98.723 -13.063 QT
cp
98.723 -14.422 M
100.41 -14.422 101.41 -13.242 QT
102.41 -12.063 102.41 -10.047 QT
102.41 -8.047 101.41 -6.867 QT
100.41 -5.688 98.723 -5.688 QT
97.004 -5.688 96.004 -6.867 QT
95.004 -8.047 95.004 -10.047 QT
95.004 -12.063 96.004 -13.242 QT
97.004 -14.422 98.723 -14.422 QT
cp
87.629 -20.969 M
86.707 -20.969 86.176 -20.164 QT
85.645 -19.359 85.645 -17.969 QT
85.645 -16.547 86.168 -15.75 QT
86.691 -14.953 87.629 -14.953 QT
88.566 -14.953 89.098 -15.75 QT
89.629 -16.547 89.629 -17.969 QT
89.629 -19.359 89.09 -20.164 QT
88.551 -20.969 87.629 -20.969 QT
cp
97.332 -22.328 M
99.051 -22.328 L
89.02 -5.688 L
87.301 -5.688 L
97.332 -22.328 L
cp
87.629 -22.328 M
89.332 -22.328 90.34 -21.148 QT
91.348 -19.969 91.348 -17.969 QT
91.348 -15.938 90.348 -14.766 QT
89.348 -13.594 87.629 -13.594 QT
85.926 -13.594 84.934 -14.773 QT
83.941 -15.953 83.941 -17.969 QT
83.941 -19.969 84.941 -21.148 QT
85.941 -22.328 87.629 -22.328 QT
cp
110.314 -22.719 M
110.314 -3.094 L
105.768 -3.094 L
105.768 -4.641 L
108.33 -4.641 L
108.33 -21.172 L
105.768 -21.172 L
105.768 -22.719 L
110.314 -22.719 L
cp
f
GR
GS
0 0.447 0.741 RC
1 LJ
0.5 LW
N
169.525 175.147 M
169.913 200.597 L
170.3 108.657 L
170.688 134.861 L
171.075 103.462 L
171.462 143.987 L
171.85 122.016 L
172.238 125.646 L
172.625 133.943 L
173.012 153.325 L
173.4 101.143 L
173.788 151.238 L
174.175 157.798 L
174.563 169.726 L
174.95 125.646 L
175.337 97.459 L
175.725 191.593 L
176.113 134.861 L
176.5 124.895 L
176.887 118.676 L
177.275 107.621 L
177.663 85.488 L
178.05 119.034 L
178.438 110.088 L
178.825 101.143 L
179.212 83.252 L
179.6 80.27 L
179.988 69.833 L
180.375 126.19 L
180.762 101.143 L
181.15 119.034 L
181.538 77.661 L
181.925 91.655 L
182.313 116.258 L
182.7 58.833 L
183.087 53.859 L
183.475 84.908 L
183.863 62.379 L
184.25 75.179 L
184.637 68.342 L
185.025 61.294 L
185.413 58.971 L
185.8 73.312 L
186.188 54.512 L
186.575 47.976 L
186.962 42.997 L
187.35 54.859 L
187.738 48.158 L
188.125 54.948 L
188.512 42.5 L
188.9 47.161 L
189.288 48.543 L
189.675 47.632 L
190.063 42.997 L
190.45 54.859 L
190.837 43.162 L
191.225 42.769 L
191.613 48.543 L
192 54.859 L
192.387 38.524 L
192.775 44.633 L
193.163 45.481 L
193.55 52.837 L
193.938 47.161 L
194.325 55.222 L
194.712 53.704 L
195.1 88.619 L
195.488 66.355 L
195.875 63.571 L
196.262 52.439 L
196.65 52.063 L
197.038 47.801 L
197.425 55.798 L
197.813 84.065 L
198.2 98.638 L
198.587 54.179 L
198.975 62.763 L
199.363 74.306 L
199.75 54.179 L
200.137 60.625 L
200.525 68.581 L
200.913 78.6 L
201.3 96.326 L
201.688 75.631 L
202.075 69.833 L
202.462 55.798 L
202.85 84.908 L
203.238 110.088 L
203.625 88.619 L
204.012 84.908 L
204.4 103.865 L
204.788 54.684 L
205.175 52.063 L
205.563 88.619 L
205.95 71.921 L
206.337 45.481 L
206.725 66.355 L
207.113 54.684 L
207.5 54.179 L
207.887 110.088 L
208.275 45.891 L
208.663 67.425 L
209.05 86.692 L
209.438 70.843 L
209.825 71.921 L
210.212 48.158 L
210.6 65.361 L
210.988 45.68 L
211.375 52.439 L
211.762 96.326 L
212.15 45.891 L
212.538 84.908 L
212.925 56.415 L
213.313 57.791 L
213.7 55.222 L
214.087 103.462 L
214.475 90.346 L
214.863 60.625 L
215.25 78.6 L
215.637 57.078 L
216.025 48.158 L
216.413 94.185 L
216.8 64.435 L
217.188 74.306 L
217.575 70.843 L
217.962 53.704 L
218.35 67.15 L
218.738 66.355 L
219.125 77.059 L
219.512 101.143 L
219.9 95.45 L
220.288 101.143 L
220.675 105.96 L
221.063 111.579 L
221.45 138.714 L
221.837 62.763 L
222.225 47.801 L
222.613 73.072 L
223 74.306 L
223.387 66.355 L
223.775 74.306 L
224.163 95.45 L
224.55 67.425 L
224.938 88.619 L
225.325 56.415 L
225.712 55.798 L
226.1 88.619 L
226.488 83.252 L
226.875 101.143 L
227.262 105.96 L
227.65 64.435 L
228.038 143.987 L
228.425 95.45 L
228.813 63.571 L
229.2 46.351 L
229.587 68.581 L
229.975 98.161 L
230.363 70.843 L
230.75 94.185 L
231.137 81.709 L
231.525 88.619 L
231.913 52.063 L
232.3 92.975 L
232.688 133.943 L
233.075 90.706 L
233.462 47.161 L
233.85 70.843 L
234.238 92.197 L
234.625 90.706 L
235.012 84.065 L
235.4 47.801 L
235.788 71.921 L
236.175 98.638 L
236.563 71.921 L
236.95 88.619 L
237.337 61.294 L
237.725 45.481 L
238.113 64.435 L
238.5 60.304 L
238.887 73.072 L
239.275 68.581 L
239.663 77.059 L
240.05 122.016 L
240.438 138.714 L
240.825 84.065 L
241.212 108.657 L
241.6 122.016 L
241.988 80.27 L
242.375 84.065 L
242.762 73.072 L
243.15 92.975 L
243.538 106.836 L
243.925 95.45 L
244.313 80.27 L
244.7 77.059 L
245.087 90.706 L
245.475 71.195 L
245.863 58.562 L
246.25 157.798 L
246.637 103.865 L
247.025 143.987 L
247.413 96.326 L
247.8 96.326 L
248.188 132.452 L
248.575 122.016 L
248.962 129.606 L
249.35 77.059 L
249.738 98.638 L
250.125 179.417 L
250.512 163.762 L
250.9 95.45 L
251.288 126.19 L
251.675 129.606 L
252.063 118.676 L
252.45 84.065 L
252.837 143.987 L
253.225 106.836 L
253.613 106.836 L
254 140.991 L
254.387 101.143 L
254.775 122.016 L
255.163 110.088 L
255.55 65.361 L
255.938 115.593 L
256.325 103.865 L
256.712 57.791 L
257.1 86.692 L
257.487 133.943 L
257.875 117.622 L
258.263 94.185 L
258.65 122.016 L
259.038 110.088 L
259.425 88.619 L
259.813 65.361 L
260.2 126.19 L
260.587 106.836 L
260.975 110.088 L
261.362 106.836 L
261.75 98.638 L
262.138 171.129 L
262.525 133.943 L
262.913 156.395 L
263.3 105.96 L
263.688 125.646 L
264.075 130.805 L
264.462 143.987 L
264.85 90.706 L
265.237 149.847 L
265.625 135.931 L
266.013 114.756 L
266.4 84.065 L
266.788 170.353 L
267.175 122.016 L
267.563 111.579 L
267.95 195.071 L
268.337 98.638 L
268.725 222.206 L
269.112 133.943 L
269.5 126.19 L
269.888 92.975 L
270.275 122.016 L
270.663 111.579 L
271.05 98.161 L
271.438 101.143 L
271.825 163.762 L
272.212 126.19 L
272.6 130.805 L
272.987 205.508 L
273.375 122.016 L
273.763 157.17 L
274.15 118.676 L
274.538 90.706 L
274.925 129.606 L
275.313 177.677 L
275.7 72.68 L
276.087 129.606 L
276.475 96.326 L
276.862 205.508 L
277.25 135.931 L
277.638 185.863 L
278.025 188.81 L
278.413 163.762 L
278.8 151.238 L
279.188 143.987 L
279.575 129.606 L
279.962 163.762 L
280.35 157.17 L
280.737 133.943 L
281.125 188.81 L
281.513 143.987 L
281.9 108.657 L
282.288 191.593 L
282.675 133.943 L
283.063 222.206 L
283.45 177.677 L
283.837 138.714 L
284.225 145.871 L
284.612 149.847 L
285 145.871 L
285.388 126.19 L
285.775 191.593 L
286.163 145.871 L
286.55 210.726 L
286.938 130.805 L
287.325 117.622 L
287.712 140.991 L
288.1 126.19 L
288.487 170.353 L
288.875 230.064 L
289.263 235.327 L
289.65 195.071 L
290.038 183.536 L
290.425 188.81 L
290.813 183.536 L
291.2 135.931 L
291.587 163.762 L
291.975 95.45 L
292.362 135.931 L
292.75 143.987 L
293.138 222.206 L
293.525 156.395 L
293.913 126.19 L
294.3 141.661 L
294.688 205.508 L
295.075 163.762 L
295.462 171.129 L
295.85 179.417 L
296.237 171.129 L
296.625 230.064 L
297.013 179.417 L
297.4 191.593 L
297.788 171.129 L
298.175 200.597 L
298.563 210.726 L
298.95 205.508 L
299.337 122.016 L
299.725 126.19 L
300.112 156.395 L
300.5 126.19 L
300.888 170.353 L
301.275 195.071 L
301.663 163.762 L
302.05 163.762 L
302.438 179.417 L
302.825 157.17 L
303.212 171.129 L
303.6 163.762 L
303.987 157.17 L
304.375 170.353 L
304.763 183.536 L
305.15 185.863 L
305.538 170.353 L
305.925 253.218 L
306.313 171.129 L
306.7 238.905 L
307.087 200.597 L
307.475 195.071 L
307.862 185.863 L
308.25 226.381 L
308.638 222.206 L
309.025 157.17 L
309.413 238.905 L
309.8 188.81 L
310.188 222.206 L
310.575 217.435 L
310.962 226.381 L
311.35 122.016 L
311.737 238.905 L
312.125 170.353 L
312.513 163.762 L
312.9 163.762 L
313.288 179.417 L
313.675 191.593 L
314.063 163.762 L
314.45 163.762 L
314.837 177.677 L
315.225 177.677 L
315.612 163.762 L
316 163.762 L
316.388 171.129 L
316.775 179.417 L
317.163 210.726 L
317.55 215.331 L
317.938 179.417 L
318.325 133.943 L
318.712 185.863 L
319.1 163.762 L
319.487 210.726 L
319.875 177.677 L
320.263 191.593 L
320.65 242.036 L
321.038 205.508 L
321.425 210.726 L
321.813 215.331 L
322.2 205.508 L
322.587 222.206 L
322.975 163.762 L
323.362 271.109 L
323.75 200.597 L
324.138 185.863 L
324.525 222.206 L
324.913 222.206 L
325.3 238.905 L
325.688 210.726 L
326.075 226.381 L
326.462 222.206 L
326.85 255.603 L
327.237 200.597 L
327.625 226.381 L
328.013 195.071 L
328.4 185.863 L
328.788 222.206 L
329.175 226.381 L
329.563 179.417 L
329.95 222.206 L
330.337 210.726 L
330.725 222.206 L
331.112 226.381 L
331.5 238.905 L
331.888 269.733 L
332.275 255.603 L
332.663 210.726 L
333.05 271.109 L
333.438 188.81 L
333.825 238.905 L
334.212 255.603 L
334.6 253.218 L
334.987 200.597 L
335.375 238.905 L
335.763 242.036 L
336.15 230.064 L
336.538 253.218 L
336.925 200.597 L
337.313 271.109 L
337.7 253.218 L
338.087 222.206 L
338.475 238.905 L
338.862 253.218 L
339.25 238.905 L
339.638 179.417 L
340.025 271.109 L
340.413 242.036 L
340.8 289 L
341.188 185.863 L
341.575 226.381 L
341.962 226.381 L
342.35 222.206 L
342.737 271.109 L
343.125 238.905 L
343.513 242.036 L
343.9 215.331 L
344.288 255.603 L
344.675 238.905 L
345.063 195.071 L
345.45 235.327 L
345.837 238.905 L
346.225 215.331 L
346.612 226.381 L
347 253.218 L
347.388 271.109 L
347.775 271.109 L
348.163 226.381 L
348.55 200.597 L
348.938 215.331 L
349.325 253.218 L
349.712 200.597 L
350.1 253.218 L
350.487 242.036 L
350.875 200.597 L
351.263 210.726 L
351.65 255.603 L
352.038 271.109 L
352.425 289 L
352.813 215.331 L
353.2 210.726 L
353.587 269.733 L
353.975 255.603 L
354.362 271.109 L
354.75 272.302 L
355.138 222.206 L
355.525 210.726 L
355.913 238.905 L
356.3 255.603 L
356.688 271.109 L
357.075 238.905 L
357.462 205.508 L
357.85 226.381 L
358.237 188.81 L
358.625 177.677 L
359.013 143.987 L
359.4 205.508 L
359.788 271.109 L
360.175 238.905 L
360.563 205.508 L
360.95 185.863 L
361.337 215.331 L
361.725 156.395 L
362.112 156.395 L
362.5 200.597 L
362.888 133.943 L
363.275 156.395 L
363.663 205.508 L
364.05 226.381 L
364.438 269.733 L
364.825 191.593 L
365.212 238.905 L
365.6 269.733 L
365.987 196.719 L
366.375 191.593 L
366.763 238.905 L
367.15 171.129 L
367.538 222.206 L
367.925 185.863 L
368.313 185.863 L
368.7 205.508 L
369.087 238.905 L
369.475 253.218 L
369.862 215.331 L
370.25 222.206 L
370.638 185.863 L
371.025 185.863 L
371.413 104.439 L
371.8 195.071 L
372.188 171.129 L
372.575 176.286 L
372.962 253.218 L
373.35 238.905 L
373.737 185.863 L
374.125 195.071 L
374.513 185.863 L
374.9 242.036 L
375.288 271.109 L
375.675 215.331 L
376.063 195.071 L
376.45 235.327 L
376.837 185.863 L
377.225 226.381 L
377.612 210.726 L
378 170.353 L
378.388 138.714 L
378.775 217.435 L
379.163 271.109 L
379.55 200.597 L
379.938 238.905 L
380.325 271.109 L
380.712 255.603 L
381.1 250.465 L
381.487 271.109 L
381.875 238.905 L
382.263 238.905 L
382.65 238.905 L
383.038 271.109 L
383.425 289 L
383.813 185.863 L
384.2 238.905 L
384.587 138.714 L
384.975 205.508 L
385.362 289 L
385.75 235.327 L
386.138 238.905 L
386.525 255.603 L
386.913 222.206 L
387.3 253.218 L
387.688 271.109 L
388.075 226.381 L
388.462 200.597 L
388.85 185.863 L
389.237 242.036 L
389.625 230.064 L
390.013 271.109 L
390.4 269.733 L
390.788 253.218 L
391.175 215.331 L
391.563 238.905 L
391.95 195.071 L
392.337 238.905 L
392.725 210.726 L
393.112 255.603 L
393.5 271.109 L
393.888 226.381 L
394.275 230.064 L
394.663 289 L
395.05 226.381 L
395.438 255.603 L
395.825 271.109 L
396.212 271.109 L
396.6 235.327 L
396.987 238.905 L
397.375 271.109 L
397.763 253.218 L
398.15 271.109 L
398.538 289 L
398.925 289 L
399.313 253.218 L
399.7 271.109 L
400.087 255.603 L
400.475 253.218 L
400.862 222.206 L
401.25 289 L
401.638 238.905 L
402.025 289 L
402.413 238.905 L
402.8 269.733 L
403.188 255.603 L
403.575 238.905 L
403.962 222.206 L
404.35 255.603 L
404.737 272.302 L
405.125 289 L
405.513 255.603 L
405.9 253.218 L
406.288 289 L
406.675 289 L
407.063 253.218 L
407.45 238.905 L
407.837 289 L
408.225 289 L
408.612 289 L
409 222.206 L
409.388 255.603 L
409.775 289 L
410.163 215.331 L
410.55 255.603 L
410.938 271.109 L
411.325 226.381 L
411.712 255.603 L
412.1 226.381 L
412.487 271.109 L
412.875 235.327 L
413.263 289 L
413.65 271.109 L
414.038 255.603 L
414.425 271.109 L
414.813 289 L
415.2 289 L
415.587 215.331 L
415.975 242.036 L
416.362 271.109 L
416.75 242.036 L
417.138 255.603 L
417.525 269.733 L
417.913 272.302 L
418.3 235.327 L
418.688 210.726 L
419.075 226.381 L
419.462 253.218 L
419.85 253.218 L
420.237 242.036 L
420.625 235.327 L
421.013 242.036 L
421.4 250.465 L
421.788 226.381 L
422.175 238.905 L
422.563 185.863 L
422.95 230.064 L
423.337 271.109 L
423.725 253.218 L
424.112 235.327 L
424.5 238.905 L
424.888 253.218 L
425.275 289 L
425.663 271.109 L
426.05 271.109 L
426.438 253.218 L
426.825 210.726 L
427.212 255.603 L
427.6 238.905 L
427.987 238.905 L
428.375 235.327 L
428.763 271.109 L
429.15 272.302 L
429.538 222.206 L
429.925 269.733 L
430.313 289 L
430.7 226.381 L
431.087 255.603 L
431.475 289 L
431.862 289 L
432.25 271.109 L
432.638 255.603 L
433.025 289 L
433.413 289 L
433.8 255.603 L
434.188 271.109 L
434.575 271.109 L
434.962 271.109 L
435.35 271.109 L
435.737 255.603 L
436.125 289 L
436.513 242.036 L
436.9 289 L
437.288 253.218 L
437.675 271.109 L
438.063 272.302 L
438.45 253.218 L
438.837 271.109 L
439.225 272.302 L
439.612 235.327 L
440 253.218 L
440.388 253.218 L
440.775 238.905 L
441.163 271.109 L
441.55 271.109 L
441.938 271.109 L
442.325 271.109 L
442.712 255.603 L
443.1 269.733 L
443.487 255.603 L
443.875 235.327 L
444.263 238.905 L
444.65 289 L
445.038 226.381 L
445.425 179.417 L
445.813 235.327 L
446.2 200.597 L
446.587 163.762 L
446.975 191.593 L
447.362 210.726 L
447.75 195.071 L
448.138 238.905 L
448.525 289 L
448.913 205.508 L
449.3 238.905 L
449.688 238.905 L
450.075 238.905 L
450.462 235.327 L
450.85 289 L
451.237 289 L
451.625 238.905 L
452.013 271.109 L
452.4 222.206 L
452.788 222.206 L
453.175 171.129 L
453.563 255.603 L
453.95 289 L
454.337 195.071 L
454.725 289 L
455.112 289 L
455.5 255.603 L
455.888 289 L
456.275 253.218 L
456.663 257.69 L
457.05 238.905 L
457.438 238.905 L
457.825 253.218 L
458.212 271.109 L
458.6 271.109 L
458.987 238.905 L
459.375 242.036 L
459.763 255.603 L
460.15 222.206 L
460.538 215.331 L
460.925 210.726 L
461.313 235.327 L
461.7 163.762 L
462.087 171.129 L
462.475 253.218 L
462.862 226.381 L
463.25 222.206 L
463.638 179.417 L
464.025 188.81 L
464.413 255.603 L
464.8 222.206 L
465.188 222.206 L
465.575 222.206 L
465.962 255.603 L
466.35 271.109 L
466.737 205.508 L
467.125 226.381 L
467.513 271.109 L
467.9 269.733 L
468.288 255.603 L
468.675 289 L
469.063 235.327 L
469.45 272.302 L
469.837 269.733 L
470.225 195.071 L
470.612 289 L
471 269.733 L
471.388 210.726 L
471.775 188.81 L
472.163 235.327 L
472.55 210.726 L
472.938 179.417 L
473.325 179.417 L
473.712 179.417 L
474.1 145.871 L
474.487 163.762 L
474.875 200.597 L
475.263 118.221 L
475.65 210.726 L
476.038 185.863 L
476.425 185.863 L
476.813 210.726 L
477.2 271.109 L
477.587 226.381 L
477.975 215.331 L
478.362 188.81 L
478.75 238.905 L
479.138 171.129 L
479.525 179.417 L
479.913 238.905 L
480.3 133.943 L
480.688 143.987 L
481.075 185.863 L
481.462 215.331 L
481.85 143.987 L
482.237 185.863 L
482.625 195.071 L
483.013 145.871 L
483.4 130.805 L
483.788 177.677 L
484.175 148.107 L
484.563 215.331 L
484.95 188.81 L
485.337 179.417 L
485.725 163.762 L
486.112 126.927 L
486.5 151.238 L
486.888 143.987 L
487.275 163.762 L
487.663 226.381 L
488.05 222.206 L
488.438 195.071 L
488.825 210.726 L
489.212 169.726 L
489.6 215.331 L
489.987 269.733 L
490.375 226.381 L
490.763 271.109 L
491.15 271.109 L
491.538 183.536 L
491.925 171.129 L
492.313 269.733 L
492.7 210.726 L
493.087 130.805 L
493.475 255.603 L
493.862 210.726 L
494.25 135.931 L
494.638 177.677 L
495.025 222.206 L
495.413 226.381 L
495.8 222.206 L
496.188 235.327 L
496.575 253.218 L
496.962 195.071 L
497.35 222.206 L
497.737 185.863 L
498.125 271.109 L
498.513 177.677 L
498.9 222.206 L
499.288 289 L
499.675 242.036 L
500.063 235.327 L
500.45 253.218 L
500.837 250.465 L
501.225 222.206 L
501.612 238.905 L
502 210.726 L
502.388 170.353 L
502.775 215.331 L
503.163 171.129 L
503.55 200.597 L
503.938 217.435 L
504.325 170.353 L
504.712 163.762 L
505.1 126.19 L
505.487 141.661 L
505.875 156.395 L
506.263 235.327 L
506.65 195.071 L
507.038 271.109 L
507.425 171.129 L
507.813 171.129 L
508.2 126.19 L
508.587 133.943 L
508.975 171.129 L
509.362 126.19 L
509.75 226.381 L
510.138 143.987 L
510.525 222.206 L
510.913 195.071 L
511.3 163.762 L
511.688 135.931 L
512.075 191.593 L
512.463 222.206 L
512.85 171.129 L
513.237 238.905 L
513.625 185.863 L
514.013 163.762 L
514.4 210.726 L
514.787 171.129 L
515.175 200.597 L
515.563 149.847 L
515.95 141.661 L
516.338 163.762 L
516.725 200.597 L
517.112 149.847 L
517.5 195.071 L
517.888 200.597 L
518.275 183.536 L
518.662 149.847 L
519.05 122.016 L
519.438 114.756 L
519.825 157.17 L
520.213 210.726 L
520.6 145.871 L
520.987 126.19 L
521.375 157.17 L
521.763 129.606 L
522.15 183.536 L
522.537 185.863 L
522.925 126.19 L
523.313 143.987 L
523.7 113.667 L
524.088 171.129 L
524.475 143.987 L
524.862 141.661 L
525.25 151.238 L
525.638 78.6 L
526.025 179.417 L
526.412 170.353 L
526.8 171.129 L
527.188 151.238 L
527.575 104.439 L
527.963 177.677 L
528.35 191.593 L
528.737 163.762 L
529.125 238.905 L
529.513 183.536 L
529.9 149.847 L
530.287 177.677 L
530.675 183.536 L
531.063 138.714 L
531.45 149.847 L
531.838 205.508 L
532.225 126.927 L
532.612 171.129 L
533 205.508 L
533.388 205.508 L
533.775 205.508 L
534.162 185.863 L
534.55 171.129 L
534.938 149.847 L
535.325 163.762 L
535.713 171.129 L
536.1 163.762 L
536.487 171.129 L
536.875 157.17 L
537.263 163.762 L
537.65 145.871 L
538.037 118.221 L
538.425 141.661 L
538.813 130.805 L
539.2 171.129 L
539.588 110.088 L
539.975 138.714 L
540.362 238.905 L
540.75 171.129 L
541.138 91.256 L
541.525 191.593 L
541.912 143.987 L
542.3 183.536 L
542.688 171.129 L
543.075 185.863 L
543.463 122.016 L
543.85 126.19 L
544.237 185.863 L
544.625 157.17 L
545.013 138.714 L
545.4 149.847 L
545.787 133.943 L
546.175 171.129 L
546.563 98.161 L
546.95 179.417 L
547.338 126.19 L
547.725 106.836 L
548.112 151.238 L
548.5 195.071 L
548.888 122.016 L
549.275 172.111 L
549.662 143.987 L
550.05 117.622 L
550.438 157.17 L
550.825 149.847 L
551.213 163.762 L
551.6 135.931 L
551.987 143.987 L
552.375 101.143 L
552.763 149.847 L
553.15 135.931 L
553.537 163.762 L
553.925 130.805 L
554.313 104.439 L
554.7 149.847 L
555.088 130.805 L
555.475 103.865 L
555.862 177.677 L
556.25 163.762 L
556.638 157.17 L
557.025 106.836 L
557.412 95.45 L
557.8 215.331 L
558.188 138.714 L
558.575 183.536 L
558.963 113.667 L
559.35 157.798 L
559.737 163.762 L
560.125 163.762 L
560.513 117.622 L
560.9 185.863 L
561.287 126.927 L
561.675 135.931 L
562.063 104.439 L
562.45 110.088 L
562.838 126.19 L
563.225 151.238 L
563.612 122.016 L
564 113.667 L
564.388 98.161 L
564.775 92.975 L
565.162 163.762 L
565.55 143.987 L
565.938 108.101 L
566.325 149.847 L
566.713 185.863 L
567.1 151.238 L
567.487 177.677 L
567.875 156.395 L
568.263 113.667 L
568.65 130.805 L
569.037 143.987 L
569.425 126.19 L
569.813 101.143 L
570.2 118.221 L
570.588 157.798 L
570.975 143.987 L
571.362 138.714 L
571.75 110.088 L
572.138 103.462 L
572.525 117.622 L
572.912 170.353 L
573.3 112.193 L
573.688 143.987 L
574.075 195.071 L
574.463 126.927 L
574.85 118.221 L
575.237 130.805 L
575.625 113.667 L
576.013 138.714 L
576.4 143.987 L
576.787 163.762 L
577.175 110.088 L
577.563 117.622 L
577.95 122.016 L
578.338 117.622 L
578.725 90.706 L
579.112 130.805 L
579.5 177.677 L
579.888 136.536 L
580.275 205.508 L
580.662 122.016 L
581.05 122.016 L
581.438 95.45 L
581.825 149.847 L
582.213 149.847 L
582.6 143.987 L
582.987 157.798 L
583.375 106.836 L
583.763 106.836 L
584.15 106.836 L
584.537 69.833 L
584.925 122.016 L
585.313 133.943 L
585.7 98.161 L
586.088 172.111 L
586.475 130.805 L
586.862 138.714 L
587.25 103.865 L
587.638 106.836 L
588.025 130.805 L
588.412 157.17 L
588.8 71.195 L
589.188 185.863 L
589.575 122.016 L
589.963 118.221 L
590.35 143.987 L
590.737 149.847 L
591.125 126.19 L
591.513 156.395 L
591.9 130.805 L
592.287 110.088 L
592.675 163.762 L
593.063 138.714 L
593.45 143.987 L
593.838 191.593 L
594.225 101.143 L
594.612 191.593 L
595 110.088 L
595.388 157.17 L
595.775 129.606 L
596.162 95.45 L
596.55 205.508 L
596.938 130.805 L
597.325 143.987 L
597.713 130.805 L
598.1 117.622 L
598.487 122.016 L
598.875 103.865 L
599.263 170.353 L
599.65 188.81 L
600.037 148.107 L
600.425 138.714 L
600.813 149.847 L
601.2 126.927 L
601.588 114.756 L
601.975 143.987 L
602.362 130.805 L
602.75 170.353 L
603.138 84.065 L
603.525 135.931 L
603.912 122.016 L
604.3 103.865 L
604.688 171.129 L
605.075 98.161 L
605.463 151.238 L
605.85 138.714 L
606.237 78.6 L
606.625 86.234 L
607.013 130.805 L
607.4 101.143 L
607.787 141.661 L
608.175 88.619 L
608.563 103.865 L
608.95 138.714 L
609.338 66.355 L
609.725 163.762 L
610.112 101.143 L
610.5 138.714 L
610.888 106.836 L
611.275 130.805 L
611.662 129.606 L
612.05 140.991 L
612.438 149.847 L
612.825 113.667 L
613.213 172.111 L
613.6 151.238 L
613.987 179.417 L
614.375 84.065 L
614.763 157.17 L
615.15 110.088 L
615.537 101.143 L
615.925 84.065 L
616.313 122.016 L
616.7 113.667 L
617.088 125.646 L
617.475 106.836 L
617.862 138.714 L
618.25 163.762 L
618.638 88.619 L
619.025 126.19 L
619.412 172.111 L
619.8 130.805 L
620.188 191.593 L
620.575 133.943 L
620.963 143.987 L
621.35 149.847 L
621.737 96.326 L
622.125 101.143 L
622.513 68.581 L
622.9 143.987 L
623.287 143.987 L
623.675 122.016 L
624.063 90.706 L
624.45 82.085 L
624.838 138.714 L
625.225 138.714 L
625.612 177.677 L
626 143.987 L
626.388 94.185 L
626.775 113.667 L
627.162 88.619 L
627.55 126.19 L
627.938 118.221 L
628.325 143.987 L
628.713 113.667 L
629.1 151.238 L
629.487 82.085 L
629.875 149.847 L
630.263 122.016 L
630.65 95.45 L
631.037 84.065 L
631.425 135.931 L
631.813 125.646 L
632.2 138.714 L
632.588 101.143 L
632.975 156.395 L
633.362 117.622 L
633.75 113.667 L
634.138 117.622 L
634.525 176.286 L
634.912 122.016 L
635.3 149.847 L
635.688 195.071 L
636.075 130.805 L
636.463 110.088 L
636.85 129.606 L
637.237 143.987 L
637.625 98.161 L
638.013 138.714 L
638.4 118.221 L
638.787 82.085 L
639.175 122.016 L
639.563 122.016 L
639.95 151.238 L
640.338 80.27 L
640.725 133.943 L
641.112 135.931 L
641.5 130.805 L
641.888 141.661 L
642.275 118.221 L
642.662 82.085 L
643.05 108.101 L
643.438 157.17 L
643.825 138.714 L
644.213 125.646 L
644.6 88.619 L
644.987 145.871 L
645.375 148.107 L
645.763 138.714 L
646.15 133.943 L
646.537 110.088 L
646.925 143.987 L
647.313 135.931 L
647.7 133.943 L
648.088 71.195 L
648.475 157.17 L
648.862 163.762 L
649.25 103.865 L
649.638 106.836 L
650.025 172.111 L
650.412 101.143 L
650.8 122.016 L
651.188 122.016 L
651.575 125.646 L
651.963 126.19 L
652.35 151.238 L
652.737 130.805 L
653.125 170.353 L
653.513 130.805 L
653.9 151.238 L
654.287 138.714 L
654.675 163.762 L
655.063 163.762 L
655.45 118.221 L
655.838 195.071 L
656.225 170.353 L
656.612 199.544 L
657 92.975 L
657.388 138.714 L
657.775 129.606 L
658.162 106.836 L
658.55 177.677 L
658.938 117.622 L
659.325 171.129 L
659.713 138.714 L
660.1 171.129 L
660.487 98.161 L
660.875 122.016 L
661.263 135.931 L
661.65 126.19 L
662.037 86.692 L
662.425 122.016 L
662.813 98.161 L
663.2 126.19 L
663.588 133.943 L
663.975 113.667 L
664.362 74.306 L
664.75 106.836 L
665.138 156.395 L
665.525 133.943 L
665.912 149.847 L
666.3 106.836 L
666.688 149.847 L
667.075 101.143 L
667.463 108.101 L
667.85 95.45 L
668.237 118.221 L
668.625 141.661 L
669.013 113.667 L
669.4 69.833 L
669.787 117.622 L
670.175 113.667 L
670.563 90.706 L
670.95 101.143 L
671.338 151.238 L
671.725 82.085 L
672.112 126.927 L
672.5 90.706 L
672.888 98.161 L
673.275 163.762 L
673.662 95.45 L
674.05 106.836 L
674.438 72.68 L
674.825 110.088 L
675.213 118.221 L
675.6 117.622 L
675.987 88.619 L
676.375 98.161 L
676.763 129.606 L
677.15 149.847 L
677.537 95.45 L
677.925 113.667 L
678.313 145.871 L
678.7 101.143 L
679.088 110.088 L
679.475 113.667 L
679.862 122.016 L
680.25 126.19 L
680.638 122.016 L
681.025 61.294 L
681.412 170.353 L
681.8 151.238 L
682.188 149.847 L
682.575 157.17 L
682.963 73.072 L
683.35 138.714 L
683.737 122.016 L
684.125 92.975 L
684.513 143.987 L
684.9 84.065 L
685.287 82.085 L
685.675 163.762 L
686.063 133.943 L
686.45 108.101 L
686.838 110.088 L
687.225 126.19 L
687.612 149.847 L
688 130.805 L
688.388 95.45 L
688.775 104.439 L
689.162 66.355 L
689.55 170.353 L
689.938 110.088 L
690.325 117.622 L
690.713 101.143 L
691.1 113.667 L
691.487 157.17 L
691.875 129.606 L
692.263 122.016 L
692.65 95.45 L
693.037 117.622 L
693.425 126.19 L
693.813 145.871 L
694.2 101.143 L
694.588 157.17 L
694.975 163.762 L
695.362 122.016 L
695.75 117.622 L
696.138 78.073 L
696.525 135.931 L
696.912 163.762 L
697.3 185.863 L
697.688 138.714 L
698.075 152.377 L
698.463 126.19 L
698.85 133.943 L
699.237 86.692 L
699.625 135.931 L
700.013 77.059 L
700.4 110.088 L
700.787 96.326 L
701.175 179.417 L
701.563 157.17 L
701.95 110.088 L
702.338 92.975 L
702.725 126.19 L
703.112 126.19 L
703.5 106.836 L
703.888 143.987 L
704.275 122.016 L
704.662 122.016 L
705.05 106.836 L
705.438 195.071 L
705.825 138.714 L
706.213 126.19 L
706.6 138.714 L
706.987 86.692 L
707.375 88.619 L
707.763 151.238 L
708.15 122.016 L
708.537 113.667 L
708.925 95.45 L
709.313 149.847 L
709.7 145.871 L
710.088 95.45 L
710.475 135.931 L
710.862 125.646 L
711.25 118.221 L
711.638 126.927 L
712.025 145.871 L
712.412 126.19 L
712.8 145.871 L
713.188 72.68 L
713.575 108.657 L
713.963 143.987 L
714.35 145.871 L
714.737 143.987 L
715.125 71.195 L
715.513 98.638 L
715.9 117.622 L
716.287 132.452 L
716.675 151.238 L
717.063 78.6 L
717.45 163.762 L
717.838 163.762 L
718.225 156.395 L
718.612 138.714 L
719 179.417 L
719.388 122.016 L
719.775 157.798 L
720.162 118.676 L
720.55 118.221 L
720.938 76.095 L
721.325 157.17 L
721.713 113.667 L
722.1 122.016 L
722.487 143.987 L
722.875 143.987 L
723.263 185.863 L
723.65 151.238 L
724.037 163.762 L
724.425 113.667 L
724.813 86.692 L
725.2 149.847 L
725.588 156.395 L
725.975 143.987 L
726.362 98.161 L
726.75 118.221 L
727.138 104.439 L
727.525 143.987 L
727.912 157.17 L
728.3 143.987 L
728.688 103.865 L
729.075 74.306 L
729.463 133.943 L
729.85 135.931 L
730.237 95.45 L
730.625 101.143 L
731.013 171.129 L
731.4 103.865 L
731.787 103.865 L
732.175 106.836 L
732.563 106.836 L
732.95 118.221 L
733.338 130.805 L
733.725 143.987 L
734.112 101.143 L
734.5 133.943 L
734.888 106.836 L
735.275 133.943 L
735.662 104.439 L
736.05 130.805 L
736.438 133.943 L
736.825 151.238 L
737.213 101.143 L
737.6 108.101 L
737.987 110.088 L
738.375 138.714 L
738.763 156.395 L
739.15 163.762 L
739.537 114.756 L
739.925 138.714 L
740.313 133.943 L
740.7 92.975 L
741.088 110.088 L
741.475 98.161 L
741.862 90.706 L
742.25 114.756 L
742.638 103.865 L
743.025 71.195 L
743.412 141.661 L
743.8 104.439 L
744.188 106.836 L
744.575 113.667 L
744.963 88.619 L
745.35 112.193 L
745.737 105.96 L
746.125 156.395 L
746.513 113.667 L
746.9 106.836 L
747.287 98.638 L
747.675 84.065 L
748.063 105.96 L
748.45 113.667 L
748.838 71.195 L
749.225 110.088 L
749.612 101.143 L
750 129.606 L
750.388 80.27 L
750.775 110.088 L
751.162 110.088 L
751.55 126.19 L
751.938 82.085 L
752.325 57.791 L
752.713 156.395 L
753.1 95.45 L
753.487 130.805 L
753.875 84.065 L
754.263 177.677 L
754.65 200.597 L
755.037 104.439 L
755.425 117.622 L
755.813 86.234 L
756.2 110.088 L
756.588 88.619 L
756.975 95.45 L
757.362 130.805 L
757.75 104.439 L
758.138 101.143 L
758.525 88.619 L
758.912 80.27 L
759.3 95.45 L
759.688 82.085 L
760.075 122.016 L
760.463 117.622 L
760.85 113.667 L
761.237 98.161 L
761.625 98.161 L
762.013 117.622 L
762.4 86.692 L
762.787 143.987 L
763.175 135.931 L
763.563 133.943 L
763.95 98.161 L
764.338 84.065 L
764.725 138.714 L
765.112 111.579 L
765.5 125.646 L
765.888 135.931 L
766.275 163.762 L
766.662 149.847 L
767.05 157.17 L
767.438 138.714 L
767.825 84.908 L
768.213 82.085 L
768.6 105.96 L
768.987 122.016 L
769.375 170.353 L
769.763 130.805 L
770.15 135.931 L
770.537 149.847 L
770.925 113.667 L
771.313 80.27 L
771.7 163.762 L
772.088 148.107 L
772.475 129.606 L
772.862 108.101 L
773.25 117.622 L
773.638 91.256 L
774.025 133.943 L
774.412 141.661 L
774.8 177.677 L
775.188 126.927 L
775.575 106.836 L
775.963 122.016 L
776.35 101.143 L
776.737 113.667 L
777.125 84.065 L
777.513 122.016 L
777.9 126.19 L
778.287 88.619 L
778.675 118.221 L
779.063 133.943 L
779.45 143.987 L
779.838 133.943 L
780.225 149.847 L
780.612 106.836 L
781 126.19 L
781.388 92.975 L
781.775 113.667 L
782.162 143.987 L
782.55 103.865 L
782.938 143.987 L
783.325 118.221 L
783.713 143.987 L
784.1 149.847 L
784.487 125.646 L
784.875 126.19 L
785.263 110.088 L
785.65 118.221 L
786.037 90.706 L
786.425 149.847 L
786.813 122.016 L
787.2 156.395 L
787.588 185.863 L
787.975 149.847 L
788.362 113.667 L
788.75 170.353 L
789.138 149.847 L
789.525 122.016 L
789.912 185.863 L
790.3 141.661 L
790.688 118.221 L
791.075 149.847 L
791.463 157.17 L
791.85 122.016 L
792.237 118.221 L
792.625 191.593 L
793.013 92.975 L
793.4 113.667 L
793.787 130.805 L
794.175 151.238 L
794.563 95.45 L
794.95 71.195 L
795.338 141.661 L
795.725 111.579 L
796.112 185.863 L
796.5 200.597 L
796.888 104.439 L
797.275 183.536 L
797.662 106.836 L
798.05 149.847 L
798.438 143.987 L
798.825 122.016 L
799.213 133.943 L
799.6 117.622 L
799.987 163.762 L
800.375 141.661 L
800.763 126.927 L
801.15 133.943 L
801.537 143.987 L
801.925 157.17 L
802.313 135.931 L
802.7 107.621 L
803.088 90.706 L
803.475 118.221 L
803.862 200.597 L
804.25 170.353 L
804.638 138.714 L
805.025 113.667 L
805.412 103.865 L
805.8 126.19 L
806.188 133.943 L
806.575 122.016 L
806.963 110.088 L
807.35 118.221 L
807.737 130.805 L
808.125 156.395 L
808.513 101.143 L
808.9 163.762 L
809.287 149.847 L
809.675 101.143 L
810.063 117.622 L
810.45 122.016 L
810.838 122.016 L
811.225 157.17 L
811.612 130.805 L
812 156.395 L
812.388 82.085 L
812.775 104.439 L
813.162 143.987 L
813.55 104.439 L
813.938 138.714 L
814.325 129.606 L
814.713 82.085 L
815.1 106.836 L
815.487 130.805 L
815.875 91.256 L
816.263 106.836 L
816.65 138.714 L
817.037 101.143 L
817.425 185.863 L
817.813 111.579 L
818.2 98.161 L
818.588 103.865 L
818.975 108.101 L
819.362 122.016 L
819.75 143.987 L
820.138 133.943 L
820.525 92.975 L
820.912 95.45 L
821.3 177.677 L
821.688 82.085 L
822.075 177.677 L
822.463 117.622 L
822.85 92.975 L
823.237 118.221 L
823.625 122.016 L
824.013 101.143 L
824.4 113.667 L
824.787 176.286 L
825.175 156.395 L
825.563 151.238 L
825.95 113.667 L
826.338 110.088 L
826.725 113.667 L
827.112 114.756 L
827.5 129.606 L
827.888 135.931 L
828.275 122.016 L
828.662 67.425 L
829.05 103.865 L
829.438 82.085 L
829.825 113.667 L
830.213 113.667 L
830.6 106.836 L
830.987 77.059 L
831.375 96.326 L
831.763 156.395 L
832.15 118.221 L
832.537 122.016 L
832.925 106.836 L
833.313 136.536 L
833.7 84.065 L
834.088 95.45 L
834.475 108.101 L
834.862 143.987 L
835.25 138.714 L
835.638 133.943 L
836.025 130.805 L
836.412 80.27 L
836.8 138.714 L
837.188 143.987 L
837.575 72.68 L
837.963 101.143 L
838.35 62.379 L
838.737 126.19 L
839.125 171.129 L
839.513 104.439 L
839.9 106.836 L
840.287 130.805 L
840.675 101.143 L
841.063 86.692 L
841.45 82.085 L
841.838 133.943 L
842.225 68.581 L
842.612 103.865 L
843 138.714 L
843.388 179.417 L
843.775 135.931 L
844.162 117.622 L
844.55 113.667 L
844.938 88.619 L
845.325 95.45 L
845.713 114.756 L
846.1 122.016 L
846.487 143.987 L
846.875 95.45 L
847.263 84.065 L
847.65 113.667 L
848.037 95.45 L
848.425 141.661 L
848.813 133.943 L
849.2 86.234 L
849.588 138.714 L
849.975 177.677 L
850.362 104.439 L
850.75 122.016 L
851.138 130.805 L
851.525 81.709 L
851.912 118.221 L
852.3 122.016 L
852.688 86.692 L
853.075 163.762 L
853.463 95.45 L
853.85 163.762 L
854.237 126.927 L
854.625 103.865 L
855.013 133.943 L
855.4 135.931 L
855.787 84.065 L
856.175 96.326 L
856.563 106.836 L
856.95 114.756 L
857.338 122.016 L
857.725 151.238 L
858.112 130.805 L
858.5 88.619 L
858.888 110.088 L
859.275 135.931 L
859.662 112.193 L
860.05 95.45 L
860.438 122.016 L
860.825 163.762 L
861.213 67.425 L
861.6 104.439 L
861.987 110.088 L
862.375 110.088 L
862.763 122.016 L
863.15 95.45 L
863.537 135.931 L
863.925 111.579 L
864.313 113.667 L
864.7 80.27 L
865.088 149.847 L
865.475 103.865 L
865.862 101.143 L
866.25 86.234 L
866.638 126.19 L
867.025 118.221 L
867.412 69.833 L
867.8 88.619 L
868.188 106.836 L
868.575 95.45 L
868.963 86.234 L
869.35 86.234 L
869.737 157.17 L
870.125 129.606 L
870.513 69.833 L
870.9 163.762 L
871.287 157.17 L
871.675 117.622 L
872.063 86.234 L
872.45 101.143 L
872.838 126.927 L
873.225 110.088 L
873.612 88.619 L
874 98.161 L
874.388 103.865 L
874.775 171.129 L
875.162 133.943 L
875.55 84.908 L
875.938 98.161 L
876.325 113.667 L
876.713 171.129 L
877.1 140.991 L
877.487 111.579 L
877.875 77.059 L
878.263 133.943 L
878.65 126.19 L
879.037 90.706 L
879.425 101.143 L
879.813 98.638 L
880.2 106.836 L
880.588 97.459 L
880.975 110.088 L
881.362 125.646 L
881.75 126.19 L
882.138 74.306 L
882.525 129.606 L
882.912 143.987 L
883.3 138.714 L
883.688 92.975 L
884.075 98.161 L
884.463 151.238 L
884.85 122.016 L
885.237 98.161 L
885.625 163.762 L
886.013 118.221 L
886.4 101.143 L
886.787 143.987 L
887.175 163.762 L
887.563 130.805 L
887.95 133.943 L
888.338 113.667 L
888.725 126.927 L
889.112 113.667 L
889.5 114.756 L
889.888 95.45 L
890.275 138.714 L
890.662 129.606 L
891.05 106.836 L
891.438 110.088 L
891.825 95.45 L
892.213 71.195 L
892.6 138.714 L
892.987 163.762 L
893.375 136.536 L
893.763 126.19 L
894.15 101.143 L
894.537 138.714 L
894.925 185.863 L
895.313 148.107 L
895.7 118.221 L
896.088 126.19 L
896.475 130.805 L
896.862 111.579 L
897.25 86.234 L
897.638 122.016 L
898.025 110.088 L
898.412 86.692 L
898.8 101.143 L
899.188 122.016 L
899.575 92.975 L
899.963 122.016 L
900.35 110.088 L
900.737 110.088 L
901.125 114.756 L
901.513 106.836 L
901.9 143.987 L
902.287 88.619 L
902.675 118.221 L
903.063 95.45 L
903.45 113.667 L
903.838 74.306 L
904.225 104.439 L
904.612 101.143 L
905 80.27 L
S
GR
GS
1 0 0 RC
1 LJ
0.5 LW
N
169.525 130.05 M
169.913 128.206 L
170.3 126.122 L
170.688 126.124 L
171.075 125.291 L
171.462 125.089 L
171.85 123.607 L
172.238 122.639 L
172.625 122.451 L
173.012 120.634 L
173.4 118.779 L
173.788 117.863 L
174.175 116.403 L
174.563 115.346 L
174.95 114.171 L
175.337 112.881 L
175.725 111.598 L
176.113 110.708 L
176.5 109.43 L
176.887 108.065 L
177.275 106.65 L
177.663 105.548 L
178.05 104.353 L
178.438 103.344 L
178.825 102.127 L
179.212 101.05 L
179.6 98.567 L
179.988 95.568 L
180.375 94.28 L
180.762 92.712 L
181.15 91.529 L
181.538 89.545 L
181.925 88.104 L
182.313 86.716 L
182.7 84.845 L
183.087 82.714 L
183.475 81.623 L
183.863 79.693 L
184.25 77.524 L
184.637 75.279 L
185.025 73.868 L
185.413 73.695 L
185.8 71.239 L
186.188 69.841 L
186.575 68.42 L
186.962 67.114 L
187.35 65.941 L
187.738 65.359 L
188.125 64.674 L
188.512 64.449 L
188.9 63.528 L
189.288 63.126 L
189.675 63.01 L
190.063 62.703 L
190.45 61.417 L
190.837 60.778 L
191.225 59.986 L
191.613 60.352 L
192 60.037 L
192.387 59.127 L
192.775 59.068 L
193.163 59.676 L
193.55 60.17 L
193.938 60.685 L
194.325 60.875 L
194.712 61.572 L
195.1 61.442 L
195.488 61.307 L
195.875 61.607 L
196.262 61.948 L
196.65 61.9 L
197.038 62.358 L
197.425 62.354 L
197.813 62.472 L
198.2 63.553 L
198.587 63.62 L
198.975 64.017 L
199.363 64.765 L
199.75 65.22 L
200.137 65.787 L
200.525 65.656 L
200.913 66.091 L
201.3 66.148 L
201.688 66.225 L
202.075 67.038 L
202.462 67.182 L
202.85 67.972 L
203.238 68.186 L
203.625 68.284 L
204.012 68.442 L
204.4 69.387 L
204.788 70.106 L
205.175 69.557 L
205.563 69.797 L
205.95 69.67 L
206.337 69.586 L
206.725 70.412 L
207.113 70.738 L
207.5 71.101 L
207.887 70.842 L
208.275 69.961 L
208.663 70.215 L
209.05 70.285 L
209.438 70.339 L
209.825 71.26 L
210.212 71.943 L
210.6 72.581 L
210.988 73.118 L
211.375 73.417 L
211.762 74.654 L
212.15 74.515 L
212.538 74.358 L
212.925 74.126 L
213.313 73.425 L
213.7 72.988 L
214.087 72.78 L
214.475 72.615 L
214.863 72.865 L
215.25 73.582 L
215.637 72.951 L
216.025 72.634 L
216.413 73.48 L
216.8 73.812 L
217.188 74.723 L
217.575 75.738 L
217.962 74.843 L
218.35 76.766 L
218.738 77.316 L
219.125 76.862 L
219.512 76.382 L
219.9 76.317 L
220.288 77.297 L
220.675 77.405 L
221.063 78.356 L
221.45 78.93 L
221.837 78.778 L
222.225 78.899 L
222.613 79.058 L
223 80.578 L
223.387 81.223 L
223.775 81.065 L
224.163 80.426 L
224.55 80.462 L
224.938 81.052 L
225.325 81.159 L
225.712 80.977 L
226.1 81.443 L
226.488 81.53 L
226.875 81.677 L
227.262 81.958 L
227.65 81.77 L
228.038 81.609 L
228.425 81.556 L
228.813 81.437 L
229.2 81.359 L
229.587 80.721 L
229.975 80.36 L
230.363 80.769 L
230.75 81.412 L
231.137 80.872 L
231.525 80.283 L
231.913 81.444 L
232.3 82.081 L
232.688 82.297 L
233.075 82.273 L
233.462 82.794 L
233.85 83.432 L
234.238 83.432 L
234.625 83.684 L
235.012 83.457 L
235.4 84.13 L
235.788 84.432 L
236.175 83.842 L
236.563 85.304 L
236.95 85.357 L
237.337 86.103 L
237.725 86.728 L
238.113 85.794 L
238.5 86.519 L
238.887 87.665 L
239.275 89.298 L
239.663 89.464 L
240.05 89.473 L
240.438 91.602 L
240.825 92.967 L
241.212 93.236 L
241.6 93.973 L
241.988 95.493 L
242.375 95.997 L
242.762 95.019 L
243.15 96.064 L
243.538 97.234 L
243.925 97.94 L
244.313 98.896 L
244.7 99.101 L
245.087 99.845 L
245.475 101.066 L
245.863 100.938 L
246.25 101.27 L
246.637 101.897 L
247.025 101.292 L
247.413 101.79 L
247.8 103.525 L
248.188 104.568 L
248.575 105.232 L
248.962 106.192 L
249.35 107.006 L
249.738 107.232 L
250.125 106.121 L
250.512 105.876 L
250.9 106.322 L
251.288 106.35 L
251.675 106.053 L
252.063 106.413 L
252.45 108.12 L
252.837 109.313 L
253.225 110.557 L
253.613 110.54 L
254 111.132 L
254.387 112.123 L
254.775 113.435 L
255.163 113.435 L
255.55 114.977 L
255.938 116.494 L
256.325 115.65 L
256.712 115.262 L
257.1 115.779 L
257.487 116.283 L
257.875 116.582 L
258.263 117.81 L
258.65 117.351 L
259.038 119.167 L
259.425 120.282 L
259.813 120.823 L
260.2 119.128 L
260.587 118.309 L
260.975 118.625 L
261.362 118.076 L
261.75 117.518 L
262.138 118.402 L
262.525 119.228 L
262.913 118.969 L
263.3 120.904 L
263.688 121.202 L
264.075 121.519 L
264.462 121.863 L
264.85 121.249 L
265.237 121.632 L
265.625 123.834 L
266.013 122.992 L
266.4 123.497 L
266.788 124.253 L
267.175 126.582 L
267.563 126.621 L
267.95 127.959 L
268.337 129.815 L
268.725 130.633 L
269.112 131.44 L
269.5 132.526 L
269.888 133.786 L
270.275 134.522 L
270.663 135.509 L
271.05 135.977 L
271.438 137.584 L
271.825 138.473 L
272.212 137.249 L
272.6 138.379 L
272.987 137.939 L
273.375 140.218 L
273.763 141.238 L
274.15 141.393 L
274.538 141.43 L
274.925 142.59 L
275.313 142.512 L
275.7 142.321 L
276.087 143.828 L
276.475 145.039 L
276.862 145.831 L
277.25 146.003 L
277.638 146.122 L
278.025 145.061 L
278.413 145.602 L
278.8 144.585 L
279.188 146.47 L
279.575 148.61 L
279.962 150.612 L
280.35 151.818 L
280.737 153.332 L
281.125 155.006 L
281.513 155.688 L
281.9 155.688 L
282.288 155.086 L
282.675 155.186 L
283.063 153.98 L
283.45 155.944 L
283.837 155.929 L
284.225 156.076 L
284.612 157.076 L
285 158.564 L
285.388 158.291 L
285.775 160.221 L
286.163 161.198 L
286.55 162.665 L
286.938 163.146 L
287.325 163.999 L
287.712 164.111 L
288.1 163.765 L
288.487 164.487 L
288.875 165.653 L
289.263 166.86 L
289.65 166.711 L
290.038 165.974 L
290.425 165.959 L
290.813 165.807 L
291.2 165.445 L
291.587 166.447 L
291.975 167.527 L
292.362 166.981 L
292.75 167.873 L
293.138 166.598 L
293.525 166.469 L
293.913 166.96 L
294.3 167.182 L
294.688 167.584 L
295.075 168.323 L
295.462 169.493 L
295.85 169.076 L
296.237 171.181 L
296.625 170.405 L
297.013 172.524 L
297.4 174.151 L
297.788 175.212 L
298.175 176.382 L
298.563 177.48 L
298.95 177.326 L
299.337 175.794 L
299.725 176.653 L
300.112 176.757 L
300.5 177.411 L
300.888 178.076 L
301.275 179.85 L
301.663 179.031 L
302.05 181.844 L
302.438 182.519 L
302.825 182.907 L
303.212 181.761 L
303.6 182.212 L
303.987 183.494 L
304.375 183.928 L
304.763 183.109 L
305.15 183.382 L
305.538 183.51 L
305.925 183.204 L
306.313 183.059 L
306.7 181.903 L
307.087 181.903 L
307.475 182.279 L
307.862 183.145 L
308.25 182.73 L
308.638 181.225 L
309.025 180.839 L
309.413 181.658 L
309.8 183.315 L
310.188 183.733 L
310.575 185.015 L
310.962 186.421 L
311.35 186.625 L
311.737 187.546 L
312.125 188.557 L
312.513 189.069 L
312.9 190.344 L
313.288 190.2 L
313.675 192.305 L
314.063 193.156 L
314.45 193.46 L
314.837 194.218 L
315.225 194.931 L
315.612 196.275 L
316 195.442 L
316.388 196.525 L
316.775 196.198 L
317.163 197.276 L
317.55 197.385 L
317.938 198.179 L
318.325 197.565 L
318.712 196.853 L
319.1 198.128 L
319.487 197.882 L
319.875 197.698 L
320.263 197.698 L
320.65 197.567 L
321.038 197.485 L
321.425 199.531 L
321.813 199.531 L
322.2 201.48 L
322.587 203.281 L
322.975 204.201 L
323.362 205.999 L
323.75 205.945 L
324.138 207.418 L
324.525 209.219 L
324.913 210.7 L
325.3 211.15 L
325.688 212.623 L
326.075 214.158 L
326.462 215.313 L
326.85 216.76 L
327.237 216.562 L
327.625 217.656 L
328.013 219.103 L
328.4 220.833 L
328.788 221.873 L
329.175 223.627 L
329.563 224.18 L
329.95 224.214 L
330.337 225.773 L
330.725 225.773 L
331.112 227.41 L
331.5 226.923 L
331.888 227.139 L
332.275 227.549 L
332.663 227.549 L
333.05 229.653 L
333.438 229.022 L
333.825 229.835 L
334.212 230.412 L
334.6 231.067 L
334.987 231.395 L
335.375 230.535 L
335.763 231.017 L
336.15 231.263 L
336.538 231.128 L
336.925 230.555 L
337.313 231.587 L
337.7 232.464 L
338.087 233.955 L
338.475 234.749 L
338.862 234.326 L
339.25 234.109 L
339.638 235.556 L
340.025 235.132 L
340.413 235.966 L
340.8 236.354 L
341.188 235.849 L
341.575 235.296 L
341.962 235.019 L
342.35 235.323 L
342.737 236.858 L
343.125 235.764 L
343.513 236.194 L
343.9 236.799 L
344.288 236.799 L
344.675 237.149 L
345.063 238.555 L
345.45 238.228 L
345.837 237.614 L
346.225 237.787 L
346.612 237.834 L
347 239.217 L
347.388 238.585 L
347.775 237.65 L
348.163 237.732 L
348.55 236.749 L
348.938 235.268 L
349.325 233.407 L
349.712 233.919 L
350.1 233.919 L
350.487 233.857 L
350.875 232.22 L
351.263 232.22 L
351.65 232.003 L
352.038 230.631 L
352.425 229.341 L
352.813 227.958 L
353.2 225.9 L
353.587 224.221 L
353.975 224.028 L
354.362 223.455 L
354.75 224.06 L
355.138 223.992 L
355.525 224.062 L
355.913 224.666 L
356.3 224.301 L
356.688 223.619 L
357.075 223.339 L
357.462 221.378 L
357.85 220.419 L
358.237 219.625 L
358.625 219.336 L
359.013 219.143 L
359.4 218.863 L
359.788 219.894 L
360.175 219.152 L
360.563 218.763 L
360.95 218.474 L
361.337 217.986 L
361.725 215.022 L
362.112 213.531 L
362.5 211.22 L
362.888 210.455 L
363.275 211.288 L
363.663 210.683 L
364.05 209.316 L
364.438 207.825 L
364.825 206.13 L
365.212 206.519 L
365.6 207.703 L
365.987 207.241 L
366.375 206.054 L
366.763 205.352 L
367.15 204.312 L
367.538 204.721 L
367.925 204.414 L
368.313 204.052 L
368.7 203.288 L
369.087 204.729 L
369.475 206.015 L
369.862 204.632 L
370.25 204.632 L
370.638 205.919 L
371.025 207.286 L
371.413 207.975 L
371.8 210.224 L
372.188 211.842 L
372.575 212.593 L
372.962 214.651 L
373.35 216.901 L
373.737 218.538 L
374.125 217.743 L
374.513 217.139 L
374.9 216.102 L
375.288 215.447 L
375.675 215.825 L
376.063 216.582 L
376.45 217.51 L
376.837 217.837 L
377.225 218.839 L
377.612 219.447 L
378 221.118 L
378.388 221.913 L
378.775 221.816 L
379.163 220.776 L
379.55 220.557 L
379.938 220.846 L
380.325 221.805 L
380.712 223.449 L
381.1 224.77 L
381.487 226.944 L
381.875 227.804 L
382.263 228.273 L
382.65 229.501 L
383.038 228.668 L
383.425 228.995 L
383.813 230.667 L
384.2 231.281 L
384.587 232.147 L
384.975 233.068 L
385.362 232.191 L
385.75 232.981 L
386.138 234.472 L
386.525 235.173 L
386.913 236.143 L
387.3 236.389 L
387.688 237.573 L
388.075 239.198 L
388.462 241.794 L
388.85 243.197 L
389.237 243.548 L
389.625 244.579 L
390.013 245.211 L
390.4 244.907 L
390.788 244.86 L
391.175 244.306 L
391.563 244.657 L
391.95 244.657 L
392.337 245.639 L
392.725 245.639 L
393.112 245.612 L
393.5 244.957 L
393.888 245.997 L
394.275 245.67 L
394.663 247.962 L
395.05 249.271 L
395.438 249.271 L
395.825 249.669 L
396.212 249.95 L
396.6 250.605 L
396.987 251.914 L
397.375 251.914 L
397.763 251.283 L
398.15 252.511 L
398.538 254.244 L
398.925 256.266 L
399.313 255.877 L
399.7 256.378 L
400.087 256.729 L
400.475 255.662 L
400.862 255.709 L
401.25 256.803 L
401.638 256.557 L
402.025 257.744 L
402.413 257.499 L
402.8 258.683 L
403.188 258.285 L
403.575 258.636 L
403.962 259.513 L
404.35 260.014 L
404.737 259.663 L
405.125 260.891 L
405.513 261.545 L
405.9 260.452 L
406.288 259.882 L
406.675 260.583 L
407.063 260.645 L
407.45 260.341 L
407.837 260.664 L
408.225 260.688 L
408.612 259.635 L
409 258.101 L
409.388 257.574 L
409.775 257.224 L
410.163 257.177 L
410.55 256.958 L
410.938 257.215 L
411.325 256.294 L
411.712 256.521 L
412.1 255.293 L
412.487 255.293 L
412.875 253.648 L
413.263 253.148 L
413.65 253.779 L
414.038 254.387 L
414.425 253.99 L
414.813 253.335 L
415.2 252.633 L
415.587 253.288 L
415.975 253.639 L
416.362 253.288 L
416.75 252.586 L
417.138 251.753 L
417.525 252.081 L
417.913 251.098 L
418.3 250.116 L
418.688 249.064 L
419.075 250.022 L
419.462 250.35 L
419.85 249.04 L
420.237 250.107 L
420.625 250.762 L
421.013 249.885 L
421.4 250.458 L
421.788 251.113 L
422.175 252.34 L
422.563 252.34 L
422.95 252.738 L
423.337 252.738 L
423.725 253.089 L
424.112 253.089 L
424.5 253.089 L
424.888 252.738 L
425.275 252.387 L
425.663 253.481 L
426.05 253.747 L
426.438 254.098 L
426.825 254.098 L
427.212 254.753 L
427.6 254.429 L
427.987 254.405 L
428.375 255.13 L
428.763 255.963 L
429.15 256.84 L
429.538 257.215 L
429.925 256.864 L
430.313 257.083 L
430.7 257.434 L
431.087 257.373 L
431.475 257.777 L
431.862 258.654 L
432.25 259.286 L
432.638 260.957 L
433.025 261.458 L
433.413 261.431 L
433.8 261.478 L
434.188 261.478 L
434.575 261.478 L
434.962 262.179 L
435.35 260.952 L
435.737 259.154 L
436.125 258.452 L
436.513 257.42 L
436.9 256.499 L
437.288 255.244 L
437.675 254.692 L
438.063 253.832 L
438.45 253.903 L
438.837 254.253 L
439.225 252.944 L
439.612 253.271 L
440 252.667 L
440.388 251.684 L
440.775 251.86 L
441.163 252.515 L
441.55 252.515 L
441.938 251.532 L
442.325 251.532 L
442.712 250.878 L
443.1 249.568 L
443.487 247.257 L
443.875 247.257 L
444.263 247.607 L
444.65 246.117 L
445.038 246.467 L
445.425 246.818 L
445.813 246.818 L
446.2 246.818 L
446.587 247.037 L
446.975 246.423 L
447.362 246.143 L
447.75 245.511 L
448.138 245.137 L
448.525 245.488 L
448.913 245.488 L
449.3 244.833 L
449.688 244.965 L
450.075 245.011 L
450.462 244.403 L
450.85 243.941 L
451.237 242.757 L
451.625 242.056 L
452.013 239.951 L
452.4 237.99 L
452.788 237.944 L
453.175 237.094 L
453.563 236.439 L
453.95 235.342 L
454.337 234.36 L
454.725 233.705 L
455.112 233.623 L
455.5 234.462 L
455.888 234.205 L
456.275 235.284 L
456.663 237.389 L
457.05 237.661 L
457.438 237.968 L
457.825 239.459 L
458.212 240.064 L
458.6 239.409 L
458.987 241.046 L
459.375 240.976 L
459.763 241.631 L
460.15 242.235 L
460.538 241.446 L
460.925 241.446 L
461.313 241.068 L
461.7 240.516 L
462.087 238.902 L
462.475 239.159 L
462.862 238.934 L
463.25 239.097 L
463.638 237.603 L
464.025 235.454 L
464.413 234.489 L
464.8 232.034 L
465.188 230.3 L
465.575 227.606 L
465.962 226.072 L
466.35 224.751 L
466.737 223.343 L
467.125 222.79 L
467.513 223.422 L
467.9 222.895 L
468.288 221.802 L
468.675 220.188 L
469.063 220.188 L
469.45 218.798 L
469.837 217.304 L
470.225 217.631 L
470.612 216.035 L
471 214.727 L
471.388 213.757 L
471.775 214.768 L
472.163 214.236 L
472.55 212.915 L
472.938 212.301 L
473.325 210.804 L
473.712 209.851 L
474.1 209.633 L
474.487 207.525 L
474.875 207.39 L
475.263 206.736 L
475.65 205.897 L
476.038 204.096 L
476.425 201.269 L
476.813 200.205 L
477.2 198.589 L
477.587 196.484 L
477.975 195.634 L
478.362 194.979 L
478.75 193.138 L
479.138 192.655 L
479.525 190.644 L
479.913 189.577 L
480.3 191.041 L
480.688 189.813 L
481.075 189.84 L
481.462 191.024 L
481.85 190.921 L
482.237 189.662 L
482.625 190.819 L
483.013 191.433 L
483.4 190.48 L
483.788 191.974 L
484.175 193.245 L
484.563 192.7 L
484.95 192.25 L
485.337 194.289 L
485.725 194.596 L
486.112 195.309 L
486.5 196.279 L
486.888 197.112 L
487.275 195.621 L
487.663 195.539 L
488.05 194.961 L
488.438 196.575 L
488.825 195.374 L
489.212 196.376 L
489.6 198.525 L
489.987 198.586 L
490.375 200.574 L
490.763 202.716 L
491.15 203.982 L
491.538 204.117 L
491.925 205.978 L
492.313 206.466 L
492.7 205.981 L
493.087 207.343 L
493.475 208.134 L
493.862 208.583 L
494.25 209.943 L
494.638 209.061 L
495.025 208.57 L
495.413 207.526 L
495.8 207.093 L
496.188 207.67 L
496.575 209.319 L
496.962 210.321 L
497.35 212.426 L
497.737 211.342 L
498.125 210.341 L
498.513 208.99 L
498.9 207.485 L
499.288 207.512 L
499.675 205.764 L
500.063 204.914 L
500.45 203.299 L
500.837 202.34 L
501.225 200.849 L
501.612 200.461 L
502 199.771 L
502.388 198.239 L
502.775 198.464 L
503.163 199.255 L
503.55 198.927 L
503.938 198.44 L
504.325 198.985 L
504.712 199.633 L
505.1 198.632 L
505.487 198.126 L
505.875 196.707 L
506.263 194.871 L
506.65 193.117 L
507.038 193.225 L
507.425 191.806 L
507.813 191.987 L
508.2 190.604 L
508.587 190.719 L
508.975 189.3 L
509.362 186.026 L
509.75 183.53 L
510.138 181.998 L
510.525 181.165 L
510.913 179.114 L
511.3 177.231 L
511.688 175.629 L
512.075 174.038 L
512.463 174.297 L
512.85 173.719 L
513.237 172.838 L
513.625 171.728 L
514.013 169.693 L
514.4 169.708 L
514.787 169.32 L
515.175 169.624 L
515.563 169.812 L
515.95 168.286 L
516.338 167.19 L
516.725 166.705 L
517.112 164.745 L
517.5 164.355 L
517.888 163.047 L
518.275 164.057 L
518.662 165.187 L
519.05 165.043 L
519.438 167.253 L
519.825 166.413 L
520.213 166.528 L
520.6 165.654 L
520.987 165.428 L
521.375 164.937 L
521.763 165.21 L
522.15 165.483 L
522.537 163.615 L
522.925 163.615 L
523.313 162.96 L
523.7 163.345 L
524.088 164.163 L
524.475 163.676 L
524.862 163.676 L
525.25 162.681 L
525.638 162.954 L
526.025 163.532 L
526.412 163.532 L
526.8 162.954 L
527.188 163.097 L
527.575 162.483 L
527.963 161.41 L
528.35 160.13 L
528.737 159.969 L
529.125 160.141 L
529.513 161.247 L
529.9 160.324 L
530.287 158.912 L
530.675 160.736 L
531.063 161.617 L
531.45 160.325 L
531.838 161.54 L
532.225 160.765 L
532.612 160.719 L
533 161.6 L
533.388 162.421 L
533.775 162.585 L
534.162 161.704 L
534.55 162.525 L
534.938 162.829 L
535.325 162.583 L
535.713 163.98 L
536.1 163.089 L
536.487 163.104 L
536.875 161.673 L
537.263 162.226 L
537.65 162.652 L
538.037 161.263 L
538.425 160.472 L
538.813 161.086 L
539.2 158.794 L
539.588 158.57 L
539.975 158.455 L
540.362 157.277 L
540.75 156.76 L
541.138 156.979 L
541.525 157.251 L
541.912 155.887 L
542.3 156.222 L
542.688 154.849 L
543.075 153.758 L
543.463 152.394 L
543.85 151.575 L
544.237 150.496 L
544.625 149.188 L
545.013 149.188 L
545.4 148.542 L
545.787 147.223 L
546.175 147.496 L
546.563 147.351 L
546.95 147.351 L
547.338 146.235 L
547.725 145.247 L
548.112 147.151 L
548.5 147.093 L
548.888 148.127 L
549.275 147 L
549.662 147.936 L
550.05 148.427 L
550.438 146.953 L
550.825 145.904 L
551.213 147.759 L
551.6 146.491 L
551.987 146.333 L
552.375 144.782 L
552.763 143.585 L
553.15 142.415 L
553.537 142.988 L
553.925 142.907 L
554.313 141.491 L
554.7 140.334 L
555.088 139.437 L
555.475 139.71 L
555.862 139.907 L
556.25 138.671 L
556.638 139.684 L
557.025 139.811 L
557.412 140.302 L
557.8 141.691 L
558.188 141.792 L
558.575 140.196 L
558.963 140.368 L
559.35 139.817 L
559.737 139.468 L
560.125 139.145 L
560.513 138.381 L
560.9 138.537 L
561.287 138.149 L
561.675 138.204 L
562.063 137.539 L
562.45 137.585 L
562.838 136.953 L
563.225 137.628 L
563.612 136.617 L
564 136.875 L
564.388 138.652 L
564.775 138.203 L
565.162 137.956 L
565.55 138.484 L
565.938 137.229 L
566.325 136.738 L
566.713 136.479 L
567.1 137.596 L
567.487 137.883 L
567.875 135.967 L
568.263 135.639 L
568.65 134.347 L
569.037 133.897 L
569.425 133.367 L
569.813 133.64 L
570.2 133.107 L
570.588 134.83 L
570.975 133.578 L
571.362 133.482 L
571.75 132.688 L
572.138 133.578 L
572.525 134.358 L
572.912 134.707 L
573.3 134.835 L
573.688 134.538 L
574.075 134.404 L
574.463 134.574 L
574.85 134.12 L
575.237 133.302 L
575.625 133.105 L
576.013 132.91 L
576.4 133.346 L
576.787 132.267 L
577.175 132.021 L
577.563 130.574 L
577.95 129.602 L
578.338 129.938 L
578.725 130.455 L
579.112 129.028 L
579.5 130.198 L
579.888 130.607 L
580.275 130.607 L
580.662 130.336 L
581.05 130.451 L
581.438 130.206 L
581.825 131.114 L
582.213 131.65 L
582.6 131.502 L
582.987 131.373 L
583.375 131.893 L
583.763 131.893 L
584.15 131.825 L
584.537 131.319 L
584.925 132.758 L
585.313 132.351 L
585.7 133.204 L
586.088 133.026 L
586.475 132.074 L
586.862 132.893 L
587.25 133.299 L
587.638 133.816 L
588.025 133.988 L
588.412 133.988 L
588.8 134.602 L
589.188 134.074 L
589.575 133.93 L
589.963 134.955 L
590.35 133.83 L
590.737 134.157 L
591.125 134.703 L
591.513 135.32 L
591.9 134.632 L
592.287 134.517 L
592.675 134.259 L
593.063 134.505 L
593.45 134.058 L
593.838 134.629 L
594.225 134.926 L
594.612 135.594 L
595 136.557 L
595.388 135.855 L
595.775 136.896 L
596.162 136.241 L
596.55 135.217 L
596.938 134.188 L
597.325 134.717 L
597.713 134.605 L
598.1 134.818 L
598.487 133.474 L
598.875 134.114 L
599.263 133.19 L
599.65 132.098 L
600.037 132.991 L
600.425 132.151 L
600.813 131.933 L
601.2 131.554 L
601.588 131.052 L
601.975 131.028 L
602.362 131.634 L
602.75 131.361 L
603.138 130.87 L
603.525 131.422 L
603.912 130.63 L
604.3 132.165 L
604.688 130.057 L
605.075 130.98 L
605.463 130.057 L
605.85 129.499 L
606.237 129.275 L
606.625 127.638 L
607.013 127.302 L
607.4 126.943 L
607.787 126.473 L
608.175 126.886 L
608.563 127.705 L
608.95 127.406 L
609.338 126.54 L
609.725 126.213 L
610.112 125.873 L
610.5 126.91 L
610.888 126.598 L
611.275 126.933 L
611.662 127.621 L
612.05 126.686 L
612.438 126.105 L
612.825 124.109 L
613.213 125.284 L
613.6 125.442 L
613.987 125.442 L
614.375 125.184 L
614.763 123.438 L
615.15 124.233 L
615.537 123.988 L
615.925 124.752 L
616.313 126.034 L
616.7 126.19 L
617.088 125.854 L
617.475 125.608 L
617.862 125.305 L
618.25 125.885 L
618.638 126.672 L
619.025 126.181 L
619.412 127.845 L
619.8 126.244 L
620.188 127.199 L
620.575 126.871 L
620.963 126.648 L
621.35 125.731 L
621.737 125.855 L
622.125 125.555 L
622.513 125.336 L
622.9 125.091 L
623.287 124.783 L
623.675 124.123 L
624.063 122.834 L
624.45 123.492 L
624.838 123.867 L
625.225 124.101 L
625.612 125.056 L
626 127.232 L
626.388 127.405 L
626.775 127.335 L
627.162 127.412 L
627.55 128.141 L
627.938 127.346 L
628.325 126.854 L
628.713 127.435 L
629.1 126.57 L
629.487 125.588 L
629.875 125.415 L
630.263 124.624 L
630.65 123.572 L
631.037 123.375 L
631.425 123.102 L
631.813 123.778 L
632.2 124.573 L
632.588 125.546 L
632.975 124.332 L
633.362 123.628 L
633.75 124.318 L
634.138 125.259 L
634.525 126.113 L
634.912 125.131 L
635.3 125.271 L
635.688 124.691 L
636.075 124.588 L
636.463 125.368 L
636.85 125.297 L
637.237 126.383 L
637.625 126.574 L
638.013 126.882 L
638.4 125.455 L
638.787 126.308 L
639.175 126.554 L
639.563 126.981 L
639.95 126.137 L
640.338 127.12 L
640.725 127.231 L
641.112 127.975 L
641.5 127.703 L
641.888 127.703 L
642.275 127.457 L
642.662 128.439 L
643.05 127.937 L
643.438 128.971 L
643.825 129.307 L
644.213 129.967 L
644.6 129.23 L
644.987 130.048 L
645.375 130.321 L
645.763 128.814 L
646.15 130.075 L
646.537 131.256 L
646.925 132.628 L
647.313 131.627 L
647.7 132.423 L
648.088 132.244 L
648.475 132.021 L
648.862 133.895 L
649.25 133.809 L
649.638 134.772 L
650.025 134.526 L
650.412 136.308 L
650.8 135.606 L
651.188 135.333 L
651.575 135.434 L
651.963 135.131 L
652.35 134.512 L
652.737 135.295 L
653.125 135.1 L
653.513 134.493 L
653.9 134.399 L
654.287 134.165 L
654.675 133.884 L
655.063 133.118 L
655.45 133.281 L
655.838 133.187 L
656.225 133.499 L
656.612 133.436 L
657 133.55 L
657.388 132.868 L
657.775 132.362 L
658.162 132.837 L
658.55 132.073 L
658.938 131.64 L
659.325 131.832 L
659.713 131.107 L
660.1 130.038 L
660.487 130.284 L
660.875 129.67 L
661.263 129.261 L
661.65 129.762 L
662.037 128.898 L
662.425 128.421 L
662.813 127.635 L
663.2 126.219 L
663.588 126.865 L
663.975 125.772 L
664.362 125.146 L
664.75 123.361 L
665.138 122.308 L
665.525 122.308 L
665.912 120.79 L
666.3 119.187 L
666.688 117.199 L
667.075 117.917 L
667.463 118.135 L
667.85 117.466 L
668.237 117.6 L
668.625 116.976 L
669.013 116.653 L
669.4 115.456 L
669.787 114.965 L
670.175 114.002 L
670.563 114.552 L
670.95 114.552 L
671.338 113.088 L
671.725 113.954 L
672.112 115.22 L
672.5 115.765 L
672.888 116.922 L
673.275 115.881 L
673.662 115.974 L
674.05 116.138 L
674.438 116.504 L
674.825 117.233 L
675.213 115.814 L
675.6 114.798 L
675.987 115.07 L
676.375 115.602 L
676.763 114.783 L
677.15 114.959 L
677.537 115.313 L
677.925 116.38 L
678.313 116.627 L
678.7 115.721 L
679.088 115.54 L
679.475 115.472 L
679.862 116.506 L
680.25 116.435 L
680.638 116.963 L
681.025 116.963 L
681.412 116.226 L
681.8 117.699 L
682.188 117.751 L
682.575 118.365 L
682.963 118.312 L
683.35 117.407 L
683.737 118.01 L
684.125 118.775 L
684.513 119.334 L
684.9 120.257 L
685.287 121.15 L
685.675 121.236 L
686.063 121.804 L
686.45 121.411 L
686.838 121.535 L
687.225 121.807 L
687.612 123.58 L
688 124.071 L
688.388 124.199 L
688.775 124.69 L
689.162 125.158 L
689.55 124.629 L
689.938 124.902 L
690.325 123.938 L
690.713 123.705 L
691.1 124.391 L
691.487 124.569 L
691.875 124.685 L
692.263 123.906 L
692.65 122.647 L
693.037 123.689 L
693.425 123.443 L
693.813 123.145 L
694.2 124.146 L
694.588 123.715 L
694.975 124.459 L
695.362 124.944 L
695.75 125.558 L
696.138 125.652 L
696.525 126.007 L
696.912 126.568 L
697.3 125.793 L
697.688 124.593 L
698.075 124.993 L
698.463 125.514 L
698.85 125.695 L
699.237 126.266 L
699.625 125.864 L
700.013 126.565 L
700.4 126.131 L
700.787 126.813 L
701.175 127.048 L
701.563 126.284 L
701.95 126.231 L
702.338 126.699 L
702.725 127.302 L
703.112 127.856 L
703.5 126.807 L
703.888 126.077 L
704.275 126.917 L
704.662 126.695 L
705.05 126.308 L
705.438 125.311 L
705.825 124.939 L
706.213 125.714 L
706.6 125.646 L
706.987 125.401 L
707.375 123.297 L
707.763 123.789 L
708.15 124.012 L
708.537 124.604 L
708.925 124.698 L
709.313 126.516 L
709.7 126.243 L
710.088 127.826 L
710.475 127.994 L
710.862 128.424 L
711.25 126.398 L
711.638 126.398 L
712.025 126.468 L
712.412 127.037 L
712.8 127.386 L
713.188 127.735 L
713.575 129.285 L
713.963 129.427 L
714.35 130.246 L
714.737 130.082 L
715.125 129.687 L
715.513 128.8 L
715.9 129.147 L
716.287 129.496 L
716.675 128.701 L
717.063 129.319 L
717.45 129.629 L
717.838 129.487 L
718.225 130.176 L
718.612 130.771 L
719 130.936 L
719.388 129.454 L
719.775 129.221 L
720.162 130.014 L
720.55 129.221 L
720.938 128.74 L
721.325 129.778 L
721.713 129.325 L
722.1 128.502 L
722.487 128.122 L
722.875 127.357 L
723.263 128.25 L
723.65 128.684 L
724.037 128.684 L
724.425 127.807 L
724.813 127.61 L
725.2 128.309 L
725.588 129.001 L
725.975 128.743 L
726.362 128.71 L
726.75 128.371 L
727.138 129.796 L
727.525 128.568 L
727.912 127.476 L
728.3 126.568 L
728.688 126.568 L
729.075 126.117 L
729.463 126.935 L
729.85 126.092 L
730.237 126.484 L
730.625 126.793 L
731.013 127.124 L
731.4 126.201 L
731.787 125.896 L
732.175 125.283 L
732.563 124.709 L
732.95 123.923 L
733.338 121.674 L
733.725 121.486 L
734.112 120.323 L
734.5 120.189 L
734.888 120.718 L
735.275 119.518 L
735.662 118.651 L
736.05 117.905 L
736.438 119.047 L
736.825 118.958 L
737.213 119.005 L
737.6 118.116 L
737.987 116.682 L
738.375 115.937 L
738.763 116.129 L
739.15 116.068 L
739.537 115.6 L
739.925 114.918 L
740.313 115.588 L
740.7 115.178 L
741.088 113.982 L
741.475 114.104 L
741.862 114.541 L
742.25 114.056 L
742.638 113.094 L
743.025 113.843 L
743.412 113.15 L
743.8 112.891 L
744.188 112.556 L
744.575 113.414 L
744.963 115.252 L
745.35 114.674 L
745.737 114.932 L
746.125 114.058 L
746.513 113.591 L
746.9 112.363 L
747.287 112.251 L
747.675 112.696 L
748.063 112.585 L
748.45 111.849 L
748.838 110.52 L
749.225 108.883 L
749.612 108.504 L
750 107.394 L
750.388 107.16 L
750.775 107.643 L
751.162 107.713 L
751.55 107.713 L
751.938 107.86 L
752.325 107.916 L
752.713 107.579 L
753.1 109.006 L
753.487 108.894 L
753.875 109.473 L
754.263 109.302 L
754.65 108.722 L
755.037 109.704 L
755.425 109.692 L
755.813 110.078 L
756.2 109.677 L
756.588 110.659 L
756.975 111.503 L
757.362 112.65 L
757.75 113.722 L
758.138 113.309 L
758.525 112.69 L
758.912 113.371 L
759.3 113.605 L
759.688 114.962 L
760.075 114.986 L
760.463 116.077 L
760.85 116.857 L
761.237 116.927 L
761.625 116.027 L
762.013 117.628 L
762.4 119.399 L
762.787 118.874 L
763.175 119.122 L
763.563 118.863 L
763.95 119.004 L
764.338 118.147 L
764.725 116.991 L
765.112 118.427 L
765.5 118.61 L
765.888 119.014 L
766.275 119.248 L
766.662 119.493 L
767.05 119.85 L
767.438 118.934 L
767.825 119.278 L
768.213 119.77 L
768.6 119.77 L
768.987 120.514 L
769.375 121.269 L
769.763 122.482 L
770.15 122.716 L
770.537 123.348 L
770.925 123.214 L
771.313 123.764 L
771.7 123.662 L
772.088 123.584 L
772.475 124.708 L
772.862 123.921 L
773.25 124.079 L
773.638 123.771 L
774.025 124.669 L
774.412 125.959 L
774.8 125.703 L
775.188 125.99 L
775.575 125.684 L
775.963 125.337 L
776.35 123.905 L
776.737 123.905 L
777.125 123.215 L
777.513 123.562 L
777.9 125.542 L
778.287 126.87 L
778.675 127.021 L
779.063 127.969 L
779.45 127.567 L
779.838 127.395 L
780.225 128.374 L
780.612 128.213 L
781 128.303 L
781.388 129.667 L
781.775 129.538 L
782.162 129.026 L
782.55 128.803 L
782.938 130.44 L
783.325 129.957 L
783.713 130.396 L
784.1 130.335 L
784.487 130.522 L
784.875 128.91 L
785.263 127.817 L
785.65 128.5 L
786.037 128.295 L
786.425 129.957 L
786.813 131.661 L
787.2 132.061 L
787.588 133.267 L
787.975 132.887 L
788.362 134.088 L
788.75 134.593 L
789.138 134.359 L
789.525 134.162 L
789.912 133.842 L
790.3 134.115 L
790.688 134.798 L
791.075 134.812 L
791.463 135.616 L
791.85 136.21 L
792.237 136.469 L
792.625 137.097 L
793.013 136.384 L
793.4 135.845 L
793.787 135.34 L
794.175 136.335 L
794.563 137.211 L
794.95 137.457 L
795.338 137.527 L
795.725 137.246 L
796.112 137.941 L
796.5 137.63 L
796.888 137.63 L
797.275 136.722 L
797.662 135.395 L
798.05 135.022 L
798.438 135.86 L
798.825 134.503 L
799.213 134.775 L
799.6 135.321 L
799.987 133.66 L
800.375 133.189 L
800.763 133.263 L
801.15 132.717 L
801.537 132.717 L
801.925 132.89 L
802.313 133.638 L
802.7 131.491 L
803.088 131.716 L
803.475 132.31 L
803.862 131.793 L
804.25 131.548 L
804.638 132.217 L
805.025 132.431 L
805.412 131.748 L
805.8 132.125 L
806.188 130.27 L
806.575 128.432 L
806.963 129.104 L
807.35 127.488 L
807.737 129.038 L
808.125 128.287 L
808.513 127.389 L
808.9 127.033 L
809.287 126.526 L
809.675 126.612 L
810.063 126.225 L
810.45 126.073 L
810.838 125.408 L
811.225 124.653 L
811.612 125.313 L
812 123.841 L
812.388 124.66 L
812.775 124.856 L
813.162 124.9 L
813.55 124.9 L
813.938 123.359 L
814.325 122.002 L
814.713 121.511 L
815.1 122.739 L
815.487 123.769 L
815.875 124.26 L
816.263 123.863 L
816.65 123.629 L
817.037 123.699 L
817.425 123.631 L
817.813 123.607 L
818.2 123.206 L
818.588 123.616 L
818.975 121.727 L
819.362 120.825 L
819.75 120.451 L
820.138 120.374 L
820.525 120.21 L
820.912 119.912 L
821.3 118.342 L
821.688 117.665 L
822.075 117.665 L
822.463 118.374 L
822.85 118.719 L
823.237 117.99 L
823.625 118.62 L
824.013 117.548 L
824.4 116.878 L
824.787 117.388 L
825.175 118.117 L
825.563 118.272 L
825.95 119.109 L
826.338 119.579 L
826.725 118.433 L
827.112 119.17 L
827.5 118.349 L
827.888 117.586 L
828.275 117.644 L
828.662 116.831 L
829.05 117.186 L
829.438 118.149 L
829.825 117.373 L
830.213 116.842 L
830.6 117.583 L
830.987 117.695 L
831.375 115.911 L
831.763 115.911 L
832.15 115.053 L
832.537 114.092 L
832.925 114.305 L
833.313 114.707 L
833.7 115.833 L
834.088 116.515 L
834.475 116.592 L
834.862 115.365 L
835.25 114.036 L
835.638 112.942 L
836.025 112.963 L
836.412 113.197 L
836.8 113.791 L
837.188 113.413 L
837.575 112.52 L
837.963 112.083 L
838.35 111.563 L
838.737 113.018 L
839.125 113.608 L
839.513 113.689 L
839.9 114.18 L
840.287 115.435 L
840.675 115.388 L
841.063 116.27 L
841.45 116.946 L
841.838 115.482 L
842.225 115.482 L
842.612 115.482 L
843 115.087 L
843.388 115.62 L
843.775 115.844 L
844.162 117.183 L
844.55 117.552 L
844.938 116.766 L
845.325 116.672 L
845.713 116.711 L
846.1 115.795 L
846.487 116.109 L
846.875 115.484 L
847.263 114.911 L
847.65 115.879 L
848.037 116.861 L
848.425 118.202 L
848.813 117.466 L
849.2 116.269 L
849.588 116.886 L
849.975 116.991 L
850.362 116.298 L
850.75 116.708 L
851.138 118.219 L
851.525 117.931 L
851.912 117.353 L
852.3 118.167 L
852.688 118.289 L
853.075 117.961 L
853.463 116.315 L
853.85 116.315 L
854.237 116.196 L
854.625 116.196 L
855.013 116.033 L
855.4 117.099 L
855.787 116.886 L
856.175 116.476 L
856.563 115.344 L
856.95 115.947 L
857.338 116.616 L
857.725 115.757 L
858.112 115.623 L
858.5 114.94 L
858.888 114.185 L
859.275 114.185 L
859.662 113.156 L
860.05 112.754 L
860.438 113.248 L
860.825 112.225 L
861.213 112.871 L
861.6 114.35 L
861.987 114.339 L
862.375 113.637 L
862.763 113.92 L
863.15 113.198 L
863.537 113.485 L
863.925 112.012 L
864.313 111.448 L
864.7 111.448 L
865.088 112.177 L
865.475 112.138 L
865.862 112.154 L
866.25 112.19 L
866.638 112.324 L
867.025 113.43 L
867.412 113.802 L
867.8 113.024 L
868.188 111.97 L
868.575 112.859 L
868.963 113.175 L
869.35 112.288 L
869.737 112.071 L
870.125 112.134 L
870.513 111.836 L
870.9 110.536 L
871.287 111.373 L
871.675 111.788 L
872.063 112.104 L
872.45 111.403 L
872.838 111.551 L
873.225 112.503 L
873.612 112.558 L
874 112.193 L
874.388 111.889 L
874.775 113.28 L
875.162 112.735 L
875.55 112.623 L
875.938 113.851 L
876.325 114.478 L
876.713 113.987 L
877.1 114.492 L
877.487 116.334 L
877.875 117.161 L
878.263 117.692 L
878.65 118.05 L
879.037 118.848 L
879.425 119.385 L
879.813 118.554 L
880.2 117.884 L
880.588 119.235 L
880.975 118.565 L
881.362 117.578 L
881.75 117.43 L
882.138 117.611 L
882.525 117.024 L
882.912 117.255 L
883.3 118.307 L
883.688 119.247 L
884.075 119.796 L
884.463 119.743 L
884.85 119.107 L
885.237 120.126 L
885.625 121.365 L
886.013 121.758 L
886.4 122.004 L
886.787 121.213 L
887.175 120.636 L
887.563 120.139 L
887.95 121.021 L
888.338 120.553 L
888.725 119.779 L
889.112 119.983 L
889.5 120.392 L
889.888 120.281 L
890.275 120.579 L
890.662 120.827 L
891.05 120.827 L
891.438 120.613 L
891.825 120.234 L
892.213 121.6 L
892.6 120.796 L
892.987 120.291 L
893.375 119.443 L
893.763 119.848 L
894.15 119.381 L
894.537 118.463 L
894.925 118.054 L
895.313 117.703 L
895.7 116.782 L
896.088 116.752 L
896.475 117.078 L
896.862 116.505 L
897.25 115.478 L
897.638 115.137 L
898.025 114.71 L
898.412 114.734 L
898.8 114.444 L
899.188 114.463 L
899.575 114.455 L
899.963 114.943 L
900.35 114.317 L
900.737 113.904 L
901.125 114.1 L
901.513 114.215 L
901.9 114.767 L
902.287 116.087 L
902.675 115.38 L
903.063 113.819 L
903.45 113.062 L
903.838 112.609 L
904.225 113.019 L
904.612 112.067 L
905 109.229 L
S
GR
%%Trailer
%%Pages: 1
%%EOF
