%!PS-Adobe-3.0 EPSF-3.0
%%Creator: (MATLAB, The Mathworks, Inc. Version 9.0.0.341360 \(R2016a\). Operating System: Linux)
%%Title: report/figures/sm_base_lin_geoprio3_ratio.eps
%%CreationDate: 2017-02-04T23:56:24
%%Pages: (atend)
%%BoundingBox:    59     4   910   325
%%LanguageLevel: 3
%%EndComments
%%BeginProlog
%%BeginResource: procset (Apache XML Graphics Std ProcSet) 1.2 0
%%Version: 1.2 0
%%Copyright: (Copyright 2001-2003,2010 The Apache Software Foundation. License terms: http://www.apache.org/licenses/LICENSE-2.0)
/bd{bind def}bind def
/ld{load def}bd
/GR/grestore ld
/M/moveto ld
/LJ/setlinejoin ld
/C/curveto ld
/f/fill ld
/LW/setlinewidth ld
/GC/setgray ld
/t/show ld
/N/newpath ld
/CT/concat ld
/cp/closepath ld
/S/stroke ld
/L/lineto ld
/CC/setcmykcolor ld
/A/ashow ld
/GS/gsave ld
/RC/setrgbcolor ld
/RM/rmoveto ld
/ML/setmiterlimit ld
/re {4 2 roll M
1 index 0 rlineto
0 exch rlineto
neg 0 rlineto
cp } bd
/_ctm matrix def
/_tm matrix def
/BT { _ctm currentmatrix pop matrix _tm copy pop 0 0 moveto } bd
/ET { _ctm setmatrix } bd
/iTm { _ctm setmatrix _tm concat } bd
/Tm { _tm astore pop iTm 0 0 moveto } bd
/ux 0.0 def
/uy 0.0 def
/F {
  /Tp exch def
  /Tf exch def
  Tf findfont Tp scalefont setfont
  /cf Tf def  /cs Tp def
} bd
/ULS {currentpoint /uy exch def /ux exch def} bd
/ULE {
  /Tcx currentpoint pop def
  gsave
  newpath
  cf findfont cs scalefont dup
  /FontMatrix get 0 get /Ts exch def /FontInfo get dup
  /UnderlinePosition get Ts mul /To exch def
  /UnderlineThickness get Ts mul /Tt exch def
  ux uy To add moveto  Tcx uy To add lineto
  Tt setlinewidth stroke
  grestore
} bd
/OLE {
  /Tcx currentpoint pop def
  gsave
  newpath
  cf findfont cs scalefont dup
  /FontMatrix get 0 get /Ts exch def /FontInfo get dup
  /UnderlinePosition get Ts mul /To exch def
  /UnderlineThickness get Ts mul /Tt exch def
  ux uy To add cs add moveto Tcx uy To add cs add lineto
  Tt setlinewidth stroke
  grestore
} bd
/SOE {
  /Tcx currentpoint pop def
  gsave
  newpath
  cf findfont cs scalefont dup
  /FontMatrix get 0 get /Ts exch def /FontInfo get dup
  /UnderlinePosition get Ts mul /To exch def
  /UnderlineThickness get Ts mul /Tt exch def
  ux uy To add cs 10 mul 26 idiv add moveto Tcx uy To add cs 10 mul 26 idiv add lineto
  Tt setlinewidth stroke
  grestore
} bd
/QT {
/Y22 exch store
/X22 exch store
/Y21 exch store
/X21 exch store
currentpoint
/Y21 load 2 mul add 3 div exch
/X21 load 2 mul add 3 div exch
/X21 load 2 mul /X22 load add 3 div
/Y21 load 2 mul /Y22 load add 3 div
/X22 load /Y22 load curveto
} bd
/SSPD {
dup length /d exch dict def
{
/v exch def
/k exch def
currentpagedevice k known {
/cpdv currentpagedevice k get def
v cpdv ne {
/upd false def
/nullv v type /nulltype eq def
/nullcpdv cpdv type /nulltype eq def
nullv nullcpdv or
{
/upd true def
} {
/sametype v type cpdv type eq def
sametype {
v type /arraytype eq {
/vlen v length def
/cpdvlen cpdv length def
vlen cpdvlen eq {
0 1 vlen 1 sub {
/i exch def
/obj v i get def
/cpdobj cpdv i get def
obj cpdobj ne {
/upd true def
exit
} if
} for
} {
/upd true def
} ifelse
} {
v type /dicttype eq {
v {
/dv exch def
/dk exch def
/cpddv cpdv dk get def
dv cpddv ne {
/upd true def
exit
} if
} forall
} {
/upd true def
} ifelse
} ifelse
} if
} ifelse
upd true eq {
d k v put
} if
} if
} if
} forall
d length 0 gt {
d setpagedevice
} if
} bd
%%EndResource
%%BeginResource: procset (Apache XML Graphics EPS ProcSet) 1.0 0
%%Version: 1.0 0
%%Copyright: (Copyright 2002-2003 The Apache Software Foundation. License terms: http://www.apache.org/licenses/LICENSE-2.0)
/BeginEPSF { %def
/b4_Inc_state save def         % Save state for cleanup
/dict_count countdictstack def % Count objects on dict stack
/op_count count 1 sub def      % Count objects on operand stack
userdict begin                 % Push userdict on dict stack
/showpage { } def              % Redefine showpage, { } = null proc
0 setgray 0 setlinecap         % Prepare graphics state
1 setlinewidth 0 setlinejoin
10 setmiterlimit [ ] 0 setdash newpath
/languagelevel where           % If level not equal to 1 then
{pop languagelevel             % set strokeadjust and
1 ne                           % overprint to their defaults.
{false setstrokeadjust false setoverprint
} if
} if
} bd
/EndEPSF { %def
count op_count sub {pop} repeat            % Clean up stacks
countdictstack dict_count sub {end} repeat
b4_Inc_state restore
} bd
%%EndResource
%%EndProlog
%%Page: 1 1
%%PageBoundingBox: 0 0 1000 350
%%BeginPageSetup
[1 0 0 -1 0 350] CT
%%EndPageSetup
GS
1 GC
N
0 0 1000 350 re
f
GR
GS
1 GC
N
0 0 1000 350 re
f
GR
GS
1 GC
N
130 289 M
905 289 L
905 26 L
130 26 L
cp
f
GR
GS
0.873 GC
1 LJ
0.5 LW
N
130 289 M
130 26 L
S
GR
GS
0.873 GC
1 LJ
0.5 LW
N
323.75 289 M
323.75 26 L
S
GR
GS
0.873 GC
1 LJ
0.5 LW
N
517.5 289 M
517.5 26 L
S
GR
GS
0.873 GC
1 LJ
0.5 LW
N
711.25 289 M
711.25 26 L
S
GR
GS
0.873 GC
1 LJ
0.5 LW
N
905 289 M
905 26 L
S
GR
GS
0.873 GC
1 LJ
0.5 LW
N
905 289 M
130 289 L
S
GR
GS
0.873 GC
1 LJ
0.5 LW
N
905 238.905 M
130 238.905 L
S
GR
GS
0.873 GC
1 LJ
0.5 LW
N
905 188.81 M
130 188.81 L
S
GR
GS
0.873 GC
1 LJ
0.5 LW
N
905 138.714 M
130 138.714 L
S
GR
GS
0.873 GC
1 LJ
0.5 LW
N
905 88.619 M
130 88.619 L
S
GR
GS
0.873 GC
1 LJ
0.5 LW
N
905 38.524 M
130 38.524 L
S
GR
GS
0.149 GC
2 setlinecap
1 LJ
0.5 LW
N
130 289 M
905 289 L
S
GR
GS
0.149 GC
2 setlinecap
1 LJ
0.5 LW
N
130 289 M
130 281.25 L
S
GR
GS
0.149 GC
2 setlinecap
1 LJ
0.5 LW
N
323.75 289 M
323.75 281.25 L
S
GR
GS
0.149 GC
2 setlinecap
1 LJ
0.5 LW
N
517.5 289 M
517.5 281.25 L
S
GR
GS
0.149 GC
2 setlinecap
1 LJ
0.5 LW
N
711.25 289 M
711.25 281.25 L
S
GR
GS
0.149 GC
2 setlinecap
1 LJ
0.5 LW
N
905 289 M
905 281.25 L
S
GR
GS
[1 0 0 1 130 295] CT
0.149 GC
N
-0.141 5.719 M
-1.672 5.719 -2.438 7.219 QT
-3.203 8.719 -3.203 11.719 QT
-3.203 14.719 -2.438 16.219 QT
-1.672 17.719 -0.141 17.719 QT
1.391 17.719 2.156 16.219 QT
2.922 14.719 2.922 11.719 QT
2.922 8.719 2.156 7.219 QT
1.391 5.719 -0.141 5.719 QT
cp
-0.141 4.156 M
2.313 4.156 3.602 6.094 QT
4.891 8.031 4.891 11.719 QT
4.891 15.406 3.602 17.344 QT
2.313 19.281 -0.141 19.281 QT
-2.594 19.281 -3.891 17.344 QT
-5.188 15.406 -5.188 11.719 QT
-5.188 8.031 -3.891 6.094 QT
-2.594 4.156 -0.141 4.156 QT
cp
f
GR
GS
[1 0 0 1 323.75 295] CT
0.149 GC
N
-9.641 5.719 M
-11.172 5.719 -11.938 7.219 QT
-12.703 8.719 -12.703 11.719 QT
-12.703 14.719 -11.938 16.219 QT
-11.172 17.719 -9.641 17.719 QT
-8.109 17.719 -7.344 16.219 QT
-6.578 14.719 -6.578 11.719 QT
-6.578 8.719 -7.344 7.219 QT
-8.109 5.719 -9.641 5.719 QT
cp
-9.641 4.156 M
-7.188 4.156 -5.898 6.094 QT
-4.609 8.031 -4.609 11.719 QT
-4.609 15.406 -5.898 17.344 QT
-7.188 19.281 -9.641 19.281 QT
-12.094 19.281 -13.391 17.344 QT
-14.688 15.406 -14.688 11.719 QT
-14.688 8.031 -13.391 6.094 QT
-12.094 4.156 -9.641 4.156 QT
cp
-1.135 16.516 M
0.928 16.516 L
0.928 19 L
-1.135 19 L
-1.135 16.516 L
cp
5.238 4.422 M
12.988 4.422 L
12.988 6.078 L
7.051 6.078 L
7.051 9.656 L
7.473 9.5 7.902 9.43 QT
8.332 9.359 8.77 9.359 QT
11.207 9.359 12.637 10.695 QT
14.066 12.031 14.066 14.328 QT
14.066 16.672 12.598 17.977 QT
11.129 19.281 8.457 19.281 QT
7.551 19.281 6.598 19.125 QT
5.645 18.969 4.629 18.656 QT
4.629 16.672 L
5.504 17.156 6.441 17.391 QT
7.379 17.625 8.426 17.625 QT
10.113 17.625 11.098 16.734 QT
12.082 15.844 12.082 14.328 QT
12.082 12.797 11.098 11.906 QT
10.113 11.016 8.426 11.016 QT
7.629 11.016 6.848 11.195 QT
6.066 11.375 5.238 11.75 QT
5.238 4.422 L
cp
f
GR
GS
[1 0 0 1 517.5 295] CT
0.149 GC
N
-4.016 17.344 M
-0.797 17.344 L
-0.797 6.219 L
-4.297 6.922 L
-4.297 5.125 L
-0.813 4.422 L
1.156 4.422 L
1.156 17.344 L
4.375 17.344 L
4.375 19 L
-4.016 19 L
-4.016 17.344 L
cp
f
GR
GS
[1 0 0 1 711.25 295] CT
0.149 GC
N
-13.516 17.344 M
-10.297 17.344 L
-10.297 6.219 L
-13.797 6.922 L
-13.797 5.125 L
-10.313 4.422 L
-8.344 4.422 L
-8.344 17.344 L
-5.125 17.344 L
-5.125 19 L
-13.516 19 L
-13.516 17.344 L
cp
-1.135 16.516 M
0.928 16.516 L
0.928 19 L
-1.135 19 L
-1.135 16.516 L
cp
5.238 4.422 M
12.988 4.422 L
12.988 6.078 L
7.051 6.078 L
7.051 9.656 L
7.473 9.5 7.902 9.43 QT
8.332 9.359 8.77 9.359 QT
11.207 9.359 12.637 10.695 QT
14.066 12.031 14.066 14.328 QT
14.066 16.672 12.598 17.977 QT
11.129 19.281 8.457 19.281 QT
7.551 19.281 6.598 19.125 QT
5.645 18.969 4.629 18.656 QT
4.629 16.672 L
5.504 17.156 6.441 17.391 QT
7.379 17.625 8.426 17.625 QT
10.113 17.625 11.098 16.734 QT
12.082 15.844 12.082 14.328 QT
12.082 12.797 11.098 11.906 QT
10.113 11.016 8.426 11.016 QT
7.629 11.016 6.848 11.195 QT
6.066 11.375 5.238 11.75 QT
5.238 4.422 L
cp
f
GR
GS
[1 0 0 1 905 295] CT
0.149 GC
N
-2.656 17.344 M
4.219 17.344 L
4.219 19 L
-5.031 19 L
-5.031 17.344 L
-3.906 16.172 -1.969 14.219 QT
-0.031 12.266 0.469 11.688 QT
1.406 10.625 1.781 9.891 QT
2.156 9.156 2.156 8.438 QT
2.156 7.281 1.344 6.547 QT
0.531 5.813 -0.781 5.813 QT
-1.703 5.813 -2.734 6.133 QT
-3.766 6.453 -4.938 7.109 QT
-4.938 5.125 L
-3.75 4.641 -2.711 4.398 QT
-1.672 4.156 -0.813 4.156 QT
1.453 4.156 2.797 5.289 QT
4.141 6.422 4.141 8.313 QT
4.141 9.219 3.805 10.023 QT
3.469 10.828 2.578 11.922 QT
2.344 12.203 1.031 13.555 QT
-0.281 14.906 -2.656 17.344 QT
cp
f
GR
GS
[1 0 0 1 517.50037 320] CT
0.149 GC
N
-14.25 9.328 M
-14.25 11.188 L
-15.094 10.766 -16 10.547 QT
-16.906 10.328 -17.859 10.328 QT
-19.344 10.328 -20.078 10.781 QT
-20.813 11.234 -20.813 12.141 QT
-20.813 12.828 -20.281 13.219 QT
-19.75 13.609 -18.172 13.969 QT
-17.484 14.109 L
-15.391 14.563 -14.5 15.383 QT
-13.609 16.203 -13.609 17.688 QT
-13.609 19.359 -14.938 20.336 QT
-16.266 21.313 -18.578 21.313 QT
-19.547 21.313 -20.594 21.125 QT
-21.641 20.938 -22.813 20.563 QT
-22.813 18.516 L
-21.719 19.094 -20.648 19.375 QT
-19.578 19.656 -18.547 19.656 QT
-17.141 19.656 -16.391 19.18 QT
-15.641 18.703 -15.641 17.828 QT
-15.641 17.031 -16.188 16.602 QT
-16.734 16.172 -18.563 15.766 QT
-19.25 15.609 L
-21.094 15.219 -21.906 14.422 QT
-22.719 13.625 -22.719 12.219 QT
-22.719 10.531 -21.516 9.602 QT
-20.313 8.672 -18.109 8.672 QT
-17 8.672 -16.039 8.836 QT
-15.078 9 -14.25 9.328 QT
cp
-8.507 5.547 M
-8.507 8.969 L
-4.444 8.969 L
-4.444 10.5 L
-8.507 10.5 L
-8.507 17.031 L
-8.507 18.5 -8.108 18.922 QT
-7.71 19.344 -6.476 19.344 QT
-4.444 19.344 L
-4.444 21 L
-6.476 21 L
-8.757 21 -9.624 20.148 QT
-10.491 19.297 -10.491 17.031 QT
-10.491 10.5 L
-11.944 10.5 L
-11.944 8.969 L
-10.491 8.969 L
-10.491 5.547 L
-8.507 5.547 L
cp
8.447 14.484 M
8.447 15.453 L
-0.631 15.453 L
-0.506 17.5 0.596 18.57 QT
1.697 19.641 3.666 19.641 QT
4.807 19.641 5.869 19.359 QT
6.932 19.078 7.994 18.516 QT
7.994 20.391 L
6.932 20.844 5.814 21.078 QT
4.697 21.313 3.541 21.313 QT
0.666 21.313 -1.014 19.633 QT
-2.693 17.953 -2.693 15.109 QT
-2.693 12.141 -1.1 10.406 QT
0.494 8.672 3.197 8.672 QT
5.635 8.672 7.041 10.234 QT
8.447 11.797 8.447 14.484 QT
cp
6.479 13.906 M
6.447 12.281 5.564 11.32 QT
4.682 10.359 3.229 10.359 QT
1.572 10.359 0.572 11.289 QT
-0.428 12.219 -0.568 13.922 QT
6.479 13.906 L
cp
13.607 19.188 M
13.607 25.578 L
11.623 25.578 L
11.623 8.969 L
13.607 8.969 L
13.607 10.797 L
14.232 9.719 15.186 9.195 QT
16.139 8.672 17.451 8.672 QT
19.639 8.672 21.014 10.414 QT
22.389 12.156 22.389 15 QT
22.389 17.828 21.014 19.57 QT
19.639 21.313 17.451 21.313 QT
16.139 21.313 15.186 20.789 QT
14.232 20.266 13.607 19.188 QT
cp
20.326 15 M
20.326 12.813 19.436 11.57 QT
18.545 10.328 16.967 10.328 QT
15.404 10.328 14.506 11.57 QT
13.607 12.813 13.607 15 QT
13.607 17.172 14.506 18.414 QT
15.404 19.656 16.967 19.656 QT
18.545 19.656 19.436 18.414 QT
20.326 17.172 20.326 15 QT
cp
f
GR
GS
[1 0 0 1 852 345] CT
0.149 GC
N
2.938 -0.578 M
2.938 -0.734 3.031 -0.859 QT
7.203 -5 L
3.031 -9.156 L
2.938 -9.266 2.938 -9.422 QT
2.938 -9.578 3.055 -9.703 QT
3.172 -9.828 3.344 -9.828 QT
3.484 -9.828 3.641 -9.703 QT
7.781 -5.563 L
11.906 -9.703 L
12.078 -9.828 12.203 -9.828 QT
12.359 -9.828 12.477 -9.711 QT
12.594 -9.594 12.594 -9.422 QT
12.594 -9.266 12.5 -9.156 QT
8.344 -5 L
12.5 -0.859 L
12.594 -0.734 12.594 -0.578 QT
12.594 -0.406 12.477 -0.289 QT
12.359 -0.172 12.203 -0.172 QT
12.047 -0.172 11.906 -0.328 QT
7.781 -4.438 L
3.641 -0.328 L
3.5 -0.172 3.344 -0.172 QT
3.172 -0.172 3.055 -0.305 QT
2.938 -0.438 2.938 -0.578 QT
cp
f
GR
GS
[1 0 0 1 868 345] CT
0.149 GC
N
2.484 -1.656 M
5.703 -1.656 L
5.703 -12.781 L
2.203 -12.078 L
2.203 -13.875 L
5.688 -14.578 L
7.656 -14.578 L
7.656 -1.656 L
10.875 -1.656 L
10.875 0 L
2.484 0 L
2.484 -1.656 L
cp
19.084 -13.281 M
17.553 -13.281 16.787 -11.781 QT
16.021 -10.281 16.021 -7.281 QT
16.021 -4.281 16.787 -2.781 QT
17.553 -1.281 19.084 -1.281 QT
20.615 -1.281 21.381 -2.781 QT
22.146 -4.281 22.146 -7.281 QT
22.146 -10.281 21.381 -11.781 QT
20.615 -13.281 19.084 -13.281 QT
cp
19.084 -14.844 M
21.537 -14.844 22.826 -12.906 QT
24.115 -10.969 24.115 -7.281 QT
24.115 -3.594 22.826 -1.656 QT
21.537 0.281 19.084 0.281 QT
16.631 0.281 15.334 -1.656 QT
14.037 -3.594 14.037 -7.281 QT
14.037 -10.969 15.334 -12.906 QT
16.631 -14.844 19.084 -14.844 QT
cp
f
GR
GS
[1 0 0 1 894 335] CT
0.149 GC
N
5.281 -6.469 M
4.219 -6.469 3.602 -5.742 QT
2.984 -5.016 2.984 -3.75 QT
2.984 -2.484 3.602 -1.758 QT
4.219 -1.031 5.281 -1.031 QT
6.344 -1.031 6.969 -1.758 QT
7.594 -2.484 7.594 -3.75 QT
7.594 -5.016 6.969 -5.742 QT
6.344 -6.469 5.281 -6.469 QT
cp
8.422 -11.406 M
8.422 -9.969 L
7.828 -10.25 7.219 -10.398 QT
6.609 -10.547 6.016 -10.547 QT
4.453 -10.547 3.633 -9.492 QT
2.813 -8.438 2.688 -6.313 QT
3.156 -6.984 3.852 -7.352 QT
4.547 -7.719 5.375 -7.719 QT
7.141 -7.719 8.156 -6.648 QT
9.172 -5.578 9.172 -3.75 QT
9.172 -1.953 8.109 -0.859 QT
7.047 0.234 5.281 0.234 QT
3.266 0.234 2.195 -1.32 QT
1.125 -2.875 1.125 -5.828 QT
1.125 -8.594 2.438 -10.234 QT
3.75 -11.875 5.953 -11.875 QT
6.547 -11.875 7.156 -11.758 QT
7.766 -11.641 8.422 -11.406 QT
cp
f
GR
GS
0.149 GC
2 setlinecap
1 LJ
0.5 LW
N
130 289 M
130 26 L
S
GR
GS
0.149 GC
2 setlinecap
1 LJ
0.5 LW
N
130 289 M
137.75 289 L
S
GR
GS
0.149 GC
2 setlinecap
1 LJ
0.5 LW
N
130 238.905 M
137.75 238.905 L
S
GR
GS
0.149 GC
2 setlinecap
1 LJ
0.5 LW
N
130 188.81 M
137.75 188.81 L
S
GR
GS
0.149 GC
2 setlinecap
1 LJ
0.5 LW
N
130 138.714 M
137.75 138.714 L
S
GR
GS
0.149 GC
2 setlinecap
1 LJ
0.5 LW
N
130 88.619 M
137.75 88.619 L
S
GR
GS
0.149 GC
2 setlinecap
1 LJ
0.5 LW
N
130 38.524 M
137.75 38.524 L
S
GR
GS
[1 0 0 1 124 289] CT
0.149 GC
N
-6.641 -6.281 M
-8.172 -6.281 -8.938 -4.781 QT
-9.703 -3.281 -9.703 -0.281 QT
-9.703 2.719 -8.938 4.219 QT
-8.172 5.719 -6.641 5.719 QT
-5.109 5.719 -4.344 4.219 QT
-3.578 2.719 -3.578 -0.281 QT
-3.578 -3.281 -4.344 -4.781 QT
-5.109 -6.281 -6.641 -6.281 QT
cp
-6.641 -7.844 M
-4.188 -7.844 -2.898 -5.906 QT
-1.609 -3.969 -1.609 -0.281 QT
-1.609 3.406 -2.898 5.344 QT
-4.188 7.281 -6.641 7.281 QT
-9.094 7.281 -10.391 5.344 QT
-11.688 3.406 -11.688 -0.281 QT
-11.688 -3.969 -10.391 -5.906 QT
-9.094 -7.844 -6.641 -7.844 QT
cp
f
GR
GS
[1 0 0 1 124 238.90475] CT
0.149 GC
N
-22.156 5.344 M
-15.281 5.344 L
-15.281 7 L
-24.531 7 L
-24.531 5.344 L
-23.406 4.172 -21.469 2.219 QT
-19.531 0.266 -19.031 -0.313 QT
-18.094 -1.375 -17.719 -2.109 QT
-17.344 -2.844 -17.344 -3.563 QT
-17.344 -4.719 -18.156 -5.453 QT
-18.969 -6.188 -20.281 -6.188 QT
-21.203 -6.188 -22.234 -5.867 QT
-23.266 -5.547 -24.438 -4.891 QT
-24.438 -6.875 L
-23.25 -7.359 -22.211 -7.602 QT
-21.172 -7.844 -20.313 -7.844 QT
-18.047 -7.844 -16.703 -6.711 QT
-15.359 -5.578 -15.359 -3.688 QT
-15.359 -2.781 -15.695 -1.977 QT
-16.031 -1.172 -16.922 -0.078 QT
-17.156 0.203 -18.469 1.555 QT
-19.781 2.906 -22.156 5.344 QT
cp
-6.916 -6.281 M
-8.447 -6.281 -9.213 -4.781 QT
-9.979 -3.281 -9.979 -0.281 QT
-9.979 2.719 -9.213 4.219 QT
-8.447 5.719 -6.916 5.719 QT
-5.385 5.719 -4.619 4.219 QT
-3.854 2.719 -3.854 -0.281 QT
-3.854 -3.281 -4.619 -4.781 QT
-5.385 -6.281 -6.916 -6.281 QT
cp
-6.916 -7.844 M
-4.463 -7.844 -3.174 -5.906 QT
-1.885 -3.969 -1.885 -0.281 QT
-1.885 3.406 -3.174 5.344 QT
-4.463 7.281 -6.916 7.281 QT
-9.369 7.281 -10.666 5.344 QT
-11.963 3.406 -11.963 -0.281 QT
-11.963 -3.969 -10.666 -5.906 QT
-9.369 -7.844 -6.916 -7.844 QT
cp
f
GR
GS
[1 0 0 1 124 188.80952] CT
0.149 GC
N
-18.438 -5.859 M
-23.422 1.922 L
-18.438 1.922 L
-18.438 -5.859 L
cp
-18.953 -7.578 M
-16.484 -7.578 L
-16.484 1.922 L
-14.391 1.922 L
-14.391 3.563 L
-16.484 3.563 L
-16.484 7 L
-18.438 7 L
-18.438 3.563 L
-25.016 3.563 L
-25.016 1.656 L
-18.953 -7.578 L
cp
-6.916 -6.281 M
-8.447 -6.281 -9.213 -4.781 QT
-9.979 -3.281 -9.979 -0.281 QT
-9.979 2.719 -9.213 4.219 QT
-8.447 5.719 -6.916 5.719 QT
-5.385 5.719 -4.619 4.219 QT
-3.854 2.719 -3.854 -0.281 QT
-3.854 -3.281 -4.619 -4.781 QT
-5.385 -6.281 -6.916 -6.281 QT
cp
-6.916 -7.844 M
-4.463 -7.844 -3.174 -5.906 QT
-1.885 -3.969 -1.885 -0.281 QT
-1.885 3.406 -3.174 5.344 QT
-4.463 7.281 -6.916 7.281 QT
-9.369 7.281 -10.666 5.344 QT
-11.963 3.406 -11.963 -0.281 QT
-11.963 -3.969 -10.666 -5.906 QT
-9.369 -7.844 -6.916 -7.844 QT
cp
f
GR
GS
[1 0 0 1 124 138.71428] CT
0.149 GC
N
-19.391 -1.078 M
-20.719 -1.078 -21.5 -0.172 QT
-22.281 0.734 -22.281 2.328 QT
-22.281 3.891 -21.5 4.805 QT
-20.719 5.719 -19.391 5.719 QT
-18.063 5.719 -17.289 4.805 QT
-16.516 3.891 -16.516 2.328 QT
-16.516 0.734 -17.289 -0.172 QT
-18.063 -1.078 -19.391 -1.078 QT
cp
-15.484 -7.266 M
-15.484 -5.469 L
-16.219 -5.813 -16.977 -6 QT
-17.734 -6.188 -18.484 -6.188 QT
-20.438 -6.188 -21.469 -4.867 QT
-22.5 -3.547 -22.641 -0.875 QT
-22.063 -1.734 -21.195 -2.188 QT
-20.328 -2.641 -19.281 -2.641 QT
-17.078 -2.641 -15.805 -1.305 QT
-14.531 0.031 -14.531 2.328 QT
-14.531 4.563 -15.859 5.922 QT
-17.188 7.281 -19.391 7.281 QT
-21.922 7.281 -23.266 5.344 QT
-24.609 3.406 -24.609 -0.281 QT
-24.609 -3.734 -22.969 -5.789 QT
-21.328 -7.844 -18.563 -7.844 QT
-17.813 -7.844 -17.055 -7.695 QT
-16.297 -7.547 -15.484 -7.266 QT
cp
-6.916 -6.281 M
-8.447 -6.281 -9.213 -4.781 QT
-9.979 -3.281 -9.979 -0.281 QT
-9.979 2.719 -9.213 4.219 QT
-8.447 5.719 -6.916 5.719 QT
-5.385 5.719 -4.619 4.219 QT
-3.854 2.719 -3.854 -0.281 QT
-3.854 -3.281 -4.619 -4.781 QT
-5.385 -6.281 -6.916 -6.281 QT
cp
-6.916 -7.844 M
-4.463 -7.844 -3.174 -5.906 QT
-1.885 -3.969 -1.885 -0.281 QT
-1.885 3.406 -3.174 5.344 QT
-4.463 7.281 -6.916 7.281 QT
-9.369 7.281 -10.666 5.344 QT
-11.963 3.406 -11.963 -0.281 QT
-11.963 -3.969 -10.666 -5.906 QT
-9.369 -7.844 -6.916 -7.844 QT
cp
f
GR
GS
[1 0 0 1 124 88.61905] CT
0.149 GC
N
-19.641 0.078 M
-21.047 0.078 -21.852 0.828 QT
-22.656 1.578 -22.656 2.891 QT
-22.656 4.219 -21.852 4.969 QT
-21.047 5.719 -19.641 5.719 QT
-18.234 5.719 -17.422 4.961 QT
-16.609 4.203 -16.609 2.891 QT
-16.609 1.578 -17.414 0.828 QT
-18.219 0.078 -19.641 0.078 QT
cp
-21.609 -0.766 M
-22.891 -1.078 -23.594 -1.945 QT
-24.297 -2.813 -24.297 -4.063 QT
-24.297 -5.813 -23.055 -6.828 QT
-21.813 -7.844 -19.641 -7.844 QT
-17.469 -7.844 -16.227 -6.828 QT
-14.984 -5.813 -14.984 -4.063 QT
-14.984 -2.813 -15.695 -1.945 QT
-16.406 -1.078 -17.656 -0.766 QT
-16.234 -0.438 -15.438 0.531 QT
-14.641 1.5 -14.641 2.891 QT
-14.641 5.016 -15.938 6.148 QT
-17.234 7.281 -19.641 7.281 QT
-22.047 7.281 -23.344 6.148 QT
-24.641 5.016 -24.641 2.891 QT
-24.641 1.5 -23.844 0.531 QT
-23.047 -0.438 -21.609 -0.766 QT
cp
-22.344 -3.875 M
-22.344 -2.75 -21.633 -2.117 QT
-20.922 -1.484 -19.641 -1.484 QT
-18.375 -1.484 -17.656 -2.117 QT
-16.938 -2.75 -16.938 -3.875 QT
-16.938 -5.016 -17.656 -5.648 QT
-18.375 -6.281 -19.641 -6.281 QT
-20.922 -6.281 -21.633 -5.648 QT
-22.344 -5.016 -22.344 -3.875 QT
cp
-6.916 -6.281 M
-8.447 -6.281 -9.213 -4.781 QT
-9.979 -3.281 -9.979 -0.281 QT
-9.979 2.719 -9.213 4.219 QT
-8.447 5.719 -6.916 5.719 QT
-5.385 5.719 -4.619 4.219 QT
-3.854 2.719 -3.854 -0.281 QT
-3.854 -3.281 -4.619 -4.781 QT
-5.385 -6.281 -6.916 -6.281 QT
cp
-6.916 -7.844 M
-4.463 -7.844 -3.174 -5.906 QT
-1.885 -3.969 -1.885 -0.281 QT
-1.885 3.406 -3.174 5.344 QT
-4.463 7.281 -6.916 7.281 QT
-9.369 7.281 -10.666 5.344 QT
-11.963 3.406 -11.963 -0.281 QT
-11.963 -3.969 -10.666 -5.906 QT
-9.369 -7.844 -6.916 -7.844 QT
cp
f
GR
GS
[1 0 0 1 124 38.52381] CT
0.149 GC
N
-36.516 5.344 M
-33.297 5.344 L
-33.297 -5.781 L
-36.797 -5.078 L
-36.797 -6.875 L
-33.313 -7.578 L
-31.344 -7.578 L
-31.344 5.344 L
-28.125 5.344 L
-28.125 7 L
-36.516 7 L
-36.516 5.344 L
cp
-19.916 -6.281 M
-21.447 -6.281 -22.213 -4.781 QT
-22.979 -3.281 -22.979 -0.281 QT
-22.979 2.719 -22.213 4.219 QT
-21.447 5.719 -19.916 5.719 QT
-18.385 5.719 -17.619 4.219 QT
-16.854 2.719 -16.854 -0.281 QT
-16.854 -3.281 -17.619 -4.781 QT
-18.385 -6.281 -19.916 -6.281 QT
cp
-19.916 -7.844 M
-17.463 -7.844 -16.174 -5.906 QT
-14.885 -3.969 -14.885 -0.281 QT
-14.885 3.406 -16.174 5.344 QT
-17.463 7.281 -19.916 7.281 QT
-22.369 7.281 -23.666 5.344 QT
-24.963 3.406 -24.963 -0.281 QT
-24.963 -3.969 -23.666 -5.906 QT
-22.369 -7.844 -19.916 -7.844 QT
cp
-7.191 -6.281 M
-8.723 -6.281 -9.488 -4.781 QT
-10.254 -3.281 -10.254 -0.281 QT
-10.254 2.719 -9.488 4.219 QT
-8.723 5.719 -7.191 5.719 QT
-5.66 5.719 -4.895 4.219 QT
-4.129 2.719 -4.129 -0.281 QT
-4.129 -3.281 -4.895 -4.781 QT
-5.66 -6.281 -7.191 -6.281 QT
cp
-7.191 -7.844 M
-4.738 -7.844 -3.449 -5.906 QT
-2.16 -3.969 -2.16 -0.281 QT
-2.16 3.406 -3.449 5.344 QT
-4.738 7.281 -7.191 7.281 QT
-9.645 7.281 -10.941 5.344 QT
-12.238 3.406 -12.238 -0.281 QT
-12.238 -3.969 -10.941 -5.906 QT
-9.645 -7.844 -7.191 -7.844 QT
cp
f
GR
GS
[0 -1 1 0 82 157.49988] CT
0.149 GC
N
-113.063 -22.031 M
-99.5 -22.031 L
-99.5 -20.219 L
-105.188 -20.219 L
-105.188 -6 L
-107.375 -6 L
-107.375 -20.219 L
-113.063 -20.219 L
-113.063 -22.031 L
cp
-92.015 -12.047 M
-94.421 -12.047 -95.343 -11.5 QT
-96.265 -10.953 -96.265 -9.625 QT
-96.265 -8.578 -95.569 -7.961 QT
-94.874 -7.344 -93.687 -7.344 QT
-92.046 -7.344 -91.054 -8.508 QT
-90.062 -9.672 -90.062 -11.609 QT
-90.062 -12.047 L
-92.015 -12.047 L
cp
-88.077 -12.859 M
-88.077 -6 L
-90.062 -6 L
-90.062 -7.828 L
-90.733 -6.734 -91.741 -6.211 QT
-92.749 -5.688 -94.218 -5.688 QT
-96.062 -5.688 -97.147 -6.727 QT
-98.233 -7.766 -98.233 -9.5 QT
-98.233 -11.531 -96.874 -12.563 QT
-95.515 -13.594 -92.827 -13.594 QT
-90.062 -13.594 L
-90.062 -13.781 L
-90.062 -15.156 -90.952 -15.898 QT
-91.843 -16.641 -93.468 -16.641 QT
-94.499 -16.641 -95.476 -16.398 QT
-96.452 -16.156 -97.358 -15.656 QT
-97.358 -17.484 L
-96.28 -17.906 -95.257 -18.117 QT
-94.233 -18.328 -93.265 -18.328 QT
-90.655 -18.328 -89.366 -16.969 QT
-88.077 -15.609 -88.077 -12.859 QT
cp
-77.033 -16.188 M
-77.361 -16.375 -77.76 -16.469 QT
-78.158 -16.563 -78.627 -16.563 QT
-80.299 -16.563 -81.197 -15.469 QT
-82.096 -14.375 -82.096 -12.344 QT
-82.096 -6 L
-84.08 -6 L
-84.08 -18.031 L
-82.096 -18.031 L
-82.096 -16.156 L
-81.471 -17.266 -80.471 -17.797 QT
-79.471 -18.328 -78.049 -18.328 QT
-77.846 -18.328 -77.596 -18.297 QT
-77.346 -18.266 -77.049 -18.219 QT
-77.033 -16.188 L
cp
-67.051 -12.156 M
-67.051 -14.297 -67.934 -15.484 QT
-68.816 -16.672 -70.41 -16.672 QT
-72.004 -16.672 -72.895 -15.484 QT
-73.785 -14.297 -73.785 -12.156 QT
-73.785 -10.016 -72.895 -8.836 QT
-72.004 -7.656 -70.41 -7.656 QT
-68.816 -7.656 -67.934 -8.836 QT
-67.051 -10.016 -67.051 -12.156 QT
cp
-65.066 -7.5 M
-65.066 -4.422 -66.434 -2.922 QT
-67.801 -1.422 -70.613 -1.422 QT
-71.66 -1.422 -72.582 -1.578 QT
-73.504 -1.734 -74.363 -2.063 QT
-74.363 -3.984 L
-73.504 -3.5 -72.652 -3.281 QT
-71.801 -3.063 -70.926 -3.063 QT
-68.973 -3.063 -68.012 -4.078 QT
-67.051 -5.094 -67.051 -7.141 QT
-67.051 -8.109 L
-67.66 -7.047 -68.613 -6.523 QT
-69.566 -6 -70.895 -6 QT
-73.113 -6 -74.465 -7.688 QT
-75.816 -9.375 -75.816 -12.156 QT
-75.816 -14.953 -74.465 -16.641 QT
-73.113 -18.328 -70.895 -18.328 QT
-69.566 -18.328 -68.613 -17.797 QT
-67.66 -17.266 -67.051 -16.203 QT
-67.051 -18.031 L
-65.066 -18.031 L
-65.066 -7.5 L
cp
-50.711 -12.516 M
-50.711 -11.547 L
-59.789 -11.547 L
-59.664 -9.5 -58.563 -8.43 QT
-57.461 -7.359 -55.492 -7.359 QT
-54.352 -7.359 -53.289 -7.641 QT
-52.227 -7.922 -51.164 -8.484 QT
-51.164 -6.609 L
-52.227 -6.156 -53.344 -5.922 QT
-54.461 -5.688 -55.617 -5.688 QT
-58.492 -5.688 -60.172 -7.367 QT
-61.852 -9.047 -61.852 -11.891 QT
-61.852 -14.859 -60.258 -16.594 QT
-58.664 -18.328 -55.961 -18.328 QT
-53.523 -18.328 -52.117 -16.766 QT
-50.711 -15.203 -50.711 -12.516 QT
cp
-52.68 -13.094 M
-52.711 -14.719 -53.594 -15.68 QT
-54.477 -16.641 -55.93 -16.641 QT
-57.586 -16.641 -58.586 -15.711 QT
-59.586 -14.781 -59.727 -13.078 QT
-52.68 -13.094 L
cp
-45.504 -21.453 M
-45.504 -18.031 L
-41.441 -18.031 L
-41.441 -16.5 L
-45.504 -16.5 L
-45.504 -9.969 L
-45.504 -8.5 -45.105 -8.078 QT
-44.707 -7.656 -43.473 -7.656 QT
-41.441 -7.656 L
-41.441 -6 L
-43.473 -6 L
-45.754 -6 -46.621 -6.852 QT
-47.488 -7.703 -47.488 -9.969 QT
-47.488 -16.5 L
-48.941 -16.5 L
-48.941 -18.031 L
-47.488 -18.031 L
-47.488 -21.453 L
-45.504 -21.453 L
cp
-31.159 -17.672 M
-31.159 -15.813 L
-32.003 -16.234 -32.909 -16.453 QT
-33.815 -16.672 -34.769 -16.672 QT
-36.253 -16.672 -36.987 -16.219 QT
-37.722 -15.766 -37.722 -14.859 QT
-37.722 -14.172 -37.19 -13.781 QT
-36.659 -13.391 -35.081 -13.031 QT
-34.394 -12.891 L
-32.3 -12.438 -31.409 -11.617 QT
-30.519 -10.797 -30.519 -9.313 QT
-30.519 -7.641 -31.847 -6.664 QT
-33.175 -5.688 -35.487 -5.688 QT
-36.456 -5.688 -37.503 -5.875 QT
-38.55 -6.063 -39.722 -6.438 QT
-39.722 -8.484 L
-38.628 -7.906 -37.558 -7.625 QT
-36.487 -7.344 -35.456 -7.344 QT
-34.05 -7.344 -33.3 -7.82 QT
-32.55 -8.297 -32.55 -9.172 QT
-32.55 -9.969 -33.097 -10.398 QT
-33.644 -10.828 -35.472 -11.234 QT
-36.159 -11.391 L
-38.003 -11.781 -38.815 -12.578 QT
-39.628 -13.375 -39.628 -14.781 QT
-39.628 -16.469 -38.425 -17.398 QT
-37.222 -18.328 -35.019 -18.328 QT
-33.909 -18.328 -32.948 -18.164 QT
-31.987 -18 -31.159 -17.672 QT
cp
-13.407 -16.188 M
-13.735 -16.375 -14.134 -16.469 QT
-14.532 -16.563 -15.001 -16.563 QT
-16.673 -16.563 -17.571 -15.469 QT
-18.47 -14.375 -18.47 -12.344 QT
-18.47 -6 L
-20.454 -6 L
-20.454 -18.031 L
-18.47 -18.031 L
-18.47 -16.156 L
-17.845 -17.266 -16.845 -17.797 QT
-15.845 -18.328 -14.423 -18.328 QT
-14.22 -18.328 -13.97 -18.297 QT
-13.72 -18.266 -13.423 -18.219 QT
-13.407 -16.188 L
cp
-1.05 -12.516 M
-1.05 -11.547 L
-10.128 -11.547 L
-10.003 -9.5 -8.901 -8.43 QT
-7.8 -7.359 -5.831 -7.359 QT
-4.69 -7.359 -3.628 -7.641 QT
-2.565 -7.922 -1.503 -8.484 QT
-1.503 -6.609 L
-2.565 -6.156 -3.683 -5.922 QT
-4.8 -5.688 -5.956 -5.688 QT
-8.831 -5.688 -10.511 -7.367 QT
-12.19 -9.047 -12.19 -11.891 QT
-12.19 -14.859 -10.597 -16.594 QT
-9.003 -18.328 -6.3 -18.328 QT
-3.862 -18.328 -2.456 -16.766 QT
-1.05 -15.203 -1.05 -12.516 QT
cp
-3.019 -13.094 M
-3.05 -14.719 -3.933 -15.68 QT
-4.815 -16.641 -6.269 -16.641 QT
-7.925 -16.641 -8.925 -15.711 QT
-9.925 -14.781 -10.065 -13.078 QT
-3.019 -13.094 L
cp
7.673 -12.047 M
5.267 -12.047 4.345 -11.5 QT
3.423 -10.953 3.423 -9.625 QT
3.423 -8.578 4.118 -7.961 QT
4.813 -7.344 6.001 -7.344 QT
7.642 -7.344 8.634 -8.508 QT
9.626 -9.672 9.626 -11.609 QT
9.626 -12.047 L
7.673 -12.047 L
cp
11.61 -12.859 M
11.61 -6 L
9.626 -6 L
9.626 -7.828 L
8.954 -6.734 7.946 -6.211 QT
6.938 -5.688 5.47 -5.688 QT
3.626 -5.688 2.54 -6.727 QT
1.454 -7.766 1.454 -9.5 QT
1.454 -11.531 2.813 -12.563 QT
4.173 -13.594 6.86 -13.594 QT
9.626 -13.594 L
9.626 -13.781 L
9.626 -15.156 8.735 -15.898 QT
7.845 -16.641 6.22 -16.641 QT
5.188 -16.641 4.212 -16.398 QT
3.235 -16.156 2.329 -15.656 QT
2.329 -17.484 L
3.407 -17.906 4.431 -18.117 QT
5.454 -18.328 6.423 -18.328 QT
9.032 -18.328 10.321 -16.969 QT
11.61 -15.609 11.61 -12.859 QT
cp
24.342 -17.563 M
24.342 -15.719 L
23.498 -16.188 22.654 -16.414 QT
21.811 -16.641 20.951 -16.641 QT
19.029 -16.641 17.967 -15.422 QT
16.904 -14.203 16.904 -12 QT
16.904 -9.797 17.967 -8.578 QT
19.029 -7.359 20.951 -7.359 QT
21.811 -7.359 22.654 -7.594 QT
23.498 -7.828 24.342 -8.281 QT
24.342 -6.469 L
23.514 -6.078 22.623 -5.883 QT
21.732 -5.688 20.748 -5.688 QT
18.029 -5.688 16.428 -7.398 QT
14.826 -9.109 14.826 -12 QT
14.826 -14.953 16.443 -16.641 QT
18.061 -18.328 20.873 -18.328 QT
21.779 -18.328 22.654 -18.141 QT
23.529 -17.953 24.342 -17.563 QT
cp
37.781 -13.266 M
37.781 -6 L
35.797 -6 L
35.797 -13.203 L
35.797 -14.906 35.133 -15.758 QT
34.469 -16.609 33.141 -16.609 QT
31.531 -16.609 30.609 -15.586 QT
29.688 -14.563 29.688 -12.797 QT
29.688 -6 L
27.703 -6 L
27.703 -22.719 L
29.688 -22.719 L
29.688 -16.156 L
30.391 -17.25 31.359 -17.789 QT
32.328 -18.328 33.578 -18.328 QT
35.656 -18.328 36.719 -17.039 QT
37.781 -15.75 37.781 -13.266 QT
cp
52.006 -12.516 M
52.006 -11.547 L
42.928 -11.547 L
43.053 -9.5 44.154 -8.43 QT
45.256 -7.359 47.225 -7.359 QT
48.365 -7.359 49.428 -7.641 QT
50.49 -7.922 51.553 -8.484 QT
51.553 -6.609 L
50.49 -6.156 49.373 -5.922 QT
48.256 -5.688 47.1 -5.688 QT
44.225 -5.688 42.545 -7.367 QT
40.865 -9.047 40.865 -11.891 QT
40.865 -14.859 42.459 -16.594 QT
44.053 -18.328 46.756 -18.328 QT
49.193 -18.328 50.6 -16.766 QT
52.006 -15.203 52.006 -12.516 QT
cp
50.037 -13.094 M
50.006 -14.719 49.123 -15.68 QT
48.24 -16.641 46.787 -16.641 QT
45.131 -16.641 44.131 -15.711 QT
43.131 -14.781 42.99 -13.078 QT
50.037 -13.094 L
cp
63.166 -16.203 M
63.166 -22.719 L
65.15 -22.719 L
65.15 -6 L
63.166 -6 L
63.166 -7.813 L
62.557 -6.734 61.604 -6.211 QT
60.65 -5.688 59.322 -5.688 QT
57.135 -5.688 55.768 -7.43 QT
54.4 -9.172 54.4 -12 QT
54.4 -14.844 55.768 -16.586 QT
57.135 -18.328 59.322 -18.328 QT
60.65 -18.328 61.604 -17.805 QT
62.557 -17.281 63.166 -16.203 QT
cp
56.432 -12 M
56.432 -9.828 57.33 -8.586 QT
58.229 -7.344 59.807 -7.344 QT
61.369 -7.344 62.268 -8.586 QT
63.166 -9.828 63.166 -12 QT
63.166 -14.188 62.268 -15.43 QT
61.369 -16.672 59.807 -16.672 QT
58.229 -16.672 57.33 -15.43 QT
56.432 -14.188 56.432 -12 QT
cp
76.03 -22.719 M
80.593 -22.719 L
80.593 -21.172 L
78.015 -21.172 L
78.015 -4.641 L
80.593 -4.641 L
80.593 -3.094 L
76.03 -3.094 L
76.03 -22.719 L
cp
98.723 -13.063 M
97.785 -13.063 97.254 -12.266 QT
96.723 -11.469 96.723 -10.047 QT
96.723 -8.656 97.254 -7.852 QT
97.785 -7.047 98.723 -7.047 QT
99.629 -7.047 100.16 -7.852 QT
100.691 -8.656 100.691 -10.047 QT
100.691 -11.453 100.16 -12.258 QT
99.629 -13.063 98.723 -13.063 QT
cp
98.723 -14.422 M
100.41 -14.422 101.41 -13.242 QT
102.41 -12.063 102.41 -10.047 QT
102.41 -8.047 101.41 -6.867 QT
100.41 -5.688 98.723 -5.688 QT
97.004 -5.688 96.004 -6.867 QT
95.004 -8.047 95.004 -10.047 QT
95.004 -12.063 96.004 -13.242 QT
97.004 -14.422 98.723 -14.422 QT
cp
87.629 -20.969 M
86.707 -20.969 86.176 -20.164 QT
85.645 -19.359 85.645 -17.969 QT
85.645 -16.547 86.168 -15.75 QT
86.691 -14.953 87.629 -14.953 QT
88.566 -14.953 89.098 -15.75 QT
89.629 -16.547 89.629 -17.969 QT
89.629 -19.359 89.09 -20.164 QT
88.551 -20.969 87.629 -20.969 QT
cp
97.332 -22.328 M
99.051 -22.328 L
89.02 -5.688 L
87.301 -5.688 L
97.332 -22.328 L
cp
87.629 -22.328 M
89.332 -22.328 90.34 -21.148 QT
91.348 -19.969 91.348 -17.969 QT
91.348 -15.938 90.348 -14.766 QT
89.348 -13.594 87.629 -13.594 QT
85.926 -13.594 84.934 -14.773 QT
83.941 -15.953 83.941 -17.969 QT
83.941 -19.969 84.941 -21.148 QT
85.941 -22.328 87.629 -22.328 QT
cp
110.314 -22.719 M
110.314 -3.094 L
105.768 -3.094 L
105.768 -4.641 L
108.33 -4.641 L
108.33 -21.172 L
105.768 -21.172 L
105.768 -22.719 L
110.314 -22.719 L
cp
f
GR
GS
0 0.447 0.741 RC
1 LJ
0.5 LW
N
169.525 94.185 M
169.913 105.317 L
170.3 92.197 L
170.688 152.377 L
171.075 38.524 L
171.462 53.258 L
171.85 88.619 L
172.238 88.619 L
172.625 71.921 L
173.012 96.326 L
173.4 78.073 L
173.788 110.088 L
174.175 64.89 L
174.563 110.088 L
174.95 55.222 L
175.337 64.89 L
175.725 63.571 L
176.113 122.016 L
176.5 110.088 L
176.887 113.667 L
177.275 80.27 L
177.663 60.304 L
178.05 105.317 L
178.438 58.562 L
178.825 80.27 L
179.212 51.707 L
179.6 74.306 L
179.988 63.571 L
180.375 69.833 L
180.762 72.68 L
181.15 48.158 L
181.538 91.256 L
181.925 48.158 L
182.313 47.801 L
182.7 45.891 L
183.087 49.414 L
183.475 38.524 L
183.863 71.195 L
184.25 50.451 L
184.637 38.524 L
185.025 47.801 L
185.413 44.488 L
185.8 49.414 L
186.188 38.524 L
186.575 38.524 L
186.962 43.435 L
187.35 44.946 L
187.738 38.524 L
188.125 38.524 L
188.512 38.524 L
188.9 49.414 L
189.288 38.524 L
189.675 45.68 L
190.063 38.524 L
190.45 38.524 L
190.837 38.524 L
191.225 38.524 L
191.613 45.481 L
192 38.524 L
192.387 38.524 L
192.775 38.524 L
193.163 38.524 L
193.55 38.524 L
193.938 38.524 L
194.325 38.524 L
194.712 38.524 L
195.1 38.524 L
195.488 38.524 L
195.875 48.543 L
196.262 48.158 L
196.65 38.524 L
197.038 38.524 L
197.425 50.451 L
197.813 38.524 L
198.2 46.604 L
198.587 38.524 L
198.975 38.524 L
199.363 38.524 L
199.75 38.524 L
200.137 38.524 L
200.525 38.524 L
200.913 38.524 L
201.3 38.524 L
201.688 38.524 L
202.075 38.524 L
202.462 38.524 L
202.85 38.524 L
203.238 47.801 L
203.625 38.524 L
204.012 38.524 L
204.4 38.524 L
204.788 61.294 L
205.175 48.543 L
205.563 38.524 L
205.95 54.179 L
206.337 38.524 L
206.725 38.524 L
207.113 49.414 L
207.5 47.801 L
207.887 38.524 L
208.275 38.524 L
208.663 49.414 L
209.05 38.524 L
209.438 38.524 L
209.825 54.179 L
210.212 38.524 L
210.6 49.414 L
210.988 80.27 L
211.375 63.571 L
211.762 38.524 L
212.15 38.524 L
212.538 47.469 L
212.925 38.524 L
213.313 51.048 L
213.7 51.048 L
214.087 52.439 L
214.475 48.96 L
214.863 85.488 L
215.25 38.524 L
215.637 52.439 L
216.025 38.524 L
216.413 38.524 L
216.8 38.524 L
217.188 60.304 L
217.575 38.524 L
217.962 38.524 L
218.35 38.524 L
218.738 57.078 L
219.125 66.355 L
219.512 46.873 L
219.9 47.161 L
220.288 71.921 L
220.675 67.992 L
221.063 46.873 L
221.45 51.048 L
221.837 69.833 L
222.225 50.451 L
222.613 38.524 L
223 48.96 L
223.387 56.415 L
223.775 48.96 L
224.163 38.524 L
224.55 38.524 L
224.938 38.524 L
225.325 38.524 L
225.712 47.469 L
226.1 38.524 L
226.488 46.604 L
226.875 48.96 L
227.262 38.524 L
227.65 50.451 L
228.038 38.524 L
228.425 38.524 L
228.813 38.524 L
229.2 48.158 L
229.587 38.524 L
229.975 38.524 L
230.363 38.524 L
230.75 38.524 L
231.137 38.524 L
231.525 88.619 L
231.913 38.524 L
232.3 38.524 L
232.688 47.801 L
233.075 38.524 L
233.462 38.524 L
233.85 38.524 L
234.238 38.524 L
234.625 38.524 L
235.012 53.258 L
235.4 64.89 L
235.788 49.414 L
236.175 38.524 L
236.563 38.524 L
236.95 55.222 L
237.337 49.909 L
237.725 38.524 L
238.113 55.222 L
238.5 38.524 L
238.887 38.524 L
239.275 51.707 L
239.663 48.158 L
240.05 51.707 L
240.438 38.524 L
240.825 49.909 L
241.212 38.524 L
241.6 66.355 L
241.988 51.048 L
242.375 38.524 L
242.762 51.048 L
243.15 67.992 L
243.538 49.909 L
243.925 61.294 L
244.313 49.909 L
244.7 38.524 L
245.087 38.524 L
245.475 49.909 L
245.863 55.222 L
246.25 60.304 L
246.637 88.619 L
247.025 51.048 L
247.413 51.707 L
247.8 50.451 L
248.188 58.562 L
248.575 53.258 L
248.962 62.379 L
249.35 51.707 L
249.738 38.524 L
250.125 47.801 L
250.512 64.89 L
250.9 129.606 L
251.288 57.791 L
251.675 49.414 L
252.063 38.524 L
252.45 51.048 L
252.837 61.294 L
253.225 51.048 L
253.613 38.524 L
254 38.524 L
254.387 53.258 L
254.775 38.524 L
255.163 38.524 L
255.55 38.524 L
255.938 57.791 L
256.325 48.543 L
256.712 38.524 L
257.1 38.524 L
257.487 38.524 L
257.875 50.451 L
258.263 48.96 L
258.65 54.179 L
259.038 62.379 L
259.425 38.524 L
259.813 49.414 L
260.2 61.294 L
260.587 84.065 L
260.975 88.619 L
261.362 52.439 L
261.75 56.415 L
262.138 67.992 L
262.525 66.355 L
262.913 51.048 L
263.3 85.488 L
263.688 49.414 L
264.075 66.355 L
264.462 38.524 L
264.85 60.304 L
265.237 48.543 L
265.625 80.27 L
266.013 38.524 L
266.4 96.326 L
266.788 64.89 L
267.175 149.847 L
267.563 110.088 L
267.95 138.714 L
268.337 77.059 L
268.725 52.439 L
269.112 38.524 L
269.5 92.197 L
269.888 97.459 L
270.275 134.861 L
270.663 122.016 L
271.05 92.197 L
271.438 48.543 L
271.825 115.593 L
272.212 67.992 L
272.6 59.397 L
272.987 74.306 L
273.375 97.459 L
273.763 149.847 L
274.15 78.073 L
274.538 96.326 L
274.925 62.379 L
275.313 56.415 L
275.7 67.992 L
276.087 134.861 L
276.475 71.921 L
276.862 177.677 L
277.25 101.143 L
277.638 38.524 L
278.025 129.606 L
278.413 96.326 L
278.8 92.197 L
279.188 50.451 L
279.575 94.185 L
279.962 38.524 L
280.35 110.088 L
280.737 85.488 L
281.125 106.836 L
281.513 106.836 L
281.9 88.619 L
282.288 66.355 L
282.675 53.258 L
283.063 122.016 L
283.45 101.143 L
283.837 129.606 L
284.225 92.197 L
284.612 122.016 L
285 175.147 L
285.388 77.059 L
285.775 129.606 L
286.163 56.415 L
286.55 105.317 L
286.938 122.016 L
287.325 195.071 L
287.712 177.677 L
288.1 55.222 L
288.487 74.306 L
288.875 74.306 L
289.263 149.847 L
289.65 122.016 L
290.038 152.377 L
290.425 115.593 L
290.813 138.714 L
291.2 106.836 L
291.587 85.488 L
291.975 80.27 L
292.362 127.98 L
292.75 129.606 L
293.138 94.185 L
293.525 195.071 L
293.913 59.397 L
294.3 106.836 L
294.688 175.147 L
295.075 188.81 L
295.462 177.677 L
295.85 115.593 L
296.237 85.488 L
296.625 96.326 L
297.013 122.016 L
297.4 71.921 L
297.788 96.326 L
298.175 77.059 L
298.563 55.222 L
298.95 149.847 L
299.337 92.197 L
299.725 129.606 L
300.112 163.762 L
300.5 177.677 L
300.888 80.27 L
301.275 92.197 L
301.663 110.088 L
302.05 132.452 L
302.438 115.593 L
302.825 116.798 L
303.212 101.143 L
303.6 122.016 L
303.987 163.762 L
304.375 80.27 L
304.763 106.836 L
305.15 84.065 L
305.538 134.861 L
305.925 177.677 L
306.313 129.606 L
306.7 80.27 L
307.087 101.143 L
307.475 188.81 L
307.862 101.143 L
308.25 92.197 L
308.638 96.326 L
309.025 152.377 L
309.413 122.016 L
309.8 122.016 L
310.188 110.088 L
310.575 88.619 L
310.962 226.381 L
311.35 84.065 L
311.737 129.606 L
312.125 106.836 L
312.513 163.762 L
312.9 61.294 L
313.288 106.836 L
313.675 122.016 L
314.063 188.81 L
314.45 181.653 L
314.837 226.381 L
315.225 195.071 L
315.612 177.677 L
316 188.81 L
316.388 205.508 L
316.775 233.339 L
317.163 195.071 L
317.55 257.69 L
317.938 163.762 L
318.325 163.762 L
318.712 205.508 L
319.1 134.861 L
319.487 175.147 L
319.875 177.677 L
320.263 101.143 L
320.65 163.762 L
321.038 149.847 L
321.425 217.435 L
321.813 138.714 L
322.2 152.377 L
322.587 177.677 L
322.975 101.143 L
323.362 149.847 L
323.75 205.508 L
324.138 152.377 L
324.525 122.016 L
324.913 142.889 L
325.3 77.059 L
325.688 56.415 L
326.075 71.921 L
326.462 80.27 L
326.85 105.317 L
327.237 142.889 L
327.625 101.143 L
328.013 110.088 L
328.4 96.326 L
328.788 96.326 L
329.175 195.071 L
329.563 257.69 L
329.95 96.326 L
330.337 138.714 L
330.725 129.606 L
331.112 113.667 L
331.5 177.677 L
331.888 195.071 L
332.275 129.606 L
332.663 71.921 L
333.05 77.059 L
333.438 92.197 L
333.825 101.143 L
334.212 66.355 L
334.6 69.833 L
334.987 129.606 L
335.375 80.27 L
335.763 66.355 L
336.15 152.377 L
336.538 149.847 L
336.925 84.065 L
337.313 289 L
337.7 80.27 L
338.087 88.619 L
338.475 226.381 L
338.862 253.218 L
339.25 122.016 L
339.638 115.593 L
340.025 138.714 L
340.413 217.435 L
340.8 205.508 L
341.188 152.377 L
341.575 115.593 L
341.962 122.016 L
342.35 142.889 L
342.737 163.762 L
343.125 163.762 L
343.513 205.508 L
343.9 152.377 L
344.288 113.667 L
344.675 138.714 L
345.063 177.677 L
345.45 101.143 L
345.837 163.762 L
346.225 142.889 L
346.612 115.593 L
347 163.762 L
347.388 129.606 L
347.775 82.725 L
348.163 152.377 L
348.55 177.677 L
348.938 92.197 L
349.325 110.088 L
349.712 138.714 L
350.1 177.677 L
350.487 101.143 L
350.875 195.071 L
351.263 77.059 L
351.65 142.889 L
352.038 115.593 L
352.425 105.317 L
352.813 195.071 L
353.2 106.836 L
353.587 163.762 L
353.975 149.847 L
354.362 77.059 L
354.75 129.606 L
355.138 163.762 L
355.525 138.714 L
355.913 88.619 L
356.3 106.836 L
356.688 115.593 L
357.075 253.218 L
357.462 175.147 L
357.85 226.381 L
358.237 177.677 L
358.625 175.147 L
359.013 177.677 L
359.4 106.836 L
359.788 163.762 L
360.175 129.606 L
360.563 113.667 L
360.95 175.147 L
361.337 138.714 L
361.725 113.667 L
362.112 177.677 L
362.5 115.593 L
362.888 253.218 L
363.275 80.27 L
363.663 106.836 L
364.05 92.197 L
364.438 134.861 L
364.825 177.677 L
365.212 177.677 L
365.6 80.27 L
365.987 138.714 L
366.375 175.147 L
366.763 177.677 L
367.15 163.762 L
367.538 149.847 L
367.925 113.667 L
368.313 122.016 L
368.7 129.606 L
369.087 101.143 L
369.475 181.653 L
369.862 152.377 L
370.25 149.847 L
370.638 77.059 L
371.025 122.016 L
371.413 122.016 L
371.8 54.179 L
372.188 129.606 L
372.575 122.016 L
372.962 163.762 L
373.35 115.593 L
373.737 122.016 L
374.125 152.377 L
374.513 132.452 L
374.9 92.197 L
375.288 188.81 L
375.675 106.836 L
376.063 122.016 L
376.45 129.606 L
376.837 122.016 L
377.225 152.377 L
377.612 122.016 L
378 88.619 L
378.388 149.847 L
378.775 129.606 L
379.163 138.714 L
379.55 195.071 L
379.938 188.81 L
380.325 163.762 L
380.712 195.071 L
381.1 205.508 L
381.487 145.871 L
381.875 138.714 L
382.263 177.677 L
382.65 74.306 L
383.038 80.27 L
383.425 226.381 L
383.813 149.847 L
384.2 163.762 L
384.587 149.847 L
384.975 84.065 L
385.362 69.833 L
385.75 106.836 L
386.138 101.143 L
386.525 94.185 L
386.913 152.377 L
387.3 142.889 L
387.688 129.606 L
388.075 233.339 L
388.462 122.016 L
388.85 101.143 L
389.237 177.677 L
389.625 129.606 L
390.013 175.147 L
390.4 122.016 L
390.788 106.836 L
391.175 257.69 L
391.563 195.071 L
391.95 205.508 L
392.337 129.606 L
392.725 152.377 L
393.112 113.667 L
393.5 85.488 L
393.888 138.714 L
394.275 115.593 L
394.663 149.847 L
395.05 257.69 L
395.438 77.059 L
395.825 152.377 L
396.212 163.762 L
396.6 101.143 L
396.987 96.326 L
397.375 163.762 L
397.763 88.619 L
398.15 122.016 L
398.538 142.889 L
398.925 55.222 L
399.313 177.677 L
399.7 105.317 L
400.087 106.836 L
400.475 163.762 L
400.862 96.326 L
401.25 82.725 L
401.638 177.677 L
402.025 115.593 L
402.413 138.714 L
402.8 177.677 L
403.188 138.714 L
403.575 84.065 L
403.962 74.306 L
404.35 122.016 L
404.737 96.326 L
405.125 101.143 L
405.513 122.016 L
405.9 74.306 L
406.288 142.889 L
406.675 67.992 L
407.063 115.593 L
407.45 88.619 L
407.837 129.606 L
408.225 138.714 L
408.612 77.059 L
409 92.197 L
409.388 152.377 L
409.775 115.593 L
410.163 142.889 L
410.55 122.016 L
410.938 101.143 L
411.325 129.606 L
411.712 152.377 L
412.1 134.861 L
412.487 101.143 L
412.875 142.889 L
413.263 195.071 L
413.65 163.762 L
414.038 226.381 L
414.425 122.016 L
414.813 138.714 L
415.2 205.508 L
415.587 152.377 L
415.975 101.143 L
416.362 138.714 L
416.75 152.377 L
417.138 122.016 L
417.525 113.667 L
417.913 101.143 L
418.3 115.593 L
418.688 129.606 L
419.075 80.27 L
419.462 129.606 L
419.85 149.847 L
420.237 177.677 L
420.625 113.667 L
421.013 188.81 L
421.4 217.435 L
421.788 105.317 L
422.175 129.606 L
422.563 195.071 L
422.95 152.377 L
423.337 129.606 L
423.725 80.27 L
424.112 129.606 L
424.5 122.016 L
424.888 138.714 L
425.275 115.593 L
425.663 138.714 L
426.05 101.143 L
426.438 129.606 L
426.825 88.619 L
427.212 80.27 L
427.6 122.016 L
427.987 129.606 L
428.375 152.377 L
428.763 149.847 L
429.15 177.677 L
429.538 129.606 L
429.925 92.197 L
430.313 152.377 L
430.7 92.197 L
431.087 96.326 L
431.475 122.016 L
431.862 163.762 L
432.25 96.326 L
432.638 106.836 L
433.025 177.677 L
433.413 57.791 L
433.8 177.677 L
434.188 138.714 L
434.575 195.071 L
434.962 138.714 L
435.35 195.071 L
435.737 149.847 L
436.125 129.606 L
436.513 149.847 L
436.9 138.714 L
437.288 85.488 L
437.675 106.836 L
438.063 195.071 L
438.45 177.677 L
438.837 129.606 L
439.225 163.762 L
439.612 106.836 L
440 152.377 L
440.388 152.377 L
440.775 177.677 L
441.163 177.677 L
441.55 115.593 L
441.938 129.606 L
442.325 226.381 L
442.712 226.381 L
443.1 195.071 L
443.487 177.677 L
443.875 113.667 L
444.263 113.667 L
444.65 177.677 L
445.038 101.143 L
445.425 149.847 L
445.813 175.147 L
446.2 163.762 L
446.587 163.762 L
446.975 163.762 L
447.362 163.762 L
447.75 163.762 L
448.138 188.81 L
448.525 195.071 L
448.913 134.861 L
449.3 152.377 L
449.688 163.762 L
450.075 149.847 L
450.462 177.677 L
450.85 106.836 L
451.237 177.677 L
451.625 205.508 L
452.013 113.667 L
452.4 152.377 L
452.788 175.147 L
453.175 152.377 L
453.563 177.677 L
453.95 122.016 L
454.337 115.593 L
454.725 122.016 L
455.112 122.016 L
455.5 138.714 L
455.888 177.677 L
456.275 177.677 L
456.663 138.714 L
457.05 84.065 L
457.438 142.889 L
457.825 253.218 L
458.212 188.81 L
458.6 217.435 L
458.987 188.81 L
459.375 101.143 L
459.763 94.185 L
460.15 205.508 L
460.538 253.218 L
460.925 205.508 L
461.313 129.606 L
461.7 149.847 L
462.087 226.381 L
462.475 163.762 L
462.862 138.714 L
463.25 213.857 L
463.638 163.762 L
464.025 74.306 L
464.413 253.218 L
464.8 177.677 L
465.188 129.606 L
465.575 122.016 L
465.962 226.381 L
466.35 195.071 L
466.737 96.326 L
467.125 105.317 L
467.513 163.762 L
467.9 77.059 L
468.288 152.377 L
468.675 138.714 L
469.063 253.218 L
469.45 122.016 L
469.837 142.889 L
470.225 129.606 L
470.612 106.836 L
471 163.762 L
471.388 106.836 L
471.775 129.606 L
472.163 163.762 L
472.55 92.197 L
472.938 188.81 L
473.325 129.606 L
473.712 92.197 L
474.1 138.714 L
474.487 195.071 L
474.875 138.714 L
475.263 149.847 L
475.65 129.606 L
476.038 101.143 L
476.425 129.606 L
476.813 253.218 L
477.2 142.889 L
477.587 163.762 L
477.975 233.339 L
478.362 177.677 L
478.75 122.016 L
479.138 122.016 L
479.525 138.714 L
479.913 122.016 L
480.3 106.836 L
480.688 69.833 L
481.075 149.847 L
481.462 80.27 L
481.85 71.921 L
482.237 110.088 L
482.625 106.836 L
483.013 84.065 L
483.4 142.889 L
483.788 129.606 L
484.175 56.415 L
484.563 69.833 L
484.95 205.508 L
485.337 149.847 L
485.725 226.381 L
486.112 113.667 L
486.5 101.143 L
486.888 195.071 L
487.275 106.836 L
487.663 205.508 L
488.05 163.762 L
488.438 253.218 L
488.825 138.714 L
489.212 175.147 L
489.6 122.016 L
489.987 122.016 L
490.375 129.606 L
490.763 289 L
491.15 149.847 L
491.538 138.714 L
491.925 88.619 L
492.313 163.762 L
492.7 51.048 L
493.087 129.606 L
493.475 129.606 L
493.862 177.677 L
494.25 106.836 L
494.638 106.836 L
495.025 122.016 L
495.413 80.27 L
495.8 88.619 L
496.188 52.439 L
496.575 129.606 L
496.962 152.377 L
497.35 129.606 L
497.737 106.836 L
498.125 80.27 L
498.513 115.593 L
498.9 88.619 L
499.288 122.016 L
499.675 163.762 L
500.063 92.197 L
500.45 129.606 L
500.837 105.317 L
501.225 101.143 L
501.612 106.836 L
502 163.762 L
502.388 152.377 L
502.775 149.847 L
503.163 77.059 L
503.55 129.606 L
503.938 115.593 L
504.325 149.847 L
504.712 122.016 L
505.1 96.326 L
505.487 85.488 L
505.875 177.677 L
506.263 52.439 L
506.65 56.415 L
507.038 163.762 L
507.425 217.435 L
507.813 181.653 L
508.2 134.861 L
508.587 188.81 L
508.975 122.016 L
509.362 113.667 L
509.75 149.847 L
510.138 138.714 L
510.525 132.452 L
510.913 105.317 L
511.3 177.677 L
511.688 113.667 L
512.075 57.791 L
512.463 66.355 L
512.85 74.306 L
513.237 138.714 L
513.625 88.619 L
514.013 97.459 L
514.4 122.016 L
514.787 88.619 L
515.175 113.667 L
515.563 226.381 L
515.95 163.762 L
516.338 129.606 L
516.725 149.847 L
517.112 122.016 L
517.5 163.762 L
517.888 129.606 L
518.275 122.016 L
518.662 188.81 L
519.05 122.016 L
519.438 129.606 L
519.825 101.143 L
520.213 163.762 L
520.6 177.677 L
520.987 163.762 L
521.375 113.667 L
521.763 205.508 L
522.15 110.088 L
522.537 129.606 L
522.925 67.992 L
523.313 217.435 L
523.7 82.725 L
524.088 55.222 L
524.475 113.667 L
524.862 101.143 L
525.25 129.606 L
525.638 77.059 L
526.025 134.861 L
526.412 129.606 L
526.8 69.833 L
527.188 115.593 L
527.575 177.677 L
527.963 113.667 L
528.35 110.088 L
528.737 92.197 L
529.125 59.397 L
529.513 142.889 L
529.9 101.143 L
530.287 163.762 L
530.675 188.81 L
531.063 96.326 L
531.45 129.606 L
531.838 92.197 L
532.225 205.508 L
532.612 113.667 L
533 205.508 L
533.388 129.606 L
533.775 67.992 L
534.162 96.326 L
534.55 96.326 L
534.938 129.606 L
535.325 106.836 L
535.713 96.326 L
536.1 129.606 L
536.487 195.071 L
536.875 122.016 L
537.263 122.016 L
537.65 127.98 L
538.037 101.143 L
538.425 101.143 L
538.813 129.606 L
539.2 74.306 L
539.588 101.143 L
539.975 138.714 L
540.362 101.143 L
540.75 113.667 L
541.138 177.677 L
541.525 122.016 L
541.912 122.016 L
542.3 106.836 L
542.688 113.667 L
543.075 122.016 L
543.463 92.197 L
543.85 55.222 L
544.237 129.606 L
544.625 163.762 L
545.013 163.762 L
545.4 122.016 L
545.787 84.065 L
546.175 106.836 L
546.563 85.488 L
546.95 115.593 L
547.338 74.306 L
547.725 63.571 L
548.112 113.667 L
548.5 77.059 L
548.888 82.725 L
549.275 163.762 L
549.662 53.258 L
550.05 122.016 L
550.438 92.197 L
550.825 106.836 L
551.213 142.889 L
551.6 74.306 L
551.987 85.488 L
552.375 64.89 L
552.763 152.377 L
553.15 129.606 L
553.537 163.762 L
553.925 163.762 L
554.313 129.606 L
554.7 106.836 L
555.088 115.593 L
555.475 188.81 L
555.862 92.197 L
556.25 122.016 L
556.638 177.677 L
557.025 96.326 L
557.412 106.836 L
557.8 152.377 L
558.188 77.059 L
558.575 80.27 L
558.963 177.677 L
559.35 84.065 L
559.737 163.762 L
560.125 92.197 L
560.513 129.606 L
560.9 129.606 L
561.287 105.317 L
561.675 138.714 L
562.063 122.016 L
562.45 84.065 L
562.838 113.667 L
563.225 122.016 L
563.612 129.606 L
564 113.667 L
564.388 152.377 L
564.775 138.714 L
565.162 152.377 L
565.55 74.306 L
565.938 122.016 L
566.325 54.179 L
566.713 74.306 L
567.1 80.27 L
567.487 96.326 L
567.875 113.667 L
568.263 110.088 L
568.65 82.725 L
569.037 55.222 L
569.425 138.714 L
569.813 88.619 L
570.2 101.143 L
570.588 134.861 L
570.975 217.435 L
571.362 129.606 L
571.75 92.197 L
572.138 84.065 L
572.525 54.179 L
572.912 152.377 L
573.3 74.306 L
573.688 38.524 L
574.075 94.185 L
574.463 52.439 L
574.85 106.836 L
575.237 149.847 L
575.625 77.059 L
576.013 122.016 L
576.4 71.921 L
576.787 149.847 L
577.175 105.317 L
577.563 85.488 L
577.95 57.791 L
578.338 113.667 L
578.725 80.27 L
579.112 163.762 L
579.5 115.593 L
579.888 101.143 L
580.275 142.889 L
580.662 163.762 L
581.05 122.016 L
581.438 217.435 L
581.825 113.667 L
582.213 101.143 L
582.6 101.143 L
582.987 129.606 L
583.375 113.667 L
583.763 101.143 L
584.15 101.143 L
584.537 71.921 L
584.925 122.016 L
585.313 84.065 L
585.7 113.667 L
586.088 205.508 L
586.475 152.377 L
586.862 105.317 L
587.25 96.326 L
587.638 96.326 L
588.025 55.222 L
588.412 106.836 L
588.8 84.065 L
589.188 175.147 L
589.575 53.258 L
589.963 77.059 L
590.35 149.847 L
590.737 101.143 L
591.125 177.677 L
591.513 177.677 L
591.9 177.677 L
592.287 96.326 L
592.675 122.016 L
593.063 226.381 L
593.45 84.065 L
593.838 152.377 L
594.225 195.071 L
594.612 80.27 L
595 85.488 L
595.388 57.791 L
595.775 129.606 L
596.162 122.016 L
596.55 132.452 L
596.938 113.667 L
597.325 177.677 L
597.713 226.381 L
598.1 177.677 L
598.487 96.326 L
598.875 205.508 L
599.263 177.677 L
599.65 84.065 L
600.037 129.606 L
600.425 177.677 L
600.813 88.619 L
601.2 138.714 L
601.588 101.143 L
601.975 177.677 L
602.362 127.98 L
602.75 59.397 L
603.138 110.088 L
603.525 74.306 L
603.912 71.921 L
604.3 163.762 L
604.688 106.836 L
605.075 101.143 L
605.463 113.667 L
605.85 122.016 L
606.237 96.326 L
606.625 96.326 L
607.013 84.065 L
607.4 71.921 L
607.787 71.921 L
608.175 163.762 L
608.563 195.071 L
608.95 88.619 L
609.338 142.889 L
609.725 94.185 L
610.112 138.714 L
610.5 106.836 L
610.888 66.355 L
611.275 84.065 L
611.662 96.326 L
612.05 88.619 L
612.438 67.992 L
612.825 55.222 L
613.213 134.861 L
613.6 163.762 L
613.987 52.439 L
614.375 115.593 L
614.763 59.397 L
615.15 85.488 L
615.537 163.762 L
615.925 96.326 L
616.313 129.606 L
616.7 195.071 L
617.088 113.667 L
617.475 85.488 L
617.862 69.833 L
618.25 96.326 L
618.638 122.016 L
619.025 113.667 L
619.412 134.861 L
619.8 59.397 L
620.188 57.791 L
620.575 71.921 L
620.963 92.197 L
621.35 38.524 L
621.737 105.317 L
622.125 52.439 L
622.513 54.179 L
622.9 88.619 L
623.287 88.619 L
623.675 129.606 L
624.063 66.355 L
624.45 77.059 L
624.838 115.593 L
625.225 77.059 L
625.612 129.606 L
626 101.143 L
626.388 80.27 L
626.775 177.677 L
627.162 152.377 L
627.55 94.185 L
627.938 92.197 L
628.325 149.847 L
628.713 188.81 L
629.1 56.415 L
629.487 129.606 L
629.875 101.143 L
630.263 113.667 L
630.65 74.306 L
631.037 122.016 L
631.425 94.185 L
631.813 80.27 L
632.2 110.088 L
632.588 74.306 L
632.975 84.065 L
633.362 163.762 L
633.75 92.197 L
634.138 115.593 L
634.525 54.179 L
634.912 61.294 L
635.3 106.836 L
635.688 67.992 L
636.075 163.762 L
636.463 59.397 L
636.85 94.185 L
637.237 122.016 L
637.625 57.791 L
638.013 142.889 L
638.4 195.071 L
638.787 106.836 L
639.175 129.606 L
639.563 115.593 L
639.95 129.606 L
640.338 138.714 L
640.725 195.071 L
641.112 101.143 L
641.5 115.593 L
641.888 129.606 L
642.275 88.619 L
642.662 149.847 L
643.05 50.451 L
643.438 84.065 L
643.825 106.836 L
644.213 101.143 L
644.6 101.143 L
644.987 152.377 L
645.375 163.762 L
645.763 129.606 L
646.15 96.326 L
646.537 38.524 L
646.925 56.415 L
647.313 80.27 L
647.7 96.326 L
648.088 106.836 L
648.475 138.714 L
648.862 163.762 L
649.25 92.197 L
649.638 53.258 L
650.025 92.197 L
650.412 122.016 L
650.8 101.143 L
651.188 77.059 L
651.575 62.379 L
651.963 122.016 L
652.35 49.909 L
652.737 106.836 L
653.125 152.377 L
653.513 77.059 L
653.9 122.016 L
654.287 129.606 L
654.675 52.439 L
655.063 61.294 L
655.45 52.439 L
655.838 52.439 L
656.225 74.306 L
656.612 177.677 L
657 80.27 L
657.388 54.179 L
657.775 106.836 L
658.162 55.222 L
658.55 106.836 L
658.938 195.071 L
659.325 163.762 L
659.713 113.667 L
660.1 152.377 L
660.487 138.714 L
660.875 106.836 L
661.263 92.197 L
661.65 96.326 L
662.037 115.593 L
662.425 53.258 L
662.813 77.059 L
663.2 71.921 L
663.588 38.524 L
663.975 53.258 L
664.362 96.326 L
664.75 163.762 L
665.138 67.992 L
665.525 74.306 L
665.912 101.143 L
666.3 205.508 L
666.688 115.593 L
667.075 101.143 L
667.463 74.306 L
667.85 77.059 L
668.237 92.197 L
668.625 55.222 L
669.013 59.397 L
669.4 77.059 L
669.787 96.326 L
670.175 94.185 L
670.563 54.179 L
670.95 55.222 L
671.338 101.143 L
671.725 138.714 L
672.112 96.326 L
672.5 84.065 L
672.888 74.306 L
673.275 106.836 L
673.662 84.065 L
674.05 152.377 L
674.438 106.836 L
674.825 177.677 L
675.213 80.27 L
675.6 88.619 L
675.987 80.27 L
676.375 96.326 L
676.763 122.016 L
677.15 74.306 L
677.537 96.326 L
677.925 122.016 L
678.313 96.326 L
678.7 77.059 L
679.088 59.397 L
679.475 77.059 L
679.862 84.065 L
680.25 142.889 L
680.638 142.889 L
681.025 113.667 L
681.412 69.833 L
681.8 57.791 L
682.188 77.059 L
682.575 80.27 L
682.963 57.791 L
683.35 38.524 L
683.737 88.619 L
684.125 80.27 L
684.513 88.619 L
684.9 38.524 L
685.287 226.381 L
685.675 66.355 L
686.063 77.059 L
686.45 56.415 L
686.838 96.326 L
687.225 38.524 L
687.612 92.197 L
688 52.439 L
688.388 69.833 L
688.775 84.065 L
689.162 92.197 L
689.55 54.179 L
689.938 84.065 L
690.325 74.306 L
690.713 57.791 L
691.1 92.197 L
691.487 88.619 L
691.875 38.524 L
692.263 57.791 L
692.65 64.89 L
693.037 57.791 L
693.425 96.326 L
693.813 53.258 L
694.2 51.707 L
694.588 67.992 L
694.975 53.258 L
695.362 101.143 L
695.75 61.294 L
696.138 80.27 L
696.525 85.488 L
696.912 152.377 L
697.3 149.847 L
697.688 69.833 L
698.075 54.179 L
698.463 85.488 L
698.85 92.197 L
699.237 38.524 L
699.625 92.197 L
700.013 74.306 L
700.4 85.488 L
700.787 177.677 L
701.175 38.524 L
701.563 163.762 L
701.95 77.059 L
702.338 71.921 L
702.725 59.397 L
703.112 122.016 L
703.5 67.992 L
703.888 96.326 L
704.275 74.306 L
704.662 96.326 L
705.05 71.921 L
705.438 74.306 L
705.825 74.306 L
706.213 84.065 L
706.6 77.059 L
706.987 38.524 L
707.375 74.306 L
707.763 77.059 L
708.15 80.27 L
708.537 101.143 L
708.925 66.355 L
709.313 54.179 L
709.7 84.065 L
710.088 38.524 L
710.475 80.27 L
710.862 57.791 L
711.25 88.619 L
711.638 80.27 L
712.025 77.059 L
712.412 56.415 L
712.8 54.179 L
713.188 74.306 L
713.575 122.016 L
713.963 132.452 L
714.35 77.059 L
714.737 71.921 L
715.125 51.707 L
715.513 84.065 L
715.9 88.619 L
716.287 51.707 L
716.675 38.524 L
717.063 80.27 L
717.45 38.524 L
717.838 77.059 L
718.225 101.143 L
718.612 74.306 L
719 55.222 L
719.388 54.179 L
719.775 74.306 L
720.162 67.992 L
720.55 105.317 L
720.938 53.258 L
721.325 71.921 L
721.713 74.306 L
722.1 66.355 L
722.487 92.197 L
722.875 55.222 L
723.263 96.326 L
723.65 38.524 L
724.037 106.836 L
724.425 38.524 L
724.813 38.524 L
725.2 57.791 L
725.588 80.27 L
725.975 55.222 L
726.362 106.836 L
726.75 56.415 L
727.138 54.179 L
727.525 84.065 L
727.912 80.27 L
728.3 88.619 L
728.688 97.459 L
729.075 96.326 L
729.463 38.524 L
729.85 74.306 L
730.237 55.222 L
730.625 38.524 L
731.013 57.791 L
731.4 122.016 L
731.787 74.306 L
732.175 88.619 L
732.563 57.791 L
732.95 69.833 L
733.338 53.258 L
733.725 56.415 L
734.112 53.258 L
734.5 122.016 L
734.888 56.415 L
735.275 106.836 L
735.662 74.306 L
736.05 54.179 L
736.438 59.397 L
736.825 67.992 L
737.213 74.306 L
737.6 38.524 L
737.987 129.606 L
738.375 69.833 L
738.763 88.619 L
739.15 177.677 L
739.537 96.326 L
739.925 88.619 L
740.313 106.836 L
740.7 38.524 L
741.088 74.306 L
741.475 59.397 L
741.862 52.439 L
742.25 115.593 L
742.638 54.179 L
743.025 77.059 L
743.412 53.258 L
743.8 84.065 L
744.188 105.317 L
744.575 101.143 L
744.963 80.27 L
745.35 51.707 L
745.737 92.197 L
746.125 54.179 L
746.513 101.143 L
746.9 55.222 L
747.287 51.048 L
747.675 53.258 L
748.063 38.524 L
748.45 38.524 L
748.838 67.992 L
749.225 66.355 L
749.612 64.89 L
750 57.791 L
750.388 74.306 L
750.775 38.524 L
751.162 55.222 L
751.55 38.524 L
751.938 101.143 L
752.325 71.921 L
752.713 38.524 L
753.1 38.524 L
753.487 67.992 L
753.875 38.524 L
754.263 51.707 L
754.65 59.397 L
755.037 57.791 L
755.425 66.355 L
755.813 38.524 L
756.2 69.833 L
756.588 57.791 L
756.975 92.197 L
757.362 52.439 L
757.75 59.397 L
758.138 56.415 L
758.525 92.197 L
758.912 59.397 L
759.3 38.524 L
759.688 64.89 L
760.075 52.439 L
760.463 56.415 L
760.85 38.524 L
761.237 71.921 L
761.625 56.415 L
762.013 69.833 L
762.4 53.258 L
762.787 51.707 L
763.175 55.222 L
763.563 76.095 L
763.95 80.27 L
764.338 38.524 L
764.725 38.524 L
765.112 52.439 L
765.5 69.833 L
765.888 106.836 L
766.275 61.294 L
766.662 57.791 L
767.05 80.27 L
767.438 88.619 L
767.825 51.707 L
768.213 88.619 L
768.6 59.397 L
768.987 38.524 L
769.375 57.791 L
769.763 53.258 L
770.15 92.197 L
770.537 57.791 L
770.925 56.415 L
771.313 92.197 L
771.7 53.258 L
772.088 56.415 L
772.475 54.179 L
772.862 53.258 L
773.25 53.258 L
773.638 38.524 L
774.025 67.992 L
774.412 77.059 L
774.8 38.524 L
775.188 74.306 L
775.575 55.222 L
775.963 38.524 L
776.35 64.89 L
776.737 54.179 L
777.125 71.921 L
777.513 106.836 L
777.9 38.524 L
778.287 57.791 L
778.675 74.306 L
779.063 106.836 L
779.45 38.524 L
779.838 113.667 L
780.225 38.524 L
780.612 38.524 L
781 55.222 L
781.388 52.439 L
781.775 54.179 L
782.162 67.992 L
782.55 74.306 L
782.938 38.524 L
783.325 56.415 L
783.713 38.524 L
784.1 56.415 L
784.487 38.524 L
784.875 51.707 L
785.263 56.415 L
785.65 56.415 L
786.037 82.725 L
786.425 54.179 L
786.813 96.326 L
787.2 152.377 L
787.588 38.524 L
787.975 52.439 L
788.362 57.791 L
788.75 74.306 L
789.138 59.397 L
789.525 38.524 L
789.912 38.524 L
790.3 55.222 L
790.688 96.326 L
791.075 54.179 L
791.463 38.524 L
791.85 77.059 L
792.237 53.258 L
792.625 54.179 L
793.013 122.016 L
793.4 77.059 L
793.787 38.524 L
794.175 66.355 L
794.563 57.791 L
794.95 84.065 L
795.338 53.258 L
795.725 55.222 L
796.112 56.415 L
796.5 52.439 L
796.888 38.524 L
797.275 94.185 L
797.662 96.326 L
798.05 77.059 L
798.438 122.016 L
798.825 92.197 L
799.213 51.707 L
799.6 78.073 L
799.987 62.379 L
800.375 38.524 L
800.763 51.048 L
801.15 38.524 L
801.537 38.524 L
801.925 52.439 L
802.313 69.833 L
802.7 38.524 L
803.088 71.921 L
803.475 96.326 L
803.862 71.921 L
804.25 56.415 L
804.638 96.326 L
805.025 63.571 L
805.412 80.27 L
805.8 177.677 L
806.188 177.677 L
806.575 38.524 L
806.963 64.89 L
807.35 55.222 L
807.737 67.992 L
808.125 129.606 L
808.513 96.326 L
808.9 84.065 L
809.287 69.833 L
809.675 38.524 L
810.063 38.524 L
810.45 54.179 L
810.838 71.921 L
811.225 54.179 L
811.612 149.847 L
812 51.048 L
812.388 106.836 L
812.775 51.707 L
813.162 96.326 L
813.55 63.571 L
813.938 52.439 L
814.325 69.833 L
814.713 77.059 L
815.1 88.619 L
815.487 64.89 L
815.875 38.524 L
816.263 56.415 L
816.65 84.065 L
817.037 55.222 L
817.425 53.258 L
817.813 134.861 L
818.2 53.258 L
818.588 54.179 L
818.975 122.016 L
819.362 55.222 L
819.75 92.197 L
820.138 115.593 L
820.525 122.016 L
820.912 38.524 L
821.3 38.524 L
821.688 85.488 L
822.075 52.439 L
822.463 53.258 L
822.85 64.89 L
823.237 80.27 L
823.625 66.355 L
824.013 129.606 L
824.4 56.415 L
824.787 56.415 L
825.175 38.524 L
825.563 56.415 L
825.95 115.593 L
826.338 101.143 L
826.725 71.921 L
827.112 38.524 L
827.5 71.921 L
827.888 74.306 L
828.275 57.791 L
828.662 82.725 L
829.05 74.306 L
829.438 52.439 L
829.825 92.197 L
830.213 96.326 L
830.6 92.197 L
830.987 80.27 L
831.375 52.439 L
831.763 77.059 L
832.15 69.833 L
832.537 52.439 L
832.925 67.992 L
833.313 67.992 L
833.7 122.016 L
834.088 84.065 L
834.475 38.524 L
834.862 51.707 L
835.25 54.179 L
835.638 101.143 L
836.025 92.197 L
836.412 77.059 L
836.8 74.306 L
837.188 52.439 L
837.575 57.791 L
837.963 88.619 L
838.35 56.415 L
838.737 51.048 L
839.125 38.524 L
839.513 88.619 L
839.9 54.179 L
840.287 56.415 L
840.675 51.707 L
841.063 38.524 L
841.45 53.258 L
841.838 38.524 L
842.225 69.833 L
842.612 59.397 L
843 55.222 L
843.388 52.439 L
843.775 85.488 L
844.162 101.143 L
844.55 69.833 L
844.938 74.306 L
845.325 57.791 L
845.713 54.179 L
846.1 52.439 L
846.487 51.707 L
846.875 66.355 L
847.263 38.524 L
847.65 38.524 L
848.037 67.992 L
848.425 74.306 L
848.813 80.27 L
849.2 53.258 L
849.588 59.397 L
849.975 38.524 L
850.362 53.258 L
850.75 61.294 L
851.138 71.921 L
851.525 84.065 L
851.912 38.524 L
852.3 106.836 L
852.688 142.889 L
853.075 115.593 L
853.463 38.524 L
853.85 80.27 L
854.237 106.836 L
854.625 74.306 L
855.013 38.524 L
855.4 52.439 L
855.787 63.571 L
856.175 52.439 L
856.563 38.524 L
856.95 77.059 L
857.338 82.725 L
857.725 74.306 L
858.112 96.326 L
858.5 67.992 L
858.888 49.909 L
859.275 62.379 L
859.662 56.415 L
860.05 71.921 L
860.438 51.707 L
860.825 53.258 L
861.213 77.059 L
861.6 106.836 L
861.987 80.27 L
862.375 38.524 L
862.763 38.524 L
863.15 80.27 L
863.537 74.306 L
863.925 54.179 L
864.313 51.707 L
864.7 80.27 L
865.088 63.571 L
865.475 53.258 L
865.862 71.921 L
866.25 51.048 L
866.638 55.222 L
867.025 77.059 L
867.412 59.397 L
867.8 94.185 L
868.188 74.306 L
868.575 74.306 L
868.963 96.326 L
869.35 63.571 L
869.737 54.179 L
870.125 53.258 L
870.513 38.524 L
870.9 55.222 L
871.287 38.524 L
871.675 38.524 L
872.063 188.81 L
872.45 55.222 L
872.838 96.326 L
873.225 53.258 L
873.612 101.143 L
874 113.667 L
874.388 74.306 L
874.775 38.524 L
875.162 50.451 L
875.55 92.197 L
875.938 71.921 L
876.325 77.059 L
876.713 67.992 L
877.1 55.222 L
877.487 53.258 L
877.875 63.571 L
878.263 106.836 L
878.65 38.524 L
879.037 115.593 L
879.425 38.524 L
879.813 77.059 L
880.2 115.593 L
880.588 54.179 L
880.975 88.619 L
881.362 77.059 L
881.75 53.258 L
882.138 52.439 L
882.525 38.524 L
882.912 106.836 L
883.3 64.89 L
883.688 38.524 L
884.075 50.451 L
884.463 77.059 L
884.85 74.306 L
885.237 61.294 L
885.625 51.707 L
886.013 38.524 L
886.4 53.258 L
886.787 66.355 L
887.175 67.992 L
887.563 96.326 L
887.95 96.326 L
888.338 53.258 L
888.725 54.179 L
889.112 61.294 L
889.5 92.197 L
889.888 38.524 L
890.275 55.222 L
890.662 57.791 L
891.05 53.258 L
891.438 54.179 L
891.825 54.179 L
892.213 56.415 L
892.6 63.571 L
892.987 54.179 L
893.375 53.258 L
893.763 52.439 L
894.15 69.833 L
894.537 52.439 L
894.925 64.89 L
895.313 77.059 L
895.7 80.27 L
896.088 54.179 L
896.475 74.306 L
896.862 85.488 L
897.25 71.921 L
897.638 54.179 L
898.025 38.524 L
898.412 57.791 L
898.8 96.326 L
899.188 163.762 L
899.575 80.27 L
899.963 96.326 L
900.35 67.992 L
900.737 96.326 L
901.125 38.524 L
901.513 63.571 L
901.9 59.397 L
902.287 51.048 L
902.675 96.326 L
903.063 71.921 L
903.45 51.707 L
903.838 67.992 L
904.225 53.258 L
904.612 54.179 L
905 67.992 L
S
GR
GS
1 0 0 RC
1 LJ
0.5 LW
N
169.525 85.014 M
169.913 84.618 L
170.3 83.866 L
170.688 83.382 L
171.075 83.025 L
171.462 81.9 L
171.85 82.193 L
172.238 81.161 L
172.625 80.18 L
173.012 79.201 L
173.4 78.373 L
173.788 77.296 L
174.175 77.136 L
174.563 76.451 L
174.95 75.503 L
175.337 74.827 L
175.725 74.105 L
176.113 73.531 L
176.5 72.735 L
176.887 71.975 L
177.275 71.355 L
177.663 70.793 L
178.05 70.12 L
178.438 69.476 L
178.825 68.857 L
179.212 68.475 L
179.6 67.384 L
179.988 66.215 L
180.375 65.162 L
180.762 62.93 L
181.15 62.93 L
181.538 62.641 L
181.925 61.795 L
182.313 60.813 L
182.7 60.158 L
183.087 59.025 L
183.475 58.249 L
183.863 56.846 L
184.25 56.329 L
184.637 54.926 L
185.025 54.598 L
185.413 54.081 L
185.8 53.59 L
186.188 52.149 L
186.575 50.935 L
186.962 49.462 L
187.35 48.643 L
187.738 48.45 L
188.125 47.14 L
188.512 46.906 L
188.9 46.087 L
189.288 45.829 L
189.675 45.127 L
190.063 44.636 L
190.45 44.022 L
190.837 43.352 L
191.225 43.164 L
191.613 42.13 L
192 41.941 L
192.387 41.759 L
192.775 41.614 L
193.163 41.401 L
193.55 41.583 L
193.938 40.942 L
194.325 40.708 L
194.712 40.708 L
195.1 40.973 L
195.488 41.052 L
195.875 40.839 L
196.262 41.146 L
196.65 41.146 L
197.038 41.049 L
197.425 41.137 L
197.813 41.319 L
198.2 41.319 L
198.587 41.319 L
198.975 41.319 L
199.363 41.319 L
199.75 41.179 L
200.137 41.486 L
200.525 41.486 L
200.913 41.699 L
201.3 42.518 L
201.688 42.872 L
202.075 42.872 L
202.462 42.872 L
202.85 43.048 L
203.238 43.048 L
203.625 43.293 L
204.012 43.539 L
204.4 43.812 L
204.788 44.016 L
205.175 44.937 L
205.563 44.937 L
205.95 45.014 L
206.337 44.825 L
206.725 44.825 L
207.113 44.825 L
207.5 45.018 L
207.887 45.018 L
208.275 44.86 L
208.663 44.86 L
209.05 45.223 L
209.438 45.769 L
209.825 45.933 L
210.212 46.102 L
210.6 46.757 L
210.988 47.335 L
211.375 47.498 L
211.762 47.744 L
212.15 48.358 L
212.538 48.592 L
212.925 48.592 L
213.313 48.615 L
213.7 48.965 L
214.087 49.17 L
214.475 49.17 L
214.863 48.724 L
215.25 48.527 L
215.637 48.527 L
216.025 48.396 L
216.413 48.396 L
216.8 48.554 L
217.188 48.545 L
217.575 48.363 L
217.962 48.597 L
218.35 48.597 L
218.738 48.383 L
219.125 48.383 L
219.512 48.572 L
219.9 48.265 L
220.288 48.265 L
220.675 48.052 L
221.063 47.233 L
221.45 46.742 L
221.837 47.724 L
222.225 47.724 L
222.613 47.549 L
223 47.731 L
223.387 47.485 L
223.775 47.24 L
224.163 46.967 L
224.55 46.762 L
224.938 45.841 L
225.325 46.13 L
225.712 46.375 L
226.1 46.588 L
226.488 46.588 L
226.875 46.588 L
227.262 46.488 L
227.65 46.712 L
228.038 46.712 L
228.425 47.039 L
228.813 46.675 L
229.2 46.13 L
229.587 46.224 L
229.975 46.244 L
230.363 45.848 L
230.75 45.27 L
231.137 45.329 L
231.525 45.084 L
231.913 45.015 L
232.3 45.027 L
232.688 45.027 L
233.075 45.068 L
233.462 45.295 L
233.85 45.314 L
234.238 45.76 L
234.625 45.983 L
235.012 45.983 L
235.4 45.983 L
235.788 46.031 L
236.175 46.359 L
236.563 46.627 L
236.95 47.405 L
237.337 47.65 L
237.725 47.675 L
238.113 47.909 L
238.5 48.302 L
238.887 48.591 L
239.275 48.87 L
239.663 49.128 L
240.05 49.128 L
240.438 49.31 L
240.825 49.827 L
241.212 51.613 L
241.6 51.008 L
241.988 51.222 L
242.375 51.222 L
242.762 51.286 L
243.15 51.732 L
243.538 51.978 L
243.925 51.978 L
244.313 51.978 L
244.7 52.267 L
245.087 51.978 L
245.475 51.461 L
245.863 51.247 L
246.25 51.625 L
246.637 51.821 L
247.025 51.494 L
247.413 51.271 L
247.8 51.271 L
248.188 51.177 L
248.575 51.382 L
248.962 51.689 L
249.35 51.898 L
249.738 51.709 L
250.125 51.664 L
250.512 52.111 L
250.9 52.78 L
251.288 53.763 L
251.675 53.49 L
252.063 53.595 L
252.45 54.173 L
252.837 54.473 L
253.225 54.141 L
253.613 54.838 L
254 54.605 L
254.387 54.928 L
254.775 54.928 L
255.163 55.355 L
255.55 55.328 L
255.938 55.819 L
256.325 55.392 L
256.712 55.543 L
257.1 55.815 L
257.487 57.739 L
257.875 58.908 L
258.263 60.48 L
258.65 60.947 L
259.038 60.752 L
259.425 60.493 L
259.813 61.546 L
260.2 62.519 L
260.587 63.891 L
260.975 63.743 L
261.362 64.417 L
261.75 64.4 L
262.138 65.911 L
262.525 66.244 L
262.913 66.206 L
263.3 66.662 L
263.688 67.818 L
264.075 70.001 L
264.462 70.487 L
264.85 71.621 L
265.237 72.089 L
265.625 72.439 L
266.013 72.639 L
266.4 74.332 L
266.788 74.987 L
267.175 77.715 L
267.563 78.943 L
267.95 78.709 L
268.337 80.29 L
268.725 81.117 L
269.112 81.702 L
269.5 81.935 L
269.888 82.813 L
270.275 82.367 L
270.663 82.877 L
271.05 82.816 L
271.438 83.882 L
271.825 84.871 L
272.212 85.275 L
272.6 85.275 L
272.987 85.319 L
273.375 86.035 L
273.763 87.049 L
274.15 88.289 L
274.538 89.342 L
274.925 90.552 L
275.313 93.034 L
275.7 92.971 L
276.087 94.757 L
276.475 93.975 L
276.862 94.767 L
277.25 94.222 L
277.638 95.888 L
278.025 96.652 L
278.413 96.224 L
278.8 96.653 L
279.188 97.354 L
279.575 98.485 L
279.962 98.966 L
280.35 99.31 L
280.737 99.184 L
281.125 100.096 L
281.513 101.239 L
281.9 100.648 L
282.288 100.889 L
282.675 102.234 L
283.063 103.318 L
283.45 103.254 L
283.837 104.141 L
284.225 103.775 L
284.612 103.981 L
285 106.192 L
285.388 108.788 L
285.775 110.939 L
286.163 110.561 L
286.55 110.827 L
286.938 109.232 L
287.325 109.641 L
287.712 110.296 L
288.1 109.643 L
288.487 109.265 L
288.875 108.54 L
289.263 110.489 L
289.65 110.45 L
290.038 112.236 L
290.425 113.289 L
290.813 115.096 L
291.2 114.575 L
291.587 114.288 L
291.975 114.709 L
292.362 116.005 L
292.75 117.228 L
293.138 117.125 L
293.525 117.125 L
293.913 116.977 L
294.3 118.38 L
294.688 117.561 L
295.075 116.222 L
295.462 116.359 L
295.85 116.462 L
296.237 118.84 L
296.625 119.316 L
297.013 118.498 L
297.4 116.656 L
297.788 116.874 L
298.175 117.775 L
298.563 118.125 L
298.95 118.557 L
299.337 118.607 L
299.725 118.607 L
300.112 118.011 L
300.5 117.903 L
300.888 116.921 L
301.275 119.265 L
301.663 119.237 L
302.05 120.205 L
302.438 119.79 L
302.825 120.46 L
303.212 119.815 L
303.6 118.085 L
303.987 119.313 L
304.375 120.92 L
304.763 121.048 L
305.15 121.784 L
305.538 122.125 L
305.925 123.343 L
306.313 125.369 L
306.7 127.509 L
307.087 129.692 L
307.475 132.107 L
307.862 135.271 L
308.25 136.971 L
308.638 139.099 L
309.025 140.191 L
309.413 141.027 L
309.8 141.92 L
310.188 142.193 L
310.575 140.692 L
310.962 142.329 L
311.35 143.46 L
311.737 145.565 L
312.125 145.687 L
312.513 146.409 L
312.9 147.602 L
313.288 147.602 L
313.675 148.148 L
314.063 148.967 L
314.45 150.38 L
314.837 150.678 L
315.225 151.831 L
315.612 150.698 L
316 148.32 L
316.388 147.189 L
316.775 147.189 L
317.163 147.271 L
317.55 146.371 L
317.938 146.371 L
318.325 146.722 L
318.712 146.722 L
319.1 145.623 L
319.487 147.055 L
319.875 149.715 L
320.263 149.445 L
320.65 150.428 L
321.038 148.53 L
321.425 149.111 L
321.813 150.053 L
322.2 151.783 L
322.587 151.114 L
322.975 151.322 L
323.362 150.738 L
323.75 150.153 L
324.138 148.434 L
324.525 146.174 L
324.913 143.104 L
325.3 141.82 L
325.688 139.91 L
326.075 137.509 L
326.462 136.468 L
326.85 134.831 L
327.237 132.654 L
327.625 133.268 L
328.013 131.631 L
328.4 130.157 L
328.788 130.567 L
329.175 132.887 L
329.563 131.846 L
329.95 130.628 L
330.337 131.365 L
330.725 132.417 L
331.112 133.509 L
331.5 132.233 L
331.888 131.78 L
332.275 131.184 L
332.663 130.502 L
333.05 131.73 L
333.438 132.003 L
333.825 132.003 L
334.212 132.003 L
334.6 131.839 L
334.987 131.757 L
335.375 133.73 L
335.763 134.607 L
336.15 136.408 L
336.538 137.636 L
336.925 137.837 L
337.313 138.247 L
337.7 138.805 L
338.087 138.268 L
338.475 139.367 L
338.862 140.962 L
339.25 138.945 L
339.638 136.051 L
340.025 136.882 L
340.413 137.646 L
340.8 137.088 L
341.188 138.684 L
341.575 136.711 L
341.962 135.688 L
342.35 135.413 L
342.737 136.068 L
343.125 138.382 L
343.513 138.669 L
343.9 139.897 L
344.288 141.534 L
344.675 141.676 L
345.063 141.676 L
345.45 143.313 L
345.837 144.732 L
346.225 143.482 L
346.612 142.638 L
347 143.257 L
347.388 142.555 L
347.775 144.415 L
348.163 147.116 L
348.55 146.162 L
348.938 144.631 L
349.325 145.722 L
349.712 145.55 L
350.1 146.042 L
350.487 144.319 L
350.875 142.519 L
351.263 142.965 L
351.65 143.418 L
352.038 143.255 L
352.425 143.937 L
352.813 142.992 L
353.2 144.746 L
353.587 142.291 L
353.975 141.398 L
354.362 140.977 L
354.75 140.901 L
355.138 140.901 L
355.525 142.402 L
355.913 140.765 L
356.3 140.683 L
356.688 141.851 L
357.075 142.124 L
357.462 142.793 L
357.85 144.109 L
358.237 143.35 L
358.625 142.259 L
359.013 142.992 L
359.4 142.817 L
359.788 143.659 L
360.175 143.163 L
360.563 144.118 L
360.95 141.804 L
361.337 142.685 L
361.725 142.276 L
362.112 141.072 L
362.5 141.548 L
362.888 140.116 L
363.275 141.232 L
363.663 140.287 L
364.05 139.742 L
364.438 141.219 L
364.825 141.274 L
365.212 139.871 L
365.6 140.853 L
365.987 141.211 L
366.375 141.508 L
366.763 141.783 L
367.15 139.21 L
367.538 138.764 L
367.925 136.718 L
368.313 134.971 L
368.7 134.475 L
369.087 133.533 L
369.475 134.158 L
369.862 134.772 L
370.25 135.932 L
370.638 136.915 L
371.025 137.305 L
371.413 138.615 L
371.8 139.247 L
372.188 138.483 L
372.575 139.7 L
372.962 136.192 L
373.35 136.192 L
373.737 138.536 L
374.125 139.666 L
374.513 140.233 L
374.9 139.687 L
375.288 137.852 L
375.675 137.647 L
376.063 137.022 L
376.45 135.571 L
376.837 133.934 L
377.225 133.711 L
377.612 133.574 L
378 133.887 L
378.388 136.069 L
378.775 135.921 L
379.163 135.921 L
379.55 135.843 L
379.938 135.396 L
380.325 135.892 L
380.712 136.774 L
381.1 136.476 L
381.487 139.136 L
381.875 141.899 L
382.263 143.387 L
382.65 143.536 L
383.038 143.313 L
383.425 143.275 L
383.813 142.559 L
384.2 142.291 L
384.587 141.96 L
384.975 143.091 L
385.362 144.441 L
385.75 143.858 L
386.138 144.453 L
386.525 145.123 L
386.913 144.713 L
387.3 143.614 L
387.688 144.433 L
388.075 144.433 L
388.462 143.887 L
388.85 144.148 L
389.237 142.51 L
389.625 142.169 L
390.013 140.532 L
390.4 139.416 L
390.788 138.802 L
391.175 136.661 L
391.563 135.423 L
391.95 136.187 L
392.337 134.97 L
392.725 136.233 L
393.112 138.143 L
393.5 136.424 L
393.888 135.134 L
394.275 133.38 L
394.663 132.834 L
395.05 133.075 L
395.438 133.689 L
395.825 133.986 L
396.212 133.46 L
396.6 134.415 L
396.987 132.76 L
397.375 132.225 L
397.763 131.421 L
398.15 129.388 L
398.538 129.715 L
398.925 129.243 L
399.313 127.567 L
399.7 128.013 L
400.087 126.845 L
400.475 127.255 L
400.862 127.552 L
401.25 124.483 L
401.638 123.199 L
402.025 122.157 L
402.413 122.26 L
402.8 121.256 L
403.188 121.829 L
403.575 123.977 L
403.962 124.469 L
404.35 126.641 L
404.737 126.095 L
405.125 123.762 L
405.513 126.281 L
405.9 126.281 L
406.288 125.053 L
406.675 125.79 L
407.063 126.889 L
407.45 126.07 L
407.837 126.561 L
408.225 126.152 L
408.612 125.617 L
409 127.075 L
409.388 125.166 L
409.775 125.642 L
410.163 126.485 L
410.55 126.758 L
410.938 127.098 L
411.325 129.178 L
411.712 129.958 L
412.1 129.756 L
412.487 129.578 L
412.875 129.919 L
413.263 130.186 L
413.65 131.079 L
414.038 131.196 L
414.425 131.345 L
414.813 131.849 L
415.2 132.586 L
415.587 132.46 L
415.975 133.723 L
416.362 132.904 L
416.75 134.112 L
417.138 133.583 L
417.525 133.42 L
417.913 133.271 L
418.3 133.092 L
418.688 134.569 L
419.075 135.699 L
419.462 136.195 L
419.85 136.47 L
420.237 135.476 L
420.625 136.072 L
421.013 135.896 L
421.4 135.244 L
421.788 134.648 L
422.175 135.215 L
422.563 135.121 L
422.95 134.414 L
423.337 134.073 L
423.725 131.995 L
424.112 131.04 L
424.5 131.367 L
424.888 132.472 L
425.275 131.162 L
425.663 132 L
426.05 132.955 L
426.438 132.776 L
426.825 132.726 L
427.212 133.054 L
427.6 132.501 L
427.987 132.613 L
428.375 134.171 L
428.763 135.114 L
429.15 136.081 L
429.538 136.751 L
429.925 135.908 L
430.313 135.412 L
430.7 136.171 L
431.087 135.952 L
431.475 135.173 L
431.862 135.374 L
432.25 135.374 L
432.638 135.988 L
433.025 137.439 L
433.413 138.723 L
433.8 140.633 L
434.188 140.32 L
434.575 140.157 L
434.962 140.921 L
435.35 140.637 L
435.737 140.855 L
436.125 142.306 L
436.513 142.976 L
436.9 144.45 L
437.288 146.087 L
437.675 146.905 L
438.063 147.575 L
438.45 148.289 L
438.837 149.176 L
439.225 148.337 L
439.612 148.783 L
440 150.186 L
440.388 150.137 L
440.775 151.813 L
441.163 152.019 L
441.55 153.11 L
441.938 153.929 L
442.325 154.269 L
442.712 155.162 L
443.1 155.112 L
443.487 156.967 L
443.875 156.967 L
444.263 156.639 L
444.65 155.081 L
445.038 154.754 L
445.425 153.321 L
445.813 153.103 L
446.2 154.045 L
446.587 154.591 L
446.975 154.591 L
447.362 154.563 L
447.75 155.27 L
448.138 156.41 L
448.525 156.628 L
448.913 158.351 L
449.3 158.842 L
449.688 158.73 L
450.075 157.589 L
450.462 158.631 L
450.85 160.112 L
451.237 160.658 L
451.625 160.933 L
452.013 161.329 L
452.4 161.329 L
452.788 160.102 L
453.175 158.997 L
453.563 159.706 L
453.95 160.688 L
454.337 159.916 L
454.725 161.398 L
455.112 162.898 L
455.5 162.501 L
455.888 161.46 L
456.275 162.687 L
456.663 163.301 L
457.05 161.979 L
457.438 160.833 L
457.825 160.833 L
458.212 158.642 L
458.6 157.805 L
458.987 157.88 L
459.375 159.858 L
459.763 159.039 L
460.15 158.903 L
460.538 157.96 L
460.925 157.96 L
461.313 157.687 L
461.7 155.752 L
462.087 156.065 L
462.475 156.288 L
462.862 154.662 L
463.25 155.376 L
463.638 154.434 L
464.025 153.849 L
464.413 154.302 L
464.8 155.735 L
465.188 156.062 L
465.575 156.28 L
465.962 155.338 L
466.35 153.837 L
466.737 153.659 L
467.125 156.975 L
467.513 156.975 L
467.9 155.221 L
468.288 156.094 L
468.675 155.315 L
469.063 154.005 L
469.45 154.414 L
469.837 155.288 L
470.225 153.65 L
470.612 150.78 L
471 148.12 L
471.388 148.517 L
471.775 147.153 L
472.163 144.124 L
472.55 143.071 L
472.938 142.446 L
473.325 139.901 L
473.712 139.492 L
474.1 140.576 L
474.487 136.718 L
474.875 134.603 L
475.263 136.091 L
475.65 136.637 L
476.038 136.637 L
476.425 135.041 L
476.813 135.135 L
477.2 136.895 L
477.587 135.779 L
477.975 138.298 L
478.362 138.521 L
478.75 140.766 L
479.138 138.521 L
479.525 139.563 L
479.913 139.153 L
480.3 139.005 L
480.688 139.451 L
481.075 141.907 L
481.462 142.75 L
481.85 142.929 L
482.237 141.455 L
482.625 142.858 L
483.013 140.157 L
483.4 140.157 L
483.788 140.891 L
484.175 141.655 L
484.563 139.925 L
484.95 139.299 L
485.337 138.754 L
485.725 137.786 L
486.112 137.541 L
486.5 136.028 L
486.888 133.604 L
487.275 133.79 L
487.663 133.12 L
488.05 130.64 L
488.438 128.73 L
488.825 128.604 L
489.212 127.949 L
489.6 127.622 L
489.987 128.44 L
490.375 128.153 L
490.763 129.325 L
491.15 128.452 L
491.538 128.861 L
491.925 129.546 L
492.313 130.598 L
492.7 131.491 L
493.087 132.781 L
493.475 131.49 L
493.862 131.49 L
494.25 132.651 L
494.638 134.22 L
495.025 132.583 L
495.413 131.533 L
495.8 128.771 L
496.188 130.026 L
496.575 129.071 L
496.962 126.352 L
497.35 127.468 L
497.737 127.702 L
498.125 128.053 L
498.513 125.732 L
498.9 126.714 L
499.288 125.673 L
499.675 125.509 L
500.063 126.055 L
500.45 126.233 L
500.837 123.164 L
501.225 122.291 L
501.612 123.054 L
502 123.546 L
502.388 121.468 L
502.775 121.768 L
503.163 120.684 L
503.55 120.862 L
503.938 119.116 L
504.325 118.932 L
504.712 119.23 L
505.1 118.575 L
505.487 119.23 L
505.875 121.931 L
506.263 124.114 L
506.65 124.114 L
507.038 124.064 L
507.425 123.915 L
507.813 125.032 L
508.2 125.999 L
508.587 126.125 L
508.975 128.089 L
509.362 128.089 L
509.75 127.42 L
510.138 127.595 L
510.525 128.265 L
510.913 129.684 L
511.3 130.911 L
511.688 131.045 L
512.075 131.864 L
512.463 131.035 L
512.85 130.638 L
513.237 130.46 L
513.625 132.182 L
514.013 131.538 L
514.4 129.682 L
514.787 129.519 L
515.175 129.613 L
515.563 130.478 L
515.95 128.505 L
516.338 130.121 L
516.725 131.556 L
517.112 129.715 L
517.5 127.718 L
517.888 127.64 L
518.275 127.224 L
518.662 125.681 L
519.05 125.096 L
519.438 124.032 L
519.825 123.896 L
520.213 123.159 L
520.6 123.773 L
520.987 125.41 L
521.375 123.815 L
521.763 124.127 L
522.15 124.802 L
522.537 127.53 L
522.925 128.302 L
523.313 129.612 L
523.7 130.415 L
524.088 129.838 L
524.475 129.334 L
524.862 129.485 L
525.25 129.798 L
525.638 127.454 L
526.025 126.131 L
526.412 126.131 L
526.8 127.018 L
527.188 127.018 L
527.575 126.2 L
527.963 126.168 L
528.35 125.758 L
528.737 124.039 L
529.125 124.188 L
529.513 123.104 L
529.9 123.104 L
530.287 122.613 L
530.675 121.112 L
531.063 120.13 L
531.45 121.385 L
531.838 119.748 L
532.225 119.982 L
532.612 119.535 L
533 120.431 L
533.388 118.56 L
533.775 118.746 L
534.162 118.746 L
534.55 119.058 L
534.938 120.286 L
535.325 120.956 L
535.713 121.837 L
536.1 120.841 L
536.487 120.395 L
536.875 120.702 L
537.263 120.702 L
537.65 118.675 L
538.037 117.693 L
538.425 117.763 L
538.813 117.466 L
539.2 117.923 L
539.588 118.333 L
539.975 117.394 L
540.362 116.575 L
540.75 114.681 L
541.138 114.887 L
541.525 115.147 L
541.912 114.796 L
542.3 112.443 L
542.688 111.487 L
543.075 110.445 L
543.463 110.445 L
543.85 112.323 L
544.237 113.645 L
544.625 114.298 L
545.013 113.851 L
545.4 114.023 L
545.787 115.836 L
546.175 115.103 L
546.563 113.67 L
546.95 114.762 L
547.338 114.258 L
547.725 113.843 L
548.112 114.848 L
548.5 114.376 L
548.888 113.408 L
549.275 115.435 L
549.662 115.1 L
550.05 115.591 L
550.438 115.416 L
550.825 115.729 L
551.213 114.786 L
551.6 114.459 L
551.987 114.786 L
552.375 115.084 L
552.763 114.503 L
553.15 114.34 L
553.537 114.924 L
553.925 116.383 L
554.313 116.07 L
554.7 115.847 L
555.088 115.356 L
555.475 115.951 L
555.862 115.76 L
556.25 116.057 L
556.638 115.444 L
557.025 114.634 L
557.412 114.751 L
557.8 115.393 L
558.188 115.393 L
558.575 116.041 L
558.963 116.041 L
559.35 113.913 L
559.737 115.588 L
560.125 114.933 L
560.513 115.109 L
560.9 115.658 L
561.287 117.12 L
561.675 118.204 L
562.063 118.336 L
562.45 118.712 L
562.838 116.786 L
563.225 117.233 L
563.612 115.479 L
564 113.023 L
564.388 112.329 L
564.775 111.262 L
565.162 111.09 L
565.55 110.326 L
565.938 110.029 L
566.325 110.029 L
566.713 107.956 L
567.1 109.005 L
567.487 108.975 L
567.875 107.664 L
568.263 107.286 L
568.65 107.941 L
569.037 106.031 L
569.425 107.594 L
569.813 106.649 L
570.2 106.825 L
570.588 107.085 L
570.975 107.755 L
571.362 108.082 L
571.75 109.626 L
572.138 109.462 L
572.525 109.797 L
572.912 109.551 L
573.3 109.7 L
573.688 109.388 L
574.075 109.142 L
574.463 108.138 L
574.85 106.828 L
575.237 106.233 L
575.625 106.424 L
576.013 106.26 L
576.4 109.227 L
576.787 110.758 L
577.175 111.249 L
577.563 111.249 L
577.95 110.909 L
578.338 109.834 L
578.725 110.306 L
579.112 110.872 L
579.5 111.586 L
579.888 110.893 L
580.275 110.421 L
580.662 110.714 L
581.05 108.434 L
581.438 109.377 L
581.825 111.053 L
582.213 112.888 L
582.6 113.715 L
582.987 113.119 L
583.375 116.101 L
583.763 116.994 L
584.15 118.135 L
584.537 120.932 L
584.925 120.411 L
585.313 119.149 L
585.7 118.771 L
586.088 118.92 L
586.475 119.902 L
586.862 119.561 L
587.25 119.725 L
587.638 121.533 L
588.025 124.838 L
588.412 126.094 L
588.8 126.408 L
589.188 127.227 L
589.575 128.444 L
589.963 128.109 L
590.35 127.849 L
590.737 128.122 L
591.125 127.467 L
591.513 125.923 L
591.9 125.678 L
592.287 127.179 L
592.675 127.705 L
593.063 126.328 L
593.45 126.258 L
593.838 125.732 L
594.225 125.159 L
594.612 126.96 L
595 126.662 L
595.388 126.997 L
595.775 126.997 L
596.162 125.36 L
596.55 124.261 L
596.938 124.084 L
597.325 123.844 L
597.713 123.365 L
598.1 123.693 L
598.487 124.809 L
598.875 126.986 L
599.263 125.289 L
599.65 127.046 L
600.037 127.382 L
600.425 127.164 L
600.813 127.276 L
601.2 125.093 L
601.588 123.257 L
601.975 121.662 L
602.362 121.511 L
602.75 120.452 L
603.138 117.096 L
603.525 118.092 L
603.912 118.315 L
604.3 115.518 L
604.688 116.211 L
605.075 115.699 L
605.463 116.242 L
605.85 116.912 L
606.237 116.408 L
606.625 116.352 L
607.013 117.949 L
607.4 116.694 L
607.787 113.931 L
608.175 111.816 L
608.563 111.816 L
608.95 110.179 L
609.338 108.924 L
609.725 109.92 L
610.112 108.543 L
610.5 106.193 L
610.888 105.865 L
611.275 104.953 L
611.662 103.725 L
612.05 102.307 L
612.438 100.825 L
612.825 100.723 L
613.213 100.302 L
613.6 100.583 L
613.987 101.714 L
614.375 99.804 L
614.763 99.22 L
615.15 99.503 L
615.537 98.786 L
615.925 98.934 L
616.313 99.029 L
616.7 98.714 L
617.088 100.55 L
617.475 102.127 L
617.862 102.564 L
618.25 101.16 L
618.638 100.274 L
619.025 102.238 L
619.412 100.543 L
619.8 101.237 L
620.188 100.501 L
620.575 100.634 L
620.963 100.79 L
621.35 101.535 L
621.737 101.493 L
622.125 101.329 L
622.513 102.154 L
622.9 102.528 L
623.287 101.532 L
623.675 101.532 L
624.063 102.312 L
624.45 102.312 L
624.838 102.21 L
625.225 101.735 L
625.612 100.619 L
626 100.064 L
626.388 100.733 L
626.775 98.073 L
627.162 97.691 L
627.55 98.407 L
627.938 98.171 L
628.325 99.084 L
628.713 100.517 L
629.1 100.383 L
629.487 100.28 L
629.875 101.381 L
630.263 102.79 L
630.65 104.099 L
631.037 106.116 L
631.425 107.344 L
631.813 107.546 L
632.2 109.059 L
632.588 109.734 L
632.975 110.935 L
633.362 110.186 L
633.75 109.293 L
634.138 110.087 L
634.525 110.559 L
634.912 110.276 L
635.3 111.753 L
635.688 112.422 L
636.075 112.981 L
636.463 113.295 L
636.85 110.567 L
637.237 108.685 L
637.625 108.412 L
638.013 108.493 L
638.4 107.65 L
638.787 106.668 L
639.175 108.773 L
639.563 108.039 L
639.95 107.1 L
640.338 106.679 L
640.725 107.615 L
641.112 107.205 L
641.5 106.87 L
641.888 106.519 L
642.275 106.753 L
642.662 106.274 L
643.05 106.721 L
643.438 106.498 L
643.825 106.201 L
644.213 106.327 L
644.6 107.806 L
644.987 107.632 L
645.375 106.739 L
645.763 106.434 L
646.15 104.251 L
646.537 104.544 L
646.925 106.181 L
647.313 105.362 L
647.7 105.291 L
648.088 104.584 L
648.475 101.842 L
648.862 101.842 L
649.25 103.126 L
649.638 104.07 L
650.025 103.758 L
650.412 104.026 L
650.8 102.921 L
651.188 103.032 L
651.575 102.574 L
651.963 101.921 L
652.35 102.45 L
652.737 100.556 L
653.125 101.078 L
653.513 100.84 L
653.9 99.5 L
654.287 98.561 L
654.675 98.467 L
655.063 98.69 L
655.45 96.812 L
655.838 95.728 L
656.225 95.822 L
656.612 99.097 L
657 100.257 L
657.388 100.666 L
657.775 100.234 L
658.162 99.651 L
658.55 98.738 L
658.938 96.61 L
659.325 95.967 L
659.713 96.434 L
660.1 96.515 L
660.487 95.969 L
660.875 95.048 L
661.263 94.62 L
661.65 95.38 L
662.037 95.707 L
662.425 96.618 L
662.813 96.171 L
663.2 94.64 L
663.588 95.224 L
663.975 94.48 L
664.362 94.927 L
664.75 95.993 L
665.138 98.275 L
665.525 98.821 L
665.912 99.53 L
666.3 99.647 L
666.688 98.052 L
667.075 98.871 L
667.463 99.265 L
667.85 99.059 L
668.237 100.369 L
668.625 100.163 L
669.013 97.849 L
669.4 95.802 L
669.787 95.085 L
670.175 93.745 L
670.563 93.827 L
670.95 94.534 L
671.338 94.955 L
671.725 94.436 L
672.112 93.302 L
672.5 93.769 L
672.888 93.832 L
673.275 93.555 L
673.662 93.555 L
674.05 94.248 L
674.438 93.933 L
674.825 92.46 L
675.213 91.882 L
675.6 94.864 L
675.987 94.182 L
676.375 91.663 L
676.763 90.503 L
677.15 90.408 L
677.537 89.707 L
677.925 90.004 L
678.313 89.224 L
678.7 89.511 L
679.088 89.994 L
679.475 90.291 L
679.862 89.465 L
680.25 89.266 L
680.638 89.661 L
681.025 89.711 L
681.412 89.536 L
681.8 88.554 L
682.188 87.42 L
682.575 86.905 L
682.963 86.72 L
683.35 85.759 L
683.737 85.999 L
684.125 84.056 L
684.513 82.975 L
684.9 80.824 L
685.287 80.294 L
685.675 80.54 L
686.063 80.168 L
686.45 79.853 L
686.838 79.137 L
687.225 80.668 L
687.612 81.717 L
688 80.694 L
688.388 79.867 L
688.775 80.033 L
689.162 80.676 L
689.55 79.92 L
689.938 80.08 L
690.325 78.735 L
690.713 77.609 L
691.1 78.865 L
691.487 78.251 L
691.875 80.328 L
692.263 80.328 L
692.65 80.165 L
693.037 80.196 L
693.425 81.833 L
693.813 81.429 L
694.2 81.744 L
694.588 81.463 L
694.975 82.596 L
695.362 79.568 L
695.75 79.724 L
696.138 79.67 L
696.525 80.212 L
696.912 79.834 L
697.3 79.834 L
697.688 79.483 L
698.075 79.966 L
698.463 80.171 L
698.85 80.506 L
699.237 79.999 L
699.625 79.999 L
700.013 79.999 L
700.4 79.297 L
700.787 79.738 L
701.175 79.063 L
701.563 79.063 L
701.95 79.882 L
702.338 80.26 L
702.725 80.094 L
703.112 80.023 L
703.5 79.591 L
703.888 80.939 L
704.275 82.522 L
704.662 82.7 L
705.05 83.066 L
705.438 82.097 L
705.825 82.543 L
706.213 82.707 L
706.6 82.045 L
706.987 79.812 L
707.375 78.448 L
707.763 77.834 L
708.15 78.283 L
708.537 78.59 L
708.925 78.239 L
709.313 78.566 L
709.7 77.821 L
710.088 77.821 L
710.475 77.478 L
710.862 76.059 L
711.25 76.348 L
711.638 74.547 L
712.025 74.493 L
712.412 74.384 L
712.8 75.027 L
713.188 73.717 L
713.575 74.273 L
713.963 73.139 L
714.35 73.777 L
714.737 72.644 L
715.125 71.989 L
715.513 71.665 L
715.9 71.782 L
716.287 71.217 L
716.675 71.801 L
717.063 72.151 L
717.45 71.757 L
717.838 71.894 L
718.225 71.894 L
718.612 71.648 L
719 72.258 L
719.388 73.085 L
719.775 72.192 L
720.162 72.893 L
720.55 72.402 L
720.938 72.025 L
721.325 71.42 L
721.713 72.239 L
722.1 72.185 L
722.487 72.816 L
722.875 72.887 L
723.263 72.799 L
723.65 71.451 L
724.037 69.96 L
724.425 69.493 L
724.813 70.476 L
725.2 70.568 L
725.588 71.014 L
725.975 70.734 L
726.362 70.782 L
726.75 71.192 L
727.138 70.951 L
727.525 71.652 L
727.912 70.897 L
728.3 71.455 L
728.688 71.367 L
729.075 72.022 L
729.463 74.444 L
729.85 74.875 L
730.237 75.28 L
730.625 75.31 L
731.013 75.021 L
731.4 75.068 L
731.787 74.775 L
732.175 74.502 L
732.563 74.961 L
732.95 74.941 L
733.338 74.563 L
733.725 74.852 L
734.112 74.405 L
734.5 75.715 L
734.888 76.943 L
735.275 77.383 L
735.662 76.823 L
736.05 77.548 L
736.438 76.516 L
736.825 77.393 L
737.213 77.413 L
737.6 76.766 L
737.987 76.236 L
738.375 75.254 L
738.763 74.099 L
739.15 73.543 L
739.537 74.089 L
739.925 73.904 L
740.313 73.954 L
740.7 74.656 L
741.088 74.278 L
741.475 72.969 L
741.862 72.267 L
742.25 72.512 L
742.638 72.79 L
743.025 72.176 L
743.412 71.887 L
743.8 72.114 L
744.188 71.825 L
744.575 70.446 L
744.963 70.505 L
745.35 69.543 L
745.737 69.387 L
746.125 69.08 L
746.513 69.285 L
746.9 69.085 L
747.287 69.436 L
747.675 69.708 L
748.063 68.332 L
748.45 68.069 L
748.838 68.139 L
749.225 65.82 L
749.612 64.686 L
750 64.221 L
750.388 63.154 L
750.775 63.505 L
751.162 62.804 L
751.55 63.049 L
751.938 63.127 L
752.325 62.23 L
752.713 62.212 L
753.1 61.715 L
753.487 61.753 L
753.875 61.597 L
754.263 61.106 L
754.65 59.878 L
755.037 59.059 L
755.425 59.074 L
755.813 58.635 L
756.2 59.668 L
756.588 58.886 L
756.975 58.937 L
757.362 59.51 L
757.75 60.203 L
758.138 60.462 L
758.525 61.444 L
758.912 61.275 L
759.3 60.73 L
759.688 60.59 L
760.075 60.502 L
760.463 60.852 L
760.85 61.23 L
761.237 61.254 L
761.625 62.306 L
762.013 61.367 L
762.4 61.063 L
762.787 61.37 L
763.175 61.659 L
763.563 61.37 L
763.95 61.37 L
764.338 61.689 L
764.725 62.036 L
765.112 61.658 L
765.5 61.814 L
765.888 62.141 L
766.275 61.527 L
766.662 61.666 L
767.05 60.921 L
767.438 61.303 L
767.825 62.233 L
768.213 61.882 L
768.6 61.208 L
768.987 61.5 L
769.375 62.839 L
769.763 62.322 L
770.15 63.523 L
770.537 63.172 L
770.925 63.172 L
771.313 62.845 L
771.7 62.767 L
772.088 62.46 L
772.475 62.749 L
772.862 63.192 L
773.25 62.864 L
773.638 62.479 L
774.025 61.66 L
774.412 62.011 L
774.8 62.011 L
775.188 61.996 L
775.575 61.733 L
775.963 60.745 L
776.35 61.165 L
776.737 61.094 L
777.125 61.409 L
777.513 62.659 L
777.9 62.401 L
778.287 61.691 L
778.675 61.66 L
779.063 62.361 L
779.45 62.393 L
779.838 62.104 L
780.225 61.051 L
780.612 61.001 L
781 61.784 L
781.388 61.038 L
781.775 60.749 L
782.162 61.154 L
782.55 61.136 L
782.938 61.154 L
783.325 62.502 L
783.713 63.258 L
784.1 62.68 L
784.487 62.47 L
784.875 62.848 L
785.263 63.039 L
785.65 63.001 L
786.037 63.328 L
786.425 63.162 L
786.813 63.128 L
787.2 62.473 L
787.588 62.225 L
787.975 63.358 L
788.362 63.736 L
788.75 64.672 L
789.138 64.385 L
789.525 64.643 L
789.912 63.945 L
790.3 64.413 L
790.688 64.413 L
791.075 64.331 L
791.463 64.058 L
791.85 63.751 L
792.237 63.446 L
792.625 63.359 L
793.013 63.359 L
793.4 63.663 L
793.787 64.796 L
794.175 65.1 L
794.563 65.451 L
794.95 66.326 L
795.338 66.466 L
795.725 66.934 L
796.112 68.796 L
796.5 71.217 L
796.888 70.084 L
797.275 68.368 L
797.662 68.696 L
798.05 69.001 L
798.438 70.409 L
798.825 70.841 L
799.213 71.324 L
799.6 71.938 L
799.987 71.938 L
800.375 71.611 L
800.763 70.784 L
801.15 71.132 L
801.537 71.439 L
801.925 72.867 L
802.313 72.823 L
802.7 73.856 L
803.088 72.477 L
803.475 72.855 L
803.862 73.346 L
804.25 73.073 L
804.638 73.309 L
805.025 73.172 L
805.412 73.865 L
805.8 74.055 L
806.188 73.704 L
806.575 73.782 L
806.963 74.675 L
807.35 73.911 L
807.737 73.066 L
808.125 74.2 L
808.513 72.852 L
808.9 72.106 L
809.287 73.485 L
809.675 73.037 L
810.063 73.621 L
810.45 75.133 L
810.838 76.524 L
811.225 76.524 L
811.612 76.524 L
812 77.172 L
812.388 76.831 L
812.775 77.12 L
813.162 76.982 L
813.55 76.667 L
813.938 76.558 L
814.325 77.993 L
814.713 77.211 L
815.1 77.07 L
815.487 76.252 L
815.875 73.874 L
816.263 72.657 L
816.65 73.885 L
817.037 74.022 L
817.425 73.695 L
817.813 73.772 L
818.2 72.688 L
818.588 71.932 L
818.975 71.906 L
819.362 71.994 L
819.75 72.267 L
820.138 73.319 L
820.525 74.145 L
820.912 74.543 L
821.3 75.055 L
821.688 73.145 L
822.075 73.655 L
822.463 72.929 L
822.85 72.943 L
823.237 72.388 L
823.625 72.475 L
824.013 73.839 L
824.4 74.118 L
824.787 73.362 L
825.175 72.638 L
825.563 72.428 L
825.95 73.656 L
826.338 74.358 L
826.725 74.22 L
827.112 74.595 L
827.5 74.579 L
827.888 73.067 L
828.275 73.761 L
828.662 73.805 L
829.05 72.413 L
829.438 72.086 L
829.825 72.016 L
830.213 70.811 L
830.6 69.525 L
830.987 69.784 L
831.375 69.784 L
831.763 69.152 L
832.15 68.879 L
832.537 69.204 L
832.925 69.096 L
833.313 68.605 L
833.7 68.332 L
834.088 67.467 L
834.475 68.344 L
834.862 68.607 L
835.25 69.309 L
835.638 69.336 L
836.025 68.132 L
836.412 67.177 L
836.8 66.78 L
837.188 67.326 L
837.575 66.671 L
837.963 65.969 L
838.35 66.169 L
838.737 66.004 L
839.125 66.121 L
839.513 66.137 L
839.9 65.494 L
840.287 64.361 L
840.675 63.597 L
841.063 63.225 L
841.45 63.607 L
841.838 63.745 L
842.225 63.131 L
842.612 64.197 L
843 65.666 L
843.388 66.599 L
843.775 64.962 L
844.162 64.888 L
844.55 66.227 L
844.938 66.67 L
845.325 66.363 L
845.713 65.408 L
846.1 64.847 L
846.487 64.364 L
846.875 63.663 L
847.263 64.145 L
847.65 64.634 L
848.037 64.354 L
848.425 65.136 L
848.813 65.468 L
849.2 65.692 L
849.588 65.177 L
849.975 65.221 L
850.362 65.525 L
850.75 65.525 L
851.138 65.814 L
851.525 66.281 L
851.912 67.62 L
852.3 67.825 L
852.688 67.416 L
853.075 67.088 L
853.463 67.634 L
853.85 67.415 L
854.237 66.494 L
854.625 66.138 L
855.013 66.255 L
855.4 66.369 L
855.787 66.35 L
856.175 66.732 L
856.563 66.72 L
856.95 66.501 L
857.338 67.257 L
857.725 67.666 L
858.112 68.18 L
858.5 68.18 L
858.888 68.063 L
859.275 68.907 L
859.662 68.989 L
860.05 69.296 L
860.438 69.296 L
860.825 68.85 L
861.213 68.522 L
861.6 67.629 L
861.987 67.629 L
862.375 69.237 L
862.763 67.518 L
863.15 67.14 L
863.537 67.429 L
863.925 67.838 L
864.313 67.972 L
864.7 67.972 L
865.088 67.972 L
865.475 67.933 L
865.862 68.494 L
866.25 68.876 L
866.638 69.632 L
867.025 69.454 L
867.412 68.915 L
867.8 68.502 L
868.188 67.86 L
868.575 68.621 L
868.963 68.398 L
869.35 69.442 L
869.737 69.091 L
870.125 69.192 L
870.513 70.444 L
870.9 70.462 L
871.287 70.689 L
871.675 70.105 L
872.063 69.575 L
872.45 69.848 L
872.838 69.848 L
873.225 70.369 L
873.612 70.185 L
874 69.878 L
874.388 69.853 L
874.775 69.79 L
875.162 70 L
875.55 70.158 L
875.938 69.762 L
876.325 69.516 L
876.713 69.478 L
877.1 69.268 L
877.487 69.436 L
877.875 69.478 L
878.263 69.91 L
878.65 69.497 L
879.037 68.671 L
879.425 68.626 L
879.813 69.372 L
880.2 69.083 L
880.588 69.41 L
880.975 69.461 L
881.362 69.749 L
881.75 70.056 L
882.138 67.417 L
882.525 67.44 L
882.912 66.798 L
883.3 66.816 L
883.688 65.877 L
884.075 64.676 L
884.463 64.589 L
884.85 64.861 L
885.237 65.145 L
885.625 64.848 L
886.013 65.011 L
886.4 64.563 L
886.787 64.687 L
887.175 65.28 L
887.563 65.646 L
887.95 65.462 L
888.338 64.122 L
888.725 64.5 L
889.112 64.122 L
889.5 66.578 L
889.888 66.641 L
890.275 66.263 L
890.662 66.534 L
891.05 66.685 L
891.438 65.93 L
891.825 66.132 L
892.213 66.268 L
892.6 66.514 L
892.987 66.308 L
893.375 66.446 L
893.763 66.704 L
894.15 67.048 L
894.537 66.581 L
894.925 66.187 L
895.313 66.318 L
895.7 66.61 L
896.088 67.183 L
896.475 67.474 L
896.862 67.497 L
897.25 67.487 L
897.638 66.846 L
898.025 66.176 L
898.412 66.476 L
898.8 66.769 L
899.188 66.902 L
899.575 66.27 L
899.963 66.982 L
900.35 67.291 L
900.737 67.548 L
901.125 67.945 L
901.513 68.338 L
901.9 68.755 L
902.287 69.128 L
902.675 69.302 L
903.063 69.79 L
903.45 70.341 L
903.838 70.958 L
904.225 70.999 L
904.612 71.686 L
905 71.947 L
S
GR
%%Trailer
%%Pages: 1
%%EOF
