%!PS-Adobe-3.0 EPSF-3.0
%%Creator: (MATLAB, The Mathworks, Inc. Version 9.0.0.341360 \(R2016a\). Operating System: Linux)
%%Title: report/figures/sm_base_lin_nopriosampling1_ratio.eps
%%CreationDate: 2017-02-04T23:56:25
%%Pages: (atend)
%%BoundingBox:    59     4   910   325
%%LanguageLevel: 3
%%EndComments
%%BeginProlog
%%BeginResource: procset (Apache XML Graphics Std ProcSet) 1.2 0
%%Version: 1.2 0
%%Copyright: (Copyright 2001-2003,2010 The Apache Software Foundation. License terms: http://www.apache.org/licenses/LICENSE-2.0)
/bd{bind def}bind def
/ld{load def}bd
/GR/grestore ld
/M/moveto ld
/LJ/setlinejoin ld
/C/curveto ld
/f/fill ld
/LW/setlinewidth ld
/GC/setgray ld
/t/show ld
/N/newpath ld
/CT/concat ld
/cp/closepath ld
/S/stroke ld
/L/lineto ld
/CC/setcmykcolor ld
/A/ashow ld
/GS/gsave ld
/RC/setrgbcolor ld
/RM/rmoveto ld
/ML/setmiterlimit ld
/re {4 2 roll M
1 index 0 rlineto
0 exch rlineto
neg 0 rlineto
cp } bd
/_ctm matrix def
/_tm matrix def
/BT { _ctm currentmatrix pop matrix _tm copy pop 0 0 moveto } bd
/ET { _ctm setmatrix } bd
/iTm { _ctm setmatrix _tm concat } bd
/Tm { _tm astore pop iTm 0 0 moveto } bd
/ux 0.0 def
/uy 0.0 def
/F {
  /Tp exch def
  /Tf exch def
  Tf findfont Tp scalefont setfont
  /cf Tf def  /cs Tp def
} bd
/ULS {currentpoint /uy exch def /ux exch def} bd
/ULE {
  /Tcx currentpoint pop def
  gsave
  newpath
  cf findfont cs scalefont dup
  /FontMatrix get 0 get /Ts exch def /FontInfo get dup
  /UnderlinePosition get Ts mul /To exch def
  /UnderlineThickness get Ts mul /Tt exch def
  ux uy To add moveto  Tcx uy To add lineto
  Tt setlinewidth stroke
  grestore
} bd
/OLE {
  /Tcx currentpoint pop def
  gsave
  newpath
  cf findfont cs scalefont dup
  /FontMatrix get 0 get /Ts exch def /FontInfo get dup
  /UnderlinePosition get Ts mul /To exch def
  /UnderlineThickness get Ts mul /Tt exch def
  ux uy To add cs add moveto Tcx uy To add cs add lineto
  Tt setlinewidth stroke
  grestore
} bd
/SOE {
  /Tcx currentpoint pop def
  gsave
  newpath
  cf findfont cs scalefont dup
  /FontMatrix get 0 get /Ts exch def /FontInfo get dup
  /UnderlinePosition get Ts mul /To exch def
  /UnderlineThickness get Ts mul /Tt exch def
  ux uy To add cs 10 mul 26 idiv add moveto Tcx uy To add cs 10 mul 26 idiv add lineto
  Tt setlinewidth stroke
  grestore
} bd
/QT {
/Y22 exch store
/X22 exch store
/Y21 exch store
/X21 exch store
currentpoint
/Y21 load 2 mul add 3 div exch
/X21 load 2 mul add 3 div exch
/X21 load 2 mul /X22 load add 3 div
/Y21 load 2 mul /Y22 load add 3 div
/X22 load /Y22 load curveto
} bd
/SSPD {
dup length /d exch dict def
{
/v exch def
/k exch def
currentpagedevice k known {
/cpdv currentpagedevice k get def
v cpdv ne {
/upd false def
/nullv v type /nulltype eq def
/nullcpdv cpdv type /nulltype eq def
nullv nullcpdv or
{
/upd true def
} {
/sametype v type cpdv type eq def
sametype {
v type /arraytype eq {
/vlen v length def
/cpdvlen cpdv length def
vlen cpdvlen eq {
0 1 vlen 1 sub {
/i exch def
/obj v i get def
/cpdobj cpdv i get def
obj cpdobj ne {
/upd true def
exit
} if
} for
} {
/upd true def
} ifelse
} {
v type /dicttype eq {
v {
/dv exch def
/dk exch def
/cpddv cpdv dk get def
dv cpddv ne {
/upd true def
exit
} if
} forall
} {
/upd true def
} ifelse
} ifelse
} if
} ifelse
upd true eq {
d k v put
} if
} if
} if
} forall
d length 0 gt {
d setpagedevice
} if
} bd
%%EndResource
%%BeginResource: procset (Apache XML Graphics EPS ProcSet) 1.0 0
%%Version: 1.0 0
%%Copyright: (Copyright 2002-2003 The Apache Software Foundation. License terms: http://www.apache.org/licenses/LICENSE-2.0)
/BeginEPSF { %def
/b4_Inc_state save def         % Save state for cleanup
/dict_count countdictstack def % Count objects on dict stack
/op_count count 1 sub def      % Count objects on operand stack
userdict begin                 % Push userdict on dict stack
/showpage { } def              % Redefine showpage, { } = null proc
0 setgray 0 setlinecap         % Prepare graphics state
1 setlinewidth 0 setlinejoin
10 setmiterlimit [ ] 0 setdash newpath
/languagelevel where           % If level not equal to 1 then
{pop languagelevel             % set strokeadjust and
1 ne                           % overprint to their defaults.
{false setstrokeadjust false setoverprint
} if
} if
} bd
/EndEPSF { %def
count op_count sub {pop} repeat            % Clean up stacks
countdictstack dict_count sub {end} repeat
b4_Inc_state restore
} bd
%%EndResource
%%EndProlog
%%Page: 1 1
%%PageBoundingBox: 0 0 1000 350
%%BeginPageSetup
[1 0 0 -1 0 350] CT
%%EndPageSetup
GS
1 GC
N
0 0 1000 350 re
f
GR
GS
1 GC
N
0 0 1000 350 re
f
GR
GS
1 GC
N
130 289 M
905 289 L
905 26 L
130 26 L
cp
f
GR
GS
0.873 GC
1 LJ
0.5 LW
N
130 289 M
130 26 L
S
GR
GS
0.873 GC
1 LJ
0.5 LW
N
323.75 289 M
323.75 26 L
S
GR
GS
0.873 GC
1 LJ
0.5 LW
N
517.5 289 M
517.5 26 L
S
GR
GS
0.873 GC
1 LJ
0.5 LW
N
711.25 289 M
711.25 26 L
S
GR
GS
0.873 GC
1 LJ
0.5 LW
N
905 289 M
905 26 L
S
GR
GS
0.873 GC
1 LJ
0.5 LW
N
905 289 M
130 289 L
S
GR
GS
0.873 GC
1 LJ
0.5 LW
N
905 238.905 M
130 238.905 L
S
GR
GS
0.873 GC
1 LJ
0.5 LW
N
905 188.81 M
130 188.81 L
S
GR
GS
0.873 GC
1 LJ
0.5 LW
N
905 138.714 M
130 138.714 L
S
GR
GS
0.873 GC
1 LJ
0.5 LW
N
905 88.619 M
130 88.619 L
S
GR
GS
0.873 GC
1 LJ
0.5 LW
N
905 38.524 M
130 38.524 L
S
GR
GS
0.149 GC
2 setlinecap
1 LJ
0.5 LW
N
130 289 M
905 289 L
S
GR
GS
0.149 GC
2 setlinecap
1 LJ
0.5 LW
N
130 289 M
130 281.25 L
S
GR
GS
0.149 GC
2 setlinecap
1 LJ
0.5 LW
N
323.75 289 M
323.75 281.25 L
S
GR
GS
0.149 GC
2 setlinecap
1 LJ
0.5 LW
N
517.5 289 M
517.5 281.25 L
S
GR
GS
0.149 GC
2 setlinecap
1 LJ
0.5 LW
N
711.25 289 M
711.25 281.25 L
S
GR
GS
0.149 GC
2 setlinecap
1 LJ
0.5 LW
N
905 289 M
905 281.25 L
S
GR
GS
[1 0 0 1 130 295] CT
0.149 GC
N
-0.141 5.719 M
-1.672 5.719 -2.438 7.219 QT
-3.203 8.719 -3.203 11.719 QT
-3.203 14.719 -2.438 16.219 QT
-1.672 17.719 -0.141 17.719 QT
1.391 17.719 2.156 16.219 QT
2.922 14.719 2.922 11.719 QT
2.922 8.719 2.156 7.219 QT
1.391 5.719 -0.141 5.719 QT
cp
-0.141 4.156 M
2.313 4.156 3.602 6.094 QT
4.891 8.031 4.891 11.719 QT
4.891 15.406 3.602 17.344 QT
2.313 19.281 -0.141 19.281 QT
-2.594 19.281 -3.891 17.344 QT
-5.188 15.406 -5.188 11.719 QT
-5.188 8.031 -3.891 6.094 QT
-2.594 4.156 -0.141 4.156 QT
cp
f
GR
GS
[1 0 0 1 323.75 295] CT
0.149 GC
N
-9.641 5.719 M
-11.172 5.719 -11.938 7.219 QT
-12.703 8.719 -12.703 11.719 QT
-12.703 14.719 -11.938 16.219 QT
-11.172 17.719 -9.641 17.719 QT
-8.109 17.719 -7.344 16.219 QT
-6.578 14.719 -6.578 11.719 QT
-6.578 8.719 -7.344 7.219 QT
-8.109 5.719 -9.641 5.719 QT
cp
-9.641 4.156 M
-7.188 4.156 -5.898 6.094 QT
-4.609 8.031 -4.609 11.719 QT
-4.609 15.406 -5.898 17.344 QT
-7.188 19.281 -9.641 19.281 QT
-12.094 19.281 -13.391 17.344 QT
-14.688 15.406 -14.688 11.719 QT
-14.688 8.031 -13.391 6.094 QT
-12.094 4.156 -9.641 4.156 QT
cp
-1.135 16.516 M
0.928 16.516 L
0.928 19 L
-1.135 19 L
-1.135 16.516 L
cp
5.238 4.422 M
12.988 4.422 L
12.988 6.078 L
7.051 6.078 L
7.051 9.656 L
7.473 9.5 7.902 9.43 QT
8.332 9.359 8.77 9.359 QT
11.207 9.359 12.637 10.695 QT
14.066 12.031 14.066 14.328 QT
14.066 16.672 12.598 17.977 QT
11.129 19.281 8.457 19.281 QT
7.551 19.281 6.598 19.125 QT
5.645 18.969 4.629 18.656 QT
4.629 16.672 L
5.504 17.156 6.441 17.391 QT
7.379 17.625 8.426 17.625 QT
10.113 17.625 11.098 16.734 QT
12.082 15.844 12.082 14.328 QT
12.082 12.797 11.098 11.906 QT
10.113 11.016 8.426 11.016 QT
7.629 11.016 6.848 11.195 QT
6.066 11.375 5.238 11.75 QT
5.238 4.422 L
cp
f
GR
GS
[1 0 0 1 517.5 295] CT
0.149 GC
N
-4.016 17.344 M
-0.797 17.344 L
-0.797 6.219 L
-4.297 6.922 L
-4.297 5.125 L
-0.813 4.422 L
1.156 4.422 L
1.156 17.344 L
4.375 17.344 L
4.375 19 L
-4.016 19 L
-4.016 17.344 L
cp
f
GR
GS
[1 0 0 1 711.25 295] CT
0.149 GC
N
-13.516 17.344 M
-10.297 17.344 L
-10.297 6.219 L
-13.797 6.922 L
-13.797 5.125 L
-10.313 4.422 L
-8.344 4.422 L
-8.344 17.344 L
-5.125 17.344 L
-5.125 19 L
-13.516 19 L
-13.516 17.344 L
cp
-1.135 16.516 M
0.928 16.516 L
0.928 19 L
-1.135 19 L
-1.135 16.516 L
cp
5.238 4.422 M
12.988 4.422 L
12.988 6.078 L
7.051 6.078 L
7.051 9.656 L
7.473 9.5 7.902 9.43 QT
8.332 9.359 8.77 9.359 QT
11.207 9.359 12.637 10.695 QT
14.066 12.031 14.066 14.328 QT
14.066 16.672 12.598 17.977 QT
11.129 19.281 8.457 19.281 QT
7.551 19.281 6.598 19.125 QT
5.645 18.969 4.629 18.656 QT
4.629 16.672 L
5.504 17.156 6.441 17.391 QT
7.379 17.625 8.426 17.625 QT
10.113 17.625 11.098 16.734 QT
12.082 15.844 12.082 14.328 QT
12.082 12.797 11.098 11.906 QT
10.113 11.016 8.426 11.016 QT
7.629 11.016 6.848 11.195 QT
6.066 11.375 5.238 11.75 QT
5.238 4.422 L
cp
f
GR
GS
[1 0 0 1 905 295] CT
0.149 GC
N
-2.656 17.344 M
4.219 17.344 L
4.219 19 L
-5.031 19 L
-5.031 17.344 L
-3.906 16.172 -1.969 14.219 QT
-0.031 12.266 0.469 11.688 QT
1.406 10.625 1.781 9.891 QT
2.156 9.156 2.156 8.438 QT
2.156 7.281 1.344 6.547 QT
0.531 5.813 -0.781 5.813 QT
-1.703 5.813 -2.734 6.133 QT
-3.766 6.453 -4.938 7.109 QT
-4.938 5.125 L
-3.75 4.641 -2.711 4.398 QT
-1.672 4.156 -0.813 4.156 QT
1.453 4.156 2.797 5.289 QT
4.141 6.422 4.141 8.313 QT
4.141 9.219 3.805 10.023 QT
3.469 10.828 2.578 11.922 QT
2.344 12.203 1.031 13.555 QT
-0.281 14.906 -2.656 17.344 QT
cp
f
GR
GS
[1 0 0 1 517.50037 320] CT
0.149 GC
N
-14.25 9.328 M
-14.25 11.188 L
-15.094 10.766 -16 10.547 QT
-16.906 10.328 -17.859 10.328 QT
-19.344 10.328 -20.078 10.781 QT
-20.813 11.234 -20.813 12.141 QT
-20.813 12.828 -20.281 13.219 QT
-19.75 13.609 -18.172 13.969 QT
-17.484 14.109 L
-15.391 14.563 -14.5 15.383 QT
-13.609 16.203 -13.609 17.688 QT
-13.609 19.359 -14.938 20.336 QT
-16.266 21.313 -18.578 21.313 QT
-19.547 21.313 -20.594 21.125 QT
-21.641 20.938 -22.813 20.563 QT
-22.813 18.516 L
-21.719 19.094 -20.648 19.375 QT
-19.578 19.656 -18.547 19.656 QT
-17.141 19.656 -16.391 19.18 QT
-15.641 18.703 -15.641 17.828 QT
-15.641 17.031 -16.188 16.602 QT
-16.734 16.172 -18.563 15.766 QT
-19.25 15.609 L
-21.094 15.219 -21.906 14.422 QT
-22.719 13.625 -22.719 12.219 QT
-22.719 10.531 -21.516 9.602 QT
-20.313 8.672 -18.109 8.672 QT
-17 8.672 -16.039 8.836 QT
-15.078 9 -14.25 9.328 QT
cp
-8.507 5.547 M
-8.507 8.969 L
-4.444 8.969 L
-4.444 10.5 L
-8.507 10.5 L
-8.507 17.031 L
-8.507 18.5 -8.108 18.922 QT
-7.71 19.344 -6.476 19.344 QT
-4.444 19.344 L
-4.444 21 L
-6.476 21 L
-8.757 21 -9.624 20.148 QT
-10.491 19.297 -10.491 17.031 QT
-10.491 10.5 L
-11.944 10.5 L
-11.944 8.969 L
-10.491 8.969 L
-10.491 5.547 L
-8.507 5.547 L
cp
8.447 14.484 M
8.447 15.453 L
-0.631 15.453 L
-0.506 17.5 0.596 18.57 QT
1.697 19.641 3.666 19.641 QT
4.807 19.641 5.869 19.359 QT
6.932 19.078 7.994 18.516 QT
7.994 20.391 L
6.932 20.844 5.814 21.078 QT
4.697 21.313 3.541 21.313 QT
0.666 21.313 -1.014 19.633 QT
-2.693 17.953 -2.693 15.109 QT
-2.693 12.141 -1.1 10.406 QT
0.494 8.672 3.197 8.672 QT
5.635 8.672 7.041 10.234 QT
8.447 11.797 8.447 14.484 QT
cp
6.479 13.906 M
6.447 12.281 5.564 11.32 QT
4.682 10.359 3.229 10.359 QT
1.572 10.359 0.572 11.289 QT
-0.428 12.219 -0.568 13.922 QT
6.479 13.906 L
cp
13.607 19.188 M
13.607 25.578 L
11.623 25.578 L
11.623 8.969 L
13.607 8.969 L
13.607 10.797 L
14.232 9.719 15.186 9.195 QT
16.139 8.672 17.451 8.672 QT
19.639 8.672 21.014 10.414 QT
22.389 12.156 22.389 15 QT
22.389 17.828 21.014 19.57 QT
19.639 21.313 17.451 21.313 QT
16.139 21.313 15.186 20.789 QT
14.232 20.266 13.607 19.188 QT
cp
20.326 15 M
20.326 12.813 19.436 11.57 QT
18.545 10.328 16.967 10.328 QT
15.404 10.328 14.506 11.57 QT
13.607 12.813 13.607 15 QT
13.607 17.172 14.506 18.414 QT
15.404 19.656 16.967 19.656 QT
18.545 19.656 19.436 18.414 QT
20.326 17.172 20.326 15 QT
cp
f
GR
GS
[1 0 0 1 852 345] CT
0.149 GC
N
2.938 -0.578 M
2.938 -0.734 3.031 -0.859 QT
7.203 -5 L
3.031 -9.156 L
2.938 -9.266 2.938 -9.422 QT
2.938 -9.578 3.055 -9.703 QT
3.172 -9.828 3.344 -9.828 QT
3.484 -9.828 3.641 -9.703 QT
7.781 -5.563 L
11.906 -9.703 L
12.078 -9.828 12.203 -9.828 QT
12.359 -9.828 12.477 -9.711 QT
12.594 -9.594 12.594 -9.422 QT
12.594 -9.266 12.5 -9.156 QT
8.344 -5 L
12.5 -0.859 L
12.594 -0.734 12.594 -0.578 QT
12.594 -0.406 12.477 -0.289 QT
12.359 -0.172 12.203 -0.172 QT
12.047 -0.172 11.906 -0.328 QT
7.781 -4.438 L
3.641 -0.328 L
3.5 -0.172 3.344 -0.172 QT
3.172 -0.172 3.055 -0.305 QT
2.938 -0.438 2.938 -0.578 QT
cp
f
GR
GS
[1 0 0 1 868 345] CT
0.149 GC
N
2.484 -1.656 M
5.703 -1.656 L
5.703 -12.781 L
2.203 -12.078 L
2.203 -13.875 L
5.688 -14.578 L
7.656 -14.578 L
7.656 -1.656 L
10.875 -1.656 L
10.875 0 L
2.484 0 L
2.484 -1.656 L
cp
19.084 -13.281 M
17.553 -13.281 16.787 -11.781 QT
16.021 -10.281 16.021 -7.281 QT
16.021 -4.281 16.787 -2.781 QT
17.553 -1.281 19.084 -1.281 QT
20.615 -1.281 21.381 -2.781 QT
22.146 -4.281 22.146 -7.281 QT
22.146 -10.281 21.381 -11.781 QT
20.615 -13.281 19.084 -13.281 QT
cp
19.084 -14.844 M
21.537 -14.844 22.826 -12.906 QT
24.115 -10.969 24.115 -7.281 QT
24.115 -3.594 22.826 -1.656 QT
21.537 0.281 19.084 0.281 QT
16.631 0.281 15.334 -1.656 QT
14.037 -3.594 14.037 -7.281 QT
14.037 -10.969 15.334 -12.906 QT
16.631 -14.844 19.084 -14.844 QT
cp
f
GR
GS
[1 0 0 1 894 335] CT
0.149 GC
N
5.281 -6.469 M
4.219 -6.469 3.602 -5.742 QT
2.984 -5.016 2.984 -3.75 QT
2.984 -2.484 3.602 -1.758 QT
4.219 -1.031 5.281 -1.031 QT
6.344 -1.031 6.969 -1.758 QT
7.594 -2.484 7.594 -3.75 QT
7.594 -5.016 6.969 -5.742 QT
6.344 -6.469 5.281 -6.469 QT
cp
8.422 -11.406 M
8.422 -9.969 L
7.828 -10.25 7.219 -10.398 QT
6.609 -10.547 6.016 -10.547 QT
4.453 -10.547 3.633 -9.492 QT
2.813 -8.438 2.688 -6.313 QT
3.156 -6.984 3.852 -7.352 QT
4.547 -7.719 5.375 -7.719 QT
7.141 -7.719 8.156 -6.648 QT
9.172 -5.578 9.172 -3.75 QT
9.172 -1.953 8.109 -0.859 QT
7.047 0.234 5.281 0.234 QT
3.266 0.234 2.195 -1.32 QT
1.125 -2.875 1.125 -5.828 QT
1.125 -8.594 2.438 -10.234 QT
3.75 -11.875 5.953 -11.875 QT
6.547 -11.875 7.156 -11.758 QT
7.766 -11.641 8.422 -11.406 QT
cp
f
GR
GS
0.149 GC
2 setlinecap
1 LJ
0.5 LW
N
130 289 M
130 26 L
S
GR
GS
0.149 GC
2 setlinecap
1 LJ
0.5 LW
N
130 289 M
137.75 289 L
S
GR
GS
0.149 GC
2 setlinecap
1 LJ
0.5 LW
N
130 238.905 M
137.75 238.905 L
S
GR
GS
0.149 GC
2 setlinecap
1 LJ
0.5 LW
N
130 188.81 M
137.75 188.81 L
S
GR
GS
0.149 GC
2 setlinecap
1 LJ
0.5 LW
N
130 138.714 M
137.75 138.714 L
S
GR
GS
0.149 GC
2 setlinecap
1 LJ
0.5 LW
N
130 88.619 M
137.75 88.619 L
S
GR
GS
0.149 GC
2 setlinecap
1 LJ
0.5 LW
N
130 38.524 M
137.75 38.524 L
S
GR
GS
[1 0 0 1 124 289] CT
0.149 GC
N
-6.641 -6.281 M
-8.172 -6.281 -8.938 -4.781 QT
-9.703 -3.281 -9.703 -0.281 QT
-9.703 2.719 -8.938 4.219 QT
-8.172 5.719 -6.641 5.719 QT
-5.109 5.719 -4.344 4.219 QT
-3.578 2.719 -3.578 -0.281 QT
-3.578 -3.281 -4.344 -4.781 QT
-5.109 -6.281 -6.641 -6.281 QT
cp
-6.641 -7.844 M
-4.188 -7.844 -2.898 -5.906 QT
-1.609 -3.969 -1.609 -0.281 QT
-1.609 3.406 -2.898 5.344 QT
-4.188 7.281 -6.641 7.281 QT
-9.094 7.281 -10.391 5.344 QT
-11.688 3.406 -11.688 -0.281 QT
-11.688 -3.969 -10.391 -5.906 QT
-9.094 -7.844 -6.641 -7.844 QT
cp
f
GR
GS
[1 0 0 1 124 238.90475] CT
0.149 GC
N
-22.156 5.344 M
-15.281 5.344 L
-15.281 7 L
-24.531 7 L
-24.531 5.344 L
-23.406 4.172 -21.469 2.219 QT
-19.531 0.266 -19.031 -0.313 QT
-18.094 -1.375 -17.719 -2.109 QT
-17.344 -2.844 -17.344 -3.563 QT
-17.344 -4.719 -18.156 -5.453 QT
-18.969 -6.188 -20.281 -6.188 QT
-21.203 -6.188 -22.234 -5.867 QT
-23.266 -5.547 -24.438 -4.891 QT
-24.438 -6.875 L
-23.25 -7.359 -22.211 -7.602 QT
-21.172 -7.844 -20.313 -7.844 QT
-18.047 -7.844 -16.703 -6.711 QT
-15.359 -5.578 -15.359 -3.688 QT
-15.359 -2.781 -15.695 -1.977 QT
-16.031 -1.172 -16.922 -0.078 QT
-17.156 0.203 -18.469 1.555 QT
-19.781 2.906 -22.156 5.344 QT
cp
-6.916 -6.281 M
-8.447 -6.281 -9.213 -4.781 QT
-9.979 -3.281 -9.979 -0.281 QT
-9.979 2.719 -9.213 4.219 QT
-8.447 5.719 -6.916 5.719 QT
-5.385 5.719 -4.619 4.219 QT
-3.854 2.719 -3.854 -0.281 QT
-3.854 -3.281 -4.619 -4.781 QT
-5.385 -6.281 -6.916 -6.281 QT
cp
-6.916 -7.844 M
-4.463 -7.844 -3.174 -5.906 QT
-1.885 -3.969 -1.885 -0.281 QT
-1.885 3.406 -3.174 5.344 QT
-4.463 7.281 -6.916 7.281 QT
-9.369 7.281 -10.666 5.344 QT
-11.963 3.406 -11.963 -0.281 QT
-11.963 -3.969 -10.666 -5.906 QT
-9.369 -7.844 -6.916 -7.844 QT
cp
f
GR
GS
[1 0 0 1 124 188.80952] CT
0.149 GC
N
-18.438 -5.859 M
-23.422 1.922 L
-18.438 1.922 L
-18.438 -5.859 L
cp
-18.953 -7.578 M
-16.484 -7.578 L
-16.484 1.922 L
-14.391 1.922 L
-14.391 3.563 L
-16.484 3.563 L
-16.484 7 L
-18.438 7 L
-18.438 3.563 L
-25.016 3.563 L
-25.016 1.656 L
-18.953 -7.578 L
cp
-6.916 -6.281 M
-8.447 -6.281 -9.213 -4.781 QT
-9.979 -3.281 -9.979 -0.281 QT
-9.979 2.719 -9.213 4.219 QT
-8.447 5.719 -6.916 5.719 QT
-5.385 5.719 -4.619 4.219 QT
-3.854 2.719 -3.854 -0.281 QT
-3.854 -3.281 -4.619 -4.781 QT
-5.385 -6.281 -6.916 -6.281 QT
cp
-6.916 -7.844 M
-4.463 -7.844 -3.174 -5.906 QT
-1.885 -3.969 -1.885 -0.281 QT
-1.885 3.406 -3.174 5.344 QT
-4.463 7.281 -6.916 7.281 QT
-9.369 7.281 -10.666 5.344 QT
-11.963 3.406 -11.963 -0.281 QT
-11.963 -3.969 -10.666 -5.906 QT
-9.369 -7.844 -6.916 -7.844 QT
cp
f
GR
GS
[1 0 0 1 124 138.71428] CT
0.149 GC
N
-19.391 -1.078 M
-20.719 -1.078 -21.5 -0.172 QT
-22.281 0.734 -22.281 2.328 QT
-22.281 3.891 -21.5 4.805 QT
-20.719 5.719 -19.391 5.719 QT
-18.063 5.719 -17.289 4.805 QT
-16.516 3.891 -16.516 2.328 QT
-16.516 0.734 -17.289 -0.172 QT
-18.063 -1.078 -19.391 -1.078 QT
cp
-15.484 -7.266 M
-15.484 -5.469 L
-16.219 -5.813 -16.977 -6 QT
-17.734 -6.188 -18.484 -6.188 QT
-20.438 -6.188 -21.469 -4.867 QT
-22.5 -3.547 -22.641 -0.875 QT
-22.063 -1.734 -21.195 -2.188 QT
-20.328 -2.641 -19.281 -2.641 QT
-17.078 -2.641 -15.805 -1.305 QT
-14.531 0.031 -14.531 2.328 QT
-14.531 4.563 -15.859 5.922 QT
-17.188 7.281 -19.391 7.281 QT
-21.922 7.281 -23.266 5.344 QT
-24.609 3.406 -24.609 -0.281 QT
-24.609 -3.734 -22.969 -5.789 QT
-21.328 -7.844 -18.563 -7.844 QT
-17.813 -7.844 -17.055 -7.695 QT
-16.297 -7.547 -15.484 -7.266 QT
cp
-6.916 -6.281 M
-8.447 -6.281 -9.213 -4.781 QT
-9.979 -3.281 -9.979 -0.281 QT
-9.979 2.719 -9.213 4.219 QT
-8.447 5.719 -6.916 5.719 QT
-5.385 5.719 -4.619 4.219 QT
-3.854 2.719 -3.854 -0.281 QT
-3.854 -3.281 -4.619 -4.781 QT
-5.385 -6.281 -6.916 -6.281 QT
cp
-6.916 -7.844 M
-4.463 -7.844 -3.174 -5.906 QT
-1.885 -3.969 -1.885 -0.281 QT
-1.885 3.406 -3.174 5.344 QT
-4.463 7.281 -6.916 7.281 QT
-9.369 7.281 -10.666 5.344 QT
-11.963 3.406 -11.963 -0.281 QT
-11.963 -3.969 -10.666 -5.906 QT
-9.369 -7.844 -6.916 -7.844 QT
cp
f
GR
GS
[1 0 0 1 124 88.61905] CT
0.149 GC
N
-19.641 0.078 M
-21.047 0.078 -21.852 0.828 QT
-22.656 1.578 -22.656 2.891 QT
-22.656 4.219 -21.852 4.969 QT
-21.047 5.719 -19.641 5.719 QT
-18.234 5.719 -17.422 4.961 QT
-16.609 4.203 -16.609 2.891 QT
-16.609 1.578 -17.414 0.828 QT
-18.219 0.078 -19.641 0.078 QT
cp
-21.609 -0.766 M
-22.891 -1.078 -23.594 -1.945 QT
-24.297 -2.813 -24.297 -4.063 QT
-24.297 -5.813 -23.055 -6.828 QT
-21.813 -7.844 -19.641 -7.844 QT
-17.469 -7.844 -16.227 -6.828 QT
-14.984 -5.813 -14.984 -4.063 QT
-14.984 -2.813 -15.695 -1.945 QT
-16.406 -1.078 -17.656 -0.766 QT
-16.234 -0.438 -15.438 0.531 QT
-14.641 1.5 -14.641 2.891 QT
-14.641 5.016 -15.938 6.148 QT
-17.234 7.281 -19.641 7.281 QT
-22.047 7.281 -23.344 6.148 QT
-24.641 5.016 -24.641 2.891 QT
-24.641 1.5 -23.844 0.531 QT
-23.047 -0.438 -21.609 -0.766 QT
cp
-22.344 -3.875 M
-22.344 -2.75 -21.633 -2.117 QT
-20.922 -1.484 -19.641 -1.484 QT
-18.375 -1.484 -17.656 -2.117 QT
-16.938 -2.75 -16.938 -3.875 QT
-16.938 -5.016 -17.656 -5.648 QT
-18.375 -6.281 -19.641 -6.281 QT
-20.922 -6.281 -21.633 -5.648 QT
-22.344 -5.016 -22.344 -3.875 QT
cp
-6.916 -6.281 M
-8.447 -6.281 -9.213 -4.781 QT
-9.979 -3.281 -9.979 -0.281 QT
-9.979 2.719 -9.213 4.219 QT
-8.447 5.719 -6.916 5.719 QT
-5.385 5.719 -4.619 4.219 QT
-3.854 2.719 -3.854 -0.281 QT
-3.854 -3.281 -4.619 -4.781 QT
-5.385 -6.281 -6.916 -6.281 QT
cp
-6.916 -7.844 M
-4.463 -7.844 -3.174 -5.906 QT
-1.885 -3.969 -1.885 -0.281 QT
-1.885 3.406 -3.174 5.344 QT
-4.463 7.281 -6.916 7.281 QT
-9.369 7.281 -10.666 5.344 QT
-11.963 3.406 -11.963 -0.281 QT
-11.963 -3.969 -10.666 -5.906 QT
-9.369 -7.844 -6.916 -7.844 QT
cp
f
GR
GS
[1 0 0 1 124 38.52381] CT
0.149 GC
N
-36.516 5.344 M
-33.297 5.344 L
-33.297 -5.781 L
-36.797 -5.078 L
-36.797 -6.875 L
-33.313 -7.578 L
-31.344 -7.578 L
-31.344 5.344 L
-28.125 5.344 L
-28.125 7 L
-36.516 7 L
-36.516 5.344 L
cp
-19.916 -6.281 M
-21.447 -6.281 -22.213 -4.781 QT
-22.979 -3.281 -22.979 -0.281 QT
-22.979 2.719 -22.213 4.219 QT
-21.447 5.719 -19.916 5.719 QT
-18.385 5.719 -17.619 4.219 QT
-16.854 2.719 -16.854 -0.281 QT
-16.854 -3.281 -17.619 -4.781 QT
-18.385 -6.281 -19.916 -6.281 QT
cp
-19.916 -7.844 M
-17.463 -7.844 -16.174 -5.906 QT
-14.885 -3.969 -14.885 -0.281 QT
-14.885 3.406 -16.174 5.344 QT
-17.463 7.281 -19.916 7.281 QT
-22.369 7.281 -23.666 5.344 QT
-24.963 3.406 -24.963 -0.281 QT
-24.963 -3.969 -23.666 -5.906 QT
-22.369 -7.844 -19.916 -7.844 QT
cp
-7.191 -6.281 M
-8.723 -6.281 -9.488 -4.781 QT
-10.254 -3.281 -10.254 -0.281 QT
-10.254 2.719 -9.488 4.219 QT
-8.723 5.719 -7.191 5.719 QT
-5.66 5.719 -4.895 4.219 QT
-4.129 2.719 -4.129 -0.281 QT
-4.129 -3.281 -4.895 -4.781 QT
-5.66 -6.281 -7.191 -6.281 QT
cp
-7.191 -7.844 M
-4.738 -7.844 -3.449 -5.906 QT
-2.16 -3.969 -2.16 -0.281 QT
-2.16 3.406 -3.449 5.344 QT
-4.738 7.281 -7.191 7.281 QT
-9.645 7.281 -10.941 5.344 QT
-12.238 3.406 -12.238 -0.281 QT
-12.238 -3.969 -10.941 -5.906 QT
-9.645 -7.844 -7.191 -7.844 QT
cp
f
GR
GS
[0 -1 1 0 82 157.49988] CT
0.149 GC
N
-113.063 -22.031 M
-99.5 -22.031 L
-99.5 -20.219 L
-105.188 -20.219 L
-105.188 -6 L
-107.375 -6 L
-107.375 -20.219 L
-113.063 -20.219 L
-113.063 -22.031 L
cp
-92.015 -12.047 M
-94.421 -12.047 -95.343 -11.5 QT
-96.265 -10.953 -96.265 -9.625 QT
-96.265 -8.578 -95.569 -7.961 QT
-94.874 -7.344 -93.687 -7.344 QT
-92.046 -7.344 -91.054 -8.508 QT
-90.062 -9.672 -90.062 -11.609 QT
-90.062 -12.047 L
-92.015 -12.047 L
cp
-88.077 -12.859 M
-88.077 -6 L
-90.062 -6 L
-90.062 -7.828 L
-90.733 -6.734 -91.741 -6.211 QT
-92.749 -5.688 -94.218 -5.688 QT
-96.062 -5.688 -97.147 -6.727 QT
-98.233 -7.766 -98.233 -9.5 QT
-98.233 -11.531 -96.874 -12.563 QT
-95.515 -13.594 -92.827 -13.594 QT
-90.062 -13.594 L
-90.062 -13.781 L
-90.062 -15.156 -90.952 -15.898 QT
-91.843 -16.641 -93.468 -16.641 QT
-94.499 -16.641 -95.476 -16.398 QT
-96.452 -16.156 -97.358 -15.656 QT
-97.358 -17.484 L
-96.28 -17.906 -95.257 -18.117 QT
-94.233 -18.328 -93.265 -18.328 QT
-90.655 -18.328 -89.366 -16.969 QT
-88.077 -15.609 -88.077 -12.859 QT
cp
-77.033 -16.188 M
-77.361 -16.375 -77.76 -16.469 QT
-78.158 -16.563 -78.627 -16.563 QT
-80.299 -16.563 -81.197 -15.469 QT
-82.096 -14.375 -82.096 -12.344 QT
-82.096 -6 L
-84.08 -6 L
-84.08 -18.031 L
-82.096 -18.031 L
-82.096 -16.156 L
-81.471 -17.266 -80.471 -17.797 QT
-79.471 -18.328 -78.049 -18.328 QT
-77.846 -18.328 -77.596 -18.297 QT
-77.346 -18.266 -77.049 -18.219 QT
-77.033 -16.188 L
cp
-67.051 -12.156 M
-67.051 -14.297 -67.934 -15.484 QT
-68.816 -16.672 -70.41 -16.672 QT
-72.004 -16.672 -72.895 -15.484 QT
-73.785 -14.297 -73.785 -12.156 QT
-73.785 -10.016 -72.895 -8.836 QT
-72.004 -7.656 -70.41 -7.656 QT
-68.816 -7.656 -67.934 -8.836 QT
-67.051 -10.016 -67.051 -12.156 QT
cp
-65.066 -7.5 M
-65.066 -4.422 -66.434 -2.922 QT
-67.801 -1.422 -70.613 -1.422 QT
-71.66 -1.422 -72.582 -1.578 QT
-73.504 -1.734 -74.363 -2.063 QT
-74.363 -3.984 L
-73.504 -3.5 -72.652 -3.281 QT
-71.801 -3.063 -70.926 -3.063 QT
-68.973 -3.063 -68.012 -4.078 QT
-67.051 -5.094 -67.051 -7.141 QT
-67.051 -8.109 L
-67.66 -7.047 -68.613 -6.523 QT
-69.566 -6 -70.895 -6 QT
-73.113 -6 -74.465 -7.688 QT
-75.816 -9.375 -75.816 -12.156 QT
-75.816 -14.953 -74.465 -16.641 QT
-73.113 -18.328 -70.895 -18.328 QT
-69.566 -18.328 -68.613 -17.797 QT
-67.66 -17.266 -67.051 -16.203 QT
-67.051 -18.031 L
-65.066 -18.031 L
-65.066 -7.5 L
cp
-50.711 -12.516 M
-50.711 -11.547 L
-59.789 -11.547 L
-59.664 -9.5 -58.563 -8.43 QT
-57.461 -7.359 -55.492 -7.359 QT
-54.352 -7.359 -53.289 -7.641 QT
-52.227 -7.922 -51.164 -8.484 QT
-51.164 -6.609 L
-52.227 -6.156 -53.344 -5.922 QT
-54.461 -5.688 -55.617 -5.688 QT
-58.492 -5.688 -60.172 -7.367 QT
-61.852 -9.047 -61.852 -11.891 QT
-61.852 -14.859 -60.258 -16.594 QT
-58.664 -18.328 -55.961 -18.328 QT
-53.523 -18.328 -52.117 -16.766 QT
-50.711 -15.203 -50.711 -12.516 QT
cp
-52.68 -13.094 M
-52.711 -14.719 -53.594 -15.68 QT
-54.477 -16.641 -55.93 -16.641 QT
-57.586 -16.641 -58.586 -15.711 QT
-59.586 -14.781 -59.727 -13.078 QT
-52.68 -13.094 L
cp
-45.504 -21.453 M
-45.504 -18.031 L
-41.441 -18.031 L
-41.441 -16.5 L
-45.504 -16.5 L
-45.504 -9.969 L
-45.504 -8.5 -45.105 -8.078 QT
-44.707 -7.656 -43.473 -7.656 QT
-41.441 -7.656 L
-41.441 -6 L
-43.473 -6 L
-45.754 -6 -46.621 -6.852 QT
-47.488 -7.703 -47.488 -9.969 QT
-47.488 -16.5 L
-48.941 -16.5 L
-48.941 -18.031 L
-47.488 -18.031 L
-47.488 -21.453 L
-45.504 -21.453 L
cp
-31.159 -17.672 M
-31.159 -15.813 L
-32.003 -16.234 -32.909 -16.453 QT
-33.815 -16.672 -34.769 -16.672 QT
-36.253 -16.672 -36.987 -16.219 QT
-37.722 -15.766 -37.722 -14.859 QT
-37.722 -14.172 -37.19 -13.781 QT
-36.659 -13.391 -35.081 -13.031 QT
-34.394 -12.891 L
-32.3 -12.438 -31.409 -11.617 QT
-30.519 -10.797 -30.519 -9.313 QT
-30.519 -7.641 -31.847 -6.664 QT
-33.175 -5.688 -35.487 -5.688 QT
-36.456 -5.688 -37.503 -5.875 QT
-38.55 -6.063 -39.722 -6.438 QT
-39.722 -8.484 L
-38.628 -7.906 -37.558 -7.625 QT
-36.487 -7.344 -35.456 -7.344 QT
-34.05 -7.344 -33.3 -7.82 QT
-32.55 -8.297 -32.55 -9.172 QT
-32.55 -9.969 -33.097 -10.398 QT
-33.644 -10.828 -35.472 -11.234 QT
-36.159 -11.391 L
-38.003 -11.781 -38.815 -12.578 QT
-39.628 -13.375 -39.628 -14.781 QT
-39.628 -16.469 -38.425 -17.398 QT
-37.222 -18.328 -35.019 -18.328 QT
-33.909 -18.328 -32.948 -18.164 QT
-31.987 -18 -31.159 -17.672 QT
cp
-13.407 -16.188 M
-13.735 -16.375 -14.134 -16.469 QT
-14.532 -16.563 -15.001 -16.563 QT
-16.673 -16.563 -17.571 -15.469 QT
-18.47 -14.375 -18.47 -12.344 QT
-18.47 -6 L
-20.454 -6 L
-20.454 -18.031 L
-18.47 -18.031 L
-18.47 -16.156 L
-17.845 -17.266 -16.845 -17.797 QT
-15.845 -18.328 -14.423 -18.328 QT
-14.22 -18.328 -13.97 -18.297 QT
-13.72 -18.266 -13.423 -18.219 QT
-13.407 -16.188 L
cp
-1.05 -12.516 M
-1.05 -11.547 L
-10.128 -11.547 L
-10.003 -9.5 -8.901 -8.43 QT
-7.8 -7.359 -5.831 -7.359 QT
-4.69 -7.359 -3.628 -7.641 QT
-2.565 -7.922 -1.503 -8.484 QT
-1.503 -6.609 L
-2.565 -6.156 -3.683 -5.922 QT
-4.8 -5.688 -5.956 -5.688 QT
-8.831 -5.688 -10.511 -7.367 QT
-12.19 -9.047 -12.19 -11.891 QT
-12.19 -14.859 -10.597 -16.594 QT
-9.003 -18.328 -6.3 -18.328 QT
-3.862 -18.328 -2.456 -16.766 QT
-1.05 -15.203 -1.05 -12.516 QT
cp
-3.019 -13.094 M
-3.05 -14.719 -3.933 -15.68 QT
-4.815 -16.641 -6.269 -16.641 QT
-7.925 -16.641 -8.925 -15.711 QT
-9.925 -14.781 -10.065 -13.078 QT
-3.019 -13.094 L
cp
7.673 -12.047 M
5.267 -12.047 4.345 -11.5 QT
3.423 -10.953 3.423 -9.625 QT
3.423 -8.578 4.118 -7.961 QT
4.813 -7.344 6.001 -7.344 QT
7.642 -7.344 8.634 -8.508 QT
9.626 -9.672 9.626 -11.609 QT
9.626 -12.047 L
7.673 -12.047 L
cp
11.61 -12.859 M
11.61 -6 L
9.626 -6 L
9.626 -7.828 L
8.954 -6.734 7.946 -6.211 QT
6.938 -5.688 5.47 -5.688 QT
3.626 -5.688 2.54 -6.727 QT
1.454 -7.766 1.454 -9.5 QT
1.454 -11.531 2.813 -12.563 QT
4.173 -13.594 6.86 -13.594 QT
9.626 -13.594 L
9.626 -13.781 L
9.626 -15.156 8.735 -15.898 QT
7.845 -16.641 6.22 -16.641 QT
5.188 -16.641 4.212 -16.398 QT
3.235 -16.156 2.329 -15.656 QT
2.329 -17.484 L
3.407 -17.906 4.431 -18.117 QT
5.454 -18.328 6.423 -18.328 QT
9.032 -18.328 10.321 -16.969 QT
11.61 -15.609 11.61 -12.859 QT
cp
24.342 -17.563 M
24.342 -15.719 L
23.498 -16.188 22.654 -16.414 QT
21.811 -16.641 20.951 -16.641 QT
19.029 -16.641 17.967 -15.422 QT
16.904 -14.203 16.904 -12 QT
16.904 -9.797 17.967 -8.578 QT
19.029 -7.359 20.951 -7.359 QT
21.811 -7.359 22.654 -7.594 QT
23.498 -7.828 24.342 -8.281 QT
24.342 -6.469 L
23.514 -6.078 22.623 -5.883 QT
21.732 -5.688 20.748 -5.688 QT
18.029 -5.688 16.428 -7.398 QT
14.826 -9.109 14.826 -12 QT
14.826 -14.953 16.443 -16.641 QT
18.061 -18.328 20.873 -18.328 QT
21.779 -18.328 22.654 -18.141 QT
23.529 -17.953 24.342 -17.563 QT
cp
37.781 -13.266 M
37.781 -6 L
35.797 -6 L
35.797 -13.203 L
35.797 -14.906 35.133 -15.758 QT
34.469 -16.609 33.141 -16.609 QT
31.531 -16.609 30.609 -15.586 QT
29.688 -14.563 29.688 -12.797 QT
29.688 -6 L
27.703 -6 L
27.703 -22.719 L
29.688 -22.719 L
29.688 -16.156 L
30.391 -17.25 31.359 -17.789 QT
32.328 -18.328 33.578 -18.328 QT
35.656 -18.328 36.719 -17.039 QT
37.781 -15.75 37.781 -13.266 QT
cp
52.006 -12.516 M
52.006 -11.547 L
42.928 -11.547 L
43.053 -9.5 44.154 -8.43 QT
45.256 -7.359 47.225 -7.359 QT
48.365 -7.359 49.428 -7.641 QT
50.49 -7.922 51.553 -8.484 QT
51.553 -6.609 L
50.49 -6.156 49.373 -5.922 QT
48.256 -5.688 47.1 -5.688 QT
44.225 -5.688 42.545 -7.367 QT
40.865 -9.047 40.865 -11.891 QT
40.865 -14.859 42.459 -16.594 QT
44.053 -18.328 46.756 -18.328 QT
49.193 -18.328 50.6 -16.766 QT
52.006 -15.203 52.006 -12.516 QT
cp
50.037 -13.094 M
50.006 -14.719 49.123 -15.68 QT
48.24 -16.641 46.787 -16.641 QT
45.131 -16.641 44.131 -15.711 QT
43.131 -14.781 42.99 -13.078 QT
50.037 -13.094 L
cp
63.166 -16.203 M
63.166 -22.719 L
65.15 -22.719 L
65.15 -6 L
63.166 -6 L
63.166 -7.813 L
62.557 -6.734 61.604 -6.211 QT
60.65 -5.688 59.322 -5.688 QT
57.135 -5.688 55.768 -7.43 QT
54.4 -9.172 54.4 -12 QT
54.4 -14.844 55.768 -16.586 QT
57.135 -18.328 59.322 -18.328 QT
60.65 -18.328 61.604 -17.805 QT
62.557 -17.281 63.166 -16.203 QT
cp
56.432 -12 M
56.432 -9.828 57.33 -8.586 QT
58.229 -7.344 59.807 -7.344 QT
61.369 -7.344 62.268 -8.586 QT
63.166 -9.828 63.166 -12 QT
63.166 -14.188 62.268 -15.43 QT
61.369 -16.672 59.807 -16.672 QT
58.229 -16.672 57.33 -15.43 QT
56.432 -14.188 56.432 -12 QT
cp
76.03 -22.719 M
80.593 -22.719 L
80.593 -21.172 L
78.015 -21.172 L
78.015 -4.641 L
80.593 -4.641 L
80.593 -3.094 L
76.03 -3.094 L
76.03 -22.719 L
cp
98.723 -13.063 M
97.785 -13.063 97.254 -12.266 QT
96.723 -11.469 96.723 -10.047 QT
96.723 -8.656 97.254 -7.852 QT
97.785 -7.047 98.723 -7.047 QT
99.629 -7.047 100.16 -7.852 QT
100.691 -8.656 100.691 -10.047 QT
100.691 -11.453 100.16 -12.258 QT
99.629 -13.063 98.723 -13.063 QT
cp
98.723 -14.422 M
100.41 -14.422 101.41 -13.242 QT
102.41 -12.063 102.41 -10.047 QT
102.41 -8.047 101.41 -6.867 QT
100.41 -5.688 98.723 -5.688 QT
97.004 -5.688 96.004 -6.867 QT
95.004 -8.047 95.004 -10.047 QT
95.004 -12.063 96.004 -13.242 QT
97.004 -14.422 98.723 -14.422 QT
cp
87.629 -20.969 M
86.707 -20.969 86.176 -20.164 QT
85.645 -19.359 85.645 -17.969 QT
85.645 -16.547 86.168 -15.75 QT
86.691 -14.953 87.629 -14.953 QT
88.566 -14.953 89.098 -15.75 QT
89.629 -16.547 89.629 -17.969 QT
89.629 -19.359 89.09 -20.164 QT
88.551 -20.969 87.629 -20.969 QT
cp
97.332 -22.328 M
99.051 -22.328 L
89.02 -5.688 L
87.301 -5.688 L
97.332 -22.328 L
cp
87.629 -22.328 M
89.332 -22.328 90.34 -21.148 QT
91.348 -19.969 91.348 -17.969 QT
91.348 -15.938 90.348 -14.766 QT
89.348 -13.594 87.629 -13.594 QT
85.926 -13.594 84.934 -14.773 QT
83.941 -15.953 83.941 -17.969 QT
83.941 -19.969 84.941 -21.148 QT
85.941 -22.328 87.629 -22.328 QT
cp
110.314 -22.719 M
110.314 -3.094 L
105.768 -3.094 L
105.768 -4.641 L
108.33 -4.641 L
108.33 -21.172 L
105.768 -21.172 L
105.768 -22.719 L
110.314 -22.719 L
cp
f
GR
GS
0 0.447 0.741 RC
1 LJ
0.5 LW
N
169.525 242.036 M
169.913 143.987 L
170.3 118.221 L
170.688 157.798 L
171.075 152.377 L
171.462 157.17 L
171.85 122.016 L
172.238 170.353 L
172.625 152.377 L
173.012 128.695 L
173.4 136.536 L
173.788 157.17 L
174.175 163.762 L
174.563 196.719 L
174.95 176.286 L
175.337 134.861 L
175.725 133.943 L
176.113 125.646 L
176.5 98.984 L
176.887 157.798 L
177.275 183.536 L
177.663 132.452 L
178.05 118.221 L
178.438 156.395 L
178.825 134.861 L
179.212 101.143 L
179.6 115.593 L
179.988 122.016 L
180.375 105.96 L
180.762 98.638 L
181.15 78.6 L
181.538 101.143 L
181.925 101.143 L
182.313 90.092 L
182.7 92.197 L
183.087 81.463 L
183.475 65.602 L
183.863 56.415 L
184.25 95.083 L
184.637 50.451 L
185.025 63.571 L
185.413 69.07 L
185.8 43.341 L
186.188 65.602 L
186.575 43.341 L
186.962 63.571 L
187.35 72.372 L
187.738 60.788 L
188.125 67.992 L
188.512 43.636 L
188.9 55.222 L
189.288 43.533 L
189.675 57.078 L
190.063 43.162 L
190.45 58.562 L
190.837 47.015 L
191.225 52.974 L
191.613 63.571 L
192 67.425 L
192.387 42.997 L
192.775 42.842 L
193.163 43.435 L
193.55 47.976 L
193.938 50.451 L
194.325 43.636 L
194.712 52.439 L
195.1 43.162 L
195.488 38.524 L
195.875 51.048 L
196.262 45.293 L
196.65 96.326 L
197.038 75.631 L
197.425 74.306 L
197.813 53.704 L
198.2 64.435 L
198.587 74.306 L
198.975 75.631 L
199.363 73.072 L
199.75 73.072 L
200.137 88.619 L
200.525 53.704 L
200.913 77.059 L
201.3 96.326 L
201.688 78.6 L
202.075 65.361 L
202.462 86.692 L
202.85 55.222 L
203.238 86.692 L
203.625 62.006 L
204.012 80.27 L
204.4 63.571 L
204.788 78.6 L
205.175 81.709 L
205.563 81.709 L
205.95 52.837 L
206.337 84.908 L
206.725 108.657 L
207.113 84.908 L
207.5 84.908 L
207.887 54.684 L
208.275 74.306 L
208.663 62.006 L
209.05 122.016 L
209.438 68.581 L
209.825 57.078 L
210.212 77.059 L
210.6 96.326 L
210.988 84.908 L
211.375 86.692 L
211.762 73.072 L
212.15 73.072 L
212.538 53.704 L
212.925 75.631 L
213.313 83.252 L
213.7 101.143 L
214.087 105.96 L
214.475 65.361 L
214.863 59.397 L
215.25 90.706 L
215.637 66.355 L
216.025 106.836 L
216.413 78.6 L
216.8 69.833 L
217.188 94.185 L
217.575 90.706 L
217.962 101.143 L
218.35 88.619 L
218.738 94.185 L
219.125 103.865 L
219.512 90.706 L
219.9 64.435 L
220.288 101.143 L
220.675 62.763 L
221.063 55.222 L
221.45 92.975 L
221.837 122.016 L
222.225 163.762 L
222.613 98.161 L
223 62.763 L
223.387 68.581 L
223.775 78.6 L
224.163 67.425 L
224.55 64.435 L
224.938 65.361 L
225.325 55.222 L
225.712 94.185 L
226.1 92.197 L
226.488 65.361 L
226.875 77.661 L
227.262 78.6 L
227.65 73.072 L
228.038 82.085 L
228.425 80.27 L
228.813 106.836 L
229.2 73.072 L
229.587 71.921 L
229.975 65.361 L
230.363 67.425 L
230.75 92.975 L
231.137 82.085 L
231.525 59.993 L
231.913 67.425 L
232.3 122.016 L
232.688 96.968 L
233.075 145.871 L
233.462 86.692 L
233.85 103.865 L
234.238 111.579 L
234.625 122.016 L
235.012 75.631 L
235.4 95.45 L
235.788 90.706 L
236.175 118.221 L
236.563 96.326 L
236.95 84.065 L
237.337 84.065 L
237.725 77.661 L
238.113 106.836 L
238.5 117.622 L
238.887 80.27 L
239.275 101.143 L
239.663 90.706 L
240.05 77.059 L
240.438 75.631 L
240.825 88.619 L
241.212 92.975 L
241.6 118.221 L
241.988 75.631 L
242.375 101.143 L
242.762 98.638 L
243.15 80.27 L
243.538 82.085 L
243.925 80.27 L
244.313 122.016 L
244.7 122.016 L
245.087 126.19 L
245.475 86.692 L
245.863 129.606 L
246.25 86.692 L
246.637 88.619 L
247.025 80.27 L
247.413 103.865 L
247.8 156.395 L
248.188 157.17 L
248.575 118.676 L
248.962 82.085 L
249.35 71.921 L
249.738 126.19 L
250.125 90.706 L
250.512 84.908 L
250.9 92.975 L
251.288 103.865 L
251.675 101.143 L
252.063 118.676 L
252.45 83.252 L
252.837 71.195 L
253.225 70.843 L
253.613 64.435 L
254 143.987 L
254.387 38.524 L
254.775 78.6 L
255.163 88.619 L
255.55 98.161 L
255.938 122.016 L
256.325 92.975 L
256.712 114.756 L
257.1 125.646 L
257.487 125.646 L
257.875 118.221 L
258.263 101.143 L
258.65 77.059 L
259.038 92.197 L
259.425 88.619 L
259.813 118.221 L
260.2 54.684 L
260.587 126.19 L
260.975 95.45 L
261.362 71.195 L
261.75 88.619 L
262.138 92.975 L
262.525 98.161 L
262.913 143.987 L
263.3 104.439 L
263.688 78.923 L
264.075 143.987 L
264.462 98.638 L
264.85 110.088 L
265.237 157.17 L
265.625 110.088 L
266.013 90.706 L
266.4 90.346 L
266.788 90.346 L
267.175 135.931 L
267.563 163.762 L
267.95 149.847 L
268.337 90.706 L
268.725 118.221 L
269.112 86.234 L
269.5 74.306 L
269.888 110.088 L
270.275 103.865 L
270.663 122.016 L
271.05 103.865 L
271.438 110.088 L
271.825 96.326 L
272.212 110.088 L
272.6 101.143 L
272.987 90.706 L
273.375 84.065 L
273.763 88.619 L
274.15 118.221 L
274.538 138.714 L
274.925 106.836 L
275.313 122.016 L
275.7 101.143 L
276.087 101.143 L
276.475 119.034 L
276.862 126.19 L
277.25 157.17 L
277.638 114.756 L
278.025 90.706 L
278.413 80.27 L
278.8 98.161 L
279.188 130.805 L
279.575 103.865 L
279.962 103.865 L
280.35 138.714 L
280.737 71.195 L
281.125 111.579 L
281.513 57.078 L
281.9 95.45 L
282.288 78.6 L
282.675 149.847 L
283.063 125.646 L
283.45 122.016 L
283.837 126.927 L
284.225 145.871 L
284.612 122.016 L
285 122.016 L
285.388 92.975 L
285.775 114.756 L
286.163 75.631 L
286.55 111.579 L
286.938 78.6 L
287.325 138.714 L
287.712 92.197 L
288.1 82.085 L
288.487 171.129 L
288.875 163.762 L
289.263 122.016 L
289.65 111.579 L
290.038 103.865 L
290.425 143.987 L
290.813 103.865 L
291.2 122.016 L
291.587 171.129 L
291.975 114.756 L
292.362 133.943 L
292.75 132.452 L
293.138 126.19 L
293.525 113.667 L
293.913 126.19 L
294.3 114.756 L
294.688 138.714 L
295.075 110.088 L
295.462 96.326 L
295.85 143.987 L
296.237 143.987 L
296.625 103.865 L
297.013 91.256 L
297.4 113.667 L
297.788 133.943 L
298.175 98.161 L
298.563 129.606 L
298.95 133.943 L
299.337 149.847 L
299.725 151.238 L
300.112 152.377 L
300.5 163.762 L
300.888 129.606 L
301.275 151.238 L
301.663 86.692 L
302.05 122.016 L
302.438 66.355 L
302.825 183.536 L
303.212 138.714 L
303.6 157.17 L
303.987 140.991 L
304.375 163.762 L
304.763 163.762 L
305.15 195.071 L
305.538 103.865 L
305.925 126.19 L
306.313 157.17 L
306.7 90.706 L
307.087 101.143 L
307.475 157.17 L
307.862 130.805 L
308.25 177.677 L
308.638 138.714 L
309.025 101.143 L
309.413 77.059 L
309.8 110.088 L
310.188 156.395 L
310.575 95.45 L
310.962 157.17 L
311.35 125.646 L
311.737 69.833 L
312.125 90.706 L
312.513 98.984 L
312.9 122.016 L
313.288 200.597 L
313.675 118.221 L
314.063 179.417 L
314.45 183.536 L
314.837 138.714 L
315.225 156.395 L
315.612 141.661 L
316 177.677 L
316.388 149.847 L
316.775 138.714 L
317.163 135.931 L
317.55 163.762 L
317.938 122.016 L
318.325 133.943 L
318.712 141.661 L
319.1 133.943 L
319.487 113.667 L
319.875 125.227 L
320.263 163.762 L
320.65 163.762 L
321.038 110.088 L
321.425 130.805 L
321.813 138.714 L
322.2 108.657 L
322.587 126.19 L
322.975 210.726 L
323.362 152.377 L
323.75 170.353 L
324.138 114.756 L
324.525 151.238 L
324.913 145.871 L
325.3 75.631 L
325.688 145.871 L
326.075 130.805 L
326.462 171.129 L
326.85 152.377 L
327.237 138.714 L
327.625 133.943 L
328.013 126.19 L
328.4 130.805 L
328.788 118.221 L
329.175 163.762 L
329.563 135.931 L
329.95 163.762 L
330.337 138.714 L
330.725 143.987 L
331.112 153.325 L
331.5 179.417 L
331.888 133.943 L
332.275 148.107 L
332.663 106.836 L
333.05 118.221 L
333.438 143.987 L
333.825 163.762 L
334.212 106.836 L
334.6 170.353 L
334.987 200.597 L
335.375 140.991 L
335.763 133.943 L
336.15 188.81 L
336.538 111.579 L
336.925 149.847 L
337.313 126.927 L
337.7 149.847 L
338.087 140.991 L
338.475 136.536 L
338.862 177.677 L
339.25 157.17 L
339.638 177.677 L
340.025 138.714 L
340.413 163.762 L
340.8 143.987 L
341.188 138.714 L
341.575 163.762 L
341.962 125.646 L
342.35 114.756 L
342.737 149.847 L
343.125 133.943 L
343.513 138.714 L
343.9 185.863 L
344.288 163.762 L
344.675 138.714 L
345.063 149.847 L
345.45 171.129 L
345.837 149.847 L
346.225 114.756 L
346.612 177.677 L
347 130.805 L
347.388 157.798 L
347.775 149.847 L
348.163 215.331 L
348.55 156.395 L
348.938 138.714 L
349.325 122.016 L
349.712 151.238 L
350.1 141.661 L
350.487 88.619 L
350.875 113.667 L
351.263 103.865 L
351.65 106.836 L
352.038 130.805 L
352.425 98.161 L
352.813 195.071 L
353.2 191.593 L
353.587 129.606 L
353.975 143.987 L
354.362 149.847 L
354.75 205.508 L
355.138 101.143 L
355.525 177.677 L
355.913 157.17 L
356.3 133.943 L
356.688 136.536 L
357.075 130.805 L
357.462 157.17 L
357.85 118.221 L
358.237 126.19 L
358.625 177.677 L
359.013 169.726 L
359.4 129.606 L
359.788 140.991 L
360.175 157.17 L
360.563 163.762 L
360.95 170.353 L
361.337 135.931 L
361.725 222.206 L
362.112 156.395 L
362.5 163.762 L
362.888 195.071 L
363.275 210.726 L
363.663 141.661 L
364.05 163.762 L
364.438 195.071 L
364.825 133.943 L
365.212 118.221 L
365.6 171.129 L
365.987 106.836 L
366.375 143.987 L
366.763 143.987 L
367.15 157.17 L
367.538 210.726 L
367.925 176.286 L
368.313 171.129 L
368.7 133.943 L
369.087 157.17 L
369.475 222.206 L
369.862 226.381 L
370.25 140.991 L
370.638 185.863 L
371.025 170.353 L
371.413 171.129 L
371.8 163.762 L
372.188 163.762 L
372.575 143.987 L
372.962 185.863 L
373.35 163.762 L
373.737 170.353 L
374.125 200.597 L
374.513 138.714 L
374.9 88.619 L
375.288 188.81 L
375.675 177.677 L
376.063 156.395 L
376.45 185.863 L
376.837 177.677 L
377.225 157.798 L
377.612 185.863 L
378 171.129 L
378.388 179.417 L
378.775 191.593 L
379.163 133.943 L
379.55 200.597 L
379.938 156.395 L
380.325 177.677 L
380.712 133.943 L
381.1 122.016 L
381.487 69.833 L
381.875 126.19 L
382.263 130.805 L
382.65 163.762 L
383.038 210.726 L
383.425 200.597 L
383.813 172.111 L
384.2 170.353 L
384.587 113.667 L
384.975 226.381 L
385.362 117.622 L
385.75 151.238 L
386.138 135.931 L
386.525 145.871 L
386.913 98.161 L
387.3 136.536 L
387.688 185.863 L
388.075 163.762 L
388.462 130.805 L
388.85 171.129 L
389.237 183.536 L
389.625 157.17 L
390.013 130.805 L
390.4 149.847 L
390.788 149.847 L
391.175 188.81 L
391.563 222.206 L
391.95 200.597 L
392.337 163.762 L
392.725 98.161 L
393.112 185.863 L
393.5 138.714 L
393.888 135.931 L
394.275 196.719 L
394.663 103.865 L
395.05 183.536 L
395.438 163.762 L
395.825 149.847 L
396.212 171.129 L
396.6 138.714 L
396.987 141.661 L
397.375 145.871 L
397.763 157.17 L
398.15 138.714 L
398.538 195.071 L
398.925 130.805 L
399.313 222.206 L
399.7 143.987 L
400.087 151.238 L
400.475 125.646 L
400.862 132.452 L
401.25 195.071 L
401.638 235.327 L
402.025 183.536 L
402.413 205.508 L
402.8 163.762 L
403.188 149.847 L
403.575 210.726 L
403.962 157.17 L
404.35 179.417 L
404.737 163.762 L
405.125 185.863 L
405.513 156.395 L
405.9 185.863 L
406.288 200.597 L
406.675 130.805 L
407.063 157.17 L
407.45 171.129 L
407.837 147.426 L
408.225 143.987 L
408.612 163.762 L
409 210.726 L
409.388 98.161 L
409.775 163.762 L
410.163 177.677 L
410.55 138.714 L
410.938 219.423 L
411.325 185.863 L
411.712 210.726 L
412.1 138.714 L
412.487 163.762 L
412.875 183.536 L
413.263 149.847 L
413.65 185.863 L
414.038 126.19 L
414.425 163.762 L
414.813 205.508 L
415.2 170.353 L
415.587 185.863 L
415.975 157.17 L
416.362 163.762 L
416.75 157.798 L
417.138 179.417 L
417.525 177.677 L
417.913 157.17 L
418.3 157.17 L
418.688 191.593 L
419.075 177.677 L
419.462 200.597 L
419.85 179.417 L
420.237 170.353 L
420.625 200.597 L
421.013 231.198 L
421.4 191.593 L
421.788 170.353 L
422.175 217.435 L
422.563 163.762 L
422.95 222.206 L
423.337 171.129 L
423.725 163.762 L
424.112 177.677 L
424.5 157.17 L
424.888 170.353 L
425.275 157.17 L
425.663 163.762 L
426.05 157.17 L
426.438 210.726 L
426.825 149.847 L
427.212 185.863 L
427.6 163.762 L
427.987 108.101 L
428.375 157.17 L
428.763 143.987 L
429.15 253.218 L
429.538 141.661 L
429.925 205.508 L
430.313 185.863 L
430.7 185.863 L
431.087 163.762 L
431.475 195.071 L
431.862 128.695 L
432.25 210.726 L
432.638 179.417 L
433.025 201.333 L
433.413 104.439 L
433.8 200.597 L
434.188 200.597 L
434.575 145.871 L
434.962 148.107 L
435.35 191.593 L
435.737 126.927 L
436.125 177.677 L
436.513 163.762 L
436.9 195.071 L
437.288 163.762 L
437.675 226.381 L
438.063 101.143 L
438.45 114.756 L
438.837 205.508 L
439.225 157.17 L
439.612 157.17 L
440 210.726 L
440.388 149.847 L
440.775 195.071 L
441.163 133.943 L
441.55 163.762 L
441.938 269.733 L
442.325 181.653 L
442.712 163.762 L
443.1 138.714 L
443.487 177.677 L
443.875 253.218 L
444.263 200.597 L
444.65 185.863 L
445.038 183.536 L
445.425 118.221 L
445.813 101.143 L
446.2 157.17 L
446.587 143.987 L
446.975 215.331 L
447.362 138.714 L
447.75 185.863 L
448.138 226.381 L
448.525 143.987 L
448.913 151.238 L
449.3 179.417 L
449.688 163.762 L
450.075 136.536 L
450.462 230.064 L
450.85 191.593 L
451.237 133.943 L
451.625 177.677 L
452.013 130.805 L
452.4 118.221 L
452.788 163.762 L
453.175 143.987 L
453.563 156.395 L
453.95 238.905 L
454.337 163.762 L
454.725 106.836 L
455.112 210.726 L
455.5 143.987 L
455.888 126.19 L
456.275 117.622 L
456.663 149.847 L
457.05 222.206 L
457.438 163.762 L
457.825 149.847 L
458.212 177.677 L
458.6 133.943 L
458.987 163.762 L
459.375 163.762 L
459.763 122.016 L
460.15 177.677 L
460.538 200.597 L
460.925 151.238 L
461.313 205.508 L
461.7 195.071 L
462.087 111.579 L
462.475 238.905 L
462.862 114.756 L
463.25 210.726 L
463.638 149.847 L
464.025 130.805 L
464.413 215.331 L
464.8 191.593 L
465.188 171.129 L
465.575 171.129 L
465.962 163.762 L
466.35 163.762 L
466.737 149.847 L
467.125 177.677 L
467.513 135.931 L
467.9 163.762 L
468.288 163.762 L
468.675 177.677 L
469.063 113.667 L
469.45 195.071 L
469.837 130.805 L
470.225 138.714 L
470.612 163.762 L
471 210.726 L
471.388 117.622 L
471.775 222.206 L
472.163 226.381 L
472.55 156.395 L
472.938 138.714 L
473.325 133.943 L
473.712 195.071 L
474.1 133.943 L
474.487 222.206 L
474.875 171.129 L
475.263 149.847 L
475.65 143.987 L
476.038 171.129 L
476.425 185.863 L
476.813 210.726 L
477.2 135.931 L
477.587 195.071 L
477.975 238.905 L
478.362 157.17 L
478.75 210.726 L
479.138 177.677 L
479.525 179.417 L
479.913 226.381 L
480.3 163.762 L
480.688 140.991 L
481.075 172.111 L
481.462 185.863 L
481.85 156.395 L
482.237 138.714 L
482.625 185.863 L
483.013 238.905 L
483.4 151.238 L
483.788 271.109 L
484.175 238.905 L
484.563 143.987 L
484.95 238.905 L
485.337 179.417 L
485.725 191.593 L
486.112 195.071 L
486.5 157.17 L
486.888 179.417 L
487.275 157.17 L
487.663 226.381 L
488.05 179.417 L
488.438 101.143 L
488.825 177.677 L
489.212 106.836 L
489.6 200.597 L
489.987 191.593 L
490.375 185.863 L
490.763 177.677 L
491.15 163.762 L
491.538 185.863 L
491.925 157.17 L
492.313 151.238 L
492.7 185.863 L
493.087 145.871 L
493.475 171.129 L
493.862 149.847 L
494.25 157.17 L
494.638 135.931 L
495.025 170.353 L
495.413 200.597 L
495.8 122.016 L
496.188 170.353 L
496.575 126.927 L
496.962 191.593 L
497.35 183.536 L
497.737 171.129 L
498.125 106.836 L
498.513 235.327 L
498.9 122.016 L
499.288 148.107 L
499.675 88.619 L
500.063 195.071 L
500.45 200.597 L
500.837 113.667 L
501.225 185.863 L
501.612 117.622 L
502 226.381 L
502.388 133.943 L
502.775 122.016 L
503.163 133.943 L
503.55 130.805 L
503.938 176.286 L
504.325 195.071 L
504.712 145.871 L
505.1 235.327 L
505.487 205.508 L
505.875 179.417 L
506.263 135.931 L
506.65 133.943 L
507.038 143.987 L
507.425 172.111 L
507.813 177.677 L
508.2 151.238 L
508.587 151.238 L
508.975 195.071 L
509.362 135.931 L
509.75 138.714 L
510.138 145.871 L
510.525 129.606 L
510.913 110.088 L
511.3 101.143 L
511.688 151.238 L
512.075 117.622 L
512.463 117.622 L
512.85 163.762 L
513.237 183.536 L
513.625 163.762 L
514.013 122.016 L
514.4 171.129 L
514.787 179.417 L
515.175 210.726 L
515.563 156.395 L
515.95 149.847 L
516.338 157.17 L
516.725 129.606 L
517.112 215.331 L
517.5 170.353 L
517.888 177.677 L
518.275 156.395 L
518.662 129.606 L
519.05 185.863 L
519.438 200.597 L
519.825 205.508 L
520.213 177.677 L
520.6 145.871 L
520.987 130.805 L
521.375 222.206 L
521.763 171.129 L
522.15 170.353 L
522.537 90.706 L
522.925 130.805 L
523.313 163.762 L
523.7 138.714 L
524.088 157.17 L
524.475 157.798 L
524.862 135.931 L
525.25 191.593 L
525.638 143.987 L
526.025 170.353 L
526.412 135.931 L
526.8 200.597 L
527.188 133.943 L
527.575 171.129 L
527.963 163.762 L
528.35 185.863 L
528.737 195.071 L
529.125 110.088 L
529.513 115.593 L
529.9 138.714 L
530.287 143.987 L
530.675 117.622 L
531.063 195.071 L
531.45 170.353 L
531.838 157.17 L
532.225 138.714 L
532.612 156.395 L
533 138.714 L
533.388 179.417 L
533.775 114.756 L
534.162 130.805 L
534.55 145.871 L
534.938 69.833 L
535.325 156.395 L
535.713 103.865 L
536.1 114.756 L
536.487 133.943 L
536.875 185.863 L
537.263 171.129 L
537.65 151.238 L
538.037 191.593 L
538.425 163.762 L
538.813 118.221 L
539.2 126.19 L
539.588 130.805 L
539.975 149.847 L
540.362 163.762 L
540.75 98.161 L
541.138 156.395 L
541.525 95.45 L
541.912 151.238 L
542.3 149.847 L
542.688 133.943 L
543.075 149.847 L
543.463 163.762 L
543.85 163.762 L
544.237 177.677 L
544.625 122.016 L
545.013 138.714 L
545.4 138.714 L
545.787 138.714 L
546.175 205.508 L
546.563 157.17 L
546.95 149.847 L
547.338 222.206 L
547.725 143.987 L
548.112 90.706 L
548.5 90.706 L
548.888 104.439 L
549.275 149.847 L
549.662 117.622 L
550.05 152.377 L
550.438 113.667 L
550.825 143.987 L
551.213 143.987 L
551.6 92.975 L
551.987 170.353 L
552.375 143.987 L
552.763 177.677 L
553.15 156.395 L
553.537 171.129 L
553.925 113.667 L
554.313 122.016 L
554.7 84.065 L
555.088 163.762 L
555.475 157.17 L
555.862 122.016 L
556.25 157.17 L
556.638 122.016 L
557.025 157.17 L
557.412 157.17 L
557.8 151.238 L
558.188 135.931 L
558.575 125.646 L
558.963 92.975 L
559.35 101.143 L
559.737 143.987 L
560.125 157.17 L
560.513 171.129 L
560.9 138.714 L
561.287 118.221 L
561.675 188.81 L
562.063 200.597 L
562.45 163.762 L
562.838 177.677 L
563.225 170.353 L
563.612 130.805 L
564 163.762 L
564.388 157.17 L
564.775 126.927 L
565.162 140.991 L
565.55 104.439 L
565.938 157.17 L
566.325 170.353 L
566.713 222.206 L
567.1 125.646 L
567.487 122.016 L
567.875 143.987 L
568.263 149.847 L
568.65 171.129 L
569.037 156.395 L
569.425 156.395 L
569.813 125.646 L
570.2 163.762 L
570.588 86.234 L
570.975 143.987 L
571.362 185.863 L
571.75 179.417 L
572.138 151.238 L
572.525 195.071 L
572.912 163.762 L
573.3 151.238 L
573.688 75.631 L
574.075 179.417 L
574.463 126.19 L
574.85 138.714 L
575.237 108.101 L
575.625 106.836 L
576.013 98.161 L
576.4 138.714 L
576.787 95.45 L
577.175 118.221 L
577.563 130.805 L
577.95 133.943 L
578.338 143.987 L
578.725 133.943 L
579.112 118.221 L
579.5 111.579 L
579.888 171.129 L
580.275 179.417 L
580.662 157.17 L
581.05 171.129 L
581.438 163.762 L
581.825 130.805 L
582.213 145.871 L
582.6 129.606 L
582.987 105.96 L
583.375 156.395 L
583.763 145.871 L
584.15 67.425 L
584.537 151.238 L
584.925 104.439 L
585.313 92.975 L
585.7 163.762 L
586.088 126.19 L
586.475 101.143 L
586.862 126.19 L
587.25 171.129 L
587.638 129.606 L
588.025 113.667 L
588.412 122.016 L
588.8 106.836 L
589.188 171.129 L
589.575 88.619 L
589.963 143.987 L
590.35 125.646 L
590.737 110.088 L
591.125 149.847 L
591.513 143.987 L
591.9 185.863 L
592.287 151.238 L
592.675 177.677 L
593.063 138.714 L
593.45 104.439 L
593.838 171.129 L
594.225 130.805 L
594.612 143.987 L
595 156.395 L
595.388 126.19 L
595.775 125.646 L
596.162 103.865 L
596.55 106.836 L
596.938 135.931 L
597.325 185.863 L
597.713 171.129 L
598.1 138.714 L
598.487 200.597 L
598.875 138.714 L
599.263 138.714 L
599.65 171.129 L
600.037 130.805 L
600.425 133.943 L
600.813 163.762 L
601.2 106.836 L
601.588 170.353 L
601.975 157.17 L
602.362 145.871 L
602.75 113.667 L
603.138 133.943 L
603.525 95.45 L
603.912 130.805 L
604.3 126.19 L
604.688 88.619 L
605.075 101.143 L
605.463 111.579 L
605.85 185.863 L
606.237 98.638 L
606.625 103.462 L
607.013 117.622 L
607.4 98.638 L
607.787 151.238 L
608.175 129.606 L
608.563 138.714 L
608.95 104.439 L
609.338 163.762 L
609.725 157.17 L
610.112 114.756 L
610.5 130.805 L
610.888 133.943 L
611.275 90.706 L
611.662 86.234 L
612.05 157.17 L
612.438 118.221 L
612.825 179.417 L
613.213 138.714 L
613.6 118.221 L
613.987 113.667 L
614.375 103.865 L
614.763 151.238 L
615.15 118.221 L
615.537 129.606 L
615.925 117.622 L
616.313 177.677 L
616.7 92.975 L
617.088 145.871 L
617.475 133.943 L
617.862 133.943 L
618.25 170.353 L
618.638 130.805 L
619.025 122.016 L
619.412 163.762 L
619.8 122.016 L
620.188 114.756 L
620.575 143.987 L
620.963 117.622 L
621.35 163.762 L
621.737 110.088 L
622.125 103.865 L
622.513 92.975 L
622.9 143.987 L
623.287 195.071 L
623.675 101.143 L
624.063 101.143 L
624.45 110.088 L
624.838 101.143 L
625.225 88.619 L
625.612 205.508 L
626 163.762 L
626.388 71.195 L
626.775 103.865 L
627.162 171.129 L
627.55 92.975 L
627.938 143.987 L
628.325 138.714 L
628.713 86.234 L
629.1 118.221 L
629.487 122.016 L
629.875 151.238 L
630.263 163.762 L
630.65 133.943 L
631.037 126.19 L
631.425 135.931 L
631.813 92.975 L
632.2 98.161 L
632.588 135.931 L
632.975 111.579 L
633.362 98.638 L
633.75 126.927 L
634.138 114.756 L
634.525 92.975 L
634.912 114.756 L
635.3 191.593 L
635.688 117.622 L
636.075 84.065 L
636.463 163.762 L
636.85 149.847 L
637.237 163.762 L
637.625 179.417 L
638.013 113.667 L
638.4 126.19 L
638.787 149.847 L
639.175 114.756 L
639.563 108.101 L
639.95 126.19 L
640.338 126.19 L
640.725 151.238 L
641.112 151.238 L
641.5 98.161 L
641.888 113.667 L
642.275 143.987 L
642.662 111.579 L
643.05 104.439 L
643.438 117.622 L
643.825 101.143 L
644.213 122.016 L
644.6 126.927 L
644.987 157.17 L
645.375 151.238 L
645.763 171.129 L
646.15 185.863 L
646.537 129.606 L
646.925 117.622 L
647.313 86.234 L
647.7 113.667 L
648.088 103.865 L
648.475 106.836 L
648.862 103.865 L
649.25 98.161 L
649.638 95.45 L
650.025 156.395 L
650.412 88.619 L
650.8 129.606 L
651.188 151.238 L
651.575 101.143 L
651.963 80.27 L
652.35 133.943 L
652.737 163.762 L
653.125 149.847 L
653.513 71.195 L
653.9 101.143 L
654.287 171.129 L
654.675 104.439 L
655.063 156.395 L
655.45 130.805 L
655.838 130.805 L
656.225 138.714 L
656.612 104.439 L
657 135.931 L
657.388 143.987 L
657.775 108.101 L
658.162 106.836 L
658.55 138.714 L
658.938 138.714 L
659.325 126.19 L
659.713 118.221 L
660.1 135.931 L
660.487 91.256 L
660.875 95.45 L
661.263 117.622 L
661.65 126.927 L
662.037 110.088 L
662.425 101.143 L
662.813 117.622 L
663.2 91.256 L
663.588 143.987 L
663.975 170.353 L
664.362 170.353 L
664.75 118.221 L
665.138 129.606 L
665.525 110.088 L
665.912 135.931 L
666.3 163.762 L
666.688 101.143 L
667.075 111.579 L
667.463 106.836 L
667.85 98.161 L
668.237 95.45 L
668.625 67.425 L
669.013 98.161 L
669.4 163.762 L
669.787 72.68 L
670.175 126.927 L
670.563 110.088 L
670.95 122.016 L
671.338 126.19 L
671.725 114.756 L
672.112 113.667 L
672.5 88.619 L
672.888 117.622 L
673.275 101.143 L
673.662 103.865 L
674.05 133.943 L
674.438 157.17 L
674.825 118.221 L
675.213 104.439 L
675.6 113.667 L
675.987 177.677 L
676.375 88.619 L
676.763 149.847 L
677.15 135.931 L
677.537 149.847 L
677.925 141.661 L
678.313 88.619 L
678.7 143.987 L
679.088 122.016 L
679.475 80.27 L
679.862 88.619 L
680.25 135.931 L
680.638 117.622 L
681.025 129.606 L
681.412 122.016 L
681.8 149.847 L
682.188 126.19 L
682.575 122.016 L
682.963 130.805 L
683.35 90.706 L
683.737 149.847 L
684.125 101.143 L
684.513 185.863 L
684.9 103.865 L
685.287 104.439 L
685.675 72.68 L
686.063 117.622 L
686.45 98.638 L
686.838 126.19 L
687.225 113.667 L
687.612 78.6 L
688 135.931 L
688.388 185.863 L
688.775 135.931 L
689.162 126.19 L
689.55 103.865 L
689.938 58.562 L
690.325 171.129 L
690.713 101.143 L
691.1 143.987 L
691.487 84.065 L
691.875 143.987 L
692.263 84.065 L
692.65 84.065 L
693.037 163.762 L
693.425 71.195 L
693.813 95.45 L
694.2 143.987 L
694.588 103.865 L
694.975 156.395 L
695.362 114.756 L
695.75 157.17 L
696.138 135.931 L
696.525 103.865 L
696.912 143.987 L
697.3 122.016 L
697.688 143.987 L
698.075 94.185 L
698.463 143.987 L
698.85 195.071 L
699.237 84.065 L
699.625 125.646 L
700.013 130.805 L
700.4 149.847 L
700.787 145.871 L
701.175 122.016 L
701.563 92.975 L
701.95 126.927 L
702.338 138.714 L
702.725 117.622 L
703.112 170.353 L
703.5 143.987 L
703.888 98.161 L
704.275 152.377 L
704.662 143.987 L
705.05 103.865 L
705.438 106.836 L
705.825 163.762 L
706.213 135.931 L
706.6 104.439 L
706.987 145.871 L
707.375 133.943 L
707.763 90.706 L
708.15 143.987 L
708.537 149.847 L
708.925 163.762 L
709.313 171.129 L
709.7 113.667 L
710.088 114.756 L
710.475 179.417 L
710.862 148.107 L
711.25 156.395 L
711.638 110.088 L
712.025 185.863 L
712.412 163.762 L
712.8 118.221 L
713.188 98.161 L
713.575 82.085 L
713.963 138.714 L
714.35 163.762 L
714.737 149.847 L
715.125 156.395 L
715.513 101.143 L
715.9 111.579 L
716.287 101.143 L
716.675 95.45 L
717.063 84.065 L
717.45 104.439 L
717.838 143.987 L
718.225 103.865 L
718.612 95.45 L
719 179.417 L
719.388 126.19 L
719.775 149.847 L
720.162 195.071 L
720.55 141.661 L
720.938 156.395 L
721.325 163.762 L
721.713 135.931 L
722.1 101.143 L
722.487 110.088 L
722.875 113.667 L
723.263 117.622 L
723.65 253.218 L
724.037 133.943 L
724.425 177.677 L
724.813 126.19 L
725.2 114.756 L
725.588 78.6 L
725.975 90.706 L
726.362 171.129 L
726.75 138.714 L
727.138 95.45 L
727.525 110.088 L
727.912 126.927 L
728.3 117.622 L
728.688 104.439 L
729.075 118.221 L
729.463 163.762 L
729.85 92.975 L
730.237 101.143 L
730.625 108.101 L
731.013 106.836 L
731.4 149.847 L
731.787 113.667 L
732.175 98.161 L
732.563 126.19 L
732.95 171.129 L
733.338 92.975 L
733.725 110.088 L
734.112 138.714 L
734.5 130.805 L
734.888 118.221 L
735.275 117.622 L
735.662 156.395 L
736.05 122.016 L
736.438 122.016 L
736.825 132.452 L
737.213 143.987 L
737.6 141.661 L
737.987 110.088 L
738.375 130.805 L
738.763 163.762 L
739.15 138.714 L
739.537 86.234 L
739.925 86.234 L
740.313 185.863 L
740.7 195.071 L
741.088 143.987 L
741.475 148.107 L
741.862 145.871 L
742.25 122.016 L
742.638 151.238 L
743.025 113.667 L
743.412 110.088 L
743.8 122.016 L
744.188 138.714 L
744.575 163.762 L
744.963 156.395 L
745.35 117.622 L
745.737 118.221 L
746.125 95.45 L
746.513 143.987 L
746.9 143.987 L
747.287 95.45 L
747.675 156.395 L
748.063 138.714 L
748.45 110.088 L
748.838 138.714 L
749.225 179.417 L
749.612 135.931 L
750 78.6 L
750.388 122.016 L
750.775 140.991 L
751.162 106.836 L
751.55 88.619 L
751.938 122.016 L
752.325 122.016 L
752.713 170.353 L
753.1 117.622 L
753.487 122.016 L
753.875 129.606 L
754.263 122.016 L
754.65 86.234 L
755.037 103.865 L
755.425 132.452 L
755.813 106.836 L
756.2 122.016 L
756.588 195.071 L
756.975 138.714 L
757.362 149.847 L
757.75 163.762 L
758.138 126.927 L
758.525 157.17 L
758.912 163.762 L
759.3 133.943 L
759.688 126.19 L
760.075 108.101 L
760.463 126.19 L
760.85 195.071 L
761.237 106.836 L
761.625 133.943 L
762.013 129.606 L
762.4 130.805 L
762.787 200.597 L
763.175 104.439 L
763.563 138.714 L
763.95 143.987 L
764.338 108.101 L
764.725 143.987 L
765.112 130.805 L
765.5 149.847 L
765.888 179.417 L
766.275 130.805 L
766.662 113.667 L
767.05 103.865 L
767.438 130.805 L
767.825 104.439 L
768.213 151.238 L
768.6 126.19 L
768.987 135.931 L
769.375 106.836 L
769.763 179.417 L
770.15 101.143 L
770.537 122.016 L
770.925 129.606 L
771.313 116.798 L
771.7 133.943 L
772.088 156.395 L
772.475 86.234 L
772.862 104.439 L
773.25 106.836 L
773.638 157.17 L
774.025 106.836 L
774.412 113.667 L
774.8 138.714 L
775.188 126.927 L
775.575 141.661 L
775.963 118.221 L
776.35 92.975 L
776.737 143.987 L
777.125 101.143 L
777.513 149.847 L
777.9 106.836 L
778.287 126.19 L
778.675 133.943 L
779.063 163.762 L
779.45 126.19 L
779.838 95.45 L
780.225 195.071 L
780.612 149.847 L
781 92.975 L
781.388 101.143 L
781.775 98.161 L
782.162 151.238 L
782.55 130.805 L
782.938 118.221 L
783.325 149.847 L
783.713 177.677 L
784.1 157.17 L
784.487 156.395 L
784.875 156.395 L
785.263 226.381 L
785.65 111.579 L
786.037 151.238 L
786.425 126.19 L
786.813 122.016 L
787.2 132.452 L
787.588 104.439 L
787.975 143.987 L
788.362 151.238 L
788.75 118.221 L
789.138 195.071 L
789.525 103.865 L
789.912 156.395 L
790.3 143.987 L
790.688 122.016 L
791.075 108.101 L
791.463 118.221 L
791.85 103.865 L
792.237 97.459 L
792.625 111.579 L
793.013 117.622 L
793.4 118.221 L
793.787 149.847 L
794.175 72.68 L
794.563 130.805 L
794.95 106.836 L
795.338 113.667 L
795.725 92.975 L
796.112 110.088 L
796.5 163.762 L
796.888 108.101 L
797.275 72.68 L
797.662 122.016 L
798.05 118.221 L
798.438 133.943 L
798.825 118.221 L
799.213 117.622 L
799.6 122.016 L
799.987 122.016 L
800.375 86.234 L
800.763 106.836 L
801.15 149.847 L
801.537 149.847 L
801.925 98.161 L
802.313 148.107 L
802.7 138.714 L
803.088 138.714 L
803.475 98.161 L
803.862 97.459 L
804.25 122.016 L
804.638 149.847 L
805.025 104.439 L
805.412 130.805 L
805.8 157.17 L
806.188 156.395 L
806.575 117.622 L
806.963 130.805 L
807.35 143.987 L
807.737 126.19 L
808.125 149.847 L
808.513 110.088 L
808.9 156.395 L
809.287 157.17 L
809.675 151.238 L
810.063 110.088 L
810.45 179.417 L
810.838 117.622 L
811.225 151.238 L
811.612 91.256 L
812 118.221 L
812.388 156.395 L
812.775 106.836 L
813.162 106.836 L
813.55 118.221 L
813.938 104.439 L
814.325 110.088 L
814.713 156.395 L
815.1 130.805 L
815.487 114.756 L
815.875 95.45 L
816.263 135.931 L
816.65 135.931 L
817.037 106.836 L
817.425 135.931 L
817.813 106.836 L
818.2 86.234 L
818.588 157.17 L
818.975 130.805 L
819.362 135.931 L
819.75 114.756 L
820.138 101.143 L
820.525 157.17 L
820.912 113.667 L
821.3 84.065 L
821.688 185.863 L
822.075 113.667 L
822.463 88.619 L
822.85 135.931 L
823.237 95.45 L
823.625 133.943 L
824.013 130.805 L
824.4 110.088 L
824.787 130.805 L
825.175 68.581 L
825.563 82.085 L
825.95 105.96 L
826.338 106.836 L
826.725 135.931 L
827.112 118.221 L
827.5 112.193 L
827.888 113.667 L
828.275 110.088 L
828.662 179.417 L
829.05 163.762 L
829.438 103.865 L
829.825 141.661 L
830.213 91.256 L
830.6 106.836 L
830.987 80.27 L
831.375 106.836 L
831.763 138.714 L
832.15 88.619 L
832.537 118.221 L
832.925 157.17 L
833.313 114.756 L
833.7 135.931 L
834.088 114.756 L
834.475 106.836 L
834.862 138.714 L
835.25 80.27 L
835.638 80.27 L
836.025 130.805 L
836.412 133.943 L
836.8 129.606 L
837.188 117.622 L
837.575 106.836 L
837.963 101.143 L
838.35 122.016 L
838.737 135.931 L
839.125 118.221 L
839.513 143.987 L
839.9 163.762 L
840.287 101.143 L
840.675 125.646 L
841.063 110.088 L
841.45 113.667 L
841.838 149.847 L
842.225 103.865 L
842.612 163.762 L
843 101.143 L
843.388 106.836 L
843.775 95.45 L
844.162 130.805 L
844.55 113.667 L
844.938 101.143 L
845.325 118.221 L
845.713 71.195 L
846.1 129.606 L
846.487 72.68 L
846.875 110.088 L
847.263 95.45 L
847.65 151.238 L
848.037 129.606 L
848.425 126.19 L
848.813 130.805 L
849.2 163.762 L
849.588 71.195 L
849.975 129.606 L
850.362 82.085 L
850.75 151.238 L
851.138 117.622 L
851.525 130.805 L
851.912 143.987 L
852.3 210.726 L
852.688 135.931 L
853.075 98.161 L
853.463 122.016 L
853.85 126.19 L
854.237 177.677 L
854.625 126.19 L
855.013 140.991 L
855.4 130.805 L
855.787 126.927 L
856.175 95.45 L
856.563 170.353 L
856.95 110.088 L
857.338 91.256 L
857.725 195.071 L
858.112 177.677 L
858.5 101.143 L
858.888 98.161 L
859.275 143.987 L
859.662 126.19 L
860.05 118.221 L
860.438 114.756 L
860.825 110.088 L
861.213 183.536 L
861.6 126.19 L
861.987 126.19 L
862.375 95.45 L
862.763 48.543 L
863.15 122.016 L
863.537 143.987 L
863.925 138.714 L
864.313 133.943 L
864.7 95.45 L
865.088 157.17 L
865.475 145.871 L
865.862 126.927 L
866.25 92.975 L
866.638 80.27 L
867.025 88.619 L
867.412 114.756 L
867.8 149.847 L
868.188 117.622 L
868.575 110.088 L
868.963 163.762 L
869.35 177.677 L
869.737 110.088 L
870.125 170.353 L
870.513 145.871 L
870.9 126.19 L
871.287 88.619 L
871.675 163.762 L
872.063 125.646 L
872.45 130.805 L
872.838 110.088 L
873.225 91.256 L
873.612 98.161 L
874 149.847 L
874.388 110.088 L
874.775 126.927 L
875.162 101.143 L
875.55 163.762 L
875.938 114.756 L
876.325 151.238 L
876.713 129.606 L
877.1 118.221 L
877.487 114.756 L
877.875 110.088 L
878.263 135.931 L
878.65 130.805 L
879.037 126.19 L
879.425 151.238 L
879.813 88.619 L
880.2 110.088 L
880.588 95.45 L
880.975 157.17 L
881.362 95.45 L
881.75 163.762 L
882.138 149.847 L
882.525 118.221 L
882.912 133.943 L
883.3 122.016 L
883.688 106.836 L
884.075 126.19 L
884.463 98.638 L
884.85 110.088 L
885.237 118.221 L
885.625 171.129 L
886.013 108.101 L
886.4 113.667 L
886.787 95.45 L
887.175 143.987 L
887.563 126.19 L
887.95 86.234 L
888.338 110.088 L
888.725 80.27 L
889.112 84.065 L
889.5 138.714 L
889.888 126.19 L
890.275 101.143 L
890.662 95.45 L
891.05 117.622 L
891.438 82.085 L
891.825 80.27 L
892.213 88.619 L
892.6 125.646 L
892.987 101.143 L
893.375 133.943 L
893.763 145.871 L
894.15 126.19 L
894.537 149.847 L
894.925 117.622 L
895.313 122.016 L
895.7 103.865 L
896.088 86.234 L
896.475 122.016 L
896.862 133.943 L
897.25 138.714 L
897.638 155.413 L
898.025 122.016 L
898.412 140.991 L
898.8 90.706 L
899.188 126.19 L
899.575 113.667 L
899.963 90.706 L
900.35 126.19 L
900.737 118.221 L
901.125 141.661 L
901.513 90.706 L
901.9 118.221 L
902.287 163.762 L
902.675 76.095 L
903.063 114.756 L
903.45 91.256 L
903.838 78.6 L
904.225 80.27 L
904.612 113.667 L
905 106.836 L
S
GR
GS
1 0 0 RC
1 LJ
0.5 LW
N
169.525 148.206 M
169.913 146.998 L
170.3 146.105 L
170.688 144.721 L
171.075 143.185 L
171.462 141.102 L
171.85 139.853 L
172.238 138.68 L
172.625 137.251 L
173.012 135.964 L
173.4 134.45 L
173.788 132.589 L
174.175 130.584 L
174.563 129.674 L
174.95 127.694 L
175.337 126.13 L
175.725 124.771 L
176.113 122.877 L
176.5 121.576 L
176.887 119.837 L
177.275 118.614 L
177.663 117.63 L
178.05 116.446 L
178.438 115.457 L
178.825 114.02 L
179.212 112.868 L
179.6 108.975 L
179.988 107.271 L
180.375 105.8 L
180.762 103.854 L
181.15 101.788 L
181.538 99.745 L
181.925 98.599 L
182.313 96.581 L
182.7 94.436 L
183.087 92.752 L
183.475 90.927 L
183.863 88.786 L
184.25 86.564 L
184.637 83.562 L
185.025 81.134 L
185.413 79.336 L
185.8 77.465 L
186.188 76.002 L
186.575 74.95 L
186.962 73.744 L
187.35 71.629 L
187.738 70.488 L
188.125 69.223 L
188.512 67.42 L
188.9 66.233 L
189.288 65.733 L
189.675 64.899 L
190.063 63.939 L
190.45 63.599 L
190.837 62.718 L
191.225 62.688 L
191.613 62.594 L
192 62.151 L
192.387 61.667 L
192.775 61.559 L
193.163 61.044 L
193.55 61.458 L
193.938 61.567 L
194.325 61.277 L
194.712 61.534 L
195.1 61.829 L
195.488 62.077 L
195.875 62.829 L
196.262 62.579 L
196.65 63.394 L
197.038 64.278 L
197.425 64.523 L
197.813 64.996 L
198.2 64.735 L
198.587 65.337 L
198.975 65.47 L
199.363 67.009 L
199.75 67.234 L
200.137 67.507 L
200.525 67.87 L
200.913 68.837 L
201.3 69.463 L
201.688 69.916 L
202.075 70.027 L
202.462 70.617 L
202.85 70.83 L
203.238 71.461 L
203.625 72.153 L
204.012 73.147 L
204.4 74.369 L
204.788 74.622 L
205.175 74.94 L
205.563 75.964 L
205.95 76.264 L
206.337 77.47 L
206.725 77.123 L
207.113 77.009 L
207.5 77.399 L
207.887 78.124 L
208.275 78.844 L
208.663 79.125 L
209.05 79.489 L
209.438 80.092 L
209.825 80.438 L
210.212 79.964 L
210.6 80.894 L
210.988 80.614 L
211.375 79.808 L
211.762 80.09 L
212.15 81.201 L
212.538 82.712 L
212.925 83.554 L
213.313 83.085 L
213.7 83.213 L
214.087 83.181 L
214.475 83.256 L
214.863 82.979 L
215.25 82.658 L
215.637 82.139 L
216.025 82.949 L
216.413 83.092 L
216.8 82.243 L
217.188 82.101 L
217.575 81.978 L
217.962 82.338 L
218.35 82.491 L
218.738 82.849 L
219.125 82.551 L
219.512 82.639 L
219.9 82.93 L
220.288 82.701 L
220.675 82.134 L
221.063 82.292 L
221.45 82.202 L
221.837 81.946 L
222.225 81.835 L
222.613 83.174 L
223 83.593 L
223.387 84.82 L
223.775 84.537 L
224.163 84.496 L
224.55 85.402 L
224.938 86.63 L
225.325 86.335 L
225.712 86.905 L
226.1 86.589 L
226.488 87.366 L
226.875 87.885 L
227.262 87.687 L
227.65 87.556 L
228.038 87.096 L
228.425 87.453 L
228.813 87.913 L
229.2 87.45 L
229.587 87.655 L
229.975 88.17 L
230.363 87.698 L
230.75 87.95 L
231.137 88.605 L
231.525 88.605 L
231.913 88.53 L
232.3 86.802 L
232.688 86.861 L
233.075 87.564 L
233.462 87.793 L
233.85 87.862 L
234.238 88.114 L
234.625 89.243 L
235.012 90.353 L
235.4 91.745 L
235.788 91.598 L
236.175 92.332 L
236.563 92.75 L
236.95 92.965 L
237.337 92.997 L
237.725 93.601 L
238.113 95.058 L
238.5 96.566 L
238.887 96.798 L
239.275 96.975 L
239.663 96.975 L
240.05 98.168 L
240.438 98.624 L
240.825 98.466 L
241.212 98.68 L
241.6 99.54 L
241.988 100.201 L
242.375 100.136 L
242.762 99.867 L
243.15 98.402 L
243.538 98.092 L
243.925 97.318 L
244.313 97.954 L
244.7 96.317 L
245.087 96.375 L
245.475 96.241 L
245.863 96.387 L
246.25 96.462 L
246.637 96.396 L
247.025 96.998 L
247.413 97.813 L
247.8 98.754 L
248.188 98.977 L
248.575 98.654 L
248.962 98.591 L
249.35 98.416 L
249.738 98.375 L
250.125 99.182 L
250.512 98.771 L
250.9 99.508 L
251.288 99.556 L
251.675 98.634 L
252.063 98.889 L
252.45 98.729 L
252.837 98.719 L
253.225 99.969 L
253.613 100.407 L
254 100.381 L
254.387 100.812 L
254.775 100.353 L
255.163 100.037 L
255.55 101.419 L
255.938 101.037 L
256.325 101.115 L
256.712 101.149 L
257.1 101.347 L
257.487 101.976 L
257.875 102.12 L
258.263 101.976 L
258.65 101.428 L
259.038 102.137 L
259.425 102.417 L
259.813 101.4 L
260.2 101.78 L
260.587 102.152 L
260.975 102.721 L
261.362 102.721 L
261.75 102.896 L
262.138 102.458 L
262.525 102.984 L
262.913 103.572 L
263.3 103.961 L
263.688 104.346 L
264.075 103.26 L
264.462 104.823 L
264.85 106.002 L
265.237 106.359 L
265.625 106.827 L
266.013 106.417 L
266.4 106.577 L
266.788 106.661 L
267.175 106.672 L
267.563 107.29 L
267.95 107.222 L
268.337 107.018 L
268.725 107.081 L
269.112 107.198 L
269.5 108.025 L
269.888 107.743 L
270.275 108.708 L
270.663 108.953 L
271.05 108.478 L
271.438 109.269 L
271.825 108.651 L
272.212 108.699 L
272.6 108.316 L
272.987 108.431 L
273.375 108.847 L
273.763 109.692 L
274.15 109.357 L
274.538 110.283 L
274.925 110.517 L
275.313 109.828 L
275.7 109.492 L
276.087 109.964 L
276.475 109.675 L
276.862 110.092 L
277.25 108.967 L
277.638 108.476 L
278.025 107.346 L
278.413 107.177 L
278.8 108.214 L
279.188 109.734 L
279.575 110.67 L
279.962 110.699 L
280.35 110.699 L
280.737 111.13 L
281.125 111.13 L
281.513 111.364 L
281.9 112.831 L
282.288 112.922 L
282.675 113.565 L
283.063 114.384 L
283.45 115.21 L
283.837 115.701 L
284.225 115.857 L
284.612 115.387 L
285 116.012 L
285.388 115.779 L
285.775 115.684 L
286.163 116.524 L
286.55 117.014 L
286.938 116.576 L
287.325 115.283 L
287.712 115.262 L
288.1 116.11 L
288.487 116.461 L
288.875 117.077 L
289.263 117.139 L
289.65 118.04 L
290.038 118.969 L
290.425 119.237 L
290.813 121.052 L
291.2 121.406 L
291.587 123.252 L
291.975 123.08 L
292.362 123.931 L
292.75 122.294 L
293.138 123.429 L
293.525 123.757 L
293.913 124.35 L
294.3 124.254 L
294.688 125.073 L
295.075 125.891 L
295.462 127.893 L
295.85 127.68 L
296.237 128.671 L
296.625 129.565 L
297.013 129.802 L
297.4 129.066 L
297.788 130.34 L
298.175 131.295 L
298.563 131.423 L
298.95 130.932 L
299.337 130.523 L
299.725 129.846 L
300.112 129.968 L
300.5 130.211 L
300.888 130.046 L
301.275 130.736 L
301.663 129.844 L
302.05 128.963 L
302.438 128.115 L
302.825 127.459 L
303.212 127.377 L
303.6 129.082 L
303.987 128.925 L
304.375 130.193 L
304.763 131.072 L
305.15 131.633 L
305.538 132.811 L
305.925 132.765 L
306.313 133.426 L
306.7 134.328 L
307.087 135.258 L
307.475 135.695 L
307.862 136.279 L
308.25 136.747 L
308.638 136.832 L
309.025 136.984 L
309.413 136.672 L
309.8 135.935 L
310.188 135.403 L
310.575 135.403 L
310.962 136.072 L
311.35 135.266 L
311.737 136.131 L
312.125 136.458 L
312.513 137.287 L
312.9 136.163 L
313.288 137.575 L
313.675 137.481 L
314.063 138.057 L
314.45 137.096 L
314.837 136.85 L
315.225 135.886 L
315.612 135.332 L
316 135.718 L
316.388 135.201 L
316.775 136.778 L
317.163 137.782 L
317.55 137.42 L
317.938 137.482 L
318.325 136.472 L
318.712 136.317 L
319.1 136.652 L
319.487 138.352 L
319.875 138.859 L
320.263 139.003 L
320.65 139.852 L
321.038 139.593 L
321.425 140.136 L
321.813 142.285 L
322.2 143.132 L
322.587 144.096 L
322.975 143.798 L
323.362 142.183 L
323.75 142.688 L
324.138 142.381 L
324.525 140.877 L
324.913 141.498 L
325.3 142.364 L
325.688 142.351 L
326.075 141.494 L
326.462 142.258 L
326.85 141.725 L
327.237 141.998 L
327.625 141.276 L
328.013 141.822 L
328.4 141.96 L
328.788 141.859 L
329.175 142.717 L
329.563 143.57 L
329.95 144.598 L
330.337 144.107 L
330.725 144.107 L
331.112 144.772 L
331.5 144.927 L
331.888 145.418 L
332.275 145.751 L
332.663 145.527 L
333.05 144.333 L
333.438 143.972 L
333.825 143.352 L
334.212 144.746 L
334.6 144.991 L
334.987 144.851 L
335.375 146.306 L
335.763 146.802 L
336.15 147.175 L
336.538 146.07 L
336.925 146.566 L
337.313 146.411 L
337.7 146.878 L
338.087 147.342 L
338.475 149 L
338.862 149.748 L
339.25 149.257 L
339.638 148.984 L
340.025 148.739 L
340.413 148.796 L
340.8 147.711 L
341.188 146.933 L
341.575 145.452 L
341.962 144.92 L
342.35 144.581 L
342.737 144.411 L
343.125 145.918 L
343.513 146.851 L
343.9 146.181 L
344.288 146.91 L
344.675 146.508 L
345.063 146.604 L
345.45 145.823 L
345.837 146.68 L
346.225 146.06 L
346.612 146.498 L
347 146.237 L
347.388 146.313 L
347.775 146.457 L
348.163 146.01 L
348.55 145.808 L
348.938 145.808 L
349.325 146.054 L
349.712 145.111 L
350.1 145.156 L
350.487 145.027 L
350.875 145.414 L
351.263 146.035 L
351.65 145.489 L
352.038 147.382 L
352.425 148.199 L
352.813 148.472 L
353.2 149.67 L
353.587 151.082 L
353.975 150.216 L
354.362 150.216 L
354.75 151.321 L
355.138 151.009 L
355.525 149.971 L
355.913 150.389 L
356.3 150.233 L
356.688 149.573 L
357.075 149.831 L
357.462 149.819 L
357.85 151.013 L
358.237 150.247 L
358.625 150.536 L
359.013 150.442 L
359.4 151.132 L
359.788 152.523 L
360.175 154.184 L
360.563 155.211 L
360.95 156.627 L
361.337 157.931 L
361.725 159.191 L
362.112 159.838 L
362.5 161.124 L
362.888 160.122 L
363.275 160.01 L
363.663 160.68 L
364.05 161.197 L
364.438 162.192 L
364.825 160.882 L
365.212 160.636 L
365.6 160.855 L
365.987 161.257 L
366.375 161.697 L
366.763 162.664 L
367.15 163.583 L
367.538 163.596 L
367.925 164.922 L
368.313 165.803 L
368.7 165.837 L
369.087 166.266 L
369.475 166.351 L
369.862 167.52 L
370.25 167.504 L
370.638 167.777 L
371.025 167.063 L
371.413 166.791 L
371.8 163.803 L
372.188 163.211 L
372.575 162.564 L
372.962 161.95 L
373.35 161.95 L
373.737 163.106 L
374.125 163.27 L
374.513 162.785 L
374.9 162.388 L
375.288 164.508 L
375.675 163.459 L
376.063 164.33 L
376.45 164.172 L
376.837 164.209 L
377.225 163.052 L
377.612 161.597 L
378 161.785 L
378.388 161.64 L
378.775 161.579 L
379.163 161.852 L
379.55 161.094 L
379.938 159.737 L
380.325 159.537 L
380.712 158.831 L
381.1 158.429 L
381.487 158.776 L
381.875 159.922 L
382.263 160.644 L
382.65 161.032 L
383.038 159.312 L
383.425 159.745 L
383.813 159.125 L
384.2 157.857 L
384.587 158.995 L
384.975 159.293 L
385.362 159.19 L
385.75 158.917 L
386.138 158.789 L
386.525 158.5 L
386.913 157.736 L
387.3 157.42 L
387.688 156.635 L
388.075 156.362 L
388.462 155.564 L
388.85 155.632 L
389.237 155.57 L
389.625 155.994 L
390.013 155.751 L
390.4 155.232 L
390.788 155.07 L
391.175 155.274 L
391.563 157.73 L
391.95 159.87 L
392.337 160.904 L
392.725 161.722 L
393.112 160.801 L
393.5 159.806 L
393.888 160.563 L
394.275 160.305 L
394.663 161.594 L
395.05 160.366 L
395.438 161.704 L
395.825 161.806 L
396.212 162.785 L
396.6 163.858 L
396.987 164.498 L
397.375 164.902 L
397.763 164.613 L
398.15 164.293 L
398.538 164.552 L
398.925 164.407 L
399.313 164.94 L
399.7 163.783 L
400.087 164.429 L
400.475 164.975 L
400.862 164.757 L
401.25 165.357 L
401.638 164.645 L
402.025 164.843 L
402.413 164.352 L
402.8 165.638 L
403.188 165.593 L
403.575 165.811 L
403.962 166.79 L
404.35 165.407 L
404.737 166.582 L
405.125 167.012 L
405.513 167.142 L
405.9 167.848 L
406.288 167.574 L
406.675 168.065 L
407.063 168.382 L
407.45 169.039 L
407.837 169.442 L
408.225 169.803 L
408.612 169.06 L
409 170.252 L
409.388 169.379 L
409.775 170.489 L
410.163 171.042 L
410.55 171.918 L
410.938 173.254 L
411.325 173.963 L
411.712 173.105 L
412.1 172.847 L
412.487 173.081 L
412.875 173.081 L
413.263 174.499 L
413.65 173.723 L
414.038 173.852 L
414.425 173.818 L
414.813 173.689 L
415.2 173.385 L
415.587 173.4 L
415.975 172.967 L
416.362 172.115 L
416.75 173.682 L
417.138 173.539 L
417.525 173.827 L
417.913 174.148 L
418.3 173.444 L
418.688 173.315 L
419.075 172.006 L
419.462 175.047 L
419.85 174.613 L
420.237 175.159 L
420.625 176.083 L
421.013 175.425 L
421.4 174.992 L
421.788 174.685 L
422.175 174.489 L
422.563 175.41 L
422.95 175.329 L
423.337 176.338 L
423.725 174.742 L
424.112 176.201 L
424.5 176.923 L
424.888 175.754 L
425.275 175.317 L
425.663 175.43 L
426.05 174.837 L
426.438 175.11 L
426.825 175.227 L
427.212 175.533 L
427.6 175.261 L
427.987 176.618 L
428.375 175.519 L
428.763 174.012 L
429.15 174.558 L
429.538 173.707 L
429.925 173.27 L
430.313 174.062 L
430.7 173.067 L
431.087 172.359 L
431.475 171.228 L
431.862 171.099 L
432.25 172.124 L
432.638 172.475 L
433.025 171.329 L
433.413 170.694 L
433.8 170.967 L
434.188 172.448 L
434.575 173.299 L
434.962 173.603 L
435.35 174.12 L
435.737 173.227 L
436.125 172.129 L
436.513 171.079 L
436.9 170.964 L
437.288 171.542 L
437.675 171.05 L
438.063 172.575 L
438.45 173.932 L
438.837 173.932 L
439.225 171.933 L
439.612 172.673 L
440 171.854 L
440.388 170.887 L
440.775 171.754 L
441.163 172.3 L
441.55 171.101 L
441.938 172.061 L
442.325 170.494 L
442.712 169.294 L
443.1 168.558 L
443.487 169.333 L
443.875 168.467 L
444.263 169.218 L
444.65 169.569 L
445.038 168.759 L
445.425 169.134 L
445.813 169.469 L
446.2 168.459 L
446.587 167.555 L
446.975 166.668 L
447.362 167.814 L
447.75 166.586 L
448.138 167.541 L
448.525 168.775 L
448.913 167.372 L
449.3 167.501 L
449.688 167.63 L
450.075 165.891 L
450.462 166.436 L
450.85 166.545 L
451.237 166.884 L
451.625 167.702 L
452.013 166.238 L
452.4 164.864 L
452.788 166.338 L
453.175 165.868 L
453.563 166.516 L
453.95 164.489 L
454.337 163.121 L
454.725 163.698 L
455.112 163.856 L
455.5 164.894 L
455.888 166.266 L
456.275 166.395 L
456.663 166.783 L
457.05 165.499 L
457.438 166.263 L
457.825 165.284 L
458.212 164.056 L
458.6 164.444 L
458.987 164.962 L
459.375 163.673 L
459.763 164.287 L
460.15 164.175 L
460.538 162.383 L
460.925 161.838 L
461.313 163.343 L
461.7 162.166 L
462.087 163.958 L
462.475 166.079 L
462.862 165.934 L
463.25 165.831 L
463.638 165.391 L
464.025 164.531 L
464.413 163.947 L
464.8 166.209 L
465.188 165.432 L
465.575 165.547 L
465.962 165.896 L
466.35 166.945 L
466.737 167.652 L
467.125 167.426 L
467.513 166.881 L
467.9 167.767 L
468.288 168.968 L
468.675 169.423 L
469.063 170.344 L
469.45 170.617 L
469.837 171.743 L
470.225 172.698 L
470.612 171.975 L
471 171.774 L
471.388 171.12 L
471.775 170.939 L
472.163 171.818 L
472.55 169.853 L
472.938 171.248 L
473.325 171.8 L
473.712 171.827 L
474.1 174.578 L
474.487 175.041 L
474.875 174.107 L
475.263 175.436 L
475.65 175.599 L
476.038 176.144 L
476.425 176.758 L
476.813 176.902 L
477.2 176.936 L
477.587 177.352 L
477.975 178.58 L
478.362 178.887 L
478.75 177.387 L
479.138 178.642 L
479.525 176.912 L
479.913 178.28 L
480.3 179.317 L
480.688 179.75 L
481.075 179.102 L
481.462 180.007 L
481.85 179.294 L
482.237 177.937 L
482.625 177.836 L
483.013 178.761 L
483.4 178.994 L
483.788 178.525 L
484.175 178.837 L
484.563 177.562 L
484.95 176.871 L
485.337 177.274 L
485.725 178.383 L
486.112 177.421 L
486.5 177.116 L
486.888 175.473 L
487.275 176.565 L
487.663 176.339 L
488.05 175.01 L
488.438 174.023 L
488.825 174.505 L
489.212 173.414 L
489.6 172.8 L
489.987 170.098 L
490.375 170.712 L
490.763 171.881 L
491.15 170.735 L
491.538 170.735 L
491.925 169.975 L
492.313 171.694 L
492.7 170.676 L
493.087 168.384 L
493.475 168.045 L
493.862 165.294 L
494.25 164.066 L
494.638 165.067 L
495.025 163.243 L
495.413 164.34 L
495.8 164.612 L
496.188 164.305 L
496.575 163.889 L
496.962 162.997 L
497.35 162.739 L
497.737 161.675 L
498.125 161.641 L
498.513 162.623 L
498.9 162.105 L
499.288 163.835 L
499.675 162.567 L
500.063 161.53 L
500.45 160.746 L
500.837 159.803 L
501.225 158.751 L
501.612 157.09 L
502 156.973 L
502.388 156.314 L
502.775 154.976 L
503.163 155.327 L
503.55 155.57 L
503.938 155.843 L
504.325 155.154 L
504.712 155.844 L
505.1 156.021 L
505.487 156.22 L
505.875 156.894 L
506.263 156.492 L
506.65 157.085 L
507.038 155.87 L
507.425 156.493 L
507.813 156.478 L
508.2 157.867 L
508.587 156.319 L
508.975 156.468 L
509.362 157.208 L
509.75 159.404 L
510.138 159.609 L
510.525 159.159 L
510.913 159.791 L
511.3 158.711 L
511.688 160.762 L
512.075 159.678 L
512.463 160.392 L
512.85 159.778 L
513.237 159.717 L
513.625 160.363 L
514.013 159.626 L
514.4 158.883 L
514.787 159.117 L
515.175 157.168 L
515.563 156.895 L
515.95 156.201 L
516.338 156.876 L
516.725 156.915 L
517.112 158.025 L
517.5 157.276 L
517.888 157.148 L
518.275 157.393 L
518.662 158.072 L
519.05 158.072 L
519.438 157.566 L
519.825 157.112 L
520.213 156.972 L
520.6 157.254 L
520.987 157.402 L
521.375 159.243 L
521.763 159.618 L
522.15 160.394 L
522.537 160.807 L
522.925 160.663 L
523.313 159.784 L
523.7 160.091 L
524.088 159.948 L
524.475 159.158 L
524.862 158.5 L
525.25 155.737 L
525.638 155.737 L
526.025 154.836 L
526.412 154.004 L
526.8 154.089 L
527.188 153.511 L
527.575 153.527 L
527.963 153.008 L
528.35 153.698 L
528.737 154.368 L
529.125 153.042 L
529.513 151.583 L
529.9 150.118 L
530.287 149.572 L
530.675 149.923 L
531.063 149.283 L
531.45 147.993 L
531.838 146.509 L
532.225 146.134 L
532.612 147.294 L
533 147.355 L
533.388 147.082 L
533.775 147.573 L
534.162 147.703 L
534.55 148.092 L
534.938 147.82 L
535.325 146.783 L
535.713 146.679 L
536.1 146.059 L
536.487 147.423 L
536.875 146.572 L
537.263 146.884 L
537.65 147.885 L
538.037 147.497 L
538.425 145.632 L
538.813 143.585 L
539.2 143.474 L
539.588 144.146 L
539.975 143.732 L
540.362 143.897 L
540.75 143.819 L
541.138 142.818 L
541.525 142.301 L
541.912 141.042 L
542.3 141.662 L
542.688 141.419 L
543.075 142.183 L
543.463 141.732 L
543.85 142.837 L
544.237 142.501 L
544.625 142.033 L
545.013 142.312 L
545.4 142.457 L
545.787 143.502 L
546.175 143.644 L
546.563 144.1 L
546.95 142.848 L
547.338 142.574 L
547.725 142.691 L
548.112 141.899 L
548.5 141.354 L
548.888 141.499 L
549.275 140.848 L
549.662 140.266 L
550.05 140.151 L
550.438 140.022 L
550.825 141.453 L
551.213 141.106 L
551.6 141.553 L
551.987 142.289 L
552.375 143.284 L
552.763 143.869 L
553.15 144.415 L
553.537 144.544 L
553.925 143.898 L
554.313 143.625 L
554.7 144.314 L
555.088 144.083 L
555.475 144.128 L
555.862 143.456 L
556.25 142.508 L
556.638 142.766 L
557.025 144.185 L
557.412 142.292 L
557.8 141.861 L
558.188 142.906 L
558.575 144.065 L
558.963 145.373 L
559.35 145.502 L
559.737 146.262 L
560.125 145.738 L
560.513 146.72 L
560.9 145.587 L
561.287 145.587 L
561.675 147.409 L
562.063 147.587 L
562.45 147.729 L
562.838 148.07 L
563.225 148.214 L
563.612 147.824 L
564 147.078 L
564.388 148.204 L
564.775 149.03 L
565.162 148.539 L
565.55 147.577 L
565.938 147.279 L
566.325 146.122 L
566.713 146.449 L
567.1 145.239 L
567.487 144.475 L
567.875 144.075 L
568.263 144.036 L
568.65 144.395 L
569.037 145.199 L
569.425 145.534 L
569.813 144.898 L
570.2 145.172 L
570.588 145.334 L
570.975 145.696 L
571.362 146.734 L
571.75 146.242 L
572.138 144.874 L
572.525 144.523 L
572.912 143.581 L
573.3 142.318 L
573.688 142.82 L
574.075 142.469 L
574.463 140.709 L
574.85 141.186 L
575.237 140.469 L
575.625 140.244 L
576.013 140.374 L
576.4 139.508 L
576.787 137.134 L
577.175 137.145 L
577.563 138.108 L
577.95 137.826 L
578.338 137.116 L
578.725 136.153 L
579.112 135.181 L
579.5 135.47 L
579.888 134.744 L
580.275 134.357 L
580.662 135.129 L
581.05 134.465 L
581.438 133.759 L
581.825 133.064 L
582.213 133.743 L
582.6 132.883 L
582.987 133.156 L
583.375 132.911 L
583.763 133.475 L
584.15 133.313 L
584.537 133.403 L
584.925 133.507 L
585.313 134.454 L
585.7 134.833 L
586.088 135.372 L
586.475 134.689 L
586.862 134.912 L
587.25 135.259 L
587.638 136.339 L
588.025 137.068 L
588.412 136.965 L
588.8 138.272 L
589.188 138.673 L
589.575 139.205 L
589.963 139.205 L
590.35 138.252 L
590.737 137.797 L
591.125 137.652 L
591.513 136.536 L
591.9 137.312 L
592.287 137.533 L
592.675 137.852 L
593.063 138.003 L
593.45 137.563 L
593.838 136.574 L
594.225 137.817 L
594.612 137.326 L
595 137.016 L
595.388 137.176 L
595.775 136.153 L
596.162 137.323 L
596.55 137.274 L
596.938 136.828 L
597.325 135.779 L
597.713 135.172 L
598.1 135.908 L
598.487 136.057 L
598.875 136.682 L
599.263 135.375 L
599.65 136.848 L
600.037 137.107 L
600.425 136.893 L
600.813 137.299 L
601.2 136.987 L
601.588 135.943 L
601.975 133.989 L
602.362 134.105 L
602.75 132.94 L
603.138 133.738 L
603.525 134.41 L
603.912 133.372 L
604.3 133.036 L
604.688 132.25 L
605.075 132.148 L
605.463 131.992 L
605.85 132.07 L
606.237 132.34 L
606.625 133.729 L
607.013 132.886 L
607.4 132.102 L
607.787 131.373 L
608.175 131.28 L
608.563 130.687 L
608.95 130.531 L
609.338 130.204 L
609.725 130.06 L
610.112 129.887 L
610.5 129.511 L
610.888 129.123 L
611.275 129.335 L
611.662 129.206 L
612.05 128.282 L
612.438 127.459 L
612.825 127.053 L
613.213 127.25 L
613.6 129.203 L
613.987 128.622 L
614.375 128.131 L
614.763 128.552 L
615.15 128.552 L
615.537 128.101 L
615.925 128.487 L
616.313 129.763 L
616.7 129.131 L
617.088 128.861 L
617.475 130.282 L
617.862 129.14 L
618.25 129.422 L
618.638 129.422 L
619.025 129.065 L
619.412 128.172 L
619.8 127.483 L
620.188 128.198 L
620.575 128.844 L
620.963 128.844 L
621.35 129.54 L
621.737 130.515 L
622.125 129.256 L
622.513 128.863 L
622.9 128.01 L
623.287 127.478 L
623.675 127.094 L
624.063 127.354 L
624.45 127.567 L
624.838 126.425 L
625.225 126.357 L
625.612 127.572 L
626 127.572 L
626.388 125.737 L
626.775 127.125 L
627.162 127.203 L
627.55 127.788 L
627.938 128.679 L
628.325 127.568 L
628.713 127.477 L
629.1 128.023 L
629.487 127.062 L
629.875 126.789 L
630.263 127.013 L
630.65 126.664 L
631.037 127.324 L
631.425 127.078 L
631.813 126.844 L
632.2 127.036 L
632.588 128.037 L
632.975 127.401 L
633.362 125.624 L
633.75 125.947 L
634.138 125.947 L
634.525 126.181 L
634.912 126.687 L
635.3 128.031 L
635.688 126.967 L
636.075 127.111 L
636.463 129.359 L
636.85 129.864 L
637.237 128.815 L
637.625 128.683 L
638.013 128.088 L
638.4 127.405 L
638.787 127.809 L
639.175 127.527 L
639.563 127.06 L
639.95 125.966 L
640.338 125.821 L
640.725 124.933 L
641.112 125 L
641.5 125.3 L
641.888 125.46 L
642.275 125.109 L
642.662 125.07 L
643.05 126.093 L
643.438 127.097 L
643.825 126.005 L
644.213 125.738 L
644.6 127.27 L
644.987 127.068 L
645.375 126.378 L
645.763 126.636 L
646.15 127.553 L
646.537 127.061 L
646.925 126.171 L
647.313 125.625 L
647.7 124.931 L
648.088 124.822 L
648.475 124.442 L
648.862 124.224 L
649.25 124.694 L
649.638 125.048 L
650.025 124.892 L
650.412 125.083 L
650.8 123.907 L
651.188 122.813 L
651.575 123.195 L
651.963 123.455 L
652.35 122.79 L
652.737 122.585 L
653.125 122.844 L
653.513 122.327 L
653.9 123.167 L
654.287 124.115 L
654.675 124.966 L
655.063 124.202 L
655.45 123.778 L
655.838 122.581 L
656.225 121.602 L
656.612 122.272 L
657 121.949 L
657.388 122.446 L
657.775 122.312 L
658.162 122.2 L
658.55 121.977 L
658.938 121.262 L
659.325 121.262 L
659.713 122.602 L
660.1 120.96 L
660.487 121.711 L
660.875 121.329 L
661.263 120.756 L
661.65 121.247 L
662.037 121.923 L
662.425 121.526 L
662.813 120.052 L
663.2 119.42 L
663.588 120.008 L
663.975 120.061 L
664.362 119.332 L
664.75 120.366 L
665.138 119.617 L
665.525 119.1 L
665.912 118.764 L
666.3 119.528 L
666.688 119.218 L
667.075 119.491 L
667.463 119.333 L
667.85 120.151 L
668.237 120.834 L
668.625 119.852 L
669.013 119.955 L
669.4 119.874 L
669.787 119.129 L
670.175 118.202 L
670.563 119.078 L
670.95 119.512 L
671.338 119.747 L
671.725 119.651 L
672.112 120.431 L
672.5 120.922 L
672.888 121.008 L
673.275 121.783 L
673.662 120.739 L
674.05 120.337 L
674.438 118.98 L
674.825 120.306 L
675.213 119.801 L
675.6 119.69 L
675.987 118.45 L
676.375 117.545 L
676.763 117.496 L
677.15 117.783 L
677.537 117.917 L
677.925 117.533 L
678.313 118.327 L
678.7 120.649 L
679.088 121.39 L
679.475 120.653 L
679.862 121.265 L
680.25 119.924 L
680.638 121.121 L
681.025 120.712 L
681.412 121.061 L
681.8 120.459 L
682.188 121.053 L
682.575 120.964 L
682.963 120.306 L
683.35 121.534 L
683.737 120.893 L
684.125 120.139 L
684.513 119.88 L
684.9 119.599 L
685.287 120.617 L
685.675 120.639 L
686.063 120.237 L
686.45 121.164 L
686.838 120.263 L
687.225 120.421 L
687.612 119.875 L
688 119.921 L
688.388 120.03 L
688.775 120.03 L
689.162 121.462 L
689.55 121.537 L
689.938 122.263 L
690.325 122.162 L
690.713 122.794 L
691.1 123.113 L
691.487 123.113 L
691.875 121.998 L
692.263 122.012 L
692.65 122.34 L
693.037 122.081 L
693.425 123.643 L
693.813 123.528 L
694.2 123.47 L
694.588 122.813 L
694.975 123.6 L
695.362 123.588 L
695.75 124.258 L
696.138 125.163 L
696.525 125.894 L
696.912 125.468 L
697.3 126.099 L
697.688 127.184 L
698.075 126.297 L
698.463 125.476 L
698.85 125.749 L
699.237 126.486 L
699.625 127.805 L
700.013 128.885 L
700.4 127.78 L
700.787 129.315 L
701.175 129.396 L
701.563 130.814 L
701.95 130.149 L
702.338 132.145 L
702.725 133.708 L
703.112 132.815 L
703.5 133.344 L
703.888 133.081 L
704.275 132.978 L
704.662 134.153 L
705.05 134.024 L
705.438 134.841 L
705.825 133.742 L
706.213 133.265 L
706.6 133.211 L
706.987 132.259 L
707.375 131.515 L
707.763 130.74 L
708.15 131.716 L
708.537 130.93 L
708.925 128.976 L
709.313 130.846 L
709.7 130.857 L
710.088 131.23 L
710.475 132.117 L
710.862 132.034 L
711.25 132.708 L
711.638 134.096 L
712.025 134.273 L
712.412 133.536 L
712.8 133.388 L
713.188 132.277 L
713.575 131.76 L
713.963 134.8 L
714.35 134.439 L
714.737 135.099 L
715.125 135.537 L
715.513 135.692 L
715.9 134.023 L
716.287 133.136 L
716.675 134.444 L
717.063 134.303 L
717.45 133.548 L
717.838 133.928 L
718.225 133.594 L
718.612 132.962 L
719 131.799 L
719.388 130.761 L
719.775 131.744 L
720.162 131.317 L
720.55 129.782 L
720.938 128.997 L
721.325 128.026 L
721.713 128.805 L
722.1 127.39 L
722.487 126.103 L
722.875 126.26 L
723.263 127.69 L
723.65 127.904 L
724.037 127.343 L
724.425 126.851 L
724.813 126.478 L
725.2 125.73 L
725.588 126.053 L
725.975 126.931 L
726.362 127.341 L
726.75 127.862 L
727.138 128.81 L
727.525 129.586 L
727.912 129.54 L
728.3 129.662 L
728.688 130.355 L
729.075 130.049 L
729.463 130.294 L
729.85 129.047 L
730.237 126.913 L
730.625 127.779 L
731.013 128.538 L
731.4 128.15 L
731.787 128.389 L
732.175 129.266 L
732.563 129.5 L
732.95 130.236 L
733.338 130.159 L
733.725 127.352 L
734.112 127.118 L
734.5 126.354 L
734.888 127.091 L
735.275 127.908 L
735.662 128.673 L
736.05 129.212 L
736.438 127.728 L
736.825 127.832 L
737.213 128.783 L
737.6 128.496 L
737.987 129.074 L
738.375 129.488 L
738.763 129.599 L
739.15 130 L
739.537 130.307 L
739.925 131.15 L
740.313 130.708 L
740.7 130.981 L
741.088 131.65 L
741.475 130.807 L
741.862 130.316 L
742.25 130.784 L
742.638 130.702 L
743.025 130.686 L
743.412 131.17 L
743.8 131.404 L
744.188 131.225 L
744.575 131.053 L
744.963 130.425 L
745.35 130.156 L
745.737 129.686 L
746.125 129.389 L
746.513 129.389 L
746.9 130.616 L
747.287 130.513 L
747.675 130.674 L
748.063 131.726 L
748.45 131.65 L
748.838 131.521 L
749.225 132.012 L
749.612 132.947 L
750 133.731 L
750.388 132.206 L
750.775 130.855 L
751.162 131.857 L
751.55 131.048 L
751.938 130.814 L
752.325 130.963 L
752.713 130.562 L
753.1 132.267 L
753.487 132.156 L
753.875 132.483 L
754.263 132.587 L
754.65 131.495 L
755.037 131.252 L
755.425 131.51 L
755.813 132.131 L
756.2 133.777 L
756.588 133.518 L
756.975 132.924 L
757.362 133.089 L
757.75 132.587 L
758.138 131.915 L
758.525 132.722 L
758.912 132.476 L
759.3 131.624 L
759.688 131.053 L
760.075 133.03 L
760.463 132.621 L
760.85 132.249 L
761.237 132.695 L
761.625 133.248 L
762.013 133.482 L
762.4 134.156 L
762.787 132.506 L
763.175 132.248 L
763.563 131.95 L
763.95 132.491 L
764.338 132.193 L
764.725 132.731 L
765.112 133.414 L
765.5 133.306 L
765.888 133.989 L
766.275 133.914 L
766.662 131.912 L
767.05 132.016 L
767.438 131.061 L
767.825 130.788 L
768.213 130.394 L
768.6 129.787 L
768.987 129.202 L
769.375 129.787 L
769.763 129.787 L
770.15 129.539 L
770.537 130.889 L
770.925 130.002 L
771.313 129.731 L
771.7 129.087 L
772.088 128.471 L
772.475 128.872 L
772.862 127.503 L
773.25 127.773 L
773.638 127.992 L
774.025 128.652 L
774.412 129.614 L
774.8 129.858 L
775.188 130.359 L
775.575 131.86 L
775.963 130.53 L
776.35 130.931 L
776.737 131.176 L
777.125 131.532 L
777.513 131.564 L
777.9 131.564 L
778.287 131.422 L
778.675 131.913 L
779.063 131.566 L
779.45 133.296 L
779.838 131.815 L
780.225 132.898 L
780.612 133.329 L
781 133.18 L
781.388 133.01 L
781.775 132.701 L
782.162 131.671 L
782.55 131.891 L
782.938 132.031 L
783.325 132.243 L
783.713 131.479 L
784.1 132.323 L
784.487 131.519 L
784.875 131.364 L
785.263 130.97 L
785.65 130.421 L
786.037 129.926 L
786.425 130.261 L
786.813 130.649 L
787.2 130.786 L
787.588 129.273 L
787.975 129.57 L
788.362 129.414 L
788.75 129.414 L
789.138 128.521 L
789.525 128.353 L
789.912 128.874 L
790.3 127.441 L
790.688 126.194 L
791.075 126.466 L
791.463 127.421 L
791.85 128.434 L
792.237 127.394 L
792.625 127.733 L
793.013 128.135 L
793.4 127.916 L
793.787 126.357 L
794.175 125.186 L
794.563 124.512 L
794.95 124.384 L
795.338 121.993 L
795.725 122.37 L
796.112 122.486 L
796.5 123.078 L
796.888 122.992 L
797.275 122.96 L
797.662 123.735 L
798.05 123.386 L
798.438 123.359 L
798.825 123.2 L
799.213 122.441 L
799.6 123.487 L
799.987 123.385 L
800.375 122.721 L
800.763 123.846 L
801.15 124.033 L
801.537 124.68 L
801.925 124.433 L
802.313 124.84 L
802.7 125.719 L
803.088 125.507 L
803.475 125.284 L
803.862 124.664 L
804.25 125.287 L
804.638 124.881 L
805.025 125.852 L
805.412 126.188 L
805.8 126.615 L
806.188 126.328 L
806.575 125.783 L
806.963 126.328 L
807.35 126.998 L
807.737 127.271 L
808.125 127.048 L
808.513 126.112 L
808.9 126.876 L
809.287 127.134 L
809.675 127.407 L
810.063 127.265 L
810.45 127.557 L
810.838 128.544 L
811.225 127.835 L
811.612 126.545 L
812 128.265 L
812.388 127.589 L
812.775 126.607 L
813.162 126.553 L
813.55 126.499 L
813.938 127.215 L
814.325 127.387 L
814.713 126.607 L
815.1 127.124 L
815.487 125.904 L
815.875 124.432 L
816.263 123.443 L
816.65 123.232 L
817.037 123.332 L
817.425 122.827 L
817.813 122.553 L
818.2 121.843 L
818.588 121.843 L
818.975 122.295 L
819.362 122.424 L
819.75 121.495 L
820.138 122.114 L
820.525 120.385 L
820.912 120.174 L
821.3 118.782 L
821.688 119.088 L
822.075 119.49 L
822.463 118.161 L
822.85 118.384 L
823.237 119.371 L
823.625 119.303 L
824.013 119.92 L
824.4 120.012 L
824.787 119.04 L
825.175 119.195 L
825.563 118.519 L
825.95 118.221 L
826.338 118.121 L
826.725 118.082 L
827.112 118.528 L
827.5 118.169 L
827.888 118.169 L
828.275 118.462 L
828.662 117.772 L
829.05 117.873 L
829.438 117.526 L
829.825 118.099 L
830.213 119.327 L
830.6 118.228 L
830.987 118.463 L
831.375 118.973 L
831.763 117.558 L
832.15 118.267 L
832.537 118.566 L
832.925 119.112 L
833.313 119.223 L
833.7 118.692 L
834.088 117.999 L
834.475 118.405 L
834.862 118.069 L
835.25 118.707 L
835.638 119.416 L
836.025 118.734 L
836.412 119.181 L
836.8 117.94 L
837.188 117.781 L
837.575 117.453 L
837.963 118.189 L
838.35 118.572 L
838.737 117.528 L
839.125 116.882 L
839.513 118.057 L
839.9 116.675 L
840.287 117.427 L
840.675 116.942 L
841.063 118.333 L
841.45 118.545 L
841.838 118.39 L
842.225 119.475 L
842.612 121.289 L
843 120.873 L
843.388 120.547 L
843.775 120.274 L
844.162 120.499 L
844.55 121.888 L
844.938 121.642 L
845.325 122.833 L
845.713 123.823 L
846.1 123.747 L
846.487 122.993 L
846.875 123.792 L
847.263 123.644 L
847.65 123.338 L
848.037 125.18 L
848.425 126.272 L
848.813 125.589 L
849.2 125.196 L
849.588 125.196 L
849.975 124.459 L
850.362 124.794 L
850.75 124.581 L
851.138 124.581 L
851.525 125.951 L
851.912 125.487 L
852.3 125.925 L
852.688 124.585 L
853.075 123.554 L
853.463 123.852 L
853.85 124.803 L
854.237 124.958 L
854.625 125.356 L
855.013 125.244 L
855.4 126.008 L
855.787 127.472 L
856.175 127.42 L
856.563 127.818 L
856.95 127.233 L
857.338 127.099 L
857.725 126.384 L
858.112 126.781 L
858.5 126.613 L
858.888 126.206 L
859.275 126.206 L
859.662 128.294 L
860.05 127.912 L
860.438 129.642 L
860.825 129.537 L
861.213 129.705 L
861.6 128.878 L
861.987 129.266 L
862.375 127.597 L
862.763 127.497 L
863.15 127.731 L
863.537 127.128 L
863.925 126.578 L
864.313 126.032 L
864.7 125.717 L
865.088 125.441 L
865.475 124.859 L
865.862 125.581 L
866.25 125.96 L
866.638 125.585 L
867.025 125.968 L
867.412 126.497 L
867.8 124.922 L
868.188 123.597 L
868.575 124.279 L
868.963 124.919 L
869.35 124.57 L
869.737 125.061 L
870.125 124.48 L
870.513 124.389 L
870.9 124.102 L
871.287 123.585 L
871.675 122.982 L
872.063 123.719 L
872.45 124.785 L
872.838 126.152 L
873.225 126.386 L
873.612 125.955 L
874 125.33 L
874.388 125.178 L
874.775 125.24 L
875.162 124.317 L
875.55 123.775 L
875.938 124.642 L
876.325 124.938 L
876.713 125.593 L
877.1 125.727 L
877.487 126.3 L
877.875 125.836 L
878.263 125.221 L
878.65 125.221 L
879.037 123.584 L
879.425 121.748 L
879.813 122.309 L
880.2 121.444 L
880.588 120.566 L
880.975 119.964 L
881.362 120.532 L
881.75 118.931 L
882.138 118.041 L
882.525 117.214 L
882.912 117.519 L
883.3 117.713 L
883.688 118.415 L
884.075 118.337 L
884.463 118.652 L
884.85 119.102 L
885.237 119.425 L
885.625 118.606 L
886.013 118.393 L
886.4 117.118 L
886.787 116.969 L
887.175 117.278 L
887.563 117.747 L
887.95 118.636 L
888.338 118.363 L
888.725 118.563 L
889.112 117.867 L
889.5 117.376 L
889.888 117.867 L
890.275 117.487 L
890.662 118.09 L
891.05 117.326 L
891.438 118.232 L
891.825 116.8 L
892.213 116.18 L
892.6 117.073 L
892.987 115.938 L
893.375 115.796 L
893.763 115.491 L
894.15 114.557 L
894.537 114.197 L
894.925 114.267 L
895.313 114.044 L
895.7 112.903 L
896.088 113 L
896.475 112.987 L
896.862 113.36 L
897.25 112.694 L
897.638 112.394 L
898.025 112.989 L
898.412 113.056 L
898.8 113.837 L
899.188 114.563 L
899.575 113.959 L
899.963 113.645 L
900.35 113.974 L
900.737 114.475 L
901.125 114.388 L
901.513 115.311 L
901.9 116.341 L
902.287 117.181 L
902.675 116.917 L
903.063 117.426 L
903.45 116.875 L
903.838 115.875 L
904.225 115.507 L
904.612 114.235 L
905 114.105 L
S
GR
%%Trailer
%%Pages: 1
%%EOF
