%!PS-Adobe-3.0 EPSF-3.0
%%Creator: (MATLAB, The Mathworks, Inc. Version 9.0.0.341360 \(R2016a\). Operating System: Linux)
%%Title: report/figures/sm_base_additional_fc_layer2_ratio.eps
%%CreationDate: 2017-02-04T23:56:21
%%Pages: (atend)
%%BoundingBox:    59     4   910   325
%%LanguageLevel: 3
%%EndComments
%%BeginProlog
%%BeginResource: procset (Apache XML Graphics Std ProcSet) 1.2 0
%%Version: 1.2 0
%%Copyright: (Copyright 2001-2003,2010 The Apache Software Foundation. License terms: http://www.apache.org/licenses/LICENSE-2.0)
/bd{bind def}bind def
/ld{load def}bd
/GR/grestore ld
/M/moveto ld
/LJ/setlinejoin ld
/C/curveto ld
/f/fill ld
/LW/setlinewidth ld
/GC/setgray ld
/t/show ld
/N/newpath ld
/CT/concat ld
/cp/closepath ld
/S/stroke ld
/L/lineto ld
/CC/setcmykcolor ld
/A/ashow ld
/GS/gsave ld
/RC/setrgbcolor ld
/RM/rmoveto ld
/ML/setmiterlimit ld
/re {4 2 roll M
1 index 0 rlineto
0 exch rlineto
neg 0 rlineto
cp } bd
/_ctm matrix def
/_tm matrix def
/BT { _ctm currentmatrix pop matrix _tm copy pop 0 0 moveto } bd
/ET { _ctm setmatrix } bd
/iTm { _ctm setmatrix _tm concat } bd
/Tm { _tm astore pop iTm 0 0 moveto } bd
/ux 0.0 def
/uy 0.0 def
/F {
  /Tp exch def
  /Tf exch def
  Tf findfont Tp scalefont setfont
  /cf Tf def  /cs Tp def
} bd
/ULS {currentpoint /uy exch def /ux exch def} bd
/ULE {
  /Tcx currentpoint pop def
  gsave
  newpath
  cf findfont cs scalefont dup
  /FontMatrix get 0 get /Ts exch def /FontInfo get dup
  /UnderlinePosition get Ts mul /To exch def
  /UnderlineThickness get Ts mul /Tt exch def
  ux uy To add moveto  Tcx uy To add lineto
  Tt setlinewidth stroke
  grestore
} bd
/OLE {
  /Tcx currentpoint pop def
  gsave
  newpath
  cf findfont cs scalefont dup
  /FontMatrix get 0 get /Ts exch def /FontInfo get dup
  /UnderlinePosition get Ts mul /To exch def
  /UnderlineThickness get Ts mul /Tt exch def
  ux uy To add cs add moveto Tcx uy To add cs add lineto
  Tt setlinewidth stroke
  grestore
} bd
/SOE {
  /Tcx currentpoint pop def
  gsave
  newpath
  cf findfont cs scalefont dup
  /FontMatrix get 0 get /Ts exch def /FontInfo get dup
  /UnderlinePosition get Ts mul /To exch def
  /UnderlineThickness get Ts mul /Tt exch def
  ux uy To add cs 10 mul 26 idiv add moveto Tcx uy To add cs 10 mul 26 idiv add lineto
  Tt setlinewidth stroke
  grestore
} bd
/QT {
/Y22 exch store
/X22 exch store
/Y21 exch store
/X21 exch store
currentpoint
/Y21 load 2 mul add 3 div exch
/X21 load 2 mul add 3 div exch
/X21 load 2 mul /X22 load add 3 div
/Y21 load 2 mul /Y22 load add 3 div
/X22 load /Y22 load curveto
} bd
/SSPD {
dup length /d exch dict def
{
/v exch def
/k exch def
currentpagedevice k known {
/cpdv currentpagedevice k get def
v cpdv ne {
/upd false def
/nullv v type /nulltype eq def
/nullcpdv cpdv type /nulltype eq def
nullv nullcpdv or
{
/upd true def
} {
/sametype v type cpdv type eq def
sametype {
v type /arraytype eq {
/vlen v length def
/cpdvlen cpdv length def
vlen cpdvlen eq {
0 1 vlen 1 sub {
/i exch def
/obj v i get def
/cpdobj cpdv i get def
obj cpdobj ne {
/upd true def
exit
} if
} for
} {
/upd true def
} ifelse
} {
v type /dicttype eq {
v {
/dv exch def
/dk exch def
/cpddv cpdv dk get def
dv cpddv ne {
/upd true def
exit
} if
} forall
} {
/upd true def
} ifelse
} ifelse
} if
} ifelse
upd true eq {
d k v put
} if
} if
} if
} forall
d length 0 gt {
d setpagedevice
} if
} bd
%%EndResource
%%BeginResource: procset (Apache XML Graphics EPS ProcSet) 1.0 0
%%Version: 1.0 0
%%Copyright: (Copyright 2002-2003 The Apache Software Foundation. License terms: http://www.apache.org/licenses/LICENSE-2.0)
/BeginEPSF { %def
/b4_Inc_state save def         % Save state for cleanup
/dict_count countdictstack def % Count objects on dict stack
/op_count count 1 sub def      % Count objects on operand stack
userdict begin                 % Push userdict on dict stack
/showpage { } def              % Redefine showpage, { } = null proc
0 setgray 0 setlinecap         % Prepare graphics state
1 setlinewidth 0 setlinejoin
10 setmiterlimit [ ] 0 setdash newpath
/languagelevel where           % If level not equal to 1 then
{pop languagelevel             % set strokeadjust and
1 ne                           % overprint to their defaults.
{false setstrokeadjust false setoverprint
} if
} if
} bd
/EndEPSF { %def
count op_count sub {pop} repeat            % Clean up stacks
countdictstack dict_count sub {end} repeat
b4_Inc_state restore
} bd
%%EndResource
%%EndProlog
%%Page: 1 1
%%PageBoundingBox: 0 0 1000 350
%%BeginPageSetup
[1 0 0 -1 0 350] CT
%%EndPageSetup
GS
1 GC
N
0 0 1000 350 re
f
GR
GS
1 GC
N
0 0 1000 350 re
f
GR
GS
1 GC
N
130 289 M
905 289 L
905 26 L
130 26 L
cp
f
GR
GS
0.873 GC
1 LJ
0.5 LW
N
130 289 M
130 26 L
S
GR
GS
0.873 GC
1 LJ
0.5 LW
N
323.75 289 M
323.75 26 L
S
GR
GS
0.873 GC
1 LJ
0.5 LW
N
517.5 289 M
517.5 26 L
S
GR
GS
0.873 GC
1 LJ
0.5 LW
N
711.25 289 M
711.25 26 L
S
GR
GS
0.873 GC
1 LJ
0.5 LW
N
905 289 M
905 26 L
S
GR
GS
0.873 GC
1 LJ
0.5 LW
N
905 289 M
130 289 L
S
GR
GS
0.873 GC
1 LJ
0.5 LW
N
905 238.905 M
130 238.905 L
S
GR
GS
0.873 GC
1 LJ
0.5 LW
N
905 188.81 M
130 188.81 L
S
GR
GS
0.873 GC
1 LJ
0.5 LW
N
905 138.714 M
130 138.714 L
S
GR
GS
0.873 GC
1 LJ
0.5 LW
N
905 88.619 M
130 88.619 L
S
GR
GS
0.873 GC
1 LJ
0.5 LW
N
905 38.524 M
130 38.524 L
S
GR
GS
0.149 GC
2 setlinecap
1 LJ
0.5 LW
N
130 289 M
905 289 L
S
GR
GS
0.149 GC
2 setlinecap
1 LJ
0.5 LW
N
130 289 M
130 281.25 L
S
GR
GS
0.149 GC
2 setlinecap
1 LJ
0.5 LW
N
323.75 289 M
323.75 281.25 L
S
GR
GS
0.149 GC
2 setlinecap
1 LJ
0.5 LW
N
517.5 289 M
517.5 281.25 L
S
GR
GS
0.149 GC
2 setlinecap
1 LJ
0.5 LW
N
711.25 289 M
711.25 281.25 L
S
GR
GS
0.149 GC
2 setlinecap
1 LJ
0.5 LW
N
905 289 M
905 281.25 L
S
GR
GS
[1 0 0 1 130 295] CT
0.149 GC
N
-0.141 5.719 M
-1.672 5.719 -2.438 7.219 QT
-3.203 8.719 -3.203 11.719 QT
-3.203 14.719 -2.438 16.219 QT
-1.672 17.719 -0.141 17.719 QT
1.391 17.719 2.156 16.219 QT
2.922 14.719 2.922 11.719 QT
2.922 8.719 2.156 7.219 QT
1.391 5.719 -0.141 5.719 QT
cp
-0.141 4.156 M
2.313 4.156 3.602 6.094 QT
4.891 8.031 4.891 11.719 QT
4.891 15.406 3.602 17.344 QT
2.313 19.281 -0.141 19.281 QT
-2.594 19.281 -3.891 17.344 QT
-5.188 15.406 -5.188 11.719 QT
-5.188 8.031 -3.891 6.094 QT
-2.594 4.156 -0.141 4.156 QT
cp
f
GR
GS
[1 0 0 1 323.75 295] CT
0.149 GC
N
-9.641 5.719 M
-11.172 5.719 -11.938 7.219 QT
-12.703 8.719 -12.703 11.719 QT
-12.703 14.719 -11.938 16.219 QT
-11.172 17.719 -9.641 17.719 QT
-8.109 17.719 -7.344 16.219 QT
-6.578 14.719 -6.578 11.719 QT
-6.578 8.719 -7.344 7.219 QT
-8.109 5.719 -9.641 5.719 QT
cp
-9.641 4.156 M
-7.188 4.156 -5.898 6.094 QT
-4.609 8.031 -4.609 11.719 QT
-4.609 15.406 -5.898 17.344 QT
-7.188 19.281 -9.641 19.281 QT
-12.094 19.281 -13.391 17.344 QT
-14.688 15.406 -14.688 11.719 QT
-14.688 8.031 -13.391 6.094 QT
-12.094 4.156 -9.641 4.156 QT
cp
-1.135 16.516 M
0.928 16.516 L
0.928 19 L
-1.135 19 L
-1.135 16.516 L
cp
5.238 4.422 M
12.988 4.422 L
12.988 6.078 L
7.051 6.078 L
7.051 9.656 L
7.473 9.5 7.902 9.43 QT
8.332 9.359 8.77 9.359 QT
11.207 9.359 12.637 10.695 QT
14.066 12.031 14.066 14.328 QT
14.066 16.672 12.598 17.977 QT
11.129 19.281 8.457 19.281 QT
7.551 19.281 6.598 19.125 QT
5.645 18.969 4.629 18.656 QT
4.629 16.672 L
5.504 17.156 6.441 17.391 QT
7.379 17.625 8.426 17.625 QT
10.113 17.625 11.098 16.734 QT
12.082 15.844 12.082 14.328 QT
12.082 12.797 11.098 11.906 QT
10.113 11.016 8.426 11.016 QT
7.629 11.016 6.848 11.195 QT
6.066 11.375 5.238 11.75 QT
5.238 4.422 L
cp
f
GR
GS
[1 0 0 1 517.5 295] CT
0.149 GC
N
-4.016 17.344 M
-0.797 17.344 L
-0.797 6.219 L
-4.297 6.922 L
-4.297 5.125 L
-0.813 4.422 L
1.156 4.422 L
1.156 17.344 L
4.375 17.344 L
4.375 19 L
-4.016 19 L
-4.016 17.344 L
cp
f
GR
GS
[1 0 0 1 711.25 295] CT
0.149 GC
N
-13.516 17.344 M
-10.297 17.344 L
-10.297 6.219 L
-13.797 6.922 L
-13.797 5.125 L
-10.313 4.422 L
-8.344 4.422 L
-8.344 17.344 L
-5.125 17.344 L
-5.125 19 L
-13.516 19 L
-13.516 17.344 L
cp
-1.135 16.516 M
0.928 16.516 L
0.928 19 L
-1.135 19 L
-1.135 16.516 L
cp
5.238 4.422 M
12.988 4.422 L
12.988 6.078 L
7.051 6.078 L
7.051 9.656 L
7.473 9.5 7.902 9.43 QT
8.332 9.359 8.77 9.359 QT
11.207 9.359 12.637 10.695 QT
14.066 12.031 14.066 14.328 QT
14.066 16.672 12.598 17.977 QT
11.129 19.281 8.457 19.281 QT
7.551 19.281 6.598 19.125 QT
5.645 18.969 4.629 18.656 QT
4.629 16.672 L
5.504 17.156 6.441 17.391 QT
7.379 17.625 8.426 17.625 QT
10.113 17.625 11.098 16.734 QT
12.082 15.844 12.082 14.328 QT
12.082 12.797 11.098 11.906 QT
10.113 11.016 8.426 11.016 QT
7.629 11.016 6.848 11.195 QT
6.066 11.375 5.238 11.75 QT
5.238 4.422 L
cp
f
GR
GS
[1 0 0 1 905 295] CT
0.149 GC
N
-2.656 17.344 M
4.219 17.344 L
4.219 19 L
-5.031 19 L
-5.031 17.344 L
-3.906 16.172 -1.969 14.219 QT
-0.031 12.266 0.469 11.688 QT
1.406 10.625 1.781 9.891 QT
2.156 9.156 2.156 8.438 QT
2.156 7.281 1.344 6.547 QT
0.531 5.813 -0.781 5.813 QT
-1.703 5.813 -2.734 6.133 QT
-3.766 6.453 -4.938 7.109 QT
-4.938 5.125 L
-3.75 4.641 -2.711 4.398 QT
-1.672 4.156 -0.813 4.156 QT
1.453 4.156 2.797 5.289 QT
4.141 6.422 4.141 8.313 QT
4.141 9.219 3.805 10.023 QT
3.469 10.828 2.578 11.922 QT
2.344 12.203 1.031 13.555 QT
-0.281 14.906 -2.656 17.344 QT
cp
f
GR
GS
[1 0 0 1 517.50037 320] CT
0.149 GC
N
-14.25 9.328 M
-14.25 11.188 L
-15.094 10.766 -16 10.547 QT
-16.906 10.328 -17.859 10.328 QT
-19.344 10.328 -20.078 10.781 QT
-20.813 11.234 -20.813 12.141 QT
-20.813 12.828 -20.281 13.219 QT
-19.75 13.609 -18.172 13.969 QT
-17.484 14.109 L
-15.391 14.563 -14.5 15.383 QT
-13.609 16.203 -13.609 17.688 QT
-13.609 19.359 -14.938 20.336 QT
-16.266 21.313 -18.578 21.313 QT
-19.547 21.313 -20.594 21.125 QT
-21.641 20.938 -22.813 20.563 QT
-22.813 18.516 L
-21.719 19.094 -20.648 19.375 QT
-19.578 19.656 -18.547 19.656 QT
-17.141 19.656 -16.391 19.18 QT
-15.641 18.703 -15.641 17.828 QT
-15.641 17.031 -16.188 16.602 QT
-16.734 16.172 -18.563 15.766 QT
-19.25 15.609 L
-21.094 15.219 -21.906 14.422 QT
-22.719 13.625 -22.719 12.219 QT
-22.719 10.531 -21.516 9.602 QT
-20.313 8.672 -18.109 8.672 QT
-17 8.672 -16.039 8.836 QT
-15.078 9 -14.25 9.328 QT
cp
-8.507 5.547 M
-8.507 8.969 L
-4.444 8.969 L
-4.444 10.5 L
-8.507 10.5 L
-8.507 17.031 L
-8.507 18.5 -8.108 18.922 QT
-7.71 19.344 -6.476 19.344 QT
-4.444 19.344 L
-4.444 21 L
-6.476 21 L
-8.757 21 -9.624 20.148 QT
-10.491 19.297 -10.491 17.031 QT
-10.491 10.5 L
-11.944 10.5 L
-11.944 8.969 L
-10.491 8.969 L
-10.491 5.547 L
-8.507 5.547 L
cp
8.447 14.484 M
8.447 15.453 L
-0.631 15.453 L
-0.506 17.5 0.596 18.57 QT
1.697 19.641 3.666 19.641 QT
4.807 19.641 5.869 19.359 QT
6.932 19.078 7.994 18.516 QT
7.994 20.391 L
6.932 20.844 5.814 21.078 QT
4.697 21.313 3.541 21.313 QT
0.666 21.313 -1.014 19.633 QT
-2.693 17.953 -2.693 15.109 QT
-2.693 12.141 -1.1 10.406 QT
0.494 8.672 3.197 8.672 QT
5.635 8.672 7.041 10.234 QT
8.447 11.797 8.447 14.484 QT
cp
6.479 13.906 M
6.447 12.281 5.564 11.32 QT
4.682 10.359 3.229 10.359 QT
1.572 10.359 0.572 11.289 QT
-0.428 12.219 -0.568 13.922 QT
6.479 13.906 L
cp
13.607 19.188 M
13.607 25.578 L
11.623 25.578 L
11.623 8.969 L
13.607 8.969 L
13.607 10.797 L
14.232 9.719 15.186 9.195 QT
16.139 8.672 17.451 8.672 QT
19.639 8.672 21.014 10.414 QT
22.389 12.156 22.389 15 QT
22.389 17.828 21.014 19.57 QT
19.639 21.313 17.451 21.313 QT
16.139 21.313 15.186 20.789 QT
14.232 20.266 13.607 19.188 QT
cp
20.326 15 M
20.326 12.813 19.436 11.57 QT
18.545 10.328 16.967 10.328 QT
15.404 10.328 14.506 11.57 QT
13.607 12.813 13.607 15 QT
13.607 17.172 14.506 18.414 QT
15.404 19.656 16.967 19.656 QT
18.545 19.656 19.436 18.414 QT
20.326 17.172 20.326 15 QT
cp
f
GR
GS
[1 0 0 1 852 345] CT
0.149 GC
N
2.938 -0.578 M
2.938 -0.734 3.031 -0.859 QT
7.203 -5 L
3.031 -9.156 L
2.938 -9.266 2.938 -9.422 QT
2.938 -9.578 3.055 -9.703 QT
3.172 -9.828 3.344 -9.828 QT
3.484 -9.828 3.641 -9.703 QT
7.781 -5.563 L
11.906 -9.703 L
12.078 -9.828 12.203 -9.828 QT
12.359 -9.828 12.477 -9.711 QT
12.594 -9.594 12.594 -9.422 QT
12.594 -9.266 12.5 -9.156 QT
8.344 -5 L
12.5 -0.859 L
12.594 -0.734 12.594 -0.578 QT
12.594 -0.406 12.477 -0.289 QT
12.359 -0.172 12.203 -0.172 QT
12.047 -0.172 11.906 -0.328 QT
7.781 -4.438 L
3.641 -0.328 L
3.5 -0.172 3.344 -0.172 QT
3.172 -0.172 3.055 -0.305 QT
2.938 -0.438 2.938 -0.578 QT
cp
f
GR
GS
[1 0 0 1 868 345] CT
0.149 GC
N
2.484 -1.656 M
5.703 -1.656 L
5.703 -12.781 L
2.203 -12.078 L
2.203 -13.875 L
5.688 -14.578 L
7.656 -14.578 L
7.656 -1.656 L
10.875 -1.656 L
10.875 0 L
2.484 0 L
2.484 -1.656 L
cp
19.084 -13.281 M
17.553 -13.281 16.787 -11.781 QT
16.021 -10.281 16.021 -7.281 QT
16.021 -4.281 16.787 -2.781 QT
17.553 -1.281 19.084 -1.281 QT
20.615 -1.281 21.381 -2.781 QT
22.146 -4.281 22.146 -7.281 QT
22.146 -10.281 21.381 -11.781 QT
20.615 -13.281 19.084 -13.281 QT
cp
19.084 -14.844 M
21.537 -14.844 22.826 -12.906 QT
24.115 -10.969 24.115 -7.281 QT
24.115 -3.594 22.826 -1.656 QT
21.537 0.281 19.084 0.281 QT
16.631 0.281 15.334 -1.656 QT
14.037 -3.594 14.037 -7.281 QT
14.037 -10.969 15.334 -12.906 QT
16.631 -14.844 19.084 -14.844 QT
cp
f
GR
GS
[1 0 0 1 894 335] CT
0.149 GC
N
5.281 -6.469 M
4.219 -6.469 3.602 -5.742 QT
2.984 -5.016 2.984 -3.75 QT
2.984 -2.484 3.602 -1.758 QT
4.219 -1.031 5.281 -1.031 QT
6.344 -1.031 6.969 -1.758 QT
7.594 -2.484 7.594 -3.75 QT
7.594 -5.016 6.969 -5.742 QT
6.344 -6.469 5.281 -6.469 QT
cp
8.422 -11.406 M
8.422 -9.969 L
7.828 -10.25 7.219 -10.398 QT
6.609 -10.547 6.016 -10.547 QT
4.453 -10.547 3.633 -9.492 QT
2.813 -8.438 2.688 -6.313 QT
3.156 -6.984 3.852 -7.352 QT
4.547 -7.719 5.375 -7.719 QT
7.141 -7.719 8.156 -6.648 QT
9.172 -5.578 9.172 -3.75 QT
9.172 -1.953 8.109 -0.859 QT
7.047 0.234 5.281 0.234 QT
3.266 0.234 2.195 -1.32 QT
1.125 -2.875 1.125 -5.828 QT
1.125 -8.594 2.438 -10.234 QT
3.75 -11.875 5.953 -11.875 QT
6.547 -11.875 7.156 -11.758 QT
7.766 -11.641 8.422 -11.406 QT
cp
f
GR
GS
0.149 GC
2 setlinecap
1 LJ
0.5 LW
N
130 289 M
130 26 L
S
GR
GS
0.149 GC
2 setlinecap
1 LJ
0.5 LW
N
130 289 M
137.75 289 L
S
GR
GS
0.149 GC
2 setlinecap
1 LJ
0.5 LW
N
130 238.905 M
137.75 238.905 L
S
GR
GS
0.149 GC
2 setlinecap
1 LJ
0.5 LW
N
130 188.81 M
137.75 188.81 L
S
GR
GS
0.149 GC
2 setlinecap
1 LJ
0.5 LW
N
130 138.714 M
137.75 138.714 L
S
GR
GS
0.149 GC
2 setlinecap
1 LJ
0.5 LW
N
130 88.619 M
137.75 88.619 L
S
GR
GS
0.149 GC
2 setlinecap
1 LJ
0.5 LW
N
130 38.524 M
137.75 38.524 L
S
GR
GS
[1 0 0 1 124 289] CT
0.149 GC
N
-6.641 -6.281 M
-8.172 -6.281 -8.938 -4.781 QT
-9.703 -3.281 -9.703 -0.281 QT
-9.703 2.719 -8.938 4.219 QT
-8.172 5.719 -6.641 5.719 QT
-5.109 5.719 -4.344 4.219 QT
-3.578 2.719 -3.578 -0.281 QT
-3.578 -3.281 -4.344 -4.781 QT
-5.109 -6.281 -6.641 -6.281 QT
cp
-6.641 -7.844 M
-4.188 -7.844 -2.898 -5.906 QT
-1.609 -3.969 -1.609 -0.281 QT
-1.609 3.406 -2.898 5.344 QT
-4.188 7.281 -6.641 7.281 QT
-9.094 7.281 -10.391 5.344 QT
-11.688 3.406 -11.688 -0.281 QT
-11.688 -3.969 -10.391 -5.906 QT
-9.094 -7.844 -6.641 -7.844 QT
cp
f
GR
GS
[1 0 0 1 124 238.90475] CT
0.149 GC
N
-22.156 5.344 M
-15.281 5.344 L
-15.281 7 L
-24.531 7 L
-24.531 5.344 L
-23.406 4.172 -21.469 2.219 QT
-19.531 0.266 -19.031 -0.313 QT
-18.094 -1.375 -17.719 -2.109 QT
-17.344 -2.844 -17.344 -3.563 QT
-17.344 -4.719 -18.156 -5.453 QT
-18.969 -6.188 -20.281 -6.188 QT
-21.203 -6.188 -22.234 -5.867 QT
-23.266 -5.547 -24.438 -4.891 QT
-24.438 -6.875 L
-23.25 -7.359 -22.211 -7.602 QT
-21.172 -7.844 -20.313 -7.844 QT
-18.047 -7.844 -16.703 -6.711 QT
-15.359 -5.578 -15.359 -3.688 QT
-15.359 -2.781 -15.695 -1.977 QT
-16.031 -1.172 -16.922 -0.078 QT
-17.156 0.203 -18.469 1.555 QT
-19.781 2.906 -22.156 5.344 QT
cp
-6.916 -6.281 M
-8.447 -6.281 -9.213 -4.781 QT
-9.979 -3.281 -9.979 -0.281 QT
-9.979 2.719 -9.213 4.219 QT
-8.447 5.719 -6.916 5.719 QT
-5.385 5.719 -4.619 4.219 QT
-3.854 2.719 -3.854 -0.281 QT
-3.854 -3.281 -4.619 -4.781 QT
-5.385 -6.281 -6.916 -6.281 QT
cp
-6.916 -7.844 M
-4.463 -7.844 -3.174 -5.906 QT
-1.885 -3.969 -1.885 -0.281 QT
-1.885 3.406 -3.174 5.344 QT
-4.463 7.281 -6.916 7.281 QT
-9.369 7.281 -10.666 5.344 QT
-11.963 3.406 -11.963 -0.281 QT
-11.963 -3.969 -10.666 -5.906 QT
-9.369 -7.844 -6.916 -7.844 QT
cp
f
GR
GS
[1 0 0 1 124 188.80952] CT
0.149 GC
N
-18.438 -5.859 M
-23.422 1.922 L
-18.438 1.922 L
-18.438 -5.859 L
cp
-18.953 -7.578 M
-16.484 -7.578 L
-16.484 1.922 L
-14.391 1.922 L
-14.391 3.563 L
-16.484 3.563 L
-16.484 7 L
-18.438 7 L
-18.438 3.563 L
-25.016 3.563 L
-25.016 1.656 L
-18.953 -7.578 L
cp
-6.916 -6.281 M
-8.447 -6.281 -9.213 -4.781 QT
-9.979 -3.281 -9.979 -0.281 QT
-9.979 2.719 -9.213 4.219 QT
-8.447 5.719 -6.916 5.719 QT
-5.385 5.719 -4.619 4.219 QT
-3.854 2.719 -3.854 -0.281 QT
-3.854 -3.281 -4.619 -4.781 QT
-5.385 -6.281 -6.916 -6.281 QT
cp
-6.916 -7.844 M
-4.463 -7.844 -3.174 -5.906 QT
-1.885 -3.969 -1.885 -0.281 QT
-1.885 3.406 -3.174 5.344 QT
-4.463 7.281 -6.916 7.281 QT
-9.369 7.281 -10.666 5.344 QT
-11.963 3.406 -11.963 -0.281 QT
-11.963 -3.969 -10.666 -5.906 QT
-9.369 -7.844 -6.916 -7.844 QT
cp
f
GR
GS
[1 0 0 1 124 138.71428] CT
0.149 GC
N
-19.391 -1.078 M
-20.719 -1.078 -21.5 -0.172 QT
-22.281 0.734 -22.281 2.328 QT
-22.281 3.891 -21.5 4.805 QT
-20.719 5.719 -19.391 5.719 QT
-18.063 5.719 -17.289 4.805 QT
-16.516 3.891 -16.516 2.328 QT
-16.516 0.734 -17.289 -0.172 QT
-18.063 -1.078 -19.391 -1.078 QT
cp
-15.484 -7.266 M
-15.484 -5.469 L
-16.219 -5.813 -16.977 -6 QT
-17.734 -6.188 -18.484 -6.188 QT
-20.438 -6.188 -21.469 -4.867 QT
-22.5 -3.547 -22.641 -0.875 QT
-22.063 -1.734 -21.195 -2.188 QT
-20.328 -2.641 -19.281 -2.641 QT
-17.078 -2.641 -15.805 -1.305 QT
-14.531 0.031 -14.531 2.328 QT
-14.531 4.563 -15.859 5.922 QT
-17.188 7.281 -19.391 7.281 QT
-21.922 7.281 -23.266 5.344 QT
-24.609 3.406 -24.609 -0.281 QT
-24.609 -3.734 -22.969 -5.789 QT
-21.328 -7.844 -18.563 -7.844 QT
-17.813 -7.844 -17.055 -7.695 QT
-16.297 -7.547 -15.484 -7.266 QT
cp
-6.916 -6.281 M
-8.447 -6.281 -9.213 -4.781 QT
-9.979 -3.281 -9.979 -0.281 QT
-9.979 2.719 -9.213 4.219 QT
-8.447 5.719 -6.916 5.719 QT
-5.385 5.719 -4.619 4.219 QT
-3.854 2.719 -3.854 -0.281 QT
-3.854 -3.281 -4.619 -4.781 QT
-5.385 -6.281 -6.916 -6.281 QT
cp
-6.916 -7.844 M
-4.463 -7.844 -3.174 -5.906 QT
-1.885 -3.969 -1.885 -0.281 QT
-1.885 3.406 -3.174 5.344 QT
-4.463 7.281 -6.916 7.281 QT
-9.369 7.281 -10.666 5.344 QT
-11.963 3.406 -11.963 -0.281 QT
-11.963 -3.969 -10.666 -5.906 QT
-9.369 -7.844 -6.916 -7.844 QT
cp
f
GR
GS
[1 0 0 1 124 88.61905] CT
0.149 GC
N
-19.641 0.078 M
-21.047 0.078 -21.852 0.828 QT
-22.656 1.578 -22.656 2.891 QT
-22.656 4.219 -21.852 4.969 QT
-21.047 5.719 -19.641 5.719 QT
-18.234 5.719 -17.422 4.961 QT
-16.609 4.203 -16.609 2.891 QT
-16.609 1.578 -17.414 0.828 QT
-18.219 0.078 -19.641 0.078 QT
cp
-21.609 -0.766 M
-22.891 -1.078 -23.594 -1.945 QT
-24.297 -2.813 -24.297 -4.063 QT
-24.297 -5.813 -23.055 -6.828 QT
-21.813 -7.844 -19.641 -7.844 QT
-17.469 -7.844 -16.227 -6.828 QT
-14.984 -5.813 -14.984 -4.063 QT
-14.984 -2.813 -15.695 -1.945 QT
-16.406 -1.078 -17.656 -0.766 QT
-16.234 -0.438 -15.438 0.531 QT
-14.641 1.5 -14.641 2.891 QT
-14.641 5.016 -15.938 6.148 QT
-17.234 7.281 -19.641 7.281 QT
-22.047 7.281 -23.344 6.148 QT
-24.641 5.016 -24.641 2.891 QT
-24.641 1.5 -23.844 0.531 QT
-23.047 -0.438 -21.609 -0.766 QT
cp
-22.344 -3.875 M
-22.344 -2.75 -21.633 -2.117 QT
-20.922 -1.484 -19.641 -1.484 QT
-18.375 -1.484 -17.656 -2.117 QT
-16.938 -2.75 -16.938 -3.875 QT
-16.938 -5.016 -17.656 -5.648 QT
-18.375 -6.281 -19.641 -6.281 QT
-20.922 -6.281 -21.633 -5.648 QT
-22.344 -5.016 -22.344 -3.875 QT
cp
-6.916 -6.281 M
-8.447 -6.281 -9.213 -4.781 QT
-9.979 -3.281 -9.979 -0.281 QT
-9.979 2.719 -9.213 4.219 QT
-8.447 5.719 -6.916 5.719 QT
-5.385 5.719 -4.619 4.219 QT
-3.854 2.719 -3.854 -0.281 QT
-3.854 -3.281 -4.619 -4.781 QT
-5.385 -6.281 -6.916 -6.281 QT
cp
-6.916 -7.844 M
-4.463 -7.844 -3.174 -5.906 QT
-1.885 -3.969 -1.885 -0.281 QT
-1.885 3.406 -3.174 5.344 QT
-4.463 7.281 -6.916 7.281 QT
-9.369 7.281 -10.666 5.344 QT
-11.963 3.406 -11.963 -0.281 QT
-11.963 -3.969 -10.666 -5.906 QT
-9.369 -7.844 -6.916 -7.844 QT
cp
f
GR
GS
[1 0 0 1 124 38.52381] CT
0.149 GC
N
-36.516 5.344 M
-33.297 5.344 L
-33.297 -5.781 L
-36.797 -5.078 L
-36.797 -6.875 L
-33.313 -7.578 L
-31.344 -7.578 L
-31.344 5.344 L
-28.125 5.344 L
-28.125 7 L
-36.516 7 L
-36.516 5.344 L
cp
-19.916 -6.281 M
-21.447 -6.281 -22.213 -4.781 QT
-22.979 -3.281 -22.979 -0.281 QT
-22.979 2.719 -22.213 4.219 QT
-21.447 5.719 -19.916 5.719 QT
-18.385 5.719 -17.619 4.219 QT
-16.854 2.719 -16.854 -0.281 QT
-16.854 -3.281 -17.619 -4.781 QT
-18.385 -6.281 -19.916 -6.281 QT
cp
-19.916 -7.844 M
-17.463 -7.844 -16.174 -5.906 QT
-14.885 -3.969 -14.885 -0.281 QT
-14.885 3.406 -16.174 5.344 QT
-17.463 7.281 -19.916 7.281 QT
-22.369 7.281 -23.666 5.344 QT
-24.963 3.406 -24.963 -0.281 QT
-24.963 -3.969 -23.666 -5.906 QT
-22.369 -7.844 -19.916 -7.844 QT
cp
-7.191 -6.281 M
-8.723 -6.281 -9.488 -4.781 QT
-10.254 -3.281 -10.254 -0.281 QT
-10.254 2.719 -9.488 4.219 QT
-8.723 5.719 -7.191 5.719 QT
-5.66 5.719 -4.895 4.219 QT
-4.129 2.719 -4.129 -0.281 QT
-4.129 -3.281 -4.895 -4.781 QT
-5.66 -6.281 -7.191 -6.281 QT
cp
-7.191 -7.844 M
-4.738 -7.844 -3.449 -5.906 QT
-2.16 -3.969 -2.16 -0.281 QT
-2.16 3.406 -3.449 5.344 QT
-4.738 7.281 -7.191 7.281 QT
-9.645 7.281 -10.941 5.344 QT
-12.238 3.406 -12.238 -0.281 QT
-12.238 -3.969 -10.941 -5.906 QT
-9.645 -7.844 -7.191 -7.844 QT
cp
f
GR
GS
[0 -1 1 0 82 157.49988] CT
0.149 GC
N
-113.063 -22.031 M
-99.5 -22.031 L
-99.5 -20.219 L
-105.188 -20.219 L
-105.188 -6 L
-107.375 -6 L
-107.375 -20.219 L
-113.063 -20.219 L
-113.063 -22.031 L
cp
-92.015 -12.047 M
-94.421 -12.047 -95.343 -11.5 QT
-96.265 -10.953 -96.265 -9.625 QT
-96.265 -8.578 -95.569 -7.961 QT
-94.874 -7.344 -93.687 -7.344 QT
-92.046 -7.344 -91.054 -8.508 QT
-90.062 -9.672 -90.062 -11.609 QT
-90.062 -12.047 L
-92.015 -12.047 L
cp
-88.077 -12.859 M
-88.077 -6 L
-90.062 -6 L
-90.062 -7.828 L
-90.733 -6.734 -91.741 -6.211 QT
-92.749 -5.688 -94.218 -5.688 QT
-96.062 -5.688 -97.147 -6.727 QT
-98.233 -7.766 -98.233 -9.5 QT
-98.233 -11.531 -96.874 -12.563 QT
-95.515 -13.594 -92.827 -13.594 QT
-90.062 -13.594 L
-90.062 -13.781 L
-90.062 -15.156 -90.952 -15.898 QT
-91.843 -16.641 -93.468 -16.641 QT
-94.499 -16.641 -95.476 -16.398 QT
-96.452 -16.156 -97.358 -15.656 QT
-97.358 -17.484 L
-96.28 -17.906 -95.257 -18.117 QT
-94.233 -18.328 -93.265 -18.328 QT
-90.655 -18.328 -89.366 -16.969 QT
-88.077 -15.609 -88.077 -12.859 QT
cp
-77.033 -16.188 M
-77.361 -16.375 -77.76 -16.469 QT
-78.158 -16.563 -78.627 -16.563 QT
-80.299 -16.563 -81.197 -15.469 QT
-82.096 -14.375 -82.096 -12.344 QT
-82.096 -6 L
-84.08 -6 L
-84.08 -18.031 L
-82.096 -18.031 L
-82.096 -16.156 L
-81.471 -17.266 -80.471 -17.797 QT
-79.471 -18.328 -78.049 -18.328 QT
-77.846 -18.328 -77.596 -18.297 QT
-77.346 -18.266 -77.049 -18.219 QT
-77.033 -16.188 L
cp
-67.051 -12.156 M
-67.051 -14.297 -67.934 -15.484 QT
-68.816 -16.672 -70.41 -16.672 QT
-72.004 -16.672 -72.895 -15.484 QT
-73.785 -14.297 -73.785 -12.156 QT
-73.785 -10.016 -72.895 -8.836 QT
-72.004 -7.656 -70.41 -7.656 QT
-68.816 -7.656 -67.934 -8.836 QT
-67.051 -10.016 -67.051 -12.156 QT
cp
-65.066 -7.5 M
-65.066 -4.422 -66.434 -2.922 QT
-67.801 -1.422 -70.613 -1.422 QT
-71.66 -1.422 -72.582 -1.578 QT
-73.504 -1.734 -74.363 -2.063 QT
-74.363 -3.984 L
-73.504 -3.5 -72.652 -3.281 QT
-71.801 -3.063 -70.926 -3.063 QT
-68.973 -3.063 -68.012 -4.078 QT
-67.051 -5.094 -67.051 -7.141 QT
-67.051 -8.109 L
-67.66 -7.047 -68.613 -6.523 QT
-69.566 -6 -70.895 -6 QT
-73.113 -6 -74.465 -7.688 QT
-75.816 -9.375 -75.816 -12.156 QT
-75.816 -14.953 -74.465 -16.641 QT
-73.113 -18.328 -70.895 -18.328 QT
-69.566 -18.328 -68.613 -17.797 QT
-67.66 -17.266 -67.051 -16.203 QT
-67.051 -18.031 L
-65.066 -18.031 L
-65.066 -7.5 L
cp
-50.711 -12.516 M
-50.711 -11.547 L
-59.789 -11.547 L
-59.664 -9.5 -58.563 -8.43 QT
-57.461 -7.359 -55.492 -7.359 QT
-54.352 -7.359 -53.289 -7.641 QT
-52.227 -7.922 -51.164 -8.484 QT
-51.164 -6.609 L
-52.227 -6.156 -53.344 -5.922 QT
-54.461 -5.688 -55.617 -5.688 QT
-58.492 -5.688 -60.172 -7.367 QT
-61.852 -9.047 -61.852 -11.891 QT
-61.852 -14.859 -60.258 -16.594 QT
-58.664 -18.328 -55.961 -18.328 QT
-53.523 -18.328 -52.117 -16.766 QT
-50.711 -15.203 -50.711 -12.516 QT
cp
-52.68 -13.094 M
-52.711 -14.719 -53.594 -15.68 QT
-54.477 -16.641 -55.93 -16.641 QT
-57.586 -16.641 -58.586 -15.711 QT
-59.586 -14.781 -59.727 -13.078 QT
-52.68 -13.094 L
cp
-45.504 -21.453 M
-45.504 -18.031 L
-41.441 -18.031 L
-41.441 -16.5 L
-45.504 -16.5 L
-45.504 -9.969 L
-45.504 -8.5 -45.105 -8.078 QT
-44.707 -7.656 -43.473 -7.656 QT
-41.441 -7.656 L
-41.441 -6 L
-43.473 -6 L
-45.754 -6 -46.621 -6.852 QT
-47.488 -7.703 -47.488 -9.969 QT
-47.488 -16.5 L
-48.941 -16.5 L
-48.941 -18.031 L
-47.488 -18.031 L
-47.488 -21.453 L
-45.504 -21.453 L
cp
-31.159 -17.672 M
-31.159 -15.813 L
-32.003 -16.234 -32.909 -16.453 QT
-33.815 -16.672 -34.769 -16.672 QT
-36.253 -16.672 -36.987 -16.219 QT
-37.722 -15.766 -37.722 -14.859 QT
-37.722 -14.172 -37.19 -13.781 QT
-36.659 -13.391 -35.081 -13.031 QT
-34.394 -12.891 L
-32.3 -12.438 -31.409 -11.617 QT
-30.519 -10.797 -30.519 -9.313 QT
-30.519 -7.641 -31.847 -6.664 QT
-33.175 -5.688 -35.487 -5.688 QT
-36.456 -5.688 -37.503 -5.875 QT
-38.55 -6.063 -39.722 -6.438 QT
-39.722 -8.484 L
-38.628 -7.906 -37.558 -7.625 QT
-36.487 -7.344 -35.456 -7.344 QT
-34.05 -7.344 -33.3 -7.82 QT
-32.55 -8.297 -32.55 -9.172 QT
-32.55 -9.969 -33.097 -10.398 QT
-33.644 -10.828 -35.472 -11.234 QT
-36.159 -11.391 L
-38.003 -11.781 -38.815 -12.578 QT
-39.628 -13.375 -39.628 -14.781 QT
-39.628 -16.469 -38.425 -17.398 QT
-37.222 -18.328 -35.019 -18.328 QT
-33.909 -18.328 -32.948 -18.164 QT
-31.987 -18 -31.159 -17.672 QT
cp
-13.407 -16.188 M
-13.735 -16.375 -14.134 -16.469 QT
-14.532 -16.563 -15.001 -16.563 QT
-16.673 -16.563 -17.571 -15.469 QT
-18.47 -14.375 -18.47 -12.344 QT
-18.47 -6 L
-20.454 -6 L
-20.454 -18.031 L
-18.47 -18.031 L
-18.47 -16.156 L
-17.845 -17.266 -16.845 -17.797 QT
-15.845 -18.328 -14.423 -18.328 QT
-14.22 -18.328 -13.97 -18.297 QT
-13.72 -18.266 -13.423 -18.219 QT
-13.407 -16.188 L
cp
-1.05 -12.516 M
-1.05 -11.547 L
-10.128 -11.547 L
-10.003 -9.5 -8.901 -8.43 QT
-7.8 -7.359 -5.831 -7.359 QT
-4.69 -7.359 -3.628 -7.641 QT
-2.565 -7.922 -1.503 -8.484 QT
-1.503 -6.609 L
-2.565 -6.156 -3.683 -5.922 QT
-4.8 -5.688 -5.956 -5.688 QT
-8.831 -5.688 -10.511 -7.367 QT
-12.19 -9.047 -12.19 -11.891 QT
-12.19 -14.859 -10.597 -16.594 QT
-9.003 -18.328 -6.3 -18.328 QT
-3.862 -18.328 -2.456 -16.766 QT
-1.05 -15.203 -1.05 -12.516 QT
cp
-3.019 -13.094 M
-3.05 -14.719 -3.933 -15.68 QT
-4.815 -16.641 -6.269 -16.641 QT
-7.925 -16.641 -8.925 -15.711 QT
-9.925 -14.781 -10.065 -13.078 QT
-3.019 -13.094 L
cp
7.673 -12.047 M
5.267 -12.047 4.345 -11.5 QT
3.423 -10.953 3.423 -9.625 QT
3.423 -8.578 4.118 -7.961 QT
4.813 -7.344 6.001 -7.344 QT
7.642 -7.344 8.634 -8.508 QT
9.626 -9.672 9.626 -11.609 QT
9.626 -12.047 L
7.673 -12.047 L
cp
11.61 -12.859 M
11.61 -6 L
9.626 -6 L
9.626 -7.828 L
8.954 -6.734 7.946 -6.211 QT
6.938 -5.688 5.47 -5.688 QT
3.626 -5.688 2.54 -6.727 QT
1.454 -7.766 1.454 -9.5 QT
1.454 -11.531 2.813 -12.563 QT
4.173 -13.594 6.86 -13.594 QT
9.626 -13.594 L
9.626 -13.781 L
9.626 -15.156 8.735 -15.898 QT
7.845 -16.641 6.22 -16.641 QT
5.188 -16.641 4.212 -16.398 QT
3.235 -16.156 2.329 -15.656 QT
2.329 -17.484 L
3.407 -17.906 4.431 -18.117 QT
5.454 -18.328 6.423 -18.328 QT
9.032 -18.328 10.321 -16.969 QT
11.61 -15.609 11.61 -12.859 QT
cp
24.342 -17.563 M
24.342 -15.719 L
23.498 -16.188 22.654 -16.414 QT
21.811 -16.641 20.951 -16.641 QT
19.029 -16.641 17.967 -15.422 QT
16.904 -14.203 16.904 -12 QT
16.904 -9.797 17.967 -8.578 QT
19.029 -7.359 20.951 -7.359 QT
21.811 -7.359 22.654 -7.594 QT
23.498 -7.828 24.342 -8.281 QT
24.342 -6.469 L
23.514 -6.078 22.623 -5.883 QT
21.732 -5.688 20.748 -5.688 QT
18.029 -5.688 16.428 -7.398 QT
14.826 -9.109 14.826 -12 QT
14.826 -14.953 16.443 -16.641 QT
18.061 -18.328 20.873 -18.328 QT
21.779 -18.328 22.654 -18.141 QT
23.529 -17.953 24.342 -17.563 QT
cp
37.781 -13.266 M
37.781 -6 L
35.797 -6 L
35.797 -13.203 L
35.797 -14.906 35.133 -15.758 QT
34.469 -16.609 33.141 -16.609 QT
31.531 -16.609 30.609 -15.586 QT
29.688 -14.563 29.688 -12.797 QT
29.688 -6 L
27.703 -6 L
27.703 -22.719 L
29.688 -22.719 L
29.688 -16.156 L
30.391 -17.25 31.359 -17.789 QT
32.328 -18.328 33.578 -18.328 QT
35.656 -18.328 36.719 -17.039 QT
37.781 -15.75 37.781 -13.266 QT
cp
52.006 -12.516 M
52.006 -11.547 L
42.928 -11.547 L
43.053 -9.5 44.154 -8.43 QT
45.256 -7.359 47.225 -7.359 QT
48.365 -7.359 49.428 -7.641 QT
50.49 -7.922 51.553 -8.484 QT
51.553 -6.609 L
50.49 -6.156 49.373 -5.922 QT
48.256 -5.688 47.1 -5.688 QT
44.225 -5.688 42.545 -7.367 QT
40.865 -9.047 40.865 -11.891 QT
40.865 -14.859 42.459 -16.594 QT
44.053 -18.328 46.756 -18.328 QT
49.193 -18.328 50.6 -16.766 QT
52.006 -15.203 52.006 -12.516 QT
cp
50.037 -13.094 M
50.006 -14.719 49.123 -15.68 QT
48.24 -16.641 46.787 -16.641 QT
45.131 -16.641 44.131 -15.711 QT
43.131 -14.781 42.99 -13.078 QT
50.037 -13.094 L
cp
63.166 -16.203 M
63.166 -22.719 L
65.15 -22.719 L
65.15 -6 L
63.166 -6 L
63.166 -7.813 L
62.557 -6.734 61.604 -6.211 QT
60.65 -5.688 59.322 -5.688 QT
57.135 -5.688 55.768 -7.43 QT
54.4 -9.172 54.4 -12 QT
54.4 -14.844 55.768 -16.586 QT
57.135 -18.328 59.322 -18.328 QT
60.65 -18.328 61.604 -17.805 QT
62.557 -17.281 63.166 -16.203 QT
cp
56.432 -12 M
56.432 -9.828 57.33 -8.586 QT
58.229 -7.344 59.807 -7.344 QT
61.369 -7.344 62.268 -8.586 QT
63.166 -9.828 63.166 -12 QT
63.166 -14.188 62.268 -15.43 QT
61.369 -16.672 59.807 -16.672 QT
58.229 -16.672 57.33 -15.43 QT
56.432 -14.188 56.432 -12 QT
cp
76.03 -22.719 M
80.593 -22.719 L
80.593 -21.172 L
78.015 -21.172 L
78.015 -4.641 L
80.593 -4.641 L
80.593 -3.094 L
76.03 -3.094 L
76.03 -22.719 L
cp
98.723 -13.063 M
97.785 -13.063 97.254 -12.266 QT
96.723 -11.469 96.723 -10.047 QT
96.723 -8.656 97.254 -7.852 QT
97.785 -7.047 98.723 -7.047 QT
99.629 -7.047 100.16 -7.852 QT
100.691 -8.656 100.691 -10.047 QT
100.691 -11.453 100.16 -12.258 QT
99.629 -13.063 98.723 -13.063 QT
cp
98.723 -14.422 M
100.41 -14.422 101.41 -13.242 QT
102.41 -12.063 102.41 -10.047 QT
102.41 -8.047 101.41 -6.867 QT
100.41 -5.688 98.723 -5.688 QT
97.004 -5.688 96.004 -6.867 QT
95.004 -8.047 95.004 -10.047 QT
95.004 -12.063 96.004 -13.242 QT
97.004 -14.422 98.723 -14.422 QT
cp
87.629 -20.969 M
86.707 -20.969 86.176 -20.164 QT
85.645 -19.359 85.645 -17.969 QT
85.645 -16.547 86.168 -15.75 QT
86.691 -14.953 87.629 -14.953 QT
88.566 -14.953 89.098 -15.75 QT
89.629 -16.547 89.629 -17.969 QT
89.629 -19.359 89.09 -20.164 QT
88.551 -20.969 87.629 -20.969 QT
cp
97.332 -22.328 M
99.051 -22.328 L
89.02 -5.688 L
87.301 -5.688 L
97.332 -22.328 L
cp
87.629 -22.328 M
89.332 -22.328 90.34 -21.148 QT
91.348 -19.969 91.348 -17.969 QT
91.348 -15.938 90.348 -14.766 QT
89.348 -13.594 87.629 -13.594 QT
85.926 -13.594 84.934 -14.773 QT
83.941 -15.953 83.941 -17.969 QT
83.941 -19.969 84.941 -21.148 QT
85.941 -22.328 87.629 -22.328 QT
cp
110.314 -22.719 M
110.314 -3.094 L
105.768 -3.094 L
105.768 -4.641 L
108.33 -4.641 L
108.33 -21.172 L
105.768 -21.172 L
105.768 -22.719 L
110.314 -22.719 L
cp
f
GR
GS
0 0.447 0.741 RC
1 LJ
0.5 LW
N
169.525 209.902 M
169.913 200.597 L
170.3 226.381 L
170.688 242.036 L
171.075 271.109 L
171.462 201.333 L
171.85 201.333 L
172.238 255.603 L
172.625 219.423 L
173.012 255.603 L
173.4 255.603 L
173.788 242.036 L
174.175 253.218 L
174.563 255.603 L
174.95 219.423 L
175.337 215.331 L
175.725 219.423 L
176.113 242.036 L
176.5 255.603 L
176.887 169.726 L
177.275 219.423 L
177.663 242.036 L
178.05 255.603 L
178.438 209.902 L
178.825 272.302 L
179.212 255.603 L
179.6 242.036 L
179.988 219.423 L
180.375 255.603 L
180.762 253.218 L
181.15 272.302 L
181.538 253.218 L
181.925 230.064 L
182.313 242.036 L
182.7 244.798 L
183.087 253.218 L
183.475 219.423 L
183.863 230.064 L
184.25 272.302 L
184.637 271.109 L
185.025 230.064 L
185.413 289 L
185.8 230.064 L
186.188 230.064 L
186.575 219.423 L
186.962 230.064 L
187.35 163.762 L
187.738 271.109 L
188.125 242.036 L
188.512 271.109 L
188.9 289 L
189.288 230.064 L
189.675 271.109 L
190.063 271.109 L
190.45 209.902 L
190.837 242.036 L
191.225 255.603 L
191.613 219.423 L
192 255.603 L
192.387 230.064 L
192.775 257.69 L
193.163 289 L
193.55 271.109 L
193.938 257.69 L
194.325 209.902 L
194.712 242.036 L
195.1 289 L
195.488 219.423 L
195.875 255.603 L
196.262 289 L
196.65 255.603 L
197.038 230.064 L
197.425 201.333 L
197.813 242.036 L
198.2 242.036 L
198.587 255.603 L
198.975 233.339 L
199.363 201.333 L
199.75 255.603 L
200.137 209.902 L
200.525 230.064 L
200.913 242.036 L
201.3 242.036 L
201.688 255.603 L
202.075 205.508 L
202.462 257.69 L
202.85 215.331 L
203.238 244.798 L
203.625 242.036 L
204.012 271.109 L
204.4 289 L
204.788 257.69 L
205.175 271.109 L
205.563 242.036 L
205.95 230.064 L
206.337 255.603 L
206.725 255.603 L
207.113 205.508 L
207.5 257.69 L
207.887 255.603 L
208.275 242.036 L
208.663 219.423 L
209.05 271.109 L
209.438 255.603 L
209.825 271.109 L
210.212 242.036 L
210.6 230.064 L
210.988 230.064 L
211.375 193.581 L
211.762 289 L
212.15 255.603 L
212.538 255.603 L
212.925 255.603 L
213.313 289 L
213.7 272.302 L
214.087 238.905 L
214.475 242.036 L
214.863 219.423 L
215.25 271.109 L
215.637 226.381 L
216.025 242.036 L
216.413 255.603 L
216.8 219.423 L
217.188 242.036 L
217.575 188.81 L
217.962 238.905 L
218.35 255.603 L
218.738 255.603 L
219.125 255.603 L
219.512 230.064 L
219.9 205.508 L
220.288 257.69 L
220.675 181.653 L
221.063 289 L
221.45 257.69 L
221.837 255.603 L
222.225 255.603 L
222.613 242.036 L
223 230.064 L
223.387 196.719 L
223.775 242.036 L
224.163 242.036 L
224.55 255.603 L
224.938 219.423 L
225.325 226.381 L
225.712 242.036 L
226.1 205.508 L
226.488 230.064 L
226.875 230.064 L
227.262 209.902 L
227.65 215.331 L
228.038 230.064 L
228.425 230.064 L
228.813 253.218 L
229.2 193.581 L
229.587 226.381 L
229.975 226.381 L
230.363 205.508 L
230.75 230.064 L
231.137 215.331 L
231.525 242.036 L
231.913 188.81 L
232.3 209.902 L
232.688 200.597 L
233.075 186.532 L
233.462 181.653 L
233.85 188.81 L
234.238 242.036 L
234.625 230.064 L
235.012 219.423 L
235.4 253.218 L
235.788 244.798 L
236.175 215.331 L
236.563 271.109 L
236.95 238.905 L
237.337 201.333 L
237.725 196.719 L
238.113 205.508 L
238.5 226.381 L
238.887 255.603 L
239.275 205.508 L
239.663 209.902 L
240.05 163.762 L
240.438 242.036 L
240.825 255.603 L
241.212 242.036 L
241.6 230.064 L
241.988 238.905 L
242.375 233.339 L
242.762 169.726 L
243.15 242.036 L
243.538 242.036 L
243.925 176.286 L
244.313 196.719 L
244.7 230.064 L
245.087 242.036 L
245.475 215.331 L
245.863 176.286 L
246.25 242.036 L
246.637 201.333 L
247.025 242.036 L
247.413 205.508 L
247.8 230.064 L
248.188 215.331 L
248.575 242.036 L
248.962 181.653 L
249.35 226.381 L
249.738 271.109 L
250.125 226.381 L
250.512 209.902 L
250.9 242.036 L
251.288 158.752 L
251.675 238.905 L
252.063 180.097 L
252.45 215.331 L
252.837 209.902 L
253.225 158.317 L
253.613 219.423 L
254 201.333 L
254.387 205.508 L
254.775 169.726 L
255.163 196.719 L
255.55 209.902 L
255.938 255.603 L
256.325 193.581 L
256.712 176.286 L
257.1 175.147 L
257.487 158.317 L
257.875 205.508 L
258.263 230.064 L
258.65 215.331 L
259.038 163.762 L
259.425 230.064 L
259.813 242.036 L
260.2 136.925 L
260.587 163.762 L
260.975 209.902 L
261.362 230.064 L
261.75 153.325 L
262.138 175.147 L
262.525 196.719 L
262.913 201.333 L
263.3 219.423 L
263.688 201.333 L
264.075 219.423 L
264.462 196.719 L
264.85 183.536 L
265.237 255.603 L
265.625 181.653 L
266.013 205.508 L
266.4 158.317 L
266.788 158.317 L
267.175 193.581 L
267.563 158.317 L
267.95 176.286 L
268.337 188.81 L
268.725 176.286 L
269.112 169.726 L
269.5 138.714 L
269.888 147.426 L
270.275 181.653 L
270.663 169.207 L
271.05 114.756 L
271.438 169.726 L
271.825 108.657 L
272.212 118.676 L
272.6 114.756 L
272.987 95.083 L
273.375 67.992 L
273.763 114.756 L
274.15 68.885 L
274.538 134.861 L
274.925 112.739 L
275.313 103.462 L
275.7 106.836 L
276.087 96.968 L
276.475 81.709 L
276.862 90.346 L
277.25 90.092 L
277.638 87.003 L
278.025 96.968 L
278.413 152.377 L
278.8 99.245 L
279.188 132.452 L
279.575 70.843 L
279.962 115.593 L
280.35 122.016 L
280.737 52.063 L
281.125 88.619 L
281.513 157.798 L
281.9 142.889 L
282.288 91.655 L
282.675 152.377 L
283.063 132.452 L
283.45 108.657 L
283.837 140.991 L
284.225 163.762 L
284.612 148.733 L
285 183.536 L
285.388 118.676 L
285.775 124.895 L
286.163 128.695 L
286.55 113.667 L
286.938 92.197 L
287.325 105.96 L
287.712 114.756 L
288.1 125.227 L
288.487 127.98 L
288.875 96.968 L
289.263 129.606 L
289.65 127.98 L
290.038 152.377 L
290.425 163.762 L
290.813 201.333 L
291.2 119.034 L
291.587 205.508 L
291.975 138.714 L
292.362 191.593 L
292.75 181.653 L
293.138 122.016 L
293.525 163.762 L
293.913 136.536 L
294.3 134.861 L
294.688 119.034 L
295.075 169.726 L
295.462 191.593 L
295.85 104.826 L
296.237 147.426 L
296.625 205.508 L
297.013 138.714 L
297.4 169.726 L
297.788 191.593 L
298.175 176.286 L
298.563 122.016 L
298.95 142.889 L
299.337 152.377 L
299.725 163.762 L
300.112 145.871 L
300.5 183.536 L
300.888 134.861 L
301.275 122.016 L
301.663 158.752 L
302.05 144.495 L
302.438 183.536 L
302.825 215.331 L
303.212 99.245 L
303.6 136.536 L
303.987 205.508 L
304.375 152.377 L
304.763 209.902 L
305.15 133.943 L
305.538 169.726 L
305.925 238.905 L
306.313 158.317 L
306.7 157.798 L
307.087 177.677 L
307.475 131.293 L
307.862 127.98 L
308.25 111.579 L
308.638 157.798 L
309.025 136.536 L
309.413 196.719 L
309.8 128.695 L
310.188 169.726 L
310.575 136.536 L
310.962 94.185 L
311.35 176.286 L
311.737 188.81 L
312.125 147.426 L
312.513 181.653 L
312.9 163.762 L
313.288 176.286 L
313.675 163.762 L
314.063 105.96 L
314.45 147.426 L
314.837 147.426 L
315.225 163.762 L
315.612 136.536 L
316 101.143 L
316.388 152.377 L
316.775 140.991 L
317.163 112.739 L
317.55 140.991 L
317.938 143.987 L
318.325 188.81 L
318.712 71.921 L
319.1 118.676 L
319.487 122.016 L
319.875 115.593 L
320.263 253.218 L
320.65 163.762 L
321.038 177.677 L
321.425 157.798 L
321.813 175.147 L
322.2 153.325 L
322.587 169.726 L
322.975 130.805 L
323.362 226.381 L
323.75 196.719 L
324.138 181.653 L
324.525 242.036 L
324.913 209.902 L
325.3 200.597 L
325.688 191.593 L
326.075 191.593 L
326.462 140.991 L
326.85 191.593 L
327.237 163.762 L
327.625 205.508 L
328.013 177.677 L
328.4 200.597 L
328.788 193.581 L
329.175 147.426 L
329.563 147.426 L
329.95 185.863 L
330.337 177.677 L
330.725 191.593 L
331.112 201.333 L
331.5 226.381 L
331.888 219.423 L
332.275 181.653 L
332.663 230.064 L
333.05 169.207 L
333.438 200.597 L
333.825 181.653 L
334.212 219.423 L
334.6 176.286 L
334.987 138.714 L
335.375 188.81 L
335.763 188.81 L
336.15 138.714 L
336.538 152.377 L
336.925 226.381 L
337.313 193.581 L
337.7 185.863 L
338.087 142.889 L
338.475 185.863 L
338.862 191.593 L
339.25 210.726 L
339.638 215.331 L
340.025 169.726 L
340.413 188.81 L
340.8 177.677 L
341.188 191.593 L
341.575 209.902 L
341.962 215.331 L
342.35 200.597 L
342.737 215.331 L
343.125 183.536 L
343.513 180.097 L
343.9 205.508 L
344.288 163.762 L
344.675 201.333 L
345.063 200.597 L
345.45 215.331 L
345.837 181.653 L
346.225 142.889 L
346.612 142.889 L
347 175.147 L
347.388 196.719 L
347.775 183.536 L
348.163 138.714 L
348.55 176.286 L
348.938 136.536 L
349.325 176.286 L
349.712 151.238 L
350.1 176.286 L
350.487 188.81 L
350.875 176.286 L
351.263 183.536 L
351.65 188.81 L
352.038 183.536 L
352.425 158.752 L
352.813 169.726 L
353.2 177.677 L
353.587 200.597 L
353.975 201.333 L
354.362 230.064 L
354.75 136.536 L
355.138 223.085 L
355.525 183.536 L
355.913 151.238 L
356.3 158.752 L
356.688 176.286 L
357.075 205.508 L
357.462 193.581 L
357.85 205.508 L
358.237 157.798 L
358.625 176.286 L
359.013 222.206 L
359.4 183.536 L
359.788 163.762 L
360.175 271.109 L
360.563 183.536 L
360.95 210.726 L
361.337 191.593 L
361.725 210.726 L
362.112 177.677 L
362.5 176.286 L
362.888 138.714 L
363.275 210.726 L
363.663 169.726 L
364.05 209.902 L
364.438 210.726 L
364.825 144.495 L
365.212 153.325 L
365.6 200.597 L
365.987 170.353 L
366.375 175.147 L
366.763 183.536 L
367.15 205.508 L
367.538 138.714 L
367.925 180.097 L
368.313 185.863 L
368.7 183.536 L
369.087 188.81 L
369.475 185.863 L
369.862 158.317 L
370.25 176.286 L
370.638 209.902 L
371.025 152.377 L
371.413 170.353 L
371.8 215.331 L
372.188 238.905 L
372.575 193.581 L
372.962 183.536 L
373.35 219.423 L
373.737 147.426 L
374.125 188.81 L
374.513 191.593 L
374.9 200.597 L
375.288 219.423 L
375.675 205.508 L
376.063 238.905 L
376.45 196.719 L
376.837 215.331 L
377.225 188.81 L
377.612 170.353 L
378 191.593 L
378.388 163.762 L
378.775 230.064 L
379.163 163.762 L
379.55 188.81 L
379.938 115.593 L
380.325 185.863 L
380.712 193.581 L
381.1 136.536 L
381.487 177.677 L
381.875 101.143 L
382.263 149.847 L
382.65 238.905 L
383.038 133.943 L
383.425 142.889 L
383.813 200.597 L
384.2 176.286 L
384.587 163.762 L
384.975 163.762 L
385.362 133.943 L
385.75 205.508 L
386.138 147.426 L
386.525 175.147 L
386.913 157.17 L
387.3 185.863 L
387.688 133.943 L
388.075 157.798 L
388.462 147.426 L
388.85 175.147 L
389.237 169.726 L
389.625 149.847 L
390.013 196.719 L
390.4 188.81 L
390.788 242.036 L
391.175 132.452 L
391.563 163.762 L
391.95 196.719 L
392.337 152.377 L
392.725 215.331 L
393.112 196.719 L
393.5 196.719 L
393.888 153.325 L
394.275 196.719 L
394.663 145.871 L
395.05 169.207 L
395.438 175.147 L
395.825 180.097 L
396.212 185.863 L
396.6 222.206 L
396.987 131.293 L
397.375 169.726 L
397.763 193.581 L
398.15 157.17 L
398.538 183.536 L
398.925 142.889 L
399.313 242.036 L
399.7 242.036 L
400.087 176.286 L
400.475 226.381 L
400.862 230.064 L
401.25 131.293 L
401.638 169.726 L
402.025 210.726 L
402.413 205.508 L
402.8 183.536 L
403.188 147.426 L
403.575 196.719 L
403.962 148.733 L
404.35 169.207 L
404.737 158.317 L
405.125 177.677 L
405.513 200.597 L
405.9 205.508 L
406.288 169.726 L
406.675 188.81 L
407.063 205.508 L
407.45 157.798 L
407.837 128.695 L
408.225 200.597 L
408.612 157.17 L
409 215.331 L
409.388 253.218 L
409.775 181.653 L
410.163 119.034 L
410.55 142.889 L
410.938 196.719 L
411.325 242.036 L
411.712 115.593 L
412.1 175.147 L
412.487 215.331 L
412.875 157.798 L
413.263 195.071 L
413.65 147.426 L
414.038 140.991 L
414.425 185.863 L
414.813 153.325 L
415.2 193.581 L
415.587 163.762 L
415.975 181.653 L
416.362 163.762 L
416.75 125.227 L
417.138 157.798 L
417.525 215.331 L
417.913 210.726 L
418.3 219.423 L
418.688 170.353 L
419.075 219.423 L
419.462 148.733 L
419.85 151.238 L
420.237 148.733 L
420.625 147.426 L
421.013 163.762 L
421.4 219.423 L
421.788 205.508 L
422.175 157.798 L
422.563 219.423 L
422.95 183.536 L
423.337 191.593 L
423.725 230.064 L
424.112 196.719 L
424.5 185.863 L
424.888 122.016 L
425.275 177.677 L
425.663 200.597 L
426.05 156.395 L
426.438 142.889 L
426.825 191.593 L
427.212 183.536 L
427.6 105.96 L
427.987 157.17 L
428.375 191.593 L
428.763 144.495 L
429.15 183.536 L
429.538 215.331 L
429.925 176.286 L
430.313 158.752 L
430.7 242.036 L
431.087 205.508 L
431.475 196.719 L
431.862 209.902 L
432.25 255.603 L
432.638 181.653 L
433.025 200.597 L
433.413 157.798 L
433.8 196.719 L
434.188 226.381 L
434.575 176.286 L
434.962 183.536 L
435.35 215.331 L
435.737 201.333 L
436.125 196.719 L
436.513 157.798 L
436.9 191.593 L
437.288 131.293 L
437.675 242.036 L
438.063 163.762 L
438.45 169.726 L
438.837 209.902 L
439.225 158.317 L
439.612 181.653 L
440 163.762 L
440.388 196.719 L
440.775 183.536 L
441.163 151.238 L
441.55 196.719 L
441.938 147.426 L
442.325 200.597 L
442.712 230.064 L
443.1 169.726 L
443.487 181.653 L
443.875 142.889 L
444.263 147.426 L
444.65 132.452 L
445.038 176.286 L
445.425 163.762 L
445.813 205.508 L
446.2 152.377 L
446.587 175.147 L
446.975 170.353 L
447.362 215.331 L
447.75 191.593 L
448.138 205.508 L
448.525 219.423 L
448.913 185.863 L
449.3 181.653 L
449.688 188.81 L
450.075 163.762 L
450.462 177.677 L
450.85 196.719 L
451.237 188.81 L
451.625 157.798 L
452.013 163.762 L
452.4 176.286 L
452.788 201.333 L
453.175 177.677 L
453.563 188.81 L
453.95 136.536 L
454.337 200.597 L
454.725 151.238 L
455.112 163.762 L
455.5 205.508 L
455.888 183.536 L
456.275 169.726 L
456.663 169.207 L
457.05 163.762 L
457.438 170.353 L
457.825 132.452 L
458.212 157.798 L
458.6 157.798 L
458.987 175.147 L
459.375 148.733 L
459.763 181.653 L
460.15 113.667 L
460.538 119.034 L
460.925 238.905 L
461.313 186.532 L
461.7 200.597 L
462.087 196.719 L
462.475 226.381 L
462.862 176.286 L
463.25 136.925 L
463.638 196.719 L
464.025 122.016 L
464.413 169.726 L
464.8 163.762 L
465.188 176.286 L
465.575 183.536 L
465.962 177.677 L
466.35 163.762 L
466.737 136.536 L
467.125 129.606 L
467.513 176.286 L
467.9 125.646 L
468.288 176.286 L
468.675 136.536 L
469.063 152.377 L
469.45 111.579 L
469.837 136.536 L
470.225 152.377 L
470.612 205.508 L
471 122.016 L
471.388 140.991 L
471.775 136.536 L
472.163 142.889 L
472.55 191.593 L
472.938 177.677 L
473.325 163.762 L
473.712 176.286 L
474.1 105.96 L
474.487 181.653 L
474.875 147.426 L
475.263 157.798 L
475.65 157.798 L
476.038 116.258 L
476.425 140.991 L
476.813 163.762 L
477.2 134.861 L
477.587 140.991 L
477.975 169.726 L
478.362 158.317 L
478.75 169.726 L
479.138 170.353 L
479.525 215.331 L
479.913 157.17 L
480.3 272.302 L
480.688 183.536 L
481.075 219.423 L
481.462 140.991 L
481.85 226.381 L
482.237 201.333 L
482.625 153.325 L
483.013 174.198 L
483.4 157.798 L
483.788 163.762 L
484.175 223.085 L
484.563 163.762 L
484.95 163.762 L
485.337 163.762 L
485.725 163.762 L
486.112 151.238 L
486.5 176.286 L
486.888 185.863 L
487.275 151.238 L
487.663 163.762 L
488.05 174.198 L
488.438 191.593 L
488.825 103.865 L
489.212 131.293 L
489.6 125.646 L
489.987 94.185 L
490.375 108.657 L
490.763 98.638 L
491.15 136.536 L
491.538 129.606 L
491.925 188.81 L
492.313 157.17 L
492.7 177.677 L
493.087 122.016 L
493.475 215.331 L
493.862 133.943 L
494.25 201.333 L
494.638 169.726 L
495.025 177.677 L
495.413 209.902 L
495.8 152.377 L
496.188 210.726 L
496.575 185.863 L
496.962 163.762 L
497.35 142.889 L
497.737 205.508 L
498.125 163.762 L
498.513 183.536 L
498.9 158.317 L
499.288 163.762 L
499.675 145.871 L
500.063 222.206 L
500.45 169.726 L
500.837 205.508 L
501.225 183.536 L
501.612 183.536 L
502 205.508 L
502.388 191.593 L
502.775 142.889 L
503.163 163.762 L
503.55 142.889 L
503.938 196.719 L
504.325 140.991 L
504.712 158.317 L
505.1 145.871 L
505.487 176.286 L
505.875 122.016 L
506.263 242.036 L
506.65 169.726 L
507.038 147.426 L
507.425 185.863 L
507.813 158.317 L
508.2 105.317 L
508.587 163.762 L
508.975 128.695 L
509.362 176.286 L
509.75 183.536 L
510.138 122.016 L
510.525 136.536 L
510.913 158.317 L
511.3 105.317 L
511.688 112.739 L
512.075 157.798 L
512.463 170.353 L
512.85 138.714 L
513.237 142.889 L
513.625 101.143 L
514.013 131.293 L
514.4 125.227 L
514.787 181.653 L
515.175 181.653 L
515.563 226.381 L
515.95 157.17 L
516.338 134.861 L
516.725 116.258 L
517.112 157.17 L
517.5 158.317 L
517.888 138.714 L
518.275 135.931 L
518.662 147.426 L
519.05 110.088 L
519.438 176.286 L
519.825 145.871 L
520.213 132.452 L
520.6 163.762 L
520.987 145.871 L
521.375 163.762 L
521.763 170.353 L
522.15 209.902 L
522.537 170.353 L
522.925 201.333 L
523.313 196.719 L
523.7 183.536 L
524.088 136.536 L
524.475 200.597 L
524.862 124.895 L
525.25 222.206 L
525.638 191.593 L
526.025 195.071 L
526.412 142.889 L
526.8 153.325 L
527.188 191.593 L
527.575 238.905 L
527.963 200.597 L
528.35 148.733 L
528.737 106.836 L
529.125 116.258 L
529.513 152.377 L
529.9 132.452 L
530.287 163.762 L
530.675 157.798 L
531.063 128.695 L
531.45 111.243 L
531.838 103.462 L
532.225 108.657 L
532.612 201.333 L
533 163.762 L
533.388 102.748 L
533.775 147.426 L
534.162 157.798 L
534.55 153.325 L
534.938 163.762 L
535.325 163.762 L
535.713 110.088 L
536.1 134.861 L
536.487 101.143 L
536.875 142.889 L
537.263 181.653 L
537.65 134.861 L
538.037 145.871 L
538.425 226.381 L
538.813 145.871 L
539.2 107.621 L
539.588 163.762 L
539.975 151.238 L
540.362 131.293 L
540.75 94.185 L
541.138 131.293 L
541.525 61.294 L
541.912 87.228 L
542.3 118.676 L
542.688 87.228 L
543.075 125.227 L
543.463 65.602 L
543.85 87.228 L
544.237 132.452 L
544.625 87.397 L
545.013 134.861 L
545.4 133.532 L
545.787 118.676 L
546.175 110.088 L
546.563 151.238 L
546.95 119.323 L
547.338 122.016 L
547.725 93.315 L
548.112 125.227 L
548.5 122.016 L
548.888 104.826 L
549.275 98.984 L
549.662 132.452 L
550.05 163.762 L
550.438 115.593 L
550.825 108.97 L
551.213 145.871 L
551.6 96.326 L
551.987 107.621 L
552.375 108.657 L
552.763 144.495 L
553.15 107.621 L
553.537 132.452 L
553.925 92.681 L
554.313 183.536 L
554.7 102.932 L
555.088 119.034 L
555.475 115.593 L
555.862 98.984 L
556.25 122.016 L
556.638 118.676 L
557.025 131.293 L
557.412 148.733 L
557.8 144.495 L
558.188 101.143 L
558.575 153.325 L
558.963 122.016 L
559.35 107.621 L
559.737 128.695 L
560.125 88.619 L
560.513 74.306 L
560.9 119.034 L
561.287 103.163 L
561.675 103.163 L
562.063 106.836 L
562.45 108.657 L
562.838 75.179 L
563.225 128.695 L
563.612 89.904 L
564 105.96 L
564.388 145.871 L
564.775 95.776 L
565.162 144.495 L
565.55 73.312 L
565.938 63.571 L
566.325 88.619 L
566.713 131.293 L
567.1 78.923 L
567.487 119.034 L
567.875 125.227 L
568.263 125.646 L
568.65 111.243 L
569.037 103.462 L
569.425 122.016 L
569.813 103.462 L
570.2 96.968 L
570.588 45.293 L
570.975 71.921 L
571.362 96.968 L
571.75 71.921 L
572.138 68.885 L
572.525 90.092 L
572.912 81.709 L
573.3 69.833 L
573.688 101.143 L
574.075 84.908 L
574.463 82.725 L
574.85 68.342 L
575.237 108.657 L
575.625 101.143 L
576.013 55.602 L
576.4 56.101 L
576.787 73.312 L
577.175 50.742 L
577.563 64.89 L
577.95 49.656 L
578.338 66.355 L
578.725 74.306 L
579.112 58.971 L
579.5 55.602 L
579.888 48.346 L
580.275 50.742 L
580.662 53.258 L
581.05 72.372 L
581.438 53.258 L
581.825 38.524 L
582.213 54.179 L
582.6 62.379 L
582.987 55.602 L
583.375 88.619 L
583.763 59.397 L
584.15 55.602 L
584.537 51.369 L
584.925 110.088 L
585.313 75.359 L
585.7 105.317 L
586.088 64.214 L
586.475 48.346 L
586.862 67.649 L
587.25 84.065 L
587.638 71.921 L
588.025 105.96 L
588.412 50.742 L
588.8 79.142 L
589.188 87.003 L
589.575 106.836 L
589.963 69.07 L
590.35 92.197 L
590.737 57.31 L
591.125 56.415 L
591.513 49.414 L
591.9 66.355 L
592.287 67.15 L
592.675 57.078 L
593.063 69.833 L
593.45 44.786 L
593.838 64.89 L
594.225 58.298 L
594.612 43.435 L
595 49.656 L
595.388 64.214 L
595.775 67.992 L
596.162 58.298 L
596.55 58.298 L
596.938 131.293 L
597.325 136.536 L
597.713 118.676 L
598.1 49.909 L
598.487 44.349 L
598.875 61.294 L
599.263 56.415 L
599.65 107.621 L
600.037 43.742 L
600.425 82.725 L
600.813 136.536 L
601.2 93.315 L
601.588 92.197 L
601.975 132.452 L
602.362 72.372 L
602.75 52.702 L
603.138 77.661 L
603.525 91.655 L
603.912 158.317 L
604.3 96.968 L
604.688 72.372 L
605.075 133.943 L
605.463 58.298 L
605.85 64.615 L
606.237 49.656 L
606.625 62.608 L
607.013 122.016 L
607.4 163.762 L
607.787 143.987 L
608.175 169.207 L
608.563 125.646 L
608.95 76.095 L
609.338 54.859 L
609.725 47.632 L
610.112 42.842 L
610.5 69.07 L
610.888 59.397 L
611.275 74.306 L
611.662 73.312 L
612.05 107.621 L
612.438 77.059 L
612.825 69.833 L
613.213 66.355 L
613.6 79.142 L
613.987 55.602 L
614.375 66.987 L
614.763 65.749 L
615.15 72.68 L
615.537 77.661 L
615.925 55.999 L
616.313 67.992 L
616.7 69.07 L
617.088 111.243 L
617.475 102.932 L
617.862 72.372 L
618.25 73.312 L
618.638 50.742 L
619.025 78.073 L
619.412 59.397 L
619.8 56.851 L
620.188 54.179 L
620.575 50.451 L
620.963 57.31 L
621.35 69.833 L
621.737 71.921 L
622.125 50.742 L
622.513 55.602 L
622.9 55.602 L
623.287 58.833 L
623.675 62.961 L
624.063 57.31 L
624.45 48.747 L
624.838 54.512 L
625.225 48.543 L
625.612 59.993 L
626 48.543 L
626.388 65.602 L
626.775 67.649 L
627.162 43.533 L
627.55 60.625 L
627.938 63.571 L
628.325 81.709 L
628.713 169.726 L
629.1 47.632 L
629.487 63.571 L
629.875 48.747 L
630.263 61.824 L
630.65 116.258 L
631.037 112.739 L
631.425 158.752 L
631.813 71.921 L
632.2 68.342 L
632.588 60.788 L
632.975 53.859 L
633.362 55.222 L
633.75 68.342 L
634.138 70.636 L
634.525 49.656 L
634.912 115.593 L
635.3 74.306 L
635.688 105.96 L
636.075 82.725 L
636.463 76.475 L
636.85 153.325 L
637.237 131.293 L
637.625 72.372 L
638.013 55.999 L
638.4 76.475 L
638.787 152.377 L
639.175 54.512 L
639.563 63.571 L
639.95 47.312 L
640.338 80.27 L
640.725 80.27 L
641.112 44.09 L
641.5 87.397 L
641.888 76.095 L
642.275 98.638 L
642.662 84.664 L
643.05 140.57 L
643.438 57.31 L
643.825 68.885 L
644.213 55.999 L
644.6 64.083 L
644.987 82.725 L
645.375 43.969 L
645.763 127.402 L
646.15 103.163 L
646.537 108.97 L
646.925 185.863 L
647.313 158.752 L
647.7 147.426 L
648.088 88.619 L
648.475 42.997 L
648.862 54.512 L
649.25 84.065 L
649.638 67.15 L
650.025 74.306 L
650.412 119.034 L
650.8 48.346 L
651.188 61.294 L
651.575 65.602 L
651.963 57.791 L
652.35 71.195 L
652.737 58.169 L
653.125 61.824 L
653.513 153.325 L
653.9 104.826 L
654.287 133.943 L
654.675 74.306 L
655.063 130.365 L
655.45 53.859 L
655.838 124.895 L
656.225 129.606 L
656.612 47.976 L
657 50.451 L
657.388 67.15 L
657.775 112.739 L
658.162 94.185 L
658.55 119.323 L
658.938 95.083 L
659.325 76.095 L
659.713 49.656 L
660.1 60.625 L
660.487 87.003 L
660.875 108.97 L
661.263 77.059 L
661.65 116.798 L
662.037 158.317 L
662.425 41.909 L
662.813 69.833 L
663.2 88.619 L
663.588 92.197 L
663.975 66.987 L
664.362 111.579 L
664.75 48.96 L
665.138 75.829 L
665.525 87.228 L
665.912 101.143 L
666.3 71.481 L
666.688 140.991 L
667.075 116.798 L
667.463 152.377 L
667.85 54.179 L
668.237 73.312 L
668.625 88.619 L
669.013 63.571 L
669.4 81.463 L
669.787 108.97 L
670.175 147.426 L
670.563 99.245 L
670.95 105.317 L
671.338 78.073 L
671.725 90.346 L
672.112 43.533 L
672.5 69.833 L
672.888 60.788 L
673.275 70.636 L
673.662 47.801 L
674.05 122.016 L
674.438 57.31 L
674.825 51.707 L
675.213 48.747 L
675.6 71.481 L
675.987 55.222 L
676.375 46.475 L
676.763 65.17 L
677.15 62.379 L
677.537 87.003 L
677.925 157.798 L
678.313 158.317 L
678.7 122.016 L
679.088 60.788 L
679.475 134.861 L
679.862 90.346 L
680.25 44.216 L
680.638 50.644 L
681.025 47.632 L
681.412 59.841 L
681.8 108.97 L
682.188 107.621 L
682.575 111.243 L
682.963 157.798 L
683.35 90.092 L
683.737 50.742 L
684.125 78.923 L
684.513 44.349 L
684.9 51.707 L
685.287 46.114 L
685.675 145.871 L
686.063 59.397 L
686.45 75.359 L
686.838 55.999 L
687.225 98.984 L
687.612 145.871 L
688 65.602 L
688.388 69.07 L
688.775 80.27 L
689.162 90.092 L
689.55 101.143 L
689.938 54.179 L
690.325 53.552 L
690.713 48.158 L
691.1 48.543 L
691.487 71.481 L
691.875 56.851 L
692.263 42.997 L
692.65 49.909 L
693.037 57.791 L
693.425 60.625 L
693.813 65.602 L
694.2 48.747 L
694.588 56.851 L
694.975 64.214 L
695.362 65.602 L
695.75 56.851 L
696.138 112.739 L
696.525 56.415 L
696.912 52.063 L
697.3 55.798 L
697.688 38.524 L
698.075 112.739 L
698.463 49.182 L
698.85 96.326 L
699.237 59.841 L
699.625 98.984 L
700.013 84.908 L
700.4 113.667 L
700.787 110.088 L
701.175 69.833 L
701.563 60.495 L
701.95 92.197 L
702.338 81.463 L
702.725 124.895 L
703.112 53.258 L
703.5 58.298 L
703.888 59.397 L
704.275 67.15 L
704.662 85.488 L
705.05 111.579 L
705.438 93.315 L
705.825 94.185 L
706.213 62.763 L
706.6 72.372 L
706.987 87.003 L
707.375 92.197 L
707.763 49.414 L
708.15 107.621 L
708.537 80.27 L
708.925 84.065 L
709.313 63.571 L
709.7 62.961 L
710.088 64.89 L
710.475 108.657 L
710.862 77.059 L
711.25 110.088 L
711.638 64.435 L
712.025 64.214 L
712.412 43.969 L
712.8 103.163 L
713.188 157.798 L
713.575 95.083 L
713.963 90.706 L
714.35 68.885 L
714.737 54.179 L
715.125 56.101 L
715.513 64.214 L
715.9 87.228 L
716.287 101.143 L
716.675 48.96 L
717.063 73.312 L
717.45 65.602 L
717.838 96.968 L
718.225 77.661 L
718.612 87.228 L
719 59.993 L
719.388 92.197 L
719.775 62.379 L
720.162 70.843 L
720.55 78.923 L
720.938 59.993 L
721.325 83.252 L
721.713 85.488 L
722.1 55.602 L
722.487 79.142 L
722.875 87.003 L
723.263 60.304 L
723.65 57.791 L
724.037 43.162 L
724.425 115.593 L
724.813 66.987 L
725.2 45.891 L
725.588 125.646 L
725.975 118.676 L
726.362 56.415 L
726.75 42.842 L
727.138 84.908 L
727.525 58.298 L
727.912 92.197 L
728.3 122.016 L
728.688 48.346 L
729.075 48.158 L
729.463 48.158 L
729.85 64.214 L
730.237 52.439 L
730.625 77.059 L
731.013 59.397 L
731.4 51.707 L
731.787 49.414 L
732.175 55.222 L
732.563 64.89 L
732.95 83.252 L
733.338 59.397 L
733.725 73.312 L
734.112 50.451 L
734.5 58.298 L
734.888 62.006 L
735.275 66.355 L
735.662 49.182 L
736.05 74.306 L
736.438 47.015 L
736.825 45.293 L
737.213 49.656 L
737.6 132.452 L
737.987 78.923 L
738.375 96.968 L
738.763 77.661 L
739.15 84.065 L
739.537 81.288 L
739.925 78.923 L
740.313 56.415 L
740.7 96.326 L
741.088 75.631 L
741.475 50.174 L
741.862 84.664 L
742.25 66.355 L
742.638 51.707 L
743.025 112.739 L
743.412 86.692 L
743.8 52.439 L
744.188 51.942 L
744.575 67.15 L
744.963 75.359 L
745.35 75.359 L
745.737 103.462 L
746.125 54.512 L
746.513 80.27 L
746.9 71.481 L
747.287 84.908 L
747.675 87.003 L
748.063 101.143 L
748.45 106.836 L
748.838 48.96 L
749.225 71.481 L
749.612 103.462 L
750 60.304 L
750.388 88.619 L
750.775 131.293 L
751.162 52.974 L
751.55 65.602 L
751.938 43.636 L
752.325 83.252 L
752.713 101.143 L
753.1 94.185 L
753.487 101.143 L
753.875 48.543 L
754.263 66.987 L
754.65 64.89 L
755.037 77.661 L
755.425 70.636 L
755.813 140.991 L
756.2 67.15 L
756.588 76.475 L
756.975 59.397 L
757.362 103.462 L
757.75 93.315 L
758.138 47.976 L
758.525 58.298 L
758.912 84.908 L
759.3 78.923 L
759.688 46.231 L
760.075 48.346 L
760.463 81.709 L
760.85 44.349 L
761.237 81.709 L
761.625 90.346 L
762.013 69.07 L
762.4 87.003 L
762.787 98.984 L
763.175 71.921 L
763.563 108.657 L
763.95 58.298 L
764.338 76.095 L
764.725 88.619 L
765.112 99.245 L
765.5 62.006 L
765.888 52.063 L
766.275 69.833 L
766.662 95.083 L
767.05 65.602 L
767.438 59.993 L
767.825 38.524 L
768.213 44.488 L
768.6 61.294 L
768.987 119.034 L
769.375 87.003 L
769.763 73.312 L
770.15 125.646 L
770.537 60.304 L
770.925 83.252 L
771.313 57.791 L
771.7 66.355 L
772.088 84.908 L
772.475 76.475 L
772.862 103.462 L
773.25 80.27 L
773.638 79.142 L
774.025 53.552 L
774.412 56.851 L
774.8 70.636 L
775.188 125.227 L
775.575 59.993 L
775.963 64.214 L
776.35 85.488 L
776.737 64.214 L
777.125 105.96 L
777.513 49.656 L
777.9 138.714 L
778.287 79.142 L
778.675 94.185 L
779.063 54.684 L
779.45 96.326 L
779.838 75.359 L
780.225 81.463 L
780.612 70.843 L
781 107.621 L
781.388 74.306 L
781.775 72.372 L
782.162 157.17 L
782.55 98.984 L
782.938 88.619 L
783.325 75.052 L
783.713 69.833 L
784.1 76.475 L
784.487 88.619 L
784.875 77.059 L
785.263 92.197 L
785.65 73.474 L
786.037 38.524 L
786.425 138.714 L
786.813 112.739 L
787.2 42.698 L
787.588 61.294 L
787.975 67.649 L
788.362 52.974 L
788.75 90.346 L
789.138 43.25 L
789.525 56.851 L
789.912 48.747 L
790.3 57.791 L
790.688 60.304 L
791.075 94.185 L
791.463 69.07 L
791.85 76.475 L
792.237 88.619 L
792.625 80.27 L
793.013 48.346 L
793.4 54.179 L
793.787 60.888 L
794.175 60.304 L
794.563 64.615 L
794.95 108.657 L
795.338 59.397 L
795.725 75.631 L
796.112 90.092 L
796.5 79.142 L
796.888 98.161 L
797.275 93.315 L
797.662 87.003 L
798.05 76.64 L
798.438 61.294 L
798.825 85.488 L
799.213 105.96 L
799.6 62.006 L
799.987 79.142 L
800.375 74.306 L
800.763 48.346 L
801.15 48.543 L
801.537 92.197 L
801.925 43.853 L
802.313 84.065 L
802.7 81.463 L
803.088 62.379 L
803.475 115.593 L
803.862 67.992 L
804.25 59.993 L
804.638 56.415 L
805.025 59.397 L
805.412 77.661 L
805.8 74.306 L
806.188 63.08 L
806.575 57.31 L
806.963 77.661 L
807.35 68.885 L
807.737 114.756 L
808.125 48.96 L
808.513 68.885 L
808.9 86.692 L
809.287 90.346 L
809.675 67.15 L
810.063 50.742 L
810.45 52.063 L
810.838 78.923 L
811.225 71.481 L
811.612 47.469 L
812 82.725 L
812.388 74.306 L
812.775 103.462 L
813.162 58.833 L
813.55 93.315 L
813.938 72.372 L
814.325 88.619 L
814.713 58.833 L
815.1 66.355 L
815.487 72.372 L
815.875 79.142 L
816.263 55.602 L
816.65 72.372 L
817.037 78.372 L
817.425 98.984 L
817.813 64.615 L
818.2 80.27 L
818.588 96.968 L
818.975 95.083 L
819.362 111.243 L
819.75 51.26 L
820.138 112.739 L
820.525 78.923 L
820.912 107.621 L
821.3 51.942 L
821.688 58.298 L
822.075 72.372 L
822.463 99.245 L
822.85 78.923 L
823.237 77.661 L
823.625 83.481 L
824.013 55.602 L
824.4 61.294 L
824.787 47.976 L
825.175 101.143 L
825.563 92.197 L
825.95 65.602 L
826.338 88.619 L
826.725 87.003 L
827.112 107.621 L
827.5 71.481 L
827.888 52.702 L
828.275 84.065 L
828.662 78.372 L
829.05 111.579 L
829.438 75.359 L
829.825 53.552 L
830.213 56.851 L
830.6 50.742 L
830.987 90.706 L
831.375 49.414 L
831.763 99.245 L
832.15 77.661 L
832.537 47.312 L
832.925 50.174 L
833.313 76.475 L
833.7 56.74 L
834.088 64.214 L
834.475 95.083 L
834.862 91.655 L
835.25 45.784 L
835.638 88.619 L
836.025 55.222 L
836.412 88.619 L
836.8 94.185 L
837.188 59.993 L
837.575 96.326 L
837.963 63.571 L
838.35 58.833 L
838.737 90.346 L
839.125 73.59 L
839.513 125.227 L
839.9 112.739 L
840.287 108.97 L
840.675 80.27 L
841.063 53.859 L
841.45 55.999 L
841.838 66.355 L
842.225 57.791 L
842.612 59.993 L
843 61.294 L
843.388 80.27 L
843.775 111.579 L
844.162 64.214 L
844.55 59.397 L
844.938 80.27 L
845.325 96.968 L
845.713 101.143 L
846.1 70.843 L
846.487 105.317 L
846.875 56.74 L
847.263 59.993 L
847.65 78.923 L
848.037 114.756 L
848.425 92.197 L
848.813 101.143 L
849.2 70.636 L
849.588 77.661 L
849.975 74.306 L
850.362 64.214 L
850.75 58.833 L
851.138 70.636 L
851.525 108.97 L
851.912 90.092 L
852.3 70.636 L
852.688 134.861 L
853.075 74.306 L
853.463 71.921 L
853.85 116.258 L
854.237 125.646 L
854.625 109.171 L
855.013 68.885 L
855.4 96.326 L
855.787 77.059 L
856.175 101.143 L
856.563 98.984 L
856.95 105.317 L
857.338 49.739 L
857.725 147.426 L
858.112 96.968 L
858.5 44.488 L
858.888 57.078 L
859.275 72.68 L
859.662 118.676 L
860.05 50.742 L
860.438 82.725 L
860.825 78.923 L
861.213 103.462 L
861.6 73.312 L
861.987 67.425 L
862.375 90.092 L
862.763 69.07 L
863.15 93.315 L
863.537 115.593 L
863.925 49.182 L
864.313 64.89 L
864.7 64.89 L
865.088 59.397 L
865.475 78.073 L
865.862 65.17 L
866.25 80.27 L
866.638 50.451 L
867.025 85.911 L
867.412 118.676 L
867.8 87.003 L
868.188 105.317 L
868.575 94.185 L
868.963 88.619 L
869.35 111.579 L
869.737 87.003 L
870.125 78.372 L
870.513 76.095 L
870.9 116.258 L
871.287 84.065 L
871.675 86.692 L
872.063 122.016 L
872.45 81.709 L
872.838 147.426 L
873.225 158.317 L
873.612 64.435 L
874 98.638 L
874.388 93.315 L
874.775 81.709 L
875.162 47.801 L
875.55 80.27 L
875.938 79.142 L
876.325 57.791 L
876.713 163.762 L
877.1 45.203 L
877.487 78.923 L
877.875 80.27 L
878.263 101.143 L
878.65 74.306 L
879.037 111.243 L
879.425 83.252 L
879.813 77.661 L
880.2 79.142 L
880.588 77.059 L
880.975 128.695 L
881.362 118.676 L
881.75 119.034 L
882.138 70.5 L
882.525 176.286 L
882.912 94.185 L
883.3 116.258 L
883.688 64.214 L
884.075 68.342 L
884.463 88.619 L
884.85 111.243 L
885.237 77.059 L
885.625 94.185 L
886.013 57.31 L
886.4 80.27 L
886.787 62.006 L
887.175 95.776 L
887.563 77.059 L
887.95 110.088 L
888.338 51.707 L
888.725 67.992 L
889.112 96.326 L
889.5 103.462 L
889.888 72.372 L
890.275 54.859 L
890.662 82.357 L
891.05 53.938 L
891.438 84.065 L
891.825 82.725 L
892.213 76.095 L
892.6 72.372 L
892.987 112.739 L
893.375 58.562 L
893.763 66.987 L
894.15 101.143 L
894.537 128.695 L
894.925 105.317 L
895.313 107.621 L
895.7 111.579 L
896.088 106.836 L
896.475 87.003 L
896.862 71.921 L
897.25 144.495 L
897.638 91.655 L
898.025 54.179 L
898.412 57.791 L
898.8 64.89 L
899.188 101.143 L
899.575 63.571 L
899.963 92.197 L
900.35 67.992 L
900.737 113.667 L
901.125 142.889 L
901.513 84.065 L
901.9 51.942 L
902.287 95.776 L
902.675 86.692 L
903.063 84.065 L
903.45 58.298 L
903.838 80.27 L
904.225 116.258 L
904.612 70.636 L
905 108.657 L
S
GR
GS
1 0 0 RC
1 LJ
0.5 LW
N
169.525 233.315 M
169.913 233.638 L
170.3 233.13 L
170.688 233.905 L
171.075 234.549 L
171.462 235.767 L
171.85 236.312 L
172.238 236.123 L
172.625 236.297 L
173.012 236.54 L
173.4 237.003 L
173.788 236.528 L
174.175 236.358 L
174.563 237.279 L
174.95 238.125 L
175.337 237.929 L
175.725 239.145 L
176.113 238.933 L
176.5 238.732 L
176.887 238.303 L
177.275 238.124 L
177.663 236.541 L
178.05 237.262 L
178.438 237.359 L
178.825 238.034 L
179.212 239.033 L
179.6 239.429 L
179.988 240.811 L
180.375 241.688 L
180.762 241.058 L
181.15 240.488 L
181.538 241.552 L
181.925 241.907 L
182.313 241.907 L
182.7 242.116 L
183.087 242.157 L
183.475 242.811 L
183.863 243.381 L
184.25 243.469 L
184.637 242.573 L
185.025 243.016 L
185.413 244.461 L
185.8 244.461 L
186.188 244.727 L
186.575 245.382 L
186.962 247.066 L
187.35 247.274 L
187.738 246.476 L
188.125 246.21 L
188.512 246.84 L
188.9 246.513 L
189.288 246.076 L
189.675 245.278 L
190.063 245.988 L
190.45 245.092 L
190.837 244.638 L
191.225 244.044 L
191.613 243.825 L
192 244.326 L
192.387 243.609 L
192.775 243.862 L
193.163 243.119 L
193.55 243.617 L
193.938 243.852 L
194.325 243.828 L
194.712 244.179 L
195.1 244.721 L
195.488 244.37 L
195.875 244.605 L
196.262 244.605 L
196.65 245.314 L
197.038 245.815 L
197.425 246.633 L
197.813 246.37 L
198.2 246.636 L
198.587 246.066 L
198.975 244.702 L
199.363 245.507 L
199.75 245.203 L
200.137 245.203 L
200.525 245.833 L
200.913 245.598 L
201.3 245.097 L
201.688 244.591 L
202.075 245.245 L
202.462 245.746 L
202.85 245.705 L
203.238 245.05 L
203.625 245.401 L
204.012 245.688 L
204.4 246.256 L
204.788 246.256 L
205.175 244.892 L
205.563 245.906 L
205.95 245.333 L
206.337 244.412 L
206.725 244.412 L
207.113 244.203 L
207.5 245.001 L
207.887 243.957 L
208.275 243.896 L
208.663 243.896 L
209.05 244.333 L
209.438 245.397 L
209.825 244.896 L
210.212 244.81 L
210.6 245.352 L
210.988 244.168 L
211.375 245.088 L
211.762 245.129 L
212.15 246.112 L
212.538 246.071 L
212.925 246.594 L
213.313 246.305 L
213.7 245.417 L
214.087 244.847 L
214.475 243.926 L
214.863 243.885 L
215.25 242.872 L
215.637 242.565 L
216.025 242.799 L
216.413 241.817 L
216.8 241.316 L
217.188 241.798 L
217.575 240.861 L
217.962 240.071 L
218.35 239.836 L
218.738 240.045 L
219.125 239.694 L
219.512 238.478 L
219.9 237.601 L
220.288 237.294 L
220.675 236.813 L
221.063 236.813 L
221.45 237.239 L
221.837 236.318 L
222.225 235.009 L
222.613 234.112 L
223 233.034 L
223.387 231.025 L
223.775 229.247 L
224.163 228.265 L
224.55 228.265 L
224.938 228.474 L
225.325 227.46 L
225.712 227.986 L
226.1 228.041 L
226.488 227.251 L
226.875 228.264 L
227.262 228.203 L
227.65 228.449 L
228.038 227.621 L
228.425 226.639 L
228.813 226.066 L
229.2 226.066 L
229.587 225.585 L
229.975 225.671 L
230.363 223.829 L
230.75 225.013 L
231.137 224.358 L
231.525 224.051 L
231.913 223.551 L
232.3 223.223 L
232.688 223.053 L
233.075 221.869 L
233.462 222.758 L
233.85 222.758 L
234.238 221.469 L
234.625 220.314 L
235.012 220.523 L
235.4 220.83 L
235.788 220.306 L
236.175 219.733 L
236.563 219.968 L
236.95 219.405 L
237.337 220.035 L
237.725 219.842 L
238.113 219.842 L
238.5 219.553 L
238.887 219.334 L
239.275 219.1 L
239.663 219.1 L
240.05 219.977 L
240.438 220.386 L
240.825 219.991 L
241.212 220.515 L
241.6 218.882 L
241.988 219.864 L
242.375 219.279 L
242.762 219.568 L
243.15 220.027 L
243.538 219.569 L
243.925 220.169 L
244.313 219.371 L
244.7 218.89 L
245.087 217.915 L
245.475 216.807 L
245.863 216.123 L
246.25 216.913 L
246.637 215.393 L
247.025 214.165 L
247.413 213.651 L
247.8 212.898 L
248.188 212.898 L
248.575 212.971 L
248.962 212.181 L
249.35 211.362 L
249.738 211.758 L
250.125 213.293 L
250.512 211.232 L
250.9 209.431 L
251.288 208.801 L
251.675 208.801 L
252.063 207.123 L
252.45 205.982 L
252.837 206.511 L
253.225 205.713 L
253.613 205.269 L
254 205.761 L
254.387 206.206 L
254.775 205.552 L
255.163 204.405 L
255.55 205.195 L
255.938 205.3 L
256.325 204.584 L
256.712 203.74 L
257.1 202.099 L
257.487 201.865 L
257.875 200.458 L
258.263 199.692 L
258.65 198.649 L
259.038 198.543 L
259.425 197.433 L
259.813 194.837 L
260.2 193.288 L
260.587 192.734 L
260.975 191.306 L
261.362 190.444 L
261.75 189.087 L
262.138 187.687 L
262.525 185.791 L
262.913 183.926 L
263.3 182.686 L
263.688 179.717 L
264.075 178.019 L
264.462 175.34 L
264.85 174.657 L
265.237 173.01 L
265.625 170.923 L
266.013 168.006 L
266.4 166.111 L
266.788 164.257 L
267.175 162.594 L
267.563 161.257 L
267.95 158.933 L
268.337 156.323 L
268.725 155.089 L
269.112 153.824 L
269.5 151.91 L
269.888 148.553 L
270.275 148.135 L
270.663 147.316 L
271.05 144.221 L
271.438 141.448 L
271.825 141.536 L
272.212 140.903 L
272.6 138.843 L
272.987 137.883 L
273.375 136.178 L
273.763 134.361 L
274.15 132.823 L
274.538 132.176 L
274.925 131.494 L
275.313 130.081 L
275.7 128.846 L
276.087 127.265 L
276.475 126.685 L
276.862 125.809 L
277.25 123.821 L
277.638 122.795 L
278.025 121.588 L
278.413 120.341 L
278.8 119.394 L
279.188 117.968 L
279.575 117.789 L
279.962 117.408 L
280.35 116.834 L
280.737 116.727 L
281.125 118.425 L
281.513 117.431 L
281.9 119.33 L
282.288 119.723 L
282.675 121.229 L
283.063 122.927 L
283.45 123.986 L
283.837 124.947 L
284.225 126.273 L
284.612 126.273 L
285 126.397 L
285.388 127.696 L
285.775 129.358 L
286.163 129.512 L
286.55 130.801 L
286.938 133.059 L
287.325 134.012 L
287.712 135.634 L
288.1 137.489 L
288.487 137.958 L
288.875 138.405 L
289.263 138.609 L
289.65 140.208 L
290.038 141.153 L
290.425 141.62 L
290.813 144.198 L
291.2 145.105 L
291.587 144.403 L
291.975 144.714 L
292.362 145.75 L
292.75 146.361 L
293.138 147.986 L
293.525 147.802 L
293.913 147.715 L
294.3 148.533 L
294.688 148.604 L
295.075 149.121 L
295.462 149.421 L
295.85 150.3 L
296.237 152.461 L
296.625 153.336 L
297.013 154.623 L
297.4 156.029 L
297.788 156.353 L
298.175 156.407 L
298.563 156.085 L
298.95 157.278 L
299.337 157.414 L
299.725 158.762 L
300.112 158.298 L
300.5 158.415 L
300.888 157.144 L
301.275 156.657 L
301.663 156.084 L
302.05 157.066 L
302.438 156.2 L
302.825 156.2 L
303.212 157.019 L
303.6 157.264 L
303.987 157.798 L
304.375 157.231 L
304.763 157.788 L
305.15 157.351 L
305.538 156.805 L
305.925 157.427 L
306.313 156.519 L
306.7 155.478 L
307.087 155.522 L
307.475 154.405 L
307.862 153.413 L
308.25 152.779 L
308.638 154.089 L
309.025 152.697 L
309.413 152.037 L
309.8 151.218 L
310.188 150.624 L
310.575 151.991 L
310.962 152.557 L
311.35 153.649 L
311.737 153.63 L
312.125 154.231 L
312.513 153.639 L
312.9 152.745 L
313.288 153.363 L
313.675 155.125 L
314.063 154.953 L
314.45 155.527 L
314.837 156.157 L
315.225 157.646 L
315.612 158.252 L
316 157.324 L
316.388 157.976 L
316.775 157.647 L
317.163 157.92 L
317.55 158.556 L
317.938 160.076 L
318.325 161.372 L
318.712 162.212 L
319.1 163.33 L
319.487 162.364 L
319.875 162.731 L
320.263 163.047 L
320.65 163.854 L
321.038 165.764 L
321.425 166.255 L
321.813 166.992 L
322.2 168.404 L
322.587 168.404 L
322.975 169.704 L
323.362 169.565 L
323.75 170.287 L
324.138 171.771 L
324.525 173.183 L
324.913 173.749 L
325.3 173.258 L
325.688 174.283 L
326.075 176.002 L
326.462 175.734 L
326.85 175.957 L
327.237 178.185 L
327.625 179.216 L
328.013 180.037 L
328.4 179.137 L
328.788 181.371 L
329.175 182.801 L
329.563 184.54 L
329.95 186.496 L
330.337 184.859 L
330.725 185.35 L
331.112 185.35 L
331.5 186.013 L
331.888 186.694 L
332.275 187.91 L
332.663 188.515 L
333.05 190.173 L
333.438 189.333 L
333.825 189.007 L
334.212 189.474 L
334.6 187.94 L
334.987 187.772 L
335.375 187.772 L
335.763 188.237 L
336.15 188.042 L
336.538 188.079 L
336.925 187.124 L
337.313 187.348 L
337.7 187.175 L
338.087 187.29 L
338.475 186.077 L
338.862 185.738 L
339.25 185.524 L
339.638 186.09 L
340.025 185.411 L
340.413 185.384 L
340.8 185.329 L
341.188 184.838 L
341.575 183.998 L
341.962 183.398 L
342.35 183.435 L
342.737 182.036 L
343.125 182.047 L
343.513 181.597 L
343.9 181.969 L
344.288 181.614 L
344.675 182.668 L
345.063 182.626 L
345.45 183.298 L
345.837 183.194 L
346.225 183.44 L
346.612 183.565 L
347 182.583 L
347.388 182.816 L
347.775 182.968 L
348.163 184.196 L
348.55 183.645 L
348.938 183.345 L
349.325 183.57 L
349.712 182.947 L
350.1 182.83 L
350.487 184.444 L
350.875 184.559 L
351.263 184.934 L
351.65 184.575 L
352.038 184.484 L
352.425 184.035 L
352.813 183.269 L
353.2 182.391 L
353.587 182.991 L
353.975 182.29 L
354.362 183.194 L
354.75 183.378 L
355.138 182.278 L
355.525 181.063 L
355.913 181.434 L
356.3 181.973 L
356.688 182.605 L
357.075 182.77 L
357.462 182.942 L
357.85 182.063 L
358.237 182.874 L
358.625 183.062 L
359.013 183.984 L
359.4 184.229 L
359.788 184.908 L
360.175 184.556 L
360.563 184.31 L
360.95 184.97 L
361.337 184.359 L
361.725 183.997 L
362.112 184.62 L
362.5 186.192 L
362.888 186.659 L
363.275 186.774 L
363.663 187.144 L
364.05 186.087 L
364.438 185.278 L
364.825 186.357 L
365.212 185.916 L
365.6 186.62 L
365.987 187.684 L
366.375 189.256 L
366.763 189.656 L
367.15 189.849 L
367.538 189.755 L
367.925 189.066 L
368.313 189.729 L
368.7 189.483 L
369.087 189.637 L
369.475 189.249 L
369.862 189.741 L
370.25 186.691 L
370.638 186.737 L
371.025 186.401 L
371.413 185.321 L
371.8 184.673 L
372.188 183.172 L
372.575 182.654 L
372.962 184.618 L
373.35 183.113 L
373.737 182.587 L
374.125 182.404 L
374.513 181.729 L
374.9 182.107 L
375.288 182.311 L
375.675 181.004 L
376.063 181.694 L
376.45 181.15 L
376.837 180.986 L
377.225 180.038 L
377.612 180.962 L
378 180.057 L
378.388 179.507 L
378.775 178.799 L
379.163 178.531 L
379.55 178.215 L
379.938 178.049 L
380.325 178.449 L
380.712 178.036 L
381.1 179.794 L
381.487 179.051 L
381.875 178.04 L
382.263 177.212 L
382.65 176.404 L
383.038 177.028 L
383.425 176.583 L
383.813 177.549 L
384.2 176.853 L
384.587 176.954 L
384.975 175.881 L
385.362 174.896 L
385.75 174.301 L
386.138 173.148 L
386.525 172.935 L
386.913 173.07 L
387.3 171.942 L
387.688 171.93 L
388.075 171.969 L
388.462 171.839 L
388.85 170.927 L
389.237 170.518 L
389.625 171.562 L
390.013 174.041 L
390.4 173.853 L
390.788 174.496 L
391.175 176.33 L
391.563 175.421 L
391.95 176.765 L
392.337 177.959 L
392.725 177.304 L
393.112 178.277 L
393.5 178.366 L
393.888 178.29 L
394.275 177.749 L
394.663 177.856 L
395.05 177.749 L
395.438 178.607 L
395.825 178.511 L
396.212 179.649 L
396.6 179.543 L
396.987 180.163 L
397.375 180.549 L
397.763 181.016 L
398.15 180.446 L
398.538 181.488 L
398.925 181.136 L
399.313 182.03 L
399.7 184.057 L
400.087 183.761 L
400.475 182.393 L
400.862 180.449 L
401.25 181.709 L
401.638 183.244 L
402.025 181.654 L
402.413 182.1 L
402.8 182.1 L
403.188 181.337 L
403.575 181.305 L
403.962 181.189 L
404.35 180.096 L
404.737 180.88 L
405.125 180.569 L
405.513 180.93 L
405.9 180.61 L
406.288 180.527 L
406.675 179.382 L
407.063 179.263 L
407.45 179.029 L
407.837 179.455 L
408.225 180.505 L
408.612 181.209 L
409 181.747 L
409.388 181.304 L
409.775 179.475 L
410.163 178.984 L
410.55 177.461 L
410.938 175.841 L
411.325 176.477 L
411.712 177.452 L
412.1 177.349 L
412.487 176.414 L
412.875 177.118 L
413.263 177.826 L
413.65 177.725 L
414.038 179.32 L
414.425 179.859 L
414.813 180.399 L
415.2 179.308 L
415.587 178.859 L
415.975 178.762 L
416.362 178.501 L
416.75 177.601 L
417.138 177.328 L
417.525 177.832 L
417.913 177.387 L
418.3 176.535 L
418.688 177.21 L
419.075 175.821 L
419.462 174.455 L
419.85 175.115 L
420.237 176.238 L
420.625 176.549 L
421.013 177.437 L
421.4 176.721 L
421.788 178.312 L
422.175 178.993 L
422.563 179.783 L
422.95 180.251 L
423.337 180.359 L
423.725 180.562 L
424.112 181.655 L
424.5 182.45 L
424.888 182.9 L
425.275 182.703 L
425.663 183.714 L
426.05 184.1 L
426.438 184.746 L
426.825 185.385 L
427.212 186.047 L
427.6 184.4 L
427.987 185.013 L
428.375 183.922 L
428.763 183.91 L
429.15 183.723 L
429.538 183.911 L
429.925 184.507 L
430.313 184.802 L
430.7 185.769 L
431.087 186.156 L
431.475 184.819 L
431.862 184.647 L
432.25 184.444 L
432.638 184.074 L
433.025 184.987 L
433.413 184.558 L
433.8 183.609 L
434.188 182.553 L
434.575 181.8 L
434.962 182.004 L
435.35 181.977 L
435.737 181.255 L
436.125 182.218 L
436.513 182.404 L
436.9 182.081 L
437.288 181.823 L
437.675 183.967 L
438.063 184.642 L
438.45 184.915 L
438.837 186.384 L
439.225 186.43 L
439.612 185.77 L
440 186.015 L
440.388 186.113 L
440.775 184.851 L
441.163 184.679 L
441.55 184.524 L
441.938 183.502 L
442.325 181.702 L
442.712 181.596 L
443.1 181.611 L
443.487 182.001 L
443.875 181.845 L
444.263 180.084 L
444.65 180.561 L
445.038 179.927 L
445.425 178.916 L
445.813 178.998 L
446.2 178.739 L
446.587 178.973 L
446.975 178.534 L
447.362 179.171 L
447.75 177.765 L
448.138 177.152 L
448.525 176.918 L
448.913 175.896 L
449.3 176.226 L
449.688 175.581 L
450.075 175.931 L
450.462 174.303 L
450.85 173.038 L
451.237 174.757 L
451.625 174.557 L
452.013 175.6 L
452.4 175.524 L
452.788 175.452 L
453.175 175.58 L
453.563 174.703 L
453.95 175.759 L
454.337 175.261 L
454.725 175.991 L
455.112 175.746 L
455.5 175.991 L
455.888 175.561 L
456.275 176.057 L
456.663 175.833 L
457.05 175.17 L
457.438 173.489 L
457.825 173.189 L
458.212 171.623 L
458.6 170.778 L
458.987 169.81 L
459.375 169.236 L
459.763 167.722 L
460.15 167.188 L
460.538 166.692 L
460.925 166.864 L
461.313 165.555 L
461.7 165.225 L
462.087 164.691 L
462.475 164.037 L
462.862 163.846 L
463.25 163.846 L
463.638 163.354 L
464.025 164.134 L
464.413 162.278 L
464.8 162.875 L
465.188 162.554 L
465.575 161.619 L
465.962 161.114 L
466.35 160.066 L
466.737 159.512 L
467.125 159.512 L
467.513 158.816 L
467.9 158.984 L
468.288 159.218 L
468.675 159.228 L
469.063 159.122 L
469.45 159.546 L
469.837 160.206 L
470.225 161.059 L
470.612 164.064 L
471 162.979 L
471.388 163.623 L
471.775 162.455 L
472.163 163.036 L
472.55 162.545 L
472.938 162.095 L
473.325 162.826 L
473.712 162.063 L
474.1 162.881 L
474.487 163.928 L
474.875 163.928 L
475.263 163.682 L
475.65 163.294 L
476.038 163.021 L
476.425 162.776 L
476.813 163.555 L
477.2 164.658 L
477.587 164.167 L
477.975 164.915 L
478.362 164.874 L
478.75 165.953 L
479.138 165.002 L
479.525 165.388 L
479.913 165.175 L
480.3 164.034 L
480.688 162.135 L
481.075 161.676 L
481.462 161.589 L
481.85 161.453 L
482.237 162.354 L
482.625 161.679 L
483.013 161.679 L
483.4 160.86 L
483.788 161.626 L
484.175 162.174 L
484.563 162.56 L
484.95 162.998 L
485.337 163.387 L
485.725 164.409 L
486.112 165.117 L
486.5 166.485 L
486.888 166.918 L
487.275 167.485 L
487.663 167.522 L
488.05 168.223 L
488.438 168.33 L
488.825 168.601 L
489.212 168.365 L
489.6 167.354 L
489.987 167.132 L
490.375 166.15 L
490.763 165.879 L
491.15 165.606 L
491.538 166.441 L
491.925 165.6 L
492.313 165.682 L
492.7 166.433 L
493.087 165.819 L
493.475 165.936 L
493.862 165.526 L
494.25 165.009 L
494.638 164.563 L
495.025 164.456 L
495.413 164.105 L
495.8 164.351 L
496.188 163.778 L
496.575 165.067 L
496.962 164.751 L
497.35 164.676 L
497.737 165.109 L
498.125 164.798 L
498.513 163.106 L
498.9 164.281 L
499.288 164.23 L
499.675 165.223 L
500.063 166.975 L
500.45 167.237 L
500.837 167.98 L
501.225 168.407 L
501.612 167.931 L
502 166.439 L
502.388 166.451 L
502.775 166.308 L
503.163 166.635 L
503.55 165.215 L
503.938 164.572 L
504.325 163.198 L
504.712 162.326 L
505.1 162.404 L
505.487 161.85 L
505.875 163.301 L
506.263 162.251 L
506.65 161.251 L
507.038 160.319 L
507.425 160.599 L
507.813 159.674 L
508.2 159.183 L
508.587 158.249 L
508.975 158.036 L
509.362 156.983 L
509.75 157.58 L
510.138 156.083 L
510.525 155.352 L
510.913 154.534 L
511.3 153.795 L
511.688 153.407 L
512.075 152.718 L
512.463 153.077 L
512.85 153.616 L
513.237 154.352 L
513.625 155.408 L
514.013 155.149 L
514.4 155.062 L
514.787 155.891 L
515.175 155.48 L
515.563 156.38 L
515.95 157.744 L
516.338 156.823 L
516.725 156.297 L
517.112 156.413 L
517.5 156.525 L
517.888 158.105 L
518.275 159.974 L
518.662 159.679 L
519.05 159.25 L
519.438 158.073 L
519.825 157.462 L
520.213 157.667 L
520.6 158.201 L
520.987 158.191 L
521.375 158.649 L
521.763 158.62 L
522.15 157.554 L
522.537 156.345 L
522.925 157.572 L
523.313 157.982 L
523.7 158.013 L
524.088 158.329 L
524.475 158.968 L
524.862 158.413 L
525.25 158.062 L
525.638 156.834 L
526.025 155.911 L
526.412 155.911 L
526.8 155.614 L
527.188 155.334 L
527.575 155.792 L
527.963 155.716 L
528.35 155.911 L
528.737 157.459 L
529.125 158.161 L
529.513 156.815 L
529.9 157.166 L
530.287 157.534 L
530.675 156.897 L
531.063 155.884 L
531.45 155.247 L
531.838 153.109 L
532.225 150.703 L
532.612 149.69 L
533 147.453 L
533.388 146.051 L
533.775 143.738 L
534.162 142.772 L
534.55 141.435 L
534.938 140.7 L
535.325 138.988 L
535.713 137.849 L
536.1 136.351 L
536.487 135.708 L
536.875 135.667 L
537.263 134.25 L
537.65 131.958 L
538.037 129.855 L
538.425 129.394 L
538.813 129.691 L
539.2 129.467 L
539.588 128.42 L
539.975 128.42 L
540.362 128.42 L
540.75 127.593 L
541.138 127.206 L
541.525 127.885 L
541.912 127.745 L
542.3 127.725 L
542.688 125.907 L
543.075 125.53 L
543.463 125.625 L
543.85 125.332 L
544.237 124.055 L
544.625 124.647 L
545.013 123.454 L
545.4 122.577 L
545.787 122.685 L
546.175 121.982 L
546.563 122.391 L
546.95 121.916 L
547.338 120.929 L
547.725 121.201 L
548.112 121.174 L
548.5 118.718 L
548.888 118.864 L
549.275 119.147 L
549.662 118.046 L
550.05 117.604 L
550.438 116.767 L
550.825 116.377 L
551.213 116.137 L
551.6 116.958 L
551.987 117.27 L
552.375 117.038 L
552.763 117.458 L
553.15 116.477 L
553.537 117.714 L
553.925 117.767 L
554.313 117.247 L
554.7 118.394 L
555.088 117.627 L
555.475 117.842 L
555.862 116.953 L
556.25 116.041 L
556.638 114.813 L
557.025 115.048 L
557.412 114.203 L
557.8 114.707 L
558.188 114.707 L
558.575 114.778 L
558.963 114.904 L
559.35 114.992 L
559.737 114.787 L
560.125 113.605 L
560.513 113.24 L
560.9 111.991 L
561.287 110.541 L
561.675 110.554 L
562.063 109.854 L
562.45 109.074 L
562.838 108.007 L
563.225 107.499 L
563.612 106.271 L
564 106.437 L
564.388 104.503 L
564.775 104.107 L
565.162 103.113 L
565.55 102.977 L
565.938 103.019 L
566.325 101.717 L
566.713 100.49 L
567.1 99.353 L
567.487 97.432 L
567.875 95.871 L
568.263 94.861 L
568.65 93.156 L
569.037 92.221 L
569.425 91.267 L
569.813 89.834 L
570.2 89.044 L
570.588 88.582 L
570.975 87.292 L
571.362 86.688 L
571.75 85.71 L
572.138 84.37 L
572.525 83.302 L
572.912 83.051 L
573.3 81.618 L
573.688 81.593 L
574.075 80.68 L
574.463 78.91 L
574.85 78.039 L
575.237 77.364 L
575.625 77.405 L
576.013 78.223 L
576.4 77.745 L
576.787 76.118 L
577.175 75.897 L
577.563 75.211 L
577.95 74.166 L
578.338 73.78 L
578.725 72.594 L
579.112 72.117 L
579.5 71.431 L
579.888 71.497 L
580.275 70.95 L
580.662 71.869 L
581.05 71.583 L
581.438 70.788 L
581.825 70.346 L
582.213 70.297 L
582.6 69.847 L
582.987 69.364 L
583.375 69.364 L
583.763 68.259 L
584.15 67.866 L
584.537 67.387 L
584.925 66.899 L
585.313 65.742 L
585.7 65.018 L
586.088 65.261 L
586.475 65.304 L
586.862 65.01 L
587.25 66.589 L
587.638 67.994 L
588.025 69.347 L
588.412 69.025 L
588.8 68.437 L
589.188 68.483 L
589.575 68.499 L
589.963 69.661 L
590.35 69.524 L
590.737 70.102 L
591.125 71.36 L
591.513 72.145 L
591.9 73.198 L
592.287 74.732 L
592.675 74.928 L
593.063 74.872 L
593.45 74.657 L
593.838 75.289 L
594.225 77.303 L
594.612 78.197 L
595 77.458 L
595.388 78.607 L
595.775 77.685 L
596.162 77.692 L
596.55 77.718 L
596.938 77.619 L
597.325 78.363 L
597.713 80.164 L
598.1 80.91 L
598.487 83.233 L
598.875 84.145 L
599.263 83.931 L
599.65 82.912 L
600.037 82.491 L
600.425 81.523 L
600.813 81.754 L
601.2 81.813 L
601.588 82.301 L
601.975 82.437 L
602.362 83.231 L
602.75 83.622 L
603.138 83.622 L
603.525 84.045 L
603.912 84.325 L
604.3 84.272 L
604.688 84.734 L
605.075 85.049 L
605.463 85.215 L
605.85 85.405 L
606.237 85.36 L
606.625 85.55 L
607.013 84.33 L
607.4 83.834 L
607.787 83.525 L
608.175 83.965 L
608.563 84.533 L
608.95 84.327 L
609.338 84.751 L
609.725 83.806 L
610.112 84.063 L
610.5 83.503 L
610.888 81.815 L
611.275 81.109 L
611.662 80.67 L
612.05 79.484 L
612.438 79.059 L
612.825 79.116 L
613.213 78.684 L
613.6 78.04 L
613.987 76.17 L
614.375 75.393 L
614.763 74.93 L
615.15 73.372 L
615.537 73.181 L
615.925 73.09 L
616.313 73.068 L
616.7 73.127 L
617.088 72.061 L
617.475 69.704 L
617.862 68.069 L
618.25 65.998 L
618.638 65.136 L
619.025 66.972 L
619.412 66.831 L
619.8 67.143 L
620.188 67.259 L
620.575 67.117 L
620.963 68.232 L
621.35 68.985 L
621.737 70.661 L
622.125 69.961 L
622.513 69.79 L
622.9 69.612 L
623.287 69.367 L
623.675 68.898 L
624.063 69.148 L
624.45 69.22 L
624.838 68.904 L
625.225 69.746 L
625.612 69.68 L
626 70.659 L
626.388 70.948 L
626.775 71.093 L
627.162 71.919 L
627.55 72.475 L
627.938 72.475 L
628.325 72.135 L
628.713 72.64 L
629.1 74.097 L
629.487 74.001 L
629.875 74.133 L
630.263 73.998 L
630.65 74.583 L
631.037 75.033 L
631.425 74.528 L
631.813 74.832 L
632.2 75.329 L
632.588 76.173 L
632.975 76.742 L
633.362 78.345 L
633.75 78.234 L
634.138 78.461 L
634.525 78.604 L
634.912 78.791 L
635.3 79.461 L
635.688 79.147 L
636.075 80.693 L
636.463 81.43 L
636.85 82.24 L
637.237 85.031 L
637.625 86.955 L
638.013 88.599 L
638.4 88.735 L
638.787 86.25 L
639.175 86.385 L
639.563 86.787 L
639.95 87.147 L
640.338 87.392 L
640.725 87.447 L
641.112 86.184 L
641.5 84.273 L
641.888 84.149 L
642.275 83.942 L
642.662 84.146 L
643.05 84.231 L
643.438 84.36 L
643.825 86.027 L
644.213 86.697 L
644.6 88.35 L
644.987 87.54 L
645.375 88.639 L
645.763 87.618 L
646.15 88.445 L
646.537 89.486 L
646.925 87.421 L
647.313 85.836 L
647.7 85.733 L
648.088 86.846 L
648.475 87.193 L
648.862 86.545 L
649.25 87.34 L
649.638 87.586 L
650.025 87.632 L
650.412 87.247 L
650.8 87.379 L
651.188 88.651 L
651.575 88.448 L
651.963 89.246 L
652.35 90.416 L
652.737 89.578 L
653.125 88.191 L
653.513 88.805 L
653.9 89.262 L
654.287 89.478 L
654.675 90.409 L
655.063 89.747 L
655.45 90.372 L
655.838 89.584 L
656.225 89.544 L
656.612 88.809 L
657 87.929 L
657.388 87.107 L
657.775 87.204 L
658.162 86.528 L
658.55 87.123 L
658.938 87.792 L
659.325 87.39 L
659.713 87.67 L
660.1 88.35 L
660.487 88.907 L
660.875 89.905 L
661.263 90.768 L
661.65 91.013 L
662.037 91.651 L
662.425 91.109 L
662.813 91.337 L
663.2 91.317 L
663.588 89.696 L
663.975 88.577 L
664.362 88.344 L
664.75 88.01 L
665.138 86.468 L
665.525 86.368 L
665.912 85.32 L
666.3 83.862 L
666.688 83.832 L
667.075 84.121 L
667.463 84.028 L
667.85 83.523 L
668.237 84.77 L
668.625 85.535 L
669.013 86.063 L
669.4 85.763 L
669.787 87.433 L
670.175 88.016 L
670.563 87.177 L
670.95 86.034 L
671.338 85.457 L
671.725 84.34 L
672.112 83.372 L
672.5 84.661 L
672.888 85.473 L
673.275 86.829 L
673.662 86.788 L
674.05 86.469 L
674.438 85.829 L
674.825 85.739 L
675.213 85.266 L
675.6 84.459 L
675.987 85.336 L
676.375 85.1 L
676.763 83.813 L
677.15 82.62 L
677.537 81.574 L
677.925 83.371 L
678.313 83.22 L
678.7 82.837 L
679.088 83.164 L
679.475 83.334 L
679.862 83.18 L
680.25 81.352 L
680.638 80.456 L
681.025 79.335 L
681.412 78.756 L
681.8 78.386 L
682.188 78.647 L
682.575 78.121 L
682.963 77.908 L
683.35 77.656 L
683.737 77.907 L
684.125 76.801 L
684.513 76.633 L
684.9 76.734 L
685.287 77.037 L
685.675 76.922 L
686.063 76.954 L
686.45 78.253 L
686.838 78.082 L
687.225 77.879 L
687.612 77.268 L
688 74.929 L
688.388 74.035 L
688.775 72.607 L
689.162 73.304 L
689.55 71.833 L
689.938 72.002 L
690.325 72.8 L
690.713 74.036 L
691.1 75.26 L
691.487 75.456 L
691.875 74.506 L
692.263 74.203 L
692.65 73.62 L
693.037 72.974 L
693.425 72.252 L
693.813 72.4 L
694.2 72.017 L
694.588 72.465 L
694.975 73.127 L
695.362 74.411 L
695.75 73.38 L
696.138 74.062 L
696.525 73.815 L
696.912 74.136 L
697.3 73.901 L
697.688 72.849 L
698.075 72.532 L
698.463 73.287 L
698.85 73.287 L
699.237 73.169 L
699.625 72.433 L
700.013 72.605 L
700.4 72.827 L
700.787 74.013 L
701.175 74.572 L
701.563 75.329 L
701.95 75.478 L
702.338 75.894 L
702.725 75.778 L
703.112 76.667 L
703.5 78.573 L
703.888 79.151 L
704.275 79.973 L
704.662 80.209 L
705.05 80.013 L
705.438 79.826 L
705.825 79.971 L
706.213 79.47 L
706.6 80.347 L
706.987 80.287 L
707.375 80.63 L
707.763 81.161 L
708.15 80.852 L
708.537 81.41 L
708.925 81.232 L
709.313 81.235 L
709.7 81.102 L
710.088 80.66 L
710.475 79.82 L
710.862 79.209 L
711.25 79.016 L
711.638 79.462 L
712.025 79.331 L
712.412 78.824 L
712.8 77.927 L
713.188 78.588 L
713.575 78.628 L
713.963 78.596 L
714.35 78.126 L
714.737 78.716 L
715.125 77.842 L
715.513 76.912 L
715.9 77.529 L
716.287 78.625 L
716.675 78.312 L
717.063 77.446 L
717.45 77.303 L
717.838 77.478 L
718.225 77.175 L
718.612 77.994 L
719 77.293 L
719.388 76.991 L
719.775 76.701 L
720.162 76.688 L
720.55 75.585 L
720.938 75.585 L
721.325 74.591 L
721.713 74.342 L
722.1 74.052 L
722.487 74.272 L
722.875 73.522 L
723.263 72.06 L
723.65 71.36 L
724.037 71.019 L
724.425 70.658 L
724.813 70.739 L
725.2 70.854 L
725.588 70.896 L
725.975 70.15 L
726.362 69.624 L
726.75 69.586 L
727.138 69.037 L
727.525 68.724 L
727.912 69.42 L
728.3 69.445 L
728.688 69.636 L
729.075 69.982 L
729.463 69.822 L
729.85 70.193 L
730.237 70.352 L
730.625 69.91 L
731.013 70.623 L
731.4 70.473 L
731.787 69.781 L
732.175 70.351 L
732.563 70.1 L
732.95 69.408 L
733.338 70.436 L
733.725 71.003 L
734.112 71.185 L
734.5 69.937 L
734.888 69.94 L
735.275 70.518 L
735.662 69.532 L
736.05 69.233 L
736.438 69.196 L
736.825 69.93 L
737.213 69.667 L
737.6 70.188 L
737.987 70.086 L
738.375 69.677 L
738.763 70.824 L
739.15 70.84 L
739.537 71.297 L
739.925 72.067 L
740.313 72.221 L
740.7 72.448 L
741.088 73.857 L
741.475 73.882 L
741.862 74.2 L
742.25 73.972 L
742.638 74.332 L
743.025 74.683 L
743.412 75.365 L
743.8 75.911 L
744.188 75.874 L
744.575 76.044 L
744.963 76.101 L
745.35 76.322 L
745.737 76.743 L
746.125 78.05 L
746.513 78.445 L
746.9 79.057 L
747.287 79.248 L
747.675 78.679 L
748.063 78.961 L
748.45 78.001 L
748.838 77.621 L
749.225 77.638 L
749.612 77.591 L
750 76.95 L
750.388 76.792 L
750.775 76.505 L
751.162 75.892 L
751.55 76.51 L
751.938 76.622 L
752.325 76.675 L
752.713 77.367 L
753.1 77.097 L
753.487 76.808 L
753.875 77.91 L
754.263 78.035 L
754.65 78.21 L
755.037 78.47 L
755.425 78.939 L
755.813 78.126 L
756.2 78.078 L
756.588 77.873 L
756.975 78.336 L
757.362 77.957 L
757.75 77.428 L
758.138 76.2 L
758.525 74.977 L
758.912 75.219 L
759.3 76.152 L
759.688 75.829 L
760.075 76.084 L
760.463 76.81 L
760.85 75.418 L
761.237 76.012 L
761.625 75.858 L
762.013 76.304 L
762.4 76.336 L
762.787 75.853 L
763.175 76.035 L
763.563 75.625 L
763.95 76.225 L
764.338 75.962 L
764.725 75.804 L
765.112 75.667 L
765.5 76.737 L
765.888 75.149 L
766.275 75.091 L
766.662 75.268 L
767.05 75.362 L
767.438 75.411 L
767.825 74.555 L
768.213 76.334 L
768.6 76.743 L
768.987 76.925 L
769.375 76.45 L
769.763 77.432 L
770.15 77.962 L
770.537 77.957 L
770.925 78.476 L
771.313 78.984 L
771.7 78.67 L
772.088 78.735 L
772.475 80.11 L
772.862 80.11 L
773.25 80.438 L
773.638 79.779 L
774.025 80.005 L
774.412 80.013 L
774.8 80.013 L
775.188 79.578 L
775.575 80.17 L
775.963 80.589 L
776.35 79.975 L
776.737 80.831 L
777.125 81.755 L
777.513 81.416 L
777.9 81.863 L
778.287 82.317 L
778.675 82.154 L
779.063 81.591 L
779.45 80.733 L
779.838 80.41 L
780.225 78.903 L
780.612 78.853 L
781 78.403 L
781.388 79.117 L
781.775 79.17 L
782.162 79.005 L
782.55 79.243 L
782.938 78.788 L
783.325 78.162 L
783.713 77.673 L
784.1 77.817 L
784.487 77.884 L
784.875 77.766 L
785.263 77.441 L
785.65 77.43 L
786.037 77.654 L
786.425 77.744 L
786.813 78.037 L
787.2 77.884 L
787.588 78.74 L
787.975 77.726 L
788.362 77.677 L
788.75 77.032 L
789.138 77.636 L
789.525 77.825 L
789.912 77.563 L
790.3 77.517 L
790.688 77.585 L
791.075 76.423 L
791.463 75.918 L
791.85 76.307 L
792.237 74.085 L
792.625 73.792 L
793.013 73.652 L
793.4 73.403 L
793.787 74.301 L
794.175 74.134 L
794.563 73.573 L
794.95 73.168 L
795.338 72.525 L
795.725 72.607 L
796.112 73.309 L
796.5 71.826 L
796.888 70.739 L
797.275 71.424 L
797.662 71.573 L
798.05 72.497 L
798.438 72.418 L
798.825 71.997 L
799.213 72.849 L
799.6 73.506 L
799.987 73.867 L
800.375 73.729 L
800.763 73.567 L
801.15 73.268 L
801.537 73.315 L
801.925 72.746 L
802.313 72.631 L
802.7 72.514 L
803.088 73.595 L
803.475 73.686 L
803.862 74.322 L
804.25 74.558 L
804.638 75.029 L
805.025 74.052 L
805.412 74.188 L
805.8 74.124 L
806.188 73.91 L
806.575 73.448 L
806.963 72.942 L
807.35 72.649 L
807.737 72.884 L
808.125 72.649 L
808.513 73.021 L
808.9 73.246 L
809.287 73.033 L
809.675 73.998 L
810.063 73.451 L
810.45 74.205 L
810.838 74.804 L
811.225 75.963 L
811.612 75.173 L
812 75.457 L
812.388 75.227 L
812.775 75.576 L
813.162 75.901 L
813.55 75.157 L
813.938 75.46 L
814.325 75.374 L
814.713 75.47 L
815.1 75.246 L
815.487 75.706 L
815.875 76.057 L
816.263 76.107 L
816.65 76.721 L
817.037 76.904 L
817.425 77.663 L
817.813 76.815 L
818.2 76.888 L
818.588 77.186 L
818.975 77.023 L
819.362 77.439 L
819.75 77.6 L
820.138 77.655 L
820.525 77.749 L
820.912 77.196 L
821.3 77.573 L
821.688 77.612 L
822.075 77.935 L
822.463 78.001 L
822.85 76.9 L
823.237 76.73 L
823.625 76.4 L
824.013 76.094 L
824.4 75.615 L
824.787 76.326 L
825.175 76.822 L
825.563 76.301 L
825.95 76.487 L
826.338 76.479 L
826.725 76.798 L
827.112 77.108 L
827.5 76.343 L
827.888 76.965 L
828.275 76.638 L
828.662 75.89 L
829.05 75.797 L
829.438 75.059 L
829.825 76.509 L
830.213 76.509 L
830.6 77.098 L
830.987 76.562 L
831.375 76.6 L
831.763 76.554 L
832.15 76.436 L
832.537 75.624 L
832.925 75.252 L
833.313 74.932 L
833.7 74.869 L
834.088 75.966 L
834.475 76.023 L
834.862 76.247 L
835.25 75.838 L
835.638 75.932 L
836.025 76.629 L
836.412 76.28 L
836.8 76.639 L
837.188 75.641 L
837.575 75.416 L
837.963 75.93 L
838.35 76.532 L
838.737 76.803 L
839.125 76.599 L
839.513 76.506 L
839.9 76.979 L
840.287 77.321 L
840.675 77.585 L
841.063 76.96 L
841.45 77.376 L
841.838 77.567 L
842.225 77.811 L
842.612 78.268 L
843 79.928 L
843.388 79.886 L
843.775 80.184 L
844.162 81.204 L
844.55 81.803 L
844.938 82.147 L
845.325 82.6 L
845.713 82.751 L
846.1 83.179 L
846.487 83.425 L
846.875 83.519 L
847.263 84.407 L
847.65 83.494 L
848.037 85.138 L
848.425 85.886 L
848.813 84.987 L
849.2 84.663 L
849.588 83.633 L
849.975 83.749 L
850.362 82.607 L
850.75 82.655 L
851.138 83.147 L
851.525 84.078 L
851.912 84.214 L
852.3 84.403 L
852.688 84.993 L
853.075 85.145 L
853.463 85.401 L
853.85 85.48 L
854.237 85.185 L
854.625 85.293 L
855.013 84.991 L
855.4 84.255 L
855.787 83.802 L
856.175 83.691 L
856.563 83.2 L
856.95 83.077 L
857.338 83.585 L
857.725 84.364 L
858.112 83.82 L
858.5 84.077 L
858.888 83.941 L
859.275 84.294 L
859.662 84.959 L
860.05 85.208 L
860.438 85.485 L
860.825 85.824 L
861.213 86.718 L
861.6 86.23 L
861.987 86.163 L
862.375 87.171 L
862.763 86.129 L
863.15 87.562 L
863.537 89.256 L
863.925 88.24 L
864.313 87.711 L
864.7 87.4 L
865.088 87.651 L
865.475 86.7 L
865.862 86.763 L
866.25 86.331 L
866.638 85.524 L
867.025 86.67 L
867.412 86.581 L
867.8 85.237 L
868.188 84.91 L
868.575 86.021 L
868.963 86.359 L
869.35 87.115 L
869.737 86.42 L
870.125 86.948 L
870.513 86.878 L
870.9 86.841 L
871.287 87.336 L
871.675 88.225 L
872.063 89.237 L
872.45 88.853 L
872.838 90.956 L
873.225 90.973 L
873.612 90.986 L
874 91.28 L
874.388 91.348 L
874.775 91.813 L
875.162 92.83 L
875.55 92.81 L
875.938 93.379 L
876.325 92.929 L
876.713 93.513 L
877.1 93.045 L
877.487 92.596 L
877.875 92.401 L
878.263 92.494 L
878.65 91.661 L
879.037 91.257 L
879.425 90.958 L
879.813 91.28 L
880.2 91.163 L
880.588 90.746 L
880.975 90.082 L
881.362 89.491 L
881.75 89.439 L
882.138 88.669 L
882.525 88.559 L
882.912 87.087 L
883.3 86.194 L
883.688 86.078 L
884.075 85.458 L
884.463 85.611 L
884.85 86.533 L
885.237 87.66 L
885.625 88.197 L
886.013 88.833 L
886.4 89.794 L
886.787 88.289 L
887.175 88.813 L
887.563 90.099 L
887.95 90.322 L
888.338 89.401 L
888.725 89.077 L
889.112 88.169 L
889.5 88.519 L
889.888 88.243 L
890.275 88.499 L
890.662 88.321 L
891.05 88.027 L
891.438 88.501 L
891.825 87.816 L
892.213 87.452 L
892.6 85.873 L
892.987 85.726 L
893.375 85.095 L
893.763 84.979 L
894.15 85.213 L
894.537 85.755 L
894.925 84.959 L
895.313 85.578 L
895.7 85.406 L
896.088 85.98 L
896.475 86.099 L
896.862 86.611 L
897.25 86.412 L
897.638 86.62 L
898.025 86.086 L
898.412 86.886 L
898.8 87.336 L
899.188 87.116 L
899.575 86.708 L
899.963 87.075 L
900.35 87.923 L
900.737 88.074 L
901.125 89.022 L
901.513 89.163 L
901.9 89.353 L
902.287 89.755 L
902.675 90.298 L
903.063 89.574 L
903.45 90.608 L
903.838 91.422 L
904.225 91.075 L
904.612 89.682 L
905 89.08 L
S
GR
%%Trailer
%%Pages: 1
%%EOF
