%!PS-Adobe-3.0 EPSF-3.0
%%Creator: (MATLAB, The Mathworks, Inc. Version 9.0.0.341360 \(R2016a\). Operating System: Linux)
%%Title: report/figures/sm_base_log_softmax3_ratio.eps
%%CreationDate: 2017-02-04T23:56:33
%%Pages: (atend)
%%BoundingBox:    59     4   910   325
%%LanguageLevel: 3
%%EndComments
%%BeginProlog
%%BeginResource: procset (Apache XML Graphics Std ProcSet) 1.2 0
%%Version: 1.2 0
%%Copyright: (Copyright 2001-2003,2010 The Apache Software Foundation. License terms: http://www.apache.org/licenses/LICENSE-2.0)
/bd{bind def}bind def
/ld{load def}bd
/GR/grestore ld
/M/moveto ld
/LJ/setlinejoin ld
/C/curveto ld
/f/fill ld
/LW/setlinewidth ld
/GC/setgray ld
/t/show ld
/N/newpath ld
/CT/concat ld
/cp/closepath ld
/S/stroke ld
/L/lineto ld
/CC/setcmykcolor ld
/A/ashow ld
/GS/gsave ld
/RC/setrgbcolor ld
/RM/rmoveto ld
/ML/setmiterlimit ld
/re {4 2 roll M
1 index 0 rlineto
0 exch rlineto
neg 0 rlineto
cp } bd
/_ctm matrix def
/_tm matrix def
/BT { _ctm currentmatrix pop matrix _tm copy pop 0 0 moveto } bd
/ET { _ctm setmatrix } bd
/iTm { _ctm setmatrix _tm concat } bd
/Tm { _tm astore pop iTm 0 0 moveto } bd
/ux 0.0 def
/uy 0.0 def
/F {
  /Tp exch def
  /Tf exch def
  Tf findfont Tp scalefont setfont
  /cf Tf def  /cs Tp def
} bd
/ULS {currentpoint /uy exch def /ux exch def} bd
/ULE {
  /Tcx currentpoint pop def
  gsave
  newpath
  cf findfont cs scalefont dup
  /FontMatrix get 0 get /Ts exch def /FontInfo get dup
  /UnderlinePosition get Ts mul /To exch def
  /UnderlineThickness get Ts mul /Tt exch def
  ux uy To add moveto  Tcx uy To add lineto
  Tt setlinewidth stroke
  grestore
} bd
/OLE {
  /Tcx currentpoint pop def
  gsave
  newpath
  cf findfont cs scalefont dup
  /FontMatrix get 0 get /Ts exch def /FontInfo get dup
  /UnderlinePosition get Ts mul /To exch def
  /UnderlineThickness get Ts mul /Tt exch def
  ux uy To add cs add moveto Tcx uy To add cs add lineto
  Tt setlinewidth stroke
  grestore
} bd
/SOE {
  /Tcx currentpoint pop def
  gsave
  newpath
  cf findfont cs scalefont dup
  /FontMatrix get 0 get /Ts exch def /FontInfo get dup
  /UnderlinePosition get Ts mul /To exch def
  /UnderlineThickness get Ts mul /Tt exch def
  ux uy To add cs 10 mul 26 idiv add moveto Tcx uy To add cs 10 mul 26 idiv add lineto
  Tt setlinewidth stroke
  grestore
} bd
/QT {
/Y22 exch store
/X22 exch store
/Y21 exch store
/X21 exch store
currentpoint
/Y21 load 2 mul add 3 div exch
/X21 load 2 mul add 3 div exch
/X21 load 2 mul /X22 load add 3 div
/Y21 load 2 mul /Y22 load add 3 div
/X22 load /Y22 load curveto
} bd
/SSPD {
dup length /d exch dict def
{
/v exch def
/k exch def
currentpagedevice k known {
/cpdv currentpagedevice k get def
v cpdv ne {
/upd false def
/nullv v type /nulltype eq def
/nullcpdv cpdv type /nulltype eq def
nullv nullcpdv or
{
/upd true def
} {
/sametype v type cpdv type eq def
sametype {
v type /arraytype eq {
/vlen v length def
/cpdvlen cpdv length def
vlen cpdvlen eq {
0 1 vlen 1 sub {
/i exch def
/obj v i get def
/cpdobj cpdv i get def
obj cpdobj ne {
/upd true def
exit
} if
} for
} {
/upd true def
} ifelse
} {
v type /dicttype eq {
v {
/dv exch def
/dk exch def
/cpddv cpdv dk get def
dv cpddv ne {
/upd true def
exit
} if
} forall
} {
/upd true def
} ifelse
} ifelse
} if
} ifelse
upd true eq {
d k v put
} if
} if
} if
} forall
d length 0 gt {
d setpagedevice
} if
} bd
%%EndResource
%%BeginResource: procset (Apache XML Graphics EPS ProcSet) 1.0 0
%%Version: 1.0 0
%%Copyright: (Copyright 2002-2003 The Apache Software Foundation. License terms: http://www.apache.org/licenses/LICENSE-2.0)
/BeginEPSF { %def
/b4_Inc_state save def         % Save state for cleanup
/dict_count countdictstack def % Count objects on dict stack
/op_count count 1 sub def      % Count objects on operand stack
userdict begin                 % Push userdict on dict stack
/showpage { } def              % Redefine showpage, { } = null proc
0 setgray 0 setlinecap         % Prepare graphics state
1 setlinewidth 0 setlinejoin
10 setmiterlimit [ ] 0 setdash newpath
/languagelevel where           % If level not equal to 1 then
{pop languagelevel             % set strokeadjust and
1 ne                           % overprint to their defaults.
{false setstrokeadjust false setoverprint
} if
} if
} bd
/EndEPSF { %def
count op_count sub {pop} repeat            % Clean up stacks
countdictstack dict_count sub {end} repeat
b4_Inc_state restore
} bd
%%EndResource
%%EndProlog
%%Page: 1 1
%%PageBoundingBox: 0 0 1000 350
%%BeginPageSetup
[1 0 0 -1 0 350] CT
%%EndPageSetup
GS
1 GC
N
0 0 1000 350 re
f
GR
GS
1 GC
N
0 0 1000 350 re
f
GR
GS
1 GC
N
130 289 M
905 289 L
905 26 L
130 26 L
cp
f
GR
GS
0.873 GC
1 LJ
0.5 LW
N
130 289 M
130 26 L
S
GR
GS
0.873 GC
1 LJ
0.5 LW
N
323.75 289 M
323.75 26 L
S
GR
GS
0.873 GC
1 LJ
0.5 LW
N
517.5 289 M
517.5 26 L
S
GR
GS
0.873 GC
1 LJ
0.5 LW
N
711.25 289 M
711.25 26 L
S
GR
GS
0.873 GC
1 LJ
0.5 LW
N
905 289 M
905 26 L
S
GR
GS
0.873 GC
1 LJ
0.5 LW
N
905 289 M
130 289 L
S
GR
GS
0.873 GC
1 LJ
0.5 LW
N
905 238.905 M
130 238.905 L
S
GR
GS
0.873 GC
1 LJ
0.5 LW
N
905 188.81 M
130 188.81 L
S
GR
GS
0.873 GC
1 LJ
0.5 LW
N
905 138.714 M
130 138.714 L
S
GR
GS
0.873 GC
1 LJ
0.5 LW
N
905 88.619 M
130 88.619 L
S
GR
GS
0.873 GC
1 LJ
0.5 LW
N
905 38.524 M
130 38.524 L
S
GR
GS
0.149 GC
2 setlinecap
1 LJ
0.5 LW
N
130 289 M
905 289 L
S
GR
GS
0.149 GC
2 setlinecap
1 LJ
0.5 LW
N
130 289 M
130 281.25 L
S
GR
GS
0.149 GC
2 setlinecap
1 LJ
0.5 LW
N
323.75 289 M
323.75 281.25 L
S
GR
GS
0.149 GC
2 setlinecap
1 LJ
0.5 LW
N
517.5 289 M
517.5 281.25 L
S
GR
GS
0.149 GC
2 setlinecap
1 LJ
0.5 LW
N
711.25 289 M
711.25 281.25 L
S
GR
GS
0.149 GC
2 setlinecap
1 LJ
0.5 LW
N
905 289 M
905 281.25 L
S
GR
GS
[1 0 0 1 130 295] CT
0.149 GC
N
-0.141 5.719 M
-1.672 5.719 -2.438 7.219 QT
-3.203 8.719 -3.203 11.719 QT
-3.203 14.719 -2.438 16.219 QT
-1.672 17.719 -0.141 17.719 QT
1.391 17.719 2.156 16.219 QT
2.922 14.719 2.922 11.719 QT
2.922 8.719 2.156 7.219 QT
1.391 5.719 -0.141 5.719 QT
cp
-0.141 4.156 M
2.313 4.156 3.602 6.094 QT
4.891 8.031 4.891 11.719 QT
4.891 15.406 3.602 17.344 QT
2.313 19.281 -0.141 19.281 QT
-2.594 19.281 -3.891 17.344 QT
-5.188 15.406 -5.188 11.719 QT
-5.188 8.031 -3.891 6.094 QT
-2.594 4.156 -0.141 4.156 QT
cp
f
GR
GS
[1 0 0 1 323.75 295] CT
0.149 GC
N
-9.641 5.719 M
-11.172 5.719 -11.938 7.219 QT
-12.703 8.719 -12.703 11.719 QT
-12.703 14.719 -11.938 16.219 QT
-11.172 17.719 -9.641 17.719 QT
-8.109 17.719 -7.344 16.219 QT
-6.578 14.719 -6.578 11.719 QT
-6.578 8.719 -7.344 7.219 QT
-8.109 5.719 -9.641 5.719 QT
cp
-9.641 4.156 M
-7.188 4.156 -5.898 6.094 QT
-4.609 8.031 -4.609 11.719 QT
-4.609 15.406 -5.898 17.344 QT
-7.188 19.281 -9.641 19.281 QT
-12.094 19.281 -13.391 17.344 QT
-14.688 15.406 -14.688 11.719 QT
-14.688 8.031 -13.391 6.094 QT
-12.094 4.156 -9.641 4.156 QT
cp
-1.135 16.516 M
0.928 16.516 L
0.928 19 L
-1.135 19 L
-1.135 16.516 L
cp
5.238 4.422 M
12.988 4.422 L
12.988 6.078 L
7.051 6.078 L
7.051 9.656 L
7.473 9.5 7.902 9.43 QT
8.332 9.359 8.77 9.359 QT
11.207 9.359 12.637 10.695 QT
14.066 12.031 14.066 14.328 QT
14.066 16.672 12.598 17.977 QT
11.129 19.281 8.457 19.281 QT
7.551 19.281 6.598 19.125 QT
5.645 18.969 4.629 18.656 QT
4.629 16.672 L
5.504 17.156 6.441 17.391 QT
7.379 17.625 8.426 17.625 QT
10.113 17.625 11.098 16.734 QT
12.082 15.844 12.082 14.328 QT
12.082 12.797 11.098 11.906 QT
10.113 11.016 8.426 11.016 QT
7.629 11.016 6.848 11.195 QT
6.066 11.375 5.238 11.75 QT
5.238 4.422 L
cp
f
GR
GS
[1 0 0 1 517.5 295] CT
0.149 GC
N
-4.016 17.344 M
-0.797 17.344 L
-0.797 6.219 L
-4.297 6.922 L
-4.297 5.125 L
-0.813 4.422 L
1.156 4.422 L
1.156 17.344 L
4.375 17.344 L
4.375 19 L
-4.016 19 L
-4.016 17.344 L
cp
f
GR
GS
[1 0 0 1 711.25 295] CT
0.149 GC
N
-13.516 17.344 M
-10.297 17.344 L
-10.297 6.219 L
-13.797 6.922 L
-13.797 5.125 L
-10.313 4.422 L
-8.344 4.422 L
-8.344 17.344 L
-5.125 17.344 L
-5.125 19 L
-13.516 19 L
-13.516 17.344 L
cp
-1.135 16.516 M
0.928 16.516 L
0.928 19 L
-1.135 19 L
-1.135 16.516 L
cp
5.238 4.422 M
12.988 4.422 L
12.988 6.078 L
7.051 6.078 L
7.051 9.656 L
7.473 9.5 7.902 9.43 QT
8.332 9.359 8.77 9.359 QT
11.207 9.359 12.637 10.695 QT
14.066 12.031 14.066 14.328 QT
14.066 16.672 12.598 17.977 QT
11.129 19.281 8.457 19.281 QT
7.551 19.281 6.598 19.125 QT
5.645 18.969 4.629 18.656 QT
4.629 16.672 L
5.504 17.156 6.441 17.391 QT
7.379 17.625 8.426 17.625 QT
10.113 17.625 11.098 16.734 QT
12.082 15.844 12.082 14.328 QT
12.082 12.797 11.098 11.906 QT
10.113 11.016 8.426 11.016 QT
7.629 11.016 6.848 11.195 QT
6.066 11.375 5.238 11.75 QT
5.238 4.422 L
cp
f
GR
GS
[1 0 0 1 905 295] CT
0.149 GC
N
-2.656 17.344 M
4.219 17.344 L
4.219 19 L
-5.031 19 L
-5.031 17.344 L
-3.906 16.172 -1.969 14.219 QT
-0.031 12.266 0.469 11.688 QT
1.406 10.625 1.781 9.891 QT
2.156 9.156 2.156 8.438 QT
2.156 7.281 1.344 6.547 QT
0.531 5.813 -0.781 5.813 QT
-1.703 5.813 -2.734 6.133 QT
-3.766 6.453 -4.938 7.109 QT
-4.938 5.125 L
-3.75 4.641 -2.711 4.398 QT
-1.672 4.156 -0.813 4.156 QT
1.453 4.156 2.797 5.289 QT
4.141 6.422 4.141 8.313 QT
4.141 9.219 3.805 10.023 QT
3.469 10.828 2.578 11.922 QT
2.344 12.203 1.031 13.555 QT
-0.281 14.906 -2.656 17.344 QT
cp
f
GR
GS
[1 0 0 1 517.50037 320] CT
0.149 GC
N
-14.25 9.328 M
-14.25 11.188 L
-15.094 10.766 -16 10.547 QT
-16.906 10.328 -17.859 10.328 QT
-19.344 10.328 -20.078 10.781 QT
-20.813 11.234 -20.813 12.141 QT
-20.813 12.828 -20.281 13.219 QT
-19.75 13.609 -18.172 13.969 QT
-17.484 14.109 L
-15.391 14.563 -14.5 15.383 QT
-13.609 16.203 -13.609 17.688 QT
-13.609 19.359 -14.938 20.336 QT
-16.266 21.313 -18.578 21.313 QT
-19.547 21.313 -20.594 21.125 QT
-21.641 20.938 -22.813 20.563 QT
-22.813 18.516 L
-21.719 19.094 -20.648 19.375 QT
-19.578 19.656 -18.547 19.656 QT
-17.141 19.656 -16.391 19.18 QT
-15.641 18.703 -15.641 17.828 QT
-15.641 17.031 -16.188 16.602 QT
-16.734 16.172 -18.563 15.766 QT
-19.25 15.609 L
-21.094 15.219 -21.906 14.422 QT
-22.719 13.625 -22.719 12.219 QT
-22.719 10.531 -21.516 9.602 QT
-20.313 8.672 -18.109 8.672 QT
-17 8.672 -16.039 8.836 QT
-15.078 9 -14.25 9.328 QT
cp
-8.507 5.547 M
-8.507 8.969 L
-4.444 8.969 L
-4.444 10.5 L
-8.507 10.5 L
-8.507 17.031 L
-8.507 18.5 -8.108 18.922 QT
-7.71 19.344 -6.476 19.344 QT
-4.444 19.344 L
-4.444 21 L
-6.476 21 L
-8.757 21 -9.624 20.148 QT
-10.491 19.297 -10.491 17.031 QT
-10.491 10.5 L
-11.944 10.5 L
-11.944 8.969 L
-10.491 8.969 L
-10.491 5.547 L
-8.507 5.547 L
cp
8.447 14.484 M
8.447 15.453 L
-0.631 15.453 L
-0.506 17.5 0.596 18.57 QT
1.697 19.641 3.666 19.641 QT
4.807 19.641 5.869 19.359 QT
6.932 19.078 7.994 18.516 QT
7.994 20.391 L
6.932 20.844 5.814 21.078 QT
4.697 21.313 3.541 21.313 QT
0.666 21.313 -1.014 19.633 QT
-2.693 17.953 -2.693 15.109 QT
-2.693 12.141 -1.1 10.406 QT
0.494 8.672 3.197 8.672 QT
5.635 8.672 7.041 10.234 QT
8.447 11.797 8.447 14.484 QT
cp
6.479 13.906 M
6.447 12.281 5.564 11.32 QT
4.682 10.359 3.229 10.359 QT
1.572 10.359 0.572 11.289 QT
-0.428 12.219 -0.568 13.922 QT
6.479 13.906 L
cp
13.607 19.188 M
13.607 25.578 L
11.623 25.578 L
11.623 8.969 L
13.607 8.969 L
13.607 10.797 L
14.232 9.719 15.186 9.195 QT
16.139 8.672 17.451 8.672 QT
19.639 8.672 21.014 10.414 QT
22.389 12.156 22.389 15 QT
22.389 17.828 21.014 19.57 QT
19.639 21.313 17.451 21.313 QT
16.139 21.313 15.186 20.789 QT
14.232 20.266 13.607 19.188 QT
cp
20.326 15 M
20.326 12.813 19.436 11.57 QT
18.545 10.328 16.967 10.328 QT
15.404 10.328 14.506 11.57 QT
13.607 12.813 13.607 15 QT
13.607 17.172 14.506 18.414 QT
15.404 19.656 16.967 19.656 QT
18.545 19.656 19.436 18.414 QT
20.326 17.172 20.326 15 QT
cp
f
GR
GS
[1 0 0 1 852 345] CT
0.149 GC
N
2.938 -0.578 M
2.938 -0.734 3.031 -0.859 QT
7.203 -5 L
3.031 -9.156 L
2.938 -9.266 2.938 -9.422 QT
2.938 -9.578 3.055 -9.703 QT
3.172 -9.828 3.344 -9.828 QT
3.484 -9.828 3.641 -9.703 QT
7.781 -5.563 L
11.906 -9.703 L
12.078 -9.828 12.203 -9.828 QT
12.359 -9.828 12.477 -9.711 QT
12.594 -9.594 12.594 -9.422 QT
12.594 -9.266 12.5 -9.156 QT
8.344 -5 L
12.5 -0.859 L
12.594 -0.734 12.594 -0.578 QT
12.594 -0.406 12.477 -0.289 QT
12.359 -0.172 12.203 -0.172 QT
12.047 -0.172 11.906 -0.328 QT
7.781 -4.438 L
3.641 -0.328 L
3.5 -0.172 3.344 -0.172 QT
3.172 -0.172 3.055 -0.305 QT
2.938 -0.438 2.938 -0.578 QT
cp
f
GR
GS
[1 0 0 1 868 345] CT
0.149 GC
N
2.484 -1.656 M
5.703 -1.656 L
5.703 -12.781 L
2.203 -12.078 L
2.203 -13.875 L
5.688 -14.578 L
7.656 -14.578 L
7.656 -1.656 L
10.875 -1.656 L
10.875 0 L
2.484 0 L
2.484 -1.656 L
cp
19.084 -13.281 M
17.553 -13.281 16.787 -11.781 QT
16.021 -10.281 16.021 -7.281 QT
16.021 -4.281 16.787 -2.781 QT
17.553 -1.281 19.084 -1.281 QT
20.615 -1.281 21.381 -2.781 QT
22.146 -4.281 22.146 -7.281 QT
22.146 -10.281 21.381 -11.781 QT
20.615 -13.281 19.084 -13.281 QT
cp
19.084 -14.844 M
21.537 -14.844 22.826 -12.906 QT
24.115 -10.969 24.115 -7.281 QT
24.115 -3.594 22.826 -1.656 QT
21.537 0.281 19.084 0.281 QT
16.631 0.281 15.334 -1.656 QT
14.037 -3.594 14.037 -7.281 QT
14.037 -10.969 15.334 -12.906 QT
16.631 -14.844 19.084 -14.844 QT
cp
f
GR
GS
[1 0 0 1 894 335] CT
0.149 GC
N
5.281 -6.469 M
4.219 -6.469 3.602 -5.742 QT
2.984 -5.016 2.984 -3.75 QT
2.984 -2.484 3.602 -1.758 QT
4.219 -1.031 5.281 -1.031 QT
6.344 -1.031 6.969 -1.758 QT
7.594 -2.484 7.594 -3.75 QT
7.594 -5.016 6.969 -5.742 QT
6.344 -6.469 5.281 -6.469 QT
cp
8.422 -11.406 M
8.422 -9.969 L
7.828 -10.25 7.219 -10.398 QT
6.609 -10.547 6.016 -10.547 QT
4.453 -10.547 3.633 -9.492 QT
2.813 -8.438 2.688 -6.313 QT
3.156 -6.984 3.852 -7.352 QT
4.547 -7.719 5.375 -7.719 QT
7.141 -7.719 8.156 -6.648 QT
9.172 -5.578 9.172 -3.75 QT
9.172 -1.953 8.109 -0.859 QT
7.047 0.234 5.281 0.234 QT
3.266 0.234 2.195 -1.32 QT
1.125 -2.875 1.125 -5.828 QT
1.125 -8.594 2.438 -10.234 QT
3.75 -11.875 5.953 -11.875 QT
6.547 -11.875 7.156 -11.758 QT
7.766 -11.641 8.422 -11.406 QT
cp
f
GR
GS
0.149 GC
2 setlinecap
1 LJ
0.5 LW
N
130 289 M
130 26 L
S
GR
GS
0.149 GC
2 setlinecap
1 LJ
0.5 LW
N
130 289 M
137.75 289 L
S
GR
GS
0.149 GC
2 setlinecap
1 LJ
0.5 LW
N
130 238.905 M
137.75 238.905 L
S
GR
GS
0.149 GC
2 setlinecap
1 LJ
0.5 LW
N
130 188.81 M
137.75 188.81 L
S
GR
GS
0.149 GC
2 setlinecap
1 LJ
0.5 LW
N
130 138.714 M
137.75 138.714 L
S
GR
GS
0.149 GC
2 setlinecap
1 LJ
0.5 LW
N
130 88.619 M
137.75 88.619 L
S
GR
GS
0.149 GC
2 setlinecap
1 LJ
0.5 LW
N
130 38.524 M
137.75 38.524 L
S
GR
GS
[1 0 0 1 124 289] CT
0.149 GC
N
-6.641 -6.281 M
-8.172 -6.281 -8.938 -4.781 QT
-9.703 -3.281 -9.703 -0.281 QT
-9.703 2.719 -8.938 4.219 QT
-8.172 5.719 -6.641 5.719 QT
-5.109 5.719 -4.344 4.219 QT
-3.578 2.719 -3.578 -0.281 QT
-3.578 -3.281 -4.344 -4.781 QT
-5.109 -6.281 -6.641 -6.281 QT
cp
-6.641 -7.844 M
-4.188 -7.844 -2.898 -5.906 QT
-1.609 -3.969 -1.609 -0.281 QT
-1.609 3.406 -2.898 5.344 QT
-4.188 7.281 -6.641 7.281 QT
-9.094 7.281 -10.391 5.344 QT
-11.688 3.406 -11.688 -0.281 QT
-11.688 -3.969 -10.391 -5.906 QT
-9.094 -7.844 -6.641 -7.844 QT
cp
f
GR
GS
[1 0 0 1 124 238.90475] CT
0.149 GC
N
-22.156 5.344 M
-15.281 5.344 L
-15.281 7 L
-24.531 7 L
-24.531 5.344 L
-23.406 4.172 -21.469 2.219 QT
-19.531 0.266 -19.031 -0.313 QT
-18.094 -1.375 -17.719 -2.109 QT
-17.344 -2.844 -17.344 -3.563 QT
-17.344 -4.719 -18.156 -5.453 QT
-18.969 -6.188 -20.281 -6.188 QT
-21.203 -6.188 -22.234 -5.867 QT
-23.266 -5.547 -24.438 -4.891 QT
-24.438 -6.875 L
-23.25 -7.359 -22.211 -7.602 QT
-21.172 -7.844 -20.313 -7.844 QT
-18.047 -7.844 -16.703 -6.711 QT
-15.359 -5.578 -15.359 -3.688 QT
-15.359 -2.781 -15.695 -1.977 QT
-16.031 -1.172 -16.922 -0.078 QT
-17.156 0.203 -18.469 1.555 QT
-19.781 2.906 -22.156 5.344 QT
cp
-6.916 -6.281 M
-8.447 -6.281 -9.213 -4.781 QT
-9.979 -3.281 -9.979 -0.281 QT
-9.979 2.719 -9.213 4.219 QT
-8.447 5.719 -6.916 5.719 QT
-5.385 5.719 -4.619 4.219 QT
-3.854 2.719 -3.854 -0.281 QT
-3.854 -3.281 -4.619 -4.781 QT
-5.385 -6.281 -6.916 -6.281 QT
cp
-6.916 -7.844 M
-4.463 -7.844 -3.174 -5.906 QT
-1.885 -3.969 -1.885 -0.281 QT
-1.885 3.406 -3.174 5.344 QT
-4.463 7.281 -6.916 7.281 QT
-9.369 7.281 -10.666 5.344 QT
-11.963 3.406 -11.963 -0.281 QT
-11.963 -3.969 -10.666 -5.906 QT
-9.369 -7.844 -6.916 -7.844 QT
cp
f
GR
GS
[1 0 0 1 124 188.80952] CT
0.149 GC
N
-18.438 -5.859 M
-23.422 1.922 L
-18.438 1.922 L
-18.438 -5.859 L
cp
-18.953 -7.578 M
-16.484 -7.578 L
-16.484 1.922 L
-14.391 1.922 L
-14.391 3.563 L
-16.484 3.563 L
-16.484 7 L
-18.438 7 L
-18.438 3.563 L
-25.016 3.563 L
-25.016 1.656 L
-18.953 -7.578 L
cp
-6.916 -6.281 M
-8.447 -6.281 -9.213 -4.781 QT
-9.979 -3.281 -9.979 -0.281 QT
-9.979 2.719 -9.213 4.219 QT
-8.447 5.719 -6.916 5.719 QT
-5.385 5.719 -4.619 4.219 QT
-3.854 2.719 -3.854 -0.281 QT
-3.854 -3.281 -4.619 -4.781 QT
-5.385 -6.281 -6.916 -6.281 QT
cp
-6.916 -7.844 M
-4.463 -7.844 -3.174 -5.906 QT
-1.885 -3.969 -1.885 -0.281 QT
-1.885 3.406 -3.174 5.344 QT
-4.463 7.281 -6.916 7.281 QT
-9.369 7.281 -10.666 5.344 QT
-11.963 3.406 -11.963 -0.281 QT
-11.963 -3.969 -10.666 -5.906 QT
-9.369 -7.844 -6.916 -7.844 QT
cp
f
GR
GS
[1 0 0 1 124 138.71428] CT
0.149 GC
N
-19.391 -1.078 M
-20.719 -1.078 -21.5 -0.172 QT
-22.281 0.734 -22.281 2.328 QT
-22.281 3.891 -21.5 4.805 QT
-20.719 5.719 -19.391 5.719 QT
-18.063 5.719 -17.289 4.805 QT
-16.516 3.891 -16.516 2.328 QT
-16.516 0.734 -17.289 -0.172 QT
-18.063 -1.078 -19.391 -1.078 QT
cp
-15.484 -7.266 M
-15.484 -5.469 L
-16.219 -5.813 -16.977 -6 QT
-17.734 -6.188 -18.484 -6.188 QT
-20.438 -6.188 -21.469 -4.867 QT
-22.5 -3.547 -22.641 -0.875 QT
-22.063 -1.734 -21.195 -2.188 QT
-20.328 -2.641 -19.281 -2.641 QT
-17.078 -2.641 -15.805 -1.305 QT
-14.531 0.031 -14.531 2.328 QT
-14.531 4.563 -15.859 5.922 QT
-17.188 7.281 -19.391 7.281 QT
-21.922 7.281 -23.266 5.344 QT
-24.609 3.406 -24.609 -0.281 QT
-24.609 -3.734 -22.969 -5.789 QT
-21.328 -7.844 -18.563 -7.844 QT
-17.813 -7.844 -17.055 -7.695 QT
-16.297 -7.547 -15.484 -7.266 QT
cp
-6.916 -6.281 M
-8.447 -6.281 -9.213 -4.781 QT
-9.979 -3.281 -9.979 -0.281 QT
-9.979 2.719 -9.213 4.219 QT
-8.447 5.719 -6.916 5.719 QT
-5.385 5.719 -4.619 4.219 QT
-3.854 2.719 -3.854 -0.281 QT
-3.854 -3.281 -4.619 -4.781 QT
-5.385 -6.281 -6.916 -6.281 QT
cp
-6.916 -7.844 M
-4.463 -7.844 -3.174 -5.906 QT
-1.885 -3.969 -1.885 -0.281 QT
-1.885 3.406 -3.174 5.344 QT
-4.463 7.281 -6.916 7.281 QT
-9.369 7.281 -10.666 5.344 QT
-11.963 3.406 -11.963 -0.281 QT
-11.963 -3.969 -10.666 -5.906 QT
-9.369 -7.844 -6.916 -7.844 QT
cp
f
GR
GS
[1 0 0 1 124 88.61905] CT
0.149 GC
N
-19.641 0.078 M
-21.047 0.078 -21.852 0.828 QT
-22.656 1.578 -22.656 2.891 QT
-22.656 4.219 -21.852 4.969 QT
-21.047 5.719 -19.641 5.719 QT
-18.234 5.719 -17.422 4.961 QT
-16.609 4.203 -16.609 2.891 QT
-16.609 1.578 -17.414 0.828 QT
-18.219 0.078 -19.641 0.078 QT
cp
-21.609 -0.766 M
-22.891 -1.078 -23.594 -1.945 QT
-24.297 -2.813 -24.297 -4.063 QT
-24.297 -5.813 -23.055 -6.828 QT
-21.813 -7.844 -19.641 -7.844 QT
-17.469 -7.844 -16.227 -6.828 QT
-14.984 -5.813 -14.984 -4.063 QT
-14.984 -2.813 -15.695 -1.945 QT
-16.406 -1.078 -17.656 -0.766 QT
-16.234 -0.438 -15.438 0.531 QT
-14.641 1.5 -14.641 2.891 QT
-14.641 5.016 -15.938 6.148 QT
-17.234 7.281 -19.641 7.281 QT
-22.047 7.281 -23.344 6.148 QT
-24.641 5.016 -24.641 2.891 QT
-24.641 1.5 -23.844 0.531 QT
-23.047 -0.438 -21.609 -0.766 QT
cp
-22.344 -3.875 M
-22.344 -2.75 -21.633 -2.117 QT
-20.922 -1.484 -19.641 -1.484 QT
-18.375 -1.484 -17.656 -2.117 QT
-16.938 -2.75 -16.938 -3.875 QT
-16.938 -5.016 -17.656 -5.648 QT
-18.375 -6.281 -19.641 -6.281 QT
-20.922 -6.281 -21.633 -5.648 QT
-22.344 -5.016 -22.344 -3.875 QT
cp
-6.916 -6.281 M
-8.447 -6.281 -9.213 -4.781 QT
-9.979 -3.281 -9.979 -0.281 QT
-9.979 2.719 -9.213 4.219 QT
-8.447 5.719 -6.916 5.719 QT
-5.385 5.719 -4.619 4.219 QT
-3.854 2.719 -3.854 -0.281 QT
-3.854 -3.281 -4.619 -4.781 QT
-5.385 -6.281 -6.916 -6.281 QT
cp
-6.916 -7.844 M
-4.463 -7.844 -3.174 -5.906 QT
-1.885 -3.969 -1.885 -0.281 QT
-1.885 3.406 -3.174 5.344 QT
-4.463 7.281 -6.916 7.281 QT
-9.369 7.281 -10.666 5.344 QT
-11.963 3.406 -11.963 -0.281 QT
-11.963 -3.969 -10.666 -5.906 QT
-9.369 -7.844 -6.916 -7.844 QT
cp
f
GR
GS
[1 0 0 1 124 38.52381] CT
0.149 GC
N
-36.516 5.344 M
-33.297 5.344 L
-33.297 -5.781 L
-36.797 -5.078 L
-36.797 -6.875 L
-33.313 -7.578 L
-31.344 -7.578 L
-31.344 5.344 L
-28.125 5.344 L
-28.125 7 L
-36.516 7 L
-36.516 5.344 L
cp
-19.916 -6.281 M
-21.447 -6.281 -22.213 -4.781 QT
-22.979 -3.281 -22.979 -0.281 QT
-22.979 2.719 -22.213 4.219 QT
-21.447 5.719 -19.916 5.719 QT
-18.385 5.719 -17.619 4.219 QT
-16.854 2.719 -16.854 -0.281 QT
-16.854 -3.281 -17.619 -4.781 QT
-18.385 -6.281 -19.916 -6.281 QT
cp
-19.916 -7.844 M
-17.463 -7.844 -16.174 -5.906 QT
-14.885 -3.969 -14.885 -0.281 QT
-14.885 3.406 -16.174 5.344 QT
-17.463 7.281 -19.916 7.281 QT
-22.369 7.281 -23.666 5.344 QT
-24.963 3.406 -24.963 -0.281 QT
-24.963 -3.969 -23.666 -5.906 QT
-22.369 -7.844 -19.916 -7.844 QT
cp
-7.191 -6.281 M
-8.723 -6.281 -9.488 -4.781 QT
-10.254 -3.281 -10.254 -0.281 QT
-10.254 2.719 -9.488 4.219 QT
-8.723 5.719 -7.191 5.719 QT
-5.66 5.719 -4.895 4.219 QT
-4.129 2.719 -4.129 -0.281 QT
-4.129 -3.281 -4.895 -4.781 QT
-5.66 -6.281 -7.191 -6.281 QT
cp
-7.191 -7.844 M
-4.738 -7.844 -3.449 -5.906 QT
-2.16 -3.969 -2.16 -0.281 QT
-2.16 3.406 -3.449 5.344 QT
-4.738 7.281 -7.191 7.281 QT
-9.645 7.281 -10.941 5.344 QT
-12.238 3.406 -12.238 -0.281 QT
-12.238 -3.969 -10.941 -5.906 QT
-9.645 -7.844 -7.191 -7.844 QT
cp
f
GR
GS
[0 -1 1 0 82 157.49988] CT
0.149 GC
N
-113.063 -22.031 M
-99.5 -22.031 L
-99.5 -20.219 L
-105.188 -20.219 L
-105.188 -6 L
-107.375 -6 L
-107.375 -20.219 L
-113.063 -20.219 L
-113.063 -22.031 L
cp
-92.015 -12.047 M
-94.421 -12.047 -95.343 -11.5 QT
-96.265 -10.953 -96.265 -9.625 QT
-96.265 -8.578 -95.569 -7.961 QT
-94.874 -7.344 -93.687 -7.344 QT
-92.046 -7.344 -91.054 -8.508 QT
-90.062 -9.672 -90.062 -11.609 QT
-90.062 -12.047 L
-92.015 -12.047 L
cp
-88.077 -12.859 M
-88.077 -6 L
-90.062 -6 L
-90.062 -7.828 L
-90.733 -6.734 -91.741 -6.211 QT
-92.749 -5.688 -94.218 -5.688 QT
-96.062 -5.688 -97.147 -6.727 QT
-98.233 -7.766 -98.233 -9.5 QT
-98.233 -11.531 -96.874 -12.563 QT
-95.515 -13.594 -92.827 -13.594 QT
-90.062 -13.594 L
-90.062 -13.781 L
-90.062 -15.156 -90.952 -15.898 QT
-91.843 -16.641 -93.468 -16.641 QT
-94.499 -16.641 -95.476 -16.398 QT
-96.452 -16.156 -97.358 -15.656 QT
-97.358 -17.484 L
-96.28 -17.906 -95.257 -18.117 QT
-94.233 -18.328 -93.265 -18.328 QT
-90.655 -18.328 -89.366 -16.969 QT
-88.077 -15.609 -88.077 -12.859 QT
cp
-77.033 -16.188 M
-77.361 -16.375 -77.76 -16.469 QT
-78.158 -16.563 -78.627 -16.563 QT
-80.299 -16.563 -81.197 -15.469 QT
-82.096 -14.375 -82.096 -12.344 QT
-82.096 -6 L
-84.08 -6 L
-84.08 -18.031 L
-82.096 -18.031 L
-82.096 -16.156 L
-81.471 -17.266 -80.471 -17.797 QT
-79.471 -18.328 -78.049 -18.328 QT
-77.846 -18.328 -77.596 -18.297 QT
-77.346 -18.266 -77.049 -18.219 QT
-77.033 -16.188 L
cp
-67.051 -12.156 M
-67.051 -14.297 -67.934 -15.484 QT
-68.816 -16.672 -70.41 -16.672 QT
-72.004 -16.672 -72.895 -15.484 QT
-73.785 -14.297 -73.785 -12.156 QT
-73.785 -10.016 -72.895 -8.836 QT
-72.004 -7.656 -70.41 -7.656 QT
-68.816 -7.656 -67.934 -8.836 QT
-67.051 -10.016 -67.051 -12.156 QT
cp
-65.066 -7.5 M
-65.066 -4.422 -66.434 -2.922 QT
-67.801 -1.422 -70.613 -1.422 QT
-71.66 -1.422 -72.582 -1.578 QT
-73.504 -1.734 -74.363 -2.063 QT
-74.363 -3.984 L
-73.504 -3.5 -72.652 -3.281 QT
-71.801 -3.063 -70.926 -3.063 QT
-68.973 -3.063 -68.012 -4.078 QT
-67.051 -5.094 -67.051 -7.141 QT
-67.051 -8.109 L
-67.66 -7.047 -68.613 -6.523 QT
-69.566 -6 -70.895 -6 QT
-73.113 -6 -74.465 -7.688 QT
-75.816 -9.375 -75.816 -12.156 QT
-75.816 -14.953 -74.465 -16.641 QT
-73.113 -18.328 -70.895 -18.328 QT
-69.566 -18.328 -68.613 -17.797 QT
-67.66 -17.266 -67.051 -16.203 QT
-67.051 -18.031 L
-65.066 -18.031 L
-65.066 -7.5 L
cp
-50.711 -12.516 M
-50.711 -11.547 L
-59.789 -11.547 L
-59.664 -9.5 -58.563 -8.43 QT
-57.461 -7.359 -55.492 -7.359 QT
-54.352 -7.359 -53.289 -7.641 QT
-52.227 -7.922 -51.164 -8.484 QT
-51.164 -6.609 L
-52.227 -6.156 -53.344 -5.922 QT
-54.461 -5.688 -55.617 -5.688 QT
-58.492 -5.688 -60.172 -7.367 QT
-61.852 -9.047 -61.852 -11.891 QT
-61.852 -14.859 -60.258 -16.594 QT
-58.664 -18.328 -55.961 -18.328 QT
-53.523 -18.328 -52.117 -16.766 QT
-50.711 -15.203 -50.711 -12.516 QT
cp
-52.68 -13.094 M
-52.711 -14.719 -53.594 -15.68 QT
-54.477 -16.641 -55.93 -16.641 QT
-57.586 -16.641 -58.586 -15.711 QT
-59.586 -14.781 -59.727 -13.078 QT
-52.68 -13.094 L
cp
-45.504 -21.453 M
-45.504 -18.031 L
-41.441 -18.031 L
-41.441 -16.5 L
-45.504 -16.5 L
-45.504 -9.969 L
-45.504 -8.5 -45.105 -8.078 QT
-44.707 -7.656 -43.473 -7.656 QT
-41.441 -7.656 L
-41.441 -6 L
-43.473 -6 L
-45.754 -6 -46.621 -6.852 QT
-47.488 -7.703 -47.488 -9.969 QT
-47.488 -16.5 L
-48.941 -16.5 L
-48.941 -18.031 L
-47.488 -18.031 L
-47.488 -21.453 L
-45.504 -21.453 L
cp
-31.159 -17.672 M
-31.159 -15.813 L
-32.003 -16.234 -32.909 -16.453 QT
-33.815 -16.672 -34.769 -16.672 QT
-36.253 -16.672 -36.987 -16.219 QT
-37.722 -15.766 -37.722 -14.859 QT
-37.722 -14.172 -37.19 -13.781 QT
-36.659 -13.391 -35.081 -13.031 QT
-34.394 -12.891 L
-32.3 -12.438 -31.409 -11.617 QT
-30.519 -10.797 -30.519 -9.313 QT
-30.519 -7.641 -31.847 -6.664 QT
-33.175 -5.688 -35.487 -5.688 QT
-36.456 -5.688 -37.503 -5.875 QT
-38.55 -6.063 -39.722 -6.438 QT
-39.722 -8.484 L
-38.628 -7.906 -37.558 -7.625 QT
-36.487 -7.344 -35.456 -7.344 QT
-34.05 -7.344 -33.3 -7.82 QT
-32.55 -8.297 -32.55 -9.172 QT
-32.55 -9.969 -33.097 -10.398 QT
-33.644 -10.828 -35.472 -11.234 QT
-36.159 -11.391 L
-38.003 -11.781 -38.815 -12.578 QT
-39.628 -13.375 -39.628 -14.781 QT
-39.628 -16.469 -38.425 -17.398 QT
-37.222 -18.328 -35.019 -18.328 QT
-33.909 -18.328 -32.948 -18.164 QT
-31.987 -18 -31.159 -17.672 QT
cp
-13.407 -16.188 M
-13.735 -16.375 -14.134 -16.469 QT
-14.532 -16.563 -15.001 -16.563 QT
-16.673 -16.563 -17.571 -15.469 QT
-18.47 -14.375 -18.47 -12.344 QT
-18.47 -6 L
-20.454 -6 L
-20.454 -18.031 L
-18.47 -18.031 L
-18.47 -16.156 L
-17.845 -17.266 -16.845 -17.797 QT
-15.845 -18.328 -14.423 -18.328 QT
-14.22 -18.328 -13.97 -18.297 QT
-13.72 -18.266 -13.423 -18.219 QT
-13.407 -16.188 L
cp
-1.05 -12.516 M
-1.05 -11.547 L
-10.128 -11.547 L
-10.003 -9.5 -8.901 -8.43 QT
-7.8 -7.359 -5.831 -7.359 QT
-4.69 -7.359 -3.628 -7.641 QT
-2.565 -7.922 -1.503 -8.484 QT
-1.503 -6.609 L
-2.565 -6.156 -3.683 -5.922 QT
-4.8 -5.688 -5.956 -5.688 QT
-8.831 -5.688 -10.511 -7.367 QT
-12.19 -9.047 -12.19 -11.891 QT
-12.19 -14.859 -10.597 -16.594 QT
-9.003 -18.328 -6.3 -18.328 QT
-3.862 -18.328 -2.456 -16.766 QT
-1.05 -15.203 -1.05 -12.516 QT
cp
-3.019 -13.094 M
-3.05 -14.719 -3.933 -15.68 QT
-4.815 -16.641 -6.269 -16.641 QT
-7.925 -16.641 -8.925 -15.711 QT
-9.925 -14.781 -10.065 -13.078 QT
-3.019 -13.094 L
cp
7.673 -12.047 M
5.267 -12.047 4.345 -11.5 QT
3.423 -10.953 3.423 -9.625 QT
3.423 -8.578 4.118 -7.961 QT
4.813 -7.344 6.001 -7.344 QT
7.642 -7.344 8.634 -8.508 QT
9.626 -9.672 9.626 -11.609 QT
9.626 -12.047 L
7.673 -12.047 L
cp
11.61 -12.859 M
11.61 -6 L
9.626 -6 L
9.626 -7.828 L
8.954 -6.734 7.946 -6.211 QT
6.938 -5.688 5.47 -5.688 QT
3.626 -5.688 2.54 -6.727 QT
1.454 -7.766 1.454 -9.5 QT
1.454 -11.531 2.813 -12.563 QT
4.173 -13.594 6.86 -13.594 QT
9.626 -13.594 L
9.626 -13.781 L
9.626 -15.156 8.735 -15.898 QT
7.845 -16.641 6.22 -16.641 QT
5.188 -16.641 4.212 -16.398 QT
3.235 -16.156 2.329 -15.656 QT
2.329 -17.484 L
3.407 -17.906 4.431 -18.117 QT
5.454 -18.328 6.423 -18.328 QT
9.032 -18.328 10.321 -16.969 QT
11.61 -15.609 11.61 -12.859 QT
cp
24.342 -17.563 M
24.342 -15.719 L
23.498 -16.188 22.654 -16.414 QT
21.811 -16.641 20.951 -16.641 QT
19.029 -16.641 17.967 -15.422 QT
16.904 -14.203 16.904 -12 QT
16.904 -9.797 17.967 -8.578 QT
19.029 -7.359 20.951 -7.359 QT
21.811 -7.359 22.654 -7.594 QT
23.498 -7.828 24.342 -8.281 QT
24.342 -6.469 L
23.514 -6.078 22.623 -5.883 QT
21.732 -5.688 20.748 -5.688 QT
18.029 -5.688 16.428 -7.398 QT
14.826 -9.109 14.826 -12 QT
14.826 -14.953 16.443 -16.641 QT
18.061 -18.328 20.873 -18.328 QT
21.779 -18.328 22.654 -18.141 QT
23.529 -17.953 24.342 -17.563 QT
cp
37.781 -13.266 M
37.781 -6 L
35.797 -6 L
35.797 -13.203 L
35.797 -14.906 35.133 -15.758 QT
34.469 -16.609 33.141 -16.609 QT
31.531 -16.609 30.609 -15.586 QT
29.688 -14.563 29.688 -12.797 QT
29.688 -6 L
27.703 -6 L
27.703 -22.719 L
29.688 -22.719 L
29.688 -16.156 L
30.391 -17.25 31.359 -17.789 QT
32.328 -18.328 33.578 -18.328 QT
35.656 -18.328 36.719 -17.039 QT
37.781 -15.75 37.781 -13.266 QT
cp
52.006 -12.516 M
52.006 -11.547 L
42.928 -11.547 L
43.053 -9.5 44.154 -8.43 QT
45.256 -7.359 47.225 -7.359 QT
48.365 -7.359 49.428 -7.641 QT
50.49 -7.922 51.553 -8.484 QT
51.553 -6.609 L
50.49 -6.156 49.373 -5.922 QT
48.256 -5.688 47.1 -5.688 QT
44.225 -5.688 42.545 -7.367 QT
40.865 -9.047 40.865 -11.891 QT
40.865 -14.859 42.459 -16.594 QT
44.053 -18.328 46.756 -18.328 QT
49.193 -18.328 50.6 -16.766 QT
52.006 -15.203 52.006 -12.516 QT
cp
50.037 -13.094 M
50.006 -14.719 49.123 -15.68 QT
48.24 -16.641 46.787 -16.641 QT
45.131 -16.641 44.131 -15.711 QT
43.131 -14.781 42.99 -13.078 QT
50.037 -13.094 L
cp
63.166 -16.203 M
63.166 -22.719 L
65.15 -22.719 L
65.15 -6 L
63.166 -6 L
63.166 -7.813 L
62.557 -6.734 61.604 -6.211 QT
60.65 -5.688 59.322 -5.688 QT
57.135 -5.688 55.768 -7.43 QT
54.4 -9.172 54.4 -12 QT
54.4 -14.844 55.768 -16.586 QT
57.135 -18.328 59.322 -18.328 QT
60.65 -18.328 61.604 -17.805 QT
62.557 -17.281 63.166 -16.203 QT
cp
56.432 -12 M
56.432 -9.828 57.33 -8.586 QT
58.229 -7.344 59.807 -7.344 QT
61.369 -7.344 62.268 -8.586 QT
63.166 -9.828 63.166 -12 QT
63.166 -14.188 62.268 -15.43 QT
61.369 -16.672 59.807 -16.672 QT
58.229 -16.672 57.33 -15.43 QT
56.432 -14.188 56.432 -12 QT
cp
76.03 -22.719 M
80.593 -22.719 L
80.593 -21.172 L
78.015 -21.172 L
78.015 -4.641 L
80.593 -4.641 L
80.593 -3.094 L
76.03 -3.094 L
76.03 -22.719 L
cp
98.723 -13.063 M
97.785 -13.063 97.254 -12.266 QT
96.723 -11.469 96.723 -10.047 QT
96.723 -8.656 97.254 -7.852 QT
97.785 -7.047 98.723 -7.047 QT
99.629 -7.047 100.16 -7.852 QT
100.691 -8.656 100.691 -10.047 QT
100.691 -11.453 100.16 -12.258 QT
99.629 -13.063 98.723 -13.063 QT
cp
98.723 -14.422 M
100.41 -14.422 101.41 -13.242 QT
102.41 -12.063 102.41 -10.047 QT
102.41 -8.047 101.41 -6.867 QT
100.41 -5.688 98.723 -5.688 QT
97.004 -5.688 96.004 -6.867 QT
95.004 -8.047 95.004 -10.047 QT
95.004 -12.063 96.004 -13.242 QT
97.004 -14.422 98.723 -14.422 QT
cp
87.629 -20.969 M
86.707 -20.969 86.176 -20.164 QT
85.645 -19.359 85.645 -17.969 QT
85.645 -16.547 86.168 -15.75 QT
86.691 -14.953 87.629 -14.953 QT
88.566 -14.953 89.098 -15.75 QT
89.629 -16.547 89.629 -17.969 QT
89.629 -19.359 89.09 -20.164 QT
88.551 -20.969 87.629 -20.969 QT
cp
97.332 -22.328 M
99.051 -22.328 L
89.02 -5.688 L
87.301 -5.688 L
97.332 -22.328 L
cp
87.629 -22.328 M
89.332 -22.328 90.34 -21.148 QT
91.348 -19.969 91.348 -17.969 QT
91.348 -15.938 90.348 -14.766 QT
89.348 -13.594 87.629 -13.594 QT
85.926 -13.594 84.934 -14.773 QT
83.941 -15.953 83.941 -17.969 QT
83.941 -19.969 84.941 -21.148 QT
85.941 -22.328 87.629 -22.328 QT
cp
110.314 -22.719 M
110.314 -3.094 L
105.768 -3.094 L
105.768 -4.641 L
108.33 -4.641 L
108.33 -21.172 L
105.768 -21.172 L
105.768 -22.719 L
110.314 -22.719 L
cp
f
GR
GS
0 0.447 0.741 RC
1 LJ
0.5 LW
N
169.525 271.109 M
169.913 253.218 L
170.3 230.064 L
170.688 242.036 L
171.075 271.109 L
171.462 253.218 L
171.85 255.603 L
172.238 230.064 L
172.625 255.603 L
173.012 271.109 L
173.4 271.109 L
173.788 255.603 L
174.175 289 L
174.563 238.905 L
174.95 253.218 L
175.337 272.302 L
175.725 255.603 L
176.113 222.206 L
176.5 272.302 L
176.887 289 L
177.275 255.603 L
177.663 250.465 L
178.05 205.508 L
178.438 253.218 L
178.825 242.036 L
179.212 271.109 L
179.6 242.036 L
179.988 271.109 L
180.375 271.109 L
180.762 271.109 L
181.15 255.603 L
181.538 289 L
181.925 255.603 L
182.313 289 L
182.7 289 L
183.087 255.603 L
183.475 271.109 L
183.863 289 L
184.25 250.465 L
184.637 289 L
185.025 289 L
185.413 191.593 L
185.8 255.603 L
186.188 271.109 L
186.575 269.733 L
186.962 257.69 L
187.35 271.109 L
187.738 255.603 L
188.125 289 L
188.512 289 L
188.9 255.603 L
189.288 271.109 L
189.675 253.218 L
190.063 271.109 L
190.45 255.603 L
190.837 289 L
191.225 289 L
191.613 271.109 L
192 242.036 L
192.387 230.064 L
192.775 289 L
193.163 272.302 L
193.55 289 L
193.938 271.109 L
194.325 271.109 L
194.712 271.109 L
195.1 255.603 L
195.488 255.603 L
195.875 289 L
196.262 255.603 L
196.65 272.302 L
197.038 271.109 L
197.425 242.036 L
197.813 242.036 L
198.2 271.109 L
198.587 289 L
198.975 244.798 L
199.363 289 L
199.75 289 L
200.137 289 L
200.525 289 L
200.913 255.603 L
201.3 271.109 L
201.688 242.036 L
202.075 289 L
202.462 289 L
202.85 271.109 L
203.238 269.733 L
203.625 255.603 L
204.012 271.109 L
204.4 289 L
204.788 289 L
205.175 271.109 L
205.563 255.603 L
205.95 289 L
206.337 289 L
206.725 289 L
207.113 272.302 L
207.5 255.603 L
207.887 271.109 L
208.275 289 L
208.663 272.302 L
209.05 289 L
209.438 271.109 L
209.825 272.302 L
210.212 289 L
210.6 242.036 L
210.988 269.733 L
211.375 255.603 L
211.762 289 L
212.15 289 L
212.538 289 L
212.925 289 L
213.313 289 L
213.7 289 L
214.087 271.109 L
214.475 289 L
214.863 271.109 L
215.25 289 L
215.637 289 L
216.025 289 L
216.413 255.603 L
216.8 272.302 L
217.188 242.036 L
217.575 289 L
217.962 289 L
218.35 257.69 L
218.738 289 L
219.125 289 L
219.512 272.302 L
219.9 255.603 L
220.288 289 L
220.675 289 L
221.063 289 L
221.45 271.109 L
221.837 271.109 L
222.225 271.109 L
222.613 289 L
223 271.109 L
223.387 271.109 L
223.775 257.69 L
224.163 271.109 L
224.55 289 L
224.938 271.109 L
225.325 289 L
225.712 271.109 L
226.1 289 L
226.488 289 L
226.875 289 L
227.262 271.109 L
227.65 272.302 L
228.038 289 L
228.425 289 L
228.813 289 L
229.2 289 L
229.587 271.109 L
229.975 289 L
230.363 289 L
230.75 289 L
231.137 230.064 L
231.525 289 L
231.913 271.109 L
232.3 289 L
232.688 289 L
233.075 271.109 L
233.462 289 L
233.85 271.109 L
234.238 289 L
234.625 289 L
235.012 271.109 L
235.4 289 L
235.788 272.302 L
236.175 289 L
236.563 271.109 L
236.95 272.302 L
237.337 289 L
237.725 289 L
238.113 289 L
238.5 271.109 L
238.887 255.603 L
239.275 289 L
239.663 289 L
240.05 289 L
240.438 271.109 L
240.825 289 L
241.212 272.302 L
241.6 289 L
241.988 271.109 L
242.375 289 L
242.762 271.109 L
243.15 271.109 L
243.538 253.218 L
243.925 289 L
244.313 289 L
244.7 289 L
245.087 242.036 L
245.475 271.109 L
245.863 289 L
246.25 272.302 L
246.637 289 L
247.025 289 L
247.413 289 L
247.8 255.603 L
248.188 269.733 L
248.575 289 L
248.962 271.109 L
249.35 255.603 L
249.738 253.218 L
250.125 289 L
250.512 255.603 L
250.9 255.603 L
251.288 253.218 L
251.675 255.603 L
252.063 271.109 L
252.45 289 L
252.837 271.109 L
253.225 255.603 L
253.613 271.109 L
254 271.109 L
254.387 272.302 L
254.775 271.109 L
255.163 289 L
255.55 289 L
255.938 253.218 L
256.325 272.302 L
256.712 271.109 L
257.1 269.733 L
257.487 289 L
257.875 238.905 L
258.263 255.603 L
258.65 205.508 L
259.038 271.109 L
259.425 242.036 L
259.813 242.036 L
260.2 242.036 L
260.587 242.036 L
260.975 181.653 L
261.362 219.423 L
261.75 226.381 L
262.138 289 L
262.525 242.036 L
262.913 271.109 L
263.3 257.69 L
263.688 226.381 L
264.075 205.508 L
264.462 219.423 L
264.85 242.036 L
265.237 253.218 L
265.625 201.333 L
266.013 219.423 L
266.4 289 L
266.788 230.064 L
267.175 226.381 L
267.563 226.381 L
267.95 230.064 L
268.337 255.603 L
268.725 215.331 L
269.112 238.905 L
269.5 242.036 L
269.888 255.603 L
270.275 242.036 L
270.663 188.81 L
271.05 200.597 L
271.438 255.603 L
271.825 255.603 L
272.212 238.905 L
272.6 244.798 L
272.987 226.381 L
273.375 242.036 L
273.763 183.536 L
274.15 215.331 L
274.538 271.109 L
274.925 253.218 L
275.313 219.423 L
275.7 176.286 L
276.087 230.064 L
276.475 230.064 L
276.862 289 L
277.25 255.603 L
277.638 230.064 L
278.025 271.109 L
278.413 271.109 L
278.8 242.036 L
279.188 196.719 L
279.575 255.603 L
279.962 242.036 L
280.35 242.036 L
280.737 255.603 L
281.125 255.603 L
281.513 271.109 L
281.9 242.036 L
282.288 242.036 L
282.675 213.857 L
283.063 255.603 L
283.45 219.423 L
283.837 242.036 L
284.225 219.423 L
284.612 238.905 L
285 230.064 L
285.388 238.905 L
285.775 255.603 L
286.163 196.719 L
286.55 257.69 L
286.938 196.719 L
287.325 238.905 L
287.712 253.218 L
288.1 230.064 L
288.487 242.036 L
288.875 226.381 L
289.263 230.064 L
289.65 230.064 L
290.038 230.064 L
290.425 219.423 L
290.813 196.719 L
291.2 255.603 L
291.587 242.036 L
291.975 242.036 L
292.362 219.423 L
292.75 209.902 L
293.138 244.798 L
293.525 205.508 L
293.913 242.036 L
294.3 289 L
294.688 201.333 L
295.075 230.064 L
295.462 219.423 L
295.85 242.036 L
296.237 205.508 L
296.625 219.423 L
297.013 188.81 L
297.4 230.064 L
297.788 209.902 L
298.175 181.653 L
298.563 289 L
298.95 230.064 L
299.337 209.902 L
299.725 242.036 L
300.112 242.036 L
300.5 201.333 L
300.888 230.064 L
301.275 242.036 L
301.663 219.423 L
302.05 230.064 L
302.438 271.109 L
302.825 219.423 L
303.212 289 L
303.6 226.381 L
303.987 272.302 L
304.375 255.603 L
304.763 271.109 L
305.15 201.333 L
305.538 219.423 L
305.925 201.333 L
306.313 219.423 L
306.7 193.581 L
307.087 196.719 L
307.475 272.302 L
307.862 230.064 L
308.25 255.603 L
308.638 242.036 L
309.025 255.603 L
309.413 230.064 L
309.8 230.064 L
310.188 242.036 L
310.575 219.423 L
310.962 201.333 L
311.35 230.064 L
311.737 242.036 L
312.125 219.423 L
312.513 242.036 L
312.9 242.036 L
313.288 230.064 L
313.675 230.064 L
314.063 201.333 L
314.45 242.036 L
314.837 255.603 L
315.225 181.653 L
315.612 230.064 L
316 242.036 L
316.388 209.902 L
316.775 230.064 L
317.163 183.536 L
317.55 242.036 L
317.938 242.036 L
318.325 201.333 L
318.712 201.333 L
319.1 219.423 L
319.487 255.603 L
319.875 271.109 L
320.263 201.333 L
320.65 226.381 L
321.038 219.423 L
321.425 255.603 L
321.813 255.603 L
322.2 272.302 L
322.587 226.381 L
322.975 257.69 L
323.362 271.109 L
323.75 219.423 L
324.138 255.603 L
324.525 205.508 L
324.913 215.331 L
325.3 193.581 L
325.688 191.593 L
326.075 244.798 L
326.462 230.064 L
326.85 242.036 L
327.237 205.508 L
327.625 201.333 L
328.013 175.147 L
328.4 242.036 L
328.788 183.536 L
329.175 272.302 L
329.563 188.81 L
329.95 244.798 L
330.337 230.064 L
330.725 271.109 L
331.112 196.719 L
331.5 255.603 L
331.888 242.036 L
332.275 219.423 L
332.663 201.333 L
333.05 230.064 L
333.438 215.331 L
333.825 230.064 L
334.212 230.064 L
334.6 205.508 L
334.987 230.064 L
335.375 271.109 L
335.763 255.603 L
336.15 255.603 L
336.538 242.036 L
336.925 242.036 L
337.313 209.902 L
337.7 255.603 L
338.087 289 L
338.475 242.036 L
338.862 196.719 L
339.25 255.603 L
339.638 209.902 L
340.025 272.302 L
340.413 255.603 L
340.8 219.423 L
341.188 255.603 L
341.575 242.036 L
341.962 242.036 L
342.35 289 L
342.737 257.69 L
343.125 271.109 L
343.513 242.036 L
343.9 271.109 L
344.288 255.603 L
344.675 244.798 L
345.063 271.109 L
345.45 255.603 L
345.837 255.603 L
346.225 257.69 L
346.612 255.603 L
347 242.036 L
347.388 271.109 L
347.775 209.902 L
348.163 230.064 L
348.55 244.798 L
348.938 255.603 L
349.325 271.109 L
349.712 242.036 L
350.1 272.302 L
350.487 242.036 L
350.875 230.064 L
351.263 255.603 L
351.65 230.064 L
352.038 255.603 L
352.425 272.302 L
352.813 289 L
353.2 255.603 L
353.587 271.109 L
353.975 244.798 L
354.362 271.109 L
354.75 255.603 L
355.138 244.798 L
355.525 215.331 L
355.913 257.69 L
356.3 242.036 L
356.688 255.603 L
357.075 242.036 L
357.462 289 L
357.85 219.423 L
358.237 255.603 L
358.625 230.064 L
359.013 230.064 L
359.4 289 L
359.788 242.036 L
360.175 230.064 L
360.563 209.902 L
360.95 255.603 L
361.337 209.902 L
361.725 289 L
362.112 255.603 L
362.5 230.064 L
362.888 271.109 L
363.275 242.036 L
363.663 233.339 L
364.05 271.109 L
364.438 271.109 L
364.825 255.603 L
365.212 257.69 L
365.6 242.036 L
365.987 271.109 L
366.375 242.036 L
366.763 257.69 L
367.15 255.603 L
367.538 242.036 L
367.925 255.603 L
368.313 271.109 L
368.7 272.302 L
369.087 230.064 L
369.475 230.064 L
369.862 242.036 L
370.25 255.603 L
370.638 244.798 L
371.025 205.508 L
371.413 257.69 L
371.8 242.036 L
372.188 230.064 L
372.575 209.902 L
372.962 242.036 L
373.35 242.036 L
373.737 255.603 L
374.125 219.423 L
374.513 272.302 L
374.9 255.603 L
375.288 230.064 L
375.675 271.109 L
376.063 255.603 L
376.45 242.036 L
376.837 233.339 L
377.225 215.331 L
377.612 255.603 L
378 244.798 L
378.388 271.109 L
378.775 255.603 L
379.163 289 L
379.55 289 L
379.938 230.064 L
380.325 271.109 L
380.712 271.109 L
381.1 209.902 L
381.487 289 L
381.875 230.064 L
382.263 242.036 L
382.65 230.064 L
383.038 242.036 L
383.425 244.798 L
383.813 255.603 L
384.2 230.064 L
384.587 230.064 L
384.975 242.036 L
385.362 230.064 L
385.75 230.064 L
386.138 257.69 L
386.525 230.064 L
386.913 255.603 L
387.3 242.036 L
387.688 242.036 L
388.075 242.036 L
388.462 255.603 L
388.85 271.109 L
389.237 209.902 L
389.625 289 L
390.013 242.036 L
390.4 255.603 L
390.788 255.603 L
391.175 257.69 L
391.563 226.381 L
391.95 230.064 L
392.337 219.423 L
392.725 289 L
393.112 201.333 L
393.5 193.581 L
393.888 242.036 L
394.275 255.603 L
394.663 219.423 L
395.05 233.339 L
395.438 215.331 L
395.825 272.302 L
396.212 230.064 L
396.6 201.333 L
396.987 271.109 L
397.375 205.508 L
397.763 255.603 L
398.15 230.064 L
398.538 209.902 L
398.925 183.536 L
399.313 230.064 L
399.7 130.365 L
400.087 219.423 L
400.475 255.603 L
400.862 153.325 L
401.25 181.653 L
401.638 200.597 L
402.025 209.902 L
402.413 176.286 L
402.8 149.847 L
403.188 209.902 L
403.575 238.905 L
403.962 193.581 L
404.35 205.508 L
404.737 219.423 L
405.125 242.036 L
405.513 183.536 L
405.9 205.508 L
406.288 257.69 L
406.675 215.331 L
407.063 230.064 L
407.45 188.81 L
407.837 242.036 L
408.225 271.109 L
408.612 230.064 L
409 193.581 L
409.388 230.064 L
409.775 196.719 L
410.163 244.798 L
410.55 215.331 L
410.938 233.339 L
411.325 226.381 L
411.712 244.798 L
412.1 188.81 L
412.487 226.381 L
412.875 186.532 L
413.263 255.603 L
413.65 176.286 L
414.038 181.653 L
414.425 152.377 L
414.813 215.331 L
415.2 181.653 L
415.587 191.593 L
415.975 177.677 L
416.362 230.064 L
416.75 215.331 L
417.138 215.331 L
417.525 244.798 L
417.913 255.603 L
418.3 196.719 L
418.688 271.109 L
419.075 244.798 L
419.462 255.603 L
419.85 271.109 L
420.237 255.603 L
420.625 255.603 L
421.013 201.333 L
421.4 271.109 L
421.788 223.085 L
422.175 242.036 L
422.563 219.423 L
422.95 219.423 L
423.337 209.902 L
423.725 226.381 L
424.112 163.762 L
424.5 226.381 L
424.888 215.331 L
425.275 169.726 L
425.663 238.905 L
426.05 193.581 L
426.438 215.331 L
426.825 219.423 L
427.212 230.064 L
427.6 209.902 L
427.987 226.381 L
428.375 176.286 L
428.763 242.036 L
429.15 255.603 L
429.538 219.423 L
429.925 257.69 L
430.313 226.381 L
430.7 255.603 L
431.087 191.593 L
431.475 242.036 L
431.862 209.902 L
432.25 226.381 L
432.638 188.81 L
433.025 219.423 L
433.413 215.331 L
433.8 271.109 L
434.188 242.036 L
434.575 205.508 L
434.962 201.333 L
435.35 201.333 L
435.737 230.064 L
436.125 255.603 L
436.513 196.719 L
436.9 193.581 L
437.288 242.036 L
437.675 230.064 L
438.063 215.331 L
438.45 188.81 L
438.837 169.207 L
439.225 147.426 L
439.612 200.597 L
440 209.902 L
440.388 176.286 L
440.775 271.109 L
441.163 201.333 L
441.55 215.331 L
441.938 219.423 L
442.325 175.147 L
442.712 272.302 L
443.1 205.508 L
443.487 255.603 L
443.875 168.771 L
444.263 205.508 L
444.65 255.603 L
445.038 209.902 L
445.425 205.508 L
445.813 242.036 L
446.2 158.752 L
446.587 209.902 L
446.975 188.81 L
447.362 219.423 L
447.75 176.286 L
448.138 219.423 L
448.525 205.508 L
448.913 215.331 L
449.3 210.726 L
449.688 193.581 L
450.075 163.762 L
450.462 169.726 L
450.85 230.064 L
451.237 205.508 L
451.625 255.603 L
452.013 196.719 L
452.4 209.902 L
452.788 255.603 L
453.175 188.81 L
453.563 219.423 L
453.95 226.381 L
454.337 255.603 L
454.725 181.653 L
455.112 205.508 L
455.5 210.726 L
455.888 158.317 L
456.275 143.987 L
456.663 144.495 L
457.05 163.762 L
457.438 153.325 L
457.825 148.733 L
458.212 145.871 L
458.6 215.331 L
458.987 163.762 L
459.375 140.991 L
459.763 157.798 L
460.15 158.317 L
460.538 196.719 L
460.925 174.198 L
461.313 205.508 L
461.7 253.218 L
462.087 255.603 L
462.475 144.495 L
462.862 101.143 L
463.25 205.508 L
463.638 200.597 L
464.025 205.508 L
464.413 101.143 L
464.8 148.733 L
465.188 114.756 L
465.575 196.719 L
465.962 158.317 L
466.35 163.762 L
466.737 196.719 L
467.125 175.147 L
467.513 142.889 L
467.9 138.714 L
468.288 209.902 L
468.675 205.508 L
469.063 215.331 L
469.45 138.714 L
469.837 126.19 L
470.225 157.798 L
470.612 110.088 L
471 118.676 L
471.388 122.016 L
471.775 253.218 L
472.163 289 L
472.55 183.536 L
472.938 158.752 L
473.325 183.536 L
473.712 226.381 L
474.1 158.317 L
474.487 176.286 L
474.875 219.423 L
475.263 145.871 L
475.65 209.902 L
476.038 176.286 L
476.425 188.81 L
476.813 147.426 L
477.2 127.98 L
477.587 142.889 L
477.975 118.676 L
478.362 219.423 L
478.75 175.147 L
479.138 112.739 L
479.525 125.646 L
479.913 124.895 L
480.3 158.317 L
480.688 163.762 L
481.075 122.016 L
481.462 96.326 L
481.85 103.865 L
482.237 115.593 L
482.625 122.016 L
483.013 163.762 L
483.4 226.381 L
483.788 205.508 L
484.175 188.81 L
484.563 169.207 L
484.95 163.762 L
485.337 157.798 L
485.725 152.377 L
486.112 152.377 L
486.5 142.889 L
486.888 183.536 L
487.275 108.657 L
487.663 149.847 L
488.05 129.606 L
488.438 152.377 L
488.825 101.143 L
489.212 98.638 L
489.6 136.536 L
489.987 128.695 L
490.375 88.619 L
490.763 86.692 L
491.15 134.861 L
491.538 169.726 L
491.925 163.762 L
492.313 135.931 L
492.7 188.81 L
493.087 142.889 L
493.475 119.034 L
493.862 88.619 L
494.25 176.286 L
494.638 163.762 L
495.025 132.452 L
495.413 118.676 L
495.8 134.861 L
496.188 140.991 L
496.575 98.638 L
496.962 185.863 L
497.35 142.889 L
497.737 133.943 L
498.125 82.725 L
498.513 112.739 L
498.9 108.657 L
499.288 169.726 L
499.675 129.606 L
500.063 77.661 L
500.45 87.003 L
500.837 107.621 L
501.225 158.317 L
501.612 140.991 L
502 112.739 L
502.388 112.739 L
502.775 196.719 L
503.163 157.17 L
503.55 222.206 L
503.938 191.593 L
504.325 112.739 L
504.712 108.97 L
505.1 88.619 L
505.487 105.96 L
505.875 110.088 L
506.263 95.083 L
506.65 118.221 L
507.038 147.426 L
507.425 136.536 L
507.813 116.258 L
508.2 92.197 L
508.587 125.646 L
508.975 205.508 L
509.362 101.143 L
509.75 163.762 L
510.138 108.657 L
510.525 176.286 L
510.913 142.889 L
511.3 200.597 L
511.688 163.762 L
512.075 205.508 L
512.463 133.943 L
512.85 106.836 L
513.237 125.646 L
513.625 119.034 L
514.013 136.536 L
514.4 147.426 L
514.787 148.733 L
515.175 157.798 L
515.563 176.286 L
515.95 176.286 L
516.338 83.252 L
516.725 110.088 L
517.112 129.606 L
517.5 95.083 L
517.888 122.016 L
518.275 215.331 L
518.662 196.719 L
519.05 169.726 L
519.438 101.143 L
519.825 142.889 L
520.213 105.96 L
520.6 129.606 L
520.987 205.508 L
521.375 129.606 L
521.763 118.221 L
522.15 191.593 L
522.537 176.286 L
522.925 193.581 L
523.313 151.238 L
523.7 80.27 L
524.088 183.536 L
524.475 108.657 L
524.862 118.221 L
525.25 147.426 L
525.638 138.714 L
526.025 151.238 L
526.412 210.726 L
526.8 157.17 L
527.188 114.756 L
527.575 157.17 L
527.963 152.377 L
528.35 114.756 L
528.737 151.238 L
529.125 158.317 L
529.513 91.655 L
529.9 169.726 L
530.287 226.381 L
530.675 112.739 L
531.063 125.227 L
531.45 222.206 L
531.838 138.714 L
532.225 145.871 L
532.612 133.943 L
533 133.943 L
533.388 78.6 L
533.775 238.905 L
534.162 157.798 L
534.55 129.606 L
534.938 106.836 L
535.325 132.452 L
535.713 163.762 L
536.1 118.221 L
536.487 129.606 L
536.875 191.593 L
537.263 163.762 L
537.65 205.508 L
538.037 145.871 L
538.425 148.733 L
538.813 129.606 L
539.2 170.353 L
539.588 98.161 L
539.975 157.798 L
540.362 143.987 L
540.75 152.377 L
541.138 215.331 L
541.525 200.597 L
541.912 255.603 L
542.3 183.536 L
542.688 156.395 L
543.075 188.81 L
543.463 58.298 L
543.85 163.762 L
544.237 130.805 L
544.625 136.536 L
545.013 140.991 L
545.4 118.676 L
545.787 112.739 L
546.175 138.714 L
546.563 157.17 L
546.95 125.646 L
547.338 238.905 L
547.725 143.987 L
548.112 230.064 L
548.5 93.315 L
548.888 110.088 L
549.275 118.221 L
549.662 163.762 L
550.05 140.991 L
550.438 122.016 L
550.825 130.805 L
551.213 118.221 L
551.6 128.695 L
551.987 195.071 L
552.375 129.606 L
552.763 118.221 L
553.15 185.863 L
553.537 152.377 L
553.925 157.17 L
554.313 130.805 L
554.7 156.395 L
555.088 238.905 L
555.475 157.798 L
555.862 114.756 L
556.25 119.034 L
556.638 129.606 L
557.025 200.597 L
557.412 238.905 L
557.8 84.065 L
558.188 143.987 L
558.575 177.677 L
558.963 215.331 L
559.35 140.991 L
559.737 170.353 L
560.125 152.377 L
560.513 163.762 L
560.9 135.931 L
561.287 140.991 L
561.675 143.987 L
562.063 129.606 L
562.45 118.221 L
562.838 133.943 L
563.225 138.714 L
563.612 86.692 L
564 183.536 L
564.388 145.871 L
564.775 163.762 L
565.162 215.331 L
565.55 113.667 L
565.938 163.762 L
566.325 147.426 L
566.713 125.646 L
567.1 130.805 L
567.487 163.762 L
567.875 205.508 L
568.263 111.579 L
568.65 143.987 L
569.037 145.871 L
569.425 132.452 L
569.813 149.847 L
570.2 143.987 L
570.588 122.016 L
570.975 122.016 L
571.362 113.667 L
571.75 145.871 L
572.138 118.221 L
572.525 177.677 L
572.912 177.677 L
573.3 140.991 L
573.688 92.975 L
574.075 98.161 L
574.463 145.871 L
574.85 91.256 L
575.237 66.355 L
575.625 177.677 L
576.013 110.088 L
576.4 138.714 L
576.787 210.726 L
577.175 129.606 L
577.563 138.714 L
577.95 210.726 L
578.338 191.593 L
578.725 140.991 L
579.112 105.96 L
579.5 151.238 L
579.888 185.863 L
580.275 177.677 L
580.662 108.657 L
581.05 126.19 L
581.438 143.987 L
581.825 125.646 L
582.213 114.756 L
582.6 84.908 L
582.987 72.68 L
583.375 74.306 L
583.763 171.129 L
584.15 170.353 L
584.537 98.161 L
584.925 114.756 L
585.313 111.579 L
585.7 157.17 L
586.088 140.991 L
586.475 111.579 L
586.862 125.646 L
587.25 88.619 L
587.638 112.739 L
588.025 185.863 L
588.412 163.762 L
588.8 151.238 L
589.188 133.943 L
589.575 133.943 L
589.963 138.714 L
590.35 133.943 L
590.737 179.417 L
591.125 126.19 L
591.513 122.016 L
591.9 250.465 L
592.287 230.064 L
592.675 222.206 L
593.063 101.143 L
593.45 90.706 L
593.838 151.238 L
594.225 129.606 L
594.612 118.221 L
595 183.536 L
595.388 92.197 L
595.775 195.071 L
596.162 157.798 L
596.55 151.238 L
596.938 129.606 L
597.325 196.719 L
597.713 185.863 L
598.1 118.221 L
598.487 157.17 L
598.875 145.871 L
599.263 110.088 L
599.65 58.562 L
600.037 138.714 L
600.425 95.45 L
600.813 114.756 L
601.2 157.17 L
601.588 103.865 L
601.975 145.871 L
602.362 142.889 L
602.75 118.221 L
603.138 101.143 L
603.525 253.218 L
603.912 158.317 L
604.3 114.756 L
604.688 104.439 L
605.075 138.714 L
605.463 171.129 L
605.85 183.536 L
606.237 145.871 L
606.625 122.016 L
607.013 126.19 L
607.4 114.756 L
607.787 195.071 L
608.175 177.677 L
608.563 98.638 L
608.95 113.667 L
609.338 158.317 L
609.725 133.943 L
610.112 101.143 L
610.5 163.762 L
610.888 163.762 L
611.275 83.252 L
611.662 163.762 L
612.05 151.238 L
612.438 210.726 L
612.825 111.579 L
613.213 215.331 L
613.6 151.238 L
613.987 140.991 L
614.375 171.129 L
614.763 195.071 L
615.15 147.426 L
615.537 122.016 L
615.925 195.071 L
616.313 118.221 L
616.7 170.353 L
617.088 171.129 L
617.475 140.991 L
617.862 171.129 L
618.25 105.96 L
618.638 126.19 L
619.025 200.597 L
619.412 118.221 L
619.8 151.238 L
620.188 157.17 L
620.575 205.508 L
620.963 115.593 L
621.35 210.726 L
621.737 122.016 L
622.125 142.889 L
622.513 152.377 L
622.9 196.719 L
623.287 105.96 L
623.675 271.109 L
624.063 122.016 L
624.45 149.847 L
624.838 133.943 L
625.225 133.943 L
625.612 138.714 L
626 118.676 L
626.388 80.27 L
626.775 242.036 L
627.162 41.909 L
627.55 157.17 L
627.938 200.597 L
628.325 134.861 L
628.713 149.847 L
629.1 157.798 L
629.487 157.798 L
629.875 157.798 L
630.263 145.871 L
630.65 215.331 L
631.037 226.381 L
631.425 222.206 L
631.813 200.597 L
632.2 157.17 L
632.588 151.238 L
632.975 163.762 L
633.362 67.15 L
633.75 140.991 L
634.138 171.129 L
634.525 138.714 L
634.912 78.6 L
635.3 195.071 L
635.688 143.987 L
636.075 103.865 L
636.463 170.353 L
636.85 163.762 L
637.237 157.798 L
637.625 151.238 L
638.013 107.621 L
638.4 238.905 L
638.787 106.836 L
639.175 88.619 L
639.563 118.676 L
639.95 140.991 L
640.338 138.714 L
640.725 96.968 L
641.112 112.739 L
641.5 122.016 L
641.888 169.726 L
642.275 101.143 L
642.662 122.016 L
643.05 238.905 L
643.438 163.762 L
643.825 140.991 L
644.213 122.016 L
644.6 157.17 L
644.987 136.536 L
645.375 149.847 L
645.763 115.593 L
646.15 151.238 L
646.537 163.762 L
646.925 125.646 L
647.313 125.227 L
647.7 149.847 L
648.088 226.381 L
648.475 78.923 L
648.862 215.331 L
649.25 157.17 L
649.638 135.931 L
650.025 125.646 L
650.412 145.871 L
650.8 157.798 L
651.188 176.286 L
651.575 133.943 L
651.963 163.762 L
652.35 195.071 L
652.737 176.286 L
653.125 191.593 L
653.513 169.726 L
653.9 177.677 L
654.287 191.593 L
654.675 195.071 L
655.063 133.943 L
655.45 195.071 L
655.838 108.657 L
656.225 145.871 L
656.612 140.991 L
657 170.353 L
657.388 183.536 L
657.775 149.847 L
658.162 108.657 L
658.55 210.726 L
658.938 138.714 L
659.325 170.353 L
659.713 200.597 L
660.1 152.377 L
660.487 140.991 L
660.875 170.353 L
661.263 170.353 L
661.65 151.238 L
662.037 253.218 L
662.425 210.726 L
662.813 177.677 L
663.2 122.016 L
663.588 138.714 L
663.975 65.361 L
664.362 114.756 L
664.75 129.606 L
665.138 156.395 L
665.525 43.435 L
665.912 235.327 L
666.3 188.81 L
666.688 157.17 L
667.075 151.238 L
667.463 113.667 L
667.85 143.987 L
668.237 67.992 L
668.625 122.016 L
669.013 188.81 L
669.4 185.863 L
669.787 132.452 L
670.175 103.865 L
670.563 157.798 L
670.95 176.286 L
671.338 163.762 L
671.725 176.286 L
672.112 130.805 L
672.5 177.677 L
672.888 78.6 L
673.275 185.863 L
673.662 136.536 L
674.05 126.19 L
674.438 136.536 L
674.825 114.756 L
675.213 132.452 L
675.6 205.508 L
675.987 38.524 L
676.375 138.714 L
676.763 115.593 L
677.15 169.726 L
677.537 130.805 L
677.925 111.579 L
678.313 200.597 L
678.7 140.991 L
679.088 48.158 L
679.475 107.621 L
679.862 118.221 L
680.25 170.353 L
680.638 222.206 L
681.025 185.863 L
681.412 110.088 L
681.8 157.17 L
682.188 132.452 L
682.575 196.719 L
682.963 98.638 L
683.35 108.657 L
683.737 98.638 L
684.125 200.597 L
684.513 145.871 L
684.9 63.571 L
685.287 140.991 L
685.675 132.452 L
686.063 86.692 L
686.45 133.943 L
686.838 93.315 L
687.225 98.161 L
687.612 54.179 L
688 105.96 L
688.388 108.657 L
688.775 90.346 L
689.162 115.593 L
689.55 103.865 L
689.938 122.016 L
690.325 98.638 L
690.713 88.619 L
691.1 179.417 L
691.487 60.788 L
691.875 77.059 L
692.263 92.197 L
692.65 140.991 L
693.037 163.762 L
693.425 92.975 L
693.813 125.646 L
694.2 122.016 L
694.588 85.488 L
694.975 114.756 L
695.362 122.016 L
695.75 101.143 L
696.138 151.238 L
696.525 98.161 L
696.912 81.709 L
697.3 142.889 L
697.688 84.908 L
698.075 135.931 L
698.463 73.072 L
698.85 84.908 L
699.237 83.252 L
699.625 77.059 L
700.013 118.221 L
700.4 49.656 L
700.787 88.619 L
701.175 95.45 L
701.563 163.762 L
701.95 125.646 L
702.338 54.684 L
702.725 107.621 L
703.112 88.619 L
703.5 78.923 L
703.888 105.96 L
704.275 118.676 L
704.662 77.059 L
705.05 76.475 L
705.438 114.756 L
705.825 140.991 L
706.213 96.326 L
706.6 108.657 L
706.987 114.756 L
707.375 145.871 L
707.763 108.657 L
708.15 103.865 L
708.537 56.415 L
708.925 84.908 L
709.313 115.593 L
709.7 122.016 L
710.088 106.836 L
710.475 87.003 L
710.862 81.709 L
711.25 80.27 L
711.638 57.791 L
712.025 75.631 L
712.412 103.865 L
712.8 111.579 L
713.188 70.843 L
713.575 66.355 L
713.963 138.714 L
714.35 114.756 L
714.737 63.571 L
715.125 96.326 L
715.513 119.034 L
715.9 145.871 L
716.287 75.359 L
716.675 122.016 L
717.063 93.315 L
717.45 151.238 L
717.838 95.083 L
718.225 157.17 L
718.612 136.536 L
719 73.474 L
719.388 125.646 L
719.775 86.692 L
720.162 83.252 L
720.55 115.593 L
720.938 92.197 L
721.325 118.221 L
721.713 70.843 L
722.1 81.709 L
722.487 84.908 L
722.875 96.968 L
723.263 84.908 L
723.65 93.315 L
724.037 84.908 L
724.425 48.747 L
724.813 98.638 L
725.2 75.359 L
725.588 80.27 L
725.975 90.346 L
726.362 74.306 L
726.75 105.96 L
727.138 103.163 L
727.525 103.865 L
727.912 88.619 L
728.3 122.016 L
728.688 114.756 L
729.075 129.606 L
729.463 76.475 L
729.85 122.016 L
730.237 111.579 L
730.625 81.463 L
731.013 152.377 L
731.4 129.606 L
731.787 96.968 L
732.175 143.987 L
732.563 128.695 L
732.95 101.143 L
733.338 98.638 L
733.725 134.861 L
734.112 103.462 L
734.5 85.488 L
734.888 96.968 L
735.275 152.377 L
735.662 177.677 L
736.05 70.843 L
736.438 128.695 L
736.825 50.174 L
737.213 96.326 L
737.6 138.714 L
737.987 108.657 L
738.375 118.676 L
738.763 82.725 L
739.15 177.677 L
739.537 114.756 L
739.925 125.646 L
740.313 98.984 L
740.7 157.798 L
741.088 73.072 L
741.475 96.326 L
741.862 74.306 L
742.25 98.984 L
742.638 105.96 L
743.025 68.885 L
743.412 107.621 L
743.8 96.968 L
744.188 108.657 L
744.575 108.657 L
744.963 127.98 L
745.35 133.943 L
745.737 115.593 L
746.125 136.536 L
746.513 170.353 L
746.9 153.325 L
747.287 106.836 L
747.675 115.593 L
748.063 157.17 L
748.45 105.96 L
748.838 92.197 L
749.225 98.984 L
749.612 58.562 L
750 136.536 L
750.388 122.016 L
750.775 177.677 L
751.162 122.016 L
751.55 87.003 L
751.938 125.646 L
752.325 136.536 L
752.713 151.238 L
753.1 171.129 L
753.487 185.863 L
753.875 114.756 L
754.263 151.238 L
754.65 149.847 L
755.037 226.381 L
755.425 122.016 L
755.813 226.381 L
756.2 157.17 L
756.588 210.726 L
756.975 130.805 L
757.362 118.676 L
757.75 103.462 L
758.138 118.221 L
758.525 140.991 L
758.912 118.221 L
759.3 163.762 L
759.688 118.221 L
760.075 143.987 L
760.463 177.677 L
760.85 140.991 L
761.237 96.326 L
761.625 94.185 L
762.013 177.677 L
762.4 136.536 L
762.787 151.238 L
763.175 170.353 L
763.563 108.657 L
763.95 238.905 L
764.338 191.593 L
764.725 101.143 L
765.112 215.331 L
765.5 133.943 L
765.888 171.129 L
766.275 163.762 L
766.662 145.871 L
767.05 140.991 L
767.438 195.071 L
767.825 188.81 L
768.213 205.508 L
768.6 132.452 L
768.987 185.863 L
769.375 185.863 L
769.763 129.606 L
770.15 171.129 L
770.537 129.606 L
770.925 152.377 L
771.313 138.714 L
771.7 253.218 L
772.088 112.739 L
772.475 145.871 L
772.862 195.071 L
773.25 143.987 L
773.638 133.943 L
774.025 163.762 L
774.412 125.227 L
774.8 111.579 L
775.188 163.762 L
775.575 125.646 L
775.963 175.147 L
776.35 179.417 L
776.737 157.17 L
777.125 145.871 L
777.513 108.657 L
777.9 200.597 L
778.287 151.238 L
778.675 157.798 L
779.063 92.197 L
779.45 177.677 L
779.838 125.646 L
780.225 119.034 L
780.612 215.331 L
781 191.593 L
781.388 177.677 L
781.775 77.059 L
782.162 90.706 L
782.55 163.762 L
782.938 94.185 L
783.325 177.677 L
783.713 143.987 L
784.1 91.256 L
784.487 105.96 L
784.875 128.695 L
785.263 135.931 L
785.65 157.798 L
786.037 113.667 L
786.425 157.17 L
786.813 215.331 L
787.2 151.238 L
787.588 210.726 L
787.975 222.206 L
788.362 183.536 L
788.75 222.206 L
789.138 158.317 L
789.525 152.377 L
789.912 118.676 L
790.3 145.871 L
790.688 151.238 L
791.075 133.943 L
791.463 171.129 L
791.85 128.695 L
792.237 143.987 L
792.625 157.17 L
793.013 151.238 L
793.4 143.987 L
793.787 149.847 L
794.175 269.733 L
794.563 126.19 L
794.95 138.714 L
795.338 171.129 L
795.725 195.071 L
796.112 238.905 L
796.5 111.579 L
796.888 185.863 L
797.275 205.508 L
797.662 149.847 L
798.05 188.81 L
798.438 157.17 L
798.825 149.847 L
799.213 176.286 L
799.6 129.606 L
799.987 176.286 L
800.375 141.661 L
800.763 215.331 L
801.15 181.653 L
801.537 217.435 L
801.925 185.863 L
802.313 210.726 L
802.7 145.871 L
803.088 132.452 L
803.475 179.417 L
803.862 145.871 L
804.25 143.987 L
804.638 185.863 L
805.025 215.331 L
805.412 143.987 L
805.8 118.676 L
806.188 156.395 L
806.575 149.847 L
806.963 126.19 L
807.35 238.905 L
807.737 151.238 L
808.125 177.677 L
808.513 177.677 L
808.9 226.381 L
809.287 141.661 L
809.675 157.17 L
810.063 215.331 L
810.45 215.331 L
810.838 196.719 L
811.225 75.631 L
811.612 151.238 L
812 170.353 L
812.388 101.143 L
812.775 83.252 L
813.162 130.805 L
813.55 205.508 L
813.938 185.863 L
814.325 98.984 L
814.713 64.214 L
815.1 114.756 L
815.487 143.987 L
815.875 138.714 L
816.263 133.943 L
816.65 163.762 L
817.037 215.331 L
817.425 205.508 L
817.813 157.17 L
818.2 177.677 L
818.588 125.646 L
818.975 157.17 L
819.362 96.326 L
819.75 152.377 L
820.138 170.353 L
820.525 238.905 L
820.912 185.863 L
821.3 136.536 L
821.688 191.593 L
822.075 177.677 L
822.463 215.331 L
822.85 125.646 L
823.237 177.677 L
823.625 170.353 L
824.013 188.81 L
824.4 205.508 L
824.787 176.286 L
825.175 163.762 L
825.563 205.508 L
825.95 177.677 L
826.338 83.252 L
826.725 151.238 L
827.112 191.593 L
827.5 177.677 L
827.888 133.943 L
828.275 226.381 L
828.662 238.905 L
829.05 157.798 L
829.438 122.016 L
829.825 222.206 L
830.213 242.036 L
830.6 148.107 L
830.987 163.762 L
831.375 177.677 L
831.763 210.726 L
832.15 163.762 L
832.537 169.726 L
832.925 87.003 L
833.313 163.762 L
833.7 156.395 L
834.088 188.81 L
834.475 149.847 L
834.862 226.381 L
835.25 163.762 L
835.638 138.714 L
836.025 138.714 L
836.412 130.805 L
836.8 163.762 L
837.188 171.129 L
837.575 96.326 L
837.963 195.071 L
838.35 78.6 L
838.737 96.968 L
839.125 133.943 L
839.513 157.17 L
839.9 74.306 L
840.287 75.631 L
840.675 143.987 L
841.063 238.905 L
841.45 132.452 L
841.838 170.353 L
842.225 64.214 L
842.612 125.646 L
843 138.714 L
843.388 157.17 L
843.775 226.381 L
844.162 103.462 L
844.55 185.863 L
844.938 238.905 L
845.325 129.606 L
845.713 64.435 L
846.1 188.81 L
846.487 122.016 L
846.875 195.071 L
847.263 195.071 L
847.65 122.016 L
848.037 191.593 L
848.425 143.987 L
848.813 143.987 L
849.2 199.544 L
849.588 185.863 L
849.975 122.016 L
850.362 222.206 L
850.75 230.064 L
851.138 103.865 L
851.525 169.726 L
851.912 138.714 L
852.3 138.714 L
852.688 138.714 L
853.075 205.508 L
853.463 176.286 L
853.85 118.221 L
854.237 226.381 L
854.625 118.221 L
855.013 104.439 L
855.4 145.871 L
855.787 68.581 L
856.175 157.17 L
856.563 200.597 L
856.95 117.622 L
857.338 210.726 L
857.725 111.579 L
858.112 149.847 L
858.5 114.756 L
858.888 97.459 L
859.275 176.286 L
859.662 185.863 L
860.05 195.071 L
860.438 111.579 L
860.825 151.238 L
861.213 64.214 L
861.6 170.353 L
861.987 81.709 L
862.375 210.726 L
862.763 226.381 L
863.15 238.905 L
863.537 170.353 L
863.925 98.638 L
864.313 104.439 L
864.7 103.865 L
865.088 67.992 L
865.475 170.353 L
865.862 205.508 L
866.25 108.657 L
866.638 118.221 L
867.025 126.19 L
867.412 171.129 L
867.8 195.071 L
868.188 67.992 L
868.575 200.597 L
868.963 136.536 L
869.35 133.943 L
869.737 90.092 L
870.125 191.593 L
870.513 163.762 L
870.9 181.653 L
871.287 86.692 L
871.675 118.676 L
872.063 200.597 L
872.45 163.762 L
872.838 101.143 L
873.225 210.726 L
873.612 95.083 L
874 205.508 L
874.388 143.987 L
874.775 210.726 L
875.162 69.833 L
875.55 87.003 L
875.938 195.071 L
876.325 134.861 L
876.713 215.331 L
877.1 125.646 L
877.487 98.161 L
877.875 133.943 L
878.263 156.395 L
878.65 210.726 L
879.037 92.197 L
879.425 95.45 L
879.813 111.579 L
880.2 151.238 L
880.588 163.762 L
880.975 85.911 L
881.362 157.798 L
881.75 70.843 L
882.138 158.317 L
882.525 91.655 L
882.912 163.762 L
883.3 163.762 L
883.688 179.417 L
884.075 183.536 L
884.463 103.865 L
884.85 101.143 L
885.237 177.677 L
885.625 122.016 L
886.013 98.984 L
886.4 163.762 L
886.787 101.143 L
887.175 215.331 L
887.563 205.508 L
887.95 177.677 L
888.338 118.676 L
888.725 151.238 L
889.112 70.843 L
889.5 108.97 L
889.888 130.805 L
890.275 74.306 L
890.662 200.597 L
891.05 163.762 L
891.438 122.016 L
891.825 92.197 L
892.213 88.619 L
892.6 69.833 L
892.987 145.871 L
893.375 108.657 L
893.763 142.889 L
894.15 94.185 L
894.537 147.426 L
894.925 66.355 L
895.313 87.003 L
895.7 87.003 L
896.088 135.931 L
896.475 179.417 L
896.862 119.034 L
897.25 142.889 L
897.638 70.843 L
898.025 98.984 L
898.412 94.185 L
898.8 118.221 L
899.188 76.475 L
899.575 88.619 L
899.963 87.003 L
900.35 81.463 L
900.737 98.638 L
901.125 75.631 L
901.513 143.987 L
901.9 105.96 L
902.287 101.143 L
902.675 156.395 L
903.063 53.704 L
903.45 157.17 L
903.838 141.661 L
904.225 77.059 L
904.612 81.463 L
905 81.709 L
S
GR
GS
1 0 0 RC
1 LJ
0.5 LW
N
169.525 255.012 M
169.913 254.532 L
170.3 255.124 L
170.688 255.675 L
171.075 256.189 L
171.462 256.17 L
171.85 257.196 L
172.238 257.148 L
172.625 258.085 L
173.012 258.968 L
173.4 258.875 L
173.788 259.205 L
174.175 259.989 L
174.563 259.745 L
174.95 260.477 L
175.337 261.172 L
175.725 259.516 L
176.113 259.425 L
176.5 259.69 L
176.887 259.913 L
177.275 259.865 L
177.663 260.104 L
178.05 260.01 L
178.438 260.602 L
178.825 261.17 L
179.212 261.061 L
179.6 261.061 L
179.988 261.061 L
180.375 261.866 L
180.762 262.132 L
181.15 262.483 L
181.538 263.184 L
181.925 263.488 L
182.313 263.723 L
182.7 263.222 L
183.087 263.573 L
183.475 263.596 L
183.863 264.251 L
184.25 263.9 L
184.637 264.532 L
185.025 264.883 L
185.413 264.555 L
185.8 264.555 L
186.188 265.865 L
186.575 265.538 L
186.962 265.21 L
187.35 265.514 L
187.738 265.349 L
188.125 266.065 L
188.512 266.416 L
188.9 267.337 L
189.288 266.821 L
189.675 267.742 L
190.063 268.093 L
190.45 268.443 L
190.837 268.794 L
191.225 268.794 L
191.613 268.443 L
192 268.177 L
192.387 268.177 L
192.775 268.177 L
193.163 268.481 L
193.55 268.454 L
193.938 267.799 L
194.325 268.204 L
194.712 268.204 L
195.1 268.204 L
195.488 269.763 L
195.875 269.763 L
196.262 270.114 L
196.65 270.492 L
197.038 271.106 L
197.425 271.129 L
197.813 271.129 L
198.2 270.779 L
198.587 270.779 L
198.975 271.106 L
199.363 271.457 L
199.75 271.808 L
200.137 271.831 L
200.525 272.486 L
200.913 271.565 L
201.3 271.187 L
201.688 270.883 L
202.075 271.804 L
202.462 272.96 L
202.85 272.96 L
203.238 273.287 L
203.625 273.287 L
204.012 273.638 L
204.4 273.638 L
204.788 273.989 L
205.175 274.293 L
205.563 274.947 L
205.95 274.947 L
206.337 275.602 L
206.725 275.275 L
207.113 275.298 L
207.5 275.298 L
207.887 276.219 L
208.275 276.57 L
208.663 275.956 L
209.05 276.823 L
209.438 276.823 L
209.825 276.495 L
210.212 275.84 L
210.6 275.84 L
210.988 276.495 L
211.375 276.846 L
211.762 277.416 L
212.15 277.065 L
212.538 276.715 L
212.925 277.065 L
213.313 277.092 L
213.7 277.396 L
214.087 277.133 L
214.475 276.782 L
214.863 276.782 L
215.25 276.782 L
215.637 277.437 L
216.025 277.087 L
216.413 277.087 L
216.8 277.087 L
217.188 277.414 L
217.575 277.718 L
217.962 277.741 L
218.35 277.741 L
218.738 278.069 L
219.125 278.069 L
219.512 278.42 L
219.9 278.396 L
220.288 278.396 L
220.675 279.317 L
221.063 279.695 L
221.45 279.194 L
221.837 279.194 L
222.225 278.843 L
222.613 278.843 L
223 278.843 L
223.387 278.492 L
223.775 278.492 L
224.163 278.492 L
224.55 278.492 L
224.938 278.843 L
225.325 278.492 L
225.712 278.492 L
226.1 278.165 L
226.488 278.82 L
226.875 278.797 L
227.262 279.39 L
227.65 279.39 L
228.038 279.39 L
228.425 280.004 L
228.813 279.653 L
229.2 278.998 L
229.587 279.326 L
229.975 279.98 L
230.363 279.98 L
230.75 279.63 L
231.137 279.63 L
231.525 279.653 L
231.913 280.004 L
232.3 280.004 L
232.688 280.004 L
233.075 280.004 L
233.462 280.004 L
233.85 279.916 L
234.238 280.267 L
234.625 280.267 L
235.012 280.618 L
235.4 279.697 L
235.788 279.697 L
236.175 279.697 L
236.563 279.369 L
236.95 279.369 L
237.337 279.72 L
237.725 280.048 L
238.113 279.393 L
238.5 279.015 L
238.887 279.015 L
239.275 278.664 L
239.663 278.36 L
240.05 277.659 L
240.438 277.659 L
240.825 277.004 L
241.212 277.505 L
241.6 276.803 L
241.988 276.499 L
242.375 276.148 L
242.762 276.148 L
243.15 276.148 L
243.538 275.493 L
243.925 275.493 L
244.313 275.142 L
244.7 274.815 L
245.087 274.815 L
245.475 274.815 L
245.863 275.142 L
246.25 274.441 L
246.637 274.464 L
247.025 274.441 L
247.413 274.063 L
247.8 274.063 L
248.188 273.081 L
248.575 272.777 L
248.962 271.794 L
249.35 271.444 L
249.738 270.523 L
250.125 269.602 L
250.512 269.032 L
250.9 268.111 L
251.288 266.334 L
251.675 264.969 L
252.063 264.092 L
252.45 264.092 L
252.837 263.522 L
253.225 263.522 L
253.613 263.61 L
254 262.382 L
254.387 260.745 L
254.775 259.381 L
255.163 259.381 L
255.55 259.03 L
255.938 257.311 L
256.325 256.274 L
256.712 256.274 L
257.1 255.119 L
257.487 253.891 L
257.875 253.318 L
258.263 252.54 L
258.65 251.885 L
259.038 250.791 L
259.425 250.464 L
259.813 250.245 L
260.2 249.59 L
260.587 249.324 L
260.975 248.014 L
261.362 246.982 L
261.75 246.982 L
262.138 246.678 L
262.525 245.696 L
262.913 245.18 L
263.3 244.607 L
263.688 244.037 L
264.075 242.32 L
264.462 241.203 L
264.85 241.203 L
265.237 240.501 L
265.625 239.137 L
266.013 237.629 L
266.4 236.801 L
266.788 235.996 L
267.175 236.374 L
267.563 235.719 L
267.95 235.545 L
268.337 235.849 L
268.725 237.136 L
269.112 236.566 L
269.5 235.677 L
269.888 235.943 L
270.275 235.943 L
270.663 235.943 L
271.05 237.393 L
271.438 238.102 L
271.825 238.98 L
272.212 238.059 L
272.6 238.059 L
272.987 236.936 L
273.375 236.895 L
273.763 236.759 L
274.15 237.475 L
274.538 237.475 L
274.925 237.414 L
275.313 236.96 L
275.7 237.696 L
276.087 238.406 L
276.475 236.596 L
276.862 237.138 L
277.25 236.556 L
277.638 236.802 L
278.025 237.256 L
278.413 236.755 L
278.8 237.279 L
279.188 237.033 L
279.575 236.798 L
279.962 236.298 L
280.35 236.063 L
280.737 236.663 L
281.125 236.587 L
281.513 236.587 L
281.9 236.321 L
282.288 236.383 L
282.675 235.885 L
283.063 235.562 L
283.45 235.616 L
283.837 236.047 L
284.225 236.571 L
284.612 236.921 L
285 235.904 L
285.388 236.113 L
285.775 236.958 L
286.163 237.193 L
286.55 236.712 L
286.938 235.347 L
287.325 234.038 L
287.712 234.038 L
288.1 232.838 L
288.487 231.084 L
288.875 232.004 L
289.263 232.658 L
289.65 231.762 L
290.038 231.762 L
290.425 231.762 L
290.813 230.698 L
291.2 230.197 L
291.587 229.627 L
291.975 229.184 L
292.362 228.949 L
292.75 230.072 L
293.138 229.362 L
293.525 230.727 L
293.913 230.42 L
294.3 231.456 L
294.688 231.784 L
295.075 232.589 L
295.462 231.852 L
295.85 231.143 L
296.237 231.233 L
296.625 230.483 L
297.013 230.421 L
297.4 229.594 L
297.788 229.968 L
298.175 229.968 L
298.563 230.234 L
298.95 230.541 L
299.337 231.042 L
299.725 231.042 L
300.112 231.042 L
300.5 231.485 L
300.888 231.93 L
301.275 230.866 L
301.663 230.632 L
302.05 230.632 L
302.438 230.632 L
302.825 231.262 L
303.212 231.208 L
303.6 231.689 L
303.987 231.454 L
304.375 229.735 L
304.763 230.533 L
305.15 231.034 L
305.538 230.294 L
305.925 230.059 L
306.313 230.775 L
306.7 230.588 L
307.087 231.397 L
307.475 230.485 L
307.862 231.115 L
308.25 232.299 L
308.638 230.58 L
309.025 230.017 L
309.413 230.203 L
309.8 230.469 L
310.188 231.04 L
310.575 231.04 L
310.962 230.967 L
311.35 230.524 L
311.737 231.233 L
312.125 231.734 L
312.513 231.757 L
312.9 231.894 L
313.288 231.28 L
313.675 232.157 L
314.063 231.12 L
314.45 231.12 L
314.837 229.834 L
315.225 230.108 L
315.612 229.602 L
316 229.411 L
316.388 229.908 L
316.775 230.624 L
317.163 231.512 L
317.55 230.202 L
317.938 229.639 L
318.325 228.061 L
318.712 228.061 L
319.1 226.648 L
319.487 227.477 L
319.875 226.668 L
320.263 226.722 L
320.65 226.93 L
321.038 228.299 L
321.425 227.645 L
321.813 227.911 L
322.2 228.354 L
322.587 227.911 L
322.975 227.113 L
323.362 227.113 L
323.75 226.824 L
324.138 227.387 L
324.525 227.152 L
324.913 226.17 L
325.3 227.119 L
325.688 227.924 L
326.075 228.19 L
326.462 229.086 L
326.85 229.321 L
327.237 230.468 L
327.625 229.838 L
328.013 230.104 L
328.4 231.823 L
328.788 232.621 L
329.175 232.176 L
329.563 232.176 L
329.95 230.976 L
330.337 232.367 L
330.725 232.94 L
331.112 232.94 L
331.5 232.94 L
331.888 232.674 L
332.275 232.081 L
332.663 233.309 L
333.05 233.309 L
333.438 233.309 L
333.825 233.752 L
334.212 234.056 L
334.6 235.038 L
334.987 235.616 L
335.375 237.136 L
335.763 238.391 L
336.15 238.603 L
336.538 239.145 L
336.925 239.411 L
337.313 240.127 L
337.7 241.495 L
338.087 242.177 L
338.475 241.942 L
338.862 243.143 L
339.25 242.816 L
339.638 244.43 L
340.025 244.376 L
340.413 245.204 L
340.8 244.634 L
341.188 245.287 L
341.575 245.287 L
341.962 245.053 L
342.35 245.762 L
342.737 247.154 L
343.125 248.309 L
343.513 249.099 L
343.9 249.904 L
344.288 250.193 L
344.675 251.479 L
345.063 251.98 L
345.45 251.464 L
345.837 250.674 L
346.225 250.715 L
346.612 250.715 L
347 250.981 L
347.388 251.611 L
347.775 252.266 L
348.163 250.902 L
348.55 251.168 L
348.938 251.822 L
349.325 251.321 L
349.712 252.872 L
350.1 252.278 L
350.487 251.778 L
350.875 251.591 L
351.263 251.591 L
351.65 250.961 L
352.038 251.882 L
352.425 251.227 L
352.813 250.685 L
353.2 250.685 L
353.587 250.685 L
353.975 249.945 L
354.362 250.249 L
354.75 250.764 L
355.138 250.46 L
355.525 250.501 L
355.913 250.235 L
356.3 250.498 L
356.688 250.232 L
357.075 250.539 L
357.462 250.235 L
357.85 250.865 L
358.237 251.366 L
358.625 251.882 L
359.013 252.209 L
359.4 251.405 L
359.788 251.17 L
360.175 250.577 L
360.563 250.843 L
360.95 251.131 L
361.337 250.149 L
361.725 250.691 L
362.112 250.425 L
362.5 249.597 L
362.888 248.046 L
363.275 247.78 L
363.663 247.21 L
364.05 247.421 L
364.438 246.408 L
364.825 246.735 L
365.212 246.947 L
365.6 247.236 L
365.987 247.499 L
366.375 247.765 L
366.763 247.499 L
367.15 247.329 L
367.538 245.884 L
367.925 246.594 L
368.313 246.382 L
368.7 247.187 L
369.087 247.687 L
369.475 247.687 L
369.862 248.608 L
370.25 248.608 L
370.638 249.808 L
371.025 250.112 L
371.413 250.112 L
371.8 250.112 L
372.188 249.612 L
372.575 249.846 L
372.962 249.042 L
373.35 249.042 L
373.737 249.266 L
374.125 248.962 L
374.513 248.157 L
374.9 247.657 L
375.288 247.35 L
375.675 247.115 L
376.063 246.31 L
376.45 246.617 L
376.837 246.076 L
377.225 246.076 L
377.612 246.076 L
378 245.809 L
378.388 245.239 L
378.775 244.912 L
379.163 245.717 L
379.55 245.321 L
379.938 246.242 L
380.325 245.976 L
380.712 246.188 L
381.1 247.17 L
381.487 247.17 L
381.875 246.863 L
382.263 246.863 L
382.65 247.05 L
383.038 247.971 L
383.425 247.173 L
383.813 245.957 L
384.2 246.4 L
384.587 246.073 L
384.975 245.363 L
385.362 245.428 L
385.75 244.334 L
386.138 244.661 L
386.525 244.427 L
386.913 243.799 L
387.3 244.893 L
387.688 243.91 L
388.075 244.122 L
388.462 243.317 L
388.85 242.421 L
389.237 240.353 L
389.625 239.198 L
390.013 237.243 L
390.4 236.23 L
390.788 235.926 L
391.175 234.816 L
391.563 232.711 L
391.95 232.134 L
392.337 231.503 L
392.725 230.449 L
393.112 228.641 L
393.5 227.957 L
393.888 227.63 L
394.275 226.914 L
394.663 226.433 L
395.05 225.989 L
395.438 226.224 L
395.825 225.312 L
396.212 224.289 L
396.6 224.83 L
396.987 224.041 L
397.375 223.806 L
397.763 222.762 L
398.15 222.762 L
398.538 223.066 L
398.925 222.262 L
399.313 221.942 L
399.7 220.786 L
400.087 219.897 L
400.475 219.686 L
400.862 218.896 L
401.25 218.418 L
401.638 218.418 L
402.025 218.707 L
402.413 218.107 L
402.8 216.879 L
403.188 216.589 L
403.575 217.805 L
403.962 216.516 L
404.35 215.066 L
404.737 213.751 L
405.125 213.398 L
405.513 212.738 L
405.9 211.155 L
406.288 210.128 L
406.675 210.691 L
407.063 209.598 L
407.45 209.79 L
407.837 209.578 L
408.225 210.079 L
408.612 209.821 L
409 211.538 L
409.388 211.827 L
409.775 214.282 L
410.163 215.296 L
410.55 215.296 L
410.938 217.301 L
411.325 217.687 L
411.712 219.07 L
412.1 219.328 L
412.487 220.617 L
412.875 221.982 L
413.263 222.168 L
413.65 221.6 L
414.038 222.243 L
414.425 221.424 L
414.813 221.561 L
415.2 221.037 L
415.587 220.766 L
415.975 221.421 L
416.362 220.164 L
416.75 220.164 L
417.138 219.955 L
417.525 220.764 L
417.913 220.134 L
418.3 219.257 L
418.688 218.203 L
419.075 219.153 L
419.462 219.654 L
419.85 220.099 L
420.237 220.352 L
420.625 220.568 L
421.013 221.005 L
421.4 220.323 L
421.788 220.269 L
422.175 220.682 L
422.563 220.682 L
422.95 220.727 L
423.337 220.017 L
423.725 220.783 L
424.112 222.537 L
424.5 224.295 L
424.888 224.102 L
425.275 224.488 L
425.663 224.679 L
426.05 225.706 L
426.438 226.207 L
426.825 225.842 L
427.212 225.416 L
427.6 225.362 L
427.987 224.861 L
428.375 225.226 L
428.763 223.612 L
429.15 222.13 L
429.538 220.009 L
429.925 218.626 L
430.313 217.73 L
430.7 216.175 L
431.087 217.543 L
431.475 216.175 L
431.862 216.023 L
432.25 215.579 L
432.638 214.711 L
433.025 215.748 L
433.413 215.662 L
433.8 216.235 L
434.188 216.333 L
434.575 215.924 L
434.962 216.714 L
435.35 217.501 L
435.737 216.847 L
436.125 217.797 L
436.513 216.687 L
436.9 216.501 L
437.288 215.692 L
437.675 215.878 L
438.063 214.896 L
438.45 215.742 L
438.837 215.026 L
439.225 214.236 L
439.612 214.065 L
440 212.808 L
440.388 211.581 L
440.775 209.897 L
441.163 210.651 L
441.55 209.935 L
441.938 210.831 L
442.325 210.249 L
442.712 210.663 L
443.1 211.372 L
443.487 210.852 L
443.875 209.839 L
444.263 209.532 L
444.65 210.514 L
445.038 210.128 L
445.425 210.21 L
445.813 209.831 L
446.2 207.923 L
446.587 206.889 L
446.975 205.927 L
447.362 204.392 L
447.75 202.887 L
448.138 201.582 L
448.525 200.74 L
448.913 201.644 L
449.3 201.964 L
449.688 200.796 L
450.075 199.774 L
450.462 199.422 L
450.85 197.963 L
451.237 197.431 L
451.625 197.238 L
452.013 197.901 L
452.4 199.479 L
452.788 196.973 L
453.175 194.926 L
453.563 193.944 L
453.95 194.568 L
454.337 194.568 L
454.725 191.539 L
455.112 190.34 L
455.5 188.561 L
455.888 187.672 L
456.275 187.663 L
456.663 186.759 L
457.05 186.914 L
457.438 186.046 L
457.825 185.391 L
458.212 183.808 L
458.6 183.894 L
458.987 183.702 L
459.375 183.792 L
459.763 182.716 L
460.15 181.98 L
460.538 181.746 L
460.925 179.393 L
461.313 177.691 L
461.7 175.071 L
462.087 176.179 L
462.475 177.73 L
462.862 176.317 L
463.25 175.728 L
463.638 175.024 L
464.025 175.024 L
464.413 173.116 L
464.8 173.011 L
465.188 173.284 L
465.575 172.012 L
465.962 173.024 L
466.35 173.657 L
466.737 174.526 L
467.125 174.206 L
467.513 173.709 L
467.9 173.594 L
468.288 173.061 L
468.675 173.141 L
469.063 173.364 L
469.45 172.81 L
469.837 172.18 L
470.225 171.525 L
470.612 170.772 L
471 170.567 L
471.388 168.93 L
471.775 165.854 L
472.163 162.878 L
472.55 162.312 L
472.938 162.721 L
473.325 161.902 L
473.712 162.408 L
474.1 162.408 L
474.487 164.127 L
474.875 164.528 L
475.263 165.489 L
475.65 164.726 L
476.038 164.61 L
476.425 164.386 L
476.813 163.331 L
477.2 163.495 L
477.587 162.824 L
477.975 163.043 L
478.362 161.468 L
478.75 160.426 L
479.138 158.187 L
479.525 157.402 L
479.913 157.604 L
480.3 157.034 L
480.688 156.613 L
481.075 155.986 L
481.462 156.237 L
481.85 154.6 L
482.237 152.145 L
482.625 151.211 L
483.013 151.801 L
483.4 151.004 L
483.788 148.899 L
484.175 147.532 L
484.563 147.532 L
484.95 146.441 L
485.337 146.178 L
485.725 144.389 L
486.112 143.577 L
486.5 142.639 L
486.888 141.682 L
487.275 142.817 L
487.663 142.817 L
488.05 143.117 L
488.438 140.436 L
488.825 139.213 L
489.212 139.133 L
489.6 139.997 L
489.987 140.089 L
490.375 138.508 L
490.763 137.003 L
491.15 136.721 L
491.538 137.936 L
491.925 138.664 L
492.313 138.608 L
492.7 138.426 L
493.087 139.072 L
493.475 137.715 L
493.862 138.043 L
494.25 138.097 L
494.638 136.99 L
495.025 135.916 L
495.413 134.559 L
495.8 133.649 L
496.188 132.82 L
496.575 131.883 L
496.962 130.602 L
497.35 131.362 L
497.737 131.101 L
498.125 130.839 L
498.513 129.659 L
498.9 130.14 L
499.288 132.235 L
499.675 131.541 L
500.063 132.229 L
500.45 132.622 L
500.837 134.379 L
501.225 134.536 L
501.612 135.141 L
502 135.141 L
502.388 136.505 L
502.775 135.43 L
503.163 134.723 L
503.55 134.852 L
503.938 135.449 L
504.325 134.669 L
504.712 134.349 L
505.1 134.668 L
505.487 135.435 L
505.875 136.248 L
506.263 136.94 L
506.65 136.638 L
507.038 135.152 L
507.425 134.892 L
507.813 134.13 L
508.2 134.9 L
508.587 136.912 L
508.975 138.639 L
509.362 138.639 L
509.75 138.08 L
510.138 139.359 L
510.525 139.731 L
510.913 140.162 L
511.3 141.088 L
511.688 140.864 L
512.075 140.972 L
512.463 142.518 L
512.85 142.117 L
513.237 142.831 L
513.625 141.44 L
514.013 139.257 L
514.4 140.645 L
514.787 140.639 L
515.175 141.219 L
515.563 142.032 L
515.95 142.594 L
516.338 143.695 L
516.725 145.509 L
517.112 145.7 L
517.5 145.273 L
517.888 146.075 L
518.275 147.255 L
518.662 147.041 L
519.05 145.977 L
519.438 147.098 L
519.825 145.684 L
520.213 146.882 L
520.6 147.864 L
520.987 147.273 L
521.375 145.795 L
521.763 146.941 L
522.15 145.631 L
522.537 145.865 L
522.925 146.397 L
523.313 146.559 L
523.7 145.767 L
524.088 147.774 L
524.475 147.977 L
524.862 147.602 L
525.25 146.603 L
525.638 145.743 L
526.025 145.498 L
526.412 146.183 L
526.8 146.566 L
527.188 147.782 L
527.575 149.128 L
527.963 150.765 L
528.35 149.403 L
528.737 148.462 L
529.125 147.676 L
529.513 149.033 L
529.9 148.156 L
530.287 149.172 L
530.675 149.454 L
531.063 148.413 L
531.45 150.093 L
531.838 151.709 L
532.225 152.964 L
532.612 153.106 L
533 152.377 L
533.388 153.113 L
533.775 152.683 L
534.162 152.295 L
534.55 152.729 L
534.938 153.088 L
535.325 152.962 L
535.713 152.569 L
536.1 151.814 L
536.487 150.402 L
536.875 150.402 L
537.263 150.616 L
537.65 152.218 L
538.037 152.054 L
538.425 154.315 L
538.813 153.179 L
539.2 152.234 L
539.588 152.754 L
539.975 152.637 L
540.362 150.963 L
540.75 151.145 L
541.138 151.254 L
541.525 149.216 L
541.912 149.019 L
542.3 149.984 L
542.688 149.899 L
543.075 149.59 L
543.463 151.694 L
543.85 149.997 L
544.237 149.985 L
544.625 150.008 L
545.013 150.98 L
545.4 153.067 L
545.787 152.95 L
546.175 152.882 L
546.563 152.675 L
546.95 151.46 L
547.338 152.182 L
547.725 152.837 L
548.112 151.625 L
548.5 151.532 L
548.888 152.474 L
549.275 153.356 L
549.662 154.196 L
550.05 154.442 L
550.438 154.607 L
550.825 154.83 L
551.213 153.273 L
551.6 152.104 L
551.987 149.916 L
552.375 148.858 L
552.763 148.11 L
553.15 147.034 L
553.537 148.611 L
553.925 147.1 L
554.313 148.134 L
554.7 148.317 L
555.088 148.763 L
555.475 150.658 L
555.862 150.677 L
556.25 151.168 L
556.638 150.977 L
557.025 150.977 L
557.412 148.857 L
557.8 149.245 L
558.188 148.763 L
558.575 149.121 L
558.963 149.786 L
559.35 150.328 L
559.737 149.714 L
560.125 149.888 L
560.513 150.319 L
560.9 150.146 L
561.287 150.221 L
561.675 149.926 L
562.063 148.961 L
562.45 148.738 L
562.838 149.904 L
563.225 149.744 L
563.612 149.52 L
564 148.262 L
564.388 147.621 L
564.775 147.415 L
565.162 144.52 L
565.55 142.727 L
565.938 143.961 L
566.325 143.785 L
566.713 143.964 L
567.1 144.163 L
567.487 142.019 L
567.875 143.091 L
568.263 144.4 L
568.65 144.673 L
569.037 143.215 L
569.425 142.528 L
569.813 142.153 L
570.2 142.81 L
570.588 143.083 L
570.975 142.548 L
571.362 142.258 L
571.75 142.258 L
572.138 142.18 L
572.525 142.112 L
572.912 141.151 L
573.3 139.856 L
573.688 139.613 L
574.075 139.37 L
574.463 139.85 L
574.85 138.563 L
575.237 136.591 L
575.625 136.55 L
576.013 136.421 L
576.4 136.295 L
576.787 136.019 L
577.175 135.918 L
577.563 134.445 L
577.95 132.626 L
578.338 134.082 L
578.725 134.47 L
579.112 134.575 L
579.5 134.604 L
579.888 134.293 L
580.275 134.189 L
580.662 134.423 L
581.05 135.548 L
581.438 135.794 L
581.825 135.326 L
582.213 137.919 L
582.6 138.947 L
582.987 139.82 L
583.375 139.038 L
583.763 138.994 L
584.15 140.035 L
584.537 139.716 L
584.925 140.244 L
585.313 142.542 L
585.7 140.866 L
586.088 142.532 L
586.475 142.907 L
586.862 141.74 L
587.25 141.74 L
587.638 142.877 L
588.025 142.39 L
588.412 140.951 L
588.8 141.268 L
589.188 142.051 L
589.575 141.244 L
589.963 138.748 L
590.35 137.984 L
590.737 137.725 L
591.125 137.501 L
591.513 137.759 L
591.9 137.332 L
592.287 137.942 L
592.675 139.079 L
593.063 139.972 L
593.45 140.499 L
593.838 142.108 L
594.225 141.872 L
594.612 142.197 L
595 141.995 L
595.388 142.527 L
595.775 142.801 L
596.162 143.635 L
596.55 144.308 L
596.938 144.236 L
597.325 144.973 L
597.713 145.013 L
598.1 145.193 L
598.487 145.466 L
598.875 144.435 L
599.263 144.037 L
599.65 144.515 L
600.037 144.421 L
600.425 143.778 L
600.813 143.471 L
601.2 144.208 L
601.588 143.448 L
601.975 141.748 L
602.362 140.202 L
602.75 139.977 L
603.138 140.182 L
603.525 142.625 L
603.912 142.625 L
604.3 142.849 L
604.688 143.886 L
605.075 144.112 L
605.463 145.195 L
605.85 143.763 L
606.237 144.494 L
606.625 143.846 L
607.013 144.645 L
607.4 144.143 L
607.787 143.264 L
608.175 144.301 L
608.563 143.297 L
608.95 142.911 L
609.338 144.686 L
609.725 145.855 L
610.112 146.101 L
610.5 147.311 L
610.888 149.091 L
611.275 148.275 L
611.662 150.371 L
612.05 149.903 L
612.438 149.903 L
612.825 150.573 L
613.213 152.447 L
613.6 149.559 L
613.987 151.771 L
614.375 151.913 L
614.763 152.804 L
615.15 152.71 L
615.537 151.981 L
615.925 151.102 L
616.313 150.569 L
616.7 149.75 L
617.088 152.022 L
617.475 150.593 L
617.862 149.85 L
618.25 150.3 L
618.638 151.01 L
619.025 151.719 L
619.412 151.709 L
619.8 152.177 L
620.188 153.288 L
620.575 152.937 L
620.963 153.948 L
621.35 156.755 L
621.737 157.9 L
622.125 158.868 L
622.513 157.818 L
622.9 158.596 L
623.287 157.585 L
623.675 155.936 L
624.063 155.936 L
624.45 155.936 L
624.838 154.831 L
625.225 153.481 L
625.612 154.914 L
626 153.912 L
626.388 153.631 L
626.775 153.631 L
627.162 153.486 L
627.55 153.816 L
627.938 153.426 L
628.325 153.458 L
628.713 155.668 L
629.1 153.83 L
629.487 153.249 L
629.875 152.611 L
630.263 152.294 L
630.65 150.984 L
631.037 150.619 L
631.425 148.698 L
631.813 148.698 L
632.2 149.224 L
632.588 148.219 L
632.975 146.754 L
633.362 149.361 L
633.75 147.256 L
634.138 147.628 L
634.525 147.083 L
634.912 147.538 L
635.3 147.589 L
635.688 147.807 L
636.075 147.747 L
636.463 149.138 L
636.85 147.604 L
637.237 149.245 L
637.625 148.619 L
638.013 147.624 L
638.4 149.419 L
638.787 148.028 L
639.175 149.156 L
639.563 149.144 L
639.95 148.715 L
640.338 148.318 L
640.725 146.956 L
641.112 145.612 L
641.5 144.711 L
641.888 143.404 L
642.275 143.534 L
642.662 144.393 L
643.05 144.639 L
643.438 147.079 L
643.825 147.642 L
644.213 147.77 L
644.6 148.807 L
644.987 151.091 L
645.375 149.892 L
645.763 150.894 L
646.15 150.988 L
646.537 150.508 L
646.925 150.062 L
647.313 150.308 L
647.7 150.941 L
648.088 151.769 L
648.475 149.215 L
648.862 151.252 L
649.25 152.234 L
649.638 153.248 L
650.025 154.416 L
650.412 154.684 L
650.8 155.548 L
651.188 156.677 L
651.575 157.625 L
651.963 157.263 L
652.35 160.244 L
652.737 161.984 L
653.125 160.783 L
653.513 159.965 L
653.9 159.92 L
654.287 158.809 L
654.675 157.978 L
655.063 157.842 L
655.45 157.97 L
655.838 156.555 L
656.225 158.204 L
656.612 158.695 L
657 159.313 L
657.388 159.823 L
657.775 159.114 L
658.162 157.498 L
658.55 157.284 L
658.938 155.454 L
659.325 156.075 L
659.713 157.054 L
660.1 157.187 L
660.487 156.363 L
660.875 156.363 L
661.263 156.363 L
661.65 156.948 L
662.037 157.194 L
662.425 155.934 L
662.813 155.961 L
663.2 153.745 L
663.588 154.062 L
663.975 153.255 L
664.362 151.973 L
664.75 150.825 L
665.138 150.449 L
665.525 149.221 L
665.912 151.12 L
666.3 149.015 L
666.688 148.97 L
667.075 147.897 L
667.463 147.626 L
667.85 147.252 L
668.237 147.31 L
668.625 147.111 L
669.013 147.156 L
669.4 144.76 L
669.787 142.937 L
670.175 142.267 L
670.563 142.843 L
670.95 143.859 L
671.338 144.164 L
671.725 143.357 L
672.112 141.473 L
672.5 139.939 L
672.888 140.312 L
673.275 139.854 L
673.662 139.264 L
674.05 139.917 L
674.438 141.6 L
674.825 141.919 L
675.213 140.099 L
675.6 142.012 L
675.987 139.995 L
676.375 137.992 L
676.763 137.537 L
677.15 136.401 L
677.537 136.097 L
677.925 134.336 L
678.313 135.081 L
678.7 134.819 L
679.088 132.888 L
679.475 131.51 L
679.862 130.95 L
680.25 131.305 L
680.638 130.146 L
681.025 128.427 L
681.412 128.733 L
681.8 126.469 L
682.188 125.415 L
682.575 123.739 L
682.963 124.962 L
683.35 124.529 L
683.737 123.675 L
684.125 123.664 L
684.513 123.379 L
684.9 122.806 L
685.287 122.459 L
685.675 120.821 L
686.063 122.049 L
686.45 122.295 L
686.838 121.953 L
687.225 120.227 L
687.612 120.464 L
688 119.941 L
688.388 118.673 L
688.775 117.342 L
689.162 118.062 L
689.55 117.584 L
689.938 116.777 L
690.325 115.755 L
690.713 112.372 L
691.1 110.465 L
691.487 110.178 L
691.875 110.307 L
692.263 110.174 L
692.65 107.389 L
693.037 107.565 L
693.425 107.172 L
693.813 106.785 L
694.2 104.93 L
694.588 104.396 L
694.975 104.661 L
695.362 103.396 L
695.75 103.049 L
696.138 104.114 L
696.525 103.376 L
696.912 103.677 L
697.3 104.002 L
697.688 105.8 L
698.075 105.853 L
698.463 105.759 L
698.85 105.094 L
699.237 104.492 L
699.625 104.722 L
700.013 104.722 L
700.4 104.883 L
700.787 104.851 L
701.175 102.935 L
701.563 103.317 L
701.95 102.939 L
702.338 102.615 L
702.725 101.887 L
703.112 100.863 L
703.5 100.429 L
703.888 99.267 L
704.275 99.594 L
704.662 100.168 L
705.05 99.165 L
705.438 98.661 L
705.825 99.012 L
706.213 98.906 L
706.6 98.459 L
706.987 99.25 L
707.375 98.278 L
707.763 99.578 L
708.15 98.777 L
708.537 100.426 L
708.925 101.439 L
709.313 101.247 L
709.7 102.199 L
710.088 101.581 L
710.475 102.24 L
710.862 102.769 L
711.25 102.705 L
711.638 101.812 L
712.025 100.738 L
712.412 101.268 L
712.8 100.822 L
713.188 100.986 L
713.575 101.103 L
713.963 100.855 L
714.35 100.193 L
714.737 99.638 L
715.125 100.073 L
715.513 99.3 L
715.9 98.11 L
716.287 97.992 L
716.675 97.319 L
717.063 97.146 L
717.45 96.309 L
717.838 96.215 L
718.225 95.916 L
718.612 97.202 L
719 97.788 L
719.388 98.062 L
719.775 97.169 L
720.162 97.467 L
720.55 97.949 L
720.938 97.944 L
721.325 99.358 L
721.713 100.766 L
722.1 101.184 L
722.487 101.971 L
722.875 102.307 L
723.263 102.901 L
723.65 103.534 L
724.037 103.458 L
724.425 103.237 L
724.813 103.667 L
725.2 103.679 L
725.588 104.333 L
725.975 104.957 L
726.362 104.868 L
726.75 104.999 L
727.138 104.153 L
727.525 103.076 L
727.912 103.932 L
728.3 102.981 L
728.688 102.63 L
729.075 102.812 L
729.463 103.832 L
729.85 104.382 L
730.237 105.214 L
730.625 104.888 L
731.013 106.174 L
731.4 105.289 L
731.787 105.789 L
732.175 105.643 L
732.563 105.919 L
732.95 106.096 L
733.338 105.782 L
733.725 106.062 L
734.112 106.299 L
734.5 107.473 L
734.888 107.67 L
735.275 108.701 L
735.662 109.754 L
736.05 110.249 L
736.438 111.469 L
736.825 112.732 L
737.213 113.715 L
737.6 113.774 L
737.987 114.302 L
738.375 114.992 L
738.763 114.819 L
739.15 114.086 L
739.537 114.527 L
739.925 113.283 L
740.313 113.772 L
740.7 114.567 L
741.088 115.064 L
741.475 114.915 L
741.862 114.719 L
742.25 114.36 L
742.638 114.513 L
743.025 115.496 L
743.412 116.917 L
743.8 117.917 L
744.188 118.139 L
744.575 119.428 L
744.963 120.465 L
745.35 121.916 L
745.737 120.824 L
746.125 123.874 L
746.513 124.432 L
746.9 127.58 L
747.287 128.257 L
747.675 127.864 L
748.063 127.762 L
748.45 127.753 L
748.838 128.895 L
749.225 127.729 L
749.612 128.69 L
750 128.545 L
750.388 129.427 L
750.775 129.817 L
751.162 131.149 L
751.55 131.149 L
751.938 131.539 L
752.325 133.082 L
752.713 133.681 L
753.1 135.296 L
753.487 136.526 L
753.875 136.755 L
754.263 139.309 L
754.65 140.935 L
755.037 140.409 L
755.425 142.005 L
755.813 142.365 L
756.2 143.043 L
756.588 142.914 L
756.975 142.767 L
757.362 143.437 L
757.75 144.996 L
758.138 145.616 L
758.525 147.568 L
758.912 148.357 L
759.3 150.061 L
759.688 152.557 L
760.075 152.421 L
760.463 153.384 L
760.85 152.441 L
761.237 153.037 L
761.625 154.051 L
762.013 156.552 L
762.4 156.085 L
762.787 155.98 L
763.175 156.45 L
763.563 155.629 L
763.95 156.005 L
764.338 156.25 L
764.725 155.768 L
765.112 153.517 L
765.5 154.335 L
765.888 152.36 L
766.275 152.712 L
766.662 152.098 L
767.05 152.615 L
767.438 153.149 L
767.825 153.251 L
768.213 154.866 L
768.6 155.067 L
768.987 155.843 L
769.375 154.439 L
769.763 155.605 L
770.15 155.246 L
770.537 154.096 L
770.925 155.553 L
771.313 157.421 L
771.7 159.059 L
772.088 157.086 L
772.475 156.187 L
772.862 156.433 L
773.25 154.939 L
773.638 156.292 L
774.025 154.431 L
774.412 152.464 L
774.8 152.558 L
775.188 150.86 L
775.575 150.899 L
775.963 150.637 L
776.35 149.655 L
776.737 149.876 L
777.125 151.334 L
777.513 150.475 L
777.9 150.904 L
778.287 151.232 L
778.675 152.233 L
779.063 152.946 L
779.45 152.406 L
779.838 152.852 L
780.225 151.824 L
780.612 152.143 L
781 152.121 L
781.388 152.027 L
781.775 150.417 L
782.162 150.73 L
782.55 150.693 L
782.938 149.95 L
783.325 150.092 L
783.713 150.289 L
784.1 150.016 L
784.487 152.85 L
784.875 153.136 L
785.263 152.645 L
785.65 153.537 L
786.037 153.928 L
786.425 155.094 L
786.813 154.2 L
787.2 154.984 L
787.588 156.883 L
787.975 155.888 L
788.362 156.625 L
788.75 156.613 L
789.138 157.743 L
789.525 157.716 L
789.912 157.793 L
790.3 158.916 L
790.688 157.472 L
791.075 157.937 L
791.463 158.015 L
791.85 160.767 L
792.237 162.633 L
792.625 163.554 L
793.013 164.568 L
793.4 163.681 L
793.787 164.375 L
794.175 165.446 L
794.563 166.192 L
794.95 167.313 L
795.338 168.87 L
795.725 168.599 L
796.112 168.697 L
796.5 168.682 L
796.888 167.398 L
797.275 166.907 L
797.662 167.459 L
798.05 166.068 L
798.438 165.953 L
798.825 165.08 L
799.213 166.414 L
799.6 166.204 L
799.987 166.959 L
800.375 168.321 L
800.763 169.578 L
801.15 170.809 L
801.537 168.936 L
801.925 169.378 L
802.313 169.895 L
802.7 168.797 L
803.088 167.464 L
803.475 167.205 L
803.862 168.296 L
804.25 166.652 L
804.638 166.118 L
805.025 164.658 L
805.412 163.552 L
805.8 162.551 L
806.188 160.586 L
806.575 161.025 L
806.963 160.591 L
807.35 160.784 L
807.737 161.875 L
808.125 161.255 L
808.513 161.657 L
808.9 161.183 L
809.287 160.808 L
809.675 160.155 L
810.063 159.686 L
810.45 160.249 L
810.838 160.711 L
811.225 160.794 L
811.612 159.207 L
812 159.32 L
812.388 158.672 L
812.775 160.034 L
813.162 159.9 L
813.55 159.866 L
813.938 160.346 L
814.325 161.225 L
814.713 161.61 L
815.1 160.845 L
815.487 161.232 L
815.875 162.935 L
816.263 163.352 L
816.65 162.047 L
817.037 162.538 L
817.425 161.61 L
817.813 162.128 L
818.2 161.271 L
818.588 162.226 L
818.975 162.471 L
819.362 162.788 L
819.75 162.099 L
820.138 162.233 L
820.525 162.757 L
820.912 161.804 L
821.3 163.532 L
821.688 164.05 L
822.075 164.842 L
822.463 166.07 L
822.85 167.765 L
823.237 166.906 L
823.625 166.088 L
824.013 165.51 L
824.4 167.271 L
824.787 168.95 L
825.175 171.139 L
825.563 171.527 L
825.95 171.527 L
826.338 171.62 L
826.725 170.974 L
827.112 169.963 L
827.5 169.289 L
827.888 168.096 L
828.275 168.437 L
828.662 167.515 L
829.05 166.334 L
829.438 167.072 L
829.825 167.166 L
830.213 165.282 L
830.6 162.081 L
830.987 161.26 L
831.375 163.267 L
831.763 162.108 L
832.15 161.964 L
832.537 159.001 L
832.925 159.001 L
833.313 158.237 L
833.7 157.978 L
834.088 158.715 L
834.475 156.714 L
834.862 156.902 L
835.25 158.375 L
835.638 156.887 L
836.025 154.667 L
836.412 156.736 L
836.8 156.163 L
837.188 156.232 L
837.575 156.573 L
837.963 156.339 L
838.35 155.657 L
838.737 153.796 L
839.125 153.525 L
839.513 155.045 L
839.9 154.332 L
840.287 151.979 L
840.675 153.432 L
841.063 154.732 L
841.45 153.285 L
841.838 152.481 L
842.225 151.99 L
842.612 151.382 L
843 152.395 L
843.388 153.214 L
843.775 153.604 L
844.162 152.22 L
844.55 153.721 L
844.938 151.6 L
845.325 150.437 L
845.713 150.577 L
846.1 149.202 L
846.487 149.719 L
846.875 150.441 L
847.263 149.392 L
847.65 151.635 L
848.037 149.998 L
848.425 151.395 L
848.813 151.744 L
849.2 151.028 L
849.588 151.403 L
849.975 153.59 L
850.362 155.932 L
850.75 155.297 L
851.138 153.578 L
851.525 152.24 L
851.912 152.24 L
852.3 152.583 L
852.688 154.251 L
853.075 155.97 L
853.463 157.573 L
853.85 156.474 L
854.237 156.38 L
854.625 154.783 L
855.013 152.135 L
855.4 150.927 L
855.787 153.004 L
856.175 153.331 L
856.563 153.07 L
856.95 151.563 L
857.338 150.212 L
857.725 151.175 L
858.112 151.243 L
858.5 149.753 L
858.888 150.863 L
859.275 149.628 L
859.662 148.61 L
860.05 147.984 L
860.438 147.383 L
860.825 146.083 L
861.213 147.609 L
861.6 145.981 L
861.987 145.588 L
862.375 146.801 L
862.763 147.292 L
863.15 145.246 L
863.537 145.921 L
863.925 145.467 L
864.313 145.058 L
864.7 145.563 L
865.088 147.647 L
865.475 146.156 L
865.862 146.518 L
866.25 147.261 L
866.638 145.972 L
867.025 147.888 L
867.412 146.22 L
867.8 145.956 L
868.188 145.645 L
868.575 146.461 L
868.963 148.682 L
869.35 147.033 L
869.737 145.26 L
870.125 143.623 L
870.513 144.401 L
870.9 144.646 L
871.287 145.072 L
871.675 144.826 L
872.063 144.613 L
872.45 143.585 L
872.838 140.943 L
873.225 139.47 L
873.612 139.341 L
874 140.925 L
874.388 142.476 L
874.775 142.476 L
875.162 143.126 L
875.55 143.269 L
875.938 141.632 L
876.325 141.442 L
876.713 142.335 L
877.1 141.844 L
877.487 142.711 L
877.875 142.916 L
878.263 145.066 L
878.65 143.46 L
879.037 143.748 L
879.425 142.511 L
879.813 142.881 L
880.2 141.689 L
880.588 139.935 L
880.975 140.307 L
881.362 141.818 L
881.75 141.883 L
882.138 139.758 L
882.525 138.284 L
882.912 137.671 L
883.3 136.399 L
883.688 136.665 L
884.075 135.437 L
884.463 134.461 L
884.85 133.22 L
885.237 133.151 L
885.625 133.151 L
886.013 131.032 L
886.4 131.053 L
886.787 130.349 L
887.175 130.219 L
887.563 131.096 L
887.95 129.859 L
888.338 128.734 L
888.725 126.448 L
889.112 126.959 L
889.5 126.587 L
889.888 126.136 L
890.275 124.877 L
890.662 123.263 L
891.05 123.513 L
891.438 121.902 L
891.825 123.336 L
892.213 122.309 L
892.6 122.495 L
892.987 122.351 L
893.375 120.193 L
893.763 119.757 L
894.15 118.935 L
894.537 118.41 L
894.925 118.024 L
895.313 116.142 L
895.7 116.025 L
896.088 116.373 L
896.475 115.385 L
896.862 115.688 L
897.25 113.522 L
897.638 111.478 L
898.025 109.974 L
898.412 109.771 L
898.8 108.784 L
899.188 109.709 L
899.575 109.728 L
899.963 109.187 L
900.35 110.105 L
900.737 107.659 L
901.125 106.101 L
901.513 105.646 L
901.9 106.042 L
902.287 106.57 L
902.675 107.718 L
903.063 106.487 L
903.45 106.415 L
903.838 105.157 L
904.225 105.549 L
904.612 103.998 L
905 105.446 L
S
GR
%%Trailer
%%Pages: 1
%%EOF
