%!PS-Adobe-3.0 EPSF-3.0
%%Creator: (MATLAB, The Mathworks, Inc. Version 9.0.0.341360 \(R2016a\). Operating System: Linux)
%%Title: report/figures/sm_base_lin_nopriosampling4_ratio.eps
%%CreationDate: 2017-02-04T23:56:27
%%Pages: (atend)
%%BoundingBox:    59     4   910   325
%%LanguageLevel: 3
%%EndComments
%%BeginProlog
%%BeginResource: procset (Apache XML Graphics Std ProcSet) 1.2 0
%%Version: 1.2 0
%%Copyright: (Copyright 2001-2003,2010 The Apache Software Foundation. License terms: http://www.apache.org/licenses/LICENSE-2.0)
/bd{bind def}bind def
/ld{load def}bd
/GR/grestore ld
/M/moveto ld
/LJ/setlinejoin ld
/C/curveto ld
/f/fill ld
/LW/setlinewidth ld
/GC/setgray ld
/t/show ld
/N/newpath ld
/CT/concat ld
/cp/closepath ld
/S/stroke ld
/L/lineto ld
/CC/setcmykcolor ld
/A/ashow ld
/GS/gsave ld
/RC/setrgbcolor ld
/RM/rmoveto ld
/ML/setmiterlimit ld
/re {4 2 roll M
1 index 0 rlineto
0 exch rlineto
neg 0 rlineto
cp } bd
/_ctm matrix def
/_tm matrix def
/BT { _ctm currentmatrix pop matrix _tm copy pop 0 0 moveto } bd
/ET { _ctm setmatrix } bd
/iTm { _ctm setmatrix _tm concat } bd
/Tm { _tm astore pop iTm 0 0 moveto } bd
/ux 0.0 def
/uy 0.0 def
/F {
  /Tp exch def
  /Tf exch def
  Tf findfont Tp scalefont setfont
  /cf Tf def  /cs Tp def
} bd
/ULS {currentpoint /uy exch def /ux exch def} bd
/ULE {
  /Tcx currentpoint pop def
  gsave
  newpath
  cf findfont cs scalefont dup
  /FontMatrix get 0 get /Ts exch def /FontInfo get dup
  /UnderlinePosition get Ts mul /To exch def
  /UnderlineThickness get Ts mul /Tt exch def
  ux uy To add moveto  Tcx uy To add lineto
  Tt setlinewidth stroke
  grestore
} bd
/OLE {
  /Tcx currentpoint pop def
  gsave
  newpath
  cf findfont cs scalefont dup
  /FontMatrix get 0 get /Ts exch def /FontInfo get dup
  /UnderlinePosition get Ts mul /To exch def
  /UnderlineThickness get Ts mul /Tt exch def
  ux uy To add cs add moveto Tcx uy To add cs add lineto
  Tt setlinewidth stroke
  grestore
} bd
/SOE {
  /Tcx currentpoint pop def
  gsave
  newpath
  cf findfont cs scalefont dup
  /FontMatrix get 0 get /Ts exch def /FontInfo get dup
  /UnderlinePosition get Ts mul /To exch def
  /UnderlineThickness get Ts mul /Tt exch def
  ux uy To add cs 10 mul 26 idiv add moveto Tcx uy To add cs 10 mul 26 idiv add lineto
  Tt setlinewidth stroke
  grestore
} bd
/QT {
/Y22 exch store
/X22 exch store
/Y21 exch store
/X21 exch store
currentpoint
/Y21 load 2 mul add 3 div exch
/X21 load 2 mul add 3 div exch
/X21 load 2 mul /X22 load add 3 div
/Y21 load 2 mul /Y22 load add 3 div
/X22 load /Y22 load curveto
} bd
/SSPD {
dup length /d exch dict def
{
/v exch def
/k exch def
currentpagedevice k known {
/cpdv currentpagedevice k get def
v cpdv ne {
/upd false def
/nullv v type /nulltype eq def
/nullcpdv cpdv type /nulltype eq def
nullv nullcpdv or
{
/upd true def
} {
/sametype v type cpdv type eq def
sametype {
v type /arraytype eq {
/vlen v length def
/cpdvlen cpdv length def
vlen cpdvlen eq {
0 1 vlen 1 sub {
/i exch def
/obj v i get def
/cpdobj cpdv i get def
obj cpdobj ne {
/upd true def
exit
} if
} for
} {
/upd true def
} ifelse
} {
v type /dicttype eq {
v {
/dv exch def
/dk exch def
/cpddv cpdv dk get def
dv cpddv ne {
/upd true def
exit
} if
} forall
} {
/upd true def
} ifelse
} ifelse
} if
} ifelse
upd true eq {
d k v put
} if
} if
} if
} forall
d length 0 gt {
d setpagedevice
} if
} bd
%%EndResource
%%BeginResource: procset (Apache XML Graphics EPS ProcSet) 1.0 0
%%Version: 1.0 0
%%Copyright: (Copyright 2002-2003 The Apache Software Foundation. License terms: http://www.apache.org/licenses/LICENSE-2.0)
/BeginEPSF { %def
/b4_Inc_state save def         % Save state for cleanup
/dict_count countdictstack def % Count objects on dict stack
/op_count count 1 sub def      % Count objects on operand stack
userdict begin                 % Push userdict on dict stack
/showpage { } def              % Redefine showpage, { } = null proc
0 setgray 0 setlinecap         % Prepare graphics state
1 setlinewidth 0 setlinejoin
10 setmiterlimit [ ] 0 setdash newpath
/languagelevel where           % If level not equal to 1 then
{pop languagelevel             % set strokeadjust and
1 ne                           % overprint to their defaults.
{false setstrokeadjust false setoverprint
} if
} if
} bd
/EndEPSF { %def
count op_count sub {pop} repeat            % Clean up stacks
countdictstack dict_count sub {end} repeat
b4_Inc_state restore
} bd
%%EndResource
%%EndProlog
%%Page: 1 1
%%PageBoundingBox: 0 0 1000 350
%%BeginPageSetup
[1 0 0 -1 0 350] CT
%%EndPageSetup
GS
1 GC
N
0 0 1000 350 re
f
GR
GS
1 GC
N
0 0 1000 350 re
f
GR
GS
1 GC
N
130 289 M
905 289 L
905 26 L
130 26 L
cp
f
GR
GS
0.873 GC
1 LJ
0.5 LW
N
130 289 M
130 26 L
S
GR
GS
0.873 GC
1 LJ
0.5 LW
N
323.75 289 M
323.75 26 L
S
GR
GS
0.873 GC
1 LJ
0.5 LW
N
517.5 289 M
517.5 26 L
S
GR
GS
0.873 GC
1 LJ
0.5 LW
N
711.25 289 M
711.25 26 L
S
GR
GS
0.873 GC
1 LJ
0.5 LW
N
905 289 M
905 26 L
S
GR
GS
0.873 GC
1 LJ
0.5 LW
N
905 289 M
130 289 L
S
GR
GS
0.873 GC
1 LJ
0.5 LW
N
905 238.905 M
130 238.905 L
S
GR
GS
0.873 GC
1 LJ
0.5 LW
N
905 188.81 M
130 188.81 L
S
GR
GS
0.873 GC
1 LJ
0.5 LW
N
905 138.714 M
130 138.714 L
S
GR
GS
0.873 GC
1 LJ
0.5 LW
N
905 88.619 M
130 88.619 L
S
GR
GS
0.873 GC
1 LJ
0.5 LW
N
905 38.524 M
130 38.524 L
S
GR
GS
0.149 GC
2 setlinecap
1 LJ
0.5 LW
N
130 289 M
905 289 L
S
GR
GS
0.149 GC
2 setlinecap
1 LJ
0.5 LW
N
130 289 M
130 281.25 L
S
GR
GS
0.149 GC
2 setlinecap
1 LJ
0.5 LW
N
323.75 289 M
323.75 281.25 L
S
GR
GS
0.149 GC
2 setlinecap
1 LJ
0.5 LW
N
517.5 289 M
517.5 281.25 L
S
GR
GS
0.149 GC
2 setlinecap
1 LJ
0.5 LW
N
711.25 289 M
711.25 281.25 L
S
GR
GS
0.149 GC
2 setlinecap
1 LJ
0.5 LW
N
905 289 M
905 281.25 L
S
GR
GS
[1 0 0 1 130 295] CT
0.149 GC
N
-0.141 5.719 M
-1.672 5.719 -2.438 7.219 QT
-3.203 8.719 -3.203 11.719 QT
-3.203 14.719 -2.438 16.219 QT
-1.672 17.719 -0.141 17.719 QT
1.391 17.719 2.156 16.219 QT
2.922 14.719 2.922 11.719 QT
2.922 8.719 2.156 7.219 QT
1.391 5.719 -0.141 5.719 QT
cp
-0.141 4.156 M
2.313 4.156 3.602 6.094 QT
4.891 8.031 4.891 11.719 QT
4.891 15.406 3.602 17.344 QT
2.313 19.281 -0.141 19.281 QT
-2.594 19.281 -3.891 17.344 QT
-5.188 15.406 -5.188 11.719 QT
-5.188 8.031 -3.891 6.094 QT
-2.594 4.156 -0.141 4.156 QT
cp
f
GR
GS
[1 0 0 1 323.75 295] CT
0.149 GC
N
-9.641 5.719 M
-11.172 5.719 -11.938 7.219 QT
-12.703 8.719 -12.703 11.719 QT
-12.703 14.719 -11.938 16.219 QT
-11.172 17.719 -9.641 17.719 QT
-8.109 17.719 -7.344 16.219 QT
-6.578 14.719 -6.578 11.719 QT
-6.578 8.719 -7.344 7.219 QT
-8.109 5.719 -9.641 5.719 QT
cp
-9.641 4.156 M
-7.188 4.156 -5.898 6.094 QT
-4.609 8.031 -4.609 11.719 QT
-4.609 15.406 -5.898 17.344 QT
-7.188 19.281 -9.641 19.281 QT
-12.094 19.281 -13.391 17.344 QT
-14.688 15.406 -14.688 11.719 QT
-14.688 8.031 -13.391 6.094 QT
-12.094 4.156 -9.641 4.156 QT
cp
-1.135 16.516 M
0.928 16.516 L
0.928 19 L
-1.135 19 L
-1.135 16.516 L
cp
5.238 4.422 M
12.988 4.422 L
12.988 6.078 L
7.051 6.078 L
7.051 9.656 L
7.473 9.5 7.902 9.43 QT
8.332 9.359 8.77 9.359 QT
11.207 9.359 12.637 10.695 QT
14.066 12.031 14.066 14.328 QT
14.066 16.672 12.598 17.977 QT
11.129 19.281 8.457 19.281 QT
7.551 19.281 6.598 19.125 QT
5.645 18.969 4.629 18.656 QT
4.629 16.672 L
5.504 17.156 6.441 17.391 QT
7.379 17.625 8.426 17.625 QT
10.113 17.625 11.098 16.734 QT
12.082 15.844 12.082 14.328 QT
12.082 12.797 11.098 11.906 QT
10.113 11.016 8.426 11.016 QT
7.629 11.016 6.848 11.195 QT
6.066 11.375 5.238 11.75 QT
5.238 4.422 L
cp
f
GR
GS
[1 0 0 1 517.5 295] CT
0.149 GC
N
-4.016 17.344 M
-0.797 17.344 L
-0.797 6.219 L
-4.297 6.922 L
-4.297 5.125 L
-0.813 4.422 L
1.156 4.422 L
1.156 17.344 L
4.375 17.344 L
4.375 19 L
-4.016 19 L
-4.016 17.344 L
cp
f
GR
GS
[1 0 0 1 711.25 295] CT
0.149 GC
N
-13.516 17.344 M
-10.297 17.344 L
-10.297 6.219 L
-13.797 6.922 L
-13.797 5.125 L
-10.313 4.422 L
-8.344 4.422 L
-8.344 17.344 L
-5.125 17.344 L
-5.125 19 L
-13.516 19 L
-13.516 17.344 L
cp
-1.135 16.516 M
0.928 16.516 L
0.928 19 L
-1.135 19 L
-1.135 16.516 L
cp
5.238 4.422 M
12.988 4.422 L
12.988 6.078 L
7.051 6.078 L
7.051 9.656 L
7.473 9.5 7.902 9.43 QT
8.332 9.359 8.77 9.359 QT
11.207 9.359 12.637 10.695 QT
14.066 12.031 14.066 14.328 QT
14.066 16.672 12.598 17.977 QT
11.129 19.281 8.457 19.281 QT
7.551 19.281 6.598 19.125 QT
5.645 18.969 4.629 18.656 QT
4.629 16.672 L
5.504 17.156 6.441 17.391 QT
7.379 17.625 8.426 17.625 QT
10.113 17.625 11.098 16.734 QT
12.082 15.844 12.082 14.328 QT
12.082 12.797 11.098 11.906 QT
10.113 11.016 8.426 11.016 QT
7.629 11.016 6.848 11.195 QT
6.066 11.375 5.238 11.75 QT
5.238 4.422 L
cp
f
GR
GS
[1 0 0 1 905 295] CT
0.149 GC
N
-2.656 17.344 M
4.219 17.344 L
4.219 19 L
-5.031 19 L
-5.031 17.344 L
-3.906 16.172 -1.969 14.219 QT
-0.031 12.266 0.469 11.688 QT
1.406 10.625 1.781 9.891 QT
2.156 9.156 2.156 8.438 QT
2.156 7.281 1.344 6.547 QT
0.531 5.813 -0.781 5.813 QT
-1.703 5.813 -2.734 6.133 QT
-3.766 6.453 -4.938 7.109 QT
-4.938 5.125 L
-3.75 4.641 -2.711 4.398 QT
-1.672 4.156 -0.813 4.156 QT
1.453 4.156 2.797 5.289 QT
4.141 6.422 4.141 8.313 QT
4.141 9.219 3.805 10.023 QT
3.469 10.828 2.578 11.922 QT
2.344 12.203 1.031 13.555 QT
-0.281 14.906 -2.656 17.344 QT
cp
f
GR
GS
[1 0 0 1 517.50037 320] CT
0.149 GC
N
-14.25 9.328 M
-14.25 11.188 L
-15.094 10.766 -16 10.547 QT
-16.906 10.328 -17.859 10.328 QT
-19.344 10.328 -20.078 10.781 QT
-20.813 11.234 -20.813 12.141 QT
-20.813 12.828 -20.281 13.219 QT
-19.75 13.609 -18.172 13.969 QT
-17.484 14.109 L
-15.391 14.563 -14.5 15.383 QT
-13.609 16.203 -13.609 17.688 QT
-13.609 19.359 -14.938 20.336 QT
-16.266 21.313 -18.578 21.313 QT
-19.547 21.313 -20.594 21.125 QT
-21.641 20.938 -22.813 20.563 QT
-22.813 18.516 L
-21.719 19.094 -20.648 19.375 QT
-19.578 19.656 -18.547 19.656 QT
-17.141 19.656 -16.391 19.18 QT
-15.641 18.703 -15.641 17.828 QT
-15.641 17.031 -16.188 16.602 QT
-16.734 16.172 -18.563 15.766 QT
-19.25 15.609 L
-21.094 15.219 -21.906 14.422 QT
-22.719 13.625 -22.719 12.219 QT
-22.719 10.531 -21.516 9.602 QT
-20.313 8.672 -18.109 8.672 QT
-17 8.672 -16.039 8.836 QT
-15.078 9 -14.25 9.328 QT
cp
-8.507 5.547 M
-8.507 8.969 L
-4.444 8.969 L
-4.444 10.5 L
-8.507 10.5 L
-8.507 17.031 L
-8.507 18.5 -8.108 18.922 QT
-7.71 19.344 -6.476 19.344 QT
-4.444 19.344 L
-4.444 21 L
-6.476 21 L
-8.757 21 -9.624 20.148 QT
-10.491 19.297 -10.491 17.031 QT
-10.491 10.5 L
-11.944 10.5 L
-11.944 8.969 L
-10.491 8.969 L
-10.491 5.547 L
-8.507 5.547 L
cp
8.447 14.484 M
8.447 15.453 L
-0.631 15.453 L
-0.506 17.5 0.596 18.57 QT
1.697 19.641 3.666 19.641 QT
4.807 19.641 5.869 19.359 QT
6.932 19.078 7.994 18.516 QT
7.994 20.391 L
6.932 20.844 5.814 21.078 QT
4.697 21.313 3.541 21.313 QT
0.666 21.313 -1.014 19.633 QT
-2.693 17.953 -2.693 15.109 QT
-2.693 12.141 -1.1 10.406 QT
0.494 8.672 3.197 8.672 QT
5.635 8.672 7.041 10.234 QT
8.447 11.797 8.447 14.484 QT
cp
6.479 13.906 M
6.447 12.281 5.564 11.32 QT
4.682 10.359 3.229 10.359 QT
1.572 10.359 0.572 11.289 QT
-0.428 12.219 -0.568 13.922 QT
6.479 13.906 L
cp
13.607 19.188 M
13.607 25.578 L
11.623 25.578 L
11.623 8.969 L
13.607 8.969 L
13.607 10.797 L
14.232 9.719 15.186 9.195 QT
16.139 8.672 17.451 8.672 QT
19.639 8.672 21.014 10.414 QT
22.389 12.156 22.389 15 QT
22.389 17.828 21.014 19.57 QT
19.639 21.313 17.451 21.313 QT
16.139 21.313 15.186 20.789 QT
14.232 20.266 13.607 19.188 QT
cp
20.326 15 M
20.326 12.813 19.436 11.57 QT
18.545 10.328 16.967 10.328 QT
15.404 10.328 14.506 11.57 QT
13.607 12.813 13.607 15 QT
13.607 17.172 14.506 18.414 QT
15.404 19.656 16.967 19.656 QT
18.545 19.656 19.436 18.414 QT
20.326 17.172 20.326 15 QT
cp
f
GR
GS
[1 0 0 1 852 345] CT
0.149 GC
N
2.938 -0.578 M
2.938 -0.734 3.031 -0.859 QT
7.203 -5 L
3.031 -9.156 L
2.938 -9.266 2.938 -9.422 QT
2.938 -9.578 3.055 -9.703 QT
3.172 -9.828 3.344 -9.828 QT
3.484 -9.828 3.641 -9.703 QT
7.781 -5.563 L
11.906 -9.703 L
12.078 -9.828 12.203 -9.828 QT
12.359 -9.828 12.477 -9.711 QT
12.594 -9.594 12.594 -9.422 QT
12.594 -9.266 12.5 -9.156 QT
8.344 -5 L
12.5 -0.859 L
12.594 -0.734 12.594 -0.578 QT
12.594 -0.406 12.477 -0.289 QT
12.359 -0.172 12.203 -0.172 QT
12.047 -0.172 11.906 -0.328 QT
7.781 -4.438 L
3.641 -0.328 L
3.5 -0.172 3.344 -0.172 QT
3.172 -0.172 3.055 -0.305 QT
2.938 -0.438 2.938 -0.578 QT
cp
f
GR
GS
[1 0 0 1 868 345] CT
0.149 GC
N
2.484 -1.656 M
5.703 -1.656 L
5.703 -12.781 L
2.203 -12.078 L
2.203 -13.875 L
5.688 -14.578 L
7.656 -14.578 L
7.656 -1.656 L
10.875 -1.656 L
10.875 0 L
2.484 0 L
2.484 -1.656 L
cp
19.084 -13.281 M
17.553 -13.281 16.787 -11.781 QT
16.021 -10.281 16.021 -7.281 QT
16.021 -4.281 16.787 -2.781 QT
17.553 -1.281 19.084 -1.281 QT
20.615 -1.281 21.381 -2.781 QT
22.146 -4.281 22.146 -7.281 QT
22.146 -10.281 21.381 -11.781 QT
20.615 -13.281 19.084 -13.281 QT
cp
19.084 -14.844 M
21.537 -14.844 22.826 -12.906 QT
24.115 -10.969 24.115 -7.281 QT
24.115 -3.594 22.826 -1.656 QT
21.537 0.281 19.084 0.281 QT
16.631 0.281 15.334 -1.656 QT
14.037 -3.594 14.037 -7.281 QT
14.037 -10.969 15.334 -12.906 QT
16.631 -14.844 19.084 -14.844 QT
cp
f
GR
GS
[1 0 0 1 894 335] CT
0.149 GC
N
5.281 -6.469 M
4.219 -6.469 3.602 -5.742 QT
2.984 -5.016 2.984 -3.75 QT
2.984 -2.484 3.602 -1.758 QT
4.219 -1.031 5.281 -1.031 QT
6.344 -1.031 6.969 -1.758 QT
7.594 -2.484 7.594 -3.75 QT
7.594 -5.016 6.969 -5.742 QT
6.344 -6.469 5.281 -6.469 QT
cp
8.422 -11.406 M
8.422 -9.969 L
7.828 -10.25 7.219 -10.398 QT
6.609 -10.547 6.016 -10.547 QT
4.453 -10.547 3.633 -9.492 QT
2.813 -8.438 2.688 -6.313 QT
3.156 -6.984 3.852 -7.352 QT
4.547 -7.719 5.375 -7.719 QT
7.141 -7.719 8.156 -6.648 QT
9.172 -5.578 9.172 -3.75 QT
9.172 -1.953 8.109 -0.859 QT
7.047 0.234 5.281 0.234 QT
3.266 0.234 2.195 -1.32 QT
1.125 -2.875 1.125 -5.828 QT
1.125 -8.594 2.438 -10.234 QT
3.75 -11.875 5.953 -11.875 QT
6.547 -11.875 7.156 -11.758 QT
7.766 -11.641 8.422 -11.406 QT
cp
f
GR
GS
0.149 GC
2 setlinecap
1 LJ
0.5 LW
N
130 289 M
130 26 L
S
GR
GS
0.149 GC
2 setlinecap
1 LJ
0.5 LW
N
130 289 M
137.75 289 L
S
GR
GS
0.149 GC
2 setlinecap
1 LJ
0.5 LW
N
130 238.905 M
137.75 238.905 L
S
GR
GS
0.149 GC
2 setlinecap
1 LJ
0.5 LW
N
130 188.81 M
137.75 188.81 L
S
GR
GS
0.149 GC
2 setlinecap
1 LJ
0.5 LW
N
130 138.714 M
137.75 138.714 L
S
GR
GS
0.149 GC
2 setlinecap
1 LJ
0.5 LW
N
130 88.619 M
137.75 88.619 L
S
GR
GS
0.149 GC
2 setlinecap
1 LJ
0.5 LW
N
130 38.524 M
137.75 38.524 L
S
GR
GS
[1 0 0 1 124 289] CT
0.149 GC
N
-6.641 -6.281 M
-8.172 -6.281 -8.938 -4.781 QT
-9.703 -3.281 -9.703 -0.281 QT
-9.703 2.719 -8.938 4.219 QT
-8.172 5.719 -6.641 5.719 QT
-5.109 5.719 -4.344 4.219 QT
-3.578 2.719 -3.578 -0.281 QT
-3.578 -3.281 -4.344 -4.781 QT
-5.109 -6.281 -6.641 -6.281 QT
cp
-6.641 -7.844 M
-4.188 -7.844 -2.898 -5.906 QT
-1.609 -3.969 -1.609 -0.281 QT
-1.609 3.406 -2.898 5.344 QT
-4.188 7.281 -6.641 7.281 QT
-9.094 7.281 -10.391 5.344 QT
-11.688 3.406 -11.688 -0.281 QT
-11.688 -3.969 -10.391 -5.906 QT
-9.094 -7.844 -6.641 -7.844 QT
cp
f
GR
GS
[1 0 0 1 124 238.90475] CT
0.149 GC
N
-22.156 5.344 M
-15.281 5.344 L
-15.281 7 L
-24.531 7 L
-24.531 5.344 L
-23.406 4.172 -21.469 2.219 QT
-19.531 0.266 -19.031 -0.313 QT
-18.094 -1.375 -17.719 -2.109 QT
-17.344 -2.844 -17.344 -3.563 QT
-17.344 -4.719 -18.156 -5.453 QT
-18.969 -6.188 -20.281 -6.188 QT
-21.203 -6.188 -22.234 -5.867 QT
-23.266 -5.547 -24.438 -4.891 QT
-24.438 -6.875 L
-23.25 -7.359 -22.211 -7.602 QT
-21.172 -7.844 -20.313 -7.844 QT
-18.047 -7.844 -16.703 -6.711 QT
-15.359 -5.578 -15.359 -3.688 QT
-15.359 -2.781 -15.695 -1.977 QT
-16.031 -1.172 -16.922 -0.078 QT
-17.156 0.203 -18.469 1.555 QT
-19.781 2.906 -22.156 5.344 QT
cp
-6.916 -6.281 M
-8.447 -6.281 -9.213 -4.781 QT
-9.979 -3.281 -9.979 -0.281 QT
-9.979 2.719 -9.213 4.219 QT
-8.447 5.719 -6.916 5.719 QT
-5.385 5.719 -4.619 4.219 QT
-3.854 2.719 -3.854 -0.281 QT
-3.854 -3.281 -4.619 -4.781 QT
-5.385 -6.281 -6.916 -6.281 QT
cp
-6.916 -7.844 M
-4.463 -7.844 -3.174 -5.906 QT
-1.885 -3.969 -1.885 -0.281 QT
-1.885 3.406 -3.174 5.344 QT
-4.463 7.281 -6.916 7.281 QT
-9.369 7.281 -10.666 5.344 QT
-11.963 3.406 -11.963 -0.281 QT
-11.963 -3.969 -10.666 -5.906 QT
-9.369 -7.844 -6.916 -7.844 QT
cp
f
GR
GS
[1 0 0 1 124 188.80952] CT
0.149 GC
N
-18.438 -5.859 M
-23.422 1.922 L
-18.438 1.922 L
-18.438 -5.859 L
cp
-18.953 -7.578 M
-16.484 -7.578 L
-16.484 1.922 L
-14.391 1.922 L
-14.391 3.563 L
-16.484 3.563 L
-16.484 7 L
-18.438 7 L
-18.438 3.563 L
-25.016 3.563 L
-25.016 1.656 L
-18.953 -7.578 L
cp
-6.916 -6.281 M
-8.447 -6.281 -9.213 -4.781 QT
-9.979 -3.281 -9.979 -0.281 QT
-9.979 2.719 -9.213 4.219 QT
-8.447 5.719 -6.916 5.719 QT
-5.385 5.719 -4.619 4.219 QT
-3.854 2.719 -3.854 -0.281 QT
-3.854 -3.281 -4.619 -4.781 QT
-5.385 -6.281 -6.916 -6.281 QT
cp
-6.916 -7.844 M
-4.463 -7.844 -3.174 -5.906 QT
-1.885 -3.969 -1.885 -0.281 QT
-1.885 3.406 -3.174 5.344 QT
-4.463 7.281 -6.916 7.281 QT
-9.369 7.281 -10.666 5.344 QT
-11.963 3.406 -11.963 -0.281 QT
-11.963 -3.969 -10.666 -5.906 QT
-9.369 -7.844 -6.916 -7.844 QT
cp
f
GR
GS
[1 0 0 1 124 138.71428] CT
0.149 GC
N
-19.391 -1.078 M
-20.719 -1.078 -21.5 -0.172 QT
-22.281 0.734 -22.281 2.328 QT
-22.281 3.891 -21.5 4.805 QT
-20.719 5.719 -19.391 5.719 QT
-18.063 5.719 -17.289 4.805 QT
-16.516 3.891 -16.516 2.328 QT
-16.516 0.734 -17.289 -0.172 QT
-18.063 -1.078 -19.391 -1.078 QT
cp
-15.484 -7.266 M
-15.484 -5.469 L
-16.219 -5.813 -16.977 -6 QT
-17.734 -6.188 -18.484 -6.188 QT
-20.438 -6.188 -21.469 -4.867 QT
-22.5 -3.547 -22.641 -0.875 QT
-22.063 -1.734 -21.195 -2.188 QT
-20.328 -2.641 -19.281 -2.641 QT
-17.078 -2.641 -15.805 -1.305 QT
-14.531 0.031 -14.531 2.328 QT
-14.531 4.563 -15.859 5.922 QT
-17.188 7.281 -19.391 7.281 QT
-21.922 7.281 -23.266 5.344 QT
-24.609 3.406 -24.609 -0.281 QT
-24.609 -3.734 -22.969 -5.789 QT
-21.328 -7.844 -18.563 -7.844 QT
-17.813 -7.844 -17.055 -7.695 QT
-16.297 -7.547 -15.484 -7.266 QT
cp
-6.916 -6.281 M
-8.447 -6.281 -9.213 -4.781 QT
-9.979 -3.281 -9.979 -0.281 QT
-9.979 2.719 -9.213 4.219 QT
-8.447 5.719 -6.916 5.719 QT
-5.385 5.719 -4.619 4.219 QT
-3.854 2.719 -3.854 -0.281 QT
-3.854 -3.281 -4.619 -4.781 QT
-5.385 -6.281 -6.916 -6.281 QT
cp
-6.916 -7.844 M
-4.463 -7.844 -3.174 -5.906 QT
-1.885 -3.969 -1.885 -0.281 QT
-1.885 3.406 -3.174 5.344 QT
-4.463 7.281 -6.916 7.281 QT
-9.369 7.281 -10.666 5.344 QT
-11.963 3.406 -11.963 -0.281 QT
-11.963 -3.969 -10.666 -5.906 QT
-9.369 -7.844 -6.916 -7.844 QT
cp
f
GR
GS
[1 0 0 1 124 88.61905] CT
0.149 GC
N
-19.641 0.078 M
-21.047 0.078 -21.852 0.828 QT
-22.656 1.578 -22.656 2.891 QT
-22.656 4.219 -21.852 4.969 QT
-21.047 5.719 -19.641 5.719 QT
-18.234 5.719 -17.422 4.961 QT
-16.609 4.203 -16.609 2.891 QT
-16.609 1.578 -17.414 0.828 QT
-18.219 0.078 -19.641 0.078 QT
cp
-21.609 -0.766 M
-22.891 -1.078 -23.594 -1.945 QT
-24.297 -2.813 -24.297 -4.063 QT
-24.297 -5.813 -23.055 -6.828 QT
-21.813 -7.844 -19.641 -7.844 QT
-17.469 -7.844 -16.227 -6.828 QT
-14.984 -5.813 -14.984 -4.063 QT
-14.984 -2.813 -15.695 -1.945 QT
-16.406 -1.078 -17.656 -0.766 QT
-16.234 -0.438 -15.438 0.531 QT
-14.641 1.5 -14.641 2.891 QT
-14.641 5.016 -15.938 6.148 QT
-17.234 7.281 -19.641 7.281 QT
-22.047 7.281 -23.344 6.148 QT
-24.641 5.016 -24.641 2.891 QT
-24.641 1.5 -23.844 0.531 QT
-23.047 -0.438 -21.609 -0.766 QT
cp
-22.344 -3.875 M
-22.344 -2.75 -21.633 -2.117 QT
-20.922 -1.484 -19.641 -1.484 QT
-18.375 -1.484 -17.656 -2.117 QT
-16.938 -2.75 -16.938 -3.875 QT
-16.938 -5.016 -17.656 -5.648 QT
-18.375 -6.281 -19.641 -6.281 QT
-20.922 -6.281 -21.633 -5.648 QT
-22.344 -5.016 -22.344 -3.875 QT
cp
-6.916 -6.281 M
-8.447 -6.281 -9.213 -4.781 QT
-9.979 -3.281 -9.979 -0.281 QT
-9.979 2.719 -9.213 4.219 QT
-8.447 5.719 -6.916 5.719 QT
-5.385 5.719 -4.619 4.219 QT
-3.854 2.719 -3.854 -0.281 QT
-3.854 -3.281 -4.619 -4.781 QT
-5.385 -6.281 -6.916 -6.281 QT
cp
-6.916 -7.844 M
-4.463 -7.844 -3.174 -5.906 QT
-1.885 -3.969 -1.885 -0.281 QT
-1.885 3.406 -3.174 5.344 QT
-4.463 7.281 -6.916 7.281 QT
-9.369 7.281 -10.666 5.344 QT
-11.963 3.406 -11.963 -0.281 QT
-11.963 -3.969 -10.666 -5.906 QT
-9.369 -7.844 -6.916 -7.844 QT
cp
f
GR
GS
[1 0 0 1 124 38.52381] CT
0.149 GC
N
-36.516 5.344 M
-33.297 5.344 L
-33.297 -5.781 L
-36.797 -5.078 L
-36.797 -6.875 L
-33.313 -7.578 L
-31.344 -7.578 L
-31.344 5.344 L
-28.125 5.344 L
-28.125 7 L
-36.516 7 L
-36.516 5.344 L
cp
-19.916 -6.281 M
-21.447 -6.281 -22.213 -4.781 QT
-22.979 -3.281 -22.979 -0.281 QT
-22.979 2.719 -22.213 4.219 QT
-21.447 5.719 -19.916 5.719 QT
-18.385 5.719 -17.619 4.219 QT
-16.854 2.719 -16.854 -0.281 QT
-16.854 -3.281 -17.619 -4.781 QT
-18.385 -6.281 -19.916 -6.281 QT
cp
-19.916 -7.844 M
-17.463 -7.844 -16.174 -5.906 QT
-14.885 -3.969 -14.885 -0.281 QT
-14.885 3.406 -16.174 5.344 QT
-17.463 7.281 -19.916 7.281 QT
-22.369 7.281 -23.666 5.344 QT
-24.963 3.406 -24.963 -0.281 QT
-24.963 -3.969 -23.666 -5.906 QT
-22.369 -7.844 -19.916 -7.844 QT
cp
-7.191 -6.281 M
-8.723 -6.281 -9.488 -4.781 QT
-10.254 -3.281 -10.254 -0.281 QT
-10.254 2.719 -9.488 4.219 QT
-8.723 5.719 -7.191 5.719 QT
-5.66 5.719 -4.895 4.219 QT
-4.129 2.719 -4.129 -0.281 QT
-4.129 -3.281 -4.895 -4.781 QT
-5.66 -6.281 -7.191 -6.281 QT
cp
-7.191 -7.844 M
-4.738 -7.844 -3.449 -5.906 QT
-2.16 -3.969 -2.16 -0.281 QT
-2.16 3.406 -3.449 5.344 QT
-4.738 7.281 -7.191 7.281 QT
-9.645 7.281 -10.941 5.344 QT
-12.238 3.406 -12.238 -0.281 QT
-12.238 -3.969 -10.941 -5.906 QT
-9.645 -7.844 -7.191 -7.844 QT
cp
f
GR
GS
[0 -1 1 0 82 157.49988] CT
0.149 GC
N
-113.063 -22.031 M
-99.5 -22.031 L
-99.5 -20.219 L
-105.188 -20.219 L
-105.188 -6 L
-107.375 -6 L
-107.375 -20.219 L
-113.063 -20.219 L
-113.063 -22.031 L
cp
-92.015 -12.047 M
-94.421 -12.047 -95.343 -11.5 QT
-96.265 -10.953 -96.265 -9.625 QT
-96.265 -8.578 -95.569 -7.961 QT
-94.874 -7.344 -93.687 -7.344 QT
-92.046 -7.344 -91.054 -8.508 QT
-90.062 -9.672 -90.062 -11.609 QT
-90.062 -12.047 L
-92.015 -12.047 L
cp
-88.077 -12.859 M
-88.077 -6 L
-90.062 -6 L
-90.062 -7.828 L
-90.733 -6.734 -91.741 -6.211 QT
-92.749 -5.688 -94.218 -5.688 QT
-96.062 -5.688 -97.147 -6.727 QT
-98.233 -7.766 -98.233 -9.5 QT
-98.233 -11.531 -96.874 -12.563 QT
-95.515 -13.594 -92.827 -13.594 QT
-90.062 -13.594 L
-90.062 -13.781 L
-90.062 -15.156 -90.952 -15.898 QT
-91.843 -16.641 -93.468 -16.641 QT
-94.499 -16.641 -95.476 -16.398 QT
-96.452 -16.156 -97.358 -15.656 QT
-97.358 -17.484 L
-96.28 -17.906 -95.257 -18.117 QT
-94.233 -18.328 -93.265 -18.328 QT
-90.655 -18.328 -89.366 -16.969 QT
-88.077 -15.609 -88.077 -12.859 QT
cp
-77.033 -16.188 M
-77.361 -16.375 -77.76 -16.469 QT
-78.158 -16.563 -78.627 -16.563 QT
-80.299 -16.563 -81.197 -15.469 QT
-82.096 -14.375 -82.096 -12.344 QT
-82.096 -6 L
-84.08 -6 L
-84.08 -18.031 L
-82.096 -18.031 L
-82.096 -16.156 L
-81.471 -17.266 -80.471 -17.797 QT
-79.471 -18.328 -78.049 -18.328 QT
-77.846 -18.328 -77.596 -18.297 QT
-77.346 -18.266 -77.049 -18.219 QT
-77.033 -16.188 L
cp
-67.051 -12.156 M
-67.051 -14.297 -67.934 -15.484 QT
-68.816 -16.672 -70.41 -16.672 QT
-72.004 -16.672 -72.895 -15.484 QT
-73.785 -14.297 -73.785 -12.156 QT
-73.785 -10.016 -72.895 -8.836 QT
-72.004 -7.656 -70.41 -7.656 QT
-68.816 -7.656 -67.934 -8.836 QT
-67.051 -10.016 -67.051 -12.156 QT
cp
-65.066 -7.5 M
-65.066 -4.422 -66.434 -2.922 QT
-67.801 -1.422 -70.613 -1.422 QT
-71.66 -1.422 -72.582 -1.578 QT
-73.504 -1.734 -74.363 -2.063 QT
-74.363 -3.984 L
-73.504 -3.5 -72.652 -3.281 QT
-71.801 -3.063 -70.926 -3.063 QT
-68.973 -3.063 -68.012 -4.078 QT
-67.051 -5.094 -67.051 -7.141 QT
-67.051 -8.109 L
-67.66 -7.047 -68.613 -6.523 QT
-69.566 -6 -70.895 -6 QT
-73.113 -6 -74.465 -7.688 QT
-75.816 -9.375 -75.816 -12.156 QT
-75.816 -14.953 -74.465 -16.641 QT
-73.113 -18.328 -70.895 -18.328 QT
-69.566 -18.328 -68.613 -17.797 QT
-67.66 -17.266 -67.051 -16.203 QT
-67.051 -18.031 L
-65.066 -18.031 L
-65.066 -7.5 L
cp
-50.711 -12.516 M
-50.711 -11.547 L
-59.789 -11.547 L
-59.664 -9.5 -58.563 -8.43 QT
-57.461 -7.359 -55.492 -7.359 QT
-54.352 -7.359 -53.289 -7.641 QT
-52.227 -7.922 -51.164 -8.484 QT
-51.164 -6.609 L
-52.227 -6.156 -53.344 -5.922 QT
-54.461 -5.688 -55.617 -5.688 QT
-58.492 -5.688 -60.172 -7.367 QT
-61.852 -9.047 -61.852 -11.891 QT
-61.852 -14.859 -60.258 -16.594 QT
-58.664 -18.328 -55.961 -18.328 QT
-53.523 -18.328 -52.117 -16.766 QT
-50.711 -15.203 -50.711 -12.516 QT
cp
-52.68 -13.094 M
-52.711 -14.719 -53.594 -15.68 QT
-54.477 -16.641 -55.93 -16.641 QT
-57.586 -16.641 -58.586 -15.711 QT
-59.586 -14.781 -59.727 -13.078 QT
-52.68 -13.094 L
cp
-45.504 -21.453 M
-45.504 -18.031 L
-41.441 -18.031 L
-41.441 -16.5 L
-45.504 -16.5 L
-45.504 -9.969 L
-45.504 -8.5 -45.105 -8.078 QT
-44.707 -7.656 -43.473 -7.656 QT
-41.441 -7.656 L
-41.441 -6 L
-43.473 -6 L
-45.754 -6 -46.621 -6.852 QT
-47.488 -7.703 -47.488 -9.969 QT
-47.488 -16.5 L
-48.941 -16.5 L
-48.941 -18.031 L
-47.488 -18.031 L
-47.488 -21.453 L
-45.504 -21.453 L
cp
-31.159 -17.672 M
-31.159 -15.813 L
-32.003 -16.234 -32.909 -16.453 QT
-33.815 -16.672 -34.769 -16.672 QT
-36.253 -16.672 -36.987 -16.219 QT
-37.722 -15.766 -37.722 -14.859 QT
-37.722 -14.172 -37.19 -13.781 QT
-36.659 -13.391 -35.081 -13.031 QT
-34.394 -12.891 L
-32.3 -12.438 -31.409 -11.617 QT
-30.519 -10.797 -30.519 -9.313 QT
-30.519 -7.641 -31.847 -6.664 QT
-33.175 -5.688 -35.487 -5.688 QT
-36.456 -5.688 -37.503 -5.875 QT
-38.55 -6.063 -39.722 -6.438 QT
-39.722 -8.484 L
-38.628 -7.906 -37.558 -7.625 QT
-36.487 -7.344 -35.456 -7.344 QT
-34.05 -7.344 -33.3 -7.82 QT
-32.55 -8.297 -32.55 -9.172 QT
-32.55 -9.969 -33.097 -10.398 QT
-33.644 -10.828 -35.472 -11.234 QT
-36.159 -11.391 L
-38.003 -11.781 -38.815 -12.578 QT
-39.628 -13.375 -39.628 -14.781 QT
-39.628 -16.469 -38.425 -17.398 QT
-37.222 -18.328 -35.019 -18.328 QT
-33.909 -18.328 -32.948 -18.164 QT
-31.987 -18 -31.159 -17.672 QT
cp
-13.407 -16.188 M
-13.735 -16.375 -14.134 -16.469 QT
-14.532 -16.563 -15.001 -16.563 QT
-16.673 -16.563 -17.571 -15.469 QT
-18.47 -14.375 -18.47 -12.344 QT
-18.47 -6 L
-20.454 -6 L
-20.454 -18.031 L
-18.47 -18.031 L
-18.47 -16.156 L
-17.845 -17.266 -16.845 -17.797 QT
-15.845 -18.328 -14.423 -18.328 QT
-14.22 -18.328 -13.97 -18.297 QT
-13.72 -18.266 -13.423 -18.219 QT
-13.407 -16.188 L
cp
-1.05 -12.516 M
-1.05 -11.547 L
-10.128 -11.547 L
-10.003 -9.5 -8.901 -8.43 QT
-7.8 -7.359 -5.831 -7.359 QT
-4.69 -7.359 -3.628 -7.641 QT
-2.565 -7.922 -1.503 -8.484 QT
-1.503 -6.609 L
-2.565 -6.156 -3.683 -5.922 QT
-4.8 -5.688 -5.956 -5.688 QT
-8.831 -5.688 -10.511 -7.367 QT
-12.19 -9.047 -12.19 -11.891 QT
-12.19 -14.859 -10.597 -16.594 QT
-9.003 -18.328 -6.3 -18.328 QT
-3.862 -18.328 -2.456 -16.766 QT
-1.05 -15.203 -1.05 -12.516 QT
cp
-3.019 -13.094 M
-3.05 -14.719 -3.933 -15.68 QT
-4.815 -16.641 -6.269 -16.641 QT
-7.925 -16.641 -8.925 -15.711 QT
-9.925 -14.781 -10.065 -13.078 QT
-3.019 -13.094 L
cp
7.673 -12.047 M
5.267 -12.047 4.345 -11.5 QT
3.423 -10.953 3.423 -9.625 QT
3.423 -8.578 4.118 -7.961 QT
4.813 -7.344 6.001 -7.344 QT
7.642 -7.344 8.634 -8.508 QT
9.626 -9.672 9.626 -11.609 QT
9.626 -12.047 L
7.673 -12.047 L
cp
11.61 -12.859 M
11.61 -6 L
9.626 -6 L
9.626 -7.828 L
8.954 -6.734 7.946 -6.211 QT
6.938 -5.688 5.47 -5.688 QT
3.626 -5.688 2.54 -6.727 QT
1.454 -7.766 1.454 -9.5 QT
1.454 -11.531 2.813 -12.563 QT
4.173 -13.594 6.86 -13.594 QT
9.626 -13.594 L
9.626 -13.781 L
9.626 -15.156 8.735 -15.898 QT
7.845 -16.641 6.22 -16.641 QT
5.188 -16.641 4.212 -16.398 QT
3.235 -16.156 2.329 -15.656 QT
2.329 -17.484 L
3.407 -17.906 4.431 -18.117 QT
5.454 -18.328 6.423 -18.328 QT
9.032 -18.328 10.321 -16.969 QT
11.61 -15.609 11.61 -12.859 QT
cp
24.342 -17.563 M
24.342 -15.719 L
23.498 -16.188 22.654 -16.414 QT
21.811 -16.641 20.951 -16.641 QT
19.029 -16.641 17.967 -15.422 QT
16.904 -14.203 16.904 -12 QT
16.904 -9.797 17.967 -8.578 QT
19.029 -7.359 20.951 -7.359 QT
21.811 -7.359 22.654 -7.594 QT
23.498 -7.828 24.342 -8.281 QT
24.342 -6.469 L
23.514 -6.078 22.623 -5.883 QT
21.732 -5.688 20.748 -5.688 QT
18.029 -5.688 16.428 -7.398 QT
14.826 -9.109 14.826 -12 QT
14.826 -14.953 16.443 -16.641 QT
18.061 -18.328 20.873 -18.328 QT
21.779 -18.328 22.654 -18.141 QT
23.529 -17.953 24.342 -17.563 QT
cp
37.781 -13.266 M
37.781 -6 L
35.797 -6 L
35.797 -13.203 L
35.797 -14.906 35.133 -15.758 QT
34.469 -16.609 33.141 -16.609 QT
31.531 -16.609 30.609 -15.586 QT
29.688 -14.563 29.688 -12.797 QT
29.688 -6 L
27.703 -6 L
27.703 -22.719 L
29.688 -22.719 L
29.688 -16.156 L
30.391 -17.25 31.359 -17.789 QT
32.328 -18.328 33.578 -18.328 QT
35.656 -18.328 36.719 -17.039 QT
37.781 -15.75 37.781 -13.266 QT
cp
52.006 -12.516 M
52.006 -11.547 L
42.928 -11.547 L
43.053 -9.5 44.154 -8.43 QT
45.256 -7.359 47.225 -7.359 QT
48.365 -7.359 49.428 -7.641 QT
50.49 -7.922 51.553 -8.484 QT
51.553 -6.609 L
50.49 -6.156 49.373 -5.922 QT
48.256 -5.688 47.1 -5.688 QT
44.225 -5.688 42.545 -7.367 QT
40.865 -9.047 40.865 -11.891 QT
40.865 -14.859 42.459 -16.594 QT
44.053 -18.328 46.756 -18.328 QT
49.193 -18.328 50.6 -16.766 QT
52.006 -15.203 52.006 -12.516 QT
cp
50.037 -13.094 M
50.006 -14.719 49.123 -15.68 QT
48.24 -16.641 46.787 -16.641 QT
45.131 -16.641 44.131 -15.711 QT
43.131 -14.781 42.99 -13.078 QT
50.037 -13.094 L
cp
63.166 -16.203 M
63.166 -22.719 L
65.15 -22.719 L
65.15 -6 L
63.166 -6 L
63.166 -7.813 L
62.557 -6.734 61.604 -6.211 QT
60.65 -5.688 59.322 -5.688 QT
57.135 -5.688 55.768 -7.43 QT
54.4 -9.172 54.4 -12 QT
54.4 -14.844 55.768 -16.586 QT
57.135 -18.328 59.322 -18.328 QT
60.65 -18.328 61.604 -17.805 QT
62.557 -17.281 63.166 -16.203 QT
cp
56.432 -12 M
56.432 -9.828 57.33 -8.586 QT
58.229 -7.344 59.807 -7.344 QT
61.369 -7.344 62.268 -8.586 QT
63.166 -9.828 63.166 -12 QT
63.166 -14.188 62.268 -15.43 QT
61.369 -16.672 59.807 -16.672 QT
58.229 -16.672 57.33 -15.43 QT
56.432 -14.188 56.432 -12 QT
cp
76.03 -22.719 M
80.593 -22.719 L
80.593 -21.172 L
78.015 -21.172 L
78.015 -4.641 L
80.593 -4.641 L
80.593 -3.094 L
76.03 -3.094 L
76.03 -22.719 L
cp
98.723 -13.063 M
97.785 -13.063 97.254 -12.266 QT
96.723 -11.469 96.723 -10.047 QT
96.723 -8.656 97.254 -7.852 QT
97.785 -7.047 98.723 -7.047 QT
99.629 -7.047 100.16 -7.852 QT
100.691 -8.656 100.691 -10.047 QT
100.691 -11.453 100.16 -12.258 QT
99.629 -13.063 98.723 -13.063 QT
cp
98.723 -14.422 M
100.41 -14.422 101.41 -13.242 QT
102.41 -12.063 102.41 -10.047 QT
102.41 -8.047 101.41 -6.867 QT
100.41 -5.688 98.723 -5.688 QT
97.004 -5.688 96.004 -6.867 QT
95.004 -8.047 95.004 -10.047 QT
95.004 -12.063 96.004 -13.242 QT
97.004 -14.422 98.723 -14.422 QT
cp
87.629 -20.969 M
86.707 -20.969 86.176 -20.164 QT
85.645 -19.359 85.645 -17.969 QT
85.645 -16.547 86.168 -15.75 QT
86.691 -14.953 87.629 -14.953 QT
88.566 -14.953 89.098 -15.75 QT
89.629 -16.547 89.629 -17.969 QT
89.629 -19.359 89.09 -20.164 QT
88.551 -20.969 87.629 -20.969 QT
cp
97.332 -22.328 M
99.051 -22.328 L
89.02 -5.688 L
87.301 -5.688 L
97.332 -22.328 L
cp
87.629 -22.328 M
89.332 -22.328 90.34 -21.148 QT
91.348 -19.969 91.348 -17.969 QT
91.348 -15.938 90.348 -14.766 QT
89.348 -13.594 87.629 -13.594 QT
85.926 -13.594 84.934 -14.773 QT
83.941 -15.953 83.941 -17.969 QT
83.941 -19.969 84.941 -21.148 QT
85.941 -22.328 87.629 -22.328 QT
cp
110.314 -22.719 M
110.314 -3.094 L
105.768 -3.094 L
105.768 -4.641 L
108.33 -4.641 L
108.33 -21.172 L
105.768 -21.172 L
105.768 -22.719 L
110.314 -22.719 L
cp
f
GR
GS
0 0.447 0.741 RC
1 LJ
0.5 LW
N
169.525 142.889 M
169.913 133.943 L
170.3 126.19 L
170.688 122.016 L
171.075 140.991 L
171.462 149.847 L
171.85 163.762 L
172.238 177.677 L
172.625 125.646 L
173.012 191.593 L
173.4 129.606 L
173.788 98.984 L
174.175 80.27 L
174.563 75.631 L
174.95 157.798 L
175.337 136.536 L
175.725 154.128 L
176.113 157.798 L
176.5 98.984 L
176.887 163.762 L
177.275 132.452 L
177.663 169.726 L
178.05 81.709 L
178.438 169.726 L
178.825 138.714 L
179.212 119.034 L
179.6 108.657 L
179.988 90.346 L
180.375 80.27 L
180.762 92.197 L
181.15 112.739 L
181.538 79.142 L
181.925 55.999 L
182.313 71.921 L
182.7 81.463 L
183.087 73.072 L
183.475 79.142 L
183.863 85.488 L
184.25 87.003 L
184.637 86.692 L
185.025 80.27 L
185.413 59.841 L
185.8 88.619 L
186.188 69.833 L
186.575 69.833 L
186.962 63.571 L
187.35 58.169 L
187.738 49.182 L
188.125 60.304 L
188.512 71.921 L
188.9 64.214 L
189.288 56.74 L
189.675 42.997 L
190.063 38.524 L
190.45 38.524 L
190.837 52.439 L
191.225 47.976 L
191.613 43.162 L
192 43.341 L
192.387 55.602 L
192.775 44.946 L
193.163 38.524 L
193.55 52.439 L
193.938 78.923 L
194.325 44.488 L
194.712 73.312 L
195.1 53.258 L
195.488 46.351 L
195.875 51.048 L
196.262 38.524 L
196.65 44.946 L
197.038 61.294 L
197.425 62.763 L
197.813 55.222 L
198.2 84.065 L
198.587 94.185 L
198.975 44.786 L
199.363 55.222 L
199.75 77.661 L
200.137 54.684 L
200.525 75.631 L
200.913 68.581 L
201.3 59.397 L
201.688 53.704 L
202.075 94.185 L
202.462 46.114 L
202.85 61.294 L
203.238 67.425 L
203.625 47.469 L
204.012 84.908 L
204.4 77.059 L
204.788 92.975 L
205.175 52.439 L
205.563 86.234 L
205.95 75.631 L
206.337 45.891 L
206.725 52.837 L
207.113 62.006 L
207.5 90.706 L
207.887 47.469 L
208.275 47.801 L
208.663 81.709 L
209.05 63.571 L
209.438 96.326 L
209.825 66.355 L
210.212 46.604 L
210.6 81.709 L
210.988 92.197 L
211.375 66.355 L
211.762 74.306 L
212.15 67.425 L
212.538 67.992 L
212.925 63.571 L
213.313 86.692 L
213.7 87.003 L
214.087 56.415 L
214.475 45.68 L
214.863 38.524 L
215.25 90.706 L
215.637 45.68 L
216.025 88.619 L
216.413 62.006 L
216.8 62.006 L
217.188 47.469 L
217.575 70.843 L
217.962 83.252 L
218.35 75.631 L
218.738 55.798 L
219.125 75.631 L
219.512 68.581 L
219.9 86.234 L
220.288 98.638 L
220.675 70.843 L
221.063 98.984 L
221.45 83.252 L
221.837 64.435 L
222.225 63.571 L
222.613 82.085 L
223 56.415 L
223.387 66.355 L
223.775 62.763 L
224.163 96.326 L
224.55 84.908 L
224.938 53.704 L
225.325 122.016 L
225.712 68.581 L
226.1 71.195 L
226.488 90.706 L
226.875 55.222 L
227.262 70.843 L
227.65 101.143 L
228.038 118.221 L
228.425 78.6 L
228.813 46.114 L
229.2 103.865 L
229.587 86.692 L
229.975 101.143 L
230.363 95.45 L
230.75 71.921 L
231.137 125.646 L
231.525 77.059 L
231.913 98.638 L
232.3 94.185 L
232.688 57.078 L
233.075 46.873 L
233.462 47.801 L
233.85 70.843 L
234.238 87.003 L
234.625 103.865 L
235.012 52.439 L
235.4 82.085 L
235.788 80.27 L
236.175 95.45 L
236.563 95.45 L
236.95 70.843 L
237.337 71.195 L
237.725 103.865 L
238.113 68.581 L
238.5 84.908 L
238.887 63.571 L
239.275 81.709 L
239.663 57.078 L
240.05 77.059 L
240.438 78.6 L
240.825 64.435 L
241.212 90.706 L
241.6 73.072 L
241.988 92.197 L
242.375 66.355 L
242.762 73.072 L
243.15 108.657 L
243.538 92.197 L
243.925 98.638 L
244.313 77.059 L
244.7 68.581 L
245.087 126.19 L
245.475 60.625 L
245.863 74.306 L
246.25 80.27 L
246.637 103.865 L
247.025 77.059 L
247.413 92.975 L
247.8 82.085 L
248.188 118.221 L
248.575 110.088 L
248.962 122.016 L
249.35 84.908 L
249.738 92.197 L
250.125 83.252 L
250.512 63.571 L
250.9 65.361 L
251.288 81.709 L
251.675 55.222 L
252.063 90.706 L
252.45 65.361 L
252.837 92.197 L
253.225 69.833 L
253.613 114.756 L
254 122.016 L
254.387 122.016 L
254.775 118.221 L
255.163 78.6 L
255.55 113.667 L
255.938 101.143 L
256.325 84.908 L
256.712 101.143 L
257.1 57.791 L
257.487 61.294 L
257.875 82.085 L
258.263 157.17 L
258.65 114.756 L
259.038 101.143 L
259.425 171.129 L
259.813 106.836 L
260.2 101.143 L
260.587 74.306 L
260.975 98.638 L
261.362 125.646 L
261.75 92.975 L
262.138 58.562 L
262.525 95.45 L
262.913 98.638 L
263.3 117.622 L
263.688 103.865 L
264.075 84.065 L
264.462 103.865 L
264.85 113.667 L
265.237 61.294 L
265.625 111.579 L
266.013 163.762 L
266.4 73.072 L
266.788 57.791 L
267.175 117.622 L
267.563 118.221 L
267.95 68.581 L
268.337 66.355 L
268.725 56.415 L
269.112 110.088 L
269.5 103.865 L
269.888 98.638 L
270.275 86.692 L
270.663 129.606 L
271.05 149.847 L
271.438 101.143 L
271.825 65.361 L
272.212 111.579 L
272.6 157.798 L
272.987 108.657 L
273.375 86.692 L
273.763 143.987 L
274.15 122.016 L
274.538 122.016 L
274.925 122.016 L
275.313 88.619 L
275.7 82.085 L
276.087 96.326 L
276.475 106.836 L
276.862 133.943 L
277.25 149.847 L
277.638 114.756 L
278.025 114.756 L
278.413 82.085 L
278.8 101.143 L
279.188 104.439 L
279.575 62.763 L
279.962 122.016 L
280.35 122.016 L
280.737 90.346 L
281.125 82.085 L
281.513 110.088 L
281.9 90.706 L
282.288 95.45 L
282.675 67.425 L
283.063 101.143 L
283.45 94.185 L
283.837 88.619 L
284.225 98.161 L
284.612 143.987 L
285 151.238 L
285.388 133.943 L
285.775 95.45 L
286.163 103.865 L
286.55 101.143 L
286.938 84.065 L
287.325 118.676 L
287.712 149.847 L
288.1 94.185 L
288.487 171.129 L
288.875 101.143 L
289.263 90.706 L
289.65 145.871 L
290.038 151.238 L
290.425 156.395 L
290.813 130.805 L
291.2 125.646 L
291.587 138.714 L
291.975 143.987 L
292.362 163.762 L
292.75 104.439 L
293.138 140.991 L
293.525 101.143 L
293.913 78.6 L
294.3 103.865 L
294.688 118.221 L
295.075 101.143 L
295.462 157.17 L
295.85 118.221 L
296.237 111.579 L
296.625 110.088 L
297.013 66.355 L
297.4 138.714 L
297.788 126.19 L
298.175 185.863 L
298.563 118.221 L
298.95 138.714 L
299.337 133.943 L
299.725 106.836 L
300.112 138.714 L
300.5 126.19 L
300.888 114.756 L
301.275 135.931 L
301.663 110.088 L
302.05 129.606 L
302.438 135.931 L
302.825 129.606 L
303.212 95.45 L
303.6 92.975 L
303.987 92.975 L
304.375 191.593 L
304.763 145.871 L
305.15 88.619 L
305.538 106.836 L
305.925 138.714 L
306.313 141.661 L
306.7 179.417 L
307.087 171.129 L
307.475 171.129 L
307.862 130.805 L
308.25 171.129 L
308.638 114.756 L
309.025 110.088 L
309.413 138.714 L
309.8 171.129 L
310.188 126.19 L
310.575 101.143 L
310.962 215.331 L
311.35 171.129 L
311.737 133.943 L
312.125 205.508 L
312.513 152.377 L
312.9 149.847 L
313.288 143.987 L
313.675 125.646 L
314.063 210.726 L
314.45 110.088 L
314.837 145.871 L
315.225 171.129 L
315.612 122.016 L
316 126.927 L
316.388 103.865 L
316.775 157.798 L
317.163 122.016 L
317.55 126.927 L
317.938 140.991 L
318.325 163.762 L
318.712 103.865 L
319.1 143.987 L
319.487 122.016 L
319.875 130.805 L
320.263 129.606 L
320.65 171.129 L
321.038 80.27 L
321.425 143.987 L
321.813 151.238 L
322.2 95.45 L
322.587 205.508 L
322.975 143.987 L
323.362 195.071 L
323.75 133.943 L
324.138 125.646 L
324.525 130.805 L
324.913 143.987 L
325.3 138.714 L
325.688 130.805 L
326.075 163.762 L
326.462 133.943 L
326.85 125.646 L
327.237 151.238 L
327.625 151.238 L
328.013 126.19 L
328.4 113.667 L
328.788 145.871 L
329.175 143.987 L
329.563 126.19 L
329.95 135.931 L
330.337 133.943 L
330.725 210.726 L
331.112 135.931 L
331.5 133.943 L
331.888 122.016 L
332.275 90.706 L
332.663 106.836 L
333.05 210.726 L
333.438 133.943 L
333.825 171.129 L
334.212 200.597 L
334.6 156.395 L
334.987 92.975 L
335.375 156.395 L
335.763 130.805 L
336.15 114.756 L
336.538 130.805 L
336.925 177.677 L
337.313 90.706 L
337.7 114.756 L
338.087 135.931 L
338.475 103.865 L
338.862 98.638 L
339.25 149.847 L
339.638 151.238 L
340.025 129.606 L
340.413 163.762 L
340.8 128.695 L
341.188 133.943 L
341.575 130.805 L
341.962 105.96 L
342.35 92.975 L
342.737 157.17 L
343.125 113.667 L
343.513 130.805 L
343.9 149.847 L
344.288 129.606 L
344.675 122.016 L
345.063 84.065 L
345.45 149.847 L
345.837 141.661 L
346.225 106.836 L
346.612 169.726 L
347 171.129 L
347.388 69.833 L
347.775 101.143 L
348.163 177.677 L
348.55 129.606 L
348.938 205.508 L
349.325 163.762 L
349.712 126.927 L
350.1 185.863 L
350.487 156.395 L
350.875 195.071 L
351.263 126.19 L
351.65 171.129 L
352.038 98.161 L
352.425 106.836 L
352.813 130.805 L
353.2 111.579 L
353.587 135.931 L
353.975 138.714 L
354.362 110.088 L
354.75 129.606 L
355.138 95.45 L
355.525 222.206 L
355.913 188.81 L
356.3 122.016 L
356.688 163.762 L
357.075 163.762 L
357.462 122.016 L
357.85 143.987 L
358.237 133.943 L
358.625 133.943 L
359.013 200.597 L
359.4 103.462 L
359.788 143.987 L
360.175 130.805 L
360.563 157.17 L
360.95 143.987 L
361.337 125.646 L
361.725 156.395 L
362.112 156.395 L
362.5 130.805 L
362.888 222.206 L
363.275 191.593 L
363.663 163.762 L
364.05 84.065 L
364.438 130.805 L
364.825 135.931 L
365.212 143.987 L
365.6 177.677 L
365.987 149.847 L
366.375 163.762 L
366.763 222.206 L
367.15 151.238 L
367.538 92.975 L
367.925 118.221 L
368.313 122.016 L
368.7 138.714 L
369.087 126.19 L
369.475 156.395 L
369.862 142.889 L
370.25 135.931 L
370.638 169.726 L
371.025 210.726 L
371.413 195.071 L
371.8 143.987 L
372.188 226.381 L
372.575 157.17 L
372.962 157.798 L
373.35 185.863 L
373.737 183.536 L
374.125 226.381 L
374.513 163.762 L
374.9 118.221 L
375.288 183.536 L
375.675 199.544 L
376.063 126.19 L
376.45 205.508 L
376.837 188.81 L
377.225 179.417 L
377.612 170.353 L
378 195.071 L
378.388 163.762 L
378.775 191.593 L
379.163 171.129 L
379.55 157.798 L
379.938 183.536 L
380.325 205.508 L
380.712 171.129 L
381.1 210.726 L
381.487 155.413 L
381.875 179.417 L
382.263 133.943 L
382.65 179.417 L
383.038 163.762 L
383.425 177.677 L
383.813 126.19 L
384.2 156.395 L
384.587 219.423 L
384.975 141.661 L
385.362 133.943 L
385.75 238.905 L
386.138 157.17 L
386.525 179.417 L
386.913 129.606 L
387.3 170.353 L
387.688 156.395 L
388.075 138.714 L
388.462 130.805 L
388.85 133.943 L
389.237 113.667 L
389.625 170.353 L
390.013 157.17 L
390.4 191.593 L
390.788 170.353 L
391.175 122.016 L
391.563 129.606 L
391.95 136.536 L
392.337 122.016 L
392.725 143.987 L
393.112 149.847 L
393.5 185.863 L
393.888 151.238 L
394.275 170.353 L
394.663 171.129 L
395.05 114.756 L
395.438 171.129 L
395.825 188.81 L
396.212 179.417 L
396.6 163.762 L
396.987 177.677 L
397.375 148.107 L
397.763 147.426 L
398.15 130.805 L
398.538 200.597 L
398.925 140.991 L
399.313 163.762 L
399.7 103.865 L
400.087 157.17 L
400.475 163.762 L
400.862 122.016 L
401.25 98.638 L
401.638 138.714 L
402.025 215.331 L
402.413 163.762 L
402.8 143.987 L
403.188 136.536 L
403.575 179.417 L
403.962 157.17 L
404.35 171.129 L
404.737 122.016 L
405.125 170.353 L
405.513 138.714 L
405.9 126.927 L
406.288 157.17 L
406.675 106.836 L
407.063 122.016 L
407.45 117.622 L
407.837 91.256 L
408.225 177.677 L
408.612 95.45 L
409 191.593 L
409.388 138.714 L
409.775 92.975 L
410.163 157.17 L
410.55 210.726 L
410.938 185.863 L
411.325 122.016 L
411.712 185.863 L
412.1 138.714 L
412.487 90.706 L
412.875 130.805 L
413.263 156.395 L
413.65 106.836 L
414.038 143.987 L
414.425 171.129 L
414.813 176.286 L
415.2 177.677 L
415.587 143.987 L
415.975 185.863 L
416.362 195.071 L
416.75 133.943 L
417.138 126.19 L
417.525 156.395 L
417.913 122.016 L
418.3 163.762 L
418.688 74.306 L
419.075 149.847 L
419.462 113.667 L
419.85 171.129 L
420.237 200.597 L
420.625 84.065 L
421.013 145.871 L
421.4 117.622 L
421.788 130.805 L
422.175 151.238 L
422.563 130.805 L
422.95 133.943 L
423.337 188.81 L
423.725 195.071 L
424.112 110.088 L
424.5 106.836 L
424.888 122.016 L
425.275 143.987 L
425.663 163.762 L
426.05 101.143 L
426.438 149.847 L
426.825 210.726 L
427.212 110.088 L
427.6 157.17 L
427.987 185.863 L
428.375 98.161 L
428.763 84.065 L
429.15 177.677 L
429.538 179.417 L
429.925 205.508 L
430.313 157.17 L
430.7 163.762 L
431.087 77.059 L
431.475 117.622 L
431.862 177.677 L
432.25 163.762 L
432.638 149.847 L
433.025 171.129 L
433.413 138.714 L
433.8 157.17 L
434.188 163.762 L
434.575 210.726 L
434.962 191.593 L
435.35 171.129 L
435.737 149.847 L
436.125 215.331 L
436.513 191.593 L
436.9 195.071 L
437.288 238.905 L
437.675 151.238 L
438.063 163.762 L
438.45 222.206 L
438.837 126.19 L
439.225 157.17 L
439.612 177.677 L
440 157.17 L
440.388 210.726 L
440.775 113.667 L
441.163 163.762 L
441.55 143.987 L
441.938 179.417 L
442.325 133.943 L
442.712 170.353 L
443.1 151.238 L
443.487 191.593 L
443.875 170.353 L
444.263 143.987 L
444.65 188.81 L
445.038 176.286 L
445.425 126.19 L
445.813 157.17 L
446.2 200.597 L
446.587 163.762 L
446.975 185.863 L
447.362 171.129 L
447.75 163.762 L
448.138 151.238 L
448.525 205.508 L
448.913 179.417 L
449.3 183.536 L
449.688 145.871 L
450.075 183.536 L
450.462 171.129 L
450.85 177.677 L
451.237 215.331 L
451.625 235.327 L
452.013 185.863 L
452.4 195.071 L
452.788 222.206 L
453.175 238.905 L
453.563 122.016 L
453.95 171.129 L
454.337 157.17 L
454.725 156.395 L
455.112 171.129 L
455.5 179.417 L
455.888 135.931 L
456.275 157.17 L
456.663 171.129 L
457.05 148.107 L
457.438 210.726 L
457.825 156.395 L
458.212 151.238 L
458.6 157.17 L
458.987 177.677 L
459.375 130.805 L
459.763 163.762 L
460.15 183.536 L
460.538 145.871 L
460.925 141.661 L
461.313 185.863 L
461.7 170.353 L
462.087 151.238 L
462.475 163.762 L
462.862 113.667 L
463.25 177.677 L
463.638 171.129 L
464.025 130.805 L
464.413 177.677 L
464.8 179.417 L
465.188 210.726 L
465.575 179.417 L
465.962 133.943 L
466.35 149.847 L
466.737 163.762 L
467.125 185.863 L
467.513 104.439 L
467.9 179.417 L
468.288 171.129 L
468.675 122.016 L
469.063 195.071 L
469.45 177.677 L
469.837 126.19 L
470.225 117.622 L
470.612 138.714 L
471 163.762 L
471.388 143.987 L
471.775 253.218 L
472.163 226.381 L
472.55 177.677 L
472.938 149.847 L
473.325 172.111 L
473.712 156.395 L
474.1 163.762 L
474.487 143.987 L
474.875 149.847 L
475.263 151.238 L
475.65 191.593 L
476.038 78.073 L
476.425 138.714 L
476.813 163.762 L
477.2 222.206 L
477.587 88.619 L
477.975 191.593 L
478.362 103.865 L
478.75 135.931 L
479.138 138.714 L
479.525 133.943 L
479.913 191.593 L
480.3 108.657 L
480.688 210.726 L
481.075 253.218 L
481.462 157.17 L
481.85 171.129 L
482.237 210.726 L
482.625 163.762 L
483.013 122.016 L
483.4 141.661 L
483.788 138.714 L
484.175 185.863 L
484.563 163.762 L
484.95 210.726 L
485.337 157.17 L
485.725 151.238 L
486.112 130.805 L
486.5 185.863 L
486.888 130.805 L
487.275 179.417 L
487.663 177.677 L
488.05 179.417 L
488.438 200.597 L
488.825 238.905 L
489.212 185.863 L
489.6 222.206 L
489.987 179.417 L
490.375 163.762 L
490.763 222.206 L
491.15 163.762 L
491.538 205.508 L
491.925 143.987 L
492.313 135.931 L
492.7 163.762 L
493.087 171.129 L
493.475 145.871 L
493.862 88.619 L
494.25 200.597 L
494.638 185.863 L
495.025 171.129 L
495.413 185.863 L
495.8 163.762 L
496.188 149.847 L
496.575 183.536 L
496.962 171.129 L
497.35 177.677 L
497.737 141.661 L
498.125 143.987 L
498.513 183.536 L
498.9 122.016 L
499.288 114.756 L
499.675 169.726 L
500.063 222.206 L
500.45 185.863 L
500.837 163.762 L
501.225 222.206 L
501.612 130.805 L
502 151.238 L
502.388 126.927 L
502.775 163.762 L
503.163 122.016 L
503.55 138.714 L
503.938 163.762 L
504.325 117.622 L
504.712 179.417 L
505.1 191.593 L
505.487 163.762 L
505.875 110.088 L
506.263 122.016 L
506.65 118.221 L
507.038 133.943 L
507.425 163.762 L
507.813 170.353 L
508.2 149.847 L
508.587 90.706 L
508.975 196.719 L
509.362 110.088 L
509.75 163.762 L
510.138 156.395 L
510.525 138.714 L
510.913 163.762 L
511.3 171.129 L
511.688 143.987 L
512.075 125.646 L
512.463 156.395 L
512.85 129.606 L
513.237 117.622 L
513.625 110.088 L
514.013 163.762 L
514.4 151.238 L
514.787 157.17 L
515.175 117.622 L
515.563 156.395 L
515.95 156.395 L
516.338 126.19 L
516.725 157.17 L
517.112 163.762 L
517.5 195.071 L
517.888 110.088 L
518.275 122.016 L
518.662 141.661 L
519.05 122.016 L
519.438 145.871 L
519.825 138.714 L
520.213 126.19 L
520.6 171.129 L
520.987 163.762 L
521.375 84.065 L
521.763 143.987 L
522.15 148.107 L
522.537 111.579 L
522.925 171.129 L
523.313 143.987 L
523.7 133.943 L
524.088 185.863 L
524.475 157.17 L
524.862 179.417 L
525.25 143.987 L
525.638 143.987 L
526.025 108.101 L
526.412 92.975 L
526.8 143.987 L
527.188 149.847 L
527.575 200.597 L
527.963 163.762 L
528.35 156.395 L
528.737 129.606 L
529.125 143.987 L
529.513 149.847 L
529.9 156.395 L
530.287 143.987 L
530.675 151.238 L
531.063 185.863 L
531.45 157.17 L
531.838 104.439 L
532.225 170.353 L
532.612 138.714 L
533 185.863 L
533.388 269.733 L
533.775 143.987 L
534.162 185.863 L
534.55 185.863 L
534.938 151.238 L
535.325 138.714 L
535.713 151.238 L
536.1 149.847 L
536.487 118.676 L
536.875 56.415 L
537.263 126.19 L
537.65 126.19 L
538.037 191.593 L
538.425 118.221 L
538.813 145.871 L
539.2 141.661 L
539.588 118.221 L
539.975 195.071 L
540.362 156.395 L
540.75 171.129 L
541.138 177.677 L
541.525 143.987 L
541.912 143.987 L
542.3 145.871 L
542.688 151.238 L
543.075 179.417 L
543.463 177.677 L
543.85 205.508 L
544.237 149.847 L
544.625 177.677 L
545.013 138.714 L
545.4 141.661 L
545.787 129.606 L
546.175 163.762 L
546.563 133.943 L
546.95 195.071 L
547.338 129.606 L
547.725 145.871 L
548.112 126.19 L
548.5 113.667 L
548.888 145.871 L
549.275 191.593 L
549.662 157.17 L
550.05 118.676 L
550.438 98.161 L
550.825 133.943 L
551.213 138.714 L
551.6 77.059 L
551.987 149.847 L
552.375 126.19 L
552.763 177.677 L
553.15 106.836 L
553.537 141.661 L
553.925 185.863 L
554.313 141.661 L
554.7 171.129 L
555.088 200.597 L
555.475 149.847 L
555.862 90.706 L
556.25 185.863 L
556.638 163.762 L
557.025 118.221 L
557.412 200.597 L
557.8 138.714 L
558.188 195.071 L
558.575 149.847 L
558.963 71.195 L
559.35 171.129 L
559.737 126.19 L
560.125 191.593 L
560.513 135.931 L
560.9 118.221 L
561.287 143.987 L
561.675 156.395 L
562.063 143.987 L
562.45 157.17 L
562.838 126.19 L
563.225 103.865 L
563.612 106.836 L
564 170.353 L
564.388 195.071 L
564.775 163.762 L
565.162 122.016 L
565.55 149.847 L
565.938 157.17 L
566.325 101.143 L
566.713 171.129 L
567.1 126.19 L
567.487 179.417 L
567.875 103.865 L
568.263 129.606 L
568.65 163.762 L
569.037 149.847 L
569.425 238.905 L
569.813 177.677 L
570.2 163.762 L
570.588 95.45 L
570.975 126.19 L
571.362 222.206 L
571.75 157.17 L
572.138 151.238 L
572.525 235.327 L
572.912 133.943 L
573.3 126.19 L
573.688 130.805 L
574.075 129.606 L
574.463 179.417 L
574.85 118.221 L
575.237 104.439 L
575.625 215.331 L
576.013 135.931 L
576.4 143.987 L
576.787 176.286 L
577.175 106.836 L
577.563 141.661 L
577.95 136.536 L
578.338 138.714 L
578.725 126.19 L
579.112 122.016 L
579.5 143.987 L
579.888 76.095 L
580.275 177.677 L
580.662 145.871 L
581.05 205.508 L
581.438 163.762 L
581.825 205.508 L
582.213 151.238 L
582.6 163.762 L
582.987 108.101 L
583.375 149.847 L
583.763 138.714 L
584.15 185.863 L
584.537 185.863 L
584.925 205.508 L
585.313 156.395 L
585.7 157.17 L
586.088 163.762 L
586.475 179.417 L
586.862 195.071 L
587.25 170.353 L
587.638 149.847 L
588.025 130.805 L
588.412 170.353 L
588.8 157.17 L
589.188 195.071 L
589.575 103.865 L
589.963 157.17 L
590.35 95.45 L
590.737 118.221 L
591.125 222.206 L
591.513 151.238 L
591.9 147.426 L
592.287 170.353 L
592.675 163.762 L
593.063 171.129 L
593.45 157.17 L
593.838 177.677 L
594.225 177.677 L
594.612 171.129 L
595 118.221 L
595.388 163.762 L
595.775 170.353 L
596.162 101.143 L
596.55 163.762 L
596.938 129.606 L
597.325 118.221 L
597.713 135.931 L
598.1 163.762 L
598.487 140.991 L
598.875 185.863 L
599.263 156.395 L
599.65 205.508 L
600.037 98.161 L
600.425 114.756 L
600.813 163.762 L
601.2 103.865 L
601.588 179.417 L
601.975 151.238 L
602.362 185.863 L
602.75 163.762 L
603.138 143.987 L
603.525 163.762 L
603.912 140.991 L
604.3 177.677 L
604.688 126.19 L
605.075 171.129 L
605.463 195.071 L
605.85 126.19 L
606.237 110.088 L
606.625 163.762 L
607.013 157.17 L
607.4 122.016 L
607.787 149.847 L
608.175 135.931 L
608.563 151.238 L
608.95 113.667 L
609.338 125.646 L
609.725 110.088 L
610.112 126.19 L
610.5 151.238 L
610.888 135.931 L
611.275 133.943 L
611.662 129.606 L
612.05 135.931 L
612.438 200.597 L
612.825 122.016 L
613.213 130.805 L
613.6 143.987 L
613.987 133.943 L
614.375 177.677 L
614.763 122.016 L
615.15 84.065 L
615.537 200.597 L
615.925 122.016 L
616.313 151.238 L
616.7 170.353 L
617.088 140.991 L
617.475 157.17 L
617.862 133.943 L
618.25 151.238 L
618.638 132.452 L
619.025 151.238 L
619.412 163.762 L
619.8 183.536 L
620.188 195.071 L
620.575 126.19 L
620.963 222.206 L
621.35 163.762 L
621.737 148.107 L
622.125 170.353 L
622.513 170.353 L
622.9 145.871 L
623.287 157.17 L
623.675 171.129 L
624.063 103.865 L
624.45 157.17 L
624.838 177.677 L
625.225 106.836 L
625.612 143.987 L
626 113.667 L
626.388 176.286 L
626.775 151.238 L
627.162 191.593 L
627.55 157.17 L
627.938 163.762 L
628.325 149.847 L
628.713 217.435 L
629.1 113.667 L
629.487 171.129 L
629.875 149.847 L
630.263 135.931 L
630.65 157.798 L
631.037 125.646 L
631.425 129.606 L
631.813 143.987 L
632.2 226.381 L
632.588 205.508 L
632.975 170.353 L
633.362 117.622 L
633.75 145.871 L
634.138 126.19 L
634.525 122.016 L
634.912 205.508 L
635.3 170.353 L
635.688 171.129 L
636.075 91.256 L
636.463 157.798 L
636.85 114.756 L
637.237 179.417 L
637.625 210.726 L
638.013 210.726 L
638.4 151.238 L
638.787 157.17 L
639.175 122.016 L
639.563 185.863 L
639.95 133.943 L
640.338 138.714 L
640.725 151.238 L
641.112 191.593 L
641.5 122.016 L
641.888 140.991 L
642.275 135.931 L
642.662 145.871 L
643.05 110.088 L
643.438 98.984 L
643.825 126.19 L
644.213 170.353 L
644.6 138.714 L
644.987 177.677 L
645.375 171.129 L
645.763 122.016 L
646.15 176.286 L
646.537 106.836 L
646.925 122.016 L
647.313 200.597 L
647.7 200.597 L
648.088 191.593 L
648.475 163.762 L
648.862 156.395 L
649.25 177.677 L
649.638 222.206 L
650.025 217.435 L
650.412 191.593 L
650.8 205.508 L
651.188 135.931 L
651.575 200.597 L
651.963 138.714 L
652.35 132.452 L
652.737 122.016 L
653.125 126.19 L
653.513 185.863 L
653.9 226.381 L
654.287 98.161 L
654.675 163.762 L
655.063 143.987 L
655.45 177.677 L
655.838 179.417 L
656.225 217.435 L
656.612 163.762 L
657 149.847 L
657.388 130.805 L
657.775 135.931 L
658.162 138.714 L
658.55 171.129 L
658.938 149.847 L
659.325 215.331 L
659.713 183.536 L
660.1 138.714 L
660.487 133.943 L
660.875 130.805 L
661.263 145.871 L
661.65 106.836 L
662.037 170.353 L
662.425 195.071 L
662.813 195.071 L
663.2 163.762 L
663.588 172.111 L
663.975 156.395 L
664.362 183.536 L
664.75 133.943 L
665.138 151.238 L
665.525 122.016 L
665.912 170.353 L
666.3 210.726 L
666.688 143.987 L
667.075 215.331 L
667.463 140.991 L
667.85 138.714 L
668.237 171.129 L
668.625 106.836 L
669.013 92.975 L
669.4 103.462 L
669.787 118.221 L
670.175 179.417 L
670.563 157.17 L
670.95 163.762 L
671.338 163.762 L
671.725 163.762 L
672.112 143.987 L
672.5 163.762 L
672.888 157.798 L
673.275 157.17 L
673.662 149.847 L
674.05 126.19 L
674.438 151.238 L
674.825 171.129 L
675.213 185.863 L
675.6 125.646 L
675.987 141.661 L
676.375 157.17 L
676.763 149.847 L
677.15 170.353 L
677.537 130.805 L
677.925 145.871 L
678.313 177.677 L
678.7 171.129 L
679.088 163.762 L
679.475 156.395 L
679.862 163.762 L
680.25 179.417 L
680.638 163.762 L
681.025 172.111 L
681.412 230.064 L
681.8 149.847 L
682.188 143.987 L
682.575 143.987 L
682.963 151.238 L
683.35 113.667 L
683.737 129.606 L
684.125 163.762 L
684.513 210.726 L
684.9 143.987 L
685.287 130.805 L
685.675 143.987 L
686.063 163.762 L
686.45 145.871 L
686.838 135.931 L
687.225 143.987 L
687.612 122.016 L
688 170.353 L
688.388 163.762 L
688.775 157.17 L
689.162 140.991 L
689.55 163.762 L
689.938 130.805 L
690.325 122.016 L
690.713 117.622 L
691.1 210.726 L
691.487 191.593 L
691.875 138.714 L
692.263 113.667 L
692.65 185.863 L
693.037 177.677 L
693.425 156.395 L
693.813 126.19 L
694.2 171.129 L
694.588 171.129 L
694.975 101.143 L
695.362 179.417 L
695.75 151.238 L
696.138 195.071 L
696.525 113.667 L
696.912 149.847 L
697.3 151.238 L
697.688 138.714 L
698.075 133.943 L
698.463 170.353 L
698.85 126.19 L
699.237 235.327 L
699.625 114.756 L
700.013 118.221 L
700.4 108.101 L
700.787 126.19 L
701.175 149.847 L
701.563 101.143 L
701.95 177.677 L
702.338 143.987 L
702.725 210.726 L
703.112 156.395 L
703.5 126.19 L
703.888 151.238 L
704.275 157.17 L
704.662 118.221 L
705.05 151.238 L
705.438 157.17 L
705.825 138.714 L
706.213 149.847 L
706.6 151.238 L
706.987 195.071 L
707.375 135.931 L
707.763 183.536 L
708.15 110.088 L
708.537 170.353 L
708.925 118.221 L
709.313 171.129 L
709.7 113.667 L
710.088 157.17 L
710.475 151.238 L
710.862 163.762 L
711.25 138.714 L
711.638 145.871 L
712.025 157.17 L
712.412 200.597 L
712.8 133.943 L
713.188 156.395 L
713.575 157.17 L
713.963 105.96 L
714.35 143.987 L
714.737 125.646 L
715.125 149.847 L
715.513 177.677 L
715.9 117.622 L
716.287 200.597 L
716.675 103.865 L
717.063 103.865 L
717.45 133.943 L
717.838 117.622 L
718.225 179.417 L
718.612 157.17 L
719 222.206 L
719.388 118.221 L
719.775 106.836 L
720.162 117.622 L
720.55 118.676 L
720.938 205.508 L
721.325 117.622 L
721.713 106.836 L
722.1 163.762 L
722.487 143.987 L
722.875 170.353 L
723.263 151.238 L
723.65 98.161 L
724.037 163.762 L
724.425 138.714 L
724.813 114.756 L
725.2 118.221 L
725.588 143.987 L
725.975 177.677 L
726.362 156.395 L
726.75 140.991 L
727.138 113.667 L
727.525 171.129 L
727.912 133.943 L
728.3 177.677 L
728.688 157.17 L
729.075 126.19 L
729.463 133.943 L
729.85 126.19 L
730.237 157.17 L
730.625 130.805 L
731.013 125.646 L
731.4 185.863 L
731.787 185.863 L
732.175 149.847 L
732.563 143.987 L
732.95 151.238 L
733.338 149.847 L
733.725 140.991 L
734.112 143.987 L
734.5 143.987 L
734.888 114.756 L
735.275 138.714 L
735.662 157.17 L
736.05 125.646 L
736.438 157.17 L
736.825 111.579 L
737.213 143.987 L
737.6 133.943 L
737.987 185.863 L
738.375 157.17 L
738.763 163.762 L
739.15 122.016 L
739.537 191.593 L
739.925 185.863 L
740.313 138.714 L
740.7 118.221 L
741.088 149.847 L
741.475 163.762 L
741.862 135.931 L
742.25 106.836 L
742.638 185.863 L
743.025 171.129 L
743.412 191.593 L
743.8 126.19 L
744.188 126.19 L
744.575 122.016 L
744.963 191.593 L
745.35 129.606 L
745.737 195.071 L
746.125 163.762 L
746.513 130.805 L
746.9 177.677 L
747.287 157.798 L
747.675 106.836 L
748.063 155.413 L
748.45 135.931 L
748.838 185.863 L
749.225 163.762 L
749.612 170.353 L
750 130.805 L
750.388 135.931 L
750.775 185.863 L
751.162 145.871 L
751.55 135.931 L
751.938 210.726 L
752.325 157.17 L
752.713 163.762 L
753.1 138.714 L
753.487 138.714 L
753.875 143.987 L
754.263 195.071 L
754.65 195.071 L
755.037 170.353 L
755.425 163.762 L
755.813 114.756 L
756.2 156.395 L
756.588 86.234 L
756.975 129.606 L
757.362 177.677 L
757.75 117.622 L
758.138 185.863 L
758.525 143.987 L
758.912 177.677 L
759.3 95.45 L
759.688 170.353 L
760.075 117.622 L
760.463 163.762 L
760.85 157.17 L
761.237 108.657 L
761.625 157.17 L
762.013 156.395 L
762.4 95.45 L
762.787 118.221 L
763.175 130.805 L
763.563 110.088 L
763.95 108.657 L
764.338 130.805 L
764.725 138.714 L
765.112 74.306 L
765.5 104.439 L
765.888 122.016 L
766.275 170.353 L
766.662 163.762 L
767.05 133.943 L
767.438 179.417 L
767.825 98.638 L
768.213 185.863 L
768.6 126.19 L
768.987 118.676 L
769.375 147.426 L
769.763 117.622 L
770.15 149.847 L
770.537 157.17 L
770.925 138.714 L
771.313 149.847 L
771.7 163.762 L
772.088 126.927 L
772.475 122.016 L
772.862 143.987 L
773.25 98.161 L
773.638 200.597 L
774.025 149.847 L
774.412 157.798 L
774.8 143.987 L
775.188 191.593 L
775.575 163.762 L
775.963 215.331 L
776.35 171.129 L
776.737 118.676 L
777.125 126.19 L
777.513 157.17 L
777.9 114.756 L
778.287 183.536 L
778.675 118.221 L
779.063 95.45 L
779.45 171.129 L
779.838 126.19 L
780.225 222.206 L
780.612 135.931 L
781 133.943 L
781.388 171.129 L
781.775 151.238 L
782.162 195.071 L
782.55 176.286 L
782.938 130.805 L
783.325 157.17 L
783.713 143.987 L
784.1 111.579 L
784.487 143.987 L
784.875 110.088 L
785.263 133.943 L
785.65 156.395 L
786.037 163.762 L
786.425 163.762 L
786.813 200.597 L
787.2 135.931 L
787.588 151.238 L
787.975 130.805 L
788.362 122.016 L
788.75 157.17 L
789.138 135.931 L
789.525 129.606 L
789.912 156.395 L
790.3 122.016 L
790.688 171.129 L
791.075 195.071 L
791.463 210.726 L
791.85 143.987 L
792.237 92.975 L
792.625 149.847 L
793.013 135.931 L
793.4 135.931 L
793.787 122.016 L
794.175 170.353 L
794.563 141.661 L
794.95 157.17 L
795.338 141.661 L
795.725 163.762 L
796.112 156.395 L
796.5 163.762 L
796.888 138.714 L
797.275 117.622 L
797.662 133.943 L
798.05 135.931 L
798.438 136.536 L
798.825 151.238 L
799.213 122.016 L
799.6 151.238 L
799.987 104.439 L
800.375 145.871 L
800.763 143.987 L
801.15 163.762 L
801.537 177.677 L
801.925 104.439 L
802.313 126.19 L
802.7 210.726 L
803.088 171.129 L
803.475 110.088 L
803.862 210.726 L
804.25 163.762 L
804.638 163.762 L
805.025 141.661 L
805.412 133.943 L
805.8 143.987 L
806.188 126.19 L
806.575 149.847 L
806.963 163.762 L
807.35 151.238 L
807.737 145.871 L
808.125 138.714 L
808.513 143.987 L
808.9 143.987 L
809.287 133.943 L
809.675 185.863 L
810.063 171.129 L
810.45 226.381 L
810.838 163.762 L
811.225 170.353 L
811.612 129.606 L
812 185.863 L
812.388 163.762 L
812.775 200.597 L
813.162 210.726 L
813.55 158.317 L
813.938 143.987 L
814.325 125.646 L
814.713 135.931 L
815.1 143.987 L
815.487 138.714 L
815.875 200.597 L
816.263 170.353 L
816.65 195.071 L
817.037 170.353 L
817.425 170.353 L
817.813 130.805 L
818.2 113.667 L
818.588 143.987 L
818.975 169.726 L
819.362 86.692 L
819.75 118.221 L
820.138 133.943 L
820.525 133.943 L
820.912 129.606 L
821.3 106.836 L
821.688 183.536 L
822.075 156.395 L
822.463 143.987 L
822.85 179.417 L
823.237 156.395 L
823.625 126.19 L
824.013 141.661 L
824.4 151.238 L
824.787 163.762 L
825.175 118.221 L
825.563 92.975 L
825.95 101.143 L
826.338 135.931 L
826.725 135.931 L
827.112 157.17 L
827.5 143.987 L
827.888 135.931 L
828.275 177.677 L
828.662 114.756 L
829.05 163.762 L
829.438 191.593 L
829.825 200.597 L
830.213 163.762 L
830.6 143.987 L
830.987 114.756 L
831.375 205.508 L
831.763 126.19 L
832.15 149.847 L
832.537 138.714 L
832.925 145.871 L
833.313 157.17 L
833.7 147.426 L
834.088 125.646 L
834.475 135.931 L
834.862 177.677 L
835.25 171.129 L
835.638 114.756 L
836.025 106.836 L
836.412 133.943 L
836.8 157.17 L
837.188 138.714 L
837.575 170.353 L
837.963 163.762 L
838.35 171.129 L
838.737 108.657 L
839.125 126.19 L
839.513 84.908 L
839.9 157.17 L
840.287 130.805 L
840.675 172.111 L
841.063 171.129 L
841.45 179.417 L
841.838 98.161 L
842.225 210.726 L
842.612 135.931 L
843 129.606 L
843.388 143.987 L
843.775 185.863 L
844.162 183.536 L
844.55 171.129 L
844.938 143.987 L
845.325 122.016 L
845.713 122.016 L
846.1 191.593 L
846.487 149.847 L
846.875 157.17 L
847.263 122.016 L
847.65 141.661 L
848.037 151.238 L
848.425 195.071 L
848.813 143.987 L
849.2 163.762 L
849.588 163.762 L
849.975 149.847 L
850.362 114.756 L
850.75 171.129 L
851.138 195.071 L
851.525 126.19 L
851.912 177.677 L
852.3 157.17 L
852.688 129.606 L
853.075 135.931 L
853.463 126.19 L
853.85 149.847 L
854.237 103.865 L
854.625 122.016 L
855.013 133.943 L
855.4 110.088 L
855.787 143.987 L
856.175 156.395 L
856.563 140.991 L
856.95 185.863 L
857.338 138.714 L
857.725 185.863 L
858.112 145.871 L
858.5 83.252 L
858.888 143.987 L
859.275 143.987 L
859.662 179.417 L
860.05 171.129 L
860.438 171.129 L
860.825 163.762 L
861.213 138.714 L
861.6 195.071 L
861.987 157.17 L
862.375 122.016 L
862.763 157.17 L
863.15 191.593 L
863.537 149.847 L
863.925 108.657 L
864.313 157.17 L
864.7 151.238 L
865.088 135.931 L
865.475 84.065 L
865.862 195.071 L
866.25 103.865 L
866.638 126.19 L
867.025 163.762 L
867.412 98.161 L
867.8 126.19 L
868.188 133.943 L
868.575 149.847 L
868.963 157.17 L
869.35 118.221 L
869.737 156.395 L
870.125 151.238 L
870.513 122.016 L
870.9 136.536 L
871.287 122.016 L
871.675 86.234 L
872.063 157.17 L
872.45 141.661 L
872.838 170.353 L
873.225 141.661 L
873.612 129.606 L
874 130.805 L
874.388 138.714 L
874.775 98.161 L
875.162 157.17 L
875.55 125.646 L
875.938 163.762 L
876.325 156.395 L
876.713 122.016 L
877.1 156.395 L
877.487 110.088 L
877.875 78.073 L
878.263 133.943 L
878.65 133.943 L
879.037 138.714 L
879.425 104.439 L
879.813 143.987 L
880.2 122.016 L
880.588 143.987 L
880.975 135.931 L
881.362 183.536 L
881.75 163.762 L
882.138 195.071 L
882.525 141.661 L
882.912 114.756 L
883.3 170.353 L
883.688 145.871 L
884.075 106.836 L
884.463 122.016 L
884.85 135.931 L
885.237 170.353 L
885.625 140.991 L
886.013 106.836 L
886.4 111.579 L
886.787 126.19 L
887.175 114.756 L
887.563 185.863 L
887.95 149.847 L
888.338 170.353 L
888.725 136.536 L
889.112 138.714 L
889.5 163.762 L
889.888 171.129 L
890.275 170.353 L
890.662 101.143 L
891.05 151.238 L
891.438 163.762 L
891.825 103.865 L
892.213 138.714 L
892.6 130.805 L
892.987 170.353 L
893.375 205.508 L
893.763 143.987 L
894.15 103.865 L
894.537 157.17 L
894.925 163.762 L
895.313 151.238 L
895.7 122.016 L
896.088 157.17 L
896.475 177.677 L
896.862 163.762 L
897.25 141.661 L
897.638 176.286 L
898.025 122.016 L
898.412 163.762 L
898.8 143.987 L
899.188 163.762 L
899.575 171.129 L
899.963 104.439 L
900.35 191.593 L
900.737 110.088 L
901.125 157.17 L
901.513 171.129 L
901.9 122.016 L
902.287 136.536 L
902.675 171.129 L
903.063 145.871 L
903.45 143.987 L
903.838 157.17 L
904.225 104.439 L
904.612 157.17 L
905 138.714 L
S
GR
GS
1 0 0 RC
1 LJ
0.5 LW
N
169.525 136.131 M
169.913 135.114 L
170.3 133.515 L
170.688 131.679 L
171.075 130.363 L
171.462 129.794 L
171.85 128.211 L
172.238 126.023 L
172.625 124.432 L
173.012 123.204 L
173.4 121.812 L
173.788 120.658 L
174.175 119.733 L
174.563 118.894 L
174.95 118.089 L
175.337 117.166 L
175.725 115.801 L
176.113 115.169 L
176.5 114.139 L
176.887 113.154 L
177.275 112.076 L
177.663 110.929 L
178.05 109.643 L
178.438 108.636 L
178.825 107.902 L
179.212 107.045 L
179.6 105.356 L
179.988 103.573 L
180.375 101.854 L
180.762 100.217 L
181.15 98.48 L
181.538 96.483 L
181.925 94.118 L
182.313 91.484 L
182.7 90.111 L
183.087 87.235 L
183.475 85.449 L
183.863 84.537 L
184.25 84.51 L
184.637 83.9 L
185.025 82.243 L
185.413 80.61 L
185.8 78.497 L
186.188 76.404 L
186.575 75.218 L
186.962 72.888 L
187.35 71.493 L
187.738 69.396 L
188.125 68.877 L
188.512 67.197 L
188.9 66.324 L
189.288 64.868 L
189.675 63.82 L
190.063 63.572 L
190.45 63.07 L
190.837 62.745 L
191.225 61.879 L
191.613 61.492 L
192 61.447 L
192.387 61.884 L
192.775 61.19 L
193.163 60.96 L
193.55 60.73 L
193.938 59.984 L
194.325 59.943 L
194.712 59.754 L
195.1 60.003 L
195.488 59.858 L
195.875 59.812 L
196.262 59.925 L
196.65 59.456 L
197.038 59.245 L
197.425 59.321 L
197.813 60.135 L
198.2 59.883 L
198.587 59.41 L
198.975 59.753 L
199.363 59.887 L
199.75 60.933 L
200.137 61.478 L
200.525 61.637 L
200.913 62.211 L
201.3 63.078 L
201.688 63.533 L
202.075 64.14 L
202.462 64.372 L
202.85 64.824 L
203.238 65.315 L
203.625 65.986 L
204.012 66.145 L
204.4 66.379 L
204.788 65.837 L
205.175 65.548 L
205.563 66.418 L
205.95 66.312 L
206.337 67.295 L
206.725 67.629 L
207.113 67.643 L
207.5 67.343 L
207.887 67.649 L
208.275 67.634 L
208.663 67.27 L
209.05 67.486 L
209.438 67.886 L
209.825 67.708 L
210.212 68.326 L
210.6 68.778 L
210.988 68.822 L
211.375 69.598 L
211.762 70.177 L
212.15 69.594 L
212.538 69.936 L
212.925 70.344 L
213.313 70.128 L
213.7 70.499 L
214.087 70.064 L
214.475 70.442 L
214.863 70.284 L
215.25 70.309 L
215.637 71.01 L
216.025 70.872 L
216.413 71.368 L
216.8 72.111 L
217.188 71.978 L
217.575 71.588 L
217.962 72.641 L
218.35 74.022 L
218.738 73.961 L
219.125 73.618 L
219.512 73.766 L
219.9 74.165 L
220.288 75.234 L
220.675 75.504 L
221.063 75.106 L
221.45 76.269 L
221.837 76.323 L
222.225 76.935 L
222.613 77.448 L
223 77.321 L
223.387 76.54 L
223.775 75.772 L
224.163 76.054 L
224.55 76.865 L
224.938 78.146 L
225.325 77.396 L
225.712 78.109 L
226.1 77.946 L
226.488 78.601 L
226.875 79.257 L
227.262 79.716 L
227.65 79.722 L
228.038 80.127 L
228.425 79.988 L
228.813 80.559 L
229.2 80.323 L
229.587 80.58 L
229.975 80.008 L
230.363 79.585 L
230.75 79.737 L
231.137 79.06 L
231.525 79.206 L
231.913 79.375 L
232.3 79.937 L
232.688 79.628 L
233.075 79.955 L
233.462 80.784 L
233.85 81.362 L
234.238 81.407 L
234.625 81.253 L
235.012 81.545 L
235.4 81.626 L
235.788 81.471 L
236.175 81.532 L
236.563 81.327 L
236.95 82.281 L
237.337 82.403 L
237.725 82.242 L
238.113 81.534 L
238.5 82.311 L
238.887 83.565 L
239.275 83.921 L
239.663 83.886 L
240.05 83.711 L
240.438 83.471 L
240.825 83.308 L
241.212 82.126 L
241.6 82.217 L
241.988 81.366 L
242.375 81.297 L
242.762 81.46 L
243.15 82.348 L
243.538 82.78 L
243.925 83.641 L
244.313 84.328 L
244.7 84.684 L
245.087 85.974 L
245.475 85.905 L
245.863 86.56 L
246.25 86.672 L
246.637 86.465 L
247.025 87.059 L
247.413 86.796 L
247.8 85.962 L
248.188 86.227 L
248.575 87.643 L
248.962 88.647 L
249.35 89.028 L
249.738 91.264 L
250.125 91.848 L
250.512 92.29 L
250.9 92.484 L
251.288 92.639 L
251.675 93.67 L
252.063 93.685 L
252.45 93.533 L
252.837 93.971 L
253.225 93.775 L
253.613 94.274 L
254 94.376 L
254.387 94.513 L
254.775 95.205 L
255.163 94.96 L
255.55 94.973 L
255.938 95.704 L
256.325 97.341 L
256.712 96.737 L
257.1 96.359 L
257.487 96.842 L
257.875 97.551 L
258.263 96.578 L
258.65 95.72 L
259.038 94.434 L
259.425 94.928 L
259.813 95.156 L
260.2 95.458 L
260.587 95.911 L
260.975 97.171 L
261.362 98.507 L
261.75 99.408 L
262.138 98.911 L
262.525 99.817 L
262.913 101.103 L
263.3 101.864 L
263.688 101.314 L
264.075 101.745 L
264.462 101.745 L
264.85 101.819 L
265.237 102.671 L
265.625 102.179 L
266.013 101.806 L
266.4 102.03 L
266.788 102.141 L
267.175 103.634 L
267.563 105.371 L
267.95 106.011 L
268.337 105.18 L
268.725 104.539 L
269.112 104.539 L
269.5 103.231 L
269.888 102.367 L
270.275 102.777 L
270.663 103.712 L
271.05 103.549 L
271.438 102.695 L
271.825 103.031 L
272.212 103.661 L
272.6 103.661 L
272.987 103.049 L
273.375 102.726 L
273.763 102.536 L
274.15 102.626 L
274.538 102.514 L
274.925 103.108 L
275.313 104.872 L
275.7 105.31 L
276.087 103.971 L
276.475 104.575 L
276.862 105.425 L
277.25 104.767 L
277.638 104.776 L
278.025 106.369 L
278.413 106.915 L
278.8 109.164 L
279.188 108.989 L
279.575 108.731 L
279.962 109.657 L
280.35 110.922 L
280.737 111.448 L
281.125 111.074 L
281.513 111.555 L
281.9 112.993 L
282.288 113.629 L
282.675 113.745 L
283.063 113.663 L
283.45 114.727 L
283.837 113.887 L
284.225 113.036 L
284.612 112.68 L
285 112.606 L
285.388 112.851 L
285.775 114.324 L
286.163 114.753 L
286.55 114.846 L
286.938 114.378 L
287.325 112.741 L
287.712 113.211 L
288.1 113.435 L
288.487 115.47 L
288.875 115.805 L
289.263 116.477 L
289.65 117.873 L
290.038 117.575 L
290.425 117.902 L
290.813 118.605 L
291.2 119.246 L
291.587 119.752 L
291.975 120.132 L
292.362 120.802 L
292.75 122.145 L
293.138 122.704 L
293.525 122.728 L
293.913 122.814 L
294.3 122.712 L
294.688 123.646 L
295.075 123.54 L
295.462 122.652 L
295.85 122.875 L
296.237 123.558 L
296.625 124.353 L
297.013 126.222 L
297.4 127.251 L
297.788 127.668 L
298.175 128.386 L
298.563 128.386 L
298.95 128.653 L
299.337 129.033 L
299.725 128.893 L
300.112 129.283 L
300.5 128.69 L
300.888 128.109 L
301.275 129.867 L
301.663 130.503 L
302.05 130.306 L
302.438 131.125 L
302.825 132.065 L
303.212 132.238 L
303.6 133.078 L
303.987 134.001 L
304.375 136.096 L
304.763 135.937 L
305.15 136.814 L
305.538 137.087 L
305.925 137.162 L
306.313 137.463 L
306.7 137.341 L
307.087 139.134 L
307.475 138.806 L
307.862 138.821 L
308.25 137.941 L
308.638 138.834 L
309.025 138.15 L
309.413 138.347 L
309.8 138.645 L
310.188 138.49 L
310.575 138.557 L
310.962 139.662 L
311.35 138.571 L
311.737 139.236 L
312.125 139.66 L
312.513 138.866 L
312.9 140.354 L
313.288 141.306 L
313.675 143.308 L
314.063 144.111 L
314.45 142.818 L
314.837 142.523 L
315.225 143.608 L
315.612 144.233 L
316 144.078 L
316.388 144.512 L
316.775 143.62 L
317.163 142.728 L
317.55 142.338 L
317.938 142.739 L
318.325 141.858 L
318.712 141.836 L
319.1 142.538 L
319.487 142.641 L
319.875 141.76 L
320.263 141.951 L
320.65 142.594 L
321.038 142.504 L
321.425 141.814 L
321.813 141.814 L
322.2 140.177 L
322.587 138.968 L
322.975 138.124 L
323.362 139.433 L
323.75 139.596 L
324.138 138.819 L
324.525 140.594 L
324.913 140.8 L
325.3 139.268 L
325.688 139.942 L
326.075 140.018 L
326.462 140.231 L
326.85 139.702 L
327.237 140.794 L
327.625 140.083 L
328.013 139.569 L
328.4 139.023 L
328.788 139.023 L
329.175 138.134 L
329.563 138.68 L
329.95 139.08 L
330.337 139.08 L
330.725 138.936 L
331.112 139.885 L
331.5 139.688 L
331.888 139.288 L
332.275 139.494 L
332.663 137.287 L
333.05 137.546 L
333.438 135.95 L
333.825 135.888 L
334.212 136.363 L
334.6 136.339 L
334.987 135.908 L
335.375 134.837 L
335.763 135.21 L
336.15 134.777 L
336.538 134.245 L
336.925 135.11 L
337.313 135.5 L
337.7 133.903 L
338.087 133.412 L
338.475 134.667 L
338.862 134.348 L
339.25 135.555 L
339.638 136.291 L
340.025 136.115 L
340.413 137.133 L
340.8 136.068 L
341.188 137.227 L
341.575 137.075 L
341.962 138.038 L
342.35 138.184 L
342.737 138.184 L
343.125 136.617 L
343.513 136.179 L
343.9 135.489 L
344.288 134.275 L
344.675 133.367 L
345.063 134.086 L
345.45 132.891 L
345.837 134.683 L
346.225 136.135 L
346.612 135.962 L
347 135.69 L
347.388 137.122 L
347.775 137.264 L
348.163 137.422 L
348.55 138.012 L
348.938 138.704 L
349.325 139.699 L
349.712 138.763 L
350.1 139.045 L
350.487 138.398 L
350.875 138.957 L
351.263 139.154 L
351.65 139.053 L
352.038 140.042 L
352.425 141.285 L
352.813 140.768 L
353.2 142.896 L
353.587 144.088 L
353.975 144.361 L
354.362 143.468 L
354.75 143.64 L
355.138 144.657 L
355.525 144.543 L
355.913 145.249 L
356.3 146.092 L
356.688 145.975 L
357.075 146.977 L
357.462 148.573 L
357.85 148.413 L
358.237 147.247 L
358.625 147.098 L
359.013 145.788 L
359.4 145.052 L
359.788 145.63 L
360.175 144.787 L
360.563 144.386 L
360.95 143.889 L
361.337 145.546 L
361.725 146.016 L
362.112 146.914 L
362.5 149.258 L
362.888 149.775 L
363.275 150.681 L
363.663 151.661 L
364.05 152.539 L
364.438 154.82 L
364.825 155.489 L
365.212 155.936 L
365.6 155.178 L
365.987 155.388 L
366.375 155.47 L
366.763 156.288 L
367.15 156.78 L
367.538 157.905 L
367.925 158.422 L
368.313 159.621 L
368.7 160.205 L
369.087 160.029 L
369.475 161.356 L
369.862 161.626 L
370.25 162.66 L
370.638 163.608 L
371.025 164.14 L
371.413 165.809 L
371.8 165.789 L
372.188 166.241 L
372.575 166.302 L
372.962 165.463 L
373.35 164.918 L
373.737 165.19 L
374.125 166.016 L
374.513 166.518 L
374.9 168.155 L
375.288 168.11 L
375.675 167.252 L
376.063 168.998 L
376.45 168.869 L
376.837 168.03 L
377.225 167.606 L
377.612 169.123 L
378 169.872 L
378.388 170.199 L
378.775 170.044 L
379.163 170.196 L
379.55 169.358 L
379.938 169.897 L
380.325 170.313 L
380.712 170.742 L
381.1 169.95 L
381.487 168.518 L
381.875 168.236 L
382.263 166.474 L
382.65 165.785 L
383.038 165.514 L
383.425 164.808 L
383.813 164.854 L
384.2 163.38 L
384.587 163.509 L
384.975 164.547 L
385.362 163.198 L
385.75 162.641 L
386.138 163.869 L
386.525 163.357 L
386.913 162.866 L
387.3 162.832 L
387.688 162.396 L
388.075 161.462 L
388.462 160.815 L
388.85 160.992 L
389.237 160.401 L
389.625 160.518 L
390.013 158.956 L
390.4 158.008 L
390.788 157.864 L
391.175 156.124 L
391.563 155.011 L
391.95 154.213 L
392.337 155.809 L
392.725 155.502 L
393.112 155.114 L
393.5 154.307 L
393.888 155.351 L
394.275 155.366 L
394.663 154.419 L
395.05 154.034 L
395.438 154.748 L
395.825 152.783 L
396.212 152.19 L
396.6 151.754 L
396.987 151.308 L
397.375 150.36 L
397.763 149.6 L
398.15 148.669 L
398.538 149.588 L
398.925 148.833 L
399.313 150.361 L
399.7 149.741 L
400.087 148.482 L
400.475 147.807 L
400.862 148.599 L
401.25 149.851 L
401.638 149.702 L
402.025 150.669 L
402.413 150.997 L
402.8 149.952 L
403.188 149.578 L
403.575 149.001 L
403.962 148.13 L
404.35 147.613 L
404.737 147.613 L
405.125 148.82 L
405.513 148.948 L
405.9 148.069 L
406.288 148.195 L
406.675 148.809 L
407.063 147.952 L
407.45 147.522 L
407.837 147.698 L
408.225 147.526 L
408.612 146.803 L
409 145.496 L
409.388 145.223 L
409.775 145.415 L
410.163 145.689 L
410.55 146.411 L
410.938 145.667 L
411.325 146.593 L
411.712 146.18 L
412.1 144.522 L
412.487 144.277 L
412.875 144.018 L
413.263 143.967 L
413.65 144.151 L
414.038 144.895 L
414.425 143.698 L
414.813 143.4 L
415.2 142.452 L
415.587 142.556 L
415.975 143.278 L
416.362 142.179 L
416.75 143.023 L
417.138 144.762 L
417.525 144.614 L
417.913 145.907 L
418.3 146.067 L
418.688 146.12 L
419.075 144.012 L
419.462 144.776 L
419.85 146.471 L
420.237 147.419 L
420.625 146.369 L
421.013 145.935 L
421.4 145.054 L
421.788 143.716 L
422.175 144.48 L
422.563 145.912 L
422.95 146.286 L
423.337 146.574 L
423.725 147.2 L
424.112 147.458 L
424.5 147.314 L
424.888 147.989 L
425.275 148.262 L
425.663 148.794 L
426.05 148.088 L
426.438 148.485 L
426.825 149.615 L
427.212 150.966 L
427.6 152.584 L
427.987 153.157 L
428.375 153.157 L
428.763 156.057 L
429.15 155.593 L
429.538 156.446 L
429.925 156.574 L
430.313 155.723 L
430.7 158.206 L
431.087 157.575 L
431.475 158.48 L
431.862 158.738 L
432.25 159.291 L
432.638 159.352 L
433.025 160.066 L
433.413 159.329 L
433.8 159.261 L
434.188 160.443 L
434.575 161.171 L
434.962 162.481 L
435.35 163.114 L
435.737 162.378 L
436.125 163.476 L
436.513 164.471 L
436.9 163.55 L
437.288 165.036 L
437.675 165.31 L
438.063 164.877 L
438.45 165.917 L
438.837 168.299 L
439.225 168.333 L
439.612 168.413 L
440 167.244 L
440.388 167.761 L
440.775 167.906 L
441.163 169.878 L
441.55 171.794 L
441.938 172.925 L
442.325 173.358 L
442.712 174.245 L
443.1 175.246 L
443.487 177.211 L
443.875 176.521 L
444.263 176.666 L
444.65 175.616 L
445.038 174.926 L
445.425 174.926 L
445.813 175.505 L
446.2 173.949 L
446.587 173.274 L
446.975 172.804 L
447.362 171.024 L
447.75 172.19 L
448.138 172.046 L
448.525 170.654 L
448.913 171.262 L
449.3 171.664 L
449.688 170.745 L
450.075 170.874 L
450.462 170.341 L
450.85 170.972 L
451.237 170.539 L
451.625 171.36 L
452.013 171.182 L
452.4 171.521 L
452.788 171.392 L
453.175 170.656 L
453.563 170.383 L
453.95 170.398 L
454.337 170.139 L
454.725 169.921 L
455.112 169.983 L
455.5 171.64 L
455.888 172.076 L
456.275 170.769 L
456.663 170.497 L
457.05 170.063 L
457.438 170.352 L
457.825 169.189 L
458.212 169.741 L
458.6 169.067 L
458.987 167.942 L
459.375 168.168 L
459.763 168.792 L
460.15 167.667 L
460.538 166.618 L
460.925 165.854 L
461.313 164.843 L
461.7 163.052 L
462.087 164.373 L
462.475 164.987 L
462.862 164.113 L
463.25 162.367 L
463.638 163.349 L
464.025 163.061 L
464.413 163.19 L
464.8 162.947 L
465.188 162.529 L
465.575 161.977 L
465.962 163.068 L
466.35 161.517 L
466.737 160.882 L
467.125 161.189 L
467.513 161.414 L
467.9 160.085 L
468.288 160.876 L
468.675 159.831 L
469.063 159.012 L
469.45 159.167 L
469.837 158.583 L
470.225 158.741 L
470.612 158.011 L
471 159.365 L
471.388 160.686 L
471.775 160.427 L
472.163 160.817 L
472.55 161.738 L
472.938 162.72 L
473.325 161.629 L
473.712 161.051 L
474.1 161.206 L
474.487 161.367 L
474.875 161.06 L
475.263 161.06 L
475.65 160.624 L
476.038 160.963 L
476.425 160.589 L
476.813 161.023 L
477.2 159.943 L
477.587 161.413 L
477.975 161.379 L
478.362 161.542 L
478.75 163.083 L
479.138 163.942 L
479.525 164.103 L
479.913 165.985 L
480.3 167.197 L
480.688 167.688 L
481.075 168.834 L
481.462 169.222 L
481.85 168.286 L
482.237 166.671 L
482.625 165.852 L
483.013 166.125 L
483.4 166.106 L
483.788 165.899 L
484.175 164.426 L
484.563 165.536 L
484.95 166.242 L
485.337 166.632 L
485.725 166.52 L
486.112 168.2 L
486.5 168.418 L
486.888 168.806 L
487.275 167.804 L
487.663 169.551 L
488.05 168.572 L
488.438 169.358 L
488.825 170.292 L
489.212 169.964 L
489.6 169.588 L
489.987 169.159 L
490.375 171.386 L
490.763 170.898 L
491.15 169.144 L
491.538 170.42 L
491.925 169.629 L
492.313 168.462 L
492.7 167.74 L
493.087 168.559 L
493.475 168.174 L
493.862 168.174 L
494.25 167.74 L
494.638 166.835 L
495.025 166.222 L
495.413 166.896 L
495.8 167.142 L
496.188 166.736 L
496.575 165.484 L
496.962 165.237 L
497.35 164.346 L
497.737 164.073 L
498.125 163.895 L
498.513 162.9 L
498.9 159.994 L
499.288 160.207 L
499.675 158.009 L
500.063 157.702 L
500.45 157.557 L
500.837 155.92 L
501.225 155.92 L
501.612 155.246 L
502 155.246 L
502.388 155.044 L
502.775 154.9 L
503.163 154.086 L
503.55 153.532 L
503.938 153.953 L
504.325 153.23 L
504.712 152.552 L
505.1 152.278 L
505.487 150.94 L
505.875 150.795 L
506.263 150.924 L
506.65 149.799 L
507.038 149.526 L
507.425 149.253 L
507.813 150.3 L
508.2 149.635 L
508.587 148.429 L
508.975 148.814 L
509.362 148.957 L
509.75 148.489 L
510.138 146.852 L
510.525 145.682 L
510.913 145.826 L
511.3 144.68 L
511.688 143.764 L
512.075 143.622 L
512.463 144.037 L
512.85 143.014 L
513.237 143.977 L
513.625 144.08 L
514.013 143.495 L
514.4 144.833 L
514.787 144.397 L
515.175 144.159 L
515.563 143.771 L
515.95 144.435 L
516.338 144.163 L
516.725 143.668 L
517.112 143.865 L
517.5 143.592 L
517.888 144.185 L
518.275 144.458 L
518.662 145.746 L
519.05 144.43 L
519.438 145.094 L
519.825 144.821 L
520.213 144.821 L
520.6 144.925 L
520.987 144.679 L
521.375 144.968 L
521.763 145.227 L
522.15 144.811 L
522.537 145.085 L
522.925 145.263 L
523.313 146.601 L
523.7 149.731 L
524.088 149.344 L
524.475 150.023 L
524.862 150.585 L
525.25 151.244 L
525.638 150.898 L
526.025 150.797 L
526.412 151.26 L
526.8 150.506 L
527.188 148.401 L
527.575 147.05 L
527.963 147.366 L
528.35 148.73 L
528.737 148.271 L
529.125 148.738 L
529.513 148.656 L
529.9 148.254 L
530.287 149.605 L
530.675 149.316 L
531.063 149.46 L
531.45 151.296 L
531.838 151.296 L
532.225 151.215 L
532.612 151.887 L
533 151.497 L
533.388 152.192 L
533.775 153.049 L
534.162 153.435 L
534.55 153.291 L
534.938 153.257 L
535.325 153.154 L
535.713 153.108 L
536.1 153.53 L
536.487 154.918 L
536.875 154.721 L
537.263 155.607 L
537.65 154.215 L
538.037 153.865 L
538.425 153.272 L
538.813 152.96 L
539.2 152.997 L
539.588 153.815 L
539.975 153.831 L
540.362 153.334 L
540.75 152.293 L
541.138 151.275 L
541.525 150.914 L
541.912 150.377 L
542.3 149.975 L
542.688 149.729 L
543.075 149.569 L
543.463 146.374 L
543.85 146.329 L
544.237 146.329 L
544.625 145.462 L
545.013 145.852 L
545.4 147.066 L
545.787 147.038 L
546.175 145.879 L
546.563 147.196 L
546.95 149.301 L
547.338 149.145 L
547.725 150.604 L
548.112 149.567 L
548.5 151.074 L
548.888 151.152 L
549.275 149.77 L
549.662 150.807 L
550.05 149.457 L
550.438 150.147 L
550.825 149.457 L
551.213 148.291 L
551.6 148.291 L
551.987 148.534 L
552.375 148.497 L
552.763 148.614 L
553.15 147.57 L
553.537 146.123 L
553.925 144.188 L
554.313 144.59 L
554.7 144.931 L
555.088 145.422 L
555.475 145.037 L
555.862 145.434 L
556.25 145.305 L
556.638 144.661 L
557.025 144.192 L
557.412 144.125 L
557.8 144.783 L
558.188 144.345 L
558.575 144.658 L
558.963 145.008 L
559.35 144.19 L
559.737 145.792 L
560.125 146.949 L
560.513 148.236 L
560.9 147.481 L
561.287 147.235 L
561.675 150.081 L
562.063 150.225 L
562.45 150.716 L
562.838 151.846 L
563.225 152.378 L
563.612 152.075 L
564 150.995 L
564.388 150.759 L
564.775 150.921 L
565.162 149.306 L
565.55 148.416 L
565.938 150.859 L
566.325 149.88 L
566.713 149.492 L
567.1 150.631 L
567.487 148.793 L
567.875 148.85 L
568.263 147.703 L
568.65 147.484 L
569.037 148.563 L
569.425 147.6 L
569.813 147.949 L
570.2 145.684 L
570.588 146.502 L
570.975 147.045 L
571.362 148.251 L
571.75 148.395 L
572.138 149.602 L
572.525 149.485 L
572.912 150.222 L
573.3 150.305 L
573.688 151.148 L
574.075 150.528 L
574.463 150.347 L
574.85 150.781 L
575.237 152.418 L
575.625 152.546 L
576.013 152.546 L
576.4 153.774 L
576.787 153.937 L
577.175 155.287 L
577.563 155.11 L
577.95 156.011 L
578.338 156.035 L
578.725 156.164 L
579.112 156.307 L
579.5 155.448 L
579.888 154.001 L
580.275 153.871 L
580.662 153.871 L
581.05 153.715 L
581.438 153.715 L
581.825 153.599 L
582.213 153.524 L
582.6 152.25 L
582.987 152.835 L
583.375 153.716 L
583.763 154.233 L
584.15 155.176 L
584.537 155.141 L
584.925 156.179 L
585.313 156.449 L
585.7 155.438 L
586.088 156.113 L
586.475 155.273 L
586.862 155.027 L
587.25 155.474 L
587.638 155.014 L
588.025 155.002 L
588.412 155.493 L
588.8 155.784 L
589.188 157.035 L
589.575 157.279 L
589.963 159.816 L
590.35 158.257 L
590.737 157.647 L
591.125 156.828 L
591.513 155.654 L
591.9 155.142 L
592.287 155.142 L
592.675 155.576 L
593.063 156.667 L
593.45 156.552 L
593.838 157.043 L
594.225 156.164 L
594.612 156.003 L
595 154.448 L
595.388 154.737 L
595.775 155.48 L
596.162 154.743 L
596.55 153.384 L
596.938 152.77 L
597.325 152.511 L
597.713 151.966 L
598.1 152.339 L
598.487 151.664 L
598.875 151.548 L
599.263 149.952 L
599.65 150.379 L
600.037 149.456 L
600.425 150.058 L
600.813 150.706 L
601.2 149.014 L
601.588 148.675 L
601.975 148.326 L
602.362 147.651 L
602.75 148.373 L
603.138 147.41 L
603.525 146.893 L
603.912 146.232 L
604.3 145.375 L
604.688 145.503 L
605.075 145.578 L
605.463 144.015 L
605.85 144.608 L
606.237 145.017 L
606.625 144.772 L
607.013 145.571 L
607.4 146.017 L
607.787 146.433 L
608.175 145.849 L
608.563 146.05 L
608.95 145.002 L
609.338 144.901 L
609.725 144.083 L
610.112 145.757 L
610.5 147.332 L
610.888 146.595 L
611.275 148.915 L
611.662 148.608 L
612.05 148.547 L
612.438 148.243 L
612.825 148.372 L
613.213 148.409 L
613.6 148.28 L
613.987 148.871 L
614.375 147.423 L
614.763 148.031 L
615.15 148.159 L
615.537 146.429 L
615.925 146.778 L
616.313 146.848 L
616.7 147.094 L
617.088 146.978 L
617.475 148.342 L
617.862 148.485 L
618.25 149.031 L
618.638 149.004 L
619.025 151.039 L
619.412 150.804 L
619.8 152 L
620.188 152.464 L
620.575 152.164 L
620.963 152.593 L
621.35 152.43 L
621.737 152.43 L
622.125 152.588 L
622.513 153.094 L
622.9 154.731 L
623.287 155.506 L
623.675 154.989 L
624.063 155.223 L
624.45 154.214 L
624.838 154.214 L
625.225 156.595 L
625.612 156.002 L
626 156.965 L
626.388 155.789 L
626.775 155.543 L
627.162 155.028 L
627.55 155.464 L
627.938 156.97 L
628.325 158.136 L
628.713 158.505 L
629.1 158.621 L
629.487 157.803 L
629.875 157.848 L
630.263 156.65 L
630.65 156.895 L
631.037 155.504 L
631.425 156.049 L
631.813 155.538 L
632.2 154.962 L
632.588 154.287 L
632.975 154.287 L
633.362 153.364 L
633.75 151.949 L
634.138 152.387 L
634.525 152.645 L
634.912 151.881 L
635.3 153.271 L
635.688 153.803 L
636.075 153.966 L
636.463 153.966 L
636.85 153.096 L
637.237 151.732 L
637.625 152.583 L
638.013 153.305 L
638.4 154.124 L
638.787 153.071 L
639.175 153.909 L
639.563 154.038 L
639.95 155.456 L
640.338 157.055 L
640.725 157.717 L
641.112 159.283 L
641.5 159.407 L
641.888 160.517 L
642.275 158.798 L
642.662 157.366 L
643.05 156.418 L
643.438 156.586 L
643.825 157.37 L
644.213 159.335 L
644.6 158.867 L
644.987 158.048 L
645.375 157.531 L
645.763 157.66 L
646.15 159.388 L
646.537 160.558 L
646.925 161.519 L
647.313 160.939 L
647.7 159.372 L
648.088 157.905 L
648.475 157.66 L
648.862 157.933 L
649.25 158.479 L
649.638 159.057 L
650.025 160.029 L
650.412 160.029 L
650.8 159.69 L
651.188 158.498 L
651.575 158.966 L
651.963 158.296 L
652.35 158.971 L
652.737 159.936 L
653.125 161.602 L
653.513 162.872 L
653.9 163.773 L
654.287 163.499 L
654.675 164.378 L
655.063 163.52 L
655.45 163.13 L
655.838 163.13 L
656.225 163.014 L
656.612 165.051 L
657 165.482 L
657.388 165.771 L
657.775 164.602 L
658.162 163.565 L
658.55 163.71 L
658.938 162.738 L
659.325 161.077 L
659.713 158.749 L
660.1 156.803 L
660.487 156.565 L
660.875 155.617 L
661.263 156.163 L
661.65 155.44 L
662.037 155.932 L
662.425 156.158 L
662.813 156.976 L
663.2 157.596 L
663.588 157.033 L
663.975 155.533 L
664.362 156.082 L
664.75 155.837 L
665.138 156.369 L
665.525 156.529 L
665.912 155.475 L
666.3 153.989 L
666.688 153.86 L
667.075 153.86 L
667.463 154.636 L
667.85 154.535 L
668.237 154.675 L
668.625 154.804 L
669.013 155.221 L
669.4 154.21 L
669.787 153.678 L
670.175 154.169 L
670.563 155.061 L
670.95 155.707 L
671.338 156.221 L
671.725 158.637 L
672.112 158.235 L
672.5 157.234 L
672.888 156.232 L
673.275 155.987 L
673.662 154.841 L
674.05 154.315 L
674.438 153.928 L
674.825 155.433 L
675.213 155.291 L
675.6 155.463 L
675.987 154.946 L
676.375 154.025 L
676.763 154.062 L
677.15 152.506 L
677.537 152.564 L
677.925 152.237 L
678.313 152.222 L
678.7 153.338 L
679.088 154.597 L
679.475 155.332 L
679.862 156.225 L
680.25 155.272 L
680.638 154.583 L
681.025 153.678 L
681.412 154.599 L
681.8 155.145 L
682.188 155.041 L
682.575 154.059 L
682.963 154.609 L
683.35 155.011 L
683.737 155.14 L
684.125 155.14 L
684.513 155.53 L
684.9 155.53 L
685.287 153.869 L
685.675 154.923 L
686.063 155.111 L
686.45 155.854 L
686.838 155.145 L
687.225 154.743 L
687.612 155.143 L
688 155.003 L
688.388 154.145 L
688.775 154.13 L
689.162 153.393 L
689.55 154.941 L
689.938 153.98 L
690.325 152.78 L
690.713 151.689 L
691.1 150.788 L
691.487 149.216 L
691.875 148.261 L
692.263 148.921 L
692.65 148.921 L
693.037 150.088 L
693.425 150.925 L
693.813 150.858 L
694.2 150.613 L
694.588 149.563 L
694.975 149.058 L
695.362 149.458 L
695.75 149.717 L
696.138 149.226 L
696.525 149.303 L
696.912 149.604 L
697.3 150.605 L
697.688 150.878 L
698.075 151.137 L
698.463 150.084 L
698.85 150.343 L
699.237 149.896 L
699.625 150.041 L
700.013 149.705 L
700.4 150.394 L
700.787 151.053 L
701.175 150.132 L
701.563 149.095 L
701.95 149.236 L
702.338 150.089 L
702.725 150.378 L
703.112 149.52 L
703.5 149.52 L
703.888 150.128 L
704.275 148.85 L
704.662 148.318 L
705.05 148.798 L
705.438 148.218 L
705.825 148.737 L
706.213 147.218 L
706.6 148.922 L
706.987 148.021 L
707.375 147.092 L
707.763 146.998 L
708.15 146.678 L
708.537 146.856 L
708.925 147.464 L
709.313 147.206 L
709.7 147.274 L
710.088 147.051 L
710.475 147.238 L
710.862 147.09 L
711.25 148.182 L
711.638 148.505 L
712.025 147.116 L
712.412 147.504 L
712.8 146.195 L
713.188 146.469 L
713.575 146.96 L
713.963 145.919 L
714.35 146.048 L
714.737 146.45 L
715.125 145.735 L
715.513 144.971 L
715.9 145.074 L
716.287 145.62 L
716.675 145.721 L
717.063 144.661 L
717.45 144.224 L
717.838 143.981 L
718.225 144.449 L
718.612 144.592 L
719 145.356 L
719.388 144.475 L
719.775 144.873 L
720.162 144.265 L
720.55 144.381 L
720.938 143.735 L
721.325 143.479 L
721.713 144.263 L
722.1 144.826 L
722.487 143.831 L
722.875 144.028 L
723.263 143.926 L
723.65 143.783 L
724.037 144.47 L
724.425 144.47 L
724.813 144.829 L
725.2 144.141 L
725.588 143.377 L
725.975 144.153 L
726.362 142.683 L
726.75 143.728 L
727.138 143.88 L
727.525 144.077 L
727.912 144.397 L
728.3 144.523 L
728.688 144.523 L
729.075 143.377 L
729.463 143.451 L
729.85 145.113 L
730.237 146.451 L
730.625 146.844 L
731.013 145.133 L
731.4 145.765 L
731.787 146.881 L
732.175 146.335 L
732.563 145.607 L
732.95 145.911 L
733.338 146.301 L
733.725 148.133 L
734.112 147.396 L
734.5 147.151 L
734.888 147.293 L
735.275 148.732 L
735.662 148.45 L
736.05 148.791 L
736.438 148.935 L
736.825 148.735 L
737.213 149.99 L
737.6 149.729 L
737.987 149.198 L
738.375 148.761 L
738.763 148.345 L
739.15 149.515 L
739.537 150.099 L
739.925 150.965 L
740.313 150.448 L
740.7 150.549 L
741.088 151.729 L
741.475 150.945 L
741.862 149.966 L
742.25 151.16 L
742.638 151.418 L
743.025 151.664 L
743.412 151.446 L
743.8 151.401 L
744.188 151.401 L
744.575 152.403 L
744.963 153.978 L
745.35 154.598 L
745.737 154.727 L
746.125 154.514 L
746.513 154.498 L
746.9 154.001 L
747.287 153.719 L
747.675 154.577 L
748.063 153.239 L
748.45 153.802 L
748.838 153.414 L
749.225 154.505 L
749.612 152.62 L
750 152.316 L
750.388 151.902 L
750.775 152.795 L
751.162 152.939 L
751.55 151.858 L
751.938 152.275 L
752.325 153.247 L
752.713 151.474 L
753.1 150.436 L
753.487 149.245 L
753.875 148.929 L
754.263 148.585 L
754.65 148.757 L
755.037 147.721 L
755.425 146.636 L
755.813 144.859 L
756.2 144.041 L
756.588 144.816 L
756.975 144.543 L
757.362 144.075 L
757.75 145.499 L
758.138 144.385 L
758.525 145.364 L
758.912 144.194 L
759.3 143.31 L
759.688 142.861 L
760.075 142.602 L
760.463 142.875 L
760.85 142.313 L
761.237 142.172 L
761.625 142.445 L
762.013 141.524 L
762.4 140.931 L
762.787 140.113 L
763.175 140.216 L
763.563 139.421 L
763.95 140.531 L
764.338 139.644 L
764.725 138.913 L
765.112 138.396 L
765.5 138.942 L
765.888 139.903 L
766.275 141.058 L
766.662 142.723 L
767.05 142.509 L
767.438 141.499 L
767.825 142.275 L
768.213 140.88 L
768.6 141.656 L
768.987 140.49 L
769.375 140.49 L
769.763 140.505 L
770.15 140.673 L
770.537 141.819 L
770.925 141.403 L
771.313 141.899 L
771.7 142.172 L
772.088 142.071 L
772.475 144.025 L
772.862 145.163 L
773.25 145.163 L
773.638 146.086 L
774.025 146.779 L
774.412 146.402 L
774.8 146.505 L
775.188 147.207 L
775.575 147.786 L
775.963 148.46 L
776.35 148.33 L
776.737 148.33 L
777.125 149.637 L
777.513 148.785 L
777.9 149.816 L
778.287 148.737 L
778.675 148.655 L
779.063 149.409 L
779.45 149.184 L
779.838 149.419 L
780.225 149.547 L
780.612 148.858 L
781 149.494 L
781.388 150.381 L
781.775 151.301 L
782.162 151.636 L
782.55 151.066 L
782.938 151.181 L
783.325 151.922 L
783.713 150.654 L
784.1 150.108 L
784.487 150.354 L
784.875 150.309 L
785.263 149.634 L
785.65 149.201 L
786.037 148.189 L
786.425 147.901 L
786.813 148.785 L
787.2 149.03 L
787.588 148.255 L
787.975 148.631 L
788.362 147.697 L
788.75 148.057 L
789.138 149.15 L
789.525 148.187 L
789.912 148.679 L
790.3 146.369 L
790.688 146.564 L
791.075 146.761 L
791.463 146.617 L
791.85 147.135 L
792.237 145.358 L
792.625 144.376 L
793.013 145.943 L
793.4 146.217 L
793.787 145.552 L
794.175 147.496 L
794.563 147.884 L
794.95 148.936 L
795.338 149.087 L
795.725 148.647 L
796.112 148.259 L
796.5 147.523 L
796.888 146.528 L
797.275 147.073 L
797.662 147.073 L
798.05 147.369 L
798.438 147.696 L
798.825 147.438 L
799.213 147.596 L
799.6 147.681 L
799.987 148.259 L
800.375 149.222 L
800.763 150.305 L
801.15 149.691 L
801.537 148.899 L
801.925 148.617 L
802.313 150.439 L
802.7 150.712 L
803.088 151.98 L
803.475 153.446 L
803.862 154.158 L
804.25 153.641 L
804.638 153.327 L
805.025 152.91 L
805.412 152.956 L
805.8 152.465 L
806.188 153.332 L
806.575 153.461 L
806.963 154.566 L
807.35 155.6 L
807.737 156.314 L
808.125 156.213 L
808.513 155.765 L
808.9 155.623 L
809.287 156.558 L
809.675 155.293 L
810.063 155.563 L
810.45 155.329 L
810.838 155.132 L
811.225 154.462 L
811.612 153.073 L
812 154.624 L
812.388 155.216 L
812.775 153.908 L
813.162 154.07 L
813.55 154.978 L
813.938 153.321 L
814.325 152.887 L
814.713 152.642 L
815.1 153.075 L
815.487 152.767 L
815.875 151.767 L
816.263 151.275 L
816.65 151.003 L
817.037 150.457 L
817.425 150.573 L
817.813 150.536 L
818.2 150.482 L
818.588 151.142 L
818.975 150.569 L
819.362 151.154 L
819.75 151.266 L
820.138 151.844 L
820.525 150.616 L
820.912 150.228 L
821.3 149.138 L
821.688 150.627 L
822.075 149.456 L
822.463 149.184 L
822.85 147.97 L
823.237 146.699 L
823.625 146.676 L
824.013 146.744 L
824.4 146.744 L
824.787 146.744 L
825.175 147.404 L
825.563 148.04 L
825.95 146.357 L
826.338 145.111 L
826.725 143.913 L
827.112 143.654 L
827.5 143.034 L
827.888 143.809 L
828.275 144.791 L
828.662 145.324 L
829.05 144.126 L
829.438 144.901 L
829.825 144.247 L
830.213 144.703 L
830.6 144.641 L
830.987 145.475 L
831.375 146.735 L
831.763 146.655 L
832.15 145.513 L
832.537 146.821 L
832.925 145.969 L
833.313 145.443 L
833.7 145.792 L
834.088 146.659 L
834.475 147.292 L
834.862 147.437 L
835.25 147.942 L
835.638 148.512 L
836.025 148.921 L
836.412 150.012 L
836.8 150.285 L
837.188 150.285 L
837.575 149.854 L
837.963 149.967 L
838.35 149.448 L
838.737 151.023 L
839.125 150.635 L
839.513 150.09 L
839.9 149.367 L
840.287 149.094 L
840.675 148.521 L
841.063 149.627 L
841.45 149.422 L
841.838 149.422 L
842.225 149.968 L
842.612 150.33 L
843 150.011 L
843.388 149.594 L
843.775 149.178 L
844.162 149.652 L
844.55 149.024 L
844.938 147.932 L
845.325 147.203 L
845.713 147.112 L
846.1 147.84 L
846.487 148.28 L
846.875 147.963 L
847.263 148.887 L
847.65 148.267 L
848.037 148.7 L
848.425 148.205 L
848.813 147.707 L
849.2 148.056 L
849.588 149.214 L
849.975 149.651 L
850.362 150.441 L
850.75 150.422 L
851.138 150.278 L
851.525 149.48 L
851.912 151.38 L
852.3 150.33 L
852.688 150.057 L
853.075 150.597 L
853.463 151.531 L
853.85 150.824 L
854.237 149.356 L
854.625 149.083 L
855.013 149.225 L
855.4 149.498 L
855.787 148.753 L
856.175 148.822 L
856.563 147.92 L
856.95 147.313 L
857.338 148.131 L
857.725 147.278 L
858.112 146.787 L
858.5 145.589 L
858.888 145.703 L
859.275 145.574 L
859.662 144.681 L
860.05 144.81 L
860.438 145.525 L
860.825 144.562 L
861.213 143.414 L
861.6 143.332 L
861.987 141.539 L
862.375 141.539 L
862.763 141.776 L
863.15 142.451 L
863.537 142.754 L
863.925 142.357 L
864.313 142.885 L
864.7 143.213 L
865.088 142.511 L
865.475 143.434 L
865.862 143.075 L
866.25 143.219 L
866.638 143.521 L
867.025 142.269 L
867.412 142.616 L
867.8 141.13 L
868.188 139.801 L
868.575 140.795 L
868.963 140.598 L
869.35 140.494 L
869.737 139.024 L
870.125 138.492 L
870.513 137.529 L
870.9 137.141 L
871.287 137.087 L
871.675 136.861 L
872.063 136.99 L
872.45 138.422 L
872.838 138.118 L
873.225 136.612 L
873.612 137.014 L
874 137.743 L
874.388 136.756 L
874.775 136.183 L
875.162 136.183 L
875.55 137.875 L
875.938 136.815 L
876.325 136.873 L
876.713 136.587 L
877.1 135.85 L
877.487 136.175 L
877.875 137.345 L
878.263 137.657 L
878.65 138.059 L
879.037 137.655 L
879.425 138.057 L
879.813 138.201 L
880.2 138.591 L
880.588 139.539 L
880.975 138.845 L
881.362 139.418 L
881.75 140.938 L
882.138 139.893 L
882.525 139.835 L
882.912 139.06 L
883.3 139.622 L
883.688 141.11 L
884.075 141.369 L
884.463 140.686 L
884.85 141.843 L
885.237 141.972 L
885.625 142.474 L
886.013 141.655 L
886.4 141.67 L
886.787 142.762 L
887.175 142.906 L
887.563 143.525 L
887.95 145.451 L
888.338 145.217 L
888.725 145.802 L
889.112 145.905 L
889.5 147.068 L
889.888 147.601 L
890.275 147.256 L
890.662 148.189 L
891.05 147.683 L
891.438 147.166 L
891.825 147.31 L
892.213 145.878 L
892.6 145.777 L
892.987 146.883 L
893.375 146.402 L
893.763 146.366 L
894.15 147.353 L
894.537 147.008 L
894.925 147.424 L
895.313 146.804 L
895.7 146.92 L
896.088 147.738 L
896.475 148.492 L
896.862 148.966 L
897.25 149.71 L
897.638 148.906 L
898.025 148.885 L
898.412 148.386 L
898.8 148.668 L
899.188 148.911 L
899.575 148.539 L
899.963 147.96 L
900.35 147.371 L
900.737 148.62 L
901.125 148.548 L
901.513 148.113 L
901.9 149.414 L
902.287 149.738 L
902.675 150.33 L
903.063 149.684 L
903.45 147.823 L
903.838 147.956 L
904.225 149.53 L
904.612 149.247 L
905 148.689 L
S
GR
%%Trailer
%%Pages: 1
%%EOF
