%!PS-Adobe-3.0 EPSF-3.0
%%Creator: (MATLAB, The Mathworks, Inc. Version 9.0.0.341360 \(R2016a\). Operating System: Linux)
%%Title: report/figures/sm_base_additional_fc_layer3_ratio.eps
%%CreationDate: 2017-02-04T23:56:21
%%Pages: (atend)
%%BoundingBox:    59     4   910   325
%%LanguageLevel: 3
%%EndComments
%%BeginProlog
%%BeginResource: procset (Apache XML Graphics Std ProcSet) 1.2 0
%%Version: 1.2 0
%%Copyright: (Copyright 2001-2003,2010 The Apache Software Foundation. License terms: http://www.apache.org/licenses/LICENSE-2.0)
/bd{bind def}bind def
/ld{load def}bd
/GR/grestore ld
/M/moveto ld
/LJ/setlinejoin ld
/C/curveto ld
/f/fill ld
/LW/setlinewidth ld
/GC/setgray ld
/t/show ld
/N/newpath ld
/CT/concat ld
/cp/closepath ld
/S/stroke ld
/L/lineto ld
/CC/setcmykcolor ld
/A/ashow ld
/GS/gsave ld
/RC/setrgbcolor ld
/RM/rmoveto ld
/ML/setmiterlimit ld
/re {4 2 roll M
1 index 0 rlineto
0 exch rlineto
neg 0 rlineto
cp } bd
/_ctm matrix def
/_tm matrix def
/BT { _ctm currentmatrix pop matrix _tm copy pop 0 0 moveto } bd
/ET { _ctm setmatrix } bd
/iTm { _ctm setmatrix _tm concat } bd
/Tm { _tm astore pop iTm 0 0 moveto } bd
/ux 0.0 def
/uy 0.0 def
/F {
  /Tp exch def
  /Tf exch def
  Tf findfont Tp scalefont setfont
  /cf Tf def  /cs Tp def
} bd
/ULS {currentpoint /uy exch def /ux exch def} bd
/ULE {
  /Tcx currentpoint pop def
  gsave
  newpath
  cf findfont cs scalefont dup
  /FontMatrix get 0 get /Ts exch def /FontInfo get dup
  /UnderlinePosition get Ts mul /To exch def
  /UnderlineThickness get Ts mul /Tt exch def
  ux uy To add moveto  Tcx uy To add lineto
  Tt setlinewidth stroke
  grestore
} bd
/OLE {
  /Tcx currentpoint pop def
  gsave
  newpath
  cf findfont cs scalefont dup
  /FontMatrix get 0 get /Ts exch def /FontInfo get dup
  /UnderlinePosition get Ts mul /To exch def
  /UnderlineThickness get Ts mul /Tt exch def
  ux uy To add cs add moveto Tcx uy To add cs add lineto
  Tt setlinewidth stroke
  grestore
} bd
/SOE {
  /Tcx currentpoint pop def
  gsave
  newpath
  cf findfont cs scalefont dup
  /FontMatrix get 0 get /Ts exch def /FontInfo get dup
  /UnderlinePosition get Ts mul /To exch def
  /UnderlineThickness get Ts mul /Tt exch def
  ux uy To add cs 10 mul 26 idiv add moveto Tcx uy To add cs 10 mul 26 idiv add lineto
  Tt setlinewidth stroke
  grestore
} bd
/QT {
/Y22 exch store
/X22 exch store
/Y21 exch store
/X21 exch store
currentpoint
/Y21 load 2 mul add 3 div exch
/X21 load 2 mul add 3 div exch
/X21 load 2 mul /X22 load add 3 div
/Y21 load 2 mul /Y22 load add 3 div
/X22 load /Y22 load curveto
} bd
/SSPD {
dup length /d exch dict def
{
/v exch def
/k exch def
currentpagedevice k known {
/cpdv currentpagedevice k get def
v cpdv ne {
/upd false def
/nullv v type /nulltype eq def
/nullcpdv cpdv type /nulltype eq def
nullv nullcpdv or
{
/upd true def
} {
/sametype v type cpdv type eq def
sametype {
v type /arraytype eq {
/vlen v length def
/cpdvlen cpdv length def
vlen cpdvlen eq {
0 1 vlen 1 sub {
/i exch def
/obj v i get def
/cpdobj cpdv i get def
obj cpdobj ne {
/upd true def
exit
} if
} for
} {
/upd true def
} ifelse
} {
v type /dicttype eq {
v {
/dv exch def
/dk exch def
/cpddv cpdv dk get def
dv cpddv ne {
/upd true def
exit
} if
} forall
} {
/upd true def
} ifelse
} ifelse
} if
} ifelse
upd true eq {
d k v put
} if
} if
} if
} forall
d length 0 gt {
d setpagedevice
} if
} bd
%%EndResource
%%BeginResource: procset (Apache XML Graphics EPS ProcSet) 1.0 0
%%Version: 1.0 0
%%Copyright: (Copyright 2002-2003 The Apache Software Foundation. License terms: http://www.apache.org/licenses/LICENSE-2.0)
/BeginEPSF { %def
/b4_Inc_state save def         % Save state for cleanup
/dict_count countdictstack def % Count objects on dict stack
/op_count count 1 sub def      % Count objects on operand stack
userdict begin                 % Push userdict on dict stack
/showpage { } def              % Redefine showpage, { } = null proc
0 setgray 0 setlinecap         % Prepare graphics state
1 setlinewidth 0 setlinejoin
10 setmiterlimit [ ] 0 setdash newpath
/languagelevel where           % If level not equal to 1 then
{pop languagelevel             % set strokeadjust and
1 ne                           % overprint to their defaults.
{false setstrokeadjust false setoverprint
} if
} if
} bd
/EndEPSF { %def
count op_count sub {pop} repeat            % Clean up stacks
countdictstack dict_count sub {end} repeat
b4_Inc_state restore
} bd
%%EndResource
%%EndProlog
%%Page: 1 1
%%PageBoundingBox: 0 0 1000 350
%%BeginPageSetup
[1 0 0 -1 0 350] CT
%%EndPageSetup
GS
1 GC
N
0 0 1000 350 re
f
GR
GS
1 GC
N
0 0 1000 350 re
f
GR
GS
1 GC
N
130 289 M
905 289 L
905 26 L
130 26 L
cp
f
GR
GS
0.873 GC
1 LJ
0.5 LW
N
130 289 M
130 26 L
S
GR
GS
0.873 GC
1 LJ
0.5 LW
N
323.75 289 M
323.75 26 L
S
GR
GS
0.873 GC
1 LJ
0.5 LW
N
517.5 289 M
517.5 26 L
S
GR
GS
0.873 GC
1 LJ
0.5 LW
N
711.25 289 M
711.25 26 L
S
GR
GS
0.873 GC
1 LJ
0.5 LW
N
905 289 M
905 26 L
S
GR
GS
0.873 GC
1 LJ
0.5 LW
N
905 289 M
130 289 L
S
GR
GS
0.873 GC
1 LJ
0.5 LW
N
905 238.905 M
130 238.905 L
S
GR
GS
0.873 GC
1 LJ
0.5 LW
N
905 188.81 M
130 188.81 L
S
GR
GS
0.873 GC
1 LJ
0.5 LW
N
905 138.714 M
130 138.714 L
S
GR
GS
0.873 GC
1 LJ
0.5 LW
N
905 88.619 M
130 88.619 L
S
GR
GS
0.873 GC
1 LJ
0.5 LW
N
905 38.524 M
130 38.524 L
S
GR
GS
0.149 GC
2 setlinecap
1 LJ
0.5 LW
N
130 289 M
905 289 L
S
GR
GS
0.149 GC
2 setlinecap
1 LJ
0.5 LW
N
130 289 M
130 281.25 L
S
GR
GS
0.149 GC
2 setlinecap
1 LJ
0.5 LW
N
323.75 289 M
323.75 281.25 L
S
GR
GS
0.149 GC
2 setlinecap
1 LJ
0.5 LW
N
517.5 289 M
517.5 281.25 L
S
GR
GS
0.149 GC
2 setlinecap
1 LJ
0.5 LW
N
711.25 289 M
711.25 281.25 L
S
GR
GS
0.149 GC
2 setlinecap
1 LJ
0.5 LW
N
905 289 M
905 281.25 L
S
GR
GS
[1 0 0 1 130 295] CT
0.149 GC
N
-0.141 5.719 M
-1.672 5.719 -2.438 7.219 QT
-3.203 8.719 -3.203 11.719 QT
-3.203 14.719 -2.438 16.219 QT
-1.672 17.719 -0.141 17.719 QT
1.391 17.719 2.156 16.219 QT
2.922 14.719 2.922 11.719 QT
2.922 8.719 2.156 7.219 QT
1.391 5.719 -0.141 5.719 QT
cp
-0.141 4.156 M
2.313 4.156 3.602 6.094 QT
4.891 8.031 4.891 11.719 QT
4.891 15.406 3.602 17.344 QT
2.313 19.281 -0.141 19.281 QT
-2.594 19.281 -3.891 17.344 QT
-5.188 15.406 -5.188 11.719 QT
-5.188 8.031 -3.891 6.094 QT
-2.594 4.156 -0.141 4.156 QT
cp
f
GR
GS
[1 0 0 1 323.75 295] CT
0.149 GC
N
-9.641 5.719 M
-11.172 5.719 -11.938 7.219 QT
-12.703 8.719 -12.703 11.719 QT
-12.703 14.719 -11.938 16.219 QT
-11.172 17.719 -9.641 17.719 QT
-8.109 17.719 -7.344 16.219 QT
-6.578 14.719 -6.578 11.719 QT
-6.578 8.719 -7.344 7.219 QT
-8.109 5.719 -9.641 5.719 QT
cp
-9.641 4.156 M
-7.188 4.156 -5.898 6.094 QT
-4.609 8.031 -4.609 11.719 QT
-4.609 15.406 -5.898 17.344 QT
-7.188 19.281 -9.641 19.281 QT
-12.094 19.281 -13.391 17.344 QT
-14.688 15.406 -14.688 11.719 QT
-14.688 8.031 -13.391 6.094 QT
-12.094 4.156 -9.641 4.156 QT
cp
-1.135 16.516 M
0.928 16.516 L
0.928 19 L
-1.135 19 L
-1.135 16.516 L
cp
5.238 4.422 M
12.988 4.422 L
12.988 6.078 L
7.051 6.078 L
7.051 9.656 L
7.473 9.5 7.902 9.43 QT
8.332 9.359 8.77 9.359 QT
11.207 9.359 12.637 10.695 QT
14.066 12.031 14.066 14.328 QT
14.066 16.672 12.598 17.977 QT
11.129 19.281 8.457 19.281 QT
7.551 19.281 6.598 19.125 QT
5.645 18.969 4.629 18.656 QT
4.629 16.672 L
5.504 17.156 6.441 17.391 QT
7.379 17.625 8.426 17.625 QT
10.113 17.625 11.098 16.734 QT
12.082 15.844 12.082 14.328 QT
12.082 12.797 11.098 11.906 QT
10.113 11.016 8.426 11.016 QT
7.629 11.016 6.848 11.195 QT
6.066 11.375 5.238 11.75 QT
5.238 4.422 L
cp
f
GR
GS
[1 0 0 1 517.5 295] CT
0.149 GC
N
-4.016 17.344 M
-0.797 17.344 L
-0.797 6.219 L
-4.297 6.922 L
-4.297 5.125 L
-0.813 4.422 L
1.156 4.422 L
1.156 17.344 L
4.375 17.344 L
4.375 19 L
-4.016 19 L
-4.016 17.344 L
cp
f
GR
GS
[1 0 0 1 711.25 295] CT
0.149 GC
N
-13.516 17.344 M
-10.297 17.344 L
-10.297 6.219 L
-13.797 6.922 L
-13.797 5.125 L
-10.313 4.422 L
-8.344 4.422 L
-8.344 17.344 L
-5.125 17.344 L
-5.125 19 L
-13.516 19 L
-13.516 17.344 L
cp
-1.135 16.516 M
0.928 16.516 L
0.928 19 L
-1.135 19 L
-1.135 16.516 L
cp
5.238 4.422 M
12.988 4.422 L
12.988 6.078 L
7.051 6.078 L
7.051 9.656 L
7.473 9.5 7.902 9.43 QT
8.332 9.359 8.77 9.359 QT
11.207 9.359 12.637 10.695 QT
14.066 12.031 14.066 14.328 QT
14.066 16.672 12.598 17.977 QT
11.129 19.281 8.457 19.281 QT
7.551 19.281 6.598 19.125 QT
5.645 18.969 4.629 18.656 QT
4.629 16.672 L
5.504 17.156 6.441 17.391 QT
7.379 17.625 8.426 17.625 QT
10.113 17.625 11.098 16.734 QT
12.082 15.844 12.082 14.328 QT
12.082 12.797 11.098 11.906 QT
10.113 11.016 8.426 11.016 QT
7.629 11.016 6.848 11.195 QT
6.066 11.375 5.238 11.75 QT
5.238 4.422 L
cp
f
GR
GS
[1 0 0 1 905 295] CT
0.149 GC
N
-2.656 17.344 M
4.219 17.344 L
4.219 19 L
-5.031 19 L
-5.031 17.344 L
-3.906 16.172 -1.969 14.219 QT
-0.031 12.266 0.469 11.688 QT
1.406 10.625 1.781 9.891 QT
2.156 9.156 2.156 8.438 QT
2.156 7.281 1.344 6.547 QT
0.531 5.813 -0.781 5.813 QT
-1.703 5.813 -2.734 6.133 QT
-3.766 6.453 -4.938 7.109 QT
-4.938 5.125 L
-3.75 4.641 -2.711 4.398 QT
-1.672 4.156 -0.813 4.156 QT
1.453 4.156 2.797 5.289 QT
4.141 6.422 4.141 8.313 QT
4.141 9.219 3.805 10.023 QT
3.469 10.828 2.578 11.922 QT
2.344 12.203 1.031 13.555 QT
-0.281 14.906 -2.656 17.344 QT
cp
f
GR
GS
[1 0 0 1 517.50037 320] CT
0.149 GC
N
-14.25 9.328 M
-14.25 11.188 L
-15.094 10.766 -16 10.547 QT
-16.906 10.328 -17.859 10.328 QT
-19.344 10.328 -20.078 10.781 QT
-20.813 11.234 -20.813 12.141 QT
-20.813 12.828 -20.281 13.219 QT
-19.75 13.609 -18.172 13.969 QT
-17.484 14.109 L
-15.391 14.563 -14.5 15.383 QT
-13.609 16.203 -13.609 17.688 QT
-13.609 19.359 -14.938 20.336 QT
-16.266 21.313 -18.578 21.313 QT
-19.547 21.313 -20.594 21.125 QT
-21.641 20.938 -22.813 20.563 QT
-22.813 18.516 L
-21.719 19.094 -20.648 19.375 QT
-19.578 19.656 -18.547 19.656 QT
-17.141 19.656 -16.391 19.18 QT
-15.641 18.703 -15.641 17.828 QT
-15.641 17.031 -16.188 16.602 QT
-16.734 16.172 -18.563 15.766 QT
-19.25 15.609 L
-21.094 15.219 -21.906 14.422 QT
-22.719 13.625 -22.719 12.219 QT
-22.719 10.531 -21.516 9.602 QT
-20.313 8.672 -18.109 8.672 QT
-17 8.672 -16.039 8.836 QT
-15.078 9 -14.25 9.328 QT
cp
-8.507 5.547 M
-8.507 8.969 L
-4.444 8.969 L
-4.444 10.5 L
-8.507 10.5 L
-8.507 17.031 L
-8.507 18.5 -8.108 18.922 QT
-7.71 19.344 -6.476 19.344 QT
-4.444 19.344 L
-4.444 21 L
-6.476 21 L
-8.757 21 -9.624 20.148 QT
-10.491 19.297 -10.491 17.031 QT
-10.491 10.5 L
-11.944 10.5 L
-11.944 8.969 L
-10.491 8.969 L
-10.491 5.547 L
-8.507 5.547 L
cp
8.447 14.484 M
8.447 15.453 L
-0.631 15.453 L
-0.506 17.5 0.596 18.57 QT
1.697 19.641 3.666 19.641 QT
4.807 19.641 5.869 19.359 QT
6.932 19.078 7.994 18.516 QT
7.994 20.391 L
6.932 20.844 5.814 21.078 QT
4.697 21.313 3.541 21.313 QT
0.666 21.313 -1.014 19.633 QT
-2.693 17.953 -2.693 15.109 QT
-2.693 12.141 -1.1 10.406 QT
0.494 8.672 3.197 8.672 QT
5.635 8.672 7.041 10.234 QT
8.447 11.797 8.447 14.484 QT
cp
6.479 13.906 M
6.447 12.281 5.564 11.32 QT
4.682 10.359 3.229 10.359 QT
1.572 10.359 0.572 11.289 QT
-0.428 12.219 -0.568 13.922 QT
6.479 13.906 L
cp
13.607 19.188 M
13.607 25.578 L
11.623 25.578 L
11.623 8.969 L
13.607 8.969 L
13.607 10.797 L
14.232 9.719 15.186 9.195 QT
16.139 8.672 17.451 8.672 QT
19.639 8.672 21.014 10.414 QT
22.389 12.156 22.389 15 QT
22.389 17.828 21.014 19.57 QT
19.639 21.313 17.451 21.313 QT
16.139 21.313 15.186 20.789 QT
14.232 20.266 13.607 19.188 QT
cp
20.326 15 M
20.326 12.813 19.436 11.57 QT
18.545 10.328 16.967 10.328 QT
15.404 10.328 14.506 11.57 QT
13.607 12.813 13.607 15 QT
13.607 17.172 14.506 18.414 QT
15.404 19.656 16.967 19.656 QT
18.545 19.656 19.436 18.414 QT
20.326 17.172 20.326 15 QT
cp
f
GR
GS
[1 0 0 1 852 345] CT
0.149 GC
N
2.938 -0.578 M
2.938 -0.734 3.031 -0.859 QT
7.203 -5 L
3.031 -9.156 L
2.938 -9.266 2.938 -9.422 QT
2.938 -9.578 3.055 -9.703 QT
3.172 -9.828 3.344 -9.828 QT
3.484 -9.828 3.641 -9.703 QT
7.781 -5.563 L
11.906 -9.703 L
12.078 -9.828 12.203 -9.828 QT
12.359 -9.828 12.477 -9.711 QT
12.594 -9.594 12.594 -9.422 QT
12.594 -9.266 12.5 -9.156 QT
8.344 -5 L
12.5 -0.859 L
12.594 -0.734 12.594 -0.578 QT
12.594 -0.406 12.477 -0.289 QT
12.359 -0.172 12.203 -0.172 QT
12.047 -0.172 11.906 -0.328 QT
7.781 -4.438 L
3.641 -0.328 L
3.5 -0.172 3.344 -0.172 QT
3.172 -0.172 3.055 -0.305 QT
2.938 -0.438 2.938 -0.578 QT
cp
f
GR
GS
[1 0 0 1 868 345] CT
0.149 GC
N
2.484 -1.656 M
5.703 -1.656 L
5.703 -12.781 L
2.203 -12.078 L
2.203 -13.875 L
5.688 -14.578 L
7.656 -14.578 L
7.656 -1.656 L
10.875 -1.656 L
10.875 0 L
2.484 0 L
2.484 -1.656 L
cp
19.084 -13.281 M
17.553 -13.281 16.787 -11.781 QT
16.021 -10.281 16.021 -7.281 QT
16.021 -4.281 16.787 -2.781 QT
17.553 -1.281 19.084 -1.281 QT
20.615 -1.281 21.381 -2.781 QT
22.146 -4.281 22.146 -7.281 QT
22.146 -10.281 21.381 -11.781 QT
20.615 -13.281 19.084 -13.281 QT
cp
19.084 -14.844 M
21.537 -14.844 22.826 -12.906 QT
24.115 -10.969 24.115 -7.281 QT
24.115 -3.594 22.826 -1.656 QT
21.537 0.281 19.084 0.281 QT
16.631 0.281 15.334 -1.656 QT
14.037 -3.594 14.037 -7.281 QT
14.037 -10.969 15.334 -12.906 QT
16.631 -14.844 19.084 -14.844 QT
cp
f
GR
GS
[1 0 0 1 894 335] CT
0.149 GC
N
5.281 -6.469 M
4.219 -6.469 3.602 -5.742 QT
2.984 -5.016 2.984 -3.75 QT
2.984 -2.484 3.602 -1.758 QT
4.219 -1.031 5.281 -1.031 QT
6.344 -1.031 6.969 -1.758 QT
7.594 -2.484 7.594 -3.75 QT
7.594 -5.016 6.969 -5.742 QT
6.344 -6.469 5.281 -6.469 QT
cp
8.422 -11.406 M
8.422 -9.969 L
7.828 -10.25 7.219 -10.398 QT
6.609 -10.547 6.016 -10.547 QT
4.453 -10.547 3.633 -9.492 QT
2.813 -8.438 2.688 -6.313 QT
3.156 -6.984 3.852 -7.352 QT
4.547 -7.719 5.375 -7.719 QT
7.141 -7.719 8.156 -6.648 QT
9.172 -5.578 9.172 -3.75 QT
9.172 -1.953 8.109 -0.859 QT
7.047 0.234 5.281 0.234 QT
3.266 0.234 2.195 -1.32 QT
1.125 -2.875 1.125 -5.828 QT
1.125 -8.594 2.438 -10.234 QT
3.75 -11.875 5.953 -11.875 QT
6.547 -11.875 7.156 -11.758 QT
7.766 -11.641 8.422 -11.406 QT
cp
f
GR
GS
0.149 GC
2 setlinecap
1 LJ
0.5 LW
N
130 289 M
130 26 L
S
GR
GS
0.149 GC
2 setlinecap
1 LJ
0.5 LW
N
130 289 M
137.75 289 L
S
GR
GS
0.149 GC
2 setlinecap
1 LJ
0.5 LW
N
130 238.905 M
137.75 238.905 L
S
GR
GS
0.149 GC
2 setlinecap
1 LJ
0.5 LW
N
130 188.81 M
137.75 188.81 L
S
GR
GS
0.149 GC
2 setlinecap
1 LJ
0.5 LW
N
130 138.714 M
137.75 138.714 L
S
GR
GS
0.149 GC
2 setlinecap
1 LJ
0.5 LW
N
130 88.619 M
137.75 88.619 L
S
GR
GS
0.149 GC
2 setlinecap
1 LJ
0.5 LW
N
130 38.524 M
137.75 38.524 L
S
GR
GS
[1 0 0 1 124 289] CT
0.149 GC
N
-6.641 -6.281 M
-8.172 -6.281 -8.938 -4.781 QT
-9.703 -3.281 -9.703 -0.281 QT
-9.703 2.719 -8.938 4.219 QT
-8.172 5.719 -6.641 5.719 QT
-5.109 5.719 -4.344 4.219 QT
-3.578 2.719 -3.578 -0.281 QT
-3.578 -3.281 -4.344 -4.781 QT
-5.109 -6.281 -6.641 -6.281 QT
cp
-6.641 -7.844 M
-4.188 -7.844 -2.898 -5.906 QT
-1.609 -3.969 -1.609 -0.281 QT
-1.609 3.406 -2.898 5.344 QT
-4.188 7.281 -6.641 7.281 QT
-9.094 7.281 -10.391 5.344 QT
-11.688 3.406 -11.688 -0.281 QT
-11.688 -3.969 -10.391 -5.906 QT
-9.094 -7.844 -6.641 -7.844 QT
cp
f
GR
GS
[1 0 0 1 124 238.90475] CT
0.149 GC
N
-22.156 5.344 M
-15.281 5.344 L
-15.281 7 L
-24.531 7 L
-24.531 5.344 L
-23.406 4.172 -21.469 2.219 QT
-19.531 0.266 -19.031 -0.313 QT
-18.094 -1.375 -17.719 -2.109 QT
-17.344 -2.844 -17.344 -3.563 QT
-17.344 -4.719 -18.156 -5.453 QT
-18.969 -6.188 -20.281 -6.188 QT
-21.203 -6.188 -22.234 -5.867 QT
-23.266 -5.547 -24.438 -4.891 QT
-24.438 -6.875 L
-23.25 -7.359 -22.211 -7.602 QT
-21.172 -7.844 -20.313 -7.844 QT
-18.047 -7.844 -16.703 -6.711 QT
-15.359 -5.578 -15.359 -3.688 QT
-15.359 -2.781 -15.695 -1.977 QT
-16.031 -1.172 -16.922 -0.078 QT
-17.156 0.203 -18.469 1.555 QT
-19.781 2.906 -22.156 5.344 QT
cp
-6.916 -6.281 M
-8.447 -6.281 -9.213 -4.781 QT
-9.979 -3.281 -9.979 -0.281 QT
-9.979 2.719 -9.213 4.219 QT
-8.447 5.719 -6.916 5.719 QT
-5.385 5.719 -4.619 4.219 QT
-3.854 2.719 -3.854 -0.281 QT
-3.854 -3.281 -4.619 -4.781 QT
-5.385 -6.281 -6.916 -6.281 QT
cp
-6.916 -7.844 M
-4.463 -7.844 -3.174 -5.906 QT
-1.885 -3.969 -1.885 -0.281 QT
-1.885 3.406 -3.174 5.344 QT
-4.463 7.281 -6.916 7.281 QT
-9.369 7.281 -10.666 5.344 QT
-11.963 3.406 -11.963 -0.281 QT
-11.963 -3.969 -10.666 -5.906 QT
-9.369 -7.844 -6.916 -7.844 QT
cp
f
GR
GS
[1 0 0 1 124 188.80952] CT
0.149 GC
N
-18.438 -5.859 M
-23.422 1.922 L
-18.438 1.922 L
-18.438 -5.859 L
cp
-18.953 -7.578 M
-16.484 -7.578 L
-16.484 1.922 L
-14.391 1.922 L
-14.391 3.563 L
-16.484 3.563 L
-16.484 7 L
-18.438 7 L
-18.438 3.563 L
-25.016 3.563 L
-25.016 1.656 L
-18.953 -7.578 L
cp
-6.916 -6.281 M
-8.447 -6.281 -9.213 -4.781 QT
-9.979 -3.281 -9.979 -0.281 QT
-9.979 2.719 -9.213 4.219 QT
-8.447 5.719 -6.916 5.719 QT
-5.385 5.719 -4.619 4.219 QT
-3.854 2.719 -3.854 -0.281 QT
-3.854 -3.281 -4.619 -4.781 QT
-5.385 -6.281 -6.916 -6.281 QT
cp
-6.916 -7.844 M
-4.463 -7.844 -3.174 -5.906 QT
-1.885 -3.969 -1.885 -0.281 QT
-1.885 3.406 -3.174 5.344 QT
-4.463 7.281 -6.916 7.281 QT
-9.369 7.281 -10.666 5.344 QT
-11.963 3.406 -11.963 -0.281 QT
-11.963 -3.969 -10.666 -5.906 QT
-9.369 -7.844 -6.916 -7.844 QT
cp
f
GR
GS
[1 0 0 1 124 138.71428] CT
0.149 GC
N
-19.391 -1.078 M
-20.719 -1.078 -21.5 -0.172 QT
-22.281 0.734 -22.281 2.328 QT
-22.281 3.891 -21.5 4.805 QT
-20.719 5.719 -19.391 5.719 QT
-18.063 5.719 -17.289 4.805 QT
-16.516 3.891 -16.516 2.328 QT
-16.516 0.734 -17.289 -0.172 QT
-18.063 -1.078 -19.391 -1.078 QT
cp
-15.484 -7.266 M
-15.484 -5.469 L
-16.219 -5.813 -16.977 -6 QT
-17.734 -6.188 -18.484 -6.188 QT
-20.438 -6.188 -21.469 -4.867 QT
-22.5 -3.547 -22.641 -0.875 QT
-22.063 -1.734 -21.195 -2.188 QT
-20.328 -2.641 -19.281 -2.641 QT
-17.078 -2.641 -15.805 -1.305 QT
-14.531 0.031 -14.531 2.328 QT
-14.531 4.563 -15.859 5.922 QT
-17.188 7.281 -19.391 7.281 QT
-21.922 7.281 -23.266 5.344 QT
-24.609 3.406 -24.609 -0.281 QT
-24.609 -3.734 -22.969 -5.789 QT
-21.328 -7.844 -18.563 -7.844 QT
-17.813 -7.844 -17.055 -7.695 QT
-16.297 -7.547 -15.484 -7.266 QT
cp
-6.916 -6.281 M
-8.447 -6.281 -9.213 -4.781 QT
-9.979 -3.281 -9.979 -0.281 QT
-9.979 2.719 -9.213 4.219 QT
-8.447 5.719 -6.916 5.719 QT
-5.385 5.719 -4.619 4.219 QT
-3.854 2.719 -3.854 -0.281 QT
-3.854 -3.281 -4.619 -4.781 QT
-5.385 -6.281 -6.916 -6.281 QT
cp
-6.916 -7.844 M
-4.463 -7.844 -3.174 -5.906 QT
-1.885 -3.969 -1.885 -0.281 QT
-1.885 3.406 -3.174 5.344 QT
-4.463 7.281 -6.916 7.281 QT
-9.369 7.281 -10.666 5.344 QT
-11.963 3.406 -11.963 -0.281 QT
-11.963 -3.969 -10.666 -5.906 QT
-9.369 -7.844 -6.916 -7.844 QT
cp
f
GR
GS
[1 0 0 1 124 88.61905] CT
0.149 GC
N
-19.641 0.078 M
-21.047 0.078 -21.852 0.828 QT
-22.656 1.578 -22.656 2.891 QT
-22.656 4.219 -21.852 4.969 QT
-21.047 5.719 -19.641 5.719 QT
-18.234 5.719 -17.422 4.961 QT
-16.609 4.203 -16.609 2.891 QT
-16.609 1.578 -17.414 0.828 QT
-18.219 0.078 -19.641 0.078 QT
cp
-21.609 -0.766 M
-22.891 -1.078 -23.594 -1.945 QT
-24.297 -2.813 -24.297 -4.063 QT
-24.297 -5.813 -23.055 -6.828 QT
-21.813 -7.844 -19.641 -7.844 QT
-17.469 -7.844 -16.227 -6.828 QT
-14.984 -5.813 -14.984 -4.063 QT
-14.984 -2.813 -15.695 -1.945 QT
-16.406 -1.078 -17.656 -0.766 QT
-16.234 -0.438 -15.438 0.531 QT
-14.641 1.5 -14.641 2.891 QT
-14.641 5.016 -15.938 6.148 QT
-17.234 7.281 -19.641 7.281 QT
-22.047 7.281 -23.344 6.148 QT
-24.641 5.016 -24.641 2.891 QT
-24.641 1.5 -23.844 0.531 QT
-23.047 -0.438 -21.609 -0.766 QT
cp
-22.344 -3.875 M
-22.344 -2.75 -21.633 -2.117 QT
-20.922 -1.484 -19.641 -1.484 QT
-18.375 -1.484 -17.656 -2.117 QT
-16.938 -2.75 -16.938 -3.875 QT
-16.938 -5.016 -17.656 -5.648 QT
-18.375 -6.281 -19.641 -6.281 QT
-20.922 -6.281 -21.633 -5.648 QT
-22.344 -5.016 -22.344 -3.875 QT
cp
-6.916 -6.281 M
-8.447 -6.281 -9.213 -4.781 QT
-9.979 -3.281 -9.979 -0.281 QT
-9.979 2.719 -9.213 4.219 QT
-8.447 5.719 -6.916 5.719 QT
-5.385 5.719 -4.619 4.219 QT
-3.854 2.719 -3.854 -0.281 QT
-3.854 -3.281 -4.619 -4.781 QT
-5.385 -6.281 -6.916 -6.281 QT
cp
-6.916 -7.844 M
-4.463 -7.844 -3.174 -5.906 QT
-1.885 -3.969 -1.885 -0.281 QT
-1.885 3.406 -3.174 5.344 QT
-4.463 7.281 -6.916 7.281 QT
-9.369 7.281 -10.666 5.344 QT
-11.963 3.406 -11.963 -0.281 QT
-11.963 -3.969 -10.666 -5.906 QT
-9.369 -7.844 -6.916 -7.844 QT
cp
f
GR
GS
[1 0 0 1 124 38.52381] CT
0.149 GC
N
-36.516 5.344 M
-33.297 5.344 L
-33.297 -5.781 L
-36.797 -5.078 L
-36.797 -6.875 L
-33.313 -7.578 L
-31.344 -7.578 L
-31.344 5.344 L
-28.125 5.344 L
-28.125 7 L
-36.516 7 L
-36.516 5.344 L
cp
-19.916 -6.281 M
-21.447 -6.281 -22.213 -4.781 QT
-22.979 -3.281 -22.979 -0.281 QT
-22.979 2.719 -22.213 4.219 QT
-21.447 5.719 -19.916 5.719 QT
-18.385 5.719 -17.619 4.219 QT
-16.854 2.719 -16.854 -0.281 QT
-16.854 -3.281 -17.619 -4.781 QT
-18.385 -6.281 -19.916 -6.281 QT
cp
-19.916 -7.844 M
-17.463 -7.844 -16.174 -5.906 QT
-14.885 -3.969 -14.885 -0.281 QT
-14.885 3.406 -16.174 5.344 QT
-17.463 7.281 -19.916 7.281 QT
-22.369 7.281 -23.666 5.344 QT
-24.963 3.406 -24.963 -0.281 QT
-24.963 -3.969 -23.666 -5.906 QT
-22.369 -7.844 -19.916 -7.844 QT
cp
-7.191 -6.281 M
-8.723 -6.281 -9.488 -4.781 QT
-10.254 -3.281 -10.254 -0.281 QT
-10.254 2.719 -9.488 4.219 QT
-8.723 5.719 -7.191 5.719 QT
-5.66 5.719 -4.895 4.219 QT
-4.129 2.719 -4.129 -0.281 QT
-4.129 -3.281 -4.895 -4.781 QT
-5.66 -6.281 -7.191 -6.281 QT
cp
-7.191 -7.844 M
-4.738 -7.844 -3.449 -5.906 QT
-2.16 -3.969 -2.16 -0.281 QT
-2.16 3.406 -3.449 5.344 QT
-4.738 7.281 -7.191 7.281 QT
-9.645 7.281 -10.941 5.344 QT
-12.238 3.406 -12.238 -0.281 QT
-12.238 -3.969 -10.941 -5.906 QT
-9.645 -7.844 -7.191 -7.844 QT
cp
f
GR
GS
[0 -1 1 0 82 157.49988] CT
0.149 GC
N
-113.063 -22.031 M
-99.5 -22.031 L
-99.5 -20.219 L
-105.188 -20.219 L
-105.188 -6 L
-107.375 -6 L
-107.375 -20.219 L
-113.063 -20.219 L
-113.063 -22.031 L
cp
-92.015 -12.047 M
-94.421 -12.047 -95.343 -11.5 QT
-96.265 -10.953 -96.265 -9.625 QT
-96.265 -8.578 -95.569 -7.961 QT
-94.874 -7.344 -93.687 -7.344 QT
-92.046 -7.344 -91.054 -8.508 QT
-90.062 -9.672 -90.062 -11.609 QT
-90.062 -12.047 L
-92.015 -12.047 L
cp
-88.077 -12.859 M
-88.077 -6 L
-90.062 -6 L
-90.062 -7.828 L
-90.733 -6.734 -91.741 -6.211 QT
-92.749 -5.688 -94.218 -5.688 QT
-96.062 -5.688 -97.147 -6.727 QT
-98.233 -7.766 -98.233 -9.5 QT
-98.233 -11.531 -96.874 -12.563 QT
-95.515 -13.594 -92.827 -13.594 QT
-90.062 -13.594 L
-90.062 -13.781 L
-90.062 -15.156 -90.952 -15.898 QT
-91.843 -16.641 -93.468 -16.641 QT
-94.499 -16.641 -95.476 -16.398 QT
-96.452 -16.156 -97.358 -15.656 QT
-97.358 -17.484 L
-96.28 -17.906 -95.257 -18.117 QT
-94.233 -18.328 -93.265 -18.328 QT
-90.655 -18.328 -89.366 -16.969 QT
-88.077 -15.609 -88.077 -12.859 QT
cp
-77.033 -16.188 M
-77.361 -16.375 -77.76 -16.469 QT
-78.158 -16.563 -78.627 -16.563 QT
-80.299 -16.563 -81.197 -15.469 QT
-82.096 -14.375 -82.096 -12.344 QT
-82.096 -6 L
-84.08 -6 L
-84.08 -18.031 L
-82.096 -18.031 L
-82.096 -16.156 L
-81.471 -17.266 -80.471 -17.797 QT
-79.471 -18.328 -78.049 -18.328 QT
-77.846 -18.328 -77.596 -18.297 QT
-77.346 -18.266 -77.049 -18.219 QT
-77.033 -16.188 L
cp
-67.051 -12.156 M
-67.051 -14.297 -67.934 -15.484 QT
-68.816 -16.672 -70.41 -16.672 QT
-72.004 -16.672 -72.895 -15.484 QT
-73.785 -14.297 -73.785 -12.156 QT
-73.785 -10.016 -72.895 -8.836 QT
-72.004 -7.656 -70.41 -7.656 QT
-68.816 -7.656 -67.934 -8.836 QT
-67.051 -10.016 -67.051 -12.156 QT
cp
-65.066 -7.5 M
-65.066 -4.422 -66.434 -2.922 QT
-67.801 -1.422 -70.613 -1.422 QT
-71.66 -1.422 -72.582 -1.578 QT
-73.504 -1.734 -74.363 -2.063 QT
-74.363 -3.984 L
-73.504 -3.5 -72.652 -3.281 QT
-71.801 -3.063 -70.926 -3.063 QT
-68.973 -3.063 -68.012 -4.078 QT
-67.051 -5.094 -67.051 -7.141 QT
-67.051 -8.109 L
-67.66 -7.047 -68.613 -6.523 QT
-69.566 -6 -70.895 -6 QT
-73.113 -6 -74.465 -7.688 QT
-75.816 -9.375 -75.816 -12.156 QT
-75.816 -14.953 -74.465 -16.641 QT
-73.113 -18.328 -70.895 -18.328 QT
-69.566 -18.328 -68.613 -17.797 QT
-67.66 -17.266 -67.051 -16.203 QT
-67.051 -18.031 L
-65.066 -18.031 L
-65.066 -7.5 L
cp
-50.711 -12.516 M
-50.711 -11.547 L
-59.789 -11.547 L
-59.664 -9.5 -58.563 -8.43 QT
-57.461 -7.359 -55.492 -7.359 QT
-54.352 -7.359 -53.289 -7.641 QT
-52.227 -7.922 -51.164 -8.484 QT
-51.164 -6.609 L
-52.227 -6.156 -53.344 -5.922 QT
-54.461 -5.688 -55.617 -5.688 QT
-58.492 -5.688 -60.172 -7.367 QT
-61.852 -9.047 -61.852 -11.891 QT
-61.852 -14.859 -60.258 -16.594 QT
-58.664 -18.328 -55.961 -18.328 QT
-53.523 -18.328 -52.117 -16.766 QT
-50.711 -15.203 -50.711 -12.516 QT
cp
-52.68 -13.094 M
-52.711 -14.719 -53.594 -15.68 QT
-54.477 -16.641 -55.93 -16.641 QT
-57.586 -16.641 -58.586 -15.711 QT
-59.586 -14.781 -59.727 -13.078 QT
-52.68 -13.094 L
cp
-45.504 -21.453 M
-45.504 -18.031 L
-41.441 -18.031 L
-41.441 -16.5 L
-45.504 -16.5 L
-45.504 -9.969 L
-45.504 -8.5 -45.105 -8.078 QT
-44.707 -7.656 -43.473 -7.656 QT
-41.441 -7.656 L
-41.441 -6 L
-43.473 -6 L
-45.754 -6 -46.621 -6.852 QT
-47.488 -7.703 -47.488 -9.969 QT
-47.488 -16.5 L
-48.941 -16.5 L
-48.941 -18.031 L
-47.488 -18.031 L
-47.488 -21.453 L
-45.504 -21.453 L
cp
-31.159 -17.672 M
-31.159 -15.813 L
-32.003 -16.234 -32.909 -16.453 QT
-33.815 -16.672 -34.769 -16.672 QT
-36.253 -16.672 -36.987 -16.219 QT
-37.722 -15.766 -37.722 -14.859 QT
-37.722 -14.172 -37.19 -13.781 QT
-36.659 -13.391 -35.081 -13.031 QT
-34.394 -12.891 L
-32.3 -12.438 -31.409 -11.617 QT
-30.519 -10.797 -30.519 -9.313 QT
-30.519 -7.641 -31.847 -6.664 QT
-33.175 -5.688 -35.487 -5.688 QT
-36.456 -5.688 -37.503 -5.875 QT
-38.55 -6.063 -39.722 -6.438 QT
-39.722 -8.484 L
-38.628 -7.906 -37.558 -7.625 QT
-36.487 -7.344 -35.456 -7.344 QT
-34.05 -7.344 -33.3 -7.82 QT
-32.55 -8.297 -32.55 -9.172 QT
-32.55 -9.969 -33.097 -10.398 QT
-33.644 -10.828 -35.472 -11.234 QT
-36.159 -11.391 L
-38.003 -11.781 -38.815 -12.578 QT
-39.628 -13.375 -39.628 -14.781 QT
-39.628 -16.469 -38.425 -17.398 QT
-37.222 -18.328 -35.019 -18.328 QT
-33.909 -18.328 -32.948 -18.164 QT
-31.987 -18 -31.159 -17.672 QT
cp
-13.407 -16.188 M
-13.735 -16.375 -14.134 -16.469 QT
-14.532 -16.563 -15.001 -16.563 QT
-16.673 -16.563 -17.571 -15.469 QT
-18.47 -14.375 -18.47 -12.344 QT
-18.47 -6 L
-20.454 -6 L
-20.454 -18.031 L
-18.47 -18.031 L
-18.47 -16.156 L
-17.845 -17.266 -16.845 -17.797 QT
-15.845 -18.328 -14.423 -18.328 QT
-14.22 -18.328 -13.97 -18.297 QT
-13.72 -18.266 -13.423 -18.219 QT
-13.407 -16.188 L
cp
-1.05 -12.516 M
-1.05 -11.547 L
-10.128 -11.547 L
-10.003 -9.5 -8.901 -8.43 QT
-7.8 -7.359 -5.831 -7.359 QT
-4.69 -7.359 -3.628 -7.641 QT
-2.565 -7.922 -1.503 -8.484 QT
-1.503 -6.609 L
-2.565 -6.156 -3.683 -5.922 QT
-4.8 -5.688 -5.956 -5.688 QT
-8.831 -5.688 -10.511 -7.367 QT
-12.19 -9.047 -12.19 -11.891 QT
-12.19 -14.859 -10.597 -16.594 QT
-9.003 -18.328 -6.3 -18.328 QT
-3.862 -18.328 -2.456 -16.766 QT
-1.05 -15.203 -1.05 -12.516 QT
cp
-3.019 -13.094 M
-3.05 -14.719 -3.933 -15.68 QT
-4.815 -16.641 -6.269 -16.641 QT
-7.925 -16.641 -8.925 -15.711 QT
-9.925 -14.781 -10.065 -13.078 QT
-3.019 -13.094 L
cp
7.673 -12.047 M
5.267 -12.047 4.345 -11.5 QT
3.423 -10.953 3.423 -9.625 QT
3.423 -8.578 4.118 -7.961 QT
4.813 -7.344 6.001 -7.344 QT
7.642 -7.344 8.634 -8.508 QT
9.626 -9.672 9.626 -11.609 QT
9.626 -12.047 L
7.673 -12.047 L
cp
11.61 -12.859 M
11.61 -6 L
9.626 -6 L
9.626 -7.828 L
8.954 -6.734 7.946 -6.211 QT
6.938 -5.688 5.47 -5.688 QT
3.626 -5.688 2.54 -6.727 QT
1.454 -7.766 1.454 -9.5 QT
1.454 -11.531 2.813 -12.563 QT
4.173 -13.594 6.86 -13.594 QT
9.626 -13.594 L
9.626 -13.781 L
9.626 -15.156 8.735 -15.898 QT
7.845 -16.641 6.22 -16.641 QT
5.188 -16.641 4.212 -16.398 QT
3.235 -16.156 2.329 -15.656 QT
2.329 -17.484 L
3.407 -17.906 4.431 -18.117 QT
5.454 -18.328 6.423 -18.328 QT
9.032 -18.328 10.321 -16.969 QT
11.61 -15.609 11.61 -12.859 QT
cp
24.342 -17.563 M
24.342 -15.719 L
23.498 -16.188 22.654 -16.414 QT
21.811 -16.641 20.951 -16.641 QT
19.029 -16.641 17.967 -15.422 QT
16.904 -14.203 16.904 -12 QT
16.904 -9.797 17.967 -8.578 QT
19.029 -7.359 20.951 -7.359 QT
21.811 -7.359 22.654 -7.594 QT
23.498 -7.828 24.342 -8.281 QT
24.342 -6.469 L
23.514 -6.078 22.623 -5.883 QT
21.732 -5.688 20.748 -5.688 QT
18.029 -5.688 16.428 -7.398 QT
14.826 -9.109 14.826 -12 QT
14.826 -14.953 16.443 -16.641 QT
18.061 -18.328 20.873 -18.328 QT
21.779 -18.328 22.654 -18.141 QT
23.529 -17.953 24.342 -17.563 QT
cp
37.781 -13.266 M
37.781 -6 L
35.797 -6 L
35.797 -13.203 L
35.797 -14.906 35.133 -15.758 QT
34.469 -16.609 33.141 -16.609 QT
31.531 -16.609 30.609 -15.586 QT
29.688 -14.563 29.688 -12.797 QT
29.688 -6 L
27.703 -6 L
27.703 -22.719 L
29.688 -22.719 L
29.688 -16.156 L
30.391 -17.25 31.359 -17.789 QT
32.328 -18.328 33.578 -18.328 QT
35.656 -18.328 36.719 -17.039 QT
37.781 -15.75 37.781 -13.266 QT
cp
52.006 -12.516 M
52.006 -11.547 L
42.928 -11.547 L
43.053 -9.5 44.154 -8.43 QT
45.256 -7.359 47.225 -7.359 QT
48.365 -7.359 49.428 -7.641 QT
50.49 -7.922 51.553 -8.484 QT
51.553 -6.609 L
50.49 -6.156 49.373 -5.922 QT
48.256 -5.688 47.1 -5.688 QT
44.225 -5.688 42.545 -7.367 QT
40.865 -9.047 40.865 -11.891 QT
40.865 -14.859 42.459 -16.594 QT
44.053 -18.328 46.756 -18.328 QT
49.193 -18.328 50.6 -16.766 QT
52.006 -15.203 52.006 -12.516 QT
cp
50.037 -13.094 M
50.006 -14.719 49.123 -15.68 QT
48.24 -16.641 46.787 -16.641 QT
45.131 -16.641 44.131 -15.711 QT
43.131 -14.781 42.99 -13.078 QT
50.037 -13.094 L
cp
63.166 -16.203 M
63.166 -22.719 L
65.15 -22.719 L
65.15 -6 L
63.166 -6 L
63.166 -7.813 L
62.557 -6.734 61.604 -6.211 QT
60.65 -5.688 59.322 -5.688 QT
57.135 -5.688 55.768 -7.43 QT
54.4 -9.172 54.4 -12 QT
54.4 -14.844 55.768 -16.586 QT
57.135 -18.328 59.322 -18.328 QT
60.65 -18.328 61.604 -17.805 QT
62.557 -17.281 63.166 -16.203 QT
cp
56.432 -12 M
56.432 -9.828 57.33 -8.586 QT
58.229 -7.344 59.807 -7.344 QT
61.369 -7.344 62.268 -8.586 QT
63.166 -9.828 63.166 -12 QT
63.166 -14.188 62.268 -15.43 QT
61.369 -16.672 59.807 -16.672 QT
58.229 -16.672 57.33 -15.43 QT
56.432 -14.188 56.432 -12 QT
cp
76.03 -22.719 M
80.593 -22.719 L
80.593 -21.172 L
78.015 -21.172 L
78.015 -4.641 L
80.593 -4.641 L
80.593 -3.094 L
76.03 -3.094 L
76.03 -22.719 L
cp
98.723 -13.063 M
97.785 -13.063 97.254 -12.266 QT
96.723 -11.469 96.723 -10.047 QT
96.723 -8.656 97.254 -7.852 QT
97.785 -7.047 98.723 -7.047 QT
99.629 -7.047 100.16 -7.852 QT
100.691 -8.656 100.691 -10.047 QT
100.691 -11.453 100.16 -12.258 QT
99.629 -13.063 98.723 -13.063 QT
cp
98.723 -14.422 M
100.41 -14.422 101.41 -13.242 QT
102.41 -12.063 102.41 -10.047 QT
102.41 -8.047 101.41 -6.867 QT
100.41 -5.688 98.723 -5.688 QT
97.004 -5.688 96.004 -6.867 QT
95.004 -8.047 95.004 -10.047 QT
95.004 -12.063 96.004 -13.242 QT
97.004 -14.422 98.723 -14.422 QT
cp
87.629 -20.969 M
86.707 -20.969 86.176 -20.164 QT
85.645 -19.359 85.645 -17.969 QT
85.645 -16.547 86.168 -15.75 QT
86.691 -14.953 87.629 -14.953 QT
88.566 -14.953 89.098 -15.75 QT
89.629 -16.547 89.629 -17.969 QT
89.629 -19.359 89.09 -20.164 QT
88.551 -20.969 87.629 -20.969 QT
cp
97.332 -22.328 M
99.051 -22.328 L
89.02 -5.688 L
87.301 -5.688 L
97.332 -22.328 L
cp
87.629 -22.328 M
89.332 -22.328 90.34 -21.148 QT
91.348 -19.969 91.348 -17.969 QT
91.348 -15.938 90.348 -14.766 QT
89.348 -13.594 87.629 -13.594 QT
85.926 -13.594 84.934 -14.773 QT
83.941 -15.953 83.941 -17.969 QT
83.941 -19.969 84.941 -21.148 QT
85.941 -22.328 87.629 -22.328 QT
cp
110.314 -22.719 M
110.314 -3.094 L
105.768 -3.094 L
105.768 -4.641 L
108.33 -4.641 L
108.33 -21.172 L
105.768 -21.172 L
105.768 -22.719 L
110.314 -22.719 L
cp
f
GR
GS
0 0.447 0.741 RC
1 LJ
0.5 LW
N
169.525 255.603 M
169.913 289 L
170.3 244.798 L
170.688 196.719 L
171.075 201.333 L
171.462 242.036 L
171.85 215.331 L
172.238 226.381 L
172.625 226.381 L
173.012 205.508 L
173.4 196.719 L
173.788 272.302 L
174.175 205.508 L
174.563 238.905 L
174.95 219.423 L
175.337 219.423 L
175.725 169.726 L
176.113 244.798 L
176.5 226.381 L
176.887 255.603 L
177.275 188.81 L
177.663 215.331 L
178.05 272.302 L
178.438 183.536 L
178.825 242.036 L
179.212 188.81 L
179.6 209.902 L
179.988 238.905 L
180.375 255.603 L
180.762 230.064 L
181.15 191.593 L
181.538 255.603 L
181.925 289 L
182.313 238.905 L
182.7 209.902 L
183.087 215.331 L
183.475 215.331 L
183.863 205.508 L
184.25 233.339 L
184.637 215.331 L
185.025 183.536 L
185.413 219.423 L
185.8 242.036 L
186.188 230.064 L
186.575 253.218 L
186.962 230.064 L
187.35 226.381 L
187.738 205.508 L
188.125 271.109 L
188.512 230.064 L
188.9 209.902 L
189.288 226.381 L
189.675 205.508 L
190.063 238.905 L
190.45 215.331 L
190.837 209.902 L
191.225 215.331 L
191.613 209.902 L
192 196.719 L
192.387 205.508 L
192.775 242.036 L
193.163 188.81 L
193.55 255.603 L
193.938 242.036 L
194.325 185.863 L
194.712 169.726 L
195.1 183.536 L
195.488 238.905 L
195.875 205.508 L
196.262 209.902 L
196.65 196.719 L
197.038 196.719 L
197.425 219.423 L
197.813 242.036 L
198.2 289 L
198.587 242.036 L
198.975 191.593 L
199.363 215.331 L
199.75 215.331 L
200.137 133.943 L
200.525 226.381 L
200.913 271.109 L
201.3 196.719 L
201.688 238.905 L
202.075 200.597 L
202.462 191.593 L
202.85 183.536 L
203.238 181.653 L
203.625 191.593 L
204.012 188.81 L
204.4 215.331 L
204.788 238.905 L
205.175 201.333 L
205.563 242.036 L
205.95 183.536 L
206.337 169.207 L
206.725 183.536 L
207.113 196.719 L
207.5 210.726 L
207.887 230.064 L
208.275 226.381 L
208.663 242.036 L
209.05 215.331 L
209.438 238.905 L
209.825 171.129 L
210.212 157.798 L
210.6 157.17 L
210.988 157.798 L
211.375 158.752 L
211.762 255.603 L
212.15 183.536 L
212.538 183.536 L
212.925 169.726 L
213.313 185.863 L
213.7 176.286 L
214.087 200.597 L
214.475 209.902 L
214.863 226.381 L
215.25 125.646 L
215.637 183.536 L
216.025 191.593 L
216.413 170.353 L
216.8 152.377 L
217.188 145.871 L
217.575 163.762 L
217.962 96.326 L
218.35 176.286 L
218.738 147.426 L
219.125 157.798 L
219.512 149.847 L
219.9 103.163 L
220.288 142.889 L
220.675 163.762 L
221.063 128.695 L
221.45 96.968 L
221.837 183.536 L
222.225 125.646 L
222.613 112.739 L
223 157.798 L
223.387 183.536 L
223.775 138.714 L
224.163 112.739 L
224.55 176.286 L
224.938 226.381 L
225.325 128.695 L
225.712 169.726 L
226.1 114.756 L
226.488 128.695 L
226.875 145.871 L
227.262 163.762 L
227.65 152.377 L
228.038 142.889 L
228.425 110.088 L
228.813 158.317 L
229.2 114.756 L
229.587 140.991 L
229.975 136.536 L
230.363 118.676 L
230.75 122.016 L
231.137 132.452 L
231.525 115.593 L
231.913 94.185 L
232.3 122.016 L
232.688 176.286 L
233.075 118.676 L
233.462 145.871 L
233.85 151.238 L
234.238 205.508 L
234.625 157.798 L
235.012 113.667 L
235.4 185.863 L
235.788 205.508 L
236.175 147.426 L
236.563 142.889 L
236.95 154.128 L
237.337 200.597 L
237.725 105.317 L
238.113 177.677 L
238.5 158.317 L
238.887 131.293 L
239.275 163.762 L
239.663 176.286 L
240.05 158.317 L
240.438 191.593 L
240.825 157.798 L
241.212 176.286 L
241.6 176.286 L
241.988 163.762 L
242.375 147.426 L
242.762 176.286 L
243.15 148.733 L
243.538 177.677 L
243.925 201.333 L
244.313 122.016 L
244.7 163.762 L
245.087 125.227 L
245.475 183.536 L
245.863 152.377 L
246.25 215.331 L
246.637 188.81 L
247.025 183.536 L
247.413 175.147 L
247.8 163.762 L
248.188 196.719 L
248.575 188.81 L
248.962 183.536 L
249.35 193.581 L
249.738 169.726 L
250.125 191.593 L
250.512 158.317 L
250.9 118.676 L
251.288 219.423 L
251.675 158.317 L
252.063 170.353 L
252.45 140.991 L
252.837 136.925 L
253.225 122.016 L
253.613 128.695 L
254 158.317 L
254.387 138.714 L
254.775 219.423 L
255.163 153.325 L
255.55 122.016 L
255.938 169.207 L
256.325 148.733 L
256.712 153.325 L
257.1 226.381 L
257.487 136.536 L
257.875 140.57 L
258.263 191.593 L
258.65 131.293 L
259.038 163.762 L
259.425 128.695 L
259.813 144.495 L
260.2 163.762 L
260.587 163.762 L
260.975 122.016 L
261.362 158.317 L
261.75 144.495 L
262.138 158.317 L
262.525 176.286 L
262.913 205.508 L
263.3 169.726 L
263.688 140.991 L
264.075 153.325 L
264.462 158.317 L
264.85 196.719 L
265.237 226.381 L
265.625 180.097 L
266.013 142.889 L
266.4 158.317 L
266.788 136.925 L
267.175 152.377 L
267.563 163.762 L
267.95 112.193 L
268.337 163.762 L
268.725 158.752 L
269.112 152.377 L
269.5 157.798 L
269.888 158.317 L
270.275 157.17 L
270.663 140.57 L
271.05 175.147 L
271.438 129.606 L
271.825 149.847 L
272.212 226.381 L
272.6 132.452 L
272.987 200.597 L
273.375 185.863 L
273.763 158.317 L
274.15 138.714 L
274.538 191.593 L
274.925 163.762 L
275.313 134.861 L
275.7 144.495 L
276.087 152.377 L
276.475 124.895 L
276.862 115.593 L
277.25 169.207 L
277.638 169.726 L
278.025 125.646 L
278.413 131.293 L
278.8 119.034 L
279.188 136.536 L
279.575 134.861 L
279.962 177.677 L
280.35 169.726 L
280.737 119.034 L
281.125 158.752 L
281.513 140.991 L
281.9 169.726 L
282.288 125.227 L
282.675 177.677 L
283.063 209.902 L
283.45 169.726 L
283.837 147.426 L
284.225 230.064 L
284.612 127.98 L
285 200.597 L
285.388 142.889 L
285.775 191.593 L
286.163 142.889 L
286.55 122.016 L
286.938 169.207 L
287.325 169.726 L
287.712 183.536 L
288.1 200.597 L
288.487 132.452 L
288.875 177.677 L
289.263 170.353 L
289.65 205.508 L
290.038 176.286 L
290.425 138.714 L
290.813 183.536 L
291.2 183.536 L
291.587 140.991 L
291.975 188.81 L
292.362 133.943 L
292.75 136.536 L
293.138 158.752 L
293.525 163.762 L
293.913 151.238 L
294.3 140.991 L
294.688 177.677 L
295.075 183.536 L
295.462 119.034 L
295.85 147.426 L
296.237 124.895 L
296.625 176.286 L
297.013 163.762 L
297.4 85.911 L
297.788 157.798 L
298.175 205.508 L
298.563 188.81 L
298.95 122.016 L
299.337 158.317 L
299.725 152.377 L
300.112 153.325 L
300.5 169.207 L
300.888 188.81 L
301.275 169.207 L
301.663 209.902 L
302.05 163.762 L
302.438 163.762 L
302.825 152.377 L
303.212 142.889 L
303.6 145.871 L
303.987 163.762 L
304.375 215.331 L
304.763 163.762 L
305.15 157.798 L
305.538 158.317 L
305.925 191.593 L
306.313 158.317 L
306.7 181.653 L
307.087 138.714 L
307.475 196.719 L
307.862 153.325 L
308.25 163.762 L
308.638 169.726 L
309.025 230.064 L
309.413 163.762 L
309.8 115.593 L
310.188 171.129 L
310.575 163.762 L
310.962 163.762 L
311.35 158.752 L
311.737 163.762 L
312.125 188.81 L
312.513 158.317 L
312.9 196.719 L
313.288 170.353 L
313.675 158.317 L
314.063 170.353 L
314.45 170.353 L
314.837 215.331 L
315.225 185.863 L
315.612 205.508 L
316 183.536 L
316.388 230.064 L
316.775 215.331 L
317.163 170.353 L
317.55 196.719 L
317.938 136.536 L
318.325 191.593 L
318.712 188.81 L
319.1 152.377 L
319.487 148.733 L
319.875 163.762 L
320.263 183.536 L
320.65 147.426 L
321.038 191.593 L
321.425 133.943 L
321.813 134.861 L
322.2 114.756 L
322.587 125.646 L
322.975 191.593 L
323.362 181.653 L
323.75 226.381 L
324.138 142.889 L
324.525 145.871 L
324.913 238.905 L
325.3 175.147 L
325.688 163.762 L
326.075 157.798 L
326.462 169.726 L
326.85 147.426 L
327.237 193.581 L
327.625 205.508 L
328.013 215.331 L
328.4 210.726 L
328.788 210.726 L
329.175 196.719 L
329.563 196.719 L
329.95 176.286 L
330.337 169.726 L
330.725 147.426 L
331.112 152.377 L
331.5 143.987 L
331.888 226.381 L
332.275 193.581 L
332.663 191.593 L
333.05 163.762 L
333.438 185.863 L
333.825 169.726 L
334.212 215.331 L
334.6 188.81 L
334.987 142.889 L
335.375 169.207 L
335.763 177.677 L
336.15 201.333 L
336.538 151.238 L
336.925 107.621 L
337.313 181.653 L
337.7 205.508 L
338.087 176.286 L
338.475 147.426 L
338.862 176.286 L
339.25 185.863 L
339.638 205.508 L
340.025 170.353 L
340.413 136.536 L
340.8 170.353 L
341.188 116.258 L
341.575 226.381 L
341.962 163.762 L
342.35 186.532 L
342.737 149.847 L
343.125 122.016 L
343.513 176.286 L
343.9 196.719 L
344.288 136.536 L
344.675 226.381 L
345.063 188.81 L
345.45 191.593 L
345.837 177.677 L
346.225 205.508 L
346.612 132.452 L
347 116.258 L
347.388 163.762 L
347.775 169.207 L
348.163 205.508 L
348.55 157.798 L
348.938 183.536 L
349.325 191.593 L
349.712 134.861 L
350.1 140.991 L
350.487 140.991 L
350.875 157.798 L
351.263 142.889 L
351.65 188.81 L
352.038 151.238 L
352.425 226.381 L
352.813 122.016 L
353.2 147.426 L
353.587 170.353 L
353.975 130.805 L
354.362 205.508 L
354.75 176.286 L
355.138 158.317 L
355.525 157.798 L
355.913 176.286 L
356.3 151.238 L
356.688 188.81 L
357.075 200.597 L
357.462 122.016 L
357.85 205.508 L
358.237 129.606 L
358.625 142.889 L
359.013 125.227 L
359.4 142.889 L
359.788 196.719 L
360.175 145.871 L
360.563 175.147 L
360.95 151.238 L
361.337 177.677 L
361.725 140.991 L
362.112 157.17 L
362.5 163.762 L
362.888 191.593 L
363.275 191.593 L
363.663 196.719 L
364.05 175.147 L
364.438 158.752 L
364.825 222.206 L
365.212 176.286 L
365.6 170.353 L
365.987 136.536 L
366.375 140.991 L
366.763 185.863 L
367.15 153.325 L
367.538 153.325 L
367.925 143.987 L
368.313 108.657 L
368.7 191.593 L
369.087 158.317 L
369.475 116.258 L
369.862 170.353 L
370.25 142.889 L
370.638 169.726 L
371.025 200.597 L
371.413 143.987 L
371.8 111.579 L
372.188 157.17 L
372.575 177.677 L
372.962 147.426 L
373.35 108.657 L
373.737 157.798 L
374.125 156.395 L
374.513 140.991 L
374.9 125.227 L
375.288 153.325 L
375.675 80.27 L
376.063 91.655 L
376.45 118.676 L
376.837 92.197 L
377.225 128.695 L
377.612 113.667 L
378 122.016 L
378.388 88.619 L
378.775 152.377 L
379.163 111.579 L
379.55 74.306 L
379.938 98.638 L
380.325 94.185 L
380.712 122.016 L
381.1 157.17 L
381.487 138.714 L
381.875 103.865 L
382.263 129.606 L
382.65 101.143 L
383.038 92.197 L
383.425 81.709 L
383.813 105.96 L
384.2 92.681 L
384.587 90.346 L
384.975 83.252 L
385.362 103.462 L
385.75 125.646 L
386.138 140.991 L
386.525 108.657 L
386.913 103.462 L
387.3 131.293 L
387.688 105.317 L
388.075 105.96 L
388.462 63.571 L
388.85 140.991 L
389.237 81.709 L
389.625 71.921 L
390.013 63.571 L
390.4 98.638 L
390.788 191.593 L
391.175 68.885 L
391.563 67.425 L
391.95 84.908 L
392.337 103.462 L
392.725 69.833 L
393.112 112.739 L
393.5 95.083 L
393.888 61.294 L
394.275 101.143 L
394.663 96.326 L
395.05 94.185 L
395.438 90.346 L
395.825 78.923 L
396.212 101.143 L
396.6 133.943 L
396.987 87.003 L
397.375 84.908 L
397.763 96.326 L
398.15 81.709 L
398.538 111.579 L
398.925 118.221 L
399.313 112.739 L
399.7 77.059 L
400.087 80.27 L
400.475 74.306 L
400.862 115.593 L
401.25 77.661 L
401.638 110.088 L
402.025 87.228 L
402.413 96.326 L
402.8 94.185 L
403.188 106.836 L
403.575 136.536 L
403.962 90.346 L
404.35 158.317 L
404.737 107.621 L
405.125 77.059 L
405.513 108.657 L
405.9 95.776 L
406.288 101.143 L
406.675 140.991 L
407.063 73.312 L
407.45 76.475 L
407.837 80.27 L
408.225 88.619 L
408.612 61.294 L
409 75.179 L
409.388 108.657 L
409.775 118.221 L
410.163 96.326 L
410.55 81.463 L
410.938 157.798 L
411.325 138.714 L
411.712 69.833 L
412.1 71.921 L
412.487 81.463 L
412.875 111.579 L
413.263 113.667 L
413.65 138.714 L
414.038 200.597 L
414.425 142.889 L
414.813 101.143 L
415.2 96.968 L
415.587 136.536 L
415.975 88.619 L
416.362 112.739 L
416.75 136.536 L
417.138 103.865 L
417.525 80.27 L
417.913 59.993 L
418.3 96.326 L
418.688 122.016 L
419.075 125.646 L
419.462 145.871 L
419.85 119.034 L
420.237 98.984 L
420.625 103.462 L
421.013 81.709 L
421.4 118.676 L
421.788 140.991 L
422.175 138.714 L
422.563 125.227 L
422.95 53.258 L
423.337 90.346 L
423.725 67.992 L
424.112 98.984 L
424.5 85.488 L
424.888 92.197 L
425.275 90.706 L
425.663 75.359 L
426.05 86.692 L
426.438 71.921 L
426.825 125.646 L
427.212 128.695 L
427.6 108.657 L
427.987 70.843 L
428.375 56.851 L
428.763 98.638 L
429.15 81.463 L
429.538 101.143 L
429.925 103.462 L
430.313 64.89 L
430.7 73.312 L
431.087 81.463 L
431.475 105.96 L
431.862 113.667 L
432.25 125.646 L
432.638 113.667 L
433.025 140.991 L
433.413 124.625 L
433.8 105.317 L
434.188 130.365 L
434.575 163.762 L
434.962 122.016 L
435.35 105.317 L
435.737 118.676 L
436.125 170.353 L
436.513 116.258 L
436.9 116.258 L
437.288 134.861 L
437.675 98.984 L
438.063 132.452 L
438.45 84.908 L
438.837 153.325 L
439.225 147.426 L
439.612 170.353 L
440 122.016 L
440.388 116.258 L
440.775 103.462 L
441.163 118.676 L
441.55 138.714 L
441.938 140.991 L
442.325 158.317 L
442.712 134.861 L
443.1 125.227 L
443.487 140.991 L
443.875 145.871 L
444.263 96.326 L
444.65 152.377 L
445.038 140.991 L
445.425 101.143 L
445.813 125.646 L
446.2 90.092 L
446.587 101.143 L
446.975 163.762 L
447.362 98.638 L
447.75 82.725 L
448.138 122.016 L
448.525 112.739 L
448.913 144.495 L
449.3 90.706 L
449.688 157.798 L
450.075 88.619 L
450.462 105.317 L
450.85 90.092 L
451.237 88.619 L
451.625 103.462 L
452.013 122.016 L
452.4 129.606 L
452.788 131.293 L
453.175 136.536 L
453.563 147.426 L
453.95 117.622 L
454.337 149.847 L
454.725 122.016 L
455.112 140.991 L
455.5 129.606 L
455.888 126.19 L
456.275 125.646 L
456.663 147.426 L
457.05 142.889 L
457.438 125.227 L
457.825 129.606 L
458.212 103.163 L
458.6 124.895 L
458.987 145.871 L
459.375 169.726 L
459.763 110.088 L
460.15 102.932 L
460.538 125.227 L
460.925 183.536 L
461.313 91.655 L
461.7 129.606 L
462.087 75.359 L
462.475 90.346 L
462.862 84.065 L
463.25 103.865 L
463.638 101.143 L
464.025 113.667 L
464.413 107.621 L
464.8 101.143 L
465.188 158.317 L
465.575 95.776 L
465.962 103.462 L
466.35 140.991 L
466.737 132.452 L
467.125 84.065 L
467.513 111.243 L
467.9 93.315 L
468.288 93.315 L
468.675 107.621 L
469.063 103.462 L
469.45 145.871 L
469.837 110.088 L
470.225 115.593 L
470.612 118.676 L
471 101.143 L
471.388 84.065 L
471.775 64.214 L
472.163 112.739 L
472.55 113.667 L
472.938 101.143 L
473.325 147.426 L
473.712 115.593 L
474.1 119.034 L
474.487 115.593 L
474.875 111.579 L
475.263 122.016 L
475.65 158.317 L
476.038 90.706 L
476.425 127.98 L
476.813 111.579 L
477.2 105.96 L
477.587 96.968 L
477.975 95.083 L
478.362 138.714 L
478.75 88.619 L
479.138 138.714 L
479.525 93.315 L
479.913 134.861 L
480.3 88.619 L
480.688 118.221 L
481.075 134.861 L
481.462 99.245 L
481.85 132.452 L
482.237 107.621 L
482.625 88.619 L
483.013 90.346 L
483.4 152.377 L
483.788 138.714 L
484.175 145.871 L
484.563 104.826 L
484.95 84.065 L
485.337 80.27 L
485.725 110.088 L
486.112 84.908 L
486.5 105.317 L
486.888 69.833 L
487.275 91.655 L
487.663 151.238 L
488.05 82.725 L
488.438 119.034 L
488.825 93.315 L
489.212 176.286 L
489.6 181.653 L
489.987 136.536 L
490.375 114.756 L
490.763 82.357 L
491.15 145.871 L
491.538 98.984 L
491.925 138.714 L
492.313 118.676 L
492.7 87.228 L
493.087 118.676 L
493.475 119.034 L
493.862 94.185 L
494.25 122.016 L
494.638 128.695 L
495.025 108.97 L
495.413 84.065 L
495.8 107.621 L
496.188 78.073 L
496.575 112.739 L
496.962 95.083 L
497.35 138.714 L
497.737 136.536 L
498.125 108.97 L
498.513 128.695 L
498.9 215.331 L
499.288 163.762 L
499.675 147.426 L
500.063 98.984 L
500.45 108.97 L
500.837 145.871 L
501.225 110.088 L
501.612 122.016 L
502 185.863 L
502.388 86.692 L
502.775 152.377 L
503.163 125.227 L
503.55 157.17 L
503.938 81.709 L
504.325 108.657 L
504.712 177.677 L
505.1 115.593 L
505.487 105.96 L
505.875 163.762 L
506.263 69.833 L
506.65 111.243 L
507.038 112.739 L
507.425 78.923 L
507.813 119.323 L
508.2 142.889 L
508.587 122.016 L
508.975 111.579 L
509.362 82.357 L
509.75 107.621 L
510.138 136.536 L
510.525 128.695 L
510.913 144.495 L
511.3 106.836 L
511.688 157.798 L
512.075 132.452 L
512.463 107.621 L
512.85 147.426 L
513.237 142.889 L
513.625 57.31 L
514.013 122.016 L
514.4 133.943 L
514.787 147.426 L
515.175 106.836 L
515.563 122.016 L
515.95 118.221 L
516.338 125.646 L
516.725 86.692 L
517.112 133.943 L
517.5 96.968 L
517.888 101.143 L
518.275 163.762 L
518.662 86.234 L
519.05 87.003 L
519.438 171.129 L
519.825 134.861 L
520.213 115.593 L
520.6 93.315 L
520.987 145.871 L
521.375 112.193 L
521.763 101.143 L
522.15 125.646 L
522.537 226.381 L
522.925 148.733 L
523.313 145.871 L
523.7 119.034 L
524.088 142.889 L
524.475 84.065 L
524.862 142.889 L
525.25 90.346 L
525.638 129.606 L
526.025 122.016 L
526.412 111.243 L
526.8 108.97 L
527.188 142.889 L
527.575 129.606 L
527.963 132.452 L
528.35 90.346 L
528.737 110.088 L
529.125 99.245 L
529.513 133.943 L
529.9 177.677 L
530.287 175.147 L
530.675 118.676 L
531.063 105.96 L
531.45 97.459 L
531.838 113.667 L
532.225 110.088 L
532.612 138.714 L
533 98.984 L
533.388 128.695 L
533.775 148.733 L
534.162 163.762 L
534.55 157.798 L
534.938 122.016 L
535.325 163.762 L
535.713 88.619 L
536.1 67.992 L
536.487 113.667 L
536.875 91.655 L
537.263 125.227 L
537.65 125.646 L
538.037 103.163 L
538.425 136.536 L
538.813 91.655 L
539.2 129.606 L
539.588 97.459 L
539.975 72.68 L
540.362 82.725 L
540.75 104.826 L
541.138 112.739 L
541.525 118.676 L
541.912 116.258 L
542.3 145.871 L
542.688 80.27 L
543.075 142.889 L
543.463 81.709 L
543.85 96.968 L
544.237 108.657 L
544.625 85.488 L
545.013 153.325 L
545.4 101.143 L
545.787 103.163 L
546.175 119.323 L
546.563 96.968 L
546.95 132.452 L
547.338 80.27 L
547.725 101.143 L
548.112 158.317 L
548.5 147.426 L
548.888 101.143 L
549.275 79.142 L
549.662 131.293 L
550.05 131.293 L
550.438 61.294 L
550.825 78.923 L
551.213 163.762 L
551.6 170.353 L
551.987 122.016 L
552.375 99.45 L
552.763 79.142 L
553.15 69.07 L
553.537 145.871 L
553.925 163.762 L
554.313 72.372 L
554.7 90.092 L
555.088 116.798 L
555.475 98.984 L
555.862 90.092 L
556.25 140.991 L
556.638 81.463 L
557.025 101.143 L
557.412 116.258 L
557.8 57.791 L
558.188 183.536 L
558.575 92.197 L
558.963 136.536 L
559.35 131.293 L
559.737 85.488 L
560.125 92.197 L
560.513 81.463 L
560.9 133.943 L
561.287 129.606 L
561.675 142.889 L
562.063 125.227 L
562.45 74.306 L
562.838 110.088 L
563.225 128.695 L
563.612 91.655 L
564 128.695 L
564.388 98.638 L
564.775 119.034 L
565.162 138.714 L
565.55 125.227 L
565.938 133.943 L
566.325 144.495 L
566.713 128.695 L
567.1 110.088 L
567.487 66.355 L
567.875 118.676 L
568.263 153.325 L
568.65 175.147 L
569.037 152.377 L
569.425 101.143 L
569.813 88.619 L
570.2 118.676 L
570.588 130.805 L
570.975 118.676 L
571.362 78.923 L
571.75 101.143 L
572.138 96.968 L
572.525 163.762 L
572.912 169.726 L
573.3 101.143 L
573.688 144.495 L
574.075 83.252 L
574.463 103.462 L
574.85 115.593 L
575.237 84.908 L
575.625 138.714 L
576.013 163.762 L
576.4 118.676 L
576.787 144.495 L
577.175 138.714 L
577.563 111.579 L
577.95 101.143 L
578.338 114.756 L
578.725 99.245 L
579.112 132.452 L
579.5 177.677 L
579.888 138.714 L
580.275 118.676 L
580.662 169.207 L
581.05 112.739 L
581.438 142.889 L
581.825 78.923 L
582.213 126.19 L
582.6 107.621 L
582.987 142.889 L
583.375 87.003 L
583.763 90.092 L
584.15 176.286 L
584.537 140.991 L
584.925 170.353 L
585.313 136.536 L
585.7 176.286 L
586.088 122.016 L
586.475 125.646 L
586.862 103.462 L
587.25 96.968 L
587.638 94.185 L
588.025 145.871 L
588.412 163.762 L
588.8 111.579 L
589.188 64.89 L
589.575 98.984 L
589.963 138.714 L
590.35 140.991 L
590.737 136.536 L
591.125 144.495 L
591.513 98.984 L
591.9 191.593 L
592.287 157.798 L
592.675 130.365 L
593.063 143.987 L
593.45 133.943 L
593.838 80.27 L
594.225 96.326 L
594.612 151.238 L
595 125.646 L
595.388 145.871 L
595.775 215.331 L
596.162 122.016 L
596.55 130.805 L
596.938 122.016 L
597.325 131.293 L
597.713 118.676 L
598.1 122.016 L
598.487 136.536 L
598.875 133.943 L
599.263 169.726 L
599.65 157.798 L
600.037 176.286 L
600.425 91.655 L
600.813 143.987 L
601.2 67.15 L
601.588 91.655 L
601.975 105.317 L
602.362 136.536 L
602.75 94.185 L
603.138 119.034 L
603.525 119.034 L
603.912 103.163 L
604.3 151.238 L
604.688 87.003 L
605.075 163.762 L
605.463 122.016 L
605.85 136.536 L
606.237 142.889 L
606.625 90.346 L
607.013 107.621 L
607.4 158.317 L
607.787 132.452 L
608.175 125.646 L
608.563 156.395 L
608.95 96.326 L
609.338 70.843 L
609.725 101.143 L
610.112 128.695 L
610.5 103.163 L
610.888 156.395 L
611.275 147.426 L
611.662 128.695 L
612.05 115.593 L
612.438 96.326 L
612.825 96.968 L
613.213 78.923 L
613.6 90.346 L
613.987 107.621 L
614.375 125.227 L
614.763 136.536 L
615.15 110.088 L
615.537 101.143 L
615.925 128.695 L
616.313 86.692 L
616.7 77.661 L
617.088 84.664 L
617.475 145.871 L
617.862 103.163 L
618.25 119.034 L
618.638 122.016 L
619.025 87.003 L
619.412 148.733 L
619.8 125.646 L
620.188 95.083 L
620.575 110.088 L
620.963 115.593 L
621.35 140.991 L
621.737 111.579 L
622.125 112.739 L
622.513 91.256 L
622.9 101.143 L
623.287 205.508 L
623.675 129.606 L
624.063 145.871 L
624.45 157.798 L
624.838 181.653 L
625.225 98.638 L
625.612 140.991 L
626 118.676 L
626.388 108.657 L
626.775 169.726 L
627.162 122.016 L
627.55 188.81 L
627.938 196.719 L
628.325 128.695 L
628.713 132.452 L
629.1 74.306 L
629.487 93.315 L
629.875 108.657 L
630.263 94.185 L
630.65 92.197 L
631.037 101.143 L
631.425 157.17 L
631.813 98.984 L
632.2 107.621 L
632.588 126.19 L
632.975 169.726 L
633.362 101.143 L
633.75 127.98 L
634.138 99.245 L
634.525 153.325 L
634.912 98.984 L
635.3 88.619 L
635.688 122.016 L
636.075 169.726 L
636.463 103.163 L
636.85 125.646 L
637.237 112.739 L
637.625 126.19 L
638.013 110.088 L
638.4 147.426 L
638.787 122.016 L
639.175 118.221 L
639.563 105.96 L
639.95 128.695 L
640.338 128.695 L
640.725 176.286 L
641.112 107.621 L
641.5 105.96 L
641.888 147.426 L
642.275 118.676 L
642.662 101.143 L
643.05 94.185 L
643.438 122.016 L
643.825 96.968 L
644.213 143.987 L
644.6 142.889 L
644.987 103.462 L
645.375 125.227 L
645.763 67.649 L
646.15 103.163 L
646.537 238.905 L
646.925 111.579 L
647.313 163.762 L
647.7 92.197 L
648.088 85.911 L
648.475 126.19 L
648.862 90.346 L
649.25 107.621 L
649.638 143.987 L
650.025 140.991 L
650.412 122.016 L
650.8 115.593 L
651.188 103.462 L
651.575 136.536 L
651.963 106.836 L
652.35 175.147 L
652.737 147.426 L
653.125 103.462 L
653.513 128.695 L
653.9 142.889 L
654.287 122.016 L
654.675 138.714 L
655.063 97.459 L
655.45 148.733 L
655.838 90.092 L
656.225 114.756 L
656.612 147.426 L
657 147.426 L
657.388 105.317 L
657.775 75.359 L
658.162 110.088 L
658.55 66.355 L
658.938 122.016 L
659.325 163.762 L
659.713 147.426 L
660.1 95.083 L
660.487 108.657 L
660.875 101.143 L
661.263 110.088 L
661.65 169.726 L
662.037 122.016 L
662.425 176.286 L
662.813 169.726 L
663.2 111.579 L
663.588 103.462 L
663.975 106.836 L
664.362 107.621 L
664.75 80.27 L
665.138 85.488 L
665.525 176.286 L
665.912 96.968 L
666.3 147.426 L
666.688 125.646 L
667.075 140.991 L
667.463 101.143 L
667.85 88.619 L
668.237 200.597 L
668.625 205.508 L
669.013 122.016 L
669.4 105.96 L
669.787 125.227 L
670.175 87.003 L
670.563 138.714 L
670.95 95.083 L
671.338 94.185 L
671.725 112.739 L
672.112 177.677 L
672.5 163.762 L
672.888 101.143 L
673.275 147.426 L
673.662 134.861 L
674.05 90.092 L
674.438 98.984 L
674.825 115.593 L
675.213 98.638 L
675.6 98.984 L
675.987 75.359 L
676.375 103.163 L
676.763 136.536 L
677.15 116.258 L
677.537 90.346 L
677.925 122.016 L
678.313 127.98 L
678.7 108.657 L
679.088 118.221 L
679.475 147.426 L
679.862 106.836 L
680.25 118.676 L
680.638 108.97 L
681.025 152.377 L
681.412 134.861 L
681.8 183.536 L
682.188 118.676 L
682.575 93.315 L
682.963 92.975 L
683.35 140.991 L
683.737 103.163 L
684.125 105.317 L
684.513 81.709 L
684.9 181.653 L
685.287 129.606 L
685.675 107.621 L
686.063 85.488 L
686.45 122.016 L
686.838 96.968 L
687.225 105.96 L
687.612 132.452 L
688 112.739 L
688.388 96.326 L
688.775 128.695 L
689.162 147.426 L
689.55 108.657 L
689.938 110.088 L
690.325 122.016 L
690.713 157.798 L
691.1 169.726 L
691.487 98.984 L
691.875 125.646 L
692.263 88.619 L
692.65 119.034 L
693.037 111.243 L
693.425 98.984 L
693.813 147.426 L
694.2 111.579 L
694.588 125.227 L
694.975 99.245 L
695.362 84.908 L
695.75 138.714 L
696.138 142.889 L
696.525 85.488 L
696.912 84.065 L
697.3 108.657 L
697.688 138.714 L
698.075 132.452 L
698.463 69.833 L
698.85 169.726 L
699.237 183.536 L
699.625 163.762 L
700.013 129.606 L
700.4 188.81 L
700.787 176.286 L
701.175 132.452 L
701.563 108.657 L
701.95 131.293 L
702.338 95.083 L
702.725 134.861 L
703.112 75.179 L
703.5 125.227 L
703.888 96.968 L
704.275 77.661 L
704.662 101.143 L
705.05 91.655 L
705.438 196.719 L
705.825 77.661 L
706.213 118.676 L
706.6 122.016 L
706.987 169.726 L
707.375 122.016 L
707.763 133.943 L
708.15 142.889 L
708.537 140.991 L
708.925 183.536 L
709.313 125.646 L
709.7 169.726 L
710.088 116.258 L
710.475 97.459 L
710.862 87.228 L
711.25 84.908 L
711.638 98.984 L
712.025 92.197 L
712.412 176.286 L
712.8 103.462 L
713.188 90.092 L
713.575 88.619 L
713.963 114.756 L
714.35 78.923 L
714.737 91.655 L
715.125 98.638 L
715.513 110.088 L
715.9 96.326 L
716.287 127.98 L
716.675 170.353 L
717.063 83.252 L
717.45 145.871 L
717.838 142.889 L
718.225 105.96 L
718.612 93.315 L
719 108.657 L
719.388 81.463 L
719.775 115.593 L
720.162 115.593 L
720.55 136.536 L
720.938 132.452 L
721.325 134.861 L
721.713 138.714 L
722.1 129.606 L
722.487 87.003 L
722.875 115.593 L
723.263 96.968 L
723.65 101.143 L
724.037 132.452 L
724.425 96.326 L
724.813 107.621 L
725.2 145.871 L
725.588 64.435 L
725.975 85.488 L
726.362 177.677 L
726.75 145.871 L
727.138 119.034 L
727.525 71.481 L
727.912 92.197 L
728.3 73.312 L
728.688 122.016 L
729.075 158.317 L
729.463 107.621 L
729.85 105.96 L
730.237 110.088 L
730.625 129.606 L
731.013 118.676 L
731.4 169.726 L
731.787 132.452 L
732.175 105.317 L
732.563 98.984 L
732.95 125.227 L
733.338 125.646 L
733.725 96.326 L
734.112 106.836 L
734.5 122.016 L
734.888 105.317 L
735.275 88.619 L
735.662 169.207 L
736.05 118.676 L
736.438 144.495 L
736.825 70.843 L
737.213 80.27 L
737.6 84.908 L
737.987 98.984 L
738.375 136.536 L
738.763 87.003 L
739.15 147.426 L
739.537 103.462 L
739.925 128.695 L
740.313 140.991 L
740.7 119.034 L
741.088 128.695 L
741.475 163.762 L
741.862 118.221 L
742.25 94.185 L
742.638 86.692 L
743.025 115.593 L
743.412 107.621 L
743.8 103.462 L
744.188 96.968 L
744.575 90.346 L
744.963 116.258 L
745.35 147.426 L
745.737 115.593 L
746.125 112.739 L
746.513 81.709 L
746.9 132.452 L
747.287 108.657 L
747.675 113.667 L
748.063 87.003 L
748.45 145.871 L
748.838 72.372 L
749.225 57.31 L
749.612 78.073 L
750 112.739 L
750.388 111.243 L
750.775 98.984 L
751.162 108.657 L
751.55 145.871 L
751.938 113.667 L
752.325 157.17 L
752.713 98.984 L
753.1 119.034 L
753.487 105.317 L
753.875 90.346 L
754.263 81.709 L
754.65 170.353 L
755.037 140.57 L
755.425 113.667 L
755.813 111.243 L
756.2 103.163 L
756.588 107.621 L
756.975 113.667 L
757.362 64.89 L
757.75 106.836 L
758.138 58.298 L
758.525 95.776 L
758.912 110.088 L
759.3 181.653 L
759.688 105.96 L
760.075 96.968 L
760.463 99.245 L
760.85 98.984 L
761.237 84.065 L
761.625 110.088 L
762.013 136.536 L
762.4 110.088 L
762.787 127.98 L
763.175 115.593 L
763.563 128.695 L
763.95 73.072 L
764.338 98.638 L
764.725 77.661 L
765.112 101.143 L
765.5 93.315 L
765.888 78.923 L
766.275 105.317 L
766.662 92.681 L
767.05 128.695 L
767.438 90.092 L
767.825 114.756 L
768.213 91.655 L
768.6 91.655 L
768.987 138.714 L
769.375 90.346 L
769.763 107.621 L
770.15 74.306 L
770.537 134.861 L
770.925 138.714 L
771.313 118.676 L
771.7 175.147 L
772.088 79.142 L
772.475 110.088 L
772.862 68.342 L
773.25 103.462 L
773.638 122.016 L
774.025 122.016 L
774.412 87.003 L
774.8 116.798 L
775.188 93.315 L
775.575 115.593 L
775.963 93.315 L
776.35 85.488 L
776.737 99.245 L
777.125 88.619 L
777.513 74.306 L
777.9 90.092 L
778.287 110.088 L
778.675 113.667 L
779.063 95.776 L
779.45 118.676 L
779.838 59.397 L
780.225 103.462 L
780.612 119.034 L
781 77.059 L
781.388 71.921 L
781.775 82.725 L
782.162 88.619 L
782.55 88.619 L
782.938 147.426 L
783.325 105.317 L
783.713 111.243 L
784.1 118.676 L
784.487 96.968 L
784.875 88.619 L
785.263 129.606 L
785.65 133.532 L
786.037 122.016 L
786.425 110.088 L
786.813 98.984 L
787.2 125.646 L
787.588 116.258 L
787.975 125.646 L
788.362 98.984 L
788.75 102.932 L
789.138 111.243 L
789.525 140.991 L
789.912 111.243 L
790.3 75.179 L
790.688 134.861 L
791.075 111.243 L
791.463 80.27 L
791.85 136.536 L
792.237 74.306 L
792.625 71.481 L
793.013 107.621 L
793.4 83.053 L
793.787 95.776 L
794.175 94.185 L
794.563 110.088 L
794.95 105.317 L
795.338 85.488 L
795.725 80.27 L
796.112 86.692 L
796.5 131.293 L
796.888 94.185 L
797.275 140.57 L
797.662 131.293 L
798.05 122.016 L
798.438 97.459 L
798.825 93.315 L
799.213 116.258 L
799.6 111.243 L
799.987 112.739 L
800.375 157.798 L
800.763 113.667 L
801.15 93.315 L
801.537 79.299 L
801.925 88.619 L
802.313 98.984 L
802.7 181.653 L
803.088 115.593 L
803.475 103.163 L
803.862 122.016 L
804.25 87.228 L
804.638 125.227 L
805.025 85.911 L
805.412 126.19 L
805.8 124.895 L
806.188 153.325 L
806.575 101.143 L
806.963 96.968 L
807.35 103.163 L
807.737 87.003 L
808.125 112.739 L
808.513 127.98 L
808.9 107.621 L
809.287 116.258 L
809.675 94.185 L
810.063 103.163 L
810.45 105.317 L
810.838 112.739 L
811.225 98.638 L
811.612 105.96 L
812 112.739 L
812.388 93.315 L
812.775 138.714 L
813.162 136.536 L
813.55 196.719 L
813.938 96.968 L
814.325 80.27 L
814.713 77.059 L
815.1 116.258 L
815.487 147.426 L
815.875 97.459 L
816.263 87.003 L
816.65 131.293 L
817.037 136.536 L
817.425 93.315 L
817.813 144.495 L
818.2 84.908 L
818.588 87.003 L
818.975 93.315 L
819.362 105.317 L
819.75 110.088 L
820.138 122.016 L
820.525 148.733 L
820.912 128.695 L
821.3 87.228 L
821.688 113.667 L
822.075 132.452 L
822.463 110.088 L
822.85 119.034 L
823.237 101.143 L
823.625 95.083 L
824.013 83.252 L
824.4 96.326 L
824.787 103.462 L
825.175 134.861 L
825.563 105.317 L
825.95 112.739 L
826.338 215.331 L
826.725 83.252 L
827.112 108.657 L
827.5 97.459 L
827.888 89.904 L
828.275 107.621 L
828.662 76.475 L
829.05 105.96 L
829.438 136.536 L
829.825 119.034 L
830.213 115.593 L
830.6 95.776 L
830.987 98.638 L
831.375 95.083 L
831.763 81.709 L
832.15 108.97 L
832.537 147.426 L
832.925 183.536 L
833.313 115.593 L
833.7 118.221 L
834.088 136.536 L
834.475 111.243 L
834.862 94.185 L
835.25 108.657 L
835.638 119.323 L
836.025 101.143 L
836.412 103.462 L
836.8 108.97 L
837.188 76.475 L
837.575 153.325 L
837.963 122.016 L
838.35 128.695 L
838.737 133.943 L
839.125 94.185 L
839.513 128.695 L
839.9 118.676 L
840.287 115.593 L
840.675 152.377 L
841.063 176.286 L
841.45 153.325 L
841.838 147.426 L
842.225 108.657 L
842.612 103.462 L
843 95.776 L
843.388 158.317 L
843.775 90.092 L
844.162 131.293 L
844.55 88.619 L
844.938 122.016 L
845.325 140.991 L
845.713 82.357 L
846.1 124.895 L
846.487 158.752 L
846.875 95.083 L
847.263 82.357 L
847.65 138.714 L
848.037 112.739 L
848.425 111.579 L
848.813 118.676 L
849.2 163.762 L
849.588 112.739 L
849.975 96.326 L
850.362 119.034 L
850.75 78.073 L
851.138 70.636 L
851.525 84.908 L
851.912 125.646 L
852.3 91.655 L
852.688 91.655 L
853.075 118.676 L
853.463 177.677 L
853.85 147.426 L
854.237 76.475 L
854.625 99.245 L
855.013 92.197 L
855.4 158.317 L
855.787 96.968 L
856.175 71.481 L
856.563 125.227 L
856.95 91.655 L
857.338 119.034 L
857.725 132.452 L
858.112 83.481 L
858.5 79.142 L
858.888 97.459 L
859.275 74.306 L
859.662 134.861 L
860.05 82.725 L
860.438 125.646 L
860.825 133.532 L
861.213 125.646 L
861.6 112.193 L
861.987 122.016 L
862.375 101.143 L
862.763 151.238 L
863.15 107.621 L
863.537 169.207 L
863.925 105.96 L
864.313 122.016 L
864.7 105.96 L
865.088 110.088 L
865.475 91.655 L
865.862 64.214 L
866.25 99.245 L
866.638 132.452 L
867.025 122.016 L
867.412 104.826 L
867.8 95.776 L
868.188 107.621 L
868.575 80.27 L
868.963 153.325 L
869.35 72.68 L
869.737 107.621 L
870.125 77.661 L
870.513 99.245 L
870.9 115.593 L
871.287 147.426 L
871.675 103.865 L
872.063 101.143 L
872.45 122.016 L
872.838 87.003 L
873.225 122.016 L
873.612 200.597 L
874 148.733 L
874.388 103.163 L
874.775 77.661 L
875.162 77.661 L
875.55 215.331 L
875.938 125.227 L
876.325 107.621 L
876.713 87.003 L
877.1 64.89 L
877.487 91.655 L
877.875 89.904 L
878.263 124.895 L
878.65 122.016 L
879.037 128.695 L
879.425 112.193 L
879.813 101.143 L
880.2 103.163 L
880.588 122.016 L
880.975 103.163 L
881.362 116.258 L
881.75 122.016 L
882.138 88.619 L
882.525 98.638 L
882.912 188.81 L
883.3 163.762 L
883.688 128.695 L
884.075 157.798 L
884.463 181.653 L
884.85 88.619 L
885.237 107.621 L
885.625 133.943 L
886.013 140.57 L
886.4 92.681 L
886.787 84.664 L
887.175 118.221 L
887.563 110.088 L
887.95 118.221 L
888.338 75.359 L
888.725 106.22 L
889.112 138.714 L
889.5 113.667 L
889.888 98.984 L
890.275 131.293 L
890.662 81.463 L
891.05 84.065 L
891.438 122.016 L
891.825 85.911 L
892.213 93.315 L
892.6 169.207 L
892.987 76.64 L
893.375 97.459 L
893.763 103.462 L
894.15 147.426 L
894.537 128.695 L
894.925 112.739 L
895.313 85.488 L
895.7 85.911 L
896.088 131.293 L
896.475 142.889 L
896.862 154.128 L
897.25 138.714 L
897.638 119.323 L
898.025 81.709 L
898.412 87.228 L
898.8 85.488 L
899.188 118.676 L
899.575 94.185 L
899.963 71.921 L
900.35 113.667 L
900.737 81.463 L
901.125 138.714 L
901.513 153.325 L
901.9 79.299 L
902.287 85.488 L
902.675 119.034 L
903.063 105.96 L
903.45 115.593 L
903.838 125.227 L
904.225 77.661 L
904.612 68.342 L
905 72.372 L
S
GR
GS
1 0 0 RC
1 LJ
0.5 LW
N
169.525 224.719 M
169.913 224.171 L
170.3 224.697 L
170.688 225.762 L
171.075 225.906 L
171.462 224.799 L
171.85 225.762 L
172.238 227.678 L
172.625 228.008 L
173.012 227.491 L
173.4 227.153 L
173.788 226.834 L
174.175 226.272 L
174.563 226.454 L
174.95 226.175 L
175.337 225.135 L
175.725 224.999 L
176.113 225.396 L
176.5 225.502 L
176.887 226.118 L
177.275 226.203 L
177.663 226.207 L
178.05 225.776 L
178.438 226.701 L
178.825 226.768 L
179.212 226.438 L
179.6 225.865 L
179.988 224.228 L
180.375 224.112 L
180.762 224.477 L
181.15 224.645 L
181.538 224.121 L
181.925 224.015 L
182.313 223.433 L
182.7 223.024 L
183.087 223.74 L
183.475 223.585 L
183.863 223.258 L
184.25 223.974 L
184.637 222.934 L
185.025 221.96 L
185.413 221.256 L
185.8 222.612 L
186.188 221.842 L
186.575 221.519 L
186.962 220.364 L
187.35 220.519 L
187.738 220.6 L
188.125 220.006 L
188.512 222.074 L
188.9 222.074 L
189.288 222.129 L
189.675 222.235 L
190.063 221.773 L
190.45 219.387 L
190.837 219.315 L
191.225 220.874 L
191.613 219.72 L
192 218.737 L
192.387 217.986 L
192.775 217.627 L
193.163 217.004 L
193.55 216.343 L
193.938 216.071 L
194.325 215.197 L
194.712 215.197 L
195.1 216.283 L
195.488 215.928 L
195.875 215.928 L
196.262 215.016 L
196.65 213.369 L
197.038 212.457 L
197.425 211.875 L
197.813 211.977 L
198.2 211.172 L
198.587 211.1 L
198.975 211.73 L
199.363 211.514 L
199.75 212.168 L
200.137 210.84 L
200.525 209.711 L
200.913 208.677 L
201.3 207.549 L
201.688 206.546 L
202.075 207.701 L
202.462 207.27 L
202.85 206.123 L
203.238 205.749 L
203.625 204.382 L
204.012 203.092 L
204.4 203.381 L
204.788 204.169 L
205.175 205.009 L
205.563 202.788 L
205.95 202.358 L
206.337 201.999 L
206.725 201.482 L
207.113 200.612 L
207.5 199.17 L
207.887 197.635 L
208.275 193.857 L
208.663 192.568 L
209.05 191.702 L
209.438 190.574 L
209.825 189.29 L
210.212 188.686 L
210.6 187.049 L
210.988 184.944 L
211.375 183.611 L
211.762 180.827 L
212.15 180.493 L
212.538 179.2 L
212.925 177.812 L
213.313 177.344 L
213.7 177.186 L
214.087 176.204 L
214.475 174.192 L
214.863 172.964 L
215.25 173.455 L
215.637 171.233 L
216.025 170.962 L
216.413 169.895 L
216.8 168.819 L
217.188 167.822 L
217.575 166.901 L
217.962 165.378 L
218.35 163.741 L
218.738 161.154 L
219.125 160.036 L
219.512 157.602 L
219.9 157.011 L
220.288 156.594 L
220.675 155.839 L
221.063 155.137 L
221.45 154.622 L
221.837 151.876 L
222.225 150.124 L
222.613 148.918 L
223 149.047 L
223.387 147.729 L
223.775 147.133 L
224.163 146.165 L
224.55 146.079 L
224.938 144.734 L
225.325 144.499 L
225.712 144.545 L
226.1 144.818 L
226.488 144.368 L
226.875 144.182 L
227.262 144.344 L
227.65 145.066 L
228.038 145.243 L
228.425 145.27 L
228.813 145.484 L
229.2 144.964 L
229.587 145.237 L
229.975 146.67 L
230.363 146.973 L
230.75 147.519 L
231.137 148.089 L
231.525 149.645 L
231.913 149.502 L
232.3 150.25 L
232.688 150.93 L
233.075 151.292 L
233.462 150.61 L
233.85 151.374 L
234.238 153.111 L
234.625 152.047 L
235.012 150.819 L
235.4 150.751 L
235.788 151.022 L
236.175 151.76 L
236.563 153.458 L
236.95 154.3 L
237.337 154.688 L
237.725 155.135 L
238.113 155.544 L
238.5 157.242 L
238.887 157.84 L
239.275 159.189 L
239.663 160.22 L
240.05 160.871 L
240.438 162.301 L
240.825 163.012 L
241.212 162.742 L
241.6 164.778 L
241.988 166.036 L
242.375 166.983 L
242.762 166.291 L
243.15 166.649 L
243.538 166.182 L
243.925 165.739 L
244.313 164.814 L
244.7 164.44 L
245.087 166.514 L
245.475 165.876 L
245.863 164.239 L
246.25 164.666 L
246.637 164.78 L
247.025 164.764 L
247.413 165.27 L
247.8 165.882 L
248.188 165.155 L
248.575 165.807 L
248.962 165.807 L
249.35 165.807 L
249.738 164.874 L
250.125 164.603 L
250.512 164.057 L
250.9 164.174 L
251.288 163.11 L
251.675 162.758 L
252.063 162.38 L
252.45 162.593 L
252.837 162.593 L
253.225 163.707 L
253.613 163.551 L
254 162.368 L
254.387 162.981 L
254.775 162.875 L
255.163 164.276 L
255.55 165.117 L
255.938 165.66 L
256.325 164.24 L
256.712 163.642 L
257.1 162.728 L
257.487 162.281 L
257.875 162.281 L
258.263 160.624 L
258.65 160.133 L
259.038 159.647 L
259.425 158.839 L
259.813 158.605 L
260.2 157.953 L
260.587 157.93 L
260.975 158.359 L
261.362 157.491 L
261.75 156.928 L
262.138 156.526 L
262.525 158.201 L
262.913 158.113 L
263.3 159.654 L
263.688 160.775 L
264.075 160.775 L
264.462 160.775 L
264.85 160.229 L
265.237 160.434 L
265.625 160.685 L
266.013 160.201 L
266.4 160.272 L
266.788 159.715 L
267.175 157.543 L
267.563 158.183 L
267.95 158.755 L
268.337 157.462 L
268.725 157.462 L
269.112 156.585 L
269.5 156.738 L
269.888 156.55 L
270.275 156.822 L
270.663 156.939 L
271.05 156.881 L
271.438 156.889 L
271.825 156.821 L
272.212 157.044 L
272.6 156.043 L
272.987 155.498 L
273.375 156.285 L
273.763 156.849 L
274.15 156.733 L
274.538 158.14 L
274.925 156.792 L
275.313 156.287 L
275.7 155.557 L
276.087 156.512 L
276.475 156.209 L
276.862 155.917 L
277.25 156.247 L
277.638 156.364 L
278.025 157.763 L
278.413 158.485 L
278.8 157.969 L
279.188 158.466 L
279.575 158.712 L
279.962 159.637 L
280.35 160.012 L
280.737 159.975 L
281.125 160.14 L
281.513 161.197 L
281.9 161.024 L
282.288 160.287 L
282.675 160.316 L
283.063 159.06 L
283.45 158.529 L
283.837 158.635 L
284.225 158.881 L
284.612 157.889 L
285 158.162 L
285.388 159.116 L
285.775 158.617 L
286.163 158.52 L
286.55 158.52 L
286.938 159.71 L
287.325 159.603 L
287.712 157.96 L
288.1 158.59 L
288.487 160.045 L
288.875 161.413 L
289.263 161.129 L
289.65 161.589 L
290.038 161.093 L
290.425 160.771 L
290.813 161.755 L
291.2 162.344 L
291.587 162.897 L
291.975 163.685 L
292.362 164.441 L
292.75 164.168 L
293.138 163.04 L
293.525 162.514 L
293.913 162.483 L
294.3 161.183 L
294.688 162.896 L
295.075 162.174 L
295.462 162.466 L
295.85 161.814 L
296.237 162.769 L
296.625 163.48 L
297.013 163.724 L
297.4 163.116 L
297.788 163.375 L
298.175 162.448 L
298.563 163.062 L
298.95 162.906 L
299.337 164.077 L
299.725 163.258 L
300.112 162.068 L
300.5 162.704 L
300.888 162.316 L
301.275 161.928 L
301.663 162.276 L
302.05 161.785 L
302.438 162.861 L
302.825 163.288 L
303.212 164.033 L
303.6 164.162 L
303.987 164.301 L
304.375 164.876 L
304.763 164.733 L
305.15 165.356 L
305.538 166.667 L
305.925 167.805 L
306.313 168.955 L
306.7 170.01 L
307.087 171.021 L
307.475 172.677 L
307.862 173.44 L
308.25 172.087 L
308.638 172.142 L
309.025 173.452 L
309.413 173.335 L
309.8 173.264 L
310.188 173.468 L
310.575 173.749 L
310.962 172.938 L
311.35 173.377 L
311.737 171.887 L
312.125 171.321 L
312.513 170.36 L
312.9 169.836 L
313.288 170.791 L
313.675 171.492 L
314.063 172.72 L
314.45 171.3 L
314.837 170.949 L
315.225 172.539 L
315.612 172.869 L
316 172.324 L
316.388 172.313 L
316.775 172.08 L
317.163 172.25 L
317.55 172.189 L
317.938 173.212 L
318.325 174.223 L
318.712 175.027 L
319.1 174.648 L
319.487 175.294 L
319.875 176.885 L
320.263 176.986 L
320.65 177.103 L
321.038 176.783 L
321.425 176.658 L
321.813 176.27 L
322.2 177.007 L
322.587 177.698 L
322.975 177.597 L
323.362 177.468 L
323.75 178.008 L
324.138 177.996 L
324.525 178.878 L
324.913 178.358 L
325.3 177.515 L
325.688 176.803 L
326.075 176.689 L
326.462 176.125 L
326.85 174.869 L
327.237 173.638 L
327.625 173.343 L
328.013 174.695 L
328.4 174.395 L
328.788 173.584 L
329.175 174.053 L
329.563 174.781 L
329.95 175.599 L
330.337 175.341 L
330.725 175.127 L
331.112 174.711 L
331.5 174.364 L
331.888 176.159 L
332.275 177.119 L
332.663 178.313 L
333.05 177.495 L
333.438 176.325 L
333.825 175.343 L
334.212 176.399 L
334.6 176.216 L
334.987 175.97 L
335.375 176.238 L
335.763 176.784 L
336.15 177.173 L
336.538 177.875 L
336.925 177.581 L
337.313 176.065 L
337.7 175.247 L
338.087 174.342 L
338.475 174.24 L
338.862 173.202 L
339.25 172.944 L
339.638 172.843 L
340.025 172.031 L
340.413 171.468 L
340.8 171.341 L
341.188 171.448 L
341.575 171.426 L
341.962 170.689 L
342.35 169.859 L
342.737 170.541 L
343.125 169.723 L
343.513 168.969 L
343.9 168.981 L
344.288 167.324 L
344.675 167.651 L
345.063 168.306 L
345.45 168.093 L
345.837 167.703 L
346.225 167.212 L
346.612 167.212 L
347 168.804 L
347.388 169.175 L
347.775 167.538 L
348.163 168.111 L
348.55 167.762 L
348.938 167.107 L
349.325 165.918 L
349.712 164.69 L
350.1 165.207 L
350.487 165.39 L
350.875 165.484 L
351.263 166.17 L
351.65 165.215 L
352.038 164.769 L
352.425 164.193 L
352.813 164.466 L
353.2 165.83 L
353.587 166.13 L
353.975 166.13 L
354.362 166.887 L
354.75 165.561 L
355.138 166.216 L
355.525 165.916 L
355.913 165.772 L
356.3 164.42 L
356.688 164.587 L
357.075 165.952 L
357.462 165.747 L
357.85 165.436 L
358.237 164.23 L
358.625 163.266 L
359.013 163.424 L
359.4 162.772 L
359.788 162.407 L
360.175 162.983 L
360.563 163.02 L
360.95 163.254 L
361.337 164.385 L
361.725 163.506 L
362.112 162.729 L
362.5 161.372 L
362.888 162.463 L
363.275 162.463 L
363.663 161.253 L
364.05 161.783 L
364.438 160.82 L
364.825 160.128 L
365.212 159.479 L
365.6 159.391 L
365.987 157.508 L
366.375 156.34 L
366.763 154.965 L
367.15 152.839 L
367.538 152.97 L
367.925 151.17 L
368.313 151.021 L
368.7 149.957 L
369.087 150.489 L
369.475 149.875 L
369.862 147.475 L
370.25 146.549 L
370.638 144.961 L
371.025 144.388 L
371.413 143.986 L
371.8 143.941 L
372.188 142.896 L
372.575 142.227 L
372.962 140.453 L
373.35 138.504 L
373.737 136.249 L
374.125 134.892 L
374.513 133.597 L
374.9 131.011 L
375.288 129.187 L
375.675 127.876 L
376.063 127.662 L
376.45 127.662 L
376.837 126.148 L
377.225 125.171 L
377.612 124.739 L
378 123.98 L
378.388 123.927 L
378.775 121.417 L
379.163 121.077 L
379.55 120.4 L
379.938 118.47 L
380.325 116.915 L
380.712 115.521 L
381.1 115.344 L
381.487 113.872 L
381.875 113.006 L
382.263 111.589 L
382.65 110.134 L
383.038 108.612 L
383.425 108.692 L
383.813 107.463 L
384.2 105.598 L
384.587 104.817 L
384.975 104.25 L
385.362 103.09 L
385.75 103.288 L
386.138 103.038 L
386.525 102.694 L
386.913 103.513 L
387.3 102.696 L
387.688 102.132 L
388.075 101.628 L
388.462 101.492 L
388.85 100.693 L
389.237 100.823 L
389.625 101.576 L
390.013 101.153 L
390.4 100.88 L
390.788 99.945 L
391.175 99.13 L
391.563 97.932 L
391.95 98.055 L
392.337 97.224 L
392.725 97.129 L
393.112 97.168 L
393.5 97.661 L
393.888 98.26 L
394.275 98.215 L
394.663 99.547 L
395.05 100.025 L
395.438 99.507 L
395.825 99.174 L
396.212 98.288 L
396.6 98.14 L
396.987 98.876 L
397.375 97.739 L
397.763 97.174 L
398.15 96.67 L
398.538 97.161 L
398.925 95.599 L
399.313 95.47 L
399.7 96.191 L
400.087 97.262 L
400.475 97.217 L
400.862 95.058 L
401.25 96.801 L
401.638 98.199 L
402.025 97.903 L
402.413 97.285 L
402.8 97.513 L
403.188 97.49 L
403.575 97.854 L
403.962 99.373 L
404.35 101.323 L
404.737 102.236 L
405.125 102.372 L
405.513 102.502 L
405.9 103.632 L
406.288 103.386 L
406.675 102.97 L
407.063 103.941 L
407.45 104.313 L
407.837 103.998 L
408.225 103.572 L
408.612 103.273 L
409 103.348 L
409.388 103.601 L
409.775 104.95 L
410.163 105.71 L
410.55 106.194 L
410.938 105.956 L
411.325 106.036 L
411.712 106.204 L
412.1 107.258 L
412.487 108.089 L
412.875 108.698 L
413.263 107.647 L
413.65 106.742 L
414.038 106.303 L
414.425 105.14 L
414.813 104.706 L
415.2 105.003 L
415.587 104.651 L
415.975 104.251 L
416.362 103.967 L
416.75 102.613 L
417.138 103.639 L
417.525 104.663 L
417.913 105.22 L
418.3 104.871 L
418.688 104.784 L
419.075 105.244 L
419.462 104.711 L
419.85 104.376 L
420.237 104.516 L
420.625 104.191 L
421.013 102.534 L
421.4 101.412 L
421.788 102.12 L
422.175 102.939 L
422.563 103.805 L
422.95 103.846 L
423.337 104.382 L
423.725 104.105 L
424.112 102.237 L
424.5 101.992 L
424.888 103.219 L
425.275 103.711 L
425.663 103.098 L
426.05 103.688 L
426.438 104.817 L
426.825 104.42 L
427.212 104.663 L
427.6 105.733 L
427.987 106.498 L
428.375 107.206 L
428.763 106.479 L
429.15 107.021 L
429.538 107.052 L
429.925 108.058 L
430.313 108.51 L
430.7 108.761 L
431.087 109.187 L
431.475 109.187 L
431.862 109.142 L
432.25 109.187 L
432.638 109.836 L
433.025 111.436 L
433.413 112.12 L
433.8 113.551 L
434.188 114.471 L
434.575 114.683 L
434.962 115.863 L
435.35 116.849 L
435.737 117.355 L
436.125 118.118 L
436.513 118.475 L
436.9 117.994 L
437.288 118.682 L
437.675 118.485 L
438.063 118.718 L
438.45 119.996 L
438.837 120.273 L
439.225 121.509 L
439.612 121.304 L
440 122.369 L
440.388 122.835 L
440.775 123.462 L
441.163 123.631 L
441.55 123.291 L
441.938 123.091 L
442.325 123.02 L
442.712 123.333 L
443.1 123.142 L
443.487 123.376 L
443.875 124.202 L
444.263 123.952 L
444.65 123.679 L
445.038 123.679 L
445.425 124.378 L
445.813 124.593 L
446.2 123.727 L
446.587 123.911 L
446.975 124.522 L
447.362 124.679 L
447.75 125.194 L
448.138 125.138 L
448.525 125.496 L
448.913 124.939 L
449.3 124.908 L
449.688 124.896 L
450.075 124.662 L
450.462 124.401 L
450.85 124.827 L
451.237 126.099 L
451.625 125.177 L
452.013 124.953 L
452.4 123.327 L
452.788 122.454 L
453.175 121.647 L
453.563 120.919 L
453.95 120.042 L
454.337 120.382 L
454.725 119.504 L
455.112 118.723 L
455.5 119.844 L
455.888 119.258 L
456.275 119.52 L
456.663 120.302 L
457.05 119.688 L
457.438 119.402 L
457.825 119.961 L
458.212 119.398 L
458.6 119.018 L
458.987 118.295 L
459.375 118.545 L
459.763 118.311 L
460.15 118.732 L
460.538 118.933 L
460.925 119.494 L
461.313 119.739 L
461.7 119.359 L
462.087 118.226 L
462.475 117.895 L
462.862 117.549 L
463.25 116.855 L
463.638 116.855 L
464.025 116.816 L
464.413 116.211 L
464.8 116.085 L
465.188 115.509 L
465.575 115.36 L
465.962 115.99 L
466.35 115.305 L
466.737 114.923 L
467.125 114.309 L
467.513 113.932 L
467.9 113.292 L
468.288 113.133 L
468.675 113.404 L
469.063 112.282 L
469.45 111.674 L
469.837 111.345 L
470.225 111.971 L
470.612 111.253 L
471 109.972 L
471.388 110.819 L
471.775 110.224 L
472.163 111.344 L
472.55 111.682 L
472.938 111.772 L
473.325 111.507 L
473.712 112.511 L
474.1 113.002 L
474.487 113.752 L
474.875 113.825 L
475.263 112.369 L
475.65 112.065 L
476.038 112.194 L
476.425 111.095 L
476.813 110.563 L
477.2 110.284 L
477.587 109.9 L
477.975 111.035 L
478.362 110.828 L
478.75 111.052 L
479.138 110.853 L
479.525 111.449 L
479.913 112.852 L
480.3 113.263 L
480.688 113.186 L
481.075 112.818 L
481.462 114.029 L
481.85 114.711 L
482.237 115.221 L
482.625 115.319 L
483.013 115.046 L
483.4 114.482 L
483.788 114.55 L
484.175 114.062 L
484.563 114.188 L
484.95 114.524 L
485.337 114.268 L
485.725 112.812 L
486.112 113.144 L
486.5 112.165 L
486.888 112.188 L
487.275 111.975 L
487.663 112.793 L
488.05 113.606 L
488.438 113.023 L
488.825 113.809 L
489.212 115.311 L
489.6 116.692 L
489.987 116.939 L
490.375 117.142 L
490.763 116.961 L
491.15 117.176 L
491.538 117.389 L
491.925 117.184 L
492.313 118.719 L
492.7 118.681 L
493.087 119.897 L
493.475 119.365 L
493.862 119.727 L
494.25 118.469 L
494.638 118.544 L
495.025 120.379 L
495.413 121.072 L
495.8 120.991 L
496.188 122.537 L
496.575 121.841 L
496.962 122.653 L
497.35 123.067 L
497.737 121.649 L
498.125 122.366 L
498.513 122.834 L
498.9 123.397 L
499.288 122.128 L
499.675 120.181 L
500.063 119.614 L
500.45 120.041 L
500.837 120.95 L
501.225 120.923 L
501.612 121.077 L
502 121.451 L
502.388 121.721 L
502.775 122.121 L
503.163 122.685 L
503.55 123.152 L
503.938 122.429 L
504.325 122.429 L
504.712 122.532 L
505.1 123.286 L
505.487 123.733 L
505.875 124.015 L
506.263 124.802 L
506.65 125.055 L
507.038 124.891 L
507.425 124.797 L
507.813 124.021 L
508.2 123.868 L
508.587 124.555 L
508.975 122.024 L
509.362 120.519 L
509.75 120.984 L
510.138 121.687 L
510.525 121.817 L
510.913 120.787 L
511.3 121.488 L
511.688 121.296 L
512.075 119.635 L
512.463 120.398 L
512.85 121.849 L
513.237 122.31 L
513.625 122.089 L
514.013 122.821 L
514.4 123.492 L
514.787 121.656 L
515.175 122.191 L
515.563 121.885 L
515.95 121.216 L
516.338 122.239 L
516.725 122.239 L
517.112 122.165 L
517.5 123.419 L
517.888 123.621 L
518.275 123.416 L
518.662 122.795 L
519.05 122.766 L
519.438 123.097 L
519.825 123.613 L
520.213 124.42 L
520.6 125.331 L
520.987 124.824 L
521.375 124.807 L
521.763 123.624 L
522.15 123.256 L
522.537 123.304 L
522.925 123.133 L
523.313 122.272 L
523.7 123.672 L
524.088 124.196 L
524.475 124.781 L
524.862 124.984 L
525.25 125.282 L
525.638 126.1 L
526.025 125.52 L
526.412 124.389 L
526.8 124.918 L
527.188 124.089 L
527.575 124.643 L
527.963 125.124 L
528.35 123.935 L
528.737 124.922 L
529.125 125.013 L
529.513 124.199 L
529.9 123.465 L
530.287 122.624 L
530.675 122.416 L
531.063 121.612 L
531.45 121.622 L
531.838 121.966 L
532.225 121.782 L
532.612 120.203 L
533 118.861 L
533.388 118.802 L
533.775 118.071 L
534.162 117.17 L
534.55 117.652 L
534.938 116.527 L
535.325 117.762 L
535.713 117.204 L
536.1 116.834 L
536.487 116.992 L
536.875 116.757 L
537.263 116.552 L
537.65 115.585 L
538.037 114.971 L
538.425 116.304 L
538.813 117.036 L
539.2 117.073 L
539.588 115.999 L
539.975 115.089 L
540.362 114.229 L
540.75 113.104 L
541.138 112.574 L
541.525 113.874 L
541.912 114.986 L
542.3 115.22 L
542.688 114.45 L
543.075 114.061 L
543.463 112.891 L
543.85 112.835 L
544.237 112.835 L
544.625 111.16 L
545.013 110.534 L
545.4 109.613 L
545.787 109.817 L
546.175 110.25 L
546.563 110.786 L
546.95 110.586 L
547.338 110.114 L
547.725 109.93 L
548.112 109.04 L
548.5 109.962 L
548.888 109.972 L
549.275 110.108 L
549.662 110.771 L
550.05 111.023 L
550.438 111.208 L
550.825 110.75 L
551.213 111.166 L
551.6 111.38 L
551.987 111.903 L
552.375 111.498 L
552.763 111.381 L
553.15 110.738 L
553.537 111.659 L
553.925 111.555 L
554.313 111.948 L
554.7 112.206 L
555.088 111.533 L
555.475 112.27 L
555.862 112.702 L
556.25 112.989 L
556.638 113.921 L
557.025 113.847 L
557.412 114.432 L
557.8 113.75 L
558.188 112.973 L
558.575 113.088 L
558.963 114.539 L
559.35 115.975 L
559.737 115.384 L
560.125 114.547 L
560.513 115.673 L
560.9 116.69 L
561.287 115.806 L
561.675 114.013 L
562.063 113.604 L
562.45 113.555 L
562.838 115.214 L
563.225 117.188 L
563.612 116.311 L
564 115.933 L
564.388 116.147 L
564.775 116.409 L
565.162 116.385 L
565.55 116.109 L
565.938 117.062 L
566.325 117.509 L
566.713 118.239 L
567.1 119.089 L
567.487 119.529 L
567.875 120.584 L
568.263 118.968 L
568.65 119.41 L
569.037 118.679 L
569.425 118.702 L
569.813 120.51 L
570.2 121.422 L
570.588 122.151 L
570.975 122.843 L
571.362 122.512 L
571.75 122.512 L
572.138 121.604 L
572.525 122.621 L
572.912 122.573 L
573.3 122.851 L
573.688 122.76 L
574.075 122.003 L
574.463 123.526 L
574.85 123.956 L
575.237 124.577 L
575.625 124.798 L
576.013 125.629 L
576.4 125.188 L
576.787 125.128 L
577.175 124.998 L
577.563 125.598 L
577.95 125.118 L
578.338 124.972 L
578.725 124.749 L
579.112 123.949 L
579.5 123.238 L
579.888 123.441 L
580.275 123.834 L
580.662 124.034 L
581.05 124.384 L
581.438 125.67 L
581.825 125.627 L
582.213 127.483 L
582.6 127.366 L
582.987 126.594 L
583.375 127.434 L
583.763 127.227 L
584.15 127.169 L
584.537 127.029 L
584.925 127.728 L
585.313 128.527 L
585.7 128.667 L
586.088 129.678 L
586.475 129.744 L
586.862 129.475 L
587.25 129.148 L
587.638 129.534 L
588.025 129.878 L
588.412 130.02 L
588.8 130.752 L
589.188 130.781 L
589.575 130.625 L
589.963 130.999 L
590.35 132.129 L
590.737 130.608 L
591.125 131.221 L
591.513 129.736 L
591.9 129.985 L
592.287 129.576 L
592.675 130.143 L
593.063 129.188 L
593.45 129.816 L
593.838 130.384 L
594.225 128.95 L
594.612 129.151 L
595 127.516 L
595.388 128.05 L
595.775 126.986 L
596.162 127.271 L
596.55 127.609 L
596.938 127.352 L
597.325 127.561 L
597.713 128.818 L
598.1 128.555 L
598.487 127.808 L
598.875 128.686 L
599.263 129.303 L
599.65 128.751 L
600.037 128.014 L
600.425 127.773 L
600.813 127.119 L
601.2 127.352 L
601.588 128.302 L
601.975 127.069 L
602.362 126.241 L
602.75 125.574 L
603.138 124.652 L
603.525 123.573 L
603.912 123.771 L
604.3 123.992 L
604.688 123.482 L
605.075 123.696 L
605.463 122.994 L
605.85 120.755 L
606.237 120.886 L
606.625 120.021 L
607.013 119.151 L
607.4 118.237 L
607.787 118.77 L
608.175 118.401 L
608.563 118.057 L
608.95 117.824 L
609.338 116.202 L
609.725 116.024 L
610.112 115.031 L
610.5 115.098 L
610.888 114.433 L
611.275 115.383 L
611.662 116.351 L
612.05 116.473 L
612.438 116.007 L
612.825 115.949 L
613.213 115.599 L
613.6 117.294 L
613.987 117.813 L
614.375 117.707 L
614.763 119.096 L
615.15 119.446 L
615.537 118.988 L
615.925 119.075 L
616.313 118.601 L
616.7 118.96 L
617.088 120.177 L
617.475 119.466 L
617.862 120.571 L
618.25 121.964 L
618.638 121.421 L
619.025 122.129 L
619.412 122.197 L
619.8 122.044 L
620.188 121.651 L
620.575 121.475 L
620.963 120.216 L
621.35 119.309 L
621.737 119.867 L
622.125 119.541 L
622.513 119.763 L
622.9 120.336 L
623.287 122.116 L
623.675 122.328 L
624.063 122.727 L
624.45 122.218 L
624.838 122.547 L
625.225 122.329 L
625.612 122.084 L
626 121.953 L
626.388 123.581 L
626.775 124.081 L
627.162 124.884 L
627.55 124.235 L
627.938 124.686 L
628.325 124.511 L
628.713 125.009 L
629.1 125.695 L
629.487 125.097 L
629.875 124.711 L
630.263 125.37 L
630.65 125.735 L
631.037 126.925 L
631.425 126.271 L
631.813 126.161 L
632.2 126.841 L
632.588 127.378 L
632.975 127.378 L
633.362 125.196 L
633.75 125.047 L
634.138 124.088 L
634.525 123.817 L
634.912 123.057 L
635.3 123.152 L
635.688 122.843 L
636.075 121.842 L
636.463 121.734 L
636.85 123.091 L
637.237 122.886 L
637.625 122.395 L
638.013 120.346 L
638.4 119.507 L
638.787 119.384 L
639.175 119.698 L
639.563 119.979 L
639.95 120.672 L
640.338 121.589 L
640.725 122.174 L
641.112 122.457 L
641.5 121.404 L
641.888 122.141 L
642.275 122.125 L
642.662 123.085 L
643.05 122.648 L
643.438 122.693 L
643.825 122.707 L
644.213 123.563 L
644.6 122.949 L
644.987 123.728 L
645.375 123.902 L
645.763 124.426 L
646.15 122.864 L
646.537 123.091 L
646.925 123.518 L
647.313 124.199 L
647.7 123.789 L
648.088 123.108 L
648.475 122.376 L
648.862 121.285 L
649.25 121.359 L
649.638 122.493 L
650.025 122.86 L
650.412 122.201 L
650.8 120.875 L
651.188 120.748 L
651.575 120.829 L
651.963 121.266 L
652.35 121.331 L
652.737 122.805 L
653.125 124.286 L
653.513 124.081 L
653.9 124.209 L
654.287 123.48 L
654.675 122.789 L
655.063 122.334 L
655.45 121.555 L
655.838 123.685 L
656.225 123.563 L
656.612 121.77 L
657 122.046 L
657.388 121.599 L
657.775 121.774 L
658.162 121.828 L
658.55 123.287 L
658.938 125.545 L
659.325 125.827 L
659.713 125.081 L
660.1 124.772 L
660.487 124.086 L
660.875 124.539 L
661.263 124.375 L
661.65 123.544 L
662.037 123.66 L
662.425 123.71 L
662.813 124.03 L
663.2 123.984 L
663.588 124.352 L
663.975 124.194 L
664.362 123.568 L
664.75 122.789 L
665.138 123.145 L
665.525 122.163 L
665.912 122.337 L
666.3 121.564 L
666.688 120.697 L
667.075 120.483 L
667.463 120.698 L
667.85 120.991 L
668.237 121.225 L
668.625 122.434 L
669.013 122.172 L
669.4 121.279 L
669.787 121.279 L
670.175 121.509 L
670.563 121.706 L
670.95 121.859 L
671.338 122.688 L
671.725 122.005 L
672.112 123.211 L
672.5 122.081 L
672.888 120.583 L
673.275 120.218 L
673.662 120.954 L
674.05 120.882 L
674.438 120.837 L
674.825 120.865 L
675.213 122.751 L
675.6 121.836 L
675.987 122.044 L
676.375 120.83 L
676.763 120.759 L
677.15 119.896 L
677.537 119.99 L
677.925 120.849 L
678.313 119.127 L
678.7 116.986 L
679.088 117.117 L
679.475 117.93 L
679.862 117.605 L
680.25 118.058 L
680.638 117.73 L
681.025 118.96 L
681.412 120.441 L
681.8 120.171 L
682.188 119.151 L
682.575 117.678 L
682.963 118.029 L
683.35 117.319 L
683.737 116.616 L
684.125 117.74 L
684.513 117.987 L
684.9 118.176 L
685.287 118.188 L
685.675 117.912 L
686.063 119.154 L
686.45 119.933 L
686.838 118.932 L
687.225 118.301 L
687.612 118.66 L
688 118.987 L
688.388 119.075 L
688.775 118.314 L
689.162 119.324 L
689.55 120.032 L
689.938 121.148 L
690.325 121.362 L
690.713 122.928 L
691.1 123.396 L
691.487 123.349 L
691.875 121.881 L
692.263 122.128 L
692.65 122.163 L
693.037 122.984 L
693.425 121.694 L
693.813 122.126 L
694.2 121.963 L
694.588 121.883 L
694.975 120.305 L
695.362 119.561 L
695.75 121.308 L
696.138 121.154 L
696.525 121.089 L
696.912 121.58 L
697.3 122.83 L
697.688 122.625 L
698.075 123.041 L
698.463 123.954 L
698.85 124.195 L
699.237 124.903 L
699.625 125.236 L
700.013 126.406 L
700.4 126.293 L
700.787 125.11 L
701.175 123.492 L
701.563 123.216 L
701.95 122.693 L
702.338 122.764 L
702.725 123.886 L
703.112 123.734 L
703.5 123.559 L
703.888 122.406 L
704.275 122.468 L
704.662 121.561 L
705.05 121.412 L
705.438 121.681 L
705.825 121.12 L
706.213 120.207 L
706.6 121.04 L
706.987 122.732 L
707.375 122.234 L
707.763 122.374 L
708.15 122.579 L
708.537 123.287 L
708.925 121.789 L
709.313 120.32 L
709.7 118.707 L
710.088 118.432 L
710.475 116.996 L
710.862 116.217 L
711.25 116.217 L
711.638 116.731 L
712.025 116.876 L
712.412 117.553 L
712.8 116.615 L
713.188 117.407 L
713.575 116.853 L
713.963 116.935 L
714.35 118.009 L
714.737 117.915 L
715.125 118.228 L
715.513 117.231 L
715.9 116.972 L
716.287 116.321 L
716.675 117.412 L
717.063 116.945 L
717.45 116.886 L
717.838 115.661 L
718.225 114.667 L
718.612 113.34 L
719 112.134 L
719.388 112.775 L
719.775 111.557 L
720.162 111.355 L
720.55 111.603 L
720.938 112.434 L
721.325 113.096 L
721.713 114.483 L
722.1 115.272 L
722.487 113.881 L
722.875 113.793 L
723.263 114.482 L
723.65 115.208 L
724.037 114.846 L
724.425 115.394 L
724.813 115.989 L
725.2 116.12 L
725.588 115.699 L
725.975 117.128 L
726.362 116.946 L
726.75 116.439 L
727.138 116.195 L
727.525 114.909 L
727.912 113.772 L
728.3 113.635 L
728.688 114.483 L
729.075 114.058 L
729.463 115.352 L
729.85 115.114 L
730.237 115.371 L
730.625 115.458 L
731.013 115.195 L
731.4 115.074 L
731.787 115.565 L
732.175 115.342 L
732.563 115.483 L
732.95 114.916 L
733.338 115.281 L
733.725 115.408 L
734.112 114.84 L
734.5 114.852 L
734.888 114.514 L
735.275 113.933 L
735.662 115.56 L
736.05 116.151 L
736.438 114.877 L
736.825 113.619 L
737.213 113.882 L
737.6 114.611 L
737.987 115.032 L
738.375 115.301 L
738.763 115.768 L
739.15 114.083 L
739.537 113.097 L
739.925 112.55 L
740.313 112.602 L
740.7 112.242 L
741.088 111.856 L
741.475 110.658 L
741.862 110.921 L
742.25 111.085 L
742.638 112.226 L
743.025 111.711 L
743.412 111.582 L
743.8 111.758 L
744.188 111.435 L
744.575 110.644 L
744.963 111.92 L
745.35 112.938 L
745.737 111.849 L
746.125 111.703 L
746.513 110.893 L
746.9 111.614 L
747.287 112.269 L
747.675 111.877 L
748.063 112.03 L
748.45 110.496 L
748.838 110.668 L
749.225 109.936 L
749.612 111.469 L
750 111.024 L
750.388 110.16 L
750.775 109.772 L
751.162 109.19 L
751.55 107.627 L
751.938 107.468 L
752.325 108.298 L
752.713 108.757 L
753.1 109 L
753.487 109.156 L
753.875 109.651 L
754.263 109.182 L
754.65 109.345 L
755.037 108.588 L
755.425 107.681 L
755.813 107.244 L
756.2 106.581 L
756.588 107.044 L
756.975 106.264 L
757.362 106.657 L
757.75 106.194 L
758.138 106.739 L
758.525 105.676 L
758.912 106.054 L
759.3 107.65 L
759.688 107.89 L
760.075 107.79 L
760.463 107.066 L
760.85 107.769 L
761.237 108.359 L
761.625 107.825 L
762.013 109.031 L
762.4 107.501 L
762.787 107.719 L
763.175 106.725 L
763.563 106.688 L
763.95 107.309 L
764.338 108.1 L
764.725 106.465 L
765.112 105.999 L
765.5 105.6 L
765.888 105.685 L
766.275 105.492 L
766.662 105.058 L
767.05 104.776 L
767.438 105.241 L
767.825 104.603 L
768.213 105.227 L
768.6 105.507 L
768.987 105.577 L
769.375 103.893 L
769.763 104.143 L
770.15 103.406 L
770.537 103.489 L
770.925 103.882 L
771.313 103.745 L
771.7 102.996 L
772.088 101.941 L
772.475 101.52 L
772.862 100.748 L
773.25 101.372 L
773.638 100.914 L
774.025 101.663 L
774.412 102.055 L
774.8 102.434 L
775.188 102.188 L
775.575 102.9 L
775.963 103.971 L
776.35 104.298 L
776.737 104.64 L
777.125 104.057 L
777.513 104.754 L
777.9 104.784 L
778.287 105.45 L
778.675 105.594 L
779.063 104.892 L
779.45 105.302 L
779.838 105.956 L
780.225 106.68 L
780.612 105.51 L
781 105.435 L
781.388 105.289 L
781.775 103.429 L
782.162 104.554 L
782.55 103.852 L
782.938 103.914 L
783.325 103.995 L
783.713 103.231 L
784.1 102.717 L
784.487 102.858 L
784.875 102.726 L
785.263 102.962 L
785.65 102.371 L
786.037 102.115 L
786.425 102.139 L
786.813 102.767 L
787.2 102.877 L
787.588 104.176 L
787.975 104.984 L
788.362 105.218 L
788.75 104.9 L
789.138 104.852 L
789.525 104.804 L
789.912 105.821 L
790.3 106.003 L
790.688 106.763 L
791.075 107.48 L
791.463 107.9 L
791.85 107.833 L
792.237 107.833 L
792.625 108.036 L
793.013 108.707 L
793.4 108.909 L
793.787 108.75 L
794.175 108.816 L
794.563 108.625 L
794.95 109.342 L
795.338 108.486 L
795.725 108.342 L
796.112 108.398 L
796.5 109.246 L
796.888 109.288 L
797.275 108.726 L
797.662 108.469 L
798.05 107.712 L
798.438 107.981 L
798.825 108.472 L
799.213 108.401 L
799.6 107.916 L
799.987 107.582 L
800.375 108.131 L
800.763 107.551 L
801.15 107.581 L
801.537 107.941 L
801.925 107.341 L
802.313 108.095 L
802.7 108.523 L
803.088 109.133 L
803.475 110.181 L
803.862 112.161 L
804.25 112.215 L
804.638 111.631 L
805.025 111.076 L
805.412 111.68 L
805.8 112.997 L
806.188 113.208 L
806.575 112.339 L
806.963 113.067 L
807.35 112.988 L
807.737 112.243 L
808.125 112.684 L
808.513 112.438 L
808.9 112.314 L
809.287 111.864 L
809.675 111.748 L
810.063 111.696 L
810.45 110.994 L
810.838 111.682 L
811.225 112.376 L
811.612 112.531 L
812 113.022 L
812.388 113.679 L
812.775 112.275 L
813.162 112.343 L
813.55 112.303 L
813.938 111.775 L
814.325 111.697 L
814.713 111.13 L
815.1 111.475 L
815.487 111.645 L
815.875 111.261 L
816.263 110.465 L
816.65 112.704 L
817.037 112.435 L
817.425 112.543 L
817.813 112.748 L
818.2 112.3 L
818.588 111.901 L
818.975 111.29 L
819.362 111.088 L
819.75 111.919 L
820.138 112.23 L
820.525 112.431 L
820.912 112.099 L
821.3 112.099 L
821.688 111.885 L
822.075 111.277 L
822.463 111.584 L
822.85 111.755 L
823.237 112.676 L
823.625 111.086 L
824.013 111.502 L
824.4 112.606 L
824.787 113.276 L
825.175 112.843 L
825.563 112.083 L
825.95 112.512 L
826.338 112.789 L
826.725 112.243 L
827.112 111.703 L
827.5 111.372 L
827.888 111.546 L
828.275 112.273 L
828.662 113.091 L
829.05 113.887 L
829.438 113.669 L
829.825 114.034 L
830.213 113.968 L
830.6 113.319 L
830.987 113.783 L
831.375 115.529 L
831.763 116.307 L
832.15 116.6 L
832.537 116.572 L
832.925 116.267 L
833.313 116.162 L
833.7 117.402 L
834.088 117.536 L
834.475 118.221 L
834.862 117.93 L
835.25 117.678 L
835.638 118.378 L
836.025 117.782 L
836.412 116.009 L
836.8 117.489 L
837.188 117.223 L
837.575 116.927 L
837.963 117.884 L
838.35 117.985 L
838.737 118.673 L
839.125 118.922 L
839.513 119.456 L
839.9 119.333 L
840.287 118.955 L
840.675 119.411 L
841.063 119.008 L
841.45 118.528 L
841.838 118.591 L
842.225 118.918 L
842.612 117.824 L
843 116.023 L
843.388 116.083 L
843.775 117.249 L
844.162 117.463 L
844.55 116.781 L
844.938 116.88 L
845.325 116.557 L
845.713 117.322 L
846.1 117.24 L
846.487 116.613 L
846.875 116.932 L
847.263 117.229 L
847.65 116.557 L
848.037 116.762 L
848.425 115.875 L
848.813 114.801 L
849.2 114.865 L
849.588 113.798 L
849.975 114.116 L
850.362 113.471 L
850.75 112.947 L
851.138 112.109 L
851.525 111.566 L
851.912 110.875 L
852.3 111.137 L
852.688 111.092 L
853.075 112.179 L
853.463 111.185 L
853.85 112.736 L
854.237 112.24 L
854.625 112.894 L
855.013 112.58 L
855.4 111.974 L
855.787 112.156 L
856.175 110.966 L
856.563 109.799 L
856.95 110.532 L
857.338 111.31 L
857.725 110.645 L
858.112 110.313 L
858.5 110.235 L
858.888 109.482 L
859.275 109.277 L
859.662 108.492 L
860.05 108.713 L
860.438 107.902 L
860.825 108.317 L
861.213 109.199 L
861.6 110.425 L
861.987 109.998 L
862.375 110.184 L
862.763 110.779 L
863.15 110.158 L
863.537 109.066 L
863.925 110.109 L
864.313 111.526 L
864.7 111.603 L
865.088 111.318 L
865.475 109.736 L
865.862 112.057 L
866.25 113.111 L
866.638 112.766 L
867.025 112.674 L
867.412 111.613 L
867.8 110.813 L
868.188 110.939 L
868.575 111.836 L
868.963 112.317 L
869.35 113.384 L
869.737 112.939 L
870.125 113.3 L
870.513 112.86 L
870.9 112.634 L
871.287 112.193 L
871.675 112.273 L
872.063 112.273 L
872.45 112.027 L
872.838 110.996 L
873.225 112.588 L
873.612 112.481 L
874 112.927 L
874.388 113.628 L
874.775 115.112 L
875.162 114.691 L
875.55 115.005 L
875.938 116.372 L
876.325 117.182 L
876.713 116.402 L
877.1 115.67 L
877.487 115.932 L
877.875 116.213 L
878.263 116.421 L
878.65 116.325 L
879.037 115.401 L
879.425 116.696 L
879.813 116.814 L
880.2 117.232 L
880.588 117.861 L
880.975 117.192 L
881.362 115.949 L
881.75 116.305 L
882.138 116.006 L
882.525 115.444 L
882.912 117.056 L
883.3 116.166 L
883.688 114.144 L
884.075 113.256 L
884.463 114.124 L
884.85 115.124 L
885.237 115.812 L
885.625 113.266 L
886.013 112.495 L
886.4 112.96 L
886.787 114.055 L
887.175 115.805 L
887.563 116.728 L
887.95 117.305 L
888.338 116.458 L
888.725 115.776 L
889.112 114.929 L
889.5 115.056 L
889.888 114.919 L
890.275 114.307 L
890.662 114.143 L
891.05 113.718 L
891.438 114.158 L
891.825 114.772 L
892.213 114.589 L
892.6 114.331 L
892.987 112.963 L
893.375 111.83 L
893.763 111.573 L
894.15 110.934 L
894.537 108.895 L
894.925 108.497 L
895.313 107.806 L
895.7 107.284 L
896.088 106.604 L
896.475 106.894 L
896.862 107.367 L
897.25 107.131 L
897.638 107.066 L
898.025 106.812 L
898.412 107.544 L
898.8 107.575 L
899.188 106.816 L
899.575 106.644 L
899.963 106.841 L
900.35 106.197 L
900.737 106.866 L
901.125 107.499 L
901.513 107.084 L
901.9 107.707 L
902.287 108.143 L
902.675 106.235 L
903.063 107.19 L
903.45 107.514 L
903.838 107.654 L
904.225 106.233 L
904.612 105.401 L
905 105.119 L
S
GR
%%Trailer
%%Pages: 1
%%EOF
