%!PS-Adobe-3.0 EPSF-3.0
%%Creator: (MATLAB, The Mathworks, Inc. Version 9.0.0.341360 \(R2016a\). Operating System: Linux)
%%Title: report/figures/sm_base_log_softmax2_ratio.eps
%%CreationDate: 2017-02-04T23:56:32
%%Pages: (atend)
%%BoundingBox:    59     4   910   325
%%LanguageLevel: 3
%%EndComments
%%BeginProlog
%%BeginResource: procset (Apache XML Graphics Std ProcSet) 1.2 0
%%Version: 1.2 0
%%Copyright: (Copyright 2001-2003,2010 The Apache Software Foundation. License terms: http://www.apache.org/licenses/LICENSE-2.0)
/bd{bind def}bind def
/ld{load def}bd
/GR/grestore ld
/M/moveto ld
/LJ/setlinejoin ld
/C/curveto ld
/f/fill ld
/LW/setlinewidth ld
/GC/setgray ld
/t/show ld
/N/newpath ld
/CT/concat ld
/cp/closepath ld
/S/stroke ld
/L/lineto ld
/CC/setcmykcolor ld
/A/ashow ld
/GS/gsave ld
/RC/setrgbcolor ld
/RM/rmoveto ld
/ML/setmiterlimit ld
/re {4 2 roll M
1 index 0 rlineto
0 exch rlineto
neg 0 rlineto
cp } bd
/_ctm matrix def
/_tm matrix def
/BT { _ctm currentmatrix pop matrix _tm copy pop 0 0 moveto } bd
/ET { _ctm setmatrix } bd
/iTm { _ctm setmatrix _tm concat } bd
/Tm { _tm astore pop iTm 0 0 moveto } bd
/ux 0.0 def
/uy 0.0 def
/F {
  /Tp exch def
  /Tf exch def
  Tf findfont Tp scalefont setfont
  /cf Tf def  /cs Tp def
} bd
/ULS {currentpoint /uy exch def /ux exch def} bd
/ULE {
  /Tcx currentpoint pop def
  gsave
  newpath
  cf findfont cs scalefont dup
  /FontMatrix get 0 get /Ts exch def /FontInfo get dup
  /UnderlinePosition get Ts mul /To exch def
  /UnderlineThickness get Ts mul /Tt exch def
  ux uy To add moveto  Tcx uy To add lineto
  Tt setlinewidth stroke
  grestore
} bd
/OLE {
  /Tcx currentpoint pop def
  gsave
  newpath
  cf findfont cs scalefont dup
  /FontMatrix get 0 get /Ts exch def /FontInfo get dup
  /UnderlinePosition get Ts mul /To exch def
  /UnderlineThickness get Ts mul /Tt exch def
  ux uy To add cs add moveto Tcx uy To add cs add lineto
  Tt setlinewidth stroke
  grestore
} bd
/SOE {
  /Tcx currentpoint pop def
  gsave
  newpath
  cf findfont cs scalefont dup
  /FontMatrix get 0 get /Ts exch def /FontInfo get dup
  /UnderlinePosition get Ts mul /To exch def
  /UnderlineThickness get Ts mul /Tt exch def
  ux uy To add cs 10 mul 26 idiv add moveto Tcx uy To add cs 10 mul 26 idiv add lineto
  Tt setlinewidth stroke
  grestore
} bd
/QT {
/Y22 exch store
/X22 exch store
/Y21 exch store
/X21 exch store
currentpoint
/Y21 load 2 mul add 3 div exch
/X21 load 2 mul add 3 div exch
/X21 load 2 mul /X22 load add 3 div
/Y21 load 2 mul /Y22 load add 3 div
/X22 load /Y22 load curveto
} bd
/SSPD {
dup length /d exch dict def
{
/v exch def
/k exch def
currentpagedevice k known {
/cpdv currentpagedevice k get def
v cpdv ne {
/upd false def
/nullv v type /nulltype eq def
/nullcpdv cpdv type /nulltype eq def
nullv nullcpdv or
{
/upd true def
} {
/sametype v type cpdv type eq def
sametype {
v type /arraytype eq {
/vlen v length def
/cpdvlen cpdv length def
vlen cpdvlen eq {
0 1 vlen 1 sub {
/i exch def
/obj v i get def
/cpdobj cpdv i get def
obj cpdobj ne {
/upd true def
exit
} if
} for
} {
/upd true def
} ifelse
} {
v type /dicttype eq {
v {
/dv exch def
/dk exch def
/cpddv cpdv dk get def
dv cpddv ne {
/upd true def
exit
} if
} forall
} {
/upd true def
} ifelse
} ifelse
} if
} ifelse
upd true eq {
d k v put
} if
} if
} if
} forall
d length 0 gt {
d setpagedevice
} if
} bd
%%EndResource
%%BeginResource: procset (Apache XML Graphics EPS ProcSet) 1.0 0
%%Version: 1.0 0
%%Copyright: (Copyright 2002-2003 The Apache Software Foundation. License terms: http://www.apache.org/licenses/LICENSE-2.0)
/BeginEPSF { %def
/b4_Inc_state save def         % Save state for cleanup
/dict_count countdictstack def % Count objects on dict stack
/op_count count 1 sub def      % Count objects on operand stack
userdict begin                 % Push userdict on dict stack
/showpage { } def              % Redefine showpage, { } = null proc
0 setgray 0 setlinecap         % Prepare graphics state
1 setlinewidth 0 setlinejoin
10 setmiterlimit [ ] 0 setdash newpath
/languagelevel where           % If level not equal to 1 then
{pop languagelevel             % set strokeadjust and
1 ne                           % overprint to their defaults.
{false setstrokeadjust false setoverprint
} if
} if
} bd
/EndEPSF { %def
count op_count sub {pop} repeat            % Clean up stacks
countdictstack dict_count sub {end} repeat
b4_Inc_state restore
} bd
%%EndResource
%%EndProlog
%%Page: 1 1
%%PageBoundingBox: 0 0 1000 350
%%BeginPageSetup
[1 0 0 -1 0 350] CT
%%EndPageSetup
GS
1 GC
N
0 0 1000 350 re
f
GR
GS
1 GC
N
0 0 1000 350 re
f
GR
GS
1 GC
N
130 289 M
905 289 L
905 26 L
130 26 L
cp
f
GR
GS
0.873 GC
1 LJ
0.5 LW
N
130 289 M
130 26 L
S
GR
GS
0.873 GC
1 LJ
0.5 LW
N
323.75 289 M
323.75 26 L
S
GR
GS
0.873 GC
1 LJ
0.5 LW
N
517.5 289 M
517.5 26 L
S
GR
GS
0.873 GC
1 LJ
0.5 LW
N
711.25 289 M
711.25 26 L
S
GR
GS
0.873 GC
1 LJ
0.5 LW
N
905 289 M
905 26 L
S
GR
GS
0.873 GC
1 LJ
0.5 LW
N
905 289 M
130 289 L
S
GR
GS
0.873 GC
1 LJ
0.5 LW
N
905 238.905 M
130 238.905 L
S
GR
GS
0.873 GC
1 LJ
0.5 LW
N
905 188.81 M
130 188.81 L
S
GR
GS
0.873 GC
1 LJ
0.5 LW
N
905 138.714 M
130 138.714 L
S
GR
GS
0.873 GC
1 LJ
0.5 LW
N
905 88.619 M
130 88.619 L
S
GR
GS
0.873 GC
1 LJ
0.5 LW
N
905 38.524 M
130 38.524 L
S
GR
GS
0.149 GC
2 setlinecap
1 LJ
0.5 LW
N
130 289 M
905 289 L
S
GR
GS
0.149 GC
2 setlinecap
1 LJ
0.5 LW
N
130 289 M
130 281.25 L
S
GR
GS
0.149 GC
2 setlinecap
1 LJ
0.5 LW
N
323.75 289 M
323.75 281.25 L
S
GR
GS
0.149 GC
2 setlinecap
1 LJ
0.5 LW
N
517.5 289 M
517.5 281.25 L
S
GR
GS
0.149 GC
2 setlinecap
1 LJ
0.5 LW
N
711.25 289 M
711.25 281.25 L
S
GR
GS
0.149 GC
2 setlinecap
1 LJ
0.5 LW
N
905 289 M
905 281.25 L
S
GR
GS
[1 0 0 1 130 295] CT
0.149 GC
N
-0.141 5.719 M
-1.672 5.719 -2.438 7.219 QT
-3.203 8.719 -3.203 11.719 QT
-3.203 14.719 -2.438 16.219 QT
-1.672 17.719 -0.141 17.719 QT
1.391 17.719 2.156 16.219 QT
2.922 14.719 2.922 11.719 QT
2.922 8.719 2.156 7.219 QT
1.391 5.719 -0.141 5.719 QT
cp
-0.141 4.156 M
2.313 4.156 3.602 6.094 QT
4.891 8.031 4.891 11.719 QT
4.891 15.406 3.602 17.344 QT
2.313 19.281 -0.141 19.281 QT
-2.594 19.281 -3.891 17.344 QT
-5.188 15.406 -5.188 11.719 QT
-5.188 8.031 -3.891 6.094 QT
-2.594 4.156 -0.141 4.156 QT
cp
f
GR
GS
[1 0 0 1 323.75 295] CT
0.149 GC
N
-9.641 5.719 M
-11.172 5.719 -11.938 7.219 QT
-12.703 8.719 -12.703 11.719 QT
-12.703 14.719 -11.938 16.219 QT
-11.172 17.719 -9.641 17.719 QT
-8.109 17.719 -7.344 16.219 QT
-6.578 14.719 -6.578 11.719 QT
-6.578 8.719 -7.344 7.219 QT
-8.109 5.719 -9.641 5.719 QT
cp
-9.641 4.156 M
-7.188 4.156 -5.898 6.094 QT
-4.609 8.031 -4.609 11.719 QT
-4.609 15.406 -5.898 17.344 QT
-7.188 19.281 -9.641 19.281 QT
-12.094 19.281 -13.391 17.344 QT
-14.688 15.406 -14.688 11.719 QT
-14.688 8.031 -13.391 6.094 QT
-12.094 4.156 -9.641 4.156 QT
cp
-1.135 16.516 M
0.928 16.516 L
0.928 19 L
-1.135 19 L
-1.135 16.516 L
cp
5.238 4.422 M
12.988 4.422 L
12.988 6.078 L
7.051 6.078 L
7.051 9.656 L
7.473 9.5 7.902 9.43 QT
8.332 9.359 8.77 9.359 QT
11.207 9.359 12.637 10.695 QT
14.066 12.031 14.066 14.328 QT
14.066 16.672 12.598 17.977 QT
11.129 19.281 8.457 19.281 QT
7.551 19.281 6.598 19.125 QT
5.645 18.969 4.629 18.656 QT
4.629 16.672 L
5.504 17.156 6.441 17.391 QT
7.379 17.625 8.426 17.625 QT
10.113 17.625 11.098 16.734 QT
12.082 15.844 12.082 14.328 QT
12.082 12.797 11.098 11.906 QT
10.113 11.016 8.426 11.016 QT
7.629 11.016 6.848 11.195 QT
6.066 11.375 5.238 11.75 QT
5.238 4.422 L
cp
f
GR
GS
[1 0 0 1 517.5 295] CT
0.149 GC
N
-4.016 17.344 M
-0.797 17.344 L
-0.797 6.219 L
-4.297 6.922 L
-4.297 5.125 L
-0.813 4.422 L
1.156 4.422 L
1.156 17.344 L
4.375 17.344 L
4.375 19 L
-4.016 19 L
-4.016 17.344 L
cp
f
GR
GS
[1 0 0 1 711.25 295] CT
0.149 GC
N
-13.516 17.344 M
-10.297 17.344 L
-10.297 6.219 L
-13.797 6.922 L
-13.797 5.125 L
-10.313 4.422 L
-8.344 4.422 L
-8.344 17.344 L
-5.125 17.344 L
-5.125 19 L
-13.516 19 L
-13.516 17.344 L
cp
-1.135 16.516 M
0.928 16.516 L
0.928 19 L
-1.135 19 L
-1.135 16.516 L
cp
5.238 4.422 M
12.988 4.422 L
12.988 6.078 L
7.051 6.078 L
7.051 9.656 L
7.473 9.5 7.902 9.43 QT
8.332 9.359 8.77 9.359 QT
11.207 9.359 12.637 10.695 QT
14.066 12.031 14.066 14.328 QT
14.066 16.672 12.598 17.977 QT
11.129 19.281 8.457 19.281 QT
7.551 19.281 6.598 19.125 QT
5.645 18.969 4.629 18.656 QT
4.629 16.672 L
5.504 17.156 6.441 17.391 QT
7.379 17.625 8.426 17.625 QT
10.113 17.625 11.098 16.734 QT
12.082 15.844 12.082 14.328 QT
12.082 12.797 11.098 11.906 QT
10.113 11.016 8.426 11.016 QT
7.629 11.016 6.848 11.195 QT
6.066 11.375 5.238 11.75 QT
5.238 4.422 L
cp
f
GR
GS
[1 0 0 1 905 295] CT
0.149 GC
N
-2.656 17.344 M
4.219 17.344 L
4.219 19 L
-5.031 19 L
-5.031 17.344 L
-3.906 16.172 -1.969 14.219 QT
-0.031 12.266 0.469 11.688 QT
1.406 10.625 1.781 9.891 QT
2.156 9.156 2.156 8.438 QT
2.156 7.281 1.344 6.547 QT
0.531 5.813 -0.781 5.813 QT
-1.703 5.813 -2.734 6.133 QT
-3.766 6.453 -4.938 7.109 QT
-4.938 5.125 L
-3.75 4.641 -2.711 4.398 QT
-1.672 4.156 -0.813 4.156 QT
1.453 4.156 2.797 5.289 QT
4.141 6.422 4.141 8.313 QT
4.141 9.219 3.805 10.023 QT
3.469 10.828 2.578 11.922 QT
2.344 12.203 1.031 13.555 QT
-0.281 14.906 -2.656 17.344 QT
cp
f
GR
GS
[1 0 0 1 517.50037 320] CT
0.149 GC
N
-14.25 9.328 M
-14.25 11.188 L
-15.094 10.766 -16 10.547 QT
-16.906 10.328 -17.859 10.328 QT
-19.344 10.328 -20.078 10.781 QT
-20.813 11.234 -20.813 12.141 QT
-20.813 12.828 -20.281 13.219 QT
-19.75 13.609 -18.172 13.969 QT
-17.484 14.109 L
-15.391 14.563 -14.5 15.383 QT
-13.609 16.203 -13.609 17.688 QT
-13.609 19.359 -14.938 20.336 QT
-16.266 21.313 -18.578 21.313 QT
-19.547 21.313 -20.594 21.125 QT
-21.641 20.938 -22.813 20.563 QT
-22.813 18.516 L
-21.719 19.094 -20.648 19.375 QT
-19.578 19.656 -18.547 19.656 QT
-17.141 19.656 -16.391 19.18 QT
-15.641 18.703 -15.641 17.828 QT
-15.641 17.031 -16.188 16.602 QT
-16.734 16.172 -18.563 15.766 QT
-19.25 15.609 L
-21.094 15.219 -21.906 14.422 QT
-22.719 13.625 -22.719 12.219 QT
-22.719 10.531 -21.516 9.602 QT
-20.313 8.672 -18.109 8.672 QT
-17 8.672 -16.039 8.836 QT
-15.078 9 -14.25 9.328 QT
cp
-8.507 5.547 M
-8.507 8.969 L
-4.444 8.969 L
-4.444 10.5 L
-8.507 10.5 L
-8.507 17.031 L
-8.507 18.5 -8.108 18.922 QT
-7.71 19.344 -6.476 19.344 QT
-4.444 19.344 L
-4.444 21 L
-6.476 21 L
-8.757 21 -9.624 20.148 QT
-10.491 19.297 -10.491 17.031 QT
-10.491 10.5 L
-11.944 10.5 L
-11.944 8.969 L
-10.491 8.969 L
-10.491 5.547 L
-8.507 5.547 L
cp
8.447 14.484 M
8.447 15.453 L
-0.631 15.453 L
-0.506 17.5 0.596 18.57 QT
1.697 19.641 3.666 19.641 QT
4.807 19.641 5.869 19.359 QT
6.932 19.078 7.994 18.516 QT
7.994 20.391 L
6.932 20.844 5.814 21.078 QT
4.697 21.313 3.541 21.313 QT
0.666 21.313 -1.014 19.633 QT
-2.693 17.953 -2.693 15.109 QT
-2.693 12.141 -1.1 10.406 QT
0.494 8.672 3.197 8.672 QT
5.635 8.672 7.041 10.234 QT
8.447 11.797 8.447 14.484 QT
cp
6.479 13.906 M
6.447 12.281 5.564 11.32 QT
4.682 10.359 3.229 10.359 QT
1.572 10.359 0.572 11.289 QT
-0.428 12.219 -0.568 13.922 QT
6.479 13.906 L
cp
13.607 19.188 M
13.607 25.578 L
11.623 25.578 L
11.623 8.969 L
13.607 8.969 L
13.607 10.797 L
14.232 9.719 15.186 9.195 QT
16.139 8.672 17.451 8.672 QT
19.639 8.672 21.014 10.414 QT
22.389 12.156 22.389 15 QT
22.389 17.828 21.014 19.57 QT
19.639 21.313 17.451 21.313 QT
16.139 21.313 15.186 20.789 QT
14.232 20.266 13.607 19.188 QT
cp
20.326 15 M
20.326 12.813 19.436 11.57 QT
18.545 10.328 16.967 10.328 QT
15.404 10.328 14.506 11.57 QT
13.607 12.813 13.607 15 QT
13.607 17.172 14.506 18.414 QT
15.404 19.656 16.967 19.656 QT
18.545 19.656 19.436 18.414 QT
20.326 17.172 20.326 15 QT
cp
f
GR
GS
[1 0 0 1 852 345] CT
0.149 GC
N
2.938 -0.578 M
2.938 -0.734 3.031 -0.859 QT
7.203 -5 L
3.031 -9.156 L
2.938 -9.266 2.938 -9.422 QT
2.938 -9.578 3.055 -9.703 QT
3.172 -9.828 3.344 -9.828 QT
3.484 -9.828 3.641 -9.703 QT
7.781 -5.563 L
11.906 -9.703 L
12.078 -9.828 12.203 -9.828 QT
12.359 -9.828 12.477 -9.711 QT
12.594 -9.594 12.594 -9.422 QT
12.594 -9.266 12.5 -9.156 QT
8.344 -5 L
12.5 -0.859 L
12.594 -0.734 12.594 -0.578 QT
12.594 -0.406 12.477 -0.289 QT
12.359 -0.172 12.203 -0.172 QT
12.047 -0.172 11.906 -0.328 QT
7.781 -4.438 L
3.641 -0.328 L
3.5 -0.172 3.344 -0.172 QT
3.172 -0.172 3.055 -0.305 QT
2.938 -0.438 2.938 -0.578 QT
cp
f
GR
GS
[1 0 0 1 868 345] CT
0.149 GC
N
2.484 -1.656 M
5.703 -1.656 L
5.703 -12.781 L
2.203 -12.078 L
2.203 -13.875 L
5.688 -14.578 L
7.656 -14.578 L
7.656 -1.656 L
10.875 -1.656 L
10.875 0 L
2.484 0 L
2.484 -1.656 L
cp
19.084 -13.281 M
17.553 -13.281 16.787 -11.781 QT
16.021 -10.281 16.021 -7.281 QT
16.021 -4.281 16.787 -2.781 QT
17.553 -1.281 19.084 -1.281 QT
20.615 -1.281 21.381 -2.781 QT
22.146 -4.281 22.146 -7.281 QT
22.146 -10.281 21.381 -11.781 QT
20.615 -13.281 19.084 -13.281 QT
cp
19.084 -14.844 M
21.537 -14.844 22.826 -12.906 QT
24.115 -10.969 24.115 -7.281 QT
24.115 -3.594 22.826 -1.656 QT
21.537 0.281 19.084 0.281 QT
16.631 0.281 15.334 -1.656 QT
14.037 -3.594 14.037 -7.281 QT
14.037 -10.969 15.334 -12.906 QT
16.631 -14.844 19.084 -14.844 QT
cp
f
GR
GS
[1 0 0 1 894 335] CT
0.149 GC
N
5.281 -6.469 M
4.219 -6.469 3.602 -5.742 QT
2.984 -5.016 2.984 -3.75 QT
2.984 -2.484 3.602 -1.758 QT
4.219 -1.031 5.281 -1.031 QT
6.344 -1.031 6.969 -1.758 QT
7.594 -2.484 7.594 -3.75 QT
7.594 -5.016 6.969 -5.742 QT
6.344 -6.469 5.281 -6.469 QT
cp
8.422 -11.406 M
8.422 -9.969 L
7.828 -10.25 7.219 -10.398 QT
6.609 -10.547 6.016 -10.547 QT
4.453 -10.547 3.633 -9.492 QT
2.813 -8.438 2.688 -6.313 QT
3.156 -6.984 3.852 -7.352 QT
4.547 -7.719 5.375 -7.719 QT
7.141 -7.719 8.156 -6.648 QT
9.172 -5.578 9.172 -3.75 QT
9.172 -1.953 8.109 -0.859 QT
7.047 0.234 5.281 0.234 QT
3.266 0.234 2.195 -1.32 QT
1.125 -2.875 1.125 -5.828 QT
1.125 -8.594 2.438 -10.234 QT
3.75 -11.875 5.953 -11.875 QT
6.547 -11.875 7.156 -11.758 QT
7.766 -11.641 8.422 -11.406 QT
cp
f
GR
GS
0.149 GC
2 setlinecap
1 LJ
0.5 LW
N
130 289 M
130 26 L
S
GR
GS
0.149 GC
2 setlinecap
1 LJ
0.5 LW
N
130 289 M
137.75 289 L
S
GR
GS
0.149 GC
2 setlinecap
1 LJ
0.5 LW
N
130 238.905 M
137.75 238.905 L
S
GR
GS
0.149 GC
2 setlinecap
1 LJ
0.5 LW
N
130 188.81 M
137.75 188.81 L
S
GR
GS
0.149 GC
2 setlinecap
1 LJ
0.5 LW
N
130 138.714 M
137.75 138.714 L
S
GR
GS
0.149 GC
2 setlinecap
1 LJ
0.5 LW
N
130 88.619 M
137.75 88.619 L
S
GR
GS
0.149 GC
2 setlinecap
1 LJ
0.5 LW
N
130 38.524 M
137.75 38.524 L
S
GR
GS
[1 0 0 1 124 289] CT
0.149 GC
N
-6.641 -6.281 M
-8.172 -6.281 -8.938 -4.781 QT
-9.703 -3.281 -9.703 -0.281 QT
-9.703 2.719 -8.938 4.219 QT
-8.172 5.719 -6.641 5.719 QT
-5.109 5.719 -4.344 4.219 QT
-3.578 2.719 -3.578 -0.281 QT
-3.578 -3.281 -4.344 -4.781 QT
-5.109 -6.281 -6.641 -6.281 QT
cp
-6.641 -7.844 M
-4.188 -7.844 -2.898 -5.906 QT
-1.609 -3.969 -1.609 -0.281 QT
-1.609 3.406 -2.898 5.344 QT
-4.188 7.281 -6.641 7.281 QT
-9.094 7.281 -10.391 5.344 QT
-11.688 3.406 -11.688 -0.281 QT
-11.688 -3.969 -10.391 -5.906 QT
-9.094 -7.844 -6.641 -7.844 QT
cp
f
GR
GS
[1 0 0 1 124 238.90475] CT
0.149 GC
N
-22.156 5.344 M
-15.281 5.344 L
-15.281 7 L
-24.531 7 L
-24.531 5.344 L
-23.406 4.172 -21.469 2.219 QT
-19.531 0.266 -19.031 -0.313 QT
-18.094 -1.375 -17.719 -2.109 QT
-17.344 -2.844 -17.344 -3.563 QT
-17.344 -4.719 -18.156 -5.453 QT
-18.969 -6.188 -20.281 -6.188 QT
-21.203 -6.188 -22.234 -5.867 QT
-23.266 -5.547 -24.438 -4.891 QT
-24.438 -6.875 L
-23.25 -7.359 -22.211 -7.602 QT
-21.172 -7.844 -20.313 -7.844 QT
-18.047 -7.844 -16.703 -6.711 QT
-15.359 -5.578 -15.359 -3.688 QT
-15.359 -2.781 -15.695 -1.977 QT
-16.031 -1.172 -16.922 -0.078 QT
-17.156 0.203 -18.469 1.555 QT
-19.781 2.906 -22.156 5.344 QT
cp
-6.916 -6.281 M
-8.447 -6.281 -9.213 -4.781 QT
-9.979 -3.281 -9.979 -0.281 QT
-9.979 2.719 -9.213 4.219 QT
-8.447 5.719 -6.916 5.719 QT
-5.385 5.719 -4.619 4.219 QT
-3.854 2.719 -3.854 -0.281 QT
-3.854 -3.281 -4.619 -4.781 QT
-5.385 -6.281 -6.916 -6.281 QT
cp
-6.916 -7.844 M
-4.463 -7.844 -3.174 -5.906 QT
-1.885 -3.969 -1.885 -0.281 QT
-1.885 3.406 -3.174 5.344 QT
-4.463 7.281 -6.916 7.281 QT
-9.369 7.281 -10.666 5.344 QT
-11.963 3.406 -11.963 -0.281 QT
-11.963 -3.969 -10.666 -5.906 QT
-9.369 -7.844 -6.916 -7.844 QT
cp
f
GR
GS
[1 0 0 1 124 188.80952] CT
0.149 GC
N
-18.438 -5.859 M
-23.422 1.922 L
-18.438 1.922 L
-18.438 -5.859 L
cp
-18.953 -7.578 M
-16.484 -7.578 L
-16.484 1.922 L
-14.391 1.922 L
-14.391 3.563 L
-16.484 3.563 L
-16.484 7 L
-18.438 7 L
-18.438 3.563 L
-25.016 3.563 L
-25.016 1.656 L
-18.953 -7.578 L
cp
-6.916 -6.281 M
-8.447 -6.281 -9.213 -4.781 QT
-9.979 -3.281 -9.979 -0.281 QT
-9.979 2.719 -9.213 4.219 QT
-8.447 5.719 -6.916 5.719 QT
-5.385 5.719 -4.619 4.219 QT
-3.854 2.719 -3.854 -0.281 QT
-3.854 -3.281 -4.619 -4.781 QT
-5.385 -6.281 -6.916 -6.281 QT
cp
-6.916 -7.844 M
-4.463 -7.844 -3.174 -5.906 QT
-1.885 -3.969 -1.885 -0.281 QT
-1.885 3.406 -3.174 5.344 QT
-4.463 7.281 -6.916 7.281 QT
-9.369 7.281 -10.666 5.344 QT
-11.963 3.406 -11.963 -0.281 QT
-11.963 -3.969 -10.666 -5.906 QT
-9.369 -7.844 -6.916 -7.844 QT
cp
f
GR
GS
[1 0 0 1 124 138.71428] CT
0.149 GC
N
-19.391 -1.078 M
-20.719 -1.078 -21.5 -0.172 QT
-22.281 0.734 -22.281 2.328 QT
-22.281 3.891 -21.5 4.805 QT
-20.719 5.719 -19.391 5.719 QT
-18.063 5.719 -17.289 4.805 QT
-16.516 3.891 -16.516 2.328 QT
-16.516 0.734 -17.289 -0.172 QT
-18.063 -1.078 -19.391 -1.078 QT
cp
-15.484 -7.266 M
-15.484 -5.469 L
-16.219 -5.813 -16.977 -6 QT
-17.734 -6.188 -18.484 -6.188 QT
-20.438 -6.188 -21.469 -4.867 QT
-22.5 -3.547 -22.641 -0.875 QT
-22.063 -1.734 -21.195 -2.188 QT
-20.328 -2.641 -19.281 -2.641 QT
-17.078 -2.641 -15.805 -1.305 QT
-14.531 0.031 -14.531 2.328 QT
-14.531 4.563 -15.859 5.922 QT
-17.188 7.281 -19.391 7.281 QT
-21.922 7.281 -23.266 5.344 QT
-24.609 3.406 -24.609 -0.281 QT
-24.609 -3.734 -22.969 -5.789 QT
-21.328 -7.844 -18.563 -7.844 QT
-17.813 -7.844 -17.055 -7.695 QT
-16.297 -7.547 -15.484 -7.266 QT
cp
-6.916 -6.281 M
-8.447 -6.281 -9.213 -4.781 QT
-9.979 -3.281 -9.979 -0.281 QT
-9.979 2.719 -9.213 4.219 QT
-8.447 5.719 -6.916 5.719 QT
-5.385 5.719 -4.619 4.219 QT
-3.854 2.719 -3.854 -0.281 QT
-3.854 -3.281 -4.619 -4.781 QT
-5.385 -6.281 -6.916 -6.281 QT
cp
-6.916 -7.844 M
-4.463 -7.844 -3.174 -5.906 QT
-1.885 -3.969 -1.885 -0.281 QT
-1.885 3.406 -3.174 5.344 QT
-4.463 7.281 -6.916 7.281 QT
-9.369 7.281 -10.666 5.344 QT
-11.963 3.406 -11.963 -0.281 QT
-11.963 -3.969 -10.666 -5.906 QT
-9.369 -7.844 -6.916 -7.844 QT
cp
f
GR
GS
[1 0 0 1 124 88.61905] CT
0.149 GC
N
-19.641 0.078 M
-21.047 0.078 -21.852 0.828 QT
-22.656 1.578 -22.656 2.891 QT
-22.656 4.219 -21.852 4.969 QT
-21.047 5.719 -19.641 5.719 QT
-18.234 5.719 -17.422 4.961 QT
-16.609 4.203 -16.609 2.891 QT
-16.609 1.578 -17.414 0.828 QT
-18.219 0.078 -19.641 0.078 QT
cp
-21.609 -0.766 M
-22.891 -1.078 -23.594 -1.945 QT
-24.297 -2.813 -24.297 -4.063 QT
-24.297 -5.813 -23.055 -6.828 QT
-21.813 -7.844 -19.641 -7.844 QT
-17.469 -7.844 -16.227 -6.828 QT
-14.984 -5.813 -14.984 -4.063 QT
-14.984 -2.813 -15.695 -1.945 QT
-16.406 -1.078 -17.656 -0.766 QT
-16.234 -0.438 -15.438 0.531 QT
-14.641 1.5 -14.641 2.891 QT
-14.641 5.016 -15.938 6.148 QT
-17.234 7.281 -19.641 7.281 QT
-22.047 7.281 -23.344 6.148 QT
-24.641 5.016 -24.641 2.891 QT
-24.641 1.5 -23.844 0.531 QT
-23.047 -0.438 -21.609 -0.766 QT
cp
-22.344 -3.875 M
-22.344 -2.75 -21.633 -2.117 QT
-20.922 -1.484 -19.641 -1.484 QT
-18.375 -1.484 -17.656 -2.117 QT
-16.938 -2.75 -16.938 -3.875 QT
-16.938 -5.016 -17.656 -5.648 QT
-18.375 -6.281 -19.641 -6.281 QT
-20.922 -6.281 -21.633 -5.648 QT
-22.344 -5.016 -22.344 -3.875 QT
cp
-6.916 -6.281 M
-8.447 -6.281 -9.213 -4.781 QT
-9.979 -3.281 -9.979 -0.281 QT
-9.979 2.719 -9.213 4.219 QT
-8.447 5.719 -6.916 5.719 QT
-5.385 5.719 -4.619 4.219 QT
-3.854 2.719 -3.854 -0.281 QT
-3.854 -3.281 -4.619 -4.781 QT
-5.385 -6.281 -6.916 -6.281 QT
cp
-6.916 -7.844 M
-4.463 -7.844 -3.174 -5.906 QT
-1.885 -3.969 -1.885 -0.281 QT
-1.885 3.406 -3.174 5.344 QT
-4.463 7.281 -6.916 7.281 QT
-9.369 7.281 -10.666 5.344 QT
-11.963 3.406 -11.963 -0.281 QT
-11.963 -3.969 -10.666 -5.906 QT
-9.369 -7.844 -6.916 -7.844 QT
cp
f
GR
GS
[1 0 0 1 124 38.52381] CT
0.149 GC
N
-36.516 5.344 M
-33.297 5.344 L
-33.297 -5.781 L
-36.797 -5.078 L
-36.797 -6.875 L
-33.313 -7.578 L
-31.344 -7.578 L
-31.344 5.344 L
-28.125 5.344 L
-28.125 7 L
-36.516 7 L
-36.516 5.344 L
cp
-19.916 -6.281 M
-21.447 -6.281 -22.213 -4.781 QT
-22.979 -3.281 -22.979 -0.281 QT
-22.979 2.719 -22.213 4.219 QT
-21.447 5.719 -19.916 5.719 QT
-18.385 5.719 -17.619 4.219 QT
-16.854 2.719 -16.854 -0.281 QT
-16.854 -3.281 -17.619 -4.781 QT
-18.385 -6.281 -19.916 -6.281 QT
cp
-19.916 -7.844 M
-17.463 -7.844 -16.174 -5.906 QT
-14.885 -3.969 -14.885 -0.281 QT
-14.885 3.406 -16.174 5.344 QT
-17.463 7.281 -19.916 7.281 QT
-22.369 7.281 -23.666 5.344 QT
-24.963 3.406 -24.963 -0.281 QT
-24.963 -3.969 -23.666 -5.906 QT
-22.369 -7.844 -19.916 -7.844 QT
cp
-7.191 -6.281 M
-8.723 -6.281 -9.488 -4.781 QT
-10.254 -3.281 -10.254 -0.281 QT
-10.254 2.719 -9.488 4.219 QT
-8.723 5.719 -7.191 5.719 QT
-5.66 5.719 -4.895 4.219 QT
-4.129 2.719 -4.129 -0.281 QT
-4.129 -3.281 -4.895 -4.781 QT
-5.66 -6.281 -7.191 -6.281 QT
cp
-7.191 -7.844 M
-4.738 -7.844 -3.449 -5.906 QT
-2.16 -3.969 -2.16 -0.281 QT
-2.16 3.406 -3.449 5.344 QT
-4.738 7.281 -7.191 7.281 QT
-9.645 7.281 -10.941 5.344 QT
-12.238 3.406 -12.238 -0.281 QT
-12.238 -3.969 -10.941 -5.906 QT
-9.645 -7.844 -7.191 -7.844 QT
cp
f
GR
GS
[0 -1 1 0 82 157.49988] CT
0.149 GC
N
-113.063 -22.031 M
-99.5 -22.031 L
-99.5 -20.219 L
-105.188 -20.219 L
-105.188 -6 L
-107.375 -6 L
-107.375 -20.219 L
-113.063 -20.219 L
-113.063 -22.031 L
cp
-92.015 -12.047 M
-94.421 -12.047 -95.343 -11.5 QT
-96.265 -10.953 -96.265 -9.625 QT
-96.265 -8.578 -95.569 -7.961 QT
-94.874 -7.344 -93.687 -7.344 QT
-92.046 -7.344 -91.054 -8.508 QT
-90.062 -9.672 -90.062 -11.609 QT
-90.062 -12.047 L
-92.015 -12.047 L
cp
-88.077 -12.859 M
-88.077 -6 L
-90.062 -6 L
-90.062 -7.828 L
-90.733 -6.734 -91.741 -6.211 QT
-92.749 -5.688 -94.218 -5.688 QT
-96.062 -5.688 -97.147 -6.727 QT
-98.233 -7.766 -98.233 -9.5 QT
-98.233 -11.531 -96.874 -12.563 QT
-95.515 -13.594 -92.827 -13.594 QT
-90.062 -13.594 L
-90.062 -13.781 L
-90.062 -15.156 -90.952 -15.898 QT
-91.843 -16.641 -93.468 -16.641 QT
-94.499 -16.641 -95.476 -16.398 QT
-96.452 -16.156 -97.358 -15.656 QT
-97.358 -17.484 L
-96.28 -17.906 -95.257 -18.117 QT
-94.233 -18.328 -93.265 -18.328 QT
-90.655 -18.328 -89.366 -16.969 QT
-88.077 -15.609 -88.077 -12.859 QT
cp
-77.033 -16.188 M
-77.361 -16.375 -77.76 -16.469 QT
-78.158 -16.563 -78.627 -16.563 QT
-80.299 -16.563 -81.197 -15.469 QT
-82.096 -14.375 -82.096 -12.344 QT
-82.096 -6 L
-84.08 -6 L
-84.08 -18.031 L
-82.096 -18.031 L
-82.096 -16.156 L
-81.471 -17.266 -80.471 -17.797 QT
-79.471 -18.328 -78.049 -18.328 QT
-77.846 -18.328 -77.596 -18.297 QT
-77.346 -18.266 -77.049 -18.219 QT
-77.033 -16.188 L
cp
-67.051 -12.156 M
-67.051 -14.297 -67.934 -15.484 QT
-68.816 -16.672 -70.41 -16.672 QT
-72.004 -16.672 -72.895 -15.484 QT
-73.785 -14.297 -73.785 -12.156 QT
-73.785 -10.016 -72.895 -8.836 QT
-72.004 -7.656 -70.41 -7.656 QT
-68.816 -7.656 -67.934 -8.836 QT
-67.051 -10.016 -67.051 -12.156 QT
cp
-65.066 -7.5 M
-65.066 -4.422 -66.434 -2.922 QT
-67.801 -1.422 -70.613 -1.422 QT
-71.66 -1.422 -72.582 -1.578 QT
-73.504 -1.734 -74.363 -2.063 QT
-74.363 -3.984 L
-73.504 -3.5 -72.652 -3.281 QT
-71.801 -3.063 -70.926 -3.063 QT
-68.973 -3.063 -68.012 -4.078 QT
-67.051 -5.094 -67.051 -7.141 QT
-67.051 -8.109 L
-67.66 -7.047 -68.613 -6.523 QT
-69.566 -6 -70.895 -6 QT
-73.113 -6 -74.465 -7.688 QT
-75.816 -9.375 -75.816 -12.156 QT
-75.816 -14.953 -74.465 -16.641 QT
-73.113 -18.328 -70.895 -18.328 QT
-69.566 -18.328 -68.613 -17.797 QT
-67.66 -17.266 -67.051 -16.203 QT
-67.051 -18.031 L
-65.066 -18.031 L
-65.066 -7.5 L
cp
-50.711 -12.516 M
-50.711 -11.547 L
-59.789 -11.547 L
-59.664 -9.5 -58.563 -8.43 QT
-57.461 -7.359 -55.492 -7.359 QT
-54.352 -7.359 -53.289 -7.641 QT
-52.227 -7.922 -51.164 -8.484 QT
-51.164 -6.609 L
-52.227 -6.156 -53.344 -5.922 QT
-54.461 -5.688 -55.617 -5.688 QT
-58.492 -5.688 -60.172 -7.367 QT
-61.852 -9.047 -61.852 -11.891 QT
-61.852 -14.859 -60.258 -16.594 QT
-58.664 -18.328 -55.961 -18.328 QT
-53.523 -18.328 -52.117 -16.766 QT
-50.711 -15.203 -50.711 -12.516 QT
cp
-52.68 -13.094 M
-52.711 -14.719 -53.594 -15.68 QT
-54.477 -16.641 -55.93 -16.641 QT
-57.586 -16.641 -58.586 -15.711 QT
-59.586 -14.781 -59.727 -13.078 QT
-52.68 -13.094 L
cp
-45.504 -21.453 M
-45.504 -18.031 L
-41.441 -18.031 L
-41.441 -16.5 L
-45.504 -16.5 L
-45.504 -9.969 L
-45.504 -8.5 -45.105 -8.078 QT
-44.707 -7.656 -43.473 -7.656 QT
-41.441 -7.656 L
-41.441 -6 L
-43.473 -6 L
-45.754 -6 -46.621 -6.852 QT
-47.488 -7.703 -47.488 -9.969 QT
-47.488 -16.5 L
-48.941 -16.5 L
-48.941 -18.031 L
-47.488 -18.031 L
-47.488 -21.453 L
-45.504 -21.453 L
cp
-31.159 -17.672 M
-31.159 -15.813 L
-32.003 -16.234 -32.909 -16.453 QT
-33.815 -16.672 -34.769 -16.672 QT
-36.253 -16.672 -36.987 -16.219 QT
-37.722 -15.766 -37.722 -14.859 QT
-37.722 -14.172 -37.19 -13.781 QT
-36.659 -13.391 -35.081 -13.031 QT
-34.394 -12.891 L
-32.3 -12.438 -31.409 -11.617 QT
-30.519 -10.797 -30.519 -9.313 QT
-30.519 -7.641 -31.847 -6.664 QT
-33.175 -5.688 -35.487 -5.688 QT
-36.456 -5.688 -37.503 -5.875 QT
-38.55 -6.063 -39.722 -6.438 QT
-39.722 -8.484 L
-38.628 -7.906 -37.558 -7.625 QT
-36.487 -7.344 -35.456 -7.344 QT
-34.05 -7.344 -33.3 -7.82 QT
-32.55 -8.297 -32.55 -9.172 QT
-32.55 -9.969 -33.097 -10.398 QT
-33.644 -10.828 -35.472 -11.234 QT
-36.159 -11.391 L
-38.003 -11.781 -38.815 -12.578 QT
-39.628 -13.375 -39.628 -14.781 QT
-39.628 -16.469 -38.425 -17.398 QT
-37.222 -18.328 -35.019 -18.328 QT
-33.909 -18.328 -32.948 -18.164 QT
-31.987 -18 -31.159 -17.672 QT
cp
-13.407 -16.188 M
-13.735 -16.375 -14.134 -16.469 QT
-14.532 -16.563 -15.001 -16.563 QT
-16.673 -16.563 -17.571 -15.469 QT
-18.47 -14.375 -18.47 -12.344 QT
-18.47 -6 L
-20.454 -6 L
-20.454 -18.031 L
-18.47 -18.031 L
-18.47 -16.156 L
-17.845 -17.266 -16.845 -17.797 QT
-15.845 -18.328 -14.423 -18.328 QT
-14.22 -18.328 -13.97 -18.297 QT
-13.72 -18.266 -13.423 -18.219 QT
-13.407 -16.188 L
cp
-1.05 -12.516 M
-1.05 -11.547 L
-10.128 -11.547 L
-10.003 -9.5 -8.901 -8.43 QT
-7.8 -7.359 -5.831 -7.359 QT
-4.69 -7.359 -3.628 -7.641 QT
-2.565 -7.922 -1.503 -8.484 QT
-1.503 -6.609 L
-2.565 -6.156 -3.683 -5.922 QT
-4.8 -5.688 -5.956 -5.688 QT
-8.831 -5.688 -10.511 -7.367 QT
-12.19 -9.047 -12.19 -11.891 QT
-12.19 -14.859 -10.597 -16.594 QT
-9.003 -18.328 -6.3 -18.328 QT
-3.862 -18.328 -2.456 -16.766 QT
-1.05 -15.203 -1.05 -12.516 QT
cp
-3.019 -13.094 M
-3.05 -14.719 -3.933 -15.68 QT
-4.815 -16.641 -6.269 -16.641 QT
-7.925 -16.641 -8.925 -15.711 QT
-9.925 -14.781 -10.065 -13.078 QT
-3.019 -13.094 L
cp
7.673 -12.047 M
5.267 -12.047 4.345 -11.5 QT
3.423 -10.953 3.423 -9.625 QT
3.423 -8.578 4.118 -7.961 QT
4.813 -7.344 6.001 -7.344 QT
7.642 -7.344 8.634 -8.508 QT
9.626 -9.672 9.626 -11.609 QT
9.626 -12.047 L
7.673 -12.047 L
cp
11.61 -12.859 M
11.61 -6 L
9.626 -6 L
9.626 -7.828 L
8.954 -6.734 7.946 -6.211 QT
6.938 -5.688 5.47 -5.688 QT
3.626 -5.688 2.54 -6.727 QT
1.454 -7.766 1.454 -9.5 QT
1.454 -11.531 2.813 -12.563 QT
4.173 -13.594 6.86 -13.594 QT
9.626 -13.594 L
9.626 -13.781 L
9.626 -15.156 8.735 -15.898 QT
7.845 -16.641 6.22 -16.641 QT
5.188 -16.641 4.212 -16.398 QT
3.235 -16.156 2.329 -15.656 QT
2.329 -17.484 L
3.407 -17.906 4.431 -18.117 QT
5.454 -18.328 6.423 -18.328 QT
9.032 -18.328 10.321 -16.969 QT
11.61 -15.609 11.61 -12.859 QT
cp
24.342 -17.563 M
24.342 -15.719 L
23.498 -16.188 22.654 -16.414 QT
21.811 -16.641 20.951 -16.641 QT
19.029 -16.641 17.967 -15.422 QT
16.904 -14.203 16.904 -12 QT
16.904 -9.797 17.967 -8.578 QT
19.029 -7.359 20.951 -7.359 QT
21.811 -7.359 22.654 -7.594 QT
23.498 -7.828 24.342 -8.281 QT
24.342 -6.469 L
23.514 -6.078 22.623 -5.883 QT
21.732 -5.688 20.748 -5.688 QT
18.029 -5.688 16.428 -7.398 QT
14.826 -9.109 14.826 -12 QT
14.826 -14.953 16.443 -16.641 QT
18.061 -18.328 20.873 -18.328 QT
21.779 -18.328 22.654 -18.141 QT
23.529 -17.953 24.342 -17.563 QT
cp
37.781 -13.266 M
37.781 -6 L
35.797 -6 L
35.797 -13.203 L
35.797 -14.906 35.133 -15.758 QT
34.469 -16.609 33.141 -16.609 QT
31.531 -16.609 30.609 -15.586 QT
29.688 -14.563 29.688 -12.797 QT
29.688 -6 L
27.703 -6 L
27.703 -22.719 L
29.688 -22.719 L
29.688 -16.156 L
30.391 -17.25 31.359 -17.789 QT
32.328 -18.328 33.578 -18.328 QT
35.656 -18.328 36.719 -17.039 QT
37.781 -15.75 37.781 -13.266 QT
cp
52.006 -12.516 M
52.006 -11.547 L
42.928 -11.547 L
43.053 -9.5 44.154 -8.43 QT
45.256 -7.359 47.225 -7.359 QT
48.365 -7.359 49.428 -7.641 QT
50.49 -7.922 51.553 -8.484 QT
51.553 -6.609 L
50.49 -6.156 49.373 -5.922 QT
48.256 -5.688 47.1 -5.688 QT
44.225 -5.688 42.545 -7.367 QT
40.865 -9.047 40.865 -11.891 QT
40.865 -14.859 42.459 -16.594 QT
44.053 -18.328 46.756 -18.328 QT
49.193 -18.328 50.6 -16.766 QT
52.006 -15.203 52.006 -12.516 QT
cp
50.037 -13.094 M
50.006 -14.719 49.123 -15.68 QT
48.24 -16.641 46.787 -16.641 QT
45.131 -16.641 44.131 -15.711 QT
43.131 -14.781 42.99 -13.078 QT
50.037 -13.094 L
cp
63.166 -16.203 M
63.166 -22.719 L
65.15 -22.719 L
65.15 -6 L
63.166 -6 L
63.166 -7.813 L
62.557 -6.734 61.604 -6.211 QT
60.65 -5.688 59.322 -5.688 QT
57.135 -5.688 55.768 -7.43 QT
54.4 -9.172 54.4 -12 QT
54.4 -14.844 55.768 -16.586 QT
57.135 -18.328 59.322 -18.328 QT
60.65 -18.328 61.604 -17.805 QT
62.557 -17.281 63.166 -16.203 QT
cp
56.432 -12 M
56.432 -9.828 57.33 -8.586 QT
58.229 -7.344 59.807 -7.344 QT
61.369 -7.344 62.268 -8.586 QT
63.166 -9.828 63.166 -12 QT
63.166 -14.188 62.268 -15.43 QT
61.369 -16.672 59.807 -16.672 QT
58.229 -16.672 57.33 -15.43 QT
56.432 -14.188 56.432 -12 QT
cp
76.03 -22.719 M
80.593 -22.719 L
80.593 -21.172 L
78.015 -21.172 L
78.015 -4.641 L
80.593 -4.641 L
80.593 -3.094 L
76.03 -3.094 L
76.03 -22.719 L
cp
98.723 -13.063 M
97.785 -13.063 97.254 -12.266 QT
96.723 -11.469 96.723 -10.047 QT
96.723 -8.656 97.254 -7.852 QT
97.785 -7.047 98.723 -7.047 QT
99.629 -7.047 100.16 -7.852 QT
100.691 -8.656 100.691 -10.047 QT
100.691 -11.453 100.16 -12.258 QT
99.629 -13.063 98.723 -13.063 QT
cp
98.723 -14.422 M
100.41 -14.422 101.41 -13.242 QT
102.41 -12.063 102.41 -10.047 QT
102.41 -8.047 101.41 -6.867 QT
100.41 -5.688 98.723 -5.688 QT
97.004 -5.688 96.004 -6.867 QT
95.004 -8.047 95.004 -10.047 QT
95.004 -12.063 96.004 -13.242 QT
97.004 -14.422 98.723 -14.422 QT
cp
87.629 -20.969 M
86.707 -20.969 86.176 -20.164 QT
85.645 -19.359 85.645 -17.969 QT
85.645 -16.547 86.168 -15.75 QT
86.691 -14.953 87.629 -14.953 QT
88.566 -14.953 89.098 -15.75 QT
89.629 -16.547 89.629 -17.969 QT
89.629 -19.359 89.09 -20.164 QT
88.551 -20.969 87.629 -20.969 QT
cp
97.332 -22.328 M
99.051 -22.328 L
89.02 -5.688 L
87.301 -5.688 L
97.332 -22.328 L
cp
87.629 -22.328 M
89.332 -22.328 90.34 -21.148 QT
91.348 -19.969 91.348 -17.969 QT
91.348 -15.938 90.348 -14.766 QT
89.348 -13.594 87.629 -13.594 QT
85.926 -13.594 84.934 -14.773 QT
83.941 -15.953 83.941 -17.969 QT
83.941 -19.969 84.941 -21.148 QT
85.941 -22.328 87.629 -22.328 QT
cp
110.314 -22.719 M
110.314 -3.094 L
105.768 -3.094 L
105.768 -4.641 L
108.33 -4.641 L
108.33 -21.172 L
105.768 -21.172 L
105.768 -22.719 L
110.314 -22.719 L
cp
f
GR
GS
0 0.447 0.741 RC
1 LJ
0.5 LW
N
169.525 193.581 M
169.913 271.109 L
170.3 271.109 L
170.688 238.905 L
171.075 226.381 L
171.462 238.905 L
171.85 205.508 L
172.238 230.064 L
172.625 210.726 L
173.012 238.905 L
173.4 238.905 L
173.788 226.381 L
174.175 238.905 L
174.563 226.381 L
174.95 271.109 L
175.337 253.218 L
175.725 215.331 L
176.113 242.036 L
176.5 271.109 L
176.887 269.733 L
177.275 255.603 L
177.663 196.719 L
178.05 255.603 L
178.438 255.603 L
178.825 242.036 L
179.212 255.603 L
179.6 222.206 L
179.988 272.302 L
180.375 215.331 L
180.762 219.423 L
181.15 226.381 L
181.538 226.381 L
181.925 226.381 L
182.313 230.064 L
182.7 210.726 L
183.087 242.036 L
183.475 255.603 L
183.863 255.603 L
184.25 271.109 L
184.637 230.064 L
185.025 255.603 L
185.413 238.905 L
185.8 193.581 L
186.188 271.109 L
186.575 238.905 L
186.962 272.302 L
187.35 230.064 L
187.738 271.109 L
188.125 226.381 L
188.512 230.064 L
188.9 244.798 L
189.288 289 L
189.675 230.064 L
190.063 255.603 L
190.45 200.597 L
190.837 255.603 L
191.225 272.302 L
191.613 242.036 L
192 289 L
192.387 255.603 L
192.775 255.603 L
193.163 289 L
193.55 255.603 L
193.938 230.064 L
194.325 289 L
194.712 209.902 L
195.1 289 L
195.488 255.603 L
195.875 215.331 L
196.262 242.036 L
196.65 255.603 L
197.038 255.603 L
197.425 255.603 L
197.813 255.603 L
198.2 205.508 L
198.587 242.036 L
198.975 226.381 L
199.363 205.508 L
199.75 238.905 L
200.137 255.603 L
200.525 253.218 L
200.913 257.69 L
201.3 255.603 L
201.688 201.333 L
202.075 219.423 L
202.462 205.508 L
202.85 219.423 L
203.238 205.508 L
203.625 242.036 L
204.012 242.036 L
204.4 255.603 L
204.788 188.81 L
205.175 201.333 L
205.563 255.603 L
205.95 271.109 L
206.337 242.036 L
206.725 205.508 L
207.113 209.902 L
207.5 242.036 L
207.887 201.333 L
208.275 181.653 L
208.663 289 L
209.05 219.423 L
209.438 230.064 L
209.825 230.064 L
210.212 209.902 L
210.6 289 L
210.988 253.218 L
211.375 219.423 L
211.762 289 L
212.15 242.036 L
212.538 255.603 L
212.925 209.902 L
213.313 271.109 L
213.7 255.603 L
214.087 230.064 L
214.475 257.69 L
214.863 253.218 L
215.25 257.69 L
215.637 215.331 L
216.025 289 L
216.413 201.333 L
216.8 209.902 L
217.188 215.331 L
217.575 201.333 L
217.962 215.331 L
218.35 257.69 L
218.738 242.036 L
219.125 242.036 L
219.512 271.109 L
219.9 255.603 L
220.288 255.603 L
220.675 219.423 L
221.063 272.302 L
221.45 209.902 L
221.837 215.331 L
222.225 205.508 L
222.613 230.064 L
223 255.603 L
223.387 180.097 L
223.775 255.603 L
224.163 271.109 L
224.55 271.109 L
224.938 201.333 L
225.325 255.603 L
225.712 272.302 L
226.1 255.603 L
226.488 255.603 L
226.875 230.064 L
227.262 238.905 L
227.65 238.905 L
228.038 255.603 L
228.425 255.603 L
228.813 257.69 L
229.2 215.331 L
229.587 242.036 L
229.975 242.036 L
230.363 180.097 L
230.75 219.423 L
231.137 255.603 L
231.525 271.109 L
231.913 196.719 L
232.3 242.036 L
232.688 257.69 L
233.075 230.064 L
233.462 255.603 L
233.85 255.603 L
234.238 201.333 L
234.625 219.423 L
235.012 238.905 L
235.4 289 L
235.788 242.036 L
236.175 209.902 L
236.563 255.603 L
236.95 242.036 L
237.337 242.036 L
237.725 242.036 L
238.113 271.109 L
238.5 255.603 L
238.887 242.036 L
239.275 242.036 L
239.663 255.603 L
240.05 272.302 L
240.438 271.109 L
240.825 255.603 L
241.212 255.603 L
241.6 209.902 L
241.988 271.109 L
242.375 255.603 L
242.762 233.339 L
243.15 269.733 L
243.538 244.798 L
243.925 271.109 L
244.313 219.423 L
244.7 230.064 L
245.087 272.302 L
245.475 226.381 L
245.863 255.603 L
246.25 230.064 L
246.637 230.064 L
247.025 272.302 L
247.413 238.905 L
247.8 242.036 L
248.188 244.798 L
248.575 230.064 L
248.962 201.333 L
249.35 205.508 L
249.738 289 L
250.125 230.064 L
250.512 215.331 L
250.9 230.064 L
251.288 242.036 L
251.675 242.036 L
252.063 230.064 L
252.45 242.036 L
252.837 253.218 L
253.225 219.423 L
253.613 242.036 L
254 242.036 L
254.387 201.333 L
254.775 242.036 L
255.163 242.036 L
255.55 219.423 L
255.938 209.902 L
256.325 193.581 L
256.712 230.064 L
257.1 255.603 L
257.487 219.423 L
257.875 230.064 L
258.263 242.036 L
258.65 209.902 L
259.038 242.036 L
259.425 244.798 L
259.813 255.603 L
260.2 230.064 L
260.587 255.603 L
260.975 242.036 L
261.362 272.302 L
261.75 242.036 L
262.138 219.423 L
262.525 196.719 L
262.913 244.798 L
263.3 219.423 L
263.688 219.423 L
264.075 255.603 L
264.462 271.109 L
264.85 209.902 L
265.237 289 L
265.625 219.423 L
266.013 272.302 L
266.4 289 L
266.788 255.603 L
267.175 230.064 L
267.563 289 L
267.95 230.064 L
268.337 255.603 L
268.725 255.603 L
269.112 201.333 L
269.5 201.333 L
269.888 209.902 L
270.275 242.036 L
270.663 215.331 L
271.05 242.036 L
271.438 272.302 L
271.825 271.109 L
272.212 219.423 L
272.6 255.603 L
272.987 242.036 L
273.375 255.603 L
273.763 233.339 L
274.15 242.036 L
274.538 219.423 L
274.925 193.581 L
275.313 242.036 L
275.7 219.423 L
276.087 289 L
276.475 255.603 L
276.862 219.423 L
277.25 257.69 L
277.638 255.603 L
278.025 242.036 L
278.413 255.603 L
278.8 219.423 L
279.188 233.339 L
279.575 242.036 L
279.962 230.064 L
280.35 255.603 L
280.737 186.532 L
281.125 242.036 L
281.513 201.333 L
281.9 242.036 L
282.288 233.339 L
282.675 196.719 L
283.063 257.69 L
283.45 242.036 L
283.837 209.902 L
284.225 230.064 L
284.612 219.423 L
285 219.423 L
285.388 219.423 L
285.775 219.423 L
286.163 219.423 L
286.55 242.036 L
286.938 242.036 L
287.325 193.581 L
287.712 242.036 L
288.1 230.064 L
288.487 233.339 L
288.875 242.036 L
289.263 242.036 L
289.65 209.902 L
290.038 255.603 L
290.425 272.302 L
290.813 193.581 L
291.2 230.064 L
291.587 219.423 L
291.975 242.036 L
292.362 219.423 L
292.75 255.603 L
293.138 242.036 L
293.525 289 L
293.913 242.036 L
294.3 272.302 L
294.688 219.423 L
295.075 209.902 L
295.462 242.036 L
295.85 219.423 L
296.237 255.603 L
296.625 242.036 L
297.013 219.423 L
297.4 244.798 L
297.788 219.423 L
298.175 215.331 L
298.563 209.902 L
298.95 233.339 L
299.337 242.036 L
299.725 255.603 L
300.112 289 L
300.5 230.064 L
300.888 209.902 L
301.275 272.302 L
301.663 196.719 L
302.05 257.69 L
302.438 209.902 L
302.825 271.109 L
303.212 255.603 L
303.6 219.423 L
303.987 219.423 L
304.375 242.036 L
304.763 219.423 L
305.15 230.064 L
305.538 230.064 L
305.925 230.064 L
306.313 180.097 L
306.7 201.333 L
307.087 230.064 L
307.475 242.036 L
307.862 201.333 L
308.25 255.603 L
308.638 242.036 L
309.025 257.69 L
309.413 230.064 L
309.8 255.603 L
310.188 219.423 L
310.575 255.603 L
310.962 230.064 L
311.35 272.302 L
311.737 242.036 L
312.125 230.064 L
312.513 230.064 L
312.9 242.036 L
313.288 209.902 L
313.675 230.064 L
314.063 242.036 L
314.45 230.064 L
314.837 201.333 L
315.225 257.69 L
315.612 255.603 L
316 242.036 L
316.388 272.302 L
316.775 255.603 L
317.163 255.603 L
317.55 209.902 L
317.938 219.423 L
318.325 219.423 L
318.712 271.109 L
319.1 257.69 L
319.487 205.508 L
319.875 244.798 L
320.263 242.036 L
320.65 193.581 L
321.038 219.423 L
321.425 230.064 L
321.813 219.423 L
322.2 230.064 L
322.587 230.064 L
322.975 242.036 L
323.362 271.109 L
323.75 219.423 L
324.138 242.036 L
324.525 219.423 L
324.913 180.097 L
325.3 242.036 L
325.688 230.064 L
326.075 219.423 L
326.462 255.603 L
326.85 242.036 L
327.237 193.581 L
327.625 219.423 L
328.013 201.333 L
328.4 242.036 L
328.788 186.532 L
329.175 219.423 L
329.563 186.532 L
329.95 230.064 L
330.337 193.581 L
330.725 255.603 L
331.112 219.423 L
331.5 230.064 L
331.888 175.147 L
332.275 244.798 L
332.663 219.423 L
333.05 219.423 L
333.438 209.902 L
333.825 219.423 L
334.212 255.603 L
334.6 271.109 L
334.987 196.719 L
335.375 174.198 L
335.763 219.423 L
336.15 271.109 L
336.538 186.532 L
336.925 201.333 L
337.313 219.423 L
337.7 219.423 L
338.087 163.762 L
338.475 209.902 L
338.862 209.902 L
339.25 242.036 L
339.638 219.423 L
340.025 230.064 L
340.413 201.333 L
340.8 219.423 L
341.188 180.097 L
341.575 230.064 L
341.962 154.128 L
342.35 193.581 L
342.737 230.064 L
343.125 201.333 L
343.513 159.123 L
343.9 209.902 L
344.288 209.902 L
344.675 230.064 L
345.063 219.423 L
345.45 242.036 L
345.837 219.423 L
346.225 201.333 L
346.612 230.064 L
347 209.902 L
347.388 242.036 L
347.775 244.798 L
348.163 242.036 L
348.55 219.423 L
348.938 175.147 L
349.325 271.109 L
349.712 174.198 L
350.1 201.333 L
350.487 201.333 L
350.875 169.207 L
351.263 223.085 L
351.65 230.064 L
352.038 230.064 L
352.425 181.653 L
352.813 186.532 L
353.2 201.333 L
353.587 242.036 L
353.975 230.064 L
354.362 169.207 L
354.75 223.085 L
355.138 196.719 L
355.525 209.902 L
355.913 174.198 L
356.3 209.902 L
356.688 209.902 L
357.075 186.532 L
357.462 201.333 L
357.85 186.532 L
358.237 219.423 L
358.625 188.81 L
359.013 230.064 L
359.4 219.423 L
359.788 209.902 L
360.175 230.064 L
360.563 219.423 L
360.95 226.381 L
361.337 180.097 L
361.725 201.333 L
362.112 201.333 L
362.5 271.109 L
362.888 180.097 L
363.275 188.81 L
363.663 223.085 L
364.05 215.331 L
364.438 168.771 L
364.825 219.423 L
365.212 219.423 L
365.6 180.097 L
365.987 186.532 L
366.375 175.147 L
366.763 201.333 L
367.15 201.333 L
367.538 209.902 L
367.925 186.532 L
368.313 209.902 L
368.7 186.532 L
369.087 169.207 L
369.475 180.097 L
369.862 149.847 L
370.25 186.532 L
370.638 193.581 L
371.025 219.423 L
371.413 242.036 L
371.8 209.902 L
372.188 209.902 L
372.575 180.097 L
372.962 158.752 L
373.35 255.603 L
373.737 242.036 L
374.125 174.198 L
374.513 193.581 L
374.9 193.581 L
375.288 163.762 L
375.675 219.423 L
376.063 129.606 L
376.45 193.581 L
376.837 230.064 L
377.225 180.097 L
377.612 242.036 L
378 230.064 L
378.388 168.771 L
378.775 230.064 L
379.163 193.581 L
379.55 201.333 L
379.938 230.064 L
380.325 193.581 L
380.712 188.81 L
381.1 244.798 L
381.487 175.147 L
381.875 257.69 L
382.263 230.064 L
382.65 181.653 L
383.038 174.198 L
383.425 159.123 L
383.813 196.719 L
384.2 205.508 L
384.587 188.81 L
384.975 219.423 L
385.362 168.771 L
385.75 230.064 L
386.138 174.198 L
386.525 219.423 L
386.913 230.064 L
387.3 175.147 L
387.688 230.064 L
388.075 193.581 L
388.462 186.532 L
388.85 219.423 L
389.237 242.036 L
389.625 219.423 L
390.013 209.902 L
390.4 209.902 L
390.788 209.902 L
391.175 201.333 L
391.563 209.902 L
391.95 205.508 L
392.337 209.902 L
392.725 255.603 L
393.112 174.198 L
393.5 186.532 L
393.888 219.423 L
394.275 242.036 L
394.663 242.036 L
395.05 186.532 L
395.438 201.333 L
395.825 230.064 L
396.212 209.902 L
396.6 163.762 L
396.987 257.69 L
397.375 205.508 L
397.763 219.423 L
398.15 180.097 L
398.538 168.771 L
398.925 242.036 L
399.313 188.81 L
399.7 201.333 L
400.087 186.532 L
400.475 209.902 L
400.862 209.902 L
401.25 230.064 L
401.638 149.847 L
402.025 223.085 L
402.413 196.719 L
402.8 201.333 L
403.188 201.333 L
403.575 201.333 L
403.962 201.333 L
404.35 158.752 L
404.737 193.581 L
405.125 186.532 L
405.513 219.423 L
405.9 168.771 L
406.288 175.147 L
406.675 219.423 L
407.063 186.532 L
407.45 188.81 L
407.837 186.532 L
408.225 180.097 L
408.612 193.581 L
409 215.331 L
409.388 219.423 L
409.775 201.333 L
410.163 193.581 L
410.55 242.036 L
410.938 201.333 L
411.325 180.097 L
411.712 149.847 L
412.1 201.333 L
412.487 175.147 L
412.875 188.81 L
413.263 193.581 L
413.65 175.147 L
414.038 193.581 L
414.425 209.902 L
414.813 209.902 L
415.2 193.581 L
415.587 181.653 L
415.975 180.097 L
416.362 181.653 L
416.75 230.064 L
417.138 230.064 L
417.525 186.532 L
417.913 188.81 L
418.3 201.333 L
418.688 158.752 L
419.075 205.508 L
419.462 180.097 L
419.85 201.333 L
420.237 169.207 L
420.625 183.536 L
421.013 186.532 L
421.4 219.423 L
421.788 168.771 L
422.175 138.714 L
422.563 181.653 L
422.95 175.147 L
423.337 163.762 L
423.725 201.333 L
424.112 230.064 L
424.5 154.128 L
424.888 119.56 L
425.275 186.532 L
425.663 127.98 L
426.05 129.606 L
426.438 158.317 L
426.825 193.581 L
427.212 219.423 L
427.6 209.902 L
427.987 180.097 L
428.375 174.198 L
428.763 196.719 L
429.15 209.902 L
429.538 181.653 L
429.925 158.752 L
430.313 175.147 L
430.7 188.81 L
431.087 242.036 L
431.475 186.532 L
431.862 181.653 L
432.25 124.895 L
432.638 163.762 L
433.025 150.806 L
433.413 163.762 L
433.8 242.036 L
434.188 180.097 L
434.575 148.733 L
434.962 193.581 L
435.35 158.317 L
435.737 201.333 L
436.125 169.207 L
436.513 186.532 L
436.9 163.762 L
437.288 175.147 L
437.675 148.733 L
438.063 193.581 L
438.45 175.147 L
438.837 154.128 L
439.225 188.81 L
439.612 175.147 L
440 201.333 L
440.388 154.128 L
440.775 196.719 L
441.163 181.653 L
441.55 175.147 L
441.938 163.762 L
442.325 149.847 L
442.712 175.147 L
443.1 175.147 L
443.487 219.423 L
443.875 188.81 L
444.263 169.207 L
444.65 175.147 L
445.038 188.81 L
445.425 209.902 L
445.813 176.286 L
446.2 169.207 L
446.587 209.902 L
446.975 169.207 L
447.362 188.81 L
447.75 242.036 L
448.138 193.581 L
448.525 205.508 L
448.913 180.097 L
449.3 196.719 L
449.688 201.333 L
450.075 158.317 L
450.462 175.147 L
450.85 193.581 L
451.237 201.333 L
451.625 230.064 L
452.013 196.719 L
452.4 144.495 L
452.788 230.064 L
453.175 181.653 L
453.563 180.097 L
453.95 201.333 L
454.337 158.752 L
454.725 209.902 L
455.112 215.331 L
455.5 145.871 L
455.888 186.532 L
456.275 153.325 L
456.663 223.085 L
457.05 147.426 L
457.438 158.752 L
457.825 148.733 L
458.212 219.423 L
458.6 196.719 L
458.987 163.762 L
459.375 205.508 L
459.763 148.733 L
460.15 158.752 L
460.538 163.762 L
460.925 175.147 L
461.313 145.871 L
461.7 158.752 L
462.087 205.508 L
462.475 163.762 L
462.862 149.847 L
463.25 196.719 L
463.638 175.147 L
464.025 148.733 L
464.413 193.581 L
464.8 169.726 L
465.188 255.603 L
465.575 158.317 L
465.962 158.317 L
466.35 201.333 L
466.737 158.317 L
467.125 136.925 L
467.513 158.752 L
467.9 181.653 L
468.288 193.581 L
468.675 230.064 L
469.063 255.603 L
469.45 163.762 L
469.837 201.333 L
470.225 209.902 L
470.612 181.653 L
471 201.333 L
471.388 181.653 L
471.775 158.752 L
472.163 181.653 L
472.55 145.871 L
472.938 180.097 L
473.325 163.762 L
473.712 180.097 L
474.1 242.036 L
474.487 219.423 L
474.875 219.423 L
475.263 235.327 L
475.65 154.128 L
476.038 201.333 L
476.425 169.207 L
476.813 175.147 L
477.2 230.064 L
477.587 219.423 L
477.975 149.847 L
478.362 181.653 L
478.75 191.593 L
479.138 144.495 L
479.525 158.752 L
479.913 154.128 L
480.3 230.064 L
480.688 201.333 L
481.075 226.381 L
481.462 209.902 L
481.85 163.762 L
482.237 175.147 L
482.625 183.536 L
483.013 181.653 L
483.4 188.81 L
483.788 154.128 L
484.175 230.064 L
484.563 219.423 L
484.95 154.128 L
485.337 209.902 L
485.725 145.871 L
486.112 175.147 L
486.5 181.653 L
486.888 132.452 L
487.275 191.593 L
487.663 154.816 L
488.05 176.286 L
488.438 168.771 L
488.825 201.333 L
489.212 209.902 L
489.6 154.128 L
489.987 230.064 L
490.375 196.719 L
490.763 188.81 L
491.15 148.733 L
491.538 201.333 L
491.925 181.653 L
492.313 230.064 L
492.7 193.581 L
493.087 175.147 L
493.475 230.064 L
493.862 188.81 L
494.25 154.128 L
494.638 186.532 L
495.025 181.653 L
495.413 175.147 L
495.8 163.762 L
496.188 209.902 L
496.575 226.381 L
496.962 226.381 L
497.35 169.207 L
497.737 154.128 L
498.125 201.333 L
498.513 191.593 L
498.9 144.495 L
499.288 140.57 L
499.675 209.902 L
500.063 181.653 L
500.45 186.532 L
500.837 181.653 L
501.225 201.333 L
501.612 154.128 L
502 169.207 L
502.388 175.147 L
502.775 147.063 L
503.163 196.719 L
503.55 219.423 L
503.938 158.752 L
504.325 175.147 L
504.712 209.902 L
505.1 219.423 L
505.487 181.653 L
505.875 193.581 L
506.263 188.81 L
506.65 174.198 L
507.038 230.064 L
507.425 193.581 L
507.813 154.128 L
508.2 169.207 L
508.587 201.333 L
508.975 219.423 L
509.362 201.333 L
509.75 201.333 L
510.138 242.036 L
510.525 159.123 L
510.913 153.325 L
511.3 186.532 L
511.688 130.365 L
512.075 186.532 L
512.463 255.603 L
512.85 168.771 L
513.237 209.902 L
513.625 196.719 L
514.013 186.532 L
514.4 205.508 L
514.787 193.581 L
515.175 219.423 L
515.563 154.128 L
515.95 133.532 L
516.338 186.532 L
516.725 226.381 L
517.112 186.532 L
517.5 201.333 L
517.888 193.581 L
518.275 205.508 L
518.662 175.147 L
519.05 233.339 L
519.438 226.381 L
519.825 193.581 L
520.213 188.81 L
520.6 163.762 L
520.987 205.508 L
521.375 186.532 L
521.763 191.593 L
522.15 244.798 L
522.537 145.871 L
522.925 188.81 L
523.313 168.771 L
523.7 163.762 L
524.088 196.719 L
524.475 186.532 L
524.862 205.508 L
525.25 219.423 L
525.638 219.423 L
526.025 135.482 L
526.412 158.752 L
526.8 176.286 L
527.188 193.581 L
527.575 181.653 L
527.963 219.423 L
528.35 219.423 L
528.737 158.317 L
529.125 186.532 L
529.513 201.333 L
529.9 163.762 L
530.287 219.423 L
530.675 140.57 L
531.063 209.902 L
531.45 209.902 L
531.838 186.532 L
532.225 193.581 L
532.612 149.847 L
533 183.536 L
533.388 149.847 L
533.775 193.581 L
534.162 255.603 L
534.55 180.097 L
534.938 169.207 L
535.325 180.097 L
535.713 271.109 L
536.1 230.064 L
536.487 193.581 L
536.875 219.423 L
537.263 181.653 L
537.65 140.57 L
538.037 201.333 L
538.425 201.333 L
538.813 180.097 L
539.2 158.752 L
539.588 174.198 L
539.975 219.423 L
540.362 215.331 L
540.75 201.333 L
541.138 163.762 L
541.525 201.333 L
541.912 163.762 L
542.3 180.097 L
542.688 154.128 L
543.075 230.064 L
543.463 242.036 L
543.85 193.581 L
544.237 180.097 L
544.625 255.603 L
545.013 209.902 L
545.4 255.603 L
545.787 209.902 L
546.175 226.381 L
546.563 193.581 L
546.95 196.719 L
547.338 193.581 L
547.725 188.81 L
548.112 186.532 L
548.5 135.482 L
548.888 215.331 L
549.275 186.532 L
549.662 196.719 L
550.05 180.097 L
550.438 201.333 L
550.825 188.81 L
551.213 230.064 L
551.6 215.331 L
551.987 154.816 L
552.375 181.653 L
552.763 180.097 L
553.15 180.097 L
553.537 219.423 L
553.925 219.423 L
554.313 188.81 L
554.7 209.902 L
555.088 193.581 L
555.475 186.532 L
555.862 242.036 L
556.25 180.097 L
556.638 149.847 L
557.025 209.902 L
557.412 209.902 L
557.8 175.147 L
558.188 257.69 L
558.575 181.653 L
558.963 174.198 L
559.35 149.847 L
559.737 193.581 L
560.125 142.169 L
560.513 180.097 L
560.9 209.902 L
561.287 209.902 L
561.675 175.147 L
562.063 193.581 L
562.45 230.064 L
562.838 149.847 L
563.225 201.333 L
563.612 219.423 L
564 193.581 L
564.388 196.719 L
564.775 201.333 L
565.162 193.581 L
565.55 169.207 L
565.938 193.581 L
566.325 201.333 L
566.713 193.581 L
567.1 219.423 L
567.487 175.147 L
567.875 174.198 L
568.263 219.423 L
568.65 209.902 L
569.037 196.719 L
569.425 201.333 L
569.813 219.423 L
570.2 154.816 L
570.588 163.762 L
570.975 201.333 L
571.362 219.423 L
571.75 219.423 L
572.138 186.532 L
572.525 175.147 L
572.912 180.097 L
573.3 242.036 L
573.688 201.333 L
574.075 163.762 L
574.463 209.902 L
574.85 255.603 L
575.237 230.064 L
575.625 242.036 L
576.013 242.036 L
576.4 242.036 L
576.787 168.771 L
577.175 242.036 L
577.563 219.423 L
577.95 242.036 L
578.338 219.423 L
578.725 154.128 L
579.112 255.603 L
579.5 209.902 L
579.888 219.423 L
580.275 175.147 L
580.662 180.097 L
581.05 196.719 L
581.438 201.333 L
581.825 255.603 L
582.213 188.81 L
582.6 223.085 L
582.987 181.653 L
583.375 209.902 L
583.763 180.097 L
584.15 154.128 L
584.537 219.423 L
584.925 219.423 L
585.313 174.198 L
585.7 181.653 L
586.088 242.036 L
586.475 244.798 L
586.862 219.423 L
587.25 209.902 L
587.638 196.719 L
588.025 186.532 L
588.412 219.423 L
588.8 169.207 L
589.188 193.581 L
589.575 196.719 L
589.963 180.097 L
590.35 201.333 L
590.737 175.147 L
591.125 255.603 L
591.513 154.816 L
591.9 196.719 L
592.287 219.423 L
592.675 168.771 L
593.063 209.902 L
593.45 242.036 L
593.838 219.423 L
594.225 215.331 L
594.612 223.085 L
595 219.423 L
595.388 242.036 L
595.775 176.286 L
596.162 201.333 L
596.55 219.423 L
596.938 242.036 L
597.325 180.097 L
597.713 209.902 L
598.1 188.81 L
598.487 193.581 L
598.875 174.198 L
599.263 154.128 L
599.65 209.902 L
600.037 201.333 L
600.425 219.423 L
600.813 186.532 L
601.2 219.423 L
601.588 149.847 L
601.975 181.653 L
602.362 168.771 L
602.75 193.581 L
603.138 186.532 L
603.525 193.581 L
603.912 209.902 L
604.3 181.653 L
604.688 148.733 L
605.075 242.036 L
605.463 230.064 L
605.85 193.581 L
606.237 230.064 L
606.625 255.603 L
607.013 175.147 L
607.4 180.097 L
607.787 196.719 L
608.175 186.532 L
608.563 242.036 L
608.95 205.508 L
609.338 153.325 L
609.725 209.902 L
610.112 163.762 L
610.5 209.902 L
610.888 193.581 L
611.275 149.847 L
611.662 169.207 L
612.05 205.508 L
612.438 174.198 L
612.825 158.752 L
613.213 154.128 L
613.6 209.902 L
613.987 219.423 L
614.375 186.532 L
614.763 158.317 L
615.15 209.902 L
615.537 253.218 L
615.925 201.333 L
616.313 219.423 L
616.7 201.333 L
617.088 158.752 L
617.475 257.69 L
617.862 226.381 L
618.25 180.097 L
618.638 226.381 L
619.025 186.532 L
619.412 242.036 L
619.8 209.902 L
620.188 180.097 L
620.575 201.333 L
620.963 140.57 L
621.35 209.902 L
621.737 209.902 L
622.125 230.064 L
622.513 169.207 L
622.9 174.198 L
623.287 230.064 L
623.675 142.169 L
624.063 193.581 L
624.45 242.036 L
624.838 226.381 L
625.225 193.581 L
625.612 230.064 L
626 181.653 L
626.388 255.603 L
626.775 230.064 L
627.162 186.532 L
627.55 209.902 L
627.938 181.653 L
628.325 180.097 L
628.713 149.847 L
629.1 219.423 L
629.487 149.847 L
629.875 193.581 L
630.263 175.147 L
630.65 209.902 L
631.037 169.207 L
631.425 180.097 L
631.813 186.532 L
632.2 219.423 L
632.588 181.653 L
632.975 193.581 L
633.362 181.653 L
633.75 145.871 L
634.138 193.581 L
634.525 175.147 L
634.912 169.207 L
635.3 175.147 L
635.688 215.331 L
636.075 219.423 L
636.463 188.81 L
636.85 209.902 L
637.237 186.532 L
637.625 230.064 L
638.013 242.036 L
638.4 201.333 L
638.787 230.064 L
639.175 188.81 L
639.563 201.333 L
639.95 145.871 L
640.338 181.653 L
640.725 233.339 L
641.112 230.064 L
641.5 175.147 L
641.888 138.714 L
642.275 169.726 L
642.662 213.857 L
643.05 255.603 L
643.438 158.752 L
643.825 180.097 L
644.213 219.423 L
644.6 163.762 L
644.987 174.198 L
645.375 176.286 L
645.763 169.726 L
646.15 226.381 L
646.537 142.169 L
646.925 191.593 L
647.313 154.128 L
647.7 158.317 L
648.088 158.752 L
648.475 242.036 L
648.862 193.581 L
649.25 169.726 L
649.638 209.902 L
650.025 176.286 L
650.412 188.81 L
650.8 169.726 L
651.188 175.147 L
651.575 186.532 L
651.963 219.423 L
652.35 163.762 L
652.737 169.726 L
653.125 144.495 L
653.513 201.333 L
653.9 127.98 L
654.287 209.902 L
654.675 181.653 L
655.063 230.064 L
655.45 219.423 L
655.838 113.667 L
656.225 147.426 L
656.612 169.726 L
657 133.943 L
657.388 196.719 L
657.775 177.677 L
658.162 181.653 L
658.55 158.752 L
658.938 201.333 L
659.325 158.752 L
659.713 205.508 L
660.1 158.752 L
660.487 153.325 L
660.875 255.603 L
661.263 152.377 L
661.65 174.198 L
662.037 169.726 L
662.425 152.377 L
662.813 158.317 L
663.2 177.677 L
663.588 111.243 L
663.975 169.207 L
664.362 158.752 L
664.75 132.452 L
665.138 122.016 L
665.525 119.034 L
665.912 112.193 L
666.3 163.762 L
666.688 158.752 L
667.075 152.377 L
667.463 134.861 L
667.85 145.871 L
668.237 125.227 L
668.625 152.377 L
669.013 163.762 L
669.4 244.798 L
669.787 132.452 L
670.175 134.861 L
670.563 134.861 L
670.95 98.984 L
671.338 142.169 L
671.725 93.315 L
672.112 119.323 L
672.5 112.739 L
672.888 136.536 L
673.275 142.889 L
673.662 132.452 L
674.05 125.227 L
674.438 130.365 L
674.825 124.625 L
675.213 111.579 L
675.6 118.676 L
675.987 145.871 L
676.375 116.798 L
676.763 99.245 L
677.15 115.593 L
677.537 107.621 L
677.925 131.293 L
678.313 145.871 L
678.7 205.508 L
679.088 107.621 L
679.475 131.293 L
679.862 110.088 L
680.25 104.826 L
680.638 147.426 L
681.025 113.667 L
681.412 136.536 L
681.8 163.762 L
682.188 116.258 L
682.575 140.57 L
682.963 138.714 L
683.35 142.889 L
683.737 103.163 L
684.125 136.536 L
684.513 136.536 L
684.9 153.325 L
685.287 153.325 L
685.675 140.57 L
686.063 114.426 L
686.45 158.317 L
686.838 140.57 L
687.225 163.762 L
687.612 127.98 L
688 152.377 L
688.388 149.847 L
688.775 144.495 L
689.162 151.238 L
689.55 127.98 L
689.938 125.227 L
690.325 107.621 L
690.713 142.169 L
691.1 88.619 L
691.487 119.034 L
691.875 175.147 L
692.263 191.593 L
692.65 147.426 L
693.037 119.56 L
693.425 147.426 L
693.813 142.889 L
694.2 105.317 L
694.588 140.57 L
694.975 153.325 L
695.362 106.836 L
695.75 147.426 L
696.138 111.243 L
696.525 101.143 L
696.912 157.798 L
697.3 163.762 L
697.688 133.532 L
698.075 99.245 L
698.463 127.98 L
698.85 153.325 L
699.237 140.57 L
699.625 148.733 L
700.013 127.98 L
700.4 128.695 L
700.787 102.932 L
701.175 101.143 L
701.563 140.991 L
701.95 134.861 L
702.338 169.726 L
702.725 181.653 L
703.112 147.426 L
703.5 138.714 L
703.888 163.762 L
704.275 111.243 L
704.662 103.163 L
705.05 158.317 L
705.438 102.932 L
705.825 143.987 L
706.213 124.895 L
706.6 119.034 L
706.987 145.871 L
707.375 153.325 L
707.763 94.185 L
708.15 125.227 L
708.537 108.101 L
708.925 142.889 L
709.313 148.733 L
709.7 97.459 L
710.088 158.317 L
710.475 101.143 L
710.862 132.452 L
711.25 122.016 L
711.638 140.57 L
712.025 134.861 L
712.412 205.508 L
712.8 140.57 L
713.188 116.258 L
713.575 219.423 L
713.963 116.798 L
714.35 181.653 L
714.737 116.258 L
715.125 148.733 L
715.513 119.323 L
715.9 153.325 L
716.287 148.733 L
716.675 154.128 L
717.063 157.17 L
717.45 127.402 L
717.838 114.426 L
718.225 145.871 L
718.612 158.752 L
719 157.798 L
719.388 175.147 L
719.775 186.532 L
720.162 158.752 L
720.55 188.81 L
720.938 148.733 L
721.325 127.98 L
721.713 153.325 L
722.1 226.381 L
722.487 130.365 L
722.875 175.147 L
723.263 188.81 L
723.65 122.016 L
724.037 131.293 L
724.425 205.508 L
724.813 163.762 L
725.2 144.495 L
725.588 140.57 L
725.975 111.243 L
726.362 130.365 L
726.75 152.377 L
727.138 134.861 L
727.525 169.207 L
727.912 131.293 L
728.3 176.286 L
728.688 122.016 L
729.075 111.243 L
729.463 169.207 L
729.85 158.317 L
730.237 131.293 L
730.625 154.128 L
731.013 131.293 L
731.4 175.147 L
731.787 158.317 L
732.175 142.889 L
732.563 180.097 L
732.95 181.653 L
733.338 132.452 L
733.725 147.426 L
734.112 158.317 L
734.5 122.016 L
734.888 114.426 L
735.275 124.895 L
735.662 175.147 L
736.05 138.714 L
736.438 153.325 L
736.825 163.762 L
737.213 153.325 L
737.6 129.606 L
737.987 154.128 L
738.375 163.762 L
738.763 122.016 L
739.15 136.925 L
739.537 127.98 L
739.925 127.98 L
740.313 188.81 L
740.7 127.402 L
741.088 145.871 L
741.475 181.653 L
741.862 133.532 L
742.25 158.317 L
742.638 163.762 L
743.025 138.714 L
743.412 114.426 L
743.8 175.147 L
744.188 148.733 L
744.575 186.532 L
744.963 148.733 L
745.35 81.058 L
745.737 136.925 L
746.125 114.426 L
746.513 152.377 L
746.9 163.762 L
747.287 169.207 L
747.675 148.733 L
748.063 125.227 L
748.45 118.676 L
748.838 124.895 L
749.225 134.861 L
749.612 153.325 L
750 133.532 L
750.388 122.016 L
750.775 175.147 L
751.162 153.325 L
751.55 140.57 L
751.938 191.593 L
752.325 116.798 L
752.713 127.98 L
753.1 133.532 L
753.487 175.147 L
753.875 169.207 L
754.263 124.625 L
754.65 191.593 L
755.037 124.895 L
755.425 112.193 L
755.813 124.895 L
756.2 134.861 L
756.588 130.365 L
756.975 169.207 L
757.362 131.293 L
757.75 136.925 L
758.138 122.016 L
758.525 193.581 L
758.912 226.381 L
759.3 140.991 L
759.688 122.016 L
760.075 136.925 L
760.463 122.016 L
760.85 131.293 L
761.237 116.258 L
761.625 138.714 L
762.013 149.847 L
762.4 148.733 L
762.787 122.016 L
763.175 122.016 L
763.563 92.681 L
763.95 104.826 L
764.338 124.625 L
764.725 91.655 L
765.112 119.034 L
765.5 124.895 L
765.888 134.861 L
766.275 205.508 L
766.662 142.889 L
767.05 131.293 L
767.438 163.762 L
767.825 127.402 L
768.213 145.871 L
768.6 153.325 L
768.987 144.495 L
769.375 124.895 L
769.763 180.097 L
770.15 108.97 L
770.537 176.286 L
770.925 122.016 L
771.313 153.325 L
771.7 181.653 L
772.088 122.016 L
772.475 201.333 L
772.862 103.163 L
773.25 138.714 L
773.638 110.088 L
774.025 158.752 L
774.412 144.495 L
774.8 133.532 L
775.188 181.653 L
775.575 181.653 L
775.963 180.097 L
776.35 175.147 L
776.737 133.532 L
777.125 175.147 L
777.513 116.258 L
777.9 163.762 L
778.287 177.677 L
778.675 144.495 L
779.063 158.317 L
779.45 131.293 L
779.838 142.169 L
780.225 112.193 L
780.612 124.895 L
781 113.667 L
781.388 149.847 L
781.775 144.495 L
782.162 122.016 L
782.55 128.695 L
782.938 102.748 L
783.325 163.762 L
783.713 153.325 L
784.1 168.771 L
784.487 130.365 L
784.875 136.925 L
785.263 148.733 L
785.65 106.836 L
786.037 122.016 L
786.425 186.532 L
786.813 147.426 L
787.2 99.45 L
787.588 114.426 L
787.975 149.847 L
788.362 122.016 L
788.75 158.317 L
789.138 125.227 L
789.525 144.495 L
789.912 163.762 L
790.3 153.325 L
790.688 133.532 L
791.075 145.871 L
791.463 133.532 L
791.85 142.889 L
792.237 105.317 L
792.625 148.733 L
793.013 169.726 L
793.4 101.143 L
793.787 122.016 L
794.175 158.317 L
794.563 104.826 L
794.95 154.128 L
795.338 134.861 L
795.725 134.861 L
796.112 175.147 L
796.5 154.128 L
796.888 147.426 L
797.275 130.365 L
797.662 201.333 L
798.05 153.325 L
798.438 142.889 L
798.825 144.495 L
799.213 107.621 L
799.6 147.426 L
799.987 169.726 L
800.375 122.016 L
800.763 136.925 L
801.15 112.193 L
801.537 102.932 L
801.925 133.532 L
802.313 106.22 L
802.7 131.293 L
803.088 140.57 L
803.475 134.861 L
803.862 124.895 L
804.25 191.593 L
804.638 140.57 L
805.025 138.714 L
805.412 175.147 L
805.8 153.325 L
806.188 158.752 L
806.575 128.695 L
806.963 106.836 L
807.35 169.726 L
807.737 103.163 L
808.125 145.871 L
808.513 131.293 L
808.9 117.245 L
809.287 130.365 L
809.675 158.752 L
810.063 122.016 L
810.45 163.762 L
810.838 133.532 L
811.225 169.207 L
811.612 99.245 L
812 158.317 L
812.388 175.147 L
812.775 111.243 L
813.162 170.353 L
813.55 144.495 L
813.938 116.798 L
814.325 96.968 L
814.713 106.836 L
815.1 134.861 L
815.487 122.016 L
815.875 122.016 L
816.263 116.798 L
816.65 183.536 L
817.037 133.532 L
817.425 119.034 L
817.813 174.198 L
818.2 104.826 L
818.588 122.016 L
818.975 127.98 L
819.362 108.97 L
819.75 112.99 L
820.138 138.714 L
820.525 188.81 L
820.912 99.245 L
821.3 196.719 L
821.688 125.227 L
822.075 158.752 L
822.463 152.377 L
822.85 130.365 L
823.237 163.762 L
823.625 163.762 L
824.013 127.98 L
824.4 122.016 L
824.787 169.207 L
825.175 133.532 L
825.563 127.98 L
825.95 119.323 L
826.338 183.536 L
826.725 127.98 L
827.112 119.323 L
827.5 157.798 L
827.888 169.207 L
828.275 163.762 L
828.662 127.402 L
829.05 113.667 L
829.438 148.733 L
829.825 142.889 L
830.213 149.847 L
830.6 127.98 L
830.987 175.147 L
831.375 148.733 L
831.763 148.733 L
832.15 112.739 L
832.537 158.752 L
832.925 112.193 L
833.313 144.495 L
833.7 163.762 L
834.088 158.752 L
834.475 119.034 L
834.862 140.57 L
835.25 116.258 L
835.638 116.798 L
836.025 183.536 L
836.412 105.317 L
836.8 136.925 L
837.188 138.714 L
837.575 85.911 L
837.963 147.426 L
838.35 163.762 L
838.737 140.57 L
839.125 119.323 L
839.513 124.625 L
839.9 149.847 L
840.287 127.98 L
840.675 133.532 L
841.063 131.293 L
841.45 158.752 L
841.838 163.762 L
842.225 112.193 L
842.612 168.771 L
843 131.293 L
843.388 144.495 L
843.775 114.426 L
844.162 130.365 L
844.55 158.752 L
844.938 138.714 L
845.325 106.836 L
845.713 124.625 L
846.1 113.667 L
846.487 110.088 L
846.875 114.426 L
847.263 169.207 L
847.65 131.293 L
848.037 107.621 L
848.425 209.902 L
848.813 106.836 L
849.2 188.81 L
849.588 193.581 L
849.975 117.245 L
850.362 130.365 L
850.75 97.847 L
851.138 130.365 L
851.525 169.207 L
851.912 107.621 L
852.3 115.058 L
852.688 124.625 L
853.075 169.726 L
853.463 148.733 L
853.85 131.293 L
854.237 148.733 L
854.625 144.495 L
855.013 127.402 L
855.4 158.317 L
855.787 124.895 L
856.175 91.256 L
856.563 119.034 L
856.95 134.861 L
857.338 122.016 L
857.725 134.861 L
858.112 149.847 L
858.5 169.207 L
858.888 158.752 L
859.275 138.714 L
859.662 131.293 L
860.05 153.325 L
860.438 132.452 L
860.825 119.323 L
861.213 145.871 L
861.6 188.81 L
861.987 124.895 L
862.375 95.776 L
862.763 128.695 L
863.15 107.621 L
863.537 119.56 L
863.925 181.653 L
864.313 130.365 L
864.7 105.317 L
865.088 142.889 L
865.475 124.625 L
865.862 112.193 L
866.25 131.293 L
866.638 148.733 L
867.025 159.123 L
867.412 127.402 L
867.8 130.365 L
868.188 163.762 L
868.575 144.495 L
868.963 101.143 L
869.35 142.169 L
869.737 144.495 L
870.125 175.147 L
870.513 153.325 L
870.9 169.207 L
871.287 157.798 L
871.675 137.196 L
872.063 169.726 L
872.45 127.98 L
872.838 106.836 L
873.225 163.762 L
873.612 122.016 L
874 149.847 L
874.388 99.45 L
874.775 176.286 L
875.162 181.653 L
875.55 116.798 L
875.938 102.932 L
876.325 144.495 L
876.713 108.97 L
877.1 133.532 L
877.487 136.925 L
877.875 130.365 L
878.263 103.163 L
878.65 154.128 L
879.037 136.925 L
879.425 117.245 L
879.813 183.536 L
880.2 111.243 L
880.588 131.293 L
880.975 145.871 L
881.362 108.97 L
881.75 102.932 L
882.138 94.881 L
882.525 117.245 L
882.912 144.495 L
883.3 104.439 L
883.688 140.991 L
884.075 138.714 L
884.463 144.495 L
884.85 154.128 L
885.237 86.234 L
885.625 196.719 L
886.013 97.847 L
886.4 142.889 L
886.787 136.925 L
887.175 142.889 L
887.563 131.293 L
887.95 149.847 L
888.338 152.377 L
888.725 112.739 L
889.112 133.532 L
889.5 158.317 L
889.888 71.195 L
890.275 116.798 L
890.662 88.619 L
891.05 186.532 L
891.438 200.597 L
891.825 113.667 L
892.213 119.323 L
892.6 101.143 L
892.987 142.889 L
893.375 149.847 L
893.763 148.733 L
894.15 169.207 L
894.537 107.621 L
894.925 131.293 L
895.313 145.871 L
895.7 127.402 L
896.088 157.17 L
896.475 140.57 L
896.862 129.606 L
897.25 148.733 L
897.638 148.733 L
898.025 125.227 L
898.412 131.293 L
898.8 149.847 L
899.188 134.861 L
899.575 196.719 L
899.963 158.317 L
900.35 144.495 L
900.737 122.016 L
901.125 108.101 L
901.513 127.98 L
901.9 191.593 L
902.287 142.889 L
902.675 133.532 L
903.063 138.714 L
903.45 157.798 L
903.838 140.57 L
904.225 127.98 L
904.612 104.826 L
905 138.714 L
S
GR
GS
1 0 0 RC
1 LJ
0.5 LW
N
169.525 239.979 M
169.913 239.321 L
170.3 240.499 L
170.688 239.631 L
171.075 238.958 L
171.462 238.552 L
171.85 238.172 L
172.238 237.814 L
172.625 237.586 L
173.012 236.819 L
173.4 236.964 L
173.788 237.468 L
174.175 237.945 L
174.563 238.795 L
174.95 238.577 L
175.337 238.992 L
175.725 238.99 L
176.113 237.934 L
176.5 238.688 L
176.887 238.693 L
177.275 239.423 L
177.663 239.224 L
178.05 239.889 L
178.438 239.613 L
178.825 239.422 L
179.212 239.527 L
179.6 241.398 L
179.988 240.594 L
180.375 240.29 L
180.762 239.538 L
181.15 240.111 L
181.538 240.766 L
181.925 241.482 L
182.313 242.638 L
182.7 243.518 L
183.087 243.845 L
183.475 244.828 L
183.863 245.401 L
184.25 245.227 L
184.637 246.455 L
185.025 245.255 L
185.413 245.957 L
185.8 246.746 L
186.188 246.223 L
186.575 245.653 L
186.962 245.376 L
187.35 245.376 L
187.738 246.53 L
188.125 246.53 L
188.512 245.548 L
188.9 245.548 L
189.288 244.975 L
189.675 244.647 L
190.063 243.993 L
190.45 244.782 L
190.837 245.445 L
191.225 246.059 L
191.613 246.632 L
192 246.141 L
192.387 245.932 L
192.775 245.83 L
193.163 245.386 L
193.55 244.404 L
193.938 244.138 L
194.325 243.568 L
194.712 244.069 L
195.1 242.759 L
195.488 242.022 L
195.875 243.238 L
196.262 243.238 L
196.65 243.3 L
197.038 241.99 L
197.425 241.595 L
197.813 241.025 L
198.2 240.534 L
198.587 239.584 L
198.975 240.451 L
199.363 239.087 L
199.75 239.087 L
200.137 238.586 L
200.525 238.769 L
200.913 239.423 L
201.3 239.049 L
201.688 238.606 L
202.075 238.606 L
202.462 238.34 L
202.85 238.34 L
203.238 236.789 L
203.625 237.093 L
204.012 237.594 L
204.4 236.438 L
204.788 237.375 L
205.175 236.673 L
205.563 236.714 L
205.95 236.714 L
206.337 237.635 L
206.725 236.571 L
207.113 235.675 L
207.5 234.885 L
207.887 233.821 L
208.275 234.014 L
208.663 234.321 L
209.05 234.628 L
209.438 235.344 L
209.825 235.976 L
210.212 235.976 L
210.6 236.022 L
210.988 235.272 L
211.375 235.599 L
211.762 235.767 L
212.15 235.687 L
212.538 235.687 L
212.925 235.896 L
213.313 236.878 L
213.7 235.664 L
214.087 235.93 L
214.475 236.234 L
214.863 237.847 L
215.25 237.847 L
215.637 237.847 L
216.025 237.871 L
216.413 238.137 L
216.8 239.119 L
217.188 239.514 L
217.575 239.453 L
217.962 240.19 L
218.35 241.64 L
218.738 240.985 L
219.125 241.735 L
219.512 241.446 L
219.9 241.681 L
220.288 242.311 L
220.675 240.176 L
221.063 239.513 L
221.45 240.222 L
221.837 239.872 L
222.225 238.983 L
222.613 238.717 L
223 239.654 L
223.387 238.849 L
223.775 238.849 L
224.163 239.35 L
224.55 238.245 L
224.938 237.582 L
225.325 237.214 L
225.712 238.659 L
226.1 237.738 L
226.488 237.906 L
226.875 238.802 L
227.262 239.325 L
227.65 240.124 L
228.038 240.647 L
228.425 240.91 L
228.813 241.176 L
229.2 241.176 L
229.587 240.606 L
229.975 240.606 L
230.363 240.934 L
230.75 241.947 L
231.137 241.62 L
231.525 242.516 L
231.913 242.409 L
232.3 243.696 L
232.688 244.196 L
233.075 243.76 L
233.462 245.517 L
233.85 245.306 L
234.238 245.306 L
234.625 244.292 L
235.012 244.855 L
235.4 245.183 L
235.788 244.282 L
236.175 244.282 L
236.563 243.782 L
236.95 243.782 L
237.337 244.437 L
237.725 244.437 L
238.113 244.17 L
238.5 243.959 L
238.887 243.417 L
239.275 243.142 L
239.663 242.426 L
240.05 243.347 L
240.438 244.327 L
240.825 244.247 L
241.212 243.746 L
241.6 243.176 L
241.988 244.064 L
242.375 243.83 L
242.762 243.523 L
243.15 243.977 L
243.538 243.267 L
243.925 243.001 L
244.313 243.799 L
244.7 243.445 L
245.087 243.506 L
245.475 242.585 L
245.863 242.142 L
246.25 242.142 L
246.637 240.926 L
247.025 240.691 L
247.413 240.957 L
247.8 240.514 L
248.188 239.709 L
248.575 239.443 L
248.962 238.813 L
249.35 238.813 L
249.738 238.601 L
250.125 238.273 L
250.512 237.469 L
250.9 237.469 L
251.288 237.203 L
251.675 238.426 L
252.063 237.856 L
252.45 237.147 L
252.837 236.429 L
253.225 235.94 L
253.613 235.442 L
254 234.429 L
254.387 235.138 L
254.775 235.943 L
255.163 234.719 L
255.55 235.947 L
255.938 235.238 L
256.325 236.066 L
256.712 237.222 L
257.1 236.894 L
257.487 236.721 L
257.875 237.642 L
258.263 237.353 L
258.65 237.854 L
259.038 238.918 L
259.425 238.836 L
259.813 237.117 L
260.2 236.721 L
260.587 237.245 L
260.975 236.956 L
261.362 236.956 L
261.75 237.55 L
262.138 238.354 L
262.525 237.911 L
262.913 237.958 L
263.3 238.401 L
263.688 238.667 L
264.075 238.497 L
264.462 239.295 L
264.85 238.851 L
265.237 237.901 L
265.625 238.345 L
266.013 238.531 L
266.4 240.402 L
266.788 240.903 L
267.175 240.194 L
267.563 240.944 L
267.95 241.445 L
268.337 241.445 L
268.725 242.341 L
269.112 241.898 L
269.5 241.673 L
269.888 241.407 L
270.275 241.407 L
270.663 241.407 L
271.05 240.318 L
271.438 239.725 L
271.825 238.927 L
272.212 239.37 L
272.6 240.088 L
272.987 239.146 L
273.375 239.896 L
273.763 240.339 L
274.15 239.443 L
274.538 238.638 L
274.925 238.825 L
275.313 237.461 L
275.7 237.461 L
276.087 236.424 L
276.475 235.06 L
276.862 234.794 L
277.25 235.029 L
277.638 233.158 L
278.025 233.392 L
278.413 232.892 L
278.8 232.455 L
279.188 233.253 L
279.575 234.051 L
279.962 234.051 L
280.35 234.317 L
280.737 235.434 L
281.125 234.484 L
281.513 233.656 L
281.9 232.643 L
282.288 233.086 L
282.675 232.376 L
283.063 232.643 L
283.45 232.376 L
283.837 233.468 L
284.225 233.468 L
284.612 234.505 L
285 235.011 L
285.388 234.381 L
285.775 234.825 L
286.163 233.461 L
286.55 233.461 L
286.938 233.904 L
287.325 233.154 L
287.712 232.942 L
288.1 232.498 L
288.487 231.709 L
288.875 231.522 L
289.263 231.522 L
289.65 231.522 L
290.038 232.023 L
290.425 232.678 L
290.813 233.531 L
291.2 232.901 L
291.587 234.293 L
291.975 233.404 L
292.362 233.882 L
292.75 234.14 L
293.138 234.403 L
293.525 234.669 L
293.913 234.856 L
294.3 234.647 L
294.688 235.091 L
295.075 235.091 L
295.462 235.299 L
295.85 235.508 L
296.237 235.717 L
296.625 234.502 L
297.013 233.704 L
297.4 234.419 L
297.788 234.419 L
298.175 233.856 L
298.563 234.293 L
298.95 234.293 L
299.337 234.599 L
299.725 234.995 L
300.112 234.995 L
300.5 233.958 L
300.888 235.174 L
301.275 235.174 L
301.663 236.211 L
302.05 236.211 L
302.438 236.42 L
302.825 235.919 L
303.212 235.919 L
303.6 234.368 L
303.987 234.133 L
304.375 233.54 L
304.763 233.748 L
305.15 233.58 L
305.538 233.887 L
305.925 234.597 L
306.313 234.331 L
306.7 234.924 L
307.087 235.634 L
307.475 235.845 L
307.862 235.659 L
308.25 235.739 L
308.638 235.926 L
309.025 236.666 L
309.413 236.973 L
309.8 235.991 L
310.188 235.124 L
310.575 235.359 L
310.962 235.039 L
311.35 234.002 L
311.737 234.656 L
312.125 233.906 L
312.513 234.301 L
312.9 233.496 L
313.288 233.23 L
313.675 234.244 L
314.063 234.244 L
314.45 234.244 L
314.837 234.244 L
315.225 233.264 L
315.612 233.499 L
316 233.499 L
316.388 234.27 L
316.775 235.334 L
317.163 235.568 L
317.55 234.618 L
317.938 234.973 L
318.325 233.909 L
318.712 233.909 L
319.1 232.514 L
319.487 232.305 L
319.875 230.951 L
320.263 231.159 L
320.65 229.943 L
321.038 230.444 L
321.425 229.407 L
321.813 229.172 L
322.2 228.096 L
322.587 228.385 L
322.975 227.941 L
323.362 228.128 L
323.75 227.733 L
324.138 227.289 L
324.525 227.79 L
324.913 229.158 L
325.3 227.963 L
325.688 226.366 L
326.075 225.923 L
326.462 225.9 L
326.85 224.545 L
327.237 223.481 L
327.625 223.668 L
328.013 223.668 L
328.4 222.576 L
328.788 221.376 L
329.175 220.439 L
329.563 221.156 L
329.95 220.658 L
330.337 220.423 L
330.725 220.575 L
331.112 220.575 L
331.5 219.596 L
331.888 219.804 L
332.275 218.315 L
332.663 217.6 L
333.05 217.365 L
333.438 215.997 L
333.825 214.815 L
334.212 214.185 L
334.6 213.998 L
334.987 214.978 L
335.375 214.534 L
335.763 214.769 L
336.15 214.769 L
336.538 213.705 L
336.925 213.47 L
337.313 213.79 L
337.7 214.234 L
338.087 215.086 L
338.475 215.086 L
338.862 215.731 L
339.25 214.863 L
339.638 216.521 L
340.025 215.425 L
340.413 215.578 L
340.8 214.513 L
341.188 213.529 L
341.575 213.392 L
341.962 214.469 L
342.35 214.18 L
342.737 213.439 L
343.125 212.794 L
343.513 212.626 L
343.9 213.07 L
344.288 212.569 L
344.675 210.571 L
345.063 211.088 L
345.45 211.529 L
345.837 211.343 L
346.225 209.443 L
346.612 209.901 L
347 210.069 L
347.388 209.424 L
347.775 209.069 L
348.163 209.516 L
348.55 209.702 L
348.938 209.289 L
349.325 209.054 L
349.712 209.054 L
350.1 208.659 L
350.487 209.222 L
350.875 209.222 L
351.263 210.13 L
351.65 209.15 L
352.038 210.075 L
352.425 210.227 L
352.813 211.032 L
353.2 210.616 L
353.587 211.198 L
353.975 211.456 L
354.362 211.563 L
354.75 210.361 L
355.138 210.361 L
355.525 209.918 L
355.913 209.146 L
356.3 208.856 L
356.688 207.779 L
357.075 207.611 L
357.462 206.813 L
357.85 206.129 L
358.237 205.041 L
358.625 204.854 L
359.013 205.077 L
359.4 203.079 L
359.788 203.195 L
360.175 202.185 L
360.563 201.895 L
360.95 202.373 L
361.337 202.301 L
361.725 202.536 L
362.112 202.141 L
362.5 202.695 L
362.888 202.568 L
363.275 201.734 L
363.663 202 L
364.05 202.234 L
364.438 202.332 L
364.825 201.754 L
365.212 201.692 L
365.6 200.787 L
365.987 201.674 L
366.375 200.1 L
366.763 199.78 L
367.15 200.633 L
367.538 200.217 L
367.925 201.305 L
368.313 201.514 L
368.7 201.121 L
369.087 201.121 L
369.475 200.614 L
369.862 200.446 L
370.25 200.446 L
370.638 199.939 L
371.025 199.203 L
371.413 200.471 L
371.8 199.958 L
372.188 201.063 L
372.575 200.258 L
372.962 200.289 L
373.35 200.002 L
373.737 198.748 L
374.125 198.383 L
374.513 199.103 L
374.9 198.503 L
375.288 198.503 L
375.675 198.281 L
376.063 199.135 L
376.45 199.116 L
376.837 199.471 L
377.225 200.034 L
377.612 199.353 L
378 200.206 L
378.388 199.886 L
378.775 199.886 L
379.163 200.871 L
379.55 202.085 L
379.938 203.45 L
380.325 203.908 L
380.712 204.228 L
381.1 204.041 L
381.487 203.243 L
381.875 203.243 L
382.263 203.157 L
382.65 203.741 L
383.038 205.64 L
383.425 204.044 L
383.813 202.956 L
384.2 203.843 L
384.587 204.793 L
384.975 205.743 L
385.362 206.189 L
385.75 205.835 L
386.138 207.804 L
386.525 208.124 L
386.913 206.824 L
387.3 208.346 L
387.688 207.63 L
388.075 207.421 L
388.462 207.643 L
388.85 206.441 L
389.237 207.391 L
389.625 207.146 L
390.013 206.582 L
390.4 206.444 L
390.788 206.858 L
391.175 206.173 L
391.563 207.25 L
391.95 205.136 L
392.337 204.999 L
392.725 205.294 L
393.112 205.826 L
393.5 206.654 L
393.888 206.744 L
394.275 206.663 L
394.663 206.073 L
395.05 205.567 L
395.438 205.915 L
395.825 205.706 L
396.212 205.6 L
396.6 204.732 L
396.987 204.523 L
397.375 204.746 L
397.763 203.937 L
398.15 203.799 L
398.538 203.673 L
398.925 203.166 L
399.313 202.642 L
399.7 202.642 L
400.087 202.474 L
400.475 202.154 L
400.862 202.785 L
401.25 202.785 L
401.638 202.2 L
402.025 201.109 L
402.413 200.941 L
402.8 199.363 L
403.188 199.65 L
403.575 199.788 L
403.962 198.92 L
404.35 197.97 L
404.737 197.339 L
405.125 197.798 L
405.513 197.646 L
405.9 196.696 L
406.288 196.112 L
406.675 196.463 L
407.063 195.921 L
407.45 196.403 L
407.837 195.758 L
408.225 195.929 L
408.612 196.567 L
409 194.934 L
409.388 195.261 L
409.775 194.845 L
410.163 195.135 L
410.55 194.337 L
410.938 193.82 L
411.325 192.967 L
411.712 194.331 L
412.1 193.266 L
412.487 192.129 L
412.875 191.743 L
413.263 191.229 L
413.65 190.493 L
414.038 190.493 L
414.425 191.891 L
414.813 191.117 L
415.2 189.804 L
415.587 189.159 L
415.975 188.359 L
416.362 187.466 L
416.75 186.268 L
417.138 186.406 L
417.525 187.007 L
417.913 187.465 L
418.3 187.465 L
418.688 187.085 L
419.075 186.72 L
419.462 186.533 L
419.85 186.147 L
420.237 185.465 L
420.625 184.153 L
421.013 183.907 L
421.4 185.122 L
421.788 185.841 L
422.175 185.455 L
422.563 184.47 L
422.95 183.979 L
423.337 183.14 L
423.725 182.917 L
424.112 183.867 L
424.5 183.283 L
424.888 182.083 L
425.275 182.083 L
425.663 181.626 L
426.05 182.042 L
426.438 181.798 L
426.825 180.944 L
427.212 179.644 L
427.6 179.421 L
427.987 178.635 L
428.375 178.483 L
428.763 178.805 L
429.15 177.797 L
429.538 177.968 L
429.925 177.455 L
430.313 178.085 L
430.7 177.508 L
431.087 177.708 L
431.475 176.967 L
431.862 177.092 L
432.25 177.583 L
432.638 176.96 L
433.025 176.96 L
433.413 177.183 L
433.8 177.538 L
434.188 176.729 L
434.575 177.024 L
434.962 178.114 L
435.35 178.159 L
435.737 179.765 L
436.125 180.681 L
436.513 180.894 L
436.9 181.214 L
437.288 180.229 L
437.675 179.816 L
438.063 181.03 L
438.45 181.41 L
438.837 181.583 L
439.225 180.998 L
439.612 181.294 L
440 182.129 L
440.388 181.799 L
440.775 181.531 L
441.163 180.581 L
441.55 180.871 L
441.938 181.82 L
442.325 183.228 L
442.712 182.851 L
443.1 184.405 L
443.487 184.756 L
443.875 183.541 L
444.263 183.957 L
444.65 184.154 L
445.038 184.474 L
445.425 185.592 L
445.813 184.504 L
446.2 184.844 L
446.587 184.193 L
446.975 185.356 L
447.362 184.813 L
447.75 185.009 L
448.138 184.13 L
448.525 184.998 L
448.913 185.833 L
449.3 185.342 L
449.688 185.937 L
450.075 184.906 L
450.462 184.996 L
450.85 184.35 L
451.237 184.223 L
451.625 183.649 L
452.013 183.55 L
452.4 184.642 L
452.788 184.419 L
453.175 183.922 L
453.563 183.477 L
453.95 183.209 L
454.337 182.808 L
454.725 183.169 L
455.112 182.795 L
455.5 183.691 L
455.888 183.339 L
456.275 183.125 L
456.663 182.957 L
457.05 182.744 L
457.438 181.727 L
457.825 180.094 L
458.212 179.86 L
458.6 179.626 L
458.987 180.606 L
459.375 181.76 L
459.763 181.023 L
460.15 181.867 L
460.538 182.548 L
460.925 182.315 L
461.313 182.315 L
461.7 181.365 L
462.087 180.621 L
462.475 181.349 L
462.862 179.699 L
463.25 179.668 L
463.638 179.348 L
464.025 178.931 L
464.413 180.564 L
464.8 180.751 L
465.188 180.831 L
465.575 182.585 L
465.962 181.95 L
466.35 182.891 L
466.737 181.835 L
467.125 182.378 L
467.513 183.777 L
467.9 185.163 L
468.288 183.798 L
468.675 183.503 L
469.063 184.049 L
469.45 182.852 L
469.837 183.049 L
470.225 182.958 L
470.612 184.258 L
471 184.772 L
471.388 186.35 L
471.775 187.353 L
472.163 186.535 L
472.55 186.758 L
472.938 187.419 L
473.325 187.123 L
473.712 187.391 L
474.1 187.497 L
474.487 188.212 L
474.875 189.187 L
475.263 187.197 L
475.65 188.208 L
476.038 187.964 L
476.425 187.451 L
476.813 187.909 L
477.2 187.821 L
477.587 188.465 L
477.975 187.939 L
478.362 187.599 L
478.75 186.398 L
479.138 185.333 L
479.525 186.238 L
479.913 185.313 L
480.3 185.708 L
480.688 186.003 L
481.075 185.758 L
481.462 185.112 L
481.85 185.947 L
482.237 185.947 L
482.625 187.598 L
483.013 187.862 L
483.4 188.086 L
483.788 189.065 L
484.175 188.022 L
484.563 186.742 L
484.95 186.097 L
485.337 185.044 L
485.725 185.456 L
486.112 184.72 L
486.5 185.518 L
486.888 186.522 L
487.275 186.45 L
487.663 185.465 L
488.05 185.549 L
488.438 185.935 L
488.825 185.935 L
489.212 185.935 L
489.6 185.579 L
489.987 186.672 L
490.375 185.723 L
490.763 185.433 L
491.15 184.556 L
491.538 184.388 L
491.925 184.199 L
492.313 184.082 L
492.7 183.918 L
493.087 183.24 L
493.475 183.395 L
493.862 184.675 L
494.25 183.277 L
494.638 182.409 L
495.025 183.502 L
495.413 183.689 L
495.8 184.39 L
496.188 184.752 L
496.575 184.892 L
496.962 185.711 L
497.35 186.465 L
497.737 187.225 L
498.125 186.791 L
498.513 186.799 L
498.9 186.799 L
499.288 186.986 L
499.675 187.912 L
500.063 187.348 L
500.45 188.237 L
500.837 187.655 L
501.225 187.745 L
501.612 187.455 L
502 186.449 L
502.388 185.595 L
502.775 186.811 L
503.163 186.686 L
503.55 186.291 L
503.938 186.446 L
504.325 187.082 L
504.712 187.454 L
505.1 187.688 L
505.487 188.556 L
505.875 188.367 L
506.263 186.869 L
506.65 186.088 L
507.038 186.088 L
507.425 186.428 L
507.813 187.353 L
508.2 187.201 L
508.587 187.474 L
508.975 188.075 L
509.362 189.894 L
509.75 190.217 L
510.138 190.451 L
510.525 190.496 L
510.913 190.145 L
511.3 190.227 L
511.688 190.862 L
512.075 191.301 L
512.463 192.667 L
512.85 192.643 L
513.237 192.488 L
513.625 191.495 L
514.013 191.593 L
514.4 192.016 L
514.787 191.558 L
515.175 191.285 L
515.563 192.026 L
515.95 192.533 L
516.338 191.487 L
516.725 191.184 L
517.112 190.13 L
517.5 190.13 L
517.888 190.669 L
518.275 191.654 L
518.662 192.009 L
519.05 190.811 L
519.438 190.52 L
519.825 190.52 L
520.213 188.986 L
520.6 190.168 L
520.987 189.918 L
521.375 190.376 L
521.763 191.936 L
522.15 191.936 L
522.537 190.719 L
522.925 190.348 L
523.313 189.831 L
523.7 188.912 L
524.088 189.05 L
524.475 190.033 L
524.862 189.768 L
525.25 188.784 L
525.638 189.293 L
526.025 191.991 L
526.412 192.844 L
526.8 192.201 L
527.188 192.846 L
527.575 192.46 L
527.963 191.421 L
528.35 191.339 L
528.737 191.852 L
529.125 190.808 L
529.513 189.482 L
529.9 189.102 L
530.287 189.702 L
530.675 190.714 L
531.063 190.632 L
531.45 190.185 L
531.838 190.376 L
532.225 188.787 L
532.612 189.458 L
533 188.778 L
533.388 189.98 L
533.775 191.515 L
534.162 191.453 L
534.55 191.327 L
534.938 192.309 L
535.325 192.123 L
535.713 192.832 L
536.1 194.291 L
536.487 195.617 L
536.875 195.957 L
537.263 196.018 L
537.65 196.252 L
538.037 195.652 L
538.425 195.007 L
538.813 194.559 L
539.2 195.124 L
539.588 194.834 L
539.975 195.48 L
540.362 194.709 L
540.75 195.9 L
541.138 195.486 L
541.525 195.882 L
541.912 196.446 L
542.3 195.686 L
542.688 196.31 L
543.075 196.243 L
543.463 196.836 L
543.85 197.343 L
544.237 196.633 L
544.625 196.804 L
545.013 197.602 L
545.4 197.866 L
545.787 196.208 L
546.175 196.443 L
546.563 196.178 L
546.95 194.814 L
547.338 195.368 L
547.725 196.727 L
548.112 196.214 L
548.5 197.319 L
548.888 197.349 L
549.275 197.652 L
549.662 197.175 L
550.05 196.668 L
550.438 195.234 L
550.825 194.817 L
551.213 195.722 L
551.6 195.89 L
551.987 196.113 L
552.375 196.378 L
552.763 197.866 L
553.15 196.294 L
553.537 195.495 L
553.925 196.002 L
554.313 196.267 L
554.7 195.112 L
555.088 194.944 L
555.475 193.728 L
555.862 192.93 L
556.25 192.287 L
556.638 192.439 L
557.025 192.377 L
557.412 192.884 L
557.8 192.616 L
558.188 192.374 L
558.575 194.02 L
558.963 193.914 L
559.35 194.113 L
559.737 194.204 L
560.125 194.975 L
560.513 194.063 L
560.9 193.572 L
561.287 193.008 L
561.675 193.089 L
562.063 194.355 L
562.45 194.451 L
562.838 194.354 L
563.225 194.354 L
563.612 194.797 L
564 194.443 L
564.388 193.952 L
564.775 193.952 L
565.162 195.168 L
565.55 196.021 L
565.938 196.021 L
566.325 197.236 L
566.713 199.043 L
567.1 198.237 L
567.487 198.867 L
567.875 199.735 L
568.263 199.428 L
568.65 200.169 L
569.037 199.775 L
569.425 201.849 L
569.813 202.169 L
570.2 203.684 L
570.588 203.587 L
570.975 203.002 L
571.362 202.744 L
571.75 203.257 L
572.138 204.473 L
572.525 203.664 L
572.912 205.101 L
573.3 204.715 L
573.688 204.528 L
574.075 204.264 L
574.463 203.428 L
574.85 203.783 L
575.237 204.29 L
575.625 204.388 L
576.013 204.154 L
576.4 204.952 L
576.787 205.956 L
577.175 205.956 L
577.563 206.638 L
577.95 207.079 L
578.338 206.434 L
578.725 206.621 L
579.112 206.082 L
579.5 205.93 L
579.888 205.484 L
580.275 205.98 L
580.662 206.717 L
581.05 206.203 L
581.438 206.913 L
581.825 205.646 L
582.213 205.846 L
582.6 206.714 L
582.987 206.492 L
583.375 205.862 L
583.763 206.66 L
584.15 207.751 L
584.537 207.858 L
584.925 207.22 L
585.313 207.011 L
585.7 207.011 L
586.088 205.722 L
586.475 204.924 L
586.862 205.917 L
587.25 205.917 L
587.638 205.146 L
588.025 204.516 L
588.412 203.916 L
588.8 204.689 L
589.188 203.093 L
589.575 202 L
589.963 201.813 L
590.35 202.326 L
590.737 203.097 L
591.125 202.898 L
591.513 203.252 L
591.9 201.179 L
592.287 201.038 L
592.675 199.973 L
593.063 200.207 L
593.45 199.749 L
593.838 200.013 L
594.225 201.107 L
594.612 200.367 L
595 198.98 L
595.388 200.311 L
595.775 201.26 L
596.162 200.31 L
596.55 200.021 L
596.938 200.73 L
597.325 200.049 L
597.713 199.723 L
598.1 199.923 L
598.487 199.278 L
598.875 200.706 L
599.263 200.94 L
599.65 200.089 L
600.037 200.673 L
600.425 199.936 L
600.813 200.618 L
601.2 199.402 L
601.588 199.304 L
601.975 198.765 L
602.362 198.492 L
602.75 198.598 L
603.138 197.595 L
603.525 195.872 L
603.912 195.685 L
604.3 195.765 L
604.688 195.049 L
605.075 193.85 L
605.463 193.22 L
605.85 194.729 L
606.237 194.729 L
606.625 194.729 L
607.013 193.931 L
607.4 193.512 L
607.787 194.449 L
608.175 195.186 L
608.563 194.922 L
608.95 195.945 L
609.338 196.58 L
609.725 197.21 L
610.112 197.378 L
610.5 196.607 L
610.888 196.897 L
611.275 195.351 L
611.662 196.529 L
612.05 197.083 L
612.438 198.285 L
612.825 197.807 L
613.213 197.565 L
613.6 198.28 L
613.987 196.952 L
614.375 197.186 L
614.763 199.015 L
615.15 198.708 L
615.537 197.993 L
615.925 198.708 L
616.313 197.759 L
616.7 197.759 L
617.088 198.836 L
617.475 198.962 L
617.862 199.221 L
618.25 199.125 L
618.638 197.91 L
619.025 196.819 L
619.412 198.115 L
619.8 196.938 L
620.188 197.522 L
620.575 196.841 L
620.963 197.161 L
621.35 197.54 L
621.737 197.754 L
622.125 197.382 L
622.513 198.269 L
622.9 198.718 L
623.287 199.491 L
623.675 198.937 L
624.063 197.495 L
624.45 197.633 L
624.838 197.963 L
625.225 197.165 L
625.612 195.635 L
626 195.909 L
626.388 195.909 L
626.775 195.663 L
627.162 196.666 L
627.55 195.271 L
627.938 195.343 L
628.325 196.558 L
628.713 196.067 L
629.1 196.92 L
629.487 195.877 L
629.875 195.709 L
630.263 195.038 L
630.65 194.652 L
631.037 196.471 L
631.425 196.866 L
631.813 196.185 L
632.2 194.393 L
632.588 194.403 L
632.975 195.181 L
633.362 195.682 L
633.75 196.007 L
634.138 195.743 L
634.525 195.299 L
634.912 194.071 L
635.3 193.691 L
635.688 192.637 L
636.075 192.403 L
636.463 191.83 L
636.85 190.107 L
637.237 190.206 L
637.625 189.112 L
638.013 188.655 L
638.4 188.236 L
638.787 190.044 L
639.175 189.537 L
639.563 189.927 L
639.95 190.247 L
640.338 190.269 L
640.725 189.856 L
641.112 189.866 L
641.5 189.769 L
641.888 189.769 L
642.275 189.769 L
642.662 189.418 L
643.05 188.95 L
643.438 188.222 L
643.825 189.309 L
644.213 188.023 L
644.6 188.704 L
644.987 188.948 L
645.375 190.025 L
645.763 190.105 L
646.15 188.032 L
646.537 187.22 L
646.925 186.432 L
647.313 185.401 L
647.7 184.747 L
648.088 183.486 L
648.475 183.1 L
648.862 181.701 L
649.25 181.947 L
649.638 181.112 L
650.025 182.281 L
650.412 181.832 L
650.8 180.263 L
651.188 180.764 L
651.575 180.318 L
651.963 181.014 L
652.35 181.014 L
652.737 179.808 L
653.125 177.9 L
653.513 178.272 L
653.9 176.921 L
654.287 175.937 L
654.675 175.839 L
655.063 175.02 L
655.45 173.956 L
655.838 172.962 L
656.225 170.723 L
656.612 171.146 L
657 170.502 L
657.388 170.468 L
657.775 170.008 L
658.162 169.756 L
658.55 167.465 L
658.938 166.657 L
659.325 166.54 L
659.713 167.225 L
660.1 166.365 L
660.487 165.307 L
660.875 164.624 L
661.263 163.13 L
661.65 162.26 L
662.037 159.788 L
662.425 158.916 L
662.813 157.799 L
663.2 157.643 L
663.588 156.497 L
663.975 156.585 L
664.362 154.924 L
664.75 153.919 L
665.138 151.851 L
665.525 149.737 L
665.912 149.835 L
666.3 149.804 L
666.688 148.767 L
667.075 148.086 L
667.463 146.496 L
667.85 145.122 L
668.237 144.134 L
668.625 143.882 L
669.013 143.964 L
669.4 142.961 L
669.787 141.506 L
670.175 140.552 L
670.563 139.601 L
670.95 137.48 L
671.338 136.721 L
671.725 135.982 L
672.112 135.865 L
672.5 135.157 L
672.888 134.809 L
673.275 134.045 L
673.662 134.666 L
674.05 133.371 L
674.438 132.935 L
674.825 133.015 L
675.213 133.629 L
675.6 134.301 L
675.987 134.858 L
676.375 133.89 L
676.763 133.882 L
677.15 133.65 L
677.537 134.217 L
677.925 133.866 L
678.313 134.399 L
678.7 134.349 L
679.088 133.971 L
679.475 132.137 L
679.862 132.049 L
680.25 131.86 L
680.638 131.326 L
681.025 132.173 L
681.412 131.123 L
681.8 131.627 L
682.188 132.722 L
682.575 134.268 L
682.963 134.481 L
683.35 134.024 L
683.737 134.317 L
684.125 134.664 L
684.513 134.173 L
684.9 134.485 L
685.287 135.304 L
685.675 135.072 L
686.063 135.102 L
686.45 134.993 L
686.838 135.03 L
687.225 135.858 L
687.612 136.959 L
688 137.003 L
688.388 136.088 L
688.775 134.568 L
689.162 135.464 L
689.55 135.646 L
689.938 136.404 L
690.325 136.858 L
690.713 136.491 L
691.1 136.28 L
691.487 135.586 L
691.875 135.14 L
692.263 135.505 L
692.65 136.076 L
693.037 136.918 L
693.425 137.007 L
693.813 137.704 L
694.2 138.238 L
694.588 137.742 L
694.975 136.759 L
695.362 136.856 L
695.75 136.118 L
696.138 136.698 L
696.525 136.043 L
696.912 135.621 L
697.3 135.27 L
697.688 135.767 L
698.075 134.626 L
698.463 134.143 L
698.85 133.429 L
699.237 133.266 L
699.625 133.673 L
700.013 133.128 L
700.4 134.122 L
700.787 133.318 L
701.175 134.177 L
701.563 134.236 L
701.95 133.558 L
702.338 132.445 L
702.725 133.584 L
703.112 133.996 L
703.5 133.385 L
703.888 134.886 L
704.275 135.111 L
704.662 135.916 L
705.05 135.189 L
705.438 136.011 L
705.825 135.46 L
706.213 136.285 L
706.6 137.218 L
706.987 137.146 L
707.375 137.017 L
707.763 136.897 L
708.15 137.195 L
708.537 137.545 L
708.925 137.652 L
709.313 137.99 L
709.7 138.507 L
710.088 139.656 L
710.475 140.245 L
710.862 141.929 L
711.25 142.862 L
711.638 142.607 L
712.025 142.969 L
712.412 144.08 L
712.8 143.074 L
713.188 143.618 L
713.575 144.6 L
713.963 143.781 L
714.35 144.174 L
714.737 146.181 L
715.125 146.288 L
715.513 147.103 L
715.9 147.036 L
716.287 146.768 L
716.675 146.99 L
717.063 147.118 L
717.45 146.756 L
717.838 148.227 L
718.225 148.346 L
718.612 149.683 L
719 149.274 L
719.388 148.538 L
719.775 149.945 L
720.162 149.945 L
720.55 150.536 L
720.938 150.961 L
721.325 151.143 L
721.713 151.821 L
722.1 152.281 L
722.487 151.053 L
722.875 151.829 L
723.263 153.111 L
723.65 151.405 L
724.037 152.006 L
724.425 151.548 L
724.813 151.661 L
725.2 150.989 L
725.588 151.098 L
725.975 151.526 L
726.362 151.329 L
726.75 151.314 L
727.138 151.443 L
727.525 151.951 L
727.912 152.249 L
728.3 152.411 L
728.688 152.509 L
729.075 151.807 L
729.463 151.058 L
729.85 149.91 L
730.237 149.306 L
730.625 149.306 L
731.013 148.888 L
731.4 149.239 L
731.787 149.794 L
732.175 147.974 L
732.563 148.522 L
732.95 148.299 L
733.338 147.316 L
733.725 147.168 L
734.112 148.027 L
734.5 146.914 L
734.888 147.361 L
735.275 147.444 L
735.662 146.277 L
736.05 146.781 L
736.438 146.468 L
736.825 146.468 L
737.213 147.035 L
737.6 147.035 L
737.987 147.377 L
738.375 146.375 L
738.763 146.31 L
739.15 146.578 L
739.537 145.904 L
739.925 145.806 L
740.313 145.85 L
740.7 145.221 L
741.088 146.081 L
741.475 145.653 L
741.862 145.305 L
742.25 146.26 L
742.638 145.018 L
743.025 143.966 L
743.412 143.987 L
743.8 144.531 L
744.188 144.744 L
744.575 144.795 L
744.963 146.309 L
745.35 146.309 L
745.737 145.074 L
746.125 144.803 L
746.513 144.441 L
746.9 143.786 L
747.287 144.098 L
747.675 144.131 L
748.063 143.793 L
748.45 142.975 L
748.838 144.378 L
749.225 146.132 L
749.612 146.387 L
750 146.27 L
750.388 145.253 L
750.775 145.147 L
751.162 144.862 L
751.55 143.579 L
751.938 143.681 L
752.325 143.515 L
752.713 143.22 L
753.1 142.893 L
753.487 143.042 L
753.875 141.425 L
754.263 140.564 L
754.65 139.35 L
755.037 138.231 L
755.425 138.975 L
755.813 138.739 L
756.2 139.14 L
756.588 140.182 L
756.975 139.773 L
757.362 139.029 L
757.75 139.324 L
758.138 139.366 L
758.525 139.9 L
758.912 140.457 L
759.3 140.646 L
759.688 140.089 L
760.075 141.002 L
760.463 140.746 L
760.85 140.768 L
761.237 140.154 L
761.625 140.404 L
762.013 140.209 L
762.4 140.312 L
762.787 141.75 L
763.175 141.155 L
763.563 140.44 L
763.95 139.281 L
764.338 139.95 L
764.725 139.027 L
765.112 139.196 L
765.5 140.558 L
765.888 141.671 L
766.275 142.558 L
766.662 143.436 L
767.05 142.736 L
767.438 143.596 L
767.825 143.191 L
768.213 144.01 L
768.6 143.698 L
768.987 142.092 L
769.375 142.432 L
769.763 142.614 L
770.15 142.717 L
770.537 142.524 L
770.925 142.399 L
771.313 142.348 L
771.7 142.566 L
772.088 142.461 L
772.475 141.937 L
772.862 142.068 L
773.25 141.69 L
773.638 143.084 L
774.025 144.035 L
774.412 144.901 L
774.8 145.66 L
775.188 146.011 L
775.575 146.478 L
775.963 145.929 L
776.35 144.291 L
776.737 145.147 L
777.125 145.464 L
777.513 144.203 L
777.9 143.948 L
778.287 144.026 L
778.675 143.412 L
779.063 143.683 L
779.45 143.69 L
779.838 142.992 L
780.225 144.066 L
780.612 143.616 L
781 143.841 L
781.388 143.695 L
781.775 142.752 L
782.162 143.161 L
782.55 141.278 L
782.938 142.172 L
783.325 142.78 L
783.713 142.605 L
784.1 141.884 L
784.487 142.155 L
784.875 141.592 L
785.263 141.053 L
785.65 140.135 L
786.037 139.248 L
786.425 139.248 L
786.813 139.652 L
787.2 139.109 L
787.588 139.385 L
787.975 140.122 L
788.362 139.644 L
788.75 139.613 L
789.138 139.342 L
789.525 138.878 L
789.912 138.981 L
790.3 140.109 L
790.688 140.052 L
791.075 140.508 L
791.463 139.77 L
791.85 138.955 L
792.237 139.181 L
792.625 138.74 L
793.013 139.3 L
793.4 138.845 L
793.787 138.483 L
794.175 137.623 L
794.563 138.823 L
794.95 138.895 L
795.338 138.698 L
795.725 140.038 L
796.112 140.652 L
796.5 140.107 L
796.888 139.74 L
797.275 139.885 L
797.662 140.969 L
798.05 140.054 L
798.438 140.521 L
798.825 139.991 L
799.213 139.835 L
799.6 139.558 L
799.987 139.46 L
800.375 138.846 L
800.763 139.438 L
801.15 139.197 L
801.537 139.896 L
801.925 139.04 L
802.313 140.079 L
802.7 140.597 L
803.088 139.451 L
803.475 140.808 L
803.862 141.249 L
804.25 140.434 L
804.638 140.28 L
805.025 139.353 L
805.412 139.353 L
805.8 139.101 L
806.188 138.059 L
806.575 137.327 L
806.963 138.035 L
807.35 138.098 L
807.737 136.484 L
808.125 136.893 L
808.513 136.147 L
808.9 135.706 L
809.287 136.105 L
809.675 135.351 L
810.063 134.239 L
810.45 134.566 L
810.838 135.583 L
811.225 135.33 L
811.612 137.169 L
812 137.006 L
812.388 138.036 L
812.775 138.449 L
813.162 138.249 L
813.55 138.816 L
813.938 139.578 L
814.325 138.331 L
814.713 137.967 L
815.1 138.565 L
815.487 137.749 L
815.875 137.252 L
816.263 136.479 L
816.65 137.554 L
817.037 137.968 L
817.425 136.98 L
817.813 138.051 L
818.2 138.509 L
818.588 139.146 L
818.975 139.345 L
819.362 139.017 L
819.75 138.821 L
820.138 139.23 L
820.525 138.957 L
820.912 138.849 L
821.3 138.965 L
821.688 139.935 L
822.075 139.747 L
822.463 138.524 L
822.85 139.455 L
823.237 138.315 L
823.625 138.315 L
824.013 139.236 L
824.4 140.447 L
824.787 140.686 L
825.175 140.798 L
825.563 140.685 L
825.95 140.583 L
826.338 141.892 L
826.725 140.358 L
827.112 140.425 L
827.5 140.81 L
827.888 139.079 L
828.275 139.915 L
828.662 140.733 L
829.05 140.98 L
829.438 141.183 L
829.825 141.411 L
830.213 141.629 L
830.6 140.437 L
830.987 141.109 L
831.375 139.826 L
831.763 140.483 L
832.15 140.582 L
832.537 139.794 L
832.925 140.547 L
833.313 139.91 L
833.7 139.532 L
834.088 139.267 L
834.475 139.43 L
834.862 139.225 L
835.25 139.327 L
835.638 138.912 L
836.025 139.016 L
836.412 137.646 L
836.8 137.296 L
837.188 137.2 L
837.575 137.423 L
837.963 136.68 L
838.35 135.579 L
838.737 137.197 L
839.125 137.063 L
839.513 137.849 L
839.9 138.842 L
840.287 138.203 L
840.675 138.25 L
841.063 136.734 L
841.45 136.374 L
841.838 136.776 L
842.225 136.675 L
842.612 135.818 L
843 136.062 L
843.388 136.557 L
843.775 136.262 L
844.162 135.724 L
844.55 136.306 L
844.938 136.383 L
845.325 136.602 L
845.713 137.416 L
846.1 136.266 L
846.487 135.99 L
846.875 135.639 L
847.263 135.564 L
847.65 136.272 L
848.037 136.025 L
848.425 135.753 L
848.813 136.314 L
849.2 137.087 L
849.588 137.363 L
849.975 137 L
850.362 137.497 L
850.75 137.475 L
851.138 137.241 L
851.525 136.988 L
851.912 137.479 L
852.3 137.728 L
852.688 136.297 L
853.075 136.246 L
853.463 135.523 L
853.85 135.624 L
854.237 136.629 L
854.625 136.073 L
855.013 135.418 L
855.4 136.125 L
855.787 136.125 L
856.175 136.096 L
856.563 136.512 L
856.95 137.185 L
857.338 136.987 L
857.725 136.911 L
858.112 137.357 L
858.5 136.452 L
858.888 137.19 L
859.275 135.471 L
859.662 134.463 L
860.05 134.997 L
860.438 135.876 L
860.825 136.963 L
861.213 137.725 L
861.6 137.501 L
861.987 138.081 L
862.375 139.153 L
862.763 139.219 L
863.15 137.986 L
863.537 138.28 L
863.925 138.099 L
864.313 138.12 L
864.7 137.237 L
865.088 138.196 L
865.475 138.653 L
865.862 138.494 L
866.25 138.723 L
866.638 139.223 L
867.025 138.715 L
867.412 138.941 L
867.8 138.981 L
868.188 138.599 L
868.575 137.304 L
868.963 137.214 L
869.35 137.179 L
869.737 136.903 L
870.125 137.495 L
870.513 137.08 L
870.9 137.314 L
871.287 137.314 L
871.675 135.749 L
872.063 135.318 L
872.45 135.301 L
872.838 135.076 L
873.225 135.799 L
873.612 135.503 L
874 134.705 L
874.388 134.869 L
874.775 135.637 L
875.162 135.858 L
875.55 135.105 L
875.938 136.762 L
876.325 136.106 L
876.713 135.992 L
877.1 135.557 L
877.487 135.86 L
877.875 135.878 L
878.263 135.606 L
878.65 135.76 L
879.037 135.987 L
879.425 135.818 L
879.813 136.089 L
880.2 134.051 L
880.588 133.335 L
880.975 131.754 L
881.362 132.318 L
881.75 133.561 L
882.138 132.462 L
882.525 132.292 L
882.912 132.18 L
883.3 131.771 L
883.688 132.317 L
884.075 132.295 L
884.463 133.663 L
884.85 132.316 L
885.237 131.329 L
885.625 131.899 L
886.013 132.379 L
886.4 132.627 L
886.787 133.247 L
887.175 133.17 L
887.563 133.402 L
887.95 133.762 L
888.338 134.194 L
888.725 133.747 L
889.112 134 L
889.5 134.345 L
889.888 134.604 L
890.275 135.527 L
890.662 135.786 L
891.05 135.318 L
891.438 135.301 L
891.825 135.792 L
892.213 137.688 L
892.6 138.191 L
892.987 137.976 L
893.375 138.648 L
893.763 138.978 L
894.15 139.014 L
894.537 138.69 L
894.925 137.724 L
895.313 138.753 L
895.7 137.593 L
896.088 138.405 L
896.475 138.311 L
896.862 138.341 L
897.25 138.242 L
897.638 138.396 L
898.025 138.136 L
898.412 137.805 L
898.8 138.402 L
899.188 138.52 L
899.575 138.025 L
899.963 139.739 L
900.35 140.343 L
900.737 141.741 L
901.125 140.496 L
901.513 138.779 L
901.9 139.518 L
902.287 140.13 L
902.675 141.348 L
903.063 141.299 L
903.45 141.014 L
903.838 140.747 L
904.225 139.731 L
904.612 140.92 L
905 141.291 L
S
GR
%%Trailer
%%Pages: 1
%%EOF
