%!PS-Adobe-3.0 EPSF-3.0
%%Creator: (MATLAB, The Mathworks, Inc. Version 9.0.0.341360 \(R2016a\). Operating System: Linux)
%%Title: report/figures/sm_mtgt_softmax_unifprio_ratio.eps
%%CreationDate: 2017-02-04T23:56:42
%%Pages: (atend)
%%BoundingBox:    59     4   910   325
%%LanguageLevel: 3
%%EndComments
%%BeginProlog
%%BeginResource: procset (Apache XML Graphics Std ProcSet) 1.2 0
%%Version: 1.2 0
%%Copyright: (Copyright 2001-2003,2010 The Apache Software Foundation. License terms: http://www.apache.org/licenses/LICENSE-2.0)
/bd{bind def}bind def
/ld{load def}bd
/GR/grestore ld
/M/moveto ld
/LJ/setlinejoin ld
/C/curveto ld
/f/fill ld
/LW/setlinewidth ld
/GC/setgray ld
/t/show ld
/N/newpath ld
/CT/concat ld
/cp/closepath ld
/S/stroke ld
/L/lineto ld
/CC/setcmykcolor ld
/A/ashow ld
/GS/gsave ld
/RC/setrgbcolor ld
/RM/rmoveto ld
/ML/setmiterlimit ld
/re {4 2 roll M
1 index 0 rlineto
0 exch rlineto
neg 0 rlineto
cp } bd
/_ctm matrix def
/_tm matrix def
/BT { _ctm currentmatrix pop matrix _tm copy pop 0 0 moveto } bd
/ET { _ctm setmatrix } bd
/iTm { _ctm setmatrix _tm concat } bd
/Tm { _tm astore pop iTm 0 0 moveto } bd
/ux 0.0 def
/uy 0.0 def
/F {
  /Tp exch def
  /Tf exch def
  Tf findfont Tp scalefont setfont
  /cf Tf def  /cs Tp def
} bd
/ULS {currentpoint /uy exch def /ux exch def} bd
/ULE {
  /Tcx currentpoint pop def
  gsave
  newpath
  cf findfont cs scalefont dup
  /FontMatrix get 0 get /Ts exch def /FontInfo get dup
  /UnderlinePosition get Ts mul /To exch def
  /UnderlineThickness get Ts mul /Tt exch def
  ux uy To add moveto  Tcx uy To add lineto
  Tt setlinewidth stroke
  grestore
} bd
/OLE {
  /Tcx currentpoint pop def
  gsave
  newpath
  cf findfont cs scalefont dup
  /FontMatrix get 0 get /Ts exch def /FontInfo get dup
  /UnderlinePosition get Ts mul /To exch def
  /UnderlineThickness get Ts mul /Tt exch def
  ux uy To add cs add moveto Tcx uy To add cs add lineto
  Tt setlinewidth stroke
  grestore
} bd
/SOE {
  /Tcx currentpoint pop def
  gsave
  newpath
  cf findfont cs scalefont dup
  /FontMatrix get 0 get /Ts exch def /FontInfo get dup
  /UnderlinePosition get Ts mul /To exch def
  /UnderlineThickness get Ts mul /Tt exch def
  ux uy To add cs 10 mul 26 idiv add moveto Tcx uy To add cs 10 mul 26 idiv add lineto
  Tt setlinewidth stroke
  grestore
} bd
/QT {
/Y22 exch store
/X22 exch store
/Y21 exch store
/X21 exch store
currentpoint
/Y21 load 2 mul add 3 div exch
/X21 load 2 mul add 3 div exch
/X21 load 2 mul /X22 load add 3 div
/Y21 load 2 mul /Y22 load add 3 div
/X22 load /Y22 load curveto
} bd
/SSPD {
dup length /d exch dict def
{
/v exch def
/k exch def
currentpagedevice k known {
/cpdv currentpagedevice k get def
v cpdv ne {
/upd false def
/nullv v type /nulltype eq def
/nullcpdv cpdv type /nulltype eq def
nullv nullcpdv or
{
/upd true def
} {
/sametype v type cpdv type eq def
sametype {
v type /arraytype eq {
/vlen v length def
/cpdvlen cpdv length def
vlen cpdvlen eq {
0 1 vlen 1 sub {
/i exch def
/obj v i get def
/cpdobj cpdv i get def
obj cpdobj ne {
/upd true def
exit
} if
} for
} {
/upd true def
} ifelse
} {
v type /dicttype eq {
v {
/dv exch def
/dk exch def
/cpddv cpdv dk get def
dv cpddv ne {
/upd true def
exit
} if
} forall
} {
/upd true def
} ifelse
} ifelse
} if
} ifelse
upd true eq {
d k v put
} if
} if
} if
} forall
d length 0 gt {
d setpagedevice
} if
} bd
%%EndResource
%%BeginResource: procset (Apache XML Graphics EPS ProcSet) 1.0 0
%%Version: 1.0 0
%%Copyright: (Copyright 2002-2003 The Apache Software Foundation. License terms: http://www.apache.org/licenses/LICENSE-2.0)
/BeginEPSF { %def
/b4_Inc_state save def         % Save state for cleanup
/dict_count countdictstack def % Count objects on dict stack
/op_count count 1 sub def      % Count objects on operand stack
userdict begin                 % Push userdict on dict stack
/showpage { } def              % Redefine showpage, { } = null proc
0 setgray 0 setlinecap         % Prepare graphics state
1 setlinewidth 0 setlinejoin
10 setmiterlimit [ ] 0 setdash newpath
/languagelevel where           % If level not equal to 1 then
{pop languagelevel             % set strokeadjust and
1 ne                           % overprint to their defaults.
{false setstrokeadjust false setoverprint
} if
} if
} bd
/EndEPSF { %def
count op_count sub {pop} repeat            % Clean up stacks
countdictstack dict_count sub {end} repeat
b4_Inc_state restore
} bd
%%EndResource
%%EndProlog
%%Page: 1 1
%%PageBoundingBox: 0 0 1000 350
%%BeginPageSetup
[1 0 0 -1 0 350] CT
%%EndPageSetup
GS
1 GC
N
0 0 1000 350 re
f
GR
GS
1 GC
N
0 0 1000 350 re
f
GR
GS
1 GC
N
130 289 M
905 289 L
905 26 L
130 26 L
cp
f
GR
GS
0.873 GC
1 LJ
0.5 LW
N
130 289 M
130 26 L
S
GR
GS
0.873 GC
1 LJ
0.5 LW
N
226.875 289 M
226.875 26 L
S
GR
GS
0.873 GC
1 LJ
0.5 LW
N
323.75 289 M
323.75 26 L
S
GR
GS
0.873 GC
1 LJ
0.5 LW
N
420.625 289 M
420.625 26 L
S
GR
GS
0.873 GC
1 LJ
0.5 LW
N
517.5 289 M
517.5 26 L
S
GR
GS
0.873 GC
1 LJ
0.5 LW
N
614.375 289 M
614.375 26 L
S
GR
GS
0.873 GC
1 LJ
0.5 LW
N
711.25 289 M
711.25 26 L
S
GR
GS
0.873 GC
1 LJ
0.5 LW
N
808.125 289 M
808.125 26 L
S
GR
GS
0.873 GC
1 LJ
0.5 LW
N
905 289 M
905 26 L
S
GR
GS
0.873 GC
1 LJ
0.5 LW
N
905 289 M
130 289 L
S
GR
GS
0.873 GC
1 LJ
0.5 LW
N
905 238.905 M
130 238.905 L
S
GR
GS
0.873 GC
1 LJ
0.5 LW
N
905 188.81 M
130 188.81 L
S
GR
GS
0.873 GC
1 LJ
0.5 LW
N
905 138.714 M
130 138.714 L
S
GR
GS
0.873 GC
1 LJ
0.5 LW
N
905 88.619 M
130 88.619 L
S
GR
GS
0.873 GC
1 LJ
0.5 LW
N
905 38.524 M
130 38.524 L
S
GR
GS
0.149 GC
2 setlinecap
1 LJ
0.5 LW
N
130 289 M
905 289 L
S
GR
GS
0.149 GC
2 setlinecap
1 LJ
0.5 LW
N
130 289 M
130 281.25 L
S
GR
GS
0.149 GC
2 setlinecap
1 LJ
0.5 LW
N
226.875 289 M
226.875 281.25 L
S
GR
GS
0.149 GC
2 setlinecap
1 LJ
0.5 LW
N
323.75 289 M
323.75 281.25 L
S
GR
GS
0.149 GC
2 setlinecap
1 LJ
0.5 LW
N
420.625 289 M
420.625 281.25 L
S
GR
GS
0.149 GC
2 setlinecap
1 LJ
0.5 LW
N
517.5 289 M
517.5 281.25 L
S
GR
GS
0.149 GC
2 setlinecap
1 LJ
0.5 LW
N
614.375 289 M
614.375 281.25 L
S
GR
GS
0.149 GC
2 setlinecap
1 LJ
0.5 LW
N
711.25 289 M
711.25 281.25 L
S
GR
GS
0.149 GC
2 setlinecap
1 LJ
0.5 LW
N
808.125 289 M
808.125 281.25 L
S
GR
GS
0.149 GC
2 setlinecap
1 LJ
0.5 LW
N
905 289 M
905 281.25 L
S
GR
GS
[1 0 0 1 130 295] CT
0.149 GC
N
-2.656 17.344 M
4.219 17.344 L
4.219 19 L
-5.031 19 L
-5.031 17.344 L
-3.906 16.172 -1.969 14.219 QT
-0.031 12.266 0.469 11.688 QT
1.406 10.625 1.781 9.891 QT
2.156 9.156 2.156 8.438 QT
2.156 7.281 1.344 6.547 QT
0.531 5.813 -0.781 5.813 QT
-1.703 5.813 -2.734 6.133 QT
-3.766 6.453 -4.938 7.109 QT
-4.938 5.125 L
-3.75 4.641 -2.711 4.398 QT
-1.672 4.156 -0.813 4.156 QT
1.453 4.156 2.797 5.289 QT
4.141 6.422 4.141 8.313 QT
4.141 9.219 3.805 10.023 QT
3.469 10.828 2.578 11.922 QT
2.344 12.203 1.031 13.555 QT
-0.281 14.906 -2.656 17.344 QT
cp
f
GR
GS
[1 0 0 1 226.875 295] CT
0.149 GC
N
-12.156 17.344 M
-5.281 17.344 L
-5.281 19 L
-14.531 19 L
-14.531 17.344 L
-13.406 16.172 -11.469 14.219 QT
-9.531 12.266 -9.031 11.688 QT
-8.094 10.625 -7.719 9.891 QT
-7.344 9.156 -7.344 8.438 QT
-7.344 7.281 -8.156 6.547 QT
-8.969 5.813 -10.281 5.813 QT
-11.203 5.813 -12.234 6.133 QT
-13.266 6.453 -14.438 7.109 QT
-14.438 5.125 L
-13.25 4.641 -12.211 4.398 QT
-11.172 4.156 -10.313 4.156 QT
-8.047 4.156 -6.703 5.289 QT
-5.359 6.422 -5.359 8.313 QT
-5.359 9.219 -5.695 10.023 QT
-6.031 10.828 -6.922 11.922 QT
-7.156 12.203 -8.469 13.555 QT
-9.781 14.906 -12.156 17.344 QT
cp
-1.135 16.516 M
0.928 16.516 L
0.928 19 L
-1.135 19 L
-1.135 16.516 L
cp
5.238 4.422 M
12.988 4.422 L
12.988 6.078 L
7.051 6.078 L
7.051 9.656 L
7.473 9.5 7.902 9.43 QT
8.332 9.359 8.77 9.359 QT
11.207 9.359 12.637 10.695 QT
14.066 12.031 14.066 14.328 QT
14.066 16.672 12.598 17.977 QT
11.129 19.281 8.457 19.281 QT
7.551 19.281 6.598 19.125 QT
5.645 18.969 4.629 18.656 QT
4.629 16.672 L
5.504 17.156 6.441 17.391 QT
7.379 17.625 8.426 17.625 QT
10.113 17.625 11.098 16.734 QT
12.082 15.844 12.082 14.328 QT
12.082 12.797 11.098 11.906 QT
10.113 11.016 8.426 11.016 QT
7.629 11.016 6.848 11.195 QT
6.066 11.375 5.238 11.75 QT
5.238 4.422 L
cp
f
GR
GS
[1 0 0 1 323.75 295] CT
0.149 GC
N
1.609 11.141 M
3.031 11.438 3.828 12.398 QT
4.625 13.359 4.625 14.766 QT
4.625 16.922 3.141 18.102 QT
1.656 19.281 -1.078 19.281 QT
-2 19.281 -2.969 19.102 QT
-3.938 18.922 -4.969 18.563 QT
-4.969 16.656 L
-4.156 17.141 -3.18 17.383 QT
-2.203 17.625 -1.141 17.625 QT
0.719 17.625 1.688 16.891 QT
2.656 16.156 2.656 14.766 QT
2.656 13.469 1.758 12.742 QT
0.859 12.016 -0.75 12.016 QT
-2.453 12.016 L
-2.453 10.391 L
-0.672 10.391 L
0.781 10.391 1.547 9.813 QT
2.313 9.234 2.313 8.141 QT
2.313 7.016 1.523 6.414 QT
0.734 5.813 -0.75 5.813 QT
-1.563 5.813 -2.492 5.992 QT
-3.422 6.172 -4.531 6.531 QT
-4.531 4.781 L
-3.406 4.469 -2.43 4.313 QT
-1.453 4.156 -0.578 4.156 QT
1.672 4.156 2.977 5.18 QT
4.281 6.203 4.281 7.938 QT
4.281 9.141 3.586 9.977 QT
2.891 10.813 1.609 11.141 QT
cp
f
GR
GS
[1 0 0 1 420.625 295] CT
0.149 GC
N
-7.891 11.141 M
-6.469 11.438 -5.672 12.398 QT
-4.875 13.359 -4.875 14.766 QT
-4.875 16.922 -6.359 18.102 QT
-7.844 19.281 -10.578 19.281 QT
-11.5 19.281 -12.469 19.102 QT
-13.438 18.922 -14.469 18.563 QT
-14.469 16.656 L
-13.656 17.141 -12.68 17.383 QT
-11.703 17.625 -10.641 17.625 QT
-8.781 17.625 -7.813 16.891 QT
-6.844 16.156 -6.844 14.766 QT
-6.844 13.469 -7.742 12.742 QT
-8.641 12.016 -10.25 12.016 QT
-11.953 12.016 L
-11.953 10.391 L
-10.172 10.391 L
-8.719 10.391 -7.953 9.813 QT
-7.188 9.234 -7.188 8.141 QT
-7.188 7.016 -7.977 6.414 QT
-8.766 5.813 -10.25 5.813 QT
-11.063 5.813 -11.992 5.992 QT
-12.922 6.172 -14.031 6.531 QT
-14.031 4.781 L
-12.906 4.469 -11.93 4.313 QT
-10.953 4.156 -10.078 4.156 QT
-7.828 4.156 -6.523 5.18 QT
-5.219 6.203 -5.219 7.938 QT
-5.219 9.141 -5.914 9.977 QT
-6.609 10.813 -7.891 11.141 QT
cp
-1.135 16.516 M
0.928 16.516 L
0.928 19 L
-1.135 19 L
-1.135 16.516 L
cp
5.238 4.422 M
12.988 4.422 L
12.988 6.078 L
7.051 6.078 L
7.051 9.656 L
7.473 9.5 7.902 9.43 QT
8.332 9.359 8.77 9.359 QT
11.207 9.359 12.637 10.695 QT
14.066 12.031 14.066 14.328 QT
14.066 16.672 12.598 17.977 QT
11.129 19.281 8.457 19.281 QT
7.551 19.281 6.598 19.125 QT
5.645 18.969 4.629 18.656 QT
4.629 16.672 L
5.504 17.156 6.441 17.391 QT
7.379 17.625 8.426 17.625 QT
10.113 17.625 11.098 16.734 QT
12.082 15.844 12.082 14.328 QT
12.082 12.797 11.098 11.906 QT
10.113 11.016 8.426 11.016 QT
7.629 11.016 6.848 11.195 QT
6.066 11.375 5.238 11.75 QT
5.238 4.422 L
cp
f
GR
GS
[1 0 0 1 517.5 295] CT
0.149 GC
N
1.063 6.141 M
-3.922 13.922 L
1.063 13.922 L
1.063 6.141 L
cp
0.547 4.422 M
3.016 4.422 L
3.016 13.922 L
5.109 13.922 L
5.109 15.563 L
3.016 15.563 L
3.016 19 L
1.063 19 L
1.063 15.563 L
-5.516 15.563 L
-5.516 13.656 L
0.547 4.422 L
cp
f
GR
GS
[1 0 0 1 614.375 295] CT
0.149 GC
N
-8.438 6.141 M
-13.422 13.922 L
-8.438 13.922 L
-8.438 6.141 L
cp
-8.953 4.422 M
-6.484 4.422 L
-6.484 13.922 L
-4.391 13.922 L
-4.391 15.563 L
-6.484 15.563 L
-6.484 19 L
-8.438 19 L
-8.438 15.563 L
-15.016 15.563 L
-15.016 13.656 L
-8.953 4.422 L
cp
-1.135 16.516 M
0.928 16.516 L
0.928 19 L
-1.135 19 L
-1.135 16.516 L
cp
5.238 4.422 M
12.988 4.422 L
12.988 6.078 L
7.051 6.078 L
7.051 9.656 L
7.473 9.5 7.902 9.43 QT
8.332 9.359 8.77 9.359 QT
11.207 9.359 12.637 10.695 QT
14.066 12.031 14.066 14.328 QT
14.066 16.672 12.598 17.977 QT
11.129 19.281 8.457 19.281 QT
7.551 19.281 6.598 19.125 QT
5.645 18.969 4.629 18.656 QT
4.629 16.672 L
5.504 17.156 6.441 17.391 QT
7.379 17.625 8.426 17.625 QT
10.113 17.625 11.098 16.734 QT
12.082 15.844 12.082 14.328 QT
12.082 12.797 11.098 11.906 QT
10.113 11.016 8.426 11.016 QT
7.629 11.016 6.848 11.195 QT
6.066 11.375 5.238 11.75 QT
5.238 4.422 L
cp
f
GR
GS
[1 0 0 1 711.25 295] CT
0.149 GC
N
-4.344 4.422 M
3.406 4.422 L
3.406 6.078 L
-2.531 6.078 L
-2.531 9.656 L
-2.109 9.5 -1.68 9.43 QT
-1.25 9.359 -0.813 9.359 QT
1.625 9.359 3.055 10.695 QT
4.484 12.031 4.484 14.328 QT
4.484 16.672 3.016 17.977 QT
1.547 19.281 -1.125 19.281 QT
-2.031 19.281 -2.984 19.125 QT
-3.938 18.969 -4.953 18.656 QT
-4.953 16.672 L
-4.078 17.156 -3.141 17.391 QT
-2.203 17.625 -1.156 17.625 QT
0.531 17.625 1.516 16.734 QT
2.5 15.844 2.5 14.328 QT
2.5 12.797 1.516 11.906 QT
0.531 11.016 -1.156 11.016 QT
-1.953 11.016 -2.734 11.195 QT
-3.516 11.375 -4.344 11.75 QT
-4.344 4.422 L
cp
f
GR
GS
[1 0 0 1 808.125 295] CT
0.149 GC
N
-13.844 4.422 M
-6.094 4.422 L
-6.094 6.078 L
-12.031 6.078 L
-12.031 9.656 L
-11.609 9.5 -11.18 9.43 QT
-10.75 9.359 -10.313 9.359 QT
-7.875 9.359 -6.445 10.695 QT
-5.016 12.031 -5.016 14.328 QT
-5.016 16.672 -6.484 17.977 QT
-7.953 19.281 -10.625 19.281 QT
-11.531 19.281 -12.484 19.125 QT
-13.438 18.969 -14.453 18.656 QT
-14.453 16.672 L
-13.578 17.156 -12.641 17.391 QT
-11.703 17.625 -10.656 17.625 QT
-8.969 17.625 -7.984 16.734 QT
-7 15.844 -7 14.328 QT
-7 12.797 -7.984 11.906 QT
-8.969 11.016 -10.656 11.016 QT
-11.453 11.016 -12.234 11.195 QT
-13.016 11.375 -13.844 11.75 QT
-13.844 4.422 L
cp
-1.135 16.516 M
0.928 16.516 L
0.928 19 L
-1.135 19 L
-1.135 16.516 L
cp
5.238 4.422 M
12.988 4.422 L
12.988 6.078 L
7.051 6.078 L
7.051 9.656 L
7.473 9.5 7.902 9.43 QT
8.332 9.359 8.77 9.359 QT
11.207 9.359 12.637 10.695 QT
14.066 12.031 14.066 14.328 QT
14.066 16.672 12.598 17.977 QT
11.129 19.281 8.457 19.281 QT
7.551 19.281 6.598 19.125 QT
5.645 18.969 4.629 18.656 QT
4.629 16.672 L
5.504 17.156 6.441 17.391 QT
7.379 17.625 8.426 17.625 QT
10.113 17.625 11.098 16.734 QT
12.082 15.844 12.082 14.328 QT
12.082 12.797 11.098 11.906 QT
10.113 11.016 8.426 11.016 QT
7.629 11.016 6.848 11.195 QT
6.066 11.375 5.238 11.75 QT
5.238 4.422 L
cp
f
GR
GS
[1 0 0 1 905 295] CT
0.149 GC
N
0.109 10.922 M
-1.219 10.922 -2 11.828 QT
-2.781 12.734 -2.781 14.328 QT
-2.781 15.891 -2 16.805 QT
-1.219 17.719 0.109 17.719 QT
1.438 17.719 2.211 16.805 QT
2.984 15.891 2.984 14.328 QT
2.984 12.734 2.211 11.828 QT
1.438 10.922 0.109 10.922 QT
cp
4.016 4.734 M
4.016 6.531 L
3.281 6.188 2.523 6 QT
1.766 5.813 1.016 5.813 QT
-0.938 5.813 -1.969 7.133 QT
-3 8.453 -3.141 11.125 QT
-2.563 10.266 -1.695 9.813 QT
-0.828 9.359 0.219 9.359 QT
2.422 9.359 3.695 10.695 QT
4.969 12.031 4.969 14.328 QT
4.969 16.563 3.641 17.922 QT
2.313 19.281 0.109 19.281 QT
-2.422 19.281 -3.766 17.344 QT
-5.109 15.406 -5.109 11.719 QT
-5.109 8.266 -3.469 6.211 QT
-1.828 4.156 0.938 4.156 QT
1.688 4.156 2.445 4.305 QT
3.203 4.453 4.016 4.734 QT
cp
f
GR
GS
[1 0 0 1 517.50037 320] CT
0.149 GC
N
-14.25 9.328 M
-14.25 11.188 L
-15.094 10.766 -16 10.547 QT
-16.906 10.328 -17.859 10.328 QT
-19.344 10.328 -20.078 10.781 QT
-20.813 11.234 -20.813 12.141 QT
-20.813 12.828 -20.281 13.219 QT
-19.75 13.609 -18.172 13.969 QT
-17.484 14.109 L
-15.391 14.563 -14.5 15.383 QT
-13.609 16.203 -13.609 17.688 QT
-13.609 19.359 -14.938 20.336 QT
-16.266 21.313 -18.578 21.313 QT
-19.547 21.313 -20.594 21.125 QT
-21.641 20.938 -22.813 20.563 QT
-22.813 18.516 L
-21.719 19.094 -20.648 19.375 QT
-19.578 19.656 -18.547 19.656 QT
-17.141 19.656 -16.391 19.18 QT
-15.641 18.703 -15.641 17.828 QT
-15.641 17.031 -16.188 16.602 QT
-16.734 16.172 -18.563 15.766 QT
-19.25 15.609 L
-21.094 15.219 -21.906 14.422 QT
-22.719 13.625 -22.719 12.219 QT
-22.719 10.531 -21.516 9.602 QT
-20.313 8.672 -18.109 8.672 QT
-17 8.672 -16.039 8.836 QT
-15.078 9 -14.25 9.328 QT
cp
-8.507 5.547 M
-8.507 8.969 L
-4.444 8.969 L
-4.444 10.5 L
-8.507 10.5 L
-8.507 17.031 L
-8.507 18.5 -8.108 18.922 QT
-7.71 19.344 -6.476 19.344 QT
-4.444 19.344 L
-4.444 21 L
-6.476 21 L
-8.757 21 -9.624 20.148 QT
-10.491 19.297 -10.491 17.031 QT
-10.491 10.5 L
-11.944 10.5 L
-11.944 8.969 L
-10.491 8.969 L
-10.491 5.547 L
-8.507 5.547 L
cp
8.447 14.484 M
8.447 15.453 L
-0.631 15.453 L
-0.506 17.5 0.596 18.57 QT
1.697 19.641 3.666 19.641 QT
4.807 19.641 5.869 19.359 QT
6.932 19.078 7.994 18.516 QT
7.994 20.391 L
6.932 20.844 5.814 21.078 QT
4.697 21.313 3.541 21.313 QT
0.666 21.313 -1.014 19.633 QT
-2.693 17.953 -2.693 15.109 QT
-2.693 12.141 -1.1 10.406 QT
0.494 8.672 3.197 8.672 QT
5.635 8.672 7.041 10.234 QT
8.447 11.797 8.447 14.484 QT
cp
6.479 13.906 M
6.447 12.281 5.564 11.32 QT
4.682 10.359 3.229 10.359 QT
1.572 10.359 0.572 11.289 QT
-0.428 12.219 -0.568 13.922 QT
6.479 13.906 L
cp
13.607 19.188 M
13.607 25.578 L
11.623 25.578 L
11.623 8.969 L
13.607 8.969 L
13.607 10.797 L
14.232 9.719 15.186 9.195 QT
16.139 8.672 17.451 8.672 QT
19.639 8.672 21.014 10.414 QT
22.389 12.156 22.389 15 QT
22.389 17.828 21.014 19.57 QT
19.639 21.313 17.451 21.313 QT
16.139 21.313 15.186 20.789 QT
14.232 20.266 13.607 19.188 QT
cp
20.326 15 M
20.326 12.813 19.436 11.57 QT
18.545 10.328 16.967 10.328 QT
15.404 10.328 14.506 11.57 QT
13.607 12.813 13.607 15 QT
13.607 17.172 14.506 18.414 QT
15.404 19.656 16.967 19.656 QT
18.545 19.656 19.436 18.414 QT
20.326 17.172 20.326 15 QT
cp
f
GR
GS
[1 0 0 1 852 345] CT
0.149 GC
N
2.938 -0.578 M
2.938 -0.734 3.031 -0.859 QT
7.203 -5 L
3.031 -9.156 L
2.938 -9.266 2.938 -9.422 QT
2.938 -9.578 3.055 -9.703 QT
3.172 -9.828 3.344 -9.828 QT
3.484 -9.828 3.641 -9.703 QT
7.781 -5.563 L
11.906 -9.703 L
12.078 -9.828 12.203 -9.828 QT
12.359 -9.828 12.477 -9.711 QT
12.594 -9.594 12.594 -9.422 QT
12.594 -9.266 12.5 -9.156 QT
8.344 -5 L
12.5 -0.859 L
12.594 -0.734 12.594 -0.578 QT
12.594 -0.406 12.477 -0.289 QT
12.359 -0.172 12.203 -0.172 QT
12.047 -0.172 11.906 -0.328 QT
7.781 -4.438 L
3.641 -0.328 L
3.5 -0.172 3.344 -0.172 QT
3.172 -0.172 3.055 -0.305 QT
2.938 -0.438 2.938 -0.578 QT
cp
f
GR
GS
[1 0 0 1 868 345] CT
0.149 GC
N
2.484 -1.656 M
5.703 -1.656 L
5.703 -12.781 L
2.203 -12.078 L
2.203 -13.875 L
5.688 -14.578 L
7.656 -14.578 L
7.656 -1.656 L
10.875 -1.656 L
10.875 0 L
2.484 0 L
2.484 -1.656 L
cp
19.084 -13.281 M
17.553 -13.281 16.787 -11.781 QT
16.021 -10.281 16.021 -7.281 QT
16.021 -4.281 16.787 -2.781 QT
17.553 -1.281 19.084 -1.281 QT
20.615 -1.281 21.381 -2.781 QT
22.146 -4.281 22.146 -7.281 QT
22.146 -10.281 21.381 -11.781 QT
20.615 -13.281 19.084 -13.281 QT
cp
19.084 -14.844 M
21.537 -14.844 22.826 -12.906 QT
24.115 -10.969 24.115 -7.281 QT
24.115 -3.594 22.826 -1.656 QT
21.537 0.281 19.084 0.281 QT
16.631 0.281 15.334 -1.656 QT
14.037 -3.594 14.037 -7.281 QT
14.037 -10.969 15.334 -12.906 QT
16.631 -14.844 19.084 -14.844 QT
cp
f
GR
GS
[1 0 0 1 894 335] CT
0.149 GC
N
1.734 -11.672 M
7.922 -11.672 L
7.922 -10.344 L
3.172 -10.344 L
3.172 -7.484 L
3.516 -7.594 3.859 -7.656 QT
4.203 -7.719 4.547 -7.719 QT
6.5 -7.719 7.641 -6.648 QT
8.781 -5.578 8.781 -3.75 QT
8.781 -1.859 7.609 -0.813 QT
6.438 0.234 4.313 0.234 QT
3.578 0.234 2.813 0.102 QT
2.047 -0.031 1.234 -0.281 QT
1.234 -1.859 L
1.938 -1.484 2.688 -1.297 QT
3.438 -1.109 4.281 -1.109 QT
5.625 -1.109 6.414 -1.82 QT
7.203 -2.531 7.203 -3.75 QT
7.203 -4.969 6.414 -5.68 QT
5.625 -6.391 4.281 -6.391 QT
3.641 -6.391 3.016 -6.25 QT
2.391 -6.109 1.734 -5.813 QT
1.734 -11.672 L
cp
f
GR
GS
0.149 GC
2 setlinecap
1 LJ
0.5 LW
N
130 289 M
130 26 L
S
GR
GS
0.149 GC
2 setlinecap
1 LJ
0.5 LW
N
130 289 M
137.75 289 L
S
GR
GS
0.149 GC
2 setlinecap
1 LJ
0.5 LW
N
130 238.905 M
137.75 238.905 L
S
GR
GS
0.149 GC
2 setlinecap
1 LJ
0.5 LW
N
130 188.81 M
137.75 188.81 L
S
GR
GS
0.149 GC
2 setlinecap
1 LJ
0.5 LW
N
130 138.714 M
137.75 138.714 L
S
GR
GS
0.149 GC
2 setlinecap
1 LJ
0.5 LW
N
130 88.619 M
137.75 88.619 L
S
GR
GS
0.149 GC
2 setlinecap
1 LJ
0.5 LW
N
130 38.524 M
137.75 38.524 L
S
GR
GS
[1 0 0 1 123.99998 289] CT
0.149 GC
N
-6.641 -6.281 M
-8.172 -6.281 -8.938 -4.781 QT
-9.703 -3.281 -9.703 -0.281 QT
-9.703 2.719 -8.938 4.219 QT
-8.172 5.719 -6.641 5.719 QT
-5.109 5.719 -4.344 4.219 QT
-3.578 2.719 -3.578 -0.281 QT
-3.578 -3.281 -4.344 -4.781 QT
-5.109 -6.281 -6.641 -6.281 QT
cp
-6.641 -7.844 M
-4.188 -7.844 -2.898 -5.906 QT
-1.609 -3.969 -1.609 -0.281 QT
-1.609 3.406 -2.898 5.344 QT
-4.188 7.281 -6.641 7.281 QT
-9.094 7.281 -10.391 5.344 QT
-11.688 3.406 -11.688 -0.281 QT
-11.688 -3.969 -10.391 -5.906 QT
-9.094 -7.844 -6.641 -7.844 QT
cp
f
GR
GS
[1 0 0 1 123.99998 238.90475] CT
0.149 GC
N
-22.156 5.344 M
-15.281 5.344 L
-15.281 7 L
-24.531 7 L
-24.531 5.344 L
-23.406 4.172 -21.469 2.219 QT
-19.531 0.266 -19.031 -0.313 QT
-18.094 -1.375 -17.719 -2.109 QT
-17.344 -2.844 -17.344 -3.563 QT
-17.344 -4.719 -18.156 -5.453 QT
-18.969 -6.188 -20.281 -6.188 QT
-21.203 -6.188 -22.234 -5.867 QT
-23.266 -5.547 -24.438 -4.891 QT
-24.438 -6.875 L
-23.25 -7.359 -22.211 -7.602 QT
-21.172 -7.844 -20.313 -7.844 QT
-18.047 -7.844 -16.703 -6.711 QT
-15.359 -5.578 -15.359 -3.688 QT
-15.359 -2.781 -15.695 -1.977 QT
-16.031 -1.172 -16.922 -0.078 QT
-17.156 0.203 -18.469 1.555 QT
-19.781 2.906 -22.156 5.344 QT
cp
-6.916 -6.281 M
-8.447 -6.281 -9.213 -4.781 QT
-9.979 -3.281 -9.979 -0.281 QT
-9.979 2.719 -9.213 4.219 QT
-8.447 5.719 -6.916 5.719 QT
-5.385 5.719 -4.619 4.219 QT
-3.854 2.719 -3.854 -0.281 QT
-3.854 -3.281 -4.619 -4.781 QT
-5.385 -6.281 -6.916 -6.281 QT
cp
-6.916 -7.844 M
-4.463 -7.844 -3.174 -5.906 QT
-1.885 -3.969 -1.885 -0.281 QT
-1.885 3.406 -3.174 5.344 QT
-4.463 7.281 -6.916 7.281 QT
-9.369 7.281 -10.666 5.344 QT
-11.963 3.406 -11.963 -0.281 QT
-11.963 -3.969 -10.666 -5.906 QT
-9.369 -7.844 -6.916 -7.844 QT
cp
f
GR
GS
[1 0 0 1 123.99998 188.80952] CT
0.149 GC
N
-18.438 -5.859 M
-23.422 1.922 L
-18.438 1.922 L
-18.438 -5.859 L
cp
-18.953 -7.578 M
-16.484 -7.578 L
-16.484 1.922 L
-14.391 1.922 L
-14.391 3.563 L
-16.484 3.563 L
-16.484 7 L
-18.438 7 L
-18.438 3.563 L
-25.016 3.563 L
-25.016 1.656 L
-18.953 -7.578 L
cp
-6.916 -6.281 M
-8.447 -6.281 -9.213 -4.781 QT
-9.979 -3.281 -9.979 -0.281 QT
-9.979 2.719 -9.213 4.219 QT
-8.447 5.719 -6.916 5.719 QT
-5.385 5.719 -4.619 4.219 QT
-3.854 2.719 -3.854 -0.281 QT
-3.854 -3.281 -4.619 -4.781 QT
-5.385 -6.281 -6.916 -6.281 QT
cp
-6.916 -7.844 M
-4.463 -7.844 -3.174 -5.906 QT
-1.885 -3.969 -1.885 -0.281 QT
-1.885 3.406 -3.174 5.344 QT
-4.463 7.281 -6.916 7.281 QT
-9.369 7.281 -10.666 5.344 QT
-11.963 3.406 -11.963 -0.281 QT
-11.963 -3.969 -10.666 -5.906 QT
-9.369 -7.844 -6.916 -7.844 QT
cp
f
GR
GS
[1 0 0 1 123.99998 138.71428] CT
0.149 GC
N
-19.391 -1.078 M
-20.719 -1.078 -21.5 -0.172 QT
-22.281 0.734 -22.281 2.328 QT
-22.281 3.891 -21.5 4.805 QT
-20.719 5.719 -19.391 5.719 QT
-18.063 5.719 -17.289 4.805 QT
-16.516 3.891 -16.516 2.328 QT
-16.516 0.734 -17.289 -0.172 QT
-18.063 -1.078 -19.391 -1.078 QT
cp
-15.484 -7.266 M
-15.484 -5.469 L
-16.219 -5.813 -16.977 -6 QT
-17.734 -6.188 -18.484 -6.188 QT
-20.438 -6.188 -21.469 -4.867 QT
-22.5 -3.547 -22.641 -0.875 QT
-22.063 -1.734 -21.195 -2.188 QT
-20.328 -2.641 -19.281 -2.641 QT
-17.078 -2.641 -15.805 -1.305 QT
-14.531 0.031 -14.531 2.328 QT
-14.531 4.563 -15.859 5.922 QT
-17.188 7.281 -19.391 7.281 QT
-21.922 7.281 -23.266 5.344 QT
-24.609 3.406 -24.609 -0.281 QT
-24.609 -3.734 -22.969 -5.789 QT
-21.328 -7.844 -18.563 -7.844 QT
-17.813 -7.844 -17.055 -7.695 QT
-16.297 -7.547 -15.484 -7.266 QT
cp
-6.916 -6.281 M
-8.447 -6.281 -9.213 -4.781 QT
-9.979 -3.281 -9.979 -0.281 QT
-9.979 2.719 -9.213 4.219 QT
-8.447 5.719 -6.916 5.719 QT
-5.385 5.719 -4.619 4.219 QT
-3.854 2.719 -3.854 -0.281 QT
-3.854 -3.281 -4.619 -4.781 QT
-5.385 -6.281 -6.916 -6.281 QT
cp
-6.916 -7.844 M
-4.463 -7.844 -3.174 -5.906 QT
-1.885 -3.969 -1.885 -0.281 QT
-1.885 3.406 -3.174 5.344 QT
-4.463 7.281 -6.916 7.281 QT
-9.369 7.281 -10.666 5.344 QT
-11.963 3.406 -11.963 -0.281 QT
-11.963 -3.969 -10.666 -5.906 QT
-9.369 -7.844 -6.916 -7.844 QT
cp
f
GR
GS
[1 0 0 1 123.99998 88.61905] CT
0.149 GC
N
-19.641 0.078 M
-21.047 0.078 -21.852 0.828 QT
-22.656 1.578 -22.656 2.891 QT
-22.656 4.219 -21.852 4.969 QT
-21.047 5.719 -19.641 5.719 QT
-18.234 5.719 -17.422 4.961 QT
-16.609 4.203 -16.609 2.891 QT
-16.609 1.578 -17.414 0.828 QT
-18.219 0.078 -19.641 0.078 QT
cp
-21.609 -0.766 M
-22.891 -1.078 -23.594 -1.945 QT
-24.297 -2.813 -24.297 -4.063 QT
-24.297 -5.813 -23.055 -6.828 QT
-21.813 -7.844 -19.641 -7.844 QT
-17.469 -7.844 -16.227 -6.828 QT
-14.984 -5.813 -14.984 -4.063 QT
-14.984 -2.813 -15.695 -1.945 QT
-16.406 -1.078 -17.656 -0.766 QT
-16.234 -0.438 -15.438 0.531 QT
-14.641 1.5 -14.641 2.891 QT
-14.641 5.016 -15.938 6.148 QT
-17.234 7.281 -19.641 7.281 QT
-22.047 7.281 -23.344 6.148 QT
-24.641 5.016 -24.641 2.891 QT
-24.641 1.5 -23.844 0.531 QT
-23.047 -0.438 -21.609 -0.766 QT
cp
-22.344 -3.875 M
-22.344 -2.75 -21.633 -2.117 QT
-20.922 -1.484 -19.641 -1.484 QT
-18.375 -1.484 -17.656 -2.117 QT
-16.938 -2.75 -16.938 -3.875 QT
-16.938 -5.016 -17.656 -5.648 QT
-18.375 -6.281 -19.641 -6.281 QT
-20.922 -6.281 -21.633 -5.648 QT
-22.344 -5.016 -22.344 -3.875 QT
cp
-6.916 -6.281 M
-8.447 -6.281 -9.213 -4.781 QT
-9.979 -3.281 -9.979 -0.281 QT
-9.979 2.719 -9.213 4.219 QT
-8.447 5.719 -6.916 5.719 QT
-5.385 5.719 -4.619 4.219 QT
-3.854 2.719 -3.854 -0.281 QT
-3.854 -3.281 -4.619 -4.781 QT
-5.385 -6.281 -6.916 -6.281 QT
cp
-6.916 -7.844 M
-4.463 -7.844 -3.174 -5.906 QT
-1.885 -3.969 -1.885 -0.281 QT
-1.885 3.406 -3.174 5.344 QT
-4.463 7.281 -6.916 7.281 QT
-9.369 7.281 -10.666 5.344 QT
-11.963 3.406 -11.963 -0.281 QT
-11.963 -3.969 -10.666 -5.906 QT
-9.369 -7.844 -6.916 -7.844 QT
cp
f
GR
GS
[1 0 0 1 123.99998 38.52381] CT
0.149 GC
N
-36.516 5.344 M
-33.297 5.344 L
-33.297 -5.781 L
-36.797 -5.078 L
-36.797 -6.875 L
-33.313 -7.578 L
-31.344 -7.578 L
-31.344 5.344 L
-28.125 5.344 L
-28.125 7 L
-36.516 7 L
-36.516 5.344 L
cp
-19.916 -6.281 M
-21.447 -6.281 -22.213 -4.781 QT
-22.979 -3.281 -22.979 -0.281 QT
-22.979 2.719 -22.213 4.219 QT
-21.447 5.719 -19.916 5.719 QT
-18.385 5.719 -17.619 4.219 QT
-16.854 2.719 -16.854 -0.281 QT
-16.854 -3.281 -17.619 -4.781 QT
-18.385 -6.281 -19.916 -6.281 QT
cp
-19.916 -7.844 M
-17.463 -7.844 -16.174 -5.906 QT
-14.885 -3.969 -14.885 -0.281 QT
-14.885 3.406 -16.174 5.344 QT
-17.463 7.281 -19.916 7.281 QT
-22.369 7.281 -23.666 5.344 QT
-24.963 3.406 -24.963 -0.281 QT
-24.963 -3.969 -23.666 -5.906 QT
-22.369 -7.844 -19.916 -7.844 QT
cp
-7.191 -6.281 M
-8.723 -6.281 -9.488 -4.781 QT
-10.254 -3.281 -10.254 -0.281 QT
-10.254 2.719 -9.488 4.219 QT
-8.723 5.719 -7.191 5.719 QT
-5.66 5.719 -4.895 4.219 QT
-4.129 2.719 -4.129 -0.281 QT
-4.129 -3.281 -4.895 -4.781 QT
-5.66 -6.281 -7.191 -6.281 QT
cp
-7.191 -7.844 M
-4.738 -7.844 -3.449 -5.906 QT
-2.16 -3.969 -2.16 -0.281 QT
-2.16 3.406 -3.449 5.344 QT
-4.738 7.281 -7.191 7.281 QT
-9.645 7.281 -10.941 5.344 QT
-12.238 3.406 -12.238 -0.281 QT
-12.238 -3.969 -10.941 -5.906 QT
-9.645 -7.844 -7.191 -7.844 QT
cp
f
GR
GS
[0 -1 1 0 82.00002 157.49988] CT
0.149 GC
N
-113.063 -22.031 M
-99.5 -22.031 L
-99.5 -20.219 L
-105.188 -20.219 L
-105.188 -6 L
-107.375 -6 L
-107.375 -20.219 L
-113.063 -20.219 L
-113.063 -22.031 L
cp
-92.015 -12.047 M
-94.421 -12.047 -95.343 -11.5 QT
-96.265 -10.953 -96.265 -9.625 QT
-96.265 -8.578 -95.569 -7.961 QT
-94.874 -7.344 -93.687 -7.344 QT
-92.046 -7.344 -91.054 -8.508 QT
-90.062 -9.672 -90.062 -11.609 QT
-90.062 -12.047 L
-92.015 -12.047 L
cp
-88.077 -12.859 M
-88.077 -6 L
-90.062 -6 L
-90.062 -7.828 L
-90.733 -6.734 -91.741 -6.211 QT
-92.749 -5.688 -94.218 -5.688 QT
-96.062 -5.688 -97.147 -6.727 QT
-98.233 -7.766 -98.233 -9.5 QT
-98.233 -11.531 -96.874 -12.563 QT
-95.515 -13.594 -92.827 -13.594 QT
-90.062 -13.594 L
-90.062 -13.781 L
-90.062 -15.156 -90.952 -15.898 QT
-91.843 -16.641 -93.468 -16.641 QT
-94.499 -16.641 -95.476 -16.398 QT
-96.452 -16.156 -97.358 -15.656 QT
-97.358 -17.484 L
-96.28 -17.906 -95.257 -18.117 QT
-94.233 -18.328 -93.265 -18.328 QT
-90.655 -18.328 -89.366 -16.969 QT
-88.077 -15.609 -88.077 -12.859 QT
cp
-77.033 -16.188 M
-77.361 -16.375 -77.76 -16.469 QT
-78.158 -16.563 -78.627 -16.563 QT
-80.299 -16.563 -81.197 -15.469 QT
-82.096 -14.375 -82.096 -12.344 QT
-82.096 -6 L
-84.08 -6 L
-84.08 -18.031 L
-82.096 -18.031 L
-82.096 -16.156 L
-81.471 -17.266 -80.471 -17.797 QT
-79.471 -18.328 -78.049 -18.328 QT
-77.846 -18.328 -77.596 -18.297 QT
-77.346 -18.266 -77.049 -18.219 QT
-77.033 -16.188 L
cp
-67.051 -12.156 M
-67.051 -14.297 -67.934 -15.484 QT
-68.816 -16.672 -70.41 -16.672 QT
-72.004 -16.672 -72.895 -15.484 QT
-73.785 -14.297 -73.785 -12.156 QT
-73.785 -10.016 -72.895 -8.836 QT
-72.004 -7.656 -70.41 -7.656 QT
-68.816 -7.656 -67.934 -8.836 QT
-67.051 -10.016 -67.051 -12.156 QT
cp
-65.066 -7.5 M
-65.066 -4.422 -66.434 -2.922 QT
-67.801 -1.422 -70.613 -1.422 QT
-71.66 -1.422 -72.582 -1.578 QT
-73.504 -1.734 -74.363 -2.063 QT
-74.363 -3.984 L
-73.504 -3.5 -72.652 -3.281 QT
-71.801 -3.063 -70.926 -3.063 QT
-68.973 -3.063 -68.012 -4.078 QT
-67.051 -5.094 -67.051 -7.141 QT
-67.051 -8.109 L
-67.66 -7.047 -68.613 -6.523 QT
-69.566 -6 -70.895 -6 QT
-73.113 -6 -74.465 -7.688 QT
-75.816 -9.375 -75.816 -12.156 QT
-75.816 -14.953 -74.465 -16.641 QT
-73.113 -18.328 -70.895 -18.328 QT
-69.566 -18.328 -68.613 -17.797 QT
-67.66 -17.266 -67.051 -16.203 QT
-67.051 -18.031 L
-65.066 -18.031 L
-65.066 -7.5 L
cp
-50.711 -12.516 M
-50.711 -11.547 L
-59.789 -11.547 L
-59.664 -9.5 -58.563 -8.43 QT
-57.461 -7.359 -55.492 -7.359 QT
-54.352 -7.359 -53.289 -7.641 QT
-52.227 -7.922 -51.164 -8.484 QT
-51.164 -6.609 L
-52.227 -6.156 -53.344 -5.922 QT
-54.461 -5.688 -55.617 -5.688 QT
-58.492 -5.688 -60.172 -7.367 QT
-61.852 -9.047 -61.852 -11.891 QT
-61.852 -14.859 -60.258 -16.594 QT
-58.664 -18.328 -55.961 -18.328 QT
-53.523 -18.328 -52.117 -16.766 QT
-50.711 -15.203 -50.711 -12.516 QT
cp
-52.68 -13.094 M
-52.711 -14.719 -53.594 -15.68 QT
-54.477 -16.641 -55.93 -16.641 QT
-57.586 -16.641 -58.586 -15.711 QT
-59.586 -14.781 -59.727 -13.078 QT
-52.68 -13.094 L
cp
-45.504 -21.453 M
-45.504 -18.031 L
-41.441 -18.031 L
-41.441 -16.5 L
-45.504 -16.5 L
-45.504 -9.969 L
-45.504 -8.5 -45.105 -8.078 QT
-44.707 -7.656 -43.473 -7.656 QT
-41.441 -7.656 L
-41.441 -6 L
-43.473 -6 L
-45.754 -6 -46.621 -6.852 QT
-47.488 -7.703 -47.488 -9.969 QT
-47.488 -16.5 L
-48.941 -16.5 L
-48.941 -18.031 L
-47.488 -18.031 L
-47.488 -21.453 L
-45.504 -21.453 L
cp
-31.159 -17.672 M
-31.159 -15.813 L
-32.003 -16.234 -32.909 -16.453 QT
-33.815 -16.672 -34.769 -16.672 QT
-36.253 -16.672 -36.987 -16.219 QT
-37.722 -15.766 -37.722 -14.859 QT
-37.722 -14.172 -37.19 -13.781 QT
-36.659 -13.391 -35.081 -13.031 QT
-34.394 -12.891 L
-32.3 -12.438 -31.409 -11.617 QT
-30.519 -10.797 -30.519 -9.313 QT
-30.519 -7.641 -31.847 -6.664 QT
-33.175 -5.688 -35.487 -5.688 QT
-36.456 -5.688 -37.503 -5.875 QT
-38.55 -6.063 -39.722 -6.438 QT
-39.722 -8.484 L
-38.628 -7.906 -37.558 -7.625 QT
-36.487 -7.344 -35.456 -7.344 QT
-34.05 -7.344 -33.3 -7.82 QT
-32.55 -8.297 -32.55 -9.172 QT
-32.55 -9.969 -33.097 -10.398 QT
-33.644 -10.828 -35.472 -11.234 QT
-36.159 -11.391 L
-38.003 -11.781 -38.815 -12.578 QT
-39.628 -13.375 -39.628 -14.781 QT
-39.628 -16.469 -38.425 -17.398 QT
-37.222 -18.328 -35.019 -18.328 QT
-33.909 -18.328 -32.948 -18.164 QT
-31.987 -18 -31.159 -17.672 QT
cp
-13.407 -16.188 M
-13.735 -16.375 -14.134 -16.469 QT
-14.532 -16.563 -15.001 -16.563 QT
-16.673 -16.563 -17.571 -15.469 QT
-18.47 -14.375 -18.47 -12.344 QT
-18.47 -6 L
-20.454 -6 L
-20.454 -18.031 L
-18.47 -18.031 L
-18.47 -16.156 L
-17.845 -17.266 -16.845 -17.797 QT
-15.845 -18.328 -14.423 -18.328 QT
-14.22 -18.328 -13.97 -18.297 QT
-13.72 -18.266 -13.423 -18.219 QT
-13.407 -16.188 L
cp
-1.05 -12.516 M
-1.05 -11.547 L
-10.128 -11.547 L
-10.003 -9.5 -8.901 -8.43 QT
-7.8 -7.359 -5.831 -7.359 QT
-4.69 -7.359 -3.628 -7.641 QT
-2.565 -7.922 -1.503 -8.484 QT
-1.503 -6.609 L
-2.565 -6.156 -3.683 -5.922 QT
-4.8 -5.688 -5.956 -5.688 QT
-8.831 -5.688 -10.511 -7.367 QT
-12.19 -9.047 -12.19 -11.891 QT
-12.19 -14.859 -10.597 -16.594 QT
-9.003 -18.328 -6.3 -18.328 QT
-3.862 -18.328 -2.456 -16.766 QT
-1.05 -15.203 -1.05 -12.516 QT
cp
-3.019 -13.094 M
-3.05 -14.719 -3.933 -15.68 QT
-4.815 -16.641 -6.269 -16.641 QT
-7.925 -16.641 -8.925 -15.711 QT
-9.925 -14.781 -10.065 -13.078 QT
-3.019 -13.094 L
cp
7.673 -12.047 M
5.267 -12.047 4.345 -11.5 QT
3.423 -10.953 3.423 -9.625 QT
3.423 -8.578 4.118 -7.961 QT
4.813 -7.344 6.001 -7.344 QT
7.642 -7.344 8.634 -8.508 QT
9.626 -9.672 9.626 -11.609 QT
9.626 -12.047 L
7.673 -12.047 L
cp
11.61 -12.859 M
11.61 -6 L
9.626 -6 L
9.626 -7.828 L
8.954 -6.734 7.946 -6.211 QT
6.938 -5.688 5.47 -5.688 QT
3.626 -5.688 2.54 -6.727 QT
1.454 -7.766 1.454 -9.5 QT
1.454 -11.531 2.813 -12.563 QT
4.173 -13.594 6.86 -13.594 QT
9.626 -13.594 L
9.626 -13.781 L
9.626 -15.156 8.735 -15.898 QT
7.845 -16.641 6.22 -16.641 QT
5.188 -16.641 4.212 -16.398 QT
3.235 -16.156 2.329 -15.656 QT
2.329 -17.484 L
3.407 -17.906 4.431 -18.117 QT
5.454 -18.328 6.423 -18.328 QT
9.032 -18.328 10.321 -16.969 QT
11.61 -15.609 11.61 -12.859 QT
cp
24.342 -17.563 M
24.342 -15.719 L
23.498 -16.188 22.654 -16.414 QT
21.811 -16.641 20.951 -16.641 QT
19.029 -16.641 17.967 -15.422 QT
16.904 -14.203 16.904 -12 QT
16.904 -9.797 17.967 -8.578 QT
19.029 -7.359 20.951 -7.359 QT
21.811 -7.359 22.654 -7.594 QT
23.498 -7.828 24.342 -8.281 QT
24.342 -6.469 L
23.514 -6.078 22.623 -5.883 QT
21.732 -5.688 20.748 -5.688 QT
18.029 -5.688 16.428 -7.398 QT
14.826 -9.109 14.826 -12 QT
14.826 -14.953 16.443 -16.641 QT
18.061 -18.328 20.873 -18.328 QT
21.779 -18.328 22.654 -18.141 QT
23.529 -17.953 24.342 -17.563 QT
cp
37.781 -13.266 M
37.781 -6 L
35.797 -6 L
35.797 -13.203 L
35.797 -14.906 35.133 -15.758 QT
34.469 -16.609 33.141 -16.609 QT
31.531 -16.609 30.609 -15.586 QT
29.688 -14.563 29.688 -12.797 QT
29.688 -6 L
27.703 -6 L
27.703 -22.719 L
29.688 -22.719 L
29.688 -16.156 L
30.391 -17.25 31.359 -17.789 QT
32.328 -18.328 33.578 -18.328 QT
35.656 -18.328 36.719 -17.039 QT
37.781 -15.75 37.781 -13.266 QT
cp
52.006 -12.516 M
52.006 -11.547 L
42.928 -11.547 L
43.053 -9.5 44.154 -8.43 QT
45.256 -7.359 47.225 -7.359 QT
48.365 -7.359 49.428 -7.641 QT
50.49 -7.922 51.553 -8.484 QT
51.553 -6.609 L
50.49 -6.156 49.373 -5.922 QT
48.256 -5.688 47.1 -5.688 QT
44.225 -5.688 42.545 -7.367 QT
40.865 -9.047 40.865 -11.891 QT
40.865 -14.859 42.459 -16.594 QT
44.053 -18.328 46.756 -18.328 QT
49.193 -18.328 50.6 -16.766 QT
52.006 -15.203 52.006 -12.516 QT
cp
50.037 -13.094 M
50.006 -14.719 49.123 -15.68 QT
48.24 -16.641 46.787 -16.641 QT
45.131 -16.641 44.131 -15.711 QT
43.131 -14.781 42.99 -13.078 QT
50.037 -13.094 L
cp
63.166 -16.203 M
63.166 -22.719 L
65.15 -22.719 L
65.15 -6 L
63.166 -6 L
63.166 -7.813 L
62.557 -6.734 61.604 -6.211 QT
60.65 -5.688 59.322 -5.688 QT
57.135 -5.688 55.768 -7.43 QT
54.4 -9.172 54.4 -12 QT
54.4 -14.844 55.768 -16.586 QT
57.135 -18.328 59.322 -18.328 QT
60.65 -18.328 61.604 -17.805 QT
62.557 -17.281 63.166 -16.203 QT
cp
56.432 -12 M
56.432 -9.828 57.33 -8.586 QT
58.229 -7.344 59.807 -7.344 QT
61.369 -7.344 62.268 -8.586 QT
63.166 -9.828 63.166 -12 QT
63.166 -14.188 62.268 -15.43 QT
61.369 -16.672 59.807 -16.672 QT
58.229 -16.672 57.33 -15.43 QT
56.432 -14.188 56.432 -12 QT
cp
76.03 -22.719 M
80.593 -22.719 L
80.593 -21.172 L
78.015 -21.172 L
78.015 -4.641 L
80.593 -4.641 L
80.593 -3.094 L
76.03 -3.094 L
76.03 -22.719 L
cp
98.723 -13.063 M
97.785 -13.063 97.254 -12.266 QT
96.723 -11.469 96.723 -10.047 QT
96.723 -8.656 97.254 -7.852 QT
97.785 -7.047 98.723 -7.047 QT
99.629 -7.047 100.16 -7.852 QT
100.691 -8.656 100.691 -10.047 QT
100.691 -11.453 100.16 -12.258 QT
99.629 -13.063 98.723 -13.063 QT
cp
98.723 -14.422 M
100.41 -14.422 101.41 -13.242 QT
102.41 -12.063 102.41 -10.047 QT
102.41 -8.047 101.41 -6.867 QT
100.41 -5.688 98.723 -5.688 QT
97.004 -5.688 96.004 -6.867 QT
95.004 -8.047 95.004 -10.047 QT
95.004 -12.063 96.004 -13.242 QT
97.004 -14.422 98.723 -14.422 QT
cp
87.629 -20.969 M
86.707 -20.969 86.176 -20.164 QT
85.645 -19.359 85.645 -17.969 QT
85.645 -16.547 86.168 -15.75 QT
86.691 -14.953 87.629 -14.953 QT
88.566 -14.953 89.098 -15.75 QT
89.629 -16.547 89.629 -17.969 QT
89.629 -19.359 89.09 -20.164 QT
88.551 -20.969 87.629 -20.969 QT
cp
97.332 -22.328 M
99.051 -22.328 L
89.02 -5.688 L
87.301 -5.688 L
97.332 -22.328 L
cp
87.629 -22.328 M
89.332 -22.328 90.34 -21.148 QT
91.348 -19.969 91.348 -17.969 QT
91.348 -15.938 90.348 -14.766 QT
89.348 -13.594 87.629 -13.594 QT
85.926 -13.594 84.934 -14.773 QT
83.941 -15.953 83.941 -17.969 QT
83.941 -19.969 84.941 -21.148 QT
85.941 -22.328 87.629 -22.328 QT
cp
110.314 -22.719 M
110.314 -3.094 L
105.768 -3.094 L
105.768 -4.641 L
108.33 -4.641 L
108.33 -21.172 L
105.768 -21.172 L
105.768 -22.719 L
110.314 -22.719 L
cp
f
GR
GS
0 0.447 0.741 RC
1 LJ
0.5 LW
N
133.875 101.143 M
135.813 138.714 L
137.75 115.593 L
139.688 188.81 L
141.625 129.606 L
143.563 113.667 L
145.5 289 L
147.438 188.81 L
149.375 177.677 L
151.313 195.071 L
153.25 205.508 L
155.188 152.377 L
157.125 129.606 L
159.063 115.593 L
161 127.98 L
162.938 101.143 L
164.875 177.677 L
166.813 226.381 L
168.75 129.606 L
170.688 226.381 L
172.625 110.088 L
174.563 163.762 L
176.5 195.071 L
178.438 195.071 L
180.375 188.81 L
182.313 195.071 L
184.25 177.677 L
186.188 195.071 L
188.125 226.381 L
190.063 163.762 L
192 149.847 L
193.938 195.071 L
195.875 175.147 L
197.813 152.377 L
199.75 217.435 L
201.688 175.147 L
203.625 205.508 L
205.563 152.377 L
207.5 122.016 L
209.438 163.762 L
211.375 142.889 L
213.313 163.762 L
215.25 154.128 L
217.188 163.762 L
219.125 163.762 L
221.063 177.677 L
223 129.606 L
224.938 149.847 L
226.875 188.81 L
228.813 152.377 L
230.75 163.762 L
232.688 152.377 L
234.625 205.508 L
236.563 226.381 L
238.5 226.381 L
240.438 205.508 L
242.375 152.377 L
244.313 163.762 L
246.25 163.762 L
248.188 163.762 L
250.125 197.918 L
252.063 188.81 L
254 226.381 L
255.938 217.435 L
257.875 184.635 L
259.813 188.81 L
261.75 177.677 L
263.688 134.861 L
265.625 154.128 L
267.563 142.889 L
269.5 149.847 L
271.438 205.508 L
273.375 188.81 L
275.313 163.762 L
277.25 129.606 L
279.188 163.762 L
281.125 257.69 L
283.063 177.677 L
285 154.128 L
286.938 177.677 L
288.875 188.81 L
290.813 134.861 L
292.75 213.857 L
294.688 253.218 L
296.625 101.143 L
298.563 163.762 L
300.5 175.147 L
302.438 138.714 L
304.375 163.762 L
306.313 177.677 L
308.25 92.197 L
310.188 142.889 L
312.125 122.016 L
314.063 163.762 L
316 163.762 L
317.938 138.714 L
319.875 134.861 L
321.813 149.847 L
323.75 163.762 L
325.688 163.762 L
327.625 145.871 L
329.563 226.381 L
331.5 71.921 L
333.438 149.847 L
335.375 177.677 L
337.313 129.606 L
339.25 163.762 L
341.188 152.377 L
343.125 92.197 L
345.063 188.81 L
347 113.667 L
348.938 152.377 L
350.875 289 L
352.813 92.197 L
354.75 113.667 L
356.688 127.98 L
358.625 138.714 L
360.563 177.677 L
362.5 163.762 L
364.438 163.762 L
366.375 77.059 L
368.313 127.98 L
370.25 122.016 L
372.188 134.861 L
374.125 152.377 L
376.063 101.143 L
378 205.508 L
379.938 195.071 L
381.875 113.667 L
383.813 233.339 L
385.75 152.377 L
387.688 175.147 L
389.625 113.667 L
391.563 163.762 L
393.5 226.381 L
395.438 138.714 L
397.375 142.889 L
399.313 110.088 L
401.25 106.836 L
403.188 97.459 L
405.125 152.377 L
407.063 92.197 L
409 177.677 L
410.938 233.339 L
412.875 195.071 L
414.813 175.147 L
416.75 142.889 L
418.688 175.147 L
420.625 106.836 L
422.563 145.871 L
424.5 113.667 L
426.438 177.677 L
428.375 101.143 L
430.313 96.326 L
432.25 289 L
434.188 205.508 L
436.125 188.81 L
438.063 205.508 L
440 175.147 L
441.938 163.762 L
443.875 122.016 L
445.813 142.889 L
447.75 163.762 L
449.688 134.861 L
451.625 152.377 L
453.563 149.847 L
455.5 152.377 L
457.438 142.889 L
459.375 96.326 L
461.313 195.071 L
463.25 163.762 L
465.188 145.871 L
467.125 127.98 L
469.063 188.81 L
471 71.921 L
472.938 289 L
474.875 152.377 L
476.813 127.98 L
478.75 154.128 L
480.688 96.326 L
482.625 163.762 L
484.563 184.635 L
486.5 226.381 L
488.438 97.459 L
490.375 154.128 L
492.313 145.871 L
494.25 122.016 L
496.188 197.918 L
498.125 129.606 L
500.063 163.762 L
502 217.435 L
503.938 152.377 L
505.875 177.677 L
507.813 188.81 L
509.75 96.326 L
511.688 175.147 L
513.625 152.377 L
515.563 110.088 L
517.5 213.857 L
519.438 86.234 L
521.375 129.606 L
523.313 205.508 L
525.25 127.98 L
527.188 226.381 L
529.125 105.317 L
531.063 142.889 L
533 226.381 L
534.938 112.193 L
536.875 88.619 L
538.813 175.147 L
540.75 134.861 L
542.688 188.81 L
544.625 154.128 L
546.563 127.98 L
548.5 129.606 L
550.438 88.619 L
552.375 205.508 L
554.313 175.147 L
556.25 253.218 L
558.188 175.147 L
560.125 115.593 L
562.063 138.714 L
564 145.871 L
565.938 188.81 L
567.875 105.317 L
569.813 226.381 L
571.75 122.016 L
573.688 145.871 L
575.625 195.071 L
577.563 138.714 L
579.5 163.762 L
581.438 122.016 L
583.375 122.016 L
585.313 105.317 L
587.25 116.798 L
589.188 163.762 L
591.125 205.508 L
593.063 289 L
595 289 L
596.938 205.508 L
598.875 142.889 L
600.813 226.381 L
602.75 188.81 L
604.688 177.677 L
606.625 154.128 L
608.563 163.762 L
610.5 122.016 L
612.438 205.508 L
614.375 257.69 L
616.313 129.606 L
618.25 127.98 L
620.188 257.69 L
622.125 134.861 L
624.063 145.871 L
626 163.762 L
627.938 253.218 L
629.875 197.918 L
631.813 188.81 L
633.75 175.147 L
635.688 112.193 L
637.625 115.593 L
639.563 108.101 L
641.5 163.762 L
643.438 94.185 L
645.375 122.016 L
647.313 175.147 L
649.25 289 L
651.188 289 L
653.125 127.98 L
655.063 163.762 L
657 197.918 L
658.938 129.606 L
660.875 115.593 L
662.813 101.143 L
664.75 177.677 L
666.688 122.016 L
668.625 195.071 L
670.563 163.762 L
672.5 142.889 L
674.438 257.69 L
676.375 101.143 L
678.313 122.016 L
680.25 289 L
682.188 138.714 L
684.125 163.762 L
686.063 217.435 L
688 154.128 L
689.938 142.889 L
691.875 152.377 L
693.813 138.714 L
695.75 152.377 L
697.688 154.128 L
699.625 188.81 L
701.563 188.81 L
703.5 175.147 L
705.438 213.857 L
707.375 152.377 L
709.313 142.889 L
711.25 213.857 L
713.188 175.147 L
715.125 163.762 L
717.063 149.847 L
719 134.861 L
720.938 177.677 L
722.875 175.147 L
724.813 177.677 L
726.75 129.606 L
728.688 188.81 L
730.625 163.762 L
732.563 122.016 L
734.5 127.98 L
736.438 112.193 L
738.375 142.889 L
740.313 188.81 L
742.25 76.095 L
744.188 152.377 L
746.125 163.762 L
748.063 163.762 L
750 175.147 L
751.938 142.889 L
753.875 163.762 L
755.813 175.147 L
757.75 177.677 L
759.688 163.762 L
761.625 110.088 L
763.563 142.889 L
765.5 163.762 L
767.438 105.317 L
769.375 127.98 L
771.313 177.677 L
773.25 122.016 L
775.188 104.439 L
777.125 177.677 L
779.063 110.088 L
781 226.381 L
782.938 253.218 L
784.875 163.762 L
786.813 134.861 L
788.75 188.81 L
790.688 154.128 L
792.625 129.606 L
794.563 177.677 L
796.5 115.593 L
798.438 134.861 L
800.375 105.317 L
802.313 163.762 L
804.25 101.143 L
806.188 91.256 L
808.125 115.593 L
810.063 115.593 L
812 154.128 L
813.938 163.762 L
815.875 127.98 L
817.813 145.871 L
819.75 116.798 L
821.688 163.762 L
823.625 205.508 L
825.563 134.861 L
827.5 84.065 L
829.438 110.088 L
831.375 152.377 L
833.313 134.861 L
835.25 175.147 L
837.188 127.98 L
839.125 253.218 L
841.063 94.185 L
843 175.147 L
844.938 110.088 L
846.875 115.593 L
848.813 163.762 L
850.75 127.98 L
852.688 217.435 L
854.625 145.871 L
856.563 152.377 L
858.5 116.798 L
860.438 110.088 L
862.375 115.593 L
864.313 129.606 L
866.25 127.98 L
868.188 152.377 L
870.125 175.147 L
872.063 122.016 L
874 152.377 L
875.938 213.857 L
877.875 152.377 L
879.813 110.088 L
881.75 122.016 L
883.688 127.98 L
885.625 105.317 L
887.563 177.677 L
889.5 163.762 L
891.438 113.667 L
S
GR
GS
1 0 0 RC
1 LJ
0.5 LW
N
133.875 164.547 M
135.813 165.033 L
137.75 166.106 L
139.688 168.184 L
141.625 168.037 L
143.563 167.45 L
145.5 168.313 L
147.438 168.52 L
149.375 168.046 L
151.313 169.457 L
153.25 169.615 L
155.188 170.585 L
157.125 170.106 L
159.063 168.873 L
161 168.745 L
162.938 168.114 L
164.875 168.011 L
166.813 167.688 L
168.75 167.599 L
170.688 167.513 L
172.625 167.734 L
174.563 166.923 L
176.5 166.567 L
178.438 167.021 L
180.375 166.728 L
182.313 166.67 L
184.25 167.675 L
186.188 168.984 L
188.125 171.157 L
190.063 171.893 L
192 173.382 L
193.938 174.141 L
195.875 171.685 L
197.813 171.194 L
199.75 170.921 L
201.688 170.977 L
203.625 170.649 L
205.563 172.1 L
207.5 173.823 L
209.438 175.176 L
211.375 176.369 L
213.313 177.87 L
215.25 177.03 L
217.188 175.614 L
219.125 175.874 L
221.063 174.373 L
223 176.244 L
224.938 176.735 L
226.875 176.122 L
228.813 174.838 L
230.75 174.347 L
232.688 175.575 L
234.625 175.575 L
236.563 174.772 L
238.5 173.817 L
240.438 174.308 L
242.375 174.014 L
244.313 174.382 L
246.25 175.913 L
248.188 174.909 L
250.125 173.856 L
252.063 173.856 L
254 172.547 L
255.938 172.77 L
257.875 173.861 L
259.813 172.458 L
261.75 172.458 L
263.688 171.639 L
265.625 171.828 L
267.563 171.828 L
269.5 171.337 L
271.438 170.498 L
273.375 170.895 L
275.313 171.167 L
277.25 170.676 L
279.188 170.549 L
281.125 171.776 L
283.063 170.199 L
285 169.108 L
286.938 168.153 L
288.875 166.255 L
290.813 165.436 L
292.75 165.436 L
294.688 164.033 L
296.625 164.524 L
298.563 163.542 L
300.5 162.649 L
302.438 164.614 L
304.375 161.983 L
306.313 159.948 L
308.25 158.837 L
310.188 157.855 L
312.125 157.855 L
314.063 158.421 L
316 158.61 L
317.938 157.32 L
319.875 156.891 L
321.813 155.254 L
323.75 154.196 L
325.688 153.973 L
327.625 153.415 L
329.563 154.233 L
331.5 153.005 L
333.438 151.75 L
335.375 153.303 L
337.313 152.807 L
339.25 152.539 L
341.188 152.124 L
343.125 151.141 L
345.063 150.615 L
347 151.352 L
348.938 150.943 L
350.875 149.667 L
352.813 149.042 L
354.75 147.742 L
356.688 147.246 L
358.625 147.246 L
360.563 147.928 L
362.5 150.111 L
364.438 150.725 L
366.375 150.948 L
368.313 151.03 L
370.25 151.82 L
372.188 150.976 L
374.125 150.626 L
376.063 149.643 L
378 150.267 L
379.938 147.811 L
381.875 148.29 L
383.813 151.018 L
385.75 151.564 L
387.688 152.725 L
389.625 153.543 L
391.563 153.99 L
393.5 155.393 L
395.438 154.083 L
397.375 154.656 L
399.313 154.88 L
401.25 151.857 L
403.188 153.037 L
405.125 153.747 L
407.063 154.225 L
409 154.307 L
410.938 152.712 L
412.875 153.326 L
414.813 153.326 L
416.75 154.675 L
418.688 154.675 L
420.625 155.985 L
422.563 154.751 L
424.5 157.429 L
426.438 158.434 L
428.375 156.914 L
430.313 156.111 L
432.25 155.771 L
434.188 154.407 L
436.125 155.039 L
438.063 156.044 L
440 155.726 L
441.938 155.537 L
443.875 153.959 L
445.813 153.631 L
447.75 154.71 L
449.688 155.093 L
451.625 156.209 L
453.563 158.562 L
455.5 158.562 L
457.438 160.238 L
459.375 160.456 L
461.313 157.769 L
463.25 157.379 L
465.188 156.932 L
467.125 156.289 L
469.063 157.048 L
471 156.644 L
472.938 156.325 L
474.875 158.126 L
476.813 157.152 L
478.75 159.607 L
480.688 159.783 L
482.625 156.919 L
484.563 157.328 L
486.5 155.826 L
488.438 153.534 L
490.375 153.534 L
492.313 152.967 L
494.25 154.277 L
496.188 154.497 L
498.125 153.795 L
500.063 153.692 L
502 152.442 L
503.938 153.534 L
505.875 153.98 L
507.813 156.143 L
509.75 157.689 L
511.688 156.131 L
513.625 155.639 L
515.563 155.639 L
517.5 156.832 L
519.438 155.195 L
521.375 158.224 L
523.313 154.949 L
525.25 154.822 L
527.188 156.137 L
529.125 155.835 L
531.063 157.157 L
533 156.339 L
534.938 155.111 L
536.875 152.737 L
538.813 153.116 L
540.75 153.305 L
542.688 154.475 L
544.625 157.749 L
546.563 159.535 L
548.5 161.023 L
550.438 160.614 L
552.375 160.789 L
554.313 161.504 L
556.25 161.504 L
558.188 160.824 L
560.125 162.146 L
562.063 161.104 L
564 162.146 L
565.938 165.04 L
567.875 163.388 L
569.813 164.207 L
571.75 166.718 L
573.688 165.333 L
575.625 165.684 L
577.563 164.456 L
579.5 167.356 L
581.438 168.435 L
583.375 167.698 L
585.313 168.932 L
587.25 169.395 L
589.188 168.227 L
591.125 167.702 L
593.063 167.211 L
595 166.036 L
596.938 165.919 L
598.875 166.812 L
600.813 170.741 L
602.75 172.378 L
604.688 171.453 L
606.625 169.699 L
608.563 170.146 L
610.5 170.42 L
612.438 169.967 L
614.375 169.09 L
616.313 168.872 L
618.25 169.199 L
620.188 168.585 L
622.125 169.404 L
624.063 169.345 L
626 170.573 L
627.938 169.836 L
629.875 169.018 L
631.813 172.292 L
633.75 172.619 L
635.688 173.765 L
637.625 175.739 L
639.563 175.55 L
641.5 174.322 L
643.438 171.643 L
645.375 168.696 L
647.313 167.655 L
649.25 167.875 L
651.188 167.138 L
653.125 167.138 L
655.063 167.089 L
657 168.26 L
658.938 168.037 L
660.875 168.446 L
662.813 168.61 L
664.75 166.991 L
666.688 167.661 L
668.625 168.09 L
670.563 165.681 L
672.5 166.521 L
674.438 167.095 L
676.375 167.368 L
678.313 164.944 L
680.25 164.765 L
682.188 164.274 L
684.125 163.232 L
686.063 163.542 L
688 163.475 L
689.938 164.157 L
691.875 164.648 L
693.813 164.294 L
695.75 164.889 L
697.688 164.666 L
699.625 162.21 L
701.563 159.978 L
703.5 160.27 L
705.438 160.27 L
707.375 159.824 L
709.313 160.766 L
711.25 161.711 L
713.188 161.886 L
715.125 161.204 L
717.063 162.022 L
719 160.263 L
720.938 159.561 L
722.875 160.243 L
724.813 157.583 L
726.75 157.647 L
728.688 158.739 L
730.625 155.231 L
732.563 156.95 L
734.5 158.704 L
736.438 157.651 L
738.375 157.273 L
740.313 158.174 L
742.25 158.208 L
744.188 158.03 L
746.125 158.526 L
748.063 157.77 L
750 156.712 L
751.938 155.075 L
753.875 154.852 L
755.813 152.642 L
757.75 151.443 L
759.688 150.908 L
761.625 148.982 L
763.563 148.569 L
765.5 148.569 L
767.438 148.141 L
769.375 148.357 L
771.313 147.163 L
773.25 146.94 L
775.188 147.485 L
777.125 147.588 L
779.063 145.534 L
781 144.482 L
782.938 145.077 L
784.875 145.212 L
786.813 146.447 L
788.75 146.154 L
790.688 147.417 L
792.625 147.772 L
794.563 148.218 L
796.5 147.166 L
798.438 146.222 L
800.375 145.998 L
802.313 145.706 L
804.25 146.758 L
806.188 146.184 L
808.125 145.688 L
810.063 144.767 L
812 144.767 L
813.938 144.232 L
815.875 143.562 L
817.813 144.007 L
819.75 144.485 L
821.688 144.436 L
823.625 144.436 L
825.563 145.376 L
827.5 146.085 L
829.438 146.914 L
831.375 144.634 L
833.313 142.061 L
835.25 141.36 L
837.188 140.78 L
839.125 140.562 L
841.063 140.751 L
843 140.438 L
844.938 139.694 L
846.875 140.186 L
848.813 140.296 L
850.75 141.041 L
852.688 140.547 L
854.625 141.422 L
856.563 142.563 L
858.5 143.19 L
860.438 143.847 L
862.375 143.596 L
864.313 143.092 L
866.25 143.479 L
868.188 143.416 L
870.125 144.136 L
872.063 143.591 L
874 141.822 L
875.938 142.026 L
877.875 143.783 L
879.813 144.836 L
881.75 144.592 L
883.688 144.917 L
885.625 143.874 L
887.563 144.442 L
889.5 140.413 L
891.438 142.191 L
S
GR
%%Trailer
%%Pages: 1
%%EOF
