%!PS-Adobe-3.0 EPSF-3.0
%%Creator: (MATLAB, The Mathworks, Inc. Version 9.0.0.341360 \(R2016a\). Operating System: Linux)
%%Title: report/figures/sm_mtgt_lin_unifprio_ratio.eps
%%CreationDate: 2017-02-04T23:56:40
%%Pages: (atend)
%%BoundingBox:    59     4   910   325
%%LanguageLevel: 3
%%EndComments
%%BeginProlog
%%BeginResource: procset (Apache XML Graphics Std ProcSet) 1.2 0
%%Version: 1.2 0
%%Copyright: (Copyright 2001-2003,2010 The Apache Software Foundation. License terms: http://www.apache.org/licenses/LICENSE-2.0)
/bd{bind def}bind def
/ld{load def}bd
/GR/grestore ld
/M/moveto ld
/LJ/setlinejoin ld
/C/curveto ld
/f/fill ld
/LW/setlinewidth ld
/GC/setgray ld
/t/show ld
/N/newpath ld
/CT/concat ld
/cp/closepath ld
/S/stroke ld
/L/lineto ld
/CC/setcmykcolor ld
/A/ashow ld
/GS/gsave ld
/RC/setrgbcolor ld
/RM/rmoveto ld
/ML/setmiterlimit ld
/re {4 2 roll M
1 index 0 rlineto
0 exch rlineto
neg 0 rlineto
cp } bd
/_ctm matrix def
/_tm matrix def
/BT { _ctm currentmatrix pop matrix _tm copy pop 0 0 moveto } bd
/ET { _ctm setmatrix } bd
/iTm { _ctm setmatrix _tm concat } bd
/Tm { _tm astore pop iTm 0 0 moveto } bd
/ux 0.0 def
/uy 0.0 def
/F {
  /Tp exch def
  /Tf exch def
  Tf findfont Tp scalefont setfont
  /cf Tf def  /cs Tp def
} bd
/ULS {currentpoint /uy exch def /ux exch def} bd
/ULE {
  /Tcx currentpoint pop def
  gsave
  newpath
  cf findfont cs scalefont dup
  /FontMatrix get 0 get /Ts exch def /FontInfo get dup
  /UnderlinePosition get Ts mul /To exch def
  /UnderlineThickness get Ts mul /Tt exch def
  ux uy To add moveto  Tcx uy To add lineto
  Tt setlinewidth stroke
  grestore
} bd
/OLE {
  /Tcx currentpoint pop def
  gsave
  newpath
  cf findfont cs scalefont dup
  /FontMatrix get 0 get /Ts exch def /FontInfo get dup
  /UnderlinePosition get Ts mul /To exch def
  /UnderlineThickness get Ts mul /Tt exch def
  ux uy To add cs add moveto Tcx uy To add cs add lineto
  Tt setlinewidth stroke
  grestore
} bd
/SOE {
  /Tcx currentpoint pop def
  gsave
  newpath
  cf findfont cs scalefont dup
  /FontMatrix get 0 get /Ts exch def /FontInfo get dup
  /UnderlinePosition get Ts mul /To exch def
  /UnderlineThickness get Ts mul /Tt exch def
  ux uy To add cs 10 mul 26 idiv add moveto Tcx uy To add cs 10 mul 26 idiv add lineto
  Tt setlinewidth stroke
  grestore
} bd
/QT {
/Y22 exch store
/X22 exch store
/Y21 exch store
/X21 exch store
currentpoint
/Y21 load 2 mul add 3 div exch
/X21 load 2 mul add 3 div exch
/X21 load 2 mul /X22 load add 3 div
/Y21 load 2 mul /Y22 load add 3 div
/X22 load /Y22 load curveto
} bd
/SSPD {
dup length /d exch dict def
{
/v exch def
/k exch def
currentpagedevice k known {
/cpdv currentpagedevice k get def
v cpdv ne {
/upd false def
/nullv v type /nulltype eq def
/nullcpdv cpdv type /nulltype eq def
nullv nullcpdv or
{
/upd true def
} {
/sametype v type cpdv type eq def
sametype {
v type /arraytype eq {
/vlen v length def
/cpdvlen cpdv length def
vlen cpdvlen eq {
0 1 vlen 1 sub {
/i exch def
/obj v i get def
/cpdobj cpdv i get def
obj cpdobj ne {
/upd true def
exit
} if
} for
} {
/upd true def
} ifelse
} {
v type /dicttype eq {
v {
/dv exch def
/dk exch def
/cpddv cpdv dk get def
dv cpddv ne {
/upd true def
exit
} if
} forall
} {
/upd true def
} ifelse
} ifelse
} if
} ifelse
upd true eq {
d k v put
} if
} if
} if
} forall
d length 0 gt {
d setpagedevice
} if
} bd
%%EndResource
%%BeginResource: procset (Apache XML Graphics EPS ProcSet) 1.0 0
%%Version: 1.0 0
%%Copyright: (Copyright 2002-2003 The Apache Software Foundation. License terms: http://www.apache.org/licenses/LICENSE-2.0)
/BeginEPSF { %def
/b4_Inc_state save def         % Save state for cleanup
/dict_count countdictstack def % Count objects on dict stack
/op_count count 1 sub def      % Count objects on operand stack
userdict begin                 % Push userdict on dict stack
/showpage { } def              % Redefine showpage, { } = null proc
0 setgray 0 setlinecap         % Prepare graphics state
1 setlinewidth 0 setlinejoin
10 setmiterlimit [ ] 0 setdash newpath
/languagelevel where           % If level not equal to 1 then
{pop languagelevel             % set strokeadjust and
1 ne                           % overprint to their defaults.
{false setstrokeadjust false setoverprint
} if
} if
} bd
/EndEPSF { %def
count op_count sub {pop} repeat            % Clean up stacks
countdictstack dict_count sub {end} repeat
b4_Inc_state restore
} bd
%%EndResource
%%EndProlog
%%Page: 1 1
%%PageBoundingBox: 0 0 1000 350
%%BeginPageSetup
[1 0 0 -1 0 350] CT
%%EndPageSetup
GS
1 GC
N
0 0 1000 350 re
f
GR
GS
1 GC
N
0 0 1000 350 re
f
GR
GS
1 GC
N
130 289 M
905 289 L
905 26 L
130 26 L
cp
f
GR
GS
0.873 GC
1 LJ
0.5 LW
N
130 289 M
130 26 L
S
GR
GS
0.873 GC
1 LJ
0.5 LW
N
323.75 289 M
323.75 26 L
S
GR
GS
0.873 GC
1 LJ
0.5 LW
N
517.5 289 M
517.5 26 L
S
GR
GS
0.873 GC
1 LJ
0.5 LW
N
711.25 289 M
711.25 26 L
S
GR
GS
0.873 GC
1 LJ
0.5 LW
N
905 289 M
905 26 L
S
GR
GS
0.873 GC
1 LJ
0.5 LW
N
905 289 M
130 289 L
S
GR
GS
0.873 GC
1 LJ
0.5 LW
N
905 238.905 M
130 238.905 L
S
GR
GS
0.873 GC
1 LJ
0.5 LW
N
905 188.81 M
130 188.81 L
S
GR
GS
0.873 GC
1 LJ
0.5 LW
N
905 138.714 M
130 138.714 L
S
GR
GS
0.873 GC
1 LJ
0.5 LW
N
905 88.619 M
130 88.619 L
S
GR
GS
0.873 GC
1 LJ
0.5 LW
N
905 38.524 M
130 38.524 L
S
GR
GS
0.149 GC
2 setlinecap
1 LJ
0.5 LW
N
130 289 M
905 289 L
S
GR
GS
0.149 GC
2 setlinecap
1 LJ
0.5 LW
N
130 289 M
130 281.25 L
S
GR
GS
0.149 GC
2 setlinecap
1 LJ
0.5 LW
N
323.75 289 M
323.75 281.25 L
S
GR
GS
0.149 GC
2 setlinecap
1 LJ
0.5 LW
N
517.5 289 M
517.5 281.25 L
S
GR
GS
0.149 GC
2 setlinecap
1 LJ
0.5 LW
N
711.25 289 M
711.25 281.25 L
S
GR
GS
0.149 GC
2 setlinecap
1 LJ
0.5 LW
N
905 289 M
905 281.25 L
S
GR
GS
[1 0 0 1 130 295] CT
0.149 GC
N
-0.141 5.719 M
-1.672 5.719 -2.438 7.219 QT
-3.203 8.719 -3.203 11.719 QT
-3.203 14.719 -2.438 16.219 QT
-1.672 17.719 -0.141 17.719 QT
1.391 17.719 2.156 16.219 QT
2.922 14.719 2.922 11.719 QT
2.922 8.719 2.156 7.219 QT
1.391 5.719 -0.141 5.719 QT
cp
-0.141 4.156 M
2.313 4.156 3.602 6.094 QT
4.891 8.031 4.891 11.719 QT
4.891 15.406 3.602 17.344 QT
2.313 19.281 -0.141 19.281 QT
-2.594 19.281 -3.891 17.344 QT
-5.188 15.406 -5.188 11.719 QT
-5.188 8.031 -3.891 6.094 QT
-2.594 4.156 -0.141 4.156 QT
cp
f
GR
GS
[1 0 0 1 323.75 295] CT
0.149 GC
N
-9.641 5.719 M
-11.172 5.719 -11.938 7.219 QT
-12.703 8.719 -12.703 11.719 QT
-12.703 14.719 -11.938 16.219 QT
-11.172 17.719 -9.641 17.719 QT
-8.109 17.719 -7.344 16.219 QT
-6.578 14.719 -6.578 11.719 QT
-6.578 8.719 -7.344 7.219 QT
-8.109 5.719 -9.641 5.719 QT
cp
-9.641 4.156 M
-7.188 4.156 -5.898 6.094 QT
-4.609 8.031 -4.609 11.719 QT
-4.609 15.406 -5.898 17.344 QT
-7.188 19.281 -9.641 19.281 QT
-12.094 19.281 -13.391 17.344 QT
-14.688 15.406 -14.688 11.719 QT
-14.688 8.031 -13.391 6.094 QT
-12.094 4.156 -9.641 4.156 QT
cp
-1.135 16.516 M
0.928 16.516 L
0.928 19 L
-1.135 19 L
-1.135 16.516 L
cp
5.238 4.422 M
12.988 4.422 L
12.988 6.078 L
7.051 6.078 L
7.051 9.656 L
7.473 9.5 7.902 9.43 QT
8.332 9.359 8.77 9.359 QT
11.207 9.359 12.637 10.695 QT
14.066 12.031 14.066 14.328 QT
14.066 16.672 12.598 17.977 QT
11.129 19.281 8.457 19.281 QT
7.551 19.281 6.598 19.125 QT
5.645 18.969 4.629 18.656 QT
4.629 16.672 L
5.504 17.156 6.441 17.391 QT
7.379 17.625 8.426 17.625 QT
10.113 17.625 11.098 16.734 QT
12.082 15.844 12.082 14.328 QT
12.082 12.797 11.098 11.906 QT
10.113 11.016 8.426 11.016 QT
7.629 11.016 6.848 11.195 QT
6.066 11.375 5.238 11.75 QT
5.238 4.422 L
cp
f
GR
GS
[1 0 0 1 517.5 295] CT
0.149 GC
N
-4.016 17.344 M
-0.797 17.344 L
-0.797 6.219 L
-4.297 6.922 L
-4.297 5.125 L
-0.813 4.422 L
1.156 4.422 L
1.156 17.344 L
4.375 17.344 L
4.375 19 L
-4.016 19 L
-4.016 17.344 L
cp
f
GR
GS
[1 0 0 1 711.25 295] CT
0.149 GC
N
-13.516 17.344 M
-10.297 17.344 L
-10.297 6.219 L
-13.797 6.922 L
-13.797 5.125 L
-10.313 4.422 L
-8.344 4.422 L
-8.344 17.344 L
-5.125 17.344 L
-5.125 19 L
-13.516 19 L
-13.516 17.344 L
cp
-1.135 16.516 M
0.928 16.516 L
0.928 19 L
-1.135 19 L
-1.135 16.516 L
cp
5.238 4.422 M
12.988 4.422 L
12.988 6.078 L
7.051 6.078 L
7.051 9.656 L
7.473 9.5 7.902 9.43 QT
8.332 9.359 8.77 9.359 QT
11.207 9.359 12.637 10.695 QT
14.066 12.031 14.066 14.328 QT
14.066 16.672 12.598 17.977 QT
11.129 19.281 8.457 19.281 QT
7.551 19.281 6.598 19.125 QT
5.645 18.969 4.629 18.656 QT
4.629 16.672 L
5.504 17.156 6.441 17.391 QT
7.379 17.625 8.426 17.625 QT
10.113 17.625 11.098 16.734 QT
12.082 15.844 12.082 14.328 QT
12.082 12.797 11.098 11.906 QT
10.113 11.016 8.426 11.016 QT
7.629 11.016 6.848 11.195 QT
6.066 11.375 5.238 11.75 QT
5.238 4.422 L
cp
f
GR
GS
[1 0 0 1 905 295] CT
0.149 GC
N
-2.656 17.344 M
4.219 17.344 L
4.219 19 L
-5.031 19 L
-5.031 17.344 L
-3.906 16.172 -1.969 14.219 QT
-0.031 12.266 0.469 11.688 QT
1.406 10.625 1.781 9.891 QT
2.156 9.156 2.156 8.438 QT
2.156 7.281 1.344 6.547 QT
0.531 5.813 -0.781 5.813 QT
-1.703 5.813 -2.734 6.133 QT
-3.766 6.453 -4.938 7.109 QT
-4.938 5.125 L
-3.75 4.641 -2.711 4.398 QT
-1.672 4.156 -0.813 4.156 QT
1.453 4.156 2.797 5.289 QT
4.141 6.422 4.141 8.313 QT
4.141 9.219 3.805 10.023 QT
3.469 10.828 2.578 11.922 QT
2.344 12.203 1.031 13.555 QT
-0.281 14.906 -2.656 17.344 QT
cp
f
GR
GS
[1 0 0 1 517.50037 320] CT
0.149 GC
N
-14.25 9.328 M
-14.25 11.188 L
-15.094 10.766 -16 10.547 QT
-16.906 10.328 -17.859 10.328 QT
-19.344 10.328 -20.078 10.781 QT
-20.813 11.234 -20.813 12.141 QT
-20.813 12.828 -20.281 13.219 QT
-19.75 13.609 -18.172 13.969 QT
-17.484 14.109 L
-15.391 14.563 -14.5 15.383 QT
-13.609 16.203 -13.609 17.688 QT
-13.609 19.359 -14.938 20.336 QT
-16.266 21.313 -18.578 21.313 QT
-19.547 21.313 -20.594 21.125 QT
-21.641 20.938 -22.813 20.563 QT
-22.813 18.516 L
-21.719 19.094 -20.648 19.375 QT
-19.578 19.656 -18.547 19.656 QT
-17.141 19.656 -16.391 19.18 QT
-15.641 18.703 -15.641 17.828 QT
-15.641 17.031 -16.188 16.602 QT
-16.734 16.172 -18.563 15.766 QT
-19.25 15.609 L
-21.094 15.219 -21.906 14.422 QT
-22.719 13.625 -22.719 12.219 QT
-22.719 10.531 -21.516 9.602 QT
-20.313 8.672 -18.109 8.672 QT
-17 8.672 -16.039 8.836 QT
-15.078 9 -14.25 9.328 QT
cp
-8.507 5.547 M
-8.507 8.969 L
-4.444 8.969 L
-4.444 10.5 L
-8.507 10.5 L
-8.507 17.031 L
-8.507 18.5 -8.108 18.922 QT
-7.71 19.344 -6.476 19.344 QT
-4.444 19.344 L
-4.444 21 L
-6.476 21 L
-8.757 21 -9.624 20.148 QT
-10.491 19.297 -10.491 17.031 QT
-10.491 10.5 L
-11.944 10.5 L
-11.944 8.969 L
-10.491 8.969 L
-10.491 5.547 L
-8.507 5.547 L
cp
8.447 14.484 M
8.447 15.453 L
-0.631 15.453 L
-0.506 17.5 0.596 18.57 QT
1.697 19.641 3.666 19.641 QT
4.807 19.641 5.869 19.359 QT
6.932 19.078 7.994 18.516 QT
7.994 20.391 L
6.932 20.844 5.814 21.078 QT
4.697 21.313 3.541 21.313 QT
0.666 21.313 -1.014 19.633 QT
-2.693 17.953 -2.693 15.109 QT
-2.693 12.141 -1.1 10.406 QT
0.494 8.672 3.197 8.672 QT
5.635 8.672 7.041 10.234 QT
8.447 11.797 8.447 14.484 QT
cp
6.479 13.906 M
6.447 12.281 5.564 11.32 QT
4.682 10.359 3.229 10.359 QT
1.572 10.359 0.572 11.289 QT
-0.428 12.219 -0.568 13.922 QT
6.479 13.906 L
cp
13.607 19.188 M
13.607 25.578 L
11.623 25.578 L
11.623 8.969 L
13.607 8.969 L
13.607 10.797 L
14.232 9.719 15.186 9.195 QT
16.139 8.672 17.451 8.672 QT
19.639 8.672 21.014 10.414 QT
22.389 12.156 22.389 15 QT
22.389 17.828 21.014 19.57 QT
19.639 21.313 17.451 21.313 QT
16.139 21.313 15.186 20.789 QT
14.232 20.266 13.607 19.188 QT
cp
20.326 15 M
20.326 12.813 19.436 11.57 QT
18.545 10.328 16.967 10.328 QT
15.404 10.328 14.506 11.57 QT
13.607 12.813 13.607 15 QT
13.607 17.172 14.506 18.414 QT
15.404 19.656 16.967 19.656 QT
18.545 19.656 19.436 18.414 QT
20.326 17.172 20.326 15 QT
cp
f
GR
GS
[1 0 0 1 852 345] CT
0.149 GC
N
2.938 -0.578 M
2.938 -0.734 3.031 -0.859 QT
7.203 -5 L
3.031 -9.156 L
2.938 -9.266 2.938 -9.422 QT
2.938 -9.578 3.055 -9.703 QT
3.172 -9.828 3.344 -9.828 QT
3.484 -9.828 3.641 -9.703 QT
7.781 -5.563 L
11.906 -9.703 L
12.078 -9.828 12.203 -9.828 QT
12.359 -9.828 12.477 -9.711 QT
12.594 -9.594 12.594 -9.422 QT
12.594 -9.266 12.5 -9.156 QT
8.344 -5 L
12.5 -0.859 L
12.594 -0.734 12.594 -0.578 QT
12.594 -0.406 12.477 -0.289 QT
12.359 -0.172 12.203 -0.172 QT
12.047 -0.172 11.906 -0.328 QT
7.781 -4.438 L
3.641 -0.328 L
3.5 -0.172 3.344 -0.172 QT
3.172 -0.172 3.055 -0.305 QT
2.938 -0.438 2.938 -0.578 QT
cp
f
GR
GS
[1 0 0 1 868 345] CT
0.149 GC
N
2.484 -1.656 M
5.703 -1.656 L
5.703 -12.781 L
2.203 -12.078 L
2.203 -13.875 L
5.688 -14.578 L
7.656 -14.578 L
7.656 -1.656 L
10.875 -1.656 L
10.875 0 L
2.484 0 L
2.484 -1.656 L
cp
19.084 -13.281 M
17.553 -13.281 16.787 -11.781 QT
16.021 -10.281 16.021 -7.281 QT
16.021 -4.281 16.787 -2.781 QT
17.553 -1.281 19.084 -1.281 QT
20.615 -1.281 21.381 -2.781 QT
22.146 -4.281 22.146 -7.281 QT
22.146 -10.281 21.381 -11.781 QT
20.615 -13.281 19.084 -13.281 QT
cp
19.084 -14.844 M
21.537 -14.844 22.826 -12.906 QT
24.115 -10.969 24.115 -7.281 QT
24.115 -3.594 22.826 -1.656 QT
21.537 0.281 19.084 0.281 QT
16.631 0.281 15.334 -1.656 QT
14.037 -3.594 14.037 -7.281 QT
14.037 -10.969 15.334 -12.906 QT
16.631 -14.844 19.084 -14.844 QT
cp
f
GR
GS
[1 0 0 1 894 335] CT
0.149 GC
N
5.281 -6.469 M
4.219 -6.469 3.602 -5.742 QT
2.984 -5.016 2.984 -3.75 QT
2.984 -2.484 3.602 -1.758 QT
4.219 -1.031 5.281 -1.031 QT
6.344 -1.031 6.969 -1.758 QT
7.594 -2.484 7.594 -3.75 QT
7.594 -5.016 6.969 -5.742 QT
6.344 -6.469 5.281 -6.469 QT
cp
8.422 -11.406 M
8.422 -9.969 L
7.828 -10.25 7.219 -10.398 QT
6.609 -10.547 6.016 -10.547 QT
4.453 -10.547 3.633 -9.492 QT
2.813 -8.438 2.688 -6.313 QT
3.156 -6.984 3.852 -7.352 QT
4.547 -7.719 5.375 -7.719 QT
7.141 -7.719 8.156 -6.648 QT
9.172 -5.578 9.172 -3.75 QT
9.172 -1.953 8.109 -0.859 QT
7.047 0.234 5.281 0.234 QT
3.266 0.234 2.195 -1.32 QT
1.125 -2.875 1.125 -5.828 QT
1.125 -8.594 2.438 -10.234 QT
3.75 -11.875 5.953 -11.875 QT
6.547 -11.875 7.156 -11.758 QT
7.766 -11.641 8.422 -11.406 QT
cp
f
GR
GS
0.149 GC
2 setlinecap
1 LJ
0.5 LW
N
130 289 M
130 26 L
S
GR
GS
0.149 GC
2 setlinecap
1 LJ
0.5 LW
N
130 289 M
137.75 289 L
S
GR
GS
0.149 GC
2 setlinecap
1 LJ
0.5 LW
N
130 238.905 M
137.75 238.905 L
S
GR
GS
0.149 GC
2 setlinecap
1 LJ
0.5 LW
N
130 188.81 M
137.75 188.81 L
S
GR
GS
0.149 GC
2 setlinecap
1 LJ
0.5 LW
N
130 138.714 M
137.75 138.714 L
S
GR
GS
0.149 GC
2 setlinecap
1 LJ
0.5 LW
N
130 88.619 M
137.75 88.619 L
S
GR
GS
0.149 GC
2 setlinecap
1 LJ
0.5 LW
N
130 38.524 M
137.75 38.524 L
S
GR
GS
[1 0 0 1 124 289] CT
0.149 GC
N
-6.641 -6.281 M
-8.172 -6.281 -8.938 -4.781 QT
-9.703 -3.281 -9.703 -0.281 QT
-9.703 2.719 -8.938 4.219 QT
-8.172 5.719 -6.641 5.719 QT
-5.109 5.719 -4.344 4.219 QT
-3.578 2.719 -3.578 -0.281 QT
-3.578 -3.281 -4.344 -4.781 QT
-5.109 -6.281 -6.641 -6.281 QT
cp
-6.641 -7.844 M
-4.188 -7.844 -2.898 -5.906 QT
-1.609 -3.969 -1.609 -0.281 QT
-1.609 3.406 -2.898 5.344 QT
-4.188 7.281 -6.641 7.281 QT
-9.094 7.281 -10.391 5.344 QT
-11.688 3.406 -11.688 -0.281 QT
-11.688 -3.969 -10.391 -5.906 QT
-9.094 -7.844 -6.641 -7.844 QT
cp
f
GR
GS
[1 0 0 1 124 238.90475] CT
0.149 GC
N
-22.156 5.344 M
-15.281 5.344 L
-15.281 7 L
-24.531 7 L
-24.531 5.344 L
-23.406 4.172 -21.469 2.219 QT
-19.531 0.266 -19.031 -0.313 QT
-18.094 -1.375 -17.719 -2.109 QT
-17.344 -2.844 -17.344 -3.563 QT
-17.344 -4.719 -18.156 -5.453 QT
-18.969 -6.188 -20.281 -6.188 QT
-21.203 -6.188 -22.234 -5.867 QT
-23.266 -5.547 -24.438 -4.891 QT
-24.438 -6.875 L
-23.25 -7.359 -22.211 -7.602 QT
-21.172 -7.844 -20.313 -7.844 QT
-18.047 -7.844 -16.703 -6.711 QT
-15.359 -5.578 -15.359 -3.688 QT
-15.359 -2.781 -15.695 -1.977 QT
-16.031 -1.172 -16.922 -0.078 QT
-17.156 0.203 -18.469 1.555 QT
-19.781 2.906 -22.156 5.344 QT
cp
-6.916 -6.281 M
-8.447 -6.281 -9.213 -4.781 QT
-9.979 -3.281 -9.979 -0.281 QT
-9.979 2.719 -9.213 4.219 QT
-8.447 5.719 -6.916 5.719 QT
-5.385 5.719 -4.619 4.219 QT
-3.854 2.719 -3.854 -0.281 QT
-3.854 -3.281 -4.619 -4.781 QT
-5.385 -6.281 -6.916 -6.281 QT
cp
-6.916 -7.844 M
-4.463 -7.844 -3.174 -5.906 QT
-1.885 -3.969 -1.885 -0.281 QT
-1.885 3.406 -3.174 5.344 QT
-4.463 7.281 -6.916 7.281 QT
-9.369 7.281 -10.666 5.344 QT
-11.963 3.406 -11.963 -0.281 QT
-11.963 -3.969 -10.666 -5.906 QT
-9.369 -7.844 -6.916 -7.844 QT
cp
f
GR
GS
[1 0 0 1 124 188.80952] CT
0.149 GC
N
-18.438 -5.859 M
-23.422 1.922 L
-18.438 1.922 L
-18.438 -5.859 L
cp
-18.953 -7.578 M
-16.484 -7.578 L
-16.484 1.922 L
-14.391 1.922 L
-14.391 3.563 L
-16.484 3.563 L
-16.484 7 L
-18.438 7 L
-18.438 3.563 L
-25.016 3.563 L
-25.016 1.656 L
-18.953 -7.578 L
cp
-6.916 -6.281 M
-8.447 -6.281 -9.213 -4.781 QT
-9.979 -3.281 -9.979 -0.281 QT
-9.979 2.719 -9.213 4.219 QT
-8.447 5.719 -6.916 5.719 QT
-5.385 5.719 -4.619 4.219 QT
-3.854 2.719 -3.854 -0.281 QT
-3.854 -3.281 -4.619 -4.781 QT
-5.385 -6.281 -6.916 -6.281 QT
cp
-6.916 -7.844 M
-4.463 -7.844 -3.174 -5.906 QT
-1.885 -3.969 -1.885 -0.281 QT
-1.885 3.406 -3.174 5.344 QT
-4.463 7.281 -6.916 7.281 QT
-9.369 7.281 -10.666 5.344 QT
-11.963 3.406 -11.963 -0.281 QT
-11.963 -3.969 -10.666 -5.906 QT
-9.369 -7.844 -6.916 -7.844 QT
cp
f
GR
GS
[1 0 0 1 124 138.71428] CT
0.149 GC
N
-19.391 -1.078 M
-20.719 -1.078 -21.5 -0.172 QT
-22.281 0.734 -22.281 2.328 QT
-22.281 3.891 -21.5 4.805 QT
-20.719 5.719 -19.391 5.719 QT
-18.063 5.719 -17.289 4.805 QT
-16.516 3.891 -16.516 2.328 QT
-16.516 0.734 -17.289 -0.172 QT
-18.063 -1.078 -19.391 -1.078 QT
cp
-15.484 -7.266 M
-15.484 -5.469 L
-16.219 -5.813 -16.977 -6 QT
-17.734 -6.188 -18.484 -6.188 QT
-20.438 -6.188 -21.469 -4.867 QT
-22.5 -3.547 -22.641 -0.875 QT
-22.063 -1.734 -21.195 -2.188 QT
-20.328 -2.641 -19.281 -2.641 QT
-17.078 -2.641 -15.805 -1.305 QT
-14.531 0.031 -14.531 2.328 QT
-14.531 4.563 -15.859 5.922 QT
-17.188 7.281 -19.391 7.281 QT
-21.922 7.281 -23.266 5.344 QT
-24.609 3.406 -24.609 -0.281 QT
-24.609 -3.734 -22.969 -5.789 QT
-21.328 -7.844 -18.563 -7.844 QT
-17.813 -7.844 -17.055 -7.695 QT
-16.297 -7.547 -15.484 -7.266 QT
cp
-6.916 -6.281 M
-8.447 -6.281 -9.213 -4.781 QT
-9.979 -3.281 -9.979 -0.281 QT
-9.979 2.719 -9.213 4.219 QT
-8.447 5.719 -6.916 5.719 QT
-5.385 5.719 -4.619 4.219 QT
-3.854 2.719 -3.854 -0.281 QT
-3.854 -3.281 -4.619 -4.781 QT
-5.385 -6.281 -6.916 -6.281 QT
cp
-6.916 -7.844 M
-4.463 -7.844 -3.174 -5.906 QT
-1.885 -3.969 -1.885 -0.281 QT
-1.885 3.406 -3.174 5.344 QT
-4.463 7.281 -6.916 7.281 QT
-9.369 7.281 -10.666 5.344 QT
-11.963 3.406 -11.963 -0.281 QT
-11.963 -3.969 -10.666 -5.906 QT
-9.369 -7.844 -6.916 -7.844 QT
cp
f
GR
GS
[1 0 0 1 124 88.61905] CT
0.149 GC
N
-19.641 0.078 M
-21.047 0.078 -21.852 0.828 QT
-22.656 1.578 -22.656 2.891 QT
-22.656 4.219 -21.852 4.969 QT
-21.047 5.719 -19.641 5.719 QT
-18.234 5.719 -17.422 4.961 QT
-16.609 4.203 -16.609 2.891 QT
-16.609 1.578 -17.414 0.828 QT
-18.219 0.078 -19.641 0.078 QT
cp
-21.609 -0.766 M
-22.891 -1.078 -23.594 -1.945 QT
-24.297 -2.813 -24.297 -4.063 QT
-24.297 -5.813 -23.055 -6.828 QT
-21.813 -7.844 -19.641 -7.844 QT
-17.469 -7.844 -16.227 -6.828 QT
-14.984 -5.813 -14.984 -4.063 QT
-14.984 -2.813 -15.695 -1.945 QT
-16.406 -1.078 -17.656 -0.766 QT
-16.234 -0.438 -15.438 0.531 QT
-14.641 1.5 -14.641 2.891 QT
-14.641 5.016 -15.938 6.148 QT
-17.234 7.281 -19.641 7.281 QT
-22.047 7.281 -23.344 6.148 QT
-24.641 5.016 -24.641 2.891 QT
-24.641 1.5 -23.844 0.531 QT
-23.047 -0.438 -21.609 -0.766 QT
cp
-22.344 -3.875 M
-22.344 -2.75 -21.633 -2.117 QT
-20.922 -1.484 -19.641 -1.484 QT
-18.375 -1.484 -17.656 -2.117 QT
-16.938 -2.75 -16.938 -3.875 QT
-16.938 -5.016 -17.656 -5.648 QT
-18.375 -6.281 -19.641 -6.281 QT
-20.922 -6.281 -21.633 -5.648 QT
-22.344 -5.016 -22.344 -3.875 QT
cp
-6.916 -6.281 M
-8.447 -6.281 -9.213 -4.781 QT
-9.979 -3.281 -9.979 -0.281 QT
-9.979 2.719 -9.213 4.219 QT
-8.447 5.719 -6.916 5.719 QT
-5.385 5.719 -4.619 4.219 QT
-3.854 2.719 -3.854 -0.281 QT
-3.854 -3.281 -4.619 -4.781 QT
-5.385 -6.281 -6.916 -6.281 QT
cp
-6.916 -7.844 M
-4.463 -7.844 -3.174 -5.906 QT
-1.885 -3.969 -1.885 -0.281 QT
-1.885 3.406 -3.174 5.344 QT
-4.463 7.281 -6.916 7.281 QT
-9.369 7.281 -10.666 5.344 QT
-11.963 3.406 -11.963 -0.281 QT
-11.963 -3.969 -10.666 -5.906 QT
-9.369 -7.844 -6.916 -7.844 QT
cp
f
GR
GS
[1 0 0 1 124 38.52381] CT
0.149 GC
N
-36.516 5.344 M
-33.297 5.344 L
-33.297 -5.781 L
-36.797 -5.078 L
-36.797 -6.875 L
-33.313 -7.578 L
-31.344 -7.578 L
-31.344 5.344 L
-28.125 5.344 L
-28.125 7 L
-36.516 7 L
-36.516 5.344 L
cp
-19.916 -6.281 M
-21.447 -6.281 -22.213 -4.781 QT
-22.979 -3.281 -22.979 -0.281 QT
-22.979 2.719 -22.213 4.219 QT
-21.447 5.719 -19.916 5.719 QT
-18.385 5.719 -17.619 4.219 QT
-16.854 2.719 -16.854 -0.281 QT
-16.854 -3.281 -17.619 -4.781 QT
-18.385 -6.281 -19.916 -6.281 QT
cp
-19.916 -7.844 M
-17.463 -7.844 -16.174 -5.906 QT
-14.885 -3.969 -14.885 -0.281 QT
-14.885 3.406 -16.174 5.344 QT
-17.463 7.281 -19.916 7.281 QT
-22.369 7.281 -23.666 5.344 QT
-24.963 3.406 -24.963 -0.281 QT
-24.963 -3.969 -23.666 -5.906 QT
-22.369 -7.844 -19.916 -7.844 QT
cp
-7.191 -6.281 M
-8.723 -6.281 -9.488 -4.781 QT
-10.254 -3.281 -10.254 -0.281 QT
-10.254 2.719 -9.488 4.219 QT
-8.723 5.719 -7.191 5.719 QT
-5.66 5.719 -4.895 4.219 QT
-4.129 2.719 -4.129 -0.281 QT
-4.129 -3.281 -4.895 -4.781 QT
-5.66 -6.281 -7.191 -6.281 QT
cp
-7.191 -7.844 M
-4.738 -7.844 -3.449 -5.906 QT
-2.16 -3.969 -2.16 -0.281 QT
-2.16 3.406 -3.449 5.344 QT
-4.738 7.281 -7.191 7.281 QT
-9.645 7.281 -10.941 5.344 QT
-12.238 3.406 -12.238 -0.281 QT
-12.238 -3.969 -10.941 -5.906 QT
-9.645 -7.844 -7.191 -7.844 QT
cp
f
GR
GS
[0 -1 1 0 82 157.49988] CT
0.149 GC
N
-113.063 -22.031 M
-99.5 -22.031 L
-99.5 -20.219 L
-105.188 -20.219 L
-105.188 -6 L
-107.375 -6 L
-107.375 -20.219 L
-113.063 -20.219 L
-113.063 -22.031 L
cp
-92.015 -12.047 M
-94.421 -12.047 -95.343 -11.5 QT
-96.265 -10.953 -96.265 -9.625 QT
-96.265 -8.578 -95.569 -7.961 QT
-94.874 -7.344 -93.687 -7.344 QT
-92.046 -7.344 -91.054 -8.508 QT
-90.062 -9.672 -90.062 -11.609 QT
-90.062 -12.047 L
-92.015 -12.047 L
cp
-88.077 -12.859 M
-88.077 -6 L
-90.062 -6 L
-90.062 -7.828 L
-90.733 -6.734 -91.741 -6.211 QT
-92.749 -5.688 -94.218 -5.688 QT
-96.062 -5.688 -97.147 -6.727 QT
-98.233 -7.766 -98.233 -9.5 QT
-98.233 -11.531 -96.874 -12.563 QT
-95.515 -13.594 -92.827 -13.594 QT
-90.062 -13.594 L
-90.062 -13.781 L
-90.062 -15.156 -90.952 -15.898 QT
-91.843 -16.641 -93.468 -16.641 QT
-94.499 -16.641 -95.476 -16.398 QT
-96.452 -16.156 -97.358 -15.656 QT
-97.358 -17.484 L
-96.28 -17.906 -95.257 -18.117 QT
-94.233 -18.328 -93.265 -18.328 QT
-90.655 -18.328 -89.366 -16.969 QT
-88.077 -15.609 -88.077 -12.859 QT
cp
-77.033 -16.188 M
-77.361 -16.375 -77.76 -16.469 QT
-78.158 -16.563 -78.627 -16.563 QT
-80.299 -16.563 -81.197 -15.469 QT
-82.096 -14.375 -82.096 -12.344 QT
-82.096 -6 L
-84.08 -6 L
-84.08 -18.031 L
-82.096 -18.031 L
-82.096 -16.156 L
-81.471 -17.266 -80.471 -17.797 QT
-79.471 -18.328 -78.049 -18.328 QT
-77.846 -18.328 -77.596 -18.297 QT
-77.346 -18.266 -77.049 -18.219 QT
-77.033 -16.188 L
cp
-67.051 -12.156 M
-67.051 -14.297 -67.934 -15.484 QT
-68.816 -16.672 -70.41 -16.672 QT
-72.004 -16.672 -72.895 -15.484 QT
-73.785 -14.297 -73.785 -12.156 QT
-73.785 -10.016 -72.895 -8.836 QT
-72.004 -7.656 -70.41 -7.656 QT
-68.816 -7.656 -67.934 -8.836 QT
-67.051 -10.016 -67.051 -12.156 QT
cp
-65.066 -7.5 M
-65.066 -4.422 -66.434 -2.922 QT
-67.801 -1.422 -70.613 -1.422 QT
-71.66 -1.422 -72.582 -1.578 QT
-73.504 -1.734 -74.363 -2.063 QT
-74.363 -3.984 L
-73.504 -3.5 -72.652 -3.281 QT
-71.801 -3.063 -70.926 -3.063 QT
-68.973 -3.063 -68.012 -4.078 QT
-67.051 -5.094 -67.051 -7.141 QT
-67.051 -8.109 L
-67.66 -7.047 -68.613 -6.523 QT
-69.566 -6 -70.895 -6 QT
-73.113 -6 -74.465 -7.688 QT
-75.816 -9.375 -75.816 -12.156 QT
-75.816 -14.953 -74.465 -16.641 QT
-73.113 -18.328 -70.895 -18.328 QT
-69.566 -18.328 -68.613 -17.797 QT
-67.66 -17.266 -67.051 -16.203 QT
-67.051 -18.031 L
-65.066 -18.031 L
-65.066 -7.5 L
cp
-50.711 -12.516 M
-50.711 -11.547 L
-59.789 -11.547 L
-59.664 -9.5 -58.563 -8.43 QT
-57.461 -7.359 -55.492 -7.359 QT
-54.352 -7.359 -53.289 -7.641 QT
-52.227 -7.922 -51.164 -8.484 QT
-51.164 -6.609 L
-52.227 -6.156 -53.344 -5.922 QT
-54.461 -5.688 -55.617 -5.688 QT
-58.492 -5.688 -60.172 -7.367 QT
-61.852 -9.047 -61.852 -11.891 QT
-61.852 -14.859 -60.258 -16.594 QT
-58.664 -18.328 -55.961 -18.328 QT
-53.523 -18.328 -52.117 -16.766 QT
-50.711 -15.203 -50.711 -12.516 QT
cp
-52.68 -13.094 M
-52.711 -14.719 -53.594 -15.68 QT
-54.477 -16.641 -55.93 -16.641 QT
-57.586 -16.641 -58.586 -15.711 QT
-59.586 -14.781 -59.727 -13.078 QT
-52.68 -13.094 L
cp
-45.504 -21.453 M
-45.504 -18.031 L
-41.441 -18.031 L
-41.441 -16.5 L
-45.504 -16.5 L
-45.504 -9.969 L
-45.504 -8.5 -45.105 -8.078 QT
-44.707 -7.656 -43.473 -7.656 QT
-41.441 -7.656 L
-41.441 -6 L
-43.473 -6 L
-45.754 -6 -46.621 -6.852 QT
-47.488 -7.703 -47.488 -9.969 QT
-47.488 -16.5 L
-48.941 -16.5 L
-48.941 -18.031 L
-47.488 -18.031 L
-47.488 -21.453 L
-45.504 -21.453 L
cp
-31.159 -17.672 M
-31.159 -15.813 L
-32.003 -16.234 -32.909 -16.453 QT
-33.815 -16.672 -34.769 -16.672 QT
-36.253 -16.672 -36.987 -16.219 QT
-37.722 -15.766 -37.722 -14.859 QT
-37.722 -14.172 -37.19 -13.781 QT
-36.659 -13.391 -35.081 -13.031 QT
-34.394 -12.891 L
-32.3 -12.438 -31.409 -11.617 QT
-30.519 -10.797 -30.519 -9.313 QT
-30.519 -7.641 -31.847 -6.664 QT
-33.175 -5.688 -35.487 -5.688 QT
-36.456 -5.688 -37.503 -5.875 QT
-38.55 -6.063 -39.722 -6.438 QT
-39.722 -8.484 L
-38.628 -7.906 -37.558 -7.625 QT
-36.487 -7.344 -35.456 -7.344 QT
-34.05 -7.344 -33.3 -7.82 QT
-32.55 -8.297 -32.55 -9.172 QT
-32.55 -9.969 -33.097 -10.398 QT
-33.644 -10.828 -35.472 -11.234 QT
-36.159 -11.391 L
-38.003 -11.781 -38.815 -12.578 QT
-39.628 -13.375 -39.628 -14.781 QT
-39.628 -16.469 -38.425 -17.398 QT
-37.222 -18.328 -35.019 -18.328 QT
-33.909 -18.328 -32.948 -18.164 QT
-31.987 -18 -31.159 -17.672 QT
cp
-13.407 -16.188 M
-13.735 -16.375 -14.134 -16.469 QT
-14.532 -16.563 -15.001 -16.563 QT
-16.673 -16.563 -17.571 -15.469 QT
-18.47 -14.375 -18.47 -12.344 QT
-18.47 -6 L
-20.454 -6 L
-20.454 -18.031 L
-18.47 -18.031 L
-18.47 -16.156 L
-17.845 -17.266 -16.845 -17.797 QT
-15.845 -18.328 -14.423 -18.328 QT
-14.22 -18.328 -13.97 -18.297 QT
-13.72 -18.266 -13.423 -18.219 QT
-13.407 -16.188 L
cp
-1.05 -12.516 M
-1.05 -11.547 L
-10.128 -11.547 L
-10.003 -9.5 -8.901 -8.43 QT
-7.8 -7.359 -5.831 -7.359 QT
-4.69 -7.359 -3.628 -7.641 QT
-2.565 -7.922 -1.503 -8.484 QT
-1.503 -6.609 L
-2.565 -6.156 -3.683 -5.922 QT
-4.8 -5.688 -5.956 -5.688 QT
-8.831 -5.688 -10.511 -7.367 QT
-12.19 -9.047 -12.19 -11.891 QT
-12.19 -14.859 -10.597 -16.594 QT
-9.003 -18.328 -6.3 -18.328 QT
-3.862 -18.328 -2.456 -16.766 QT
-1.05 -15.203 -1.05 -12.516 QT
cp
-3.019 -13.094 M
-3.05 -14.719 -3.933 -15.68 QT
-4.815 -16.641 -6.269 -16.641 QT
-7.925 -16.641 -8.925 -15.711 QT
-9.925 -14.781 -10.065 -13.078 QT
-3.019 -13.094 L
cp
7.673 -12.047 M
5.267 -12.047 4.345 -11.5 QT
3.423 -10.953 3.423 -9.625 QT
3.423 -8.578 4.118 -7.961 QT
4.813 -7.344 6.001 -7.344 QT
7.642 -7.344 8.634 -8.508 QT
9.626 -9.672 9.626 -11.609 QT
9.626 -12.047 L
7.673 -12.047 L
cp
11.61 -12.859 M
11.61 -6 L
9.626 -6 L
9.626 -7.828 L
8.954 -6.734 7.946 -6.211 QT
6.938 -5.688 5.47 -5.688 QT
3.626 -5.688 2.54 -6.727 QT
1.454 -7.766 1.454 -9.5 QT
1.454 -11.531 2.813 -12.563 QT
4.173 -13.594 6.86 -13.594 QT
9.626 -13.594 L
9.626 -13.781 L
9.626 -15.156 8.735 -15.898 QT
7.845 -16.641 6.22 -16.641 QT
5.188 -16.641 4.212 -16.398 QT
3.235 -16.156 2.329 -15.656 QT
2.329 -17.484 L
3.407 -17.906 4.431 -18.117 QT
5.454 -18.328 6.423 -18.328 QT
9.032 -18.328 10.321 -16.969 QT
11.61 -15.609 11.61 -12.859 QT
cp
24.342 -17.563 M
24.342 -15.719 L
23.498 -16.188 22.654 -16.414 QT
21.811 -16.641 20.951 -16.641 QT
19.029 -16.641 17.967 -15.422 QT
16.904 -14.203 16.904 -12 QT
16.904 -9.797 17.967 -8.578 QT
19.029 -7.359 20.951 -7.359 QT
21.811 -7.359 22.654 -7.594 QT
23.498 -7.828 24.342 -8.281 QT
24.342 -6.469 L
23.514 -6.078 22.623 -5.883 QT
21.732 -5.688 20.748 -5.688 QT
18.029 -5.688 16.428 -7.398 QT
14.826 -9.109 14.826 -12 QT
14.826 -14.953 16.443 -16.641 QT
18.061 -18.328 20.873 -18.328 QT
21.779 -18.328 22.654 -18.141 QT
23.529 -17.953 24.342 -17.563 QT
cp
37.781 -13.266 M
37.781 -6 L
35.797 -6 L
35.797 -13.203 L
35.797 -14.906 35.133 -15.758 QT
34.469 -16.609 33.141 -16.609 QT
31.531 -16.609 30.609 -15.586 QT
29.688 -14.563 29.688 -12.797 QT
29.688 -6 L
27.703 -6 L
27.703 -22.719 L
29.688 -22.719 L
29.688 -16.156 L
30.391 -17.25 31.359 -17.789 QT
32.328 -18.328 33.578 -18.328 QT
35.656 -18.328 36.719 -17.039 QT
37.781 -15.75 37.781 -13.266 QT
cp
52.006 -12.516 M
52.006 -11.547 L
42.928 -11.547 L
43.053 -9.5 44.154 -8.43 QT
45.256 -7.359 47.225 -7.359 QT
48.365 -7.359 49.428 -7.641 QT
50.49 -7.922 51.553 -8.484 QT
51.553 -6.609 L
50.49 -6.156 49.373 -5.922 QT
48.256 -5.688 47.1 -5.688 QT
44.225 -5.688 42.545 -7.367 QT
40.865 -9.047 40.865 -11.891 QT
40.865 -14.859 42.459 -16.594 QT
44.053 -18.328 46.756 -18.328 QT
49.193 -18.328 50.6 -16.766 QT
52.006 -15.203 52.006 -12.516 QT
cp
50.037 -13.094 M
50.006 -14.719 49.123 -15.68 QT
48.24 -16.641 46.787 -16.641 QT
45.131 -16.641 44.131 -15.711 QT
43.131 -14.781 42.99 -13.078 QT
50.037 -13.094 L
cp
63.166 -16.203 M
63.166 -22.719 L
65.15 -22.719 L
65.15 -6 L
63.166 -6 L
63.166 -7.813 L
62.557 -6.734 61.604 -6.211 QT
60.65 -5.688 59.322 -5.688 QT
57.135 -5.688 55.768 -7.43 QT
54.4 -9.172 54.4 -12 QT
54.4 -14.844 55.768 -16.586 QT
57.135 -18.328 59.322 -18.328 QT
60.65 -18.328 61.604 -17.805 QT
62.557 -17.281 63.166 -16.203 QT
cp
56.432 -12 M
56.432 -9.828 57.33 -8.586 QT
58.229 -7.344 59.807 -7.344 QT
61.369 -7.344 62.268 -8.586 QT
63.166 -9.828 63.166 -12 QT
63.166 -14.188 62.268 -15.43 QT
61.369 -16.672 59.807 -16.672 QT
58.229 -16.672 57.33 -15.43 QT
56.432 -14.188 56.432 -12 QT
cp
76.03 -22.719 M
80.593 -22.719 L
80.593 -21.172 L
78.015 -21.172 L
78.015 -4.641 L
80.593 -4.641 L
80.593 -3.094 L
76.03 -3.094 L
76.03 -22.719 L
cp
98.723 -13.063 M
97.785 -13.063 97.254 -12.266 QT
96.723 -11.469 96.723 -10.047 QT
96.723 -8.656 97.254 -7.852 QT
97.785 -7.047 98.723 -7.047 QT
99.629 -7.047 100.16 -7.852 QT
100.691 -8.656 100.691 -10.047 QT
100.691 -11.453 100.16 -12.258 QT
99.629 -13.063 98.723 -13.063 QT
cp
98.723 -14.422 M
100.41 -14.422 101.41 -13.242 QT
102.41 -12.063 102.41 -10.047 QT
102.41 -8.047 101.41 -6.867 QT
100.41 -5.688 98.723 -5.688 QT
97.004 -5.688 96.004 -6.867 QT
95.004 -8.047 95.004 -10.047 QT
95.004 -12.063 96.004 -13.242 QT
97.004 -14.422 98.723 -14.422 QT
cp
87.629 -20.969 M
86.707 -20.969 86.176 -20.164 QT
85.645 -19.359 85.645 -17.969 QT
85.645 -16.547 86.168 -15.75 QT
86.691 -14.953 87.629 -14.953 QT
88.566 -14.953 89.098 -15.75 QT
89.629 -16.547 89.629 -17.969 QT
89.629 -19.359 89.09 -20.164 QT
88.551 -20.969 87.629 -20.969 QT
cp
97.332 -22.328 M
99.051 -22.328 L
89.02 -5.688 L
87.301 -5.688 L
97.332 -22.328 L
cp
87.629 -22.328 M
89.332 -22.328 90.34 -21.148 QT
91.348 -19.969 91.348 -17.969 QT
91.348 -15.938 90.348 -14.766 QT
89.348 -13.594 87.629 -13.594 QT
85.926 -13.594 84.934 -14.773 QT
83.941 -15.953 83.941 -17.969 QT
83.941 -19.969 84.941 -21.148 QT
85.941 -22.328 87.629 -22.328 QT
cp
110.314 -22.719 M
110.314 -3.094 L
105.768 -3.094 L
105.768 -4.641 L
108.33 -4.641 L
108.33 -21.172 L
105.768 -21.172 L
105.768 -22.719 L
110.314 -22.719 L
cp
f
GR
GS
0 0.447 0.741 RC
1 LJ
0.5 LW
N
169.525 197.918 M
169.913 205.508 L
170.3 205.508 L
170.688 253.218 L
171.075 163.762 L
171.462 163.762 L
171.85 177.677 L
172.238 138.714 L
172.625 129.606 L
173.012 195.071 L
173.4 149.847 L
173.788 134.861 L
174.175 88.619 L
174.563 253.218 L
174.95 127.98 L
175.337 113.667 L
175.725 149.847 L
176.113 110.088 L
176.5 142.889 L
176.887 134.861 L
177.275 138.714 L
177.663 129.606 L
178.05 138.714 L
178.438 129.606 L
178.825 163.762 L
179.212 134.861 L
179.6 154.128 L
179.988 77.059 L
180.375 129.606 L
180.762 110.088 L
181.15 195.071 L
181.538 101.143 L
181.925 74.306 L
182.313 113.667 L
182.7 188.81 L
183.087 217.435 L
183.475 163.762 L
183.863 152.377 L
184.25 82.725 L
184.637 154.128 L
185.025 115.593 L
185.413 205.508 L
185.8 106.836 L
186.188 152.377 L
186.575 92.197 L
186.962 195.071 L
187.35 152.377 L
187.738 217.435 L
188.125 188.81 L
188.512 149.847 L
188.9 154.128 L
189.288 92.197 L
189.675 142.889 L
190.063 101.143 L
190.45 129.606 L
190.837 127.98 L
191.225 195.071 L
191.613 188.81 L
192 233.339 L
192.387 88.619 L
192.775 115.593 L
193.163 106.836 L
193.55 226.381 L
193.938 175.147 L
194.325 213.857 L
194.712 115.593 L
195.1 134.861 L
195.488 163.762 L
195.875 253.218 L
196.262 163.762 L
196.65 105.317 L
197.038 163.762 L
197.425 226.381 L
197.813 163.762 L
198.2 129.606 L
198.587 175.147 L
198.975 138.714 L
199.363 142.889 L
199.75 129.606 L
200.137 152.377 L
200.525 134.861 L
200.913 110.088 L
201.3 92.197 L
201.688 134.861 L
202.075 205.508 L
202.462 152.377 L
202.85 122.016 L
203.238 163.762 L
203.625 113.667 L
204.012 154.128 L
204.4 106.836 L
204.788 132.452 L
205.175 177.677 L
205.563 88.619 L
205.95 188.81 L
206.337 110.088 L
206.725 175.147 L
207.113 188.81 L
207.5 122.016 L
207.887 134.861 L
208.275 142.889 L
208.663 129.606 L
209.05 177.677 L
209.438 116.798 L
209.825 101.143 L
210.212 97.459 L
210.6 129.606 L
210.988 78.073 L
211.375 110.088 L
211.762 154.128 L
212.15 175.147 L
212.538 138.714 L
212.925 152.377 L
213.313 101.143 L
213.7 101.143 L
214.087 105.317 L
214.475 115.593 L
214.863 152.377 L
215.25 82.725 L
215.637 163.762 L
216.025 101.143 L
216.413 163.762 L
216.8 108.101 L
217.188 85.488 L
217.575 74.306 L
217.962 138.714 L
218.35 60.304 L
218.738 138.714 L
219.125 122.016 L
219.512 88.619 L
219.9 86.234 L
220.288 88.619 L
220.675 80.27 L
221.063 138.714 L
221.45 62.379 L
221.837 80.27 L
222.225 115.593 L
222.613 59.397 L
223 101.143 L
223.387 101.143 L
223.775 134.861 L
224.163 96.326 L
224.55 127.98 L
224.938 61.294 L
225.325 82.725 L
225.712 64.89 L
226.1 154.128 L
226.488 122.016 L
226.875 68.581 L
227.262 59.397 L
227.65 88.619 L
228.038 122.016 L
228.425 59.397 L
228.813 92.197 L
229.2 78.073 L
229.587 116.798 L
229.975 142.889 L
230.363 152.377 L
230.75 80.27 L
231.137 154.128 L
231.525 127.98 L
231.913 74.306 L
232.3 122.016 L
232.688 127.98 L
233.075 127.98 L
233.462 122.016 L
233.85 129.606 L
234.238 60.304 L
234.625 80.27 L
235.012 110.088 L
235.4 85.488 L
235.788 134.861 L
236.175 67.992 L
236.563 101.143 L
236.95 71.195 L
237.337 86.234 L
237.725 85.488 L
238.113 96.326 L
238.5 138.714 L
238.887 63.571 L
239.275 88.619 L
239.663 122.016 L
240.05 105.317 L
240.438 163.762 L
240.825 112.193 L
241.212 110.088 L
241.6 86.234 L
241.988 97.459 L
242.375 80.27 L
242.762 74.306 L
243.15 91.256 L
243.538 105.317 L
243.925 94.185 L
244.313 74.306 L
244.7 108.101 L
245.087 127.98 L
245.475 64.89 L
245.863 163.762 L
246.25 82.725 L
246.637 142.889 L
247.025 86.234 L
247.413 101.143 L
247.8 84.065 L
248.188 82.085 L
248.575 76.095 L
248.962 65.361 L
249.35 97.459 L
249.738 76.095 L
250.125 177.677 L
250.512 52.439 L
250.9 175.147 L
251.288 80.27 L
251.675 138.714 L
252.063 74.306 L
252.45 97.459 L
252.837 91.256 L
253.225 163.762 L
253.613 122.016 L
254 101.143 L
254.387 101.143 L
254.775 60.625 L
255.163 67.425 L
255.55 94.185 L
255.938 74.306 L
256.325 74.306 L
256.712 69.833 L
257.1 76.095 L
257.487 94.185 L
257.875 104.439 L
258.263 59.397 L
258.65 88.619 L
259.038 175.147 L
259.425 75.631 L
259.813 154.128 L
260.2 72.68 L
260.587 129.606 L
260.975 108.101 L
261.362 61.294 L
261.75 53.704 L
262.138 86.234 L
262.525 96.326 L
262.913 110.088 L
263.3 66.355 L
263.688 127.98 L
264.075 60.625 L
264.462 88.619 L
264.85 84.065 L
265.237 122.016 L
265.625 80.27 L
266.013 63.571 L
266.4 67.425 L
266.788 54.684 L
267.175 57.078 L
267.563 57.791 L
267.95 85.488 L
268.337 88.619 L
268.725 84.065 L
269.112 57.078 L
269.5 88.619 L
269.888 67.425 L
270.275 142.889 L
270.663 95.45 L
271.05 94.185 L
271.438 78.6 L
271.825 80.27 L
272.212 74.306 L
272.6 101.143 L
272.987 62.379 L
273.375 101.143 L
273.763 86.234 L
274.15 91.256 L
274.538 96.326 L
274.925 103.865 L
275.313 85.488 L
275.7 84.065 L
276.087 68.581 L
276.475 69.833 L
276.862 70.843 L
277.25 62.763 L
277.638 72.68 L
278.025 38.524 L
278.413 82.085 L
278.8 175.147 L
279.188 80.27 L
279.575 55.798 L
279.962 106.836 L
280.35 108.101 L
280.737 75.631 L
281.125 74.306 L
281.513 84.065 L
281.9 112.193 L
282.288 80.27 L
282.675 82.085 L
283.063 97.459 L
283.45 98.161 L
283.837 76.095 L
284.225 98.161 L
284.612 85.488 L
285 74.306 L
285.388 88.619 L
285.775 55.222 L
286.163 91.256 L
286.55 88.619 L
286.938 112.193 L
287.325 82.085 L
287.712 78.073 L
288.1 101.143 L
288.487 73.072 L
288.875 49.909 L
289.263 88.619 L
289.65 86.234 L
290.038 80.27 L
290.425 68.581 L
290.813 59.397 L
291.2 86.234 L
291.587 134.861 L
291.975 94.185 L
292.362 98.161 L
292.75 84.065 L
293.138 63.571 L
293.525 64.435 L
293.913 108.101 L
294.3 69.833 L
294.688 62.006 L
295.075 80.27 L
295.462 92.975 L
295.85 82.085 L
296.237 112.193 L
296.625 82.085 L
297.013 48.543 L
297.4 68.885 L
297.788 54.179 L
298.175 60.304 L
298.563 77.059 L
298.95 62.763 L
299.337 63.571 L
299.725 61.294 L
300.112 63.571 L
300.5 80.27 L
300.888 95.45 L
301.275 55.798 L
301.663 142.889 L
302.05 69.833 L
302.438 50.451 L
302.825 108.101 L
303.212 65.361 L
303.6 69.833 L
303.987 51.707 L
304.375 82.085 L
304.763 97.459 L
305.15 62.379 L
305.538 116.798 L
305.925 64.435 L
306.313 64.435 L
306.7 68.581 L
307.087 62.763 L
307.475 48.543 L
307.862 108.101 L
308.25 78.6 L
308.638 80.27 L
309.025 47.801 L
309.413 66.355 L
309.8 97.459 L
310.188 66.355 L
310.575 98.161 L
310.962 78.6 L
311.35 67.425 L
311.737 86.234 L
312.125 52.837 L
312.513 46.604 L
312.9 88.619 L
313.288 74.306 L
313.675 98.161 L
314.063 52.439 L
314.45 51.369 L
314.837 75.631 L
315.225 62.379 L
315.612 68.581 L
316 62.763 L
316.388 108.101 L
316.775 57.791 L
317.163 94.185 L
317.55 60.304 L
317.938 74.306 L
318.325 66.355 L
318.712 91.256 L
319.1 59.397 L
319.487 62.006 L
319.875 58.298 L
320.263 72.68 L
320.65 84.065 L
321.038 105.317 L
321.425 80.27 L
321.813 92.197 L
322.2 132.452 L
322.587 78.073 L
322.975 61.294 L
323.362 56.415 L
323.75 65.361 L
324.138 56.415 L
324.525 78.6 L
324.913 80.27 L
325.3 78.6 L
325.688 91.256 L
326.075 122.016 L
326.462 45.481 L
326.85 61.294 L
327.237 67.992 L
327.625 63.571 L
328.013 78.073 L
328.4 68.581 L
328.788 54.684 L
329.175 57.078 L
329.563 69.833 L
329.95 74.306 L
330.337 68.581 L
330.725 82.725 L
331.112 88.619 L
331.5 104.439 L
331.888 47.161 L
332.275 94.185 L
332.663 86.234 L
333.05 152.377 L
333.438 85.488 L
333.825 59.397 L
334.212 48.543 L
334.6 101.143 L
334.987 61.294 L
335.375 82.085 L
335.763 86.234 L
336.15 112.193 L
336.538 101.143 L
336.925 65.361 L
337.313 68.581 L
337.7 82.085 L
338.087 61.294 L
338.475 84.065 L
338.862 49.909 L
339.25 48.543 L
339.638 75.631 L
340.025 74.306 L
340.413 65.361 L
340.8 88.619 L
341.188 57.791 L
341.575 101.143 L
341.962 46.351 L
342.35 122.016 L
342.737 88.619 L
343.125 86.234 L
343.513 84.065 L
343.9 101.143 L
344.288 86.234 L
344.675 68.581 L
345.063 88.619 L
345.45 94.185 L
345.837 57.078 L
346.225 71.195 L
346.612 75.631 L
347 112.193 L
347.388 122.016 L
347.775 112.193 L
348.163 68.581 L
348.55 62.763 L
348.938 71.195 L
349.325 62.763 L
349.712 72.68 L
350.1 51.369 L
350.487 59.993 L
350.875 76.095 L
351.263 82.725 L
351.65 84.065 L
352.038 54.684 L
352.425 122.016 L
352.813 61.294 L
353.2 74.306 L
353.587 68.581 L
353.975 85.488 L
354.362 57.791 L
354.75 59.397 L
355.138 59.397 L
355.525 55.798 L
355.913 52.837 L
356.3 142.889 L
356.688 55.222 L
357.075 94.185 L
357.462 55.222 L
357.85 92.975 L
358.237 71.195 L
358.625 58.562 L
359.013 82.085 L
359.4 91.256 L
359.788 74.306 L
360.175 64.435 L
360.563 71.195 L
360.95 60.304 L
361.337 108.101 L
361.725 110.088 L
362.112 59.993 L
362.5 61.294 L
362.888 110.088 L
363.275 82.085 L
363.663 82.085 L
364.05 116.798 L
364.438 67.425 L
364.825 101.143 L
365.212 68.885 L
365.6 98.161 L
365.987 96.326 L
366.375 86.234 L
366.763 78.073 L
367.15 91.256 L
367.538 76.095 L
367.925 64.89 L
368.313 108.101 L
368.7 78.6 L
369.087 105.317 L
369.475 127.98 L
369.862 82.725 L
370.25 105.317 L
370.638 104.439 L
371.025 57.078 L
371.413 69.833 L
371.8 127.98 L
372.188 58.562 L
372.575 75.631 L
372.962 88.619 L
373.35 80.27 L
373.737 97.459 L
374.125 80.27 L
374.513 116.798 L
374.9 46.604 L
375.288 80.27 L
375.675 66.355 L
376.063 82.725 L
376.45 76.095 L
376.837 74.306 L
377.225 101.143 L
377.612 88.619 L
378 90.706 L
378.388 82.085 L
378.775 62.006 L
379.163 63.571 L
379.55 127.98 L
379.938 78.073 L
380.325 53.258 L
380.712 129.606 L
381.1 66.355 L
381.487 108.101 L
381.875 92.197 L
382.263 105.317 L
382.65 52.439 L
383.038 64.435 L
383.425 76.095 L
383.813 163.762 L
384.2 75.631 L
384.587 74.306 L
384.975 74.306 L
385.362 62.379 L
385.75 75.631 L
386.138 68.581 L
386.525 56.415 L
386.913 38.524 L
387.3 80.27 L
387.688 72.68 L
388.075 101.143 L
388.462 45.293 L
388.85 82.085 L
389.237 50.742 L
389.625 84.065 L
390.013 86.234 L
390.4 55.798 L
390.788 78.073 L
391.175 88.619 L
391.563 66.355 L
391.95 78.6 L
392.337 71.195 L
392.725 95.45 L
393.112 48.96 L
393.5 58.298 L
393.888 78.073 L
394.275 47.161 L
394.663 71.195 L
395.05 66.355 L
395.438 105.317 L
395.825 97.459 L
396.212 94.185 L
396.6 67.425 L
396.987 71.195 L
397.375 104.439 L
397.763 61.294 L
398.15 78.073 L
398.538 38.524 L
398.925 97.459 L
399.313 116.798 L
399.7 163.762 L
400.087 69.833 L
400.475 112.193 L
400.862 88.619 L
401.25 126.927 L
401.638 80.27 L
402.025 55.798 L
402.413 94.185 L
402.8 71.195 L
403.188 72.68 L
403.575 69.833 L
403.962 82.085 L
404.35 62.379 L
404.737 80.27 L
405.125 57.078 L
405.513 70.843 L
405.9 105.317 L
406.288 50.742 L
406.675 57.078 L
407.063 80.27 L
407.45 49.909 L
407.837 63.571 L
408.225 50.174 L
408.612 53.704 L
409 46.873 L
409.388 83.252 L
409.775 92.975 L
410.163 101.143 L
410.55 56.415 L
410.938 65.361 L
411.325 84.065 L
411.712 72.68 L
412.1 56.415 L
412.487 104.439 L
412.875 73.072 L
413.263 66.355 L
413.65 108.101 L
414.038 52.837 L
414.425 88.619 L
414.813 104.439 L
415.2 92.197 L
415.587 74.306 L
415.975 116.798 L
416.362 101.143 L
416.75 58.562 L
417.138 122.016 L
417.525 59.397 L
417.913 97.459 L
418.3 54.684 L
418.688 67.425 L
419.075 59.397 L
419.462 80.27 L
419.85 72.68 L
420.237 64.435 L
420.625 67.425 L
421.013 84.065 L
421.4 101.143 L
421.788 126.927 L
422.175 57.078 L
422.563 59.397 L
422.95 72.68 L
423.337 90.706 L
423.725 58.562 L
424.112 91.256 L
424.5 57.791 L
424.888 77.059 L
425.275 97.459 L
425.663 80.27 L
426.05 49.909 L
426.438 71.921 L
426.825 66.355 L
427.212 71.195 L
427.6 54.179 L
427.987 60.304 L
428.375 75.631 L
428.763 71.921 L
429.15 52.439 L
429.538 63.571 L
429.925 65.361 L
430.313 74.306 L
430.7 68.581 L
431.087 78.073 L
431.475 60.625 L
431.862 71.195 L
432.25 67.425 L
432.638 62.763 L
433.025 76.095 L
433.413 129.606 L
433.8 71.921 L
434.188 57.791 L
434.575 55.222 L
434.962 67.425 L
435.35 110.088 L
435.737 49.414 L
436.125 59.397 L
436.513 78.073 L
436.9 75.631 L
437.288 49.909 L
437.675 76.095 L
438.063 80.27 L
438.45 49.909 L
438.837 71.195 L
439.225 68.581 L
439.612 72.68 L
440 62.763 L
440.388 58.562 L
440.775 88.619 L
441.163 74.306 L
441.55 88.619 L
441.938 67.425 L
442.325 97.459 L
442.712 71.195 L
443.1 76.095 L
443.487 57.791 L
443.875 92.975 L
444.263 74.306 L
444.65 54.684 L
445.038 55.222 L
445.425 78.073 L
445.813 54.684 L
446.2 77.059 L
446.587 91.256 L
446.975 55.222 L
447.362 68.581 L
447.75 68.581 L
448.138 45.481 L
448.525 61.294 L
448.913 77.059 L
449.3 69.833 L
449.688 67.425 L
450.075 74.306 L
450.462 53.704 L
450.85 58.562 L
451.237 75.631 L
451.625 77.059 L
452.013 88.619 L
452.4 49.656 L
452.788 56.415 L
453.175 62.006 L
453.563 59.993 L
453.95 54.179 L
454.337 44.488 L
454.725 63.571 L
455.112 82.725 L
455.5 73.072 L
455.888 50.451 L
456.275 60.625 L
456.663 52.063 L
457.05 57.078 L
457.438 53.258 L
457.825 65.361 L
458.212 44.786 L
458.6 45.68 L
458.987 74.306 L
459.375 44.633 L
459.763 50.174 L
460.15 108.101 L
460.538 71.195 L
460.925 65.361 L
461.313 52.063 L
461.7 57.078 L
462.087 74.306 L
462.475 104.439 L
462.862 65.361 L
463.25 55.222 L
463.638 53.704 L
464.025 72.68 L
464.413 64.435 L
464.8 55.798 L
465.188 66.355 L
465.575 60.304 L
465.962 91.256 L
466.35 55.798 L
466.737 66.355 L
467.125 67.425 L
467.513 66.355 L
467.9 55.999 L
468.288 46.873 L
468.675 75.359 L
469.063 52.837 L
469.45 52.063 L
469.837 46.351 L
470.225 67.992 L
470.612 66.355 L
471 127.98 L
471.388 88.619 L
471.775 55.798 L
472.163 70.843 L
472.55 60.625 L
472.938 115.593 L
473.325 78.6 L
473.712 104.439 L
474.1 46.351 L
474.487 78.073 L
474.875 78.073 L
475.263 55.602 L
475.65 67.425 L
476.038 55.798 L
476.425 68.581 L
476.813 55.222 L
477.2 56.415 L
477.587 47.469 L
477.975 51.707 L
478.362 52.063 L
478.75 56.415 L
479.138 62.006 L
479.525 78.6 L
479.913 49.909 L
480.3 55.222 L
480.688 55.798 L
481.075 72.68 L
481.462 73.072 L
481.85 46.604 L
482.237 68.581 L
482.625 50.742 L
483.013 77.059 L
483.4 62.763 L
483.788 80.27 L
484.175 127.98 L
484.563 57.078 L
484.95 69.833 L
485.337 73.072 L
485.725 84.065 L
486.112 55.222 L
486.5 60.625 L
486.888 68.581 L
487.275 94.185 L
487.663 69.833 L
488.05 90.706 L
488.438 70.843 L
488.825 74.306 L
489.212 105.317 L
489.6 57.078 L
489.987 56.415 L
490.375 86.234 L
490.763 91.256 L
491.15 45.293 L
491.538 97.459 L
491.925 64.89 L
492.313 74.306 L
492.7 72.68 L
493.087 61.294 L
493.475 57.791 L
493.862 51.048 L
494.25 54.684 L
494.638 52.063 L
495.025 43.533 L
495.413 91.256 L
495.8 86.234 L
496.188 76.095 L
496.575 74.306 L
496.962 64.89 L
497.35 44.488 L
497.737 57.31 L
498.125 53.258 L
498.513 57.078 L
498.9 63.571 L
499.288 38.524 L
499.675 75.631 L
500.063 84.065 L
500.45 110.088 L
500.837 38.524 L
501.225 77.059 L
501.612 56.415 L
502 97.459 L
502.388 50.742 L
502.775 70.843 L
503.163 55.999 L
503.55 78.073 L
503.938 77.059 L
504.325 72.68 L
504.712 55.798 L
505.1 59.397 L
505.487 63.571 L
505.875 44.216 L
506.263 67.15 L
506.65 54.179 L
507.038 63.571 L
507.425 60.625 L
507.813 55.798 L
508.2 60.304 L
508.587 91.256 L
508.975 55.798 L
509.362 58.562 L
509.75 53.258 L
510.138 65.361 L
510.525 62.763 L
510.913 91.256 L
511.3 76.095 L
511.688 76.095 L
512.075 91.256 L
512.463 61.294 L
512.85 51.048 L
513.237 84.065 L
513.625 98.161 L
514.013 55.222 L
514.4 59.397 L
514.787 88.619 L
515.175 45.891 L
515.563 110.088 L
515.95 86.234 L
516.338 68.885 L
516.725 57.791 L
517.112 49.909 L
517.5 64.435 L
517.888 55.798 L
518.275 45.481 L
518.662 64.435 L
519.05 60.625 L
519.438 50.451 L
519.825 122.016 L
520.213 84.065 L
520.6 57.078 L
520.987 52.837 L
521.375 58.833 L
521.763 53.258 L
522.15 67.425 L
522.537 104.439 L
522.925 53.258 L
523.313 66.355 L
523.7 62.763 L
524.088 50.742 L
524.475 75.631 L
524.862 77.059 L
525.25 62.763 L
525.638 90.706 L
526.025 80.27 L
526.412 70.843 L
526.8 54.179 L
527.188 52.837 L
527.575 53.258 L
527.963 53.258 L
528.35 74.306 L
528.737 69.833 L
529.125 75.631 L
529.513 68.885 L
529.9 66.355 L
530.287 48.96 L
530.675 55.222 L
531.063 61.294 L
531.45 78.6 L
531.838 52.063 L
532.225 50.742 L
532.612 44.488 L
533 55.222 L
533.388 64.435 L
533.775 82.725 L
534.162 59.993 L
534.55 64.435 L
534.938 80.27 L
535.325 105.317 L
535.713 98.161 L
536.1 50.451 L
536.487 154.128 L
536.875 90.706 L
537.263 68.581 L
537.65 81.709 L
538.037 38.524 L
538.425 84.065 L
538.813 55.999 L
539.2 65.361 L
539.588 78.073 L
539.975 55.602 L
540.362 62.379 L
540.75 80.27 L
541.138 38.524 L
541.525 52.837 L
541.912 44.488 L
542.3 52.063 L
542.688 51.707 L
543.075 44.09 L
543.463 71.921 L
543.85 57.31 L
544.237 57.31 L
544.625 50.742 L
545.013 84.908 L
545.4 58.298 L
545.787 46.001 L
546.175 61.294 L
546.563 38.524 L
546.95 62.006 L
547.338 63.571 L
547.725 85.488 L
548.112 75.631 L
548.5 54.179 L
548.888 44.488 L
549.275 63.571 L
549.662 60.625 L
550.05 51.369 L
550.438 50.742 L
550.825 48.96 L
551.213 52.063 L
551.6 58.298 L
551.987 65.602 L
552.375 86.234 L
552.763 73.072 L
553.15 53.258 L
553.537 55.602 L
553.925 50.451 L
554.313 69.833 L
554.7 91.256 L
555.088 62.006 L
555.475 57.791 L
555.862 53.859 L
556.25 66.355 L
556.638 50.742 L
557.025 51.707 L
557.412 83.252 L
557.8 61.294 L
558.188 59.993 L
558.575 59.397 L
558.963 62.961 L
559.35 49.909 L
559.737 62.006 L
560.125 38.524 L
560.513 57.078 L
560.9 55.222 L
561.287 49.414 L
561.675 66.355 L
562.063 86.234 L
562.45 62.006 L
562.838 44.633 L
563.225 56.851 L
563.612 55.798 L
564 53.258 L
564.388 80.27 L
564.775 51.707 L
565.162 66.355 L
565.55 80.27 L
565.938 57.078 L
566.325 51.707 L
566.713 64.435 L
567.1 52.439 L
567.487 51.707 L
567.875 45.891 L
568.263 61.294 L
568.65 38.524 L
569.037 62.763 L
569.425 43.742 L
569.813 77.059 L
570.2 59.397 L
570.588 59.397 L
570.975 66.355 L
571.362 60.625 L
571.75 66.355 L
572.138 50.451 L
572.525 86.234 L
572.912 49.909 L
573.3 38.524 L
573.688 38.524 L
574.075 45.68 L
574.463 84.065 L
574.85 44.786 L
575.237 66.355 L
575.625 88.619 L
576.013 55.999 L
576.4 68.885 L
576.787 52.063 L
577.175 54.859 L
577.563 65.361 L
577.95 59.993 L
578.338 61.294 L
578.725 44.633 L
579.112 68.581 L
579.5 57.31 L
579.888 53.704 L
580.275 78.923 L
580.662 60.625 L
581.05 55.798 L
581.438 62.763 L
581.825 47.469 L
582.213 66.355 L
582.6 48.747 L
582.987 62.763 L
583.375 60.625 L
583.763 49.414 L
584.15 59.993 L
584.537 38.524 L
584.925 73.072 L
585.313 58.833 L
585.7 43.435 L
586.088 76.095 L
586.475 74.306 L
586.862 52.974 L
587.25 65.361 L
587.638 61.294 L
588.025 57.791 L
588.412 101.143 L
588.8 75.631 L
589.188 59.397 L
589.575 51.048 L
589.963 59.993 L
590.35 43.341 L
590.737 43.742 L
591.125 45.293 L
591.513 45.68 L
591.9 47.632 L
592.287 43.969 L
592.675 71.195 L
593.063 44.786 L
593.45 55.798 L
593.838 68.885 L
594.225 50.742 L
594.612 88.619 L
595 60.625 L
595.388 58.562 L
595.775 49.182 L
596.162 44.946 L
596.55 98.161 L
596.938 48.747 L
597.325 52.439 L
597.713 67.425 L
598.1 49.656 L
598.487 78.6 L
598.875 66.355 L
599.263 58.298 L
599.65 50.742 L
600.037 47.801 L
600.425 73.072 L
600.813 42.918 L
601.2 51.048 L
601.588 68.885 L
601.975 63.571 L
602.362 97.459 L
602.75 49.414 L
603.138 52.439 L
603.525 54.684 L
603.912 55.798 L
604.3 55.222 L
604.688 67.992 L
605.075 38.524 L
605.463 45.115 L
605.85 44.216 L
606.237 97.459 L
606.625 51.707 L
607.013 50.174 L
607.4 88.619 L
607.787 58.298 L
608.175 59.993 L
608.563 78.6 L
608.95 45.891 L
609.338 56.851 L
609.725 67.425 L
610.112 44.946 L
610.5 45.293 L
610.888 57.791 L
611.275 45.293 L
611.662 50.451 L
612.05 68.581 L
612.438 51.048 L
612.825 59.397 L
613.213 48.96 L
613.6 44.216 L
613.987 54.684 L
614.375 59.993 L
614.763 53.704 L
615.15 43.969 L
615.537 68.581 L
615.925 51.942 L
616.313 63.571 L
616.7 38.524 L
617.088 56.415 L
617.475 50.742 L
617.862 97.459 L
618.25 75.359 L
618.638 53.258 L
619.025 59.397 L
619.412 60.625 L
619.8 43.742 L
620.188 49.414 L
620.575 62.763 L
620.963 62.763 L
621.35 43.25 L
621.737 67.992 L
622.125 53.704 L
622.513 54.859 L
622.9 38.524 L
623.287 50.451 L
623.675 98.161 L
624.063 56.415 L
624.45 61.294 L
624.838 65.361 L
625.225 44.488 L
625.612 56.415 L
626 71.921 L
626.388 48.158 L
626.775 50.451 L
627.162 44.349 L
627.55 43.162 L
627.938 43.341 L
628.325 58.833 L
628.713 38.524 L
629.1 44.488 L
629.487 56.415 L
629.875 50.742 L
630.263 44.216 L
630.65 51.369 L
631.037 46.873 L
631.425 46.604 L
631.813 38.524 L
632.2 51.369 L
632.588 55.798 L
632.975 71.195 L
633.362 58.833 L
633.75 48.96 L
634.138 83.252 L
634.525 43.742 L
634.912 50.451 L
635.3 67.425 L
635.688 51.369 L
636.075 63.571 L
636.463 52.063 L
636.85 43.742 L
637.237 44.488 L
637.625 48.96 L
638.013 54.684 L
638.4 51.369 L
638.787 66.355 L
639.175 64.435 L
639.563 58.298 L
639.95 49.414 L
640.338 44.216 L
640.725 70.843 L
641.112 54.684 L
641.5 38.524 L
641.888 80.27 L
642.275 50.174 L
642.662 44.09 L
643.05 67.992 L
643.438 51.707 L
643.825 57.791 L
644.213 45.115 L
644.6 63.571 L
644.987 48.346 L
645.375 75.631 L
645.763 43.969 L
646.15 59.993 L
646.537 49.414 L
646.925 62.006 L
647.313 45.293 L
647.7 54.179 L
648.088 51.369 L
648.475 62.006 L
648.862 48.96 L
649.25 49.414 L
649.638 77.059 L
650.025 52.837 L
650.412 43.533 L
650.8 49.656 L
651.188 54.512 L
651.575 51.369 L
651.963 48.747 L
652.35 43.969 L
652.737 44.946 L
653.125 51.048 L
653.513 43.969 L
653.9 43.078 L
654.287 67.15 L
654.675 58.298 L
655.063 50.174 L
655.45 38.524 L
655.838 51.707 L
656.225 52.439 L
656.612 51.048 L
657 45.293 L
657.388 43.969 L
657.775 58.833 L
658.162 58.298 L
658.55 52.063 L
658.938 38.524 L
659.325 48.158 L
659.713 49.182 L
660.1 43.742 L
660.487 43.162 L
660.875 38.524 L
661.263 38.524 L
661.65 50.451 L
662.037 57.31 L
662.425 50.174 L
662.813 54.179 L
663.2 44.09 L
663.588 38.524 L
663.975 49.182 L
664.362 38.524 L
664.75 43.25 L
665.138 55.798 L
665.525 43.853 L
665.912 62.763 L
666.3 44.216 L
666.688 65.361 L
667.075 46.351 L
667.463 57.31 L
667.85 45.481 L
668.237 46.351 L
668.625 54.684 L
669.013 58.833 L
669.4 42.319 L
669.787 48.543 L
670.175 38.524 L
670.563 48.346 L
670.95 49.182 L
671.338 65.361 L
671.725 45.481 L
672.112 38.524 L
672.5 47.976 L
672.888 43.636 L
673.275 49.182 L
673.662 48.96 L
674.05 61.294 L
674.438 43.25 L
674.825 43.533 L
675.213 43.969 L
675.6 38.524 L
675.987 38.524 L
676.375 50.742 L
676.763 38.524 L
677.15 42.997 L
677.537 38.524 L
677.925 53.704 L
678.313 50.174 L
678.7 48.543 L
679.088 43.742 L
679.475 43.341 L
679.862 58.833 L
680.25 38.524 L
680.638 44.633 L
681.025 49.414 L
681.412 43.969 L
681.8 38.524 L
682.188 43.533 L
682.575 46.873 L
682.963 38.524 L
683.35 38.524 L
683.737 51.707 L
684.125 43.969 L
684.513 56.851 L
684.9 42.769 L
685.287 52.837 L
685.675 52.063 L
686.063 48.158 L
686.45 42.918 L
686.838 74.306 L
687.225 43.435 L
687.612 48.346 L
688 44.09 L
688.388 42.564 L
688.775 45.68 L
689.162 42.5 L
689.55 86.692 L
689.938 62.006 L
690.325 42.438 L
690.713 44.216 L
691.1 38.524 L
691.487 48.96 L
691.875 44.349 L
692.263 62.961 L
692.65 50.451 L
693.037 38.524 L
693.425 38.524 L
693.813 44.216 L
694.2 56.415 L
694.588 55.222 L
694.975 59.397 L
695.362 50.451 L
695.75 54.179 L
696.138 48.96 L
696.525 43.533 L
696.912 46.114 L
697.3 42.564 L
697.688 44.09 L
698.075 43.969 L
698.463 38.524 L
698.85 42.438 L
699.237 50.451 L
699.625 43.969 L
700.013 55.602 L
700.4 38.524 L
700.787 43.969 L
701.175 38.524 L
701.563 56.851 L
701.95 50.742 L
702.338 57.791 L
702.725 49.182 L
703.112 44.216 L
703.5 70.843 L
703.888 51.048 L
704.275 53.552 L
704.662 59.397 L
705.05 52.837 L
705.438 42.997 L
705.825 43.969 L
706.213 54.684 L
706.6 50.451 L
706.987 50.742 L
707.375 38.524 L
707.763 44.488 L
708.15 38.524 L
708.537 44.488 L
708.925 38.524 L
709.313 44.216 L
709.7 91.256 L
710.088 58.833 L
710.475 44.633 L
710.862 53.859 L
711.25 48.747 L
711.638 138.714 L
712.025 117.622 L
712.412 132.452 L
712.8 163.762 L
713.188 148.107 L
713.575 117.622 L
713.963 110.088 L
714.35 106.836 L
714.737 117.622 L
715.125 117.622 L
715.513 122.016 L
715.9 98.638 L
716.287 138.714 L
716.675 83.252 L
717.063 101.143 L
717.45 98.638 L
717.838 154.128 L
718.225 122.016 L
718.612 138.714 L
719 175.147 L
719.388 98.638 L
719.775 132.452 L
720.162 113.667 L
720.55 77.661 L
720.938 106.836 L
721.325 113.667 L
721.713 83.252 L
722.1 94.185 L
722.487 86.692 L
722.875 92.197 L
723.263 101.143 L
723.65 104.439 L
724.037 101.143 L
724.425 184.635 L
724.813 103.865 L
725.2 145.871 L
725.588 94.185 L
725.975 117.622 L
726.362 101.143 L
726.75 85.488 L
727.138 84.065 L
727.525 67.15 L
727.912 113.667 L
728.3 111.579 L
728.688 132.452 L
729.075 101.143 L
729.463 113.667 L
729.85 86.692 L
730.237 83.252 L
730.625 101.143 L
731.013 87.003 L
731.4 145.871 L
731.787 138.714 L
732.175 63.08 L
732.563 88.619 L
732.95 78.923 L
733.338 98.638 L
733.725 103.865 L
734.112 126.927 L
734.5 138.714 L
734.888 106.836 L
735.275 113.667 L
735.662 81.463 L
736.05 110.088 L
736.438 81.709 L
736.825 110.088 L
737.213 84.065 L
737.6 117.622 L
737.987 126.927 L
738.375 84.065 L
738.763 132.452 L
739.15 88.619 L
739.537 145.871 L
739.925 130.805 L
740.313 90.706 L
740.7 92.197 L
741.088 101.143 L
741.475 94.185 L
741.862 88.619 L
742.25 110.088 L
742.638 122.016 L
743.025 88.619 L
743.412 87.003 L
743.8 110.088 L
744.188 90.706 L
744.575 110.088 L
744.963 163.762 L
745.35 113.667 L
745.737 108.101 L
746.125 87.003 L
746.513 96.326 L
746.9 188.81 L
747.287 94.185 L
747.675 98.638 L
748.063 96.326 L
748.45 110.088 L
748.838 98.638 L
749.225 78.923 L
749.612 94.185 L
750 98.638 L
750.388 175.147 L
750.775 98.638 L
751.162 184.635 L
751.55 126.927 L
751.938 98.161 L
752.325 87.003 L
752.713 103.865 L
753.1 110.088 L
753.487 90.346 L
753.875 145.871 L
754.263 90.346 L
754.65 106.836 L
755.037 163.762 L
755.425 132.452 L
755.813 98.638 L
756.2 101.143 L
756.588 132.452 L
756.975 85.488 L
757.362 117.622 L
757.75 78.923 L
758.138 90.346 L
758.525 117.622 L
758.912 62.961 L
759.3 106.836 L
759.688 197.918 L
760.075 110.088 L
760.463 77.661 L
760.85 138.714 L
761.237 106.836 L
761.625 163.762 L
762.013 138.714 L
762.4 154.128 L
762.787 135.931 L
763.175 106.836 L
763.563 92.975 L
763.95 184.635 L
764.338 126.927 L
764.725 122.016 L
765.112 175.147 L
765.5 110.088 L
765.888 98.638 L
766.275 145.871 L
766.662 141.661 L
767.05 96.326 L
767.438 110.088 L
767.825 110.088 L
768.213 122.016 L
768.6 90.346 L
768.987 83.252 L
769.375 103.865 L
769.763 83.252 L
770.15 106.836 L
770.537 117.622 L
770.925 80.27 L
771.313 126.927 L
771.7 113.667 L
772.088 113.667 L
772.475 110.088 L
772.862 81.709 L
773.25 113.667 L
773.638 163.762 L
774.025 76.475 L
774.412 101.143 L
774.8 94.185 L
775.188 132.452 L
775.575 117.622 L
775.963 132.452 L
776.35 81.709 L
776.737 81.463 L
777.125 122.016 L
777.513 106.836 L
777.9 117.622 L
778.287 117.622 L
778.675 106.836 L
779.063 117.622 L
779.45 90.706 L
779.838 130.805 L
780.225 145.871 L
780.612 113.667 L
781 88.619 L
781.388 87.003 L
781.775 113.667 L
782.162 81.709 L
782.55 88.619 L
782.938 122.016 L
783.325 98.638 L
783.713 117.622 L
784.1 103.865 L
784.487 98.638 L
784.875 132.452 L
785.263 117.622 L
785.65 154.128 L
786.037 145.871 L
786.425 126.19 L
786.813 113.667 L
787.2 110.088 L
787.588 80.27 L
787.975 106.836 L
788.362 113.667 L
788.75 113.667 L
789.138 90.706 L
789.525 88.619 L
789.912 71.481 L
790.3 145.871 L
790.688 88.619 L
791.075 163.762 L
791.463 154.128 L
791.85 126.19 L
792.237 98.161 L
792.625 163.762 L
793.013 103.865 L
793.4 145.871 L
793.787 98.638 L
794.175 154.128 L
794.563 132.452 L
794.95 103.865 L
795.338 90.706 L
795.725 106.836 L
796.112 126.19 L
796.5 78.923 L
796.888 110.088 L
797.275 138.714 L
797.662 103.865 L
798.05 110.088 L
798.438 113.667 L
798.825 113.667 L
799.213 90.346 L
799.6 138.714 L
799.987 110.088 L
800.375 85.488 L
800.763 117.622 L
801.15 78.923 L
801.537 101.143 L
801.925 138.714 L
802.313 138.714 L
802.7 86.692 L
803.088 101.143 L
803.475 96.326 L
803.862 213.857 L
804.25 86.692 L
804.638 130.805 L
805.025 88.619 L
805.412 88.619 L
805.8 113.667 L
806.188 96.326 L
806.575 103.865 L
806.963 145.871 L
807.35 103.865 L
807.737 155.413 L
808.125 83.252 L
808.513 141.661 L
808.9 145.871 L
809.287 95.45 L
809.675 88.619 L
810.063 122.016 L
810.45 96.326 L
810.838 75.359 L
811.225 110.088 L
811.612 94.185 L
812 138.714 L
812.388 117.622 L
812.775 103.865 L
813.162 110.088 L
813.55 113.667 L
813.938 80.27 L
814.325 98.161 L
814.713 84.065 L
815.1 138.714 L
815.487 126.927 L
815.875 106.836 L
816.263 87.003 L
816.65 154.128 L
817.037 141.661 L
817.425 92.975 L
817.813 108.657 L
818.2 110.088 L
818.588 98.638 L
818.975 92.975 L
819.362 87.003 L
819.75 85.488 L
820.138 106.836 L
820.525 117.622 L
820.912 188.81 L
821.3 103.865 L
821.688 87.003 L
822.075 126.927 L
822.463 188.81 L
822.85 85.488 L
823.237 117.622 L
823.625 154.128 L
824.013 145.871 L
824.4 90.346 L
824.787 94.185 L
825.175 101.143 L
825.563 95.45 L
825.95 94.185 L
826.338 87.003 L
826.725 113.667 L
827.112 145.871 L
827.5 88.619 L
827.888 101.143 L
828.275 108.657 L
828.662 122.016 L
829.05 122.016 L
829.438 126.927 L
829.825 175.147 L
830.213 81.463 L
830.6 205.508 L
830.987 184.635 L
831.375 145.871 L
831.763 83.252 L
832.15 126.927 L
832.537 154.128 L
832.925 130.805 L
833.313 117.622 L
833.7 117.622 L
834.088 154.128 L
834.475 110.088 L
834.862 117.622 L
835.25 122.016 L
835.638 138.714 L
836.025 90.706 L
836.412 71.481 L
836.8 122.016 L
837.188 163.762 L
837.575 126.927 L
837.963 122.016 L
838.35 148.107 L
838.737 145.871 L
839.125 106.836 L
839.513 83.252 L
839.9 141.661 L
840.287 83.252 L
840.675 98.638 L
841.063 79.142 L
841.45 106.836 L
841.838 78.923 L
842.225 90.346 L
842.612 110.088 L
843 117.622 L
843.388 69.833 L
843.775 106.836 L
844.162 83.252 L
844.55 88.619 L
844.938 113.667 L
845.325 117.622 L
845.713 132.452 L
846.1 113.667 L
846.487 77.661 L
846.875 103.865 L
847.263 113.667 L
847.65 113.667 L
848.037 110.088 L
848.425 141.661 L
848.813 122.016 L
849.2 138.714 L
849.588 98.638 L
849.975 117.622 L
850.362 110.088 L
850.75 126.927 L
851.138 132.452 L
851.525 106.836 L
851.912 163.762 L
852.3 113.667 L
852.688 122.016 L
853.075 113.667 L
853.463 86.692 L
853.85 92.197 L
854.237 85.488 L
854.625 113.667 L
855.013 163.762 L
855.4 113.667 L
855.787 110.088 L
856.175 122.016 L
856.563 101.143 L
856.95 101.143 L
857.338 138.714 L
857.725 85.488 L
858.112 98.638 L
858.5 154.128 L
858.888 80.27 L
859.275 86.692 L
859.662 132.452 L
860.05 77.661 L
860.438 98.638 L
860.825 94.185 L
861.213 95.45 L
861.6 106.836 L
861.987 71.481 L
862.375 80.27 L
862.763 126.927 L
863.15 90.346 L
863.537 84.065 L
863.925 122.016 L
864.313 88.619 L
864.7 85.488 L
865.088 103.865 L
865.475 98.161 L
865.862 111.579 L
866.25 126.927 L
866.638 117.622 L
867.025 103.865 L
867.412 90.346 L
867.8 101.143 L
868.188 163.762 L
868.575 122.016 L
868.963 92.197 L
869.35 98.638 L
869.737 98.638 L
870.125 73.312 L
870.513 113.667 L
870.9 103.865 L
871.287 92.975 L
871.675 84.065 L
872.063 76.475 L
872.45 82.725 L
872.838 101.143 L
873.225 92.197 L
873.612 67.649 L
874 101.143 L
874.388 77.661 L
874.775 95.45 L
875.162 163.762 L
875.55 106.836 L
875.938 145.871 L
876.325 101.143 L
876.713 132.452 L
877.1 87.003 L
877.487 88.619 L
877.875 103.865 L
878.263 84.065 L
878.65 81.709 L
879.037 94.185 L
879.425 132.452 L
879.813 66.987 L
880.2 110.088 L
880.588 113.667 L
880.975 98.638 L
881.362 76.475 L
881.75 122.016 L
882.138 106.836 L
882.525 103.865 L
882.912 73.312 L
883.3 76.475 L
883.688 117.622 L
884.075 74.306 L
884.463 78.923 L
884.85 122.016 L
885.237 73.312 L
885.625 113.667 L
886.013 98.638 L
886.4 101.143 L
886.787 88.619 L
887.175 90.706 L
887.563 141.661 L
887.95 80.27 L
888.338 110.088 L
888.725 81.463 L
889.112 98.638 L
889.5 86.692 L
889.888 87.003 L
890.275 80.27 L
890.662 64.083 L
891.05 154.128 L
891.438 84.065 L
891.825 69.833 L
892.213 96.326 L
892.6 122.016 L
892.987 98.638 L
893.375 154.128 L
893.763 148.107 L
894.15 96.326 L
894.537 103.865 L
894.925 86.692 L
895.313 69.833 L
895.7 106.836 L
896.088 184.635 L
896.475 74.306 L
896.862 90.346 L
897.25 113.667 L
897.638 86.692 L
898.025 92.197 L
898.412 132.452 L
898.8 132.452 L
899.188 87.003 L
899.575 83.252 L
899.963 122.016 L
900.35 84.908 L
900.737 87.003 L
901.125 98.638 L
901.513 88.619 L
901.9 94.185 L
902.287 90.706 L
902.675 92.197 L
903.063 103.865 L
903.45 138.714 L
903.838 163.762 L
904.225 98.161 L
904.612 126.19 L
905 117.622 L
S
GR
GS
1 0 0 RC
1 LJ
0.5 LW
N
169.525 156.611 M
169.913 156.519 L
170.3 153.681 L
170.688 152.851 L
171.075 151.425 L
171.462 152.833 L
171.85 151.218 L
172.238 148.887 L
172.625 147.852 L
173.012 149.022 L
173.4 150.922 L
173.788 151.269 L
174.175 151.298 L
174.563 149.54 L
174.95 149.655 L
175.337 148.824 L
175.725 150.174 L
176.113 149.166 L
176.5 149.239 L
176.887 147.971 L
177.275 148.995 L
177.663 149.067 L
178.05 150.491 L
178.438 151.273 L
178.825 151.245 L
179.212 151.301 L
179.6 149.228 L
179.988 148.001 L
180.375 145.954 L
180.762 143.53 L
181.15 142.829 L
181.538 143.443 L
181.925 143.661 L
182.313 145.516 L
182.7 144.713 L
183.087 143.154 L
183.475 142.311 L
183.863 144.105 L
184.25 145.802 L
184.637 145.03 L
185.025 144.787 L
185.413 145.203 L
185.8 145.476 L
186.188 148.282 L
186.575 148.692 L
186.962 148.112 L
187.35 148.603 L
187.738 150.501 L
188.125 150.992 L
188.512 150.992 L
188.9 151.215 L
189.288 151.291 L
189.675 151.071 L
190.063 152.101 L
190.45 152.547 L
190.837 153.033 L
191.225 151.367 L
191.613 151.191 L
192 152.379 L
192.387 154.18 L
192.775 153.465 L
193.163 151.594 L
193.55 151.594 L
193.938 150.835 L
194.325 152.235 L
194.712 151.308 L
195.1 151.638 L
195.488 151.093 L
195.875 150.736 L
196.262 151.45 L
196.65 151.801 L
197.038 151.41 L
197.425 152.124 L
197.813 150.253 L
198.2 149.196 L
198.587 149.059 L
198.975 148.578 L
199.363 150.255 L
199.75 149.743 L
200.137 149.743 L
200.525 149.113 L
200.913 149.144 L
201.3 146.85 L
201.688 145.307 L
202.075 143.754 L
202.462 145.45 L
202.85 145.904 L
203.238 146.797 L
203.625 144.341 L
204.012 142.89 L
204.4 140.762 L
204.788 140.762 L
205.175 141.105 L
205.563 139.516 L
205.95 137.762 L
206.337 136.534 L
206.725 137.68 L
207.113 136.589 L
207.5 133.826 L
207.887 132.072 L
208.275 132.251 L
208.663 129.999 L
209.05 129.999 L
209.438 129.59 L
209.825 128.786 L
210.212 127.489 L
210.6 126.582 L
210.988 125.998 L
211.375 126.91 L
211.762 125.489 L
212.15 123.033 L
212.538 122.312 L
212.925 121.084 L
213.313 119.856 L
213.7 119.611 L
214.087 119.233 L
214.475 119.027 L
214.863 118.939 L
215.25 116.657 L
215.637 116.541 L
216.025 114.112 L
216.413 114.975 L
216.8 113.933 L
217.188 111.576 L
217.575 110.348 L
217.962 109.441 L
218.35 109.032 L
218.738 107.655 L
219.125 105.979 L
219.512 105.22 L
219.9 105.527 L
220.288 106.418 L
220.675 106.864 L
221.063 106.907 L
221.45 107.771 L
221.837 107.258 L
222.225 105.281 L
222.613 104.953 L
223 104.475 L
223.387 105.001 L
223.775 105.411 L
224.163 105.887 L
224.55 104.803 L
224.938 103.389 L
225.325 103.925 L
225.712 102.391 L
226.1 103.052 L
226.488 101.174 L
226.875 101.038 L
227.262 100.757 L
227.65 100.991 L
228.038 99.947 L
228.425 100.654 L
228.813 100.654 L
229.2 99.508 L
229.587 99.508 L
229.975 100.209 L
230.363 100.537 L
230.75 102.174 L
231.137 101.654 L
231.525 102.589 L
231.913 102.706 L
232.3 102.351 L
232.688 102.76 L
233.075 102.234 L
233.462 102.04 L
233.85 101.461 L
234.238 101.419 L
234.625 100.366 L
235.012 101.284 L
235.4 102.171 L
235.788 102.171 L
236.175 102.36 L
236.563 101.59 L
236.95 103.047 L
237.337 103.573 L
237.725 103.819 L
238.113 103.075 L
238.5 103.519 L
238.887 103.204 L
239.275 102.954 L
239.663 102.575 L
240.05 101.266 L
240.438 101.762 L
240.825 101.216 L
241.212 101.628 L
241.6 100.693 L
241.988 101.956 L
242.375 101.02 L
242.762 100.422 L
243.15 99.701 L
243.538 100.52 L
243.925 100.371 L
244.313 101.172 L
244.7 101.581 L
245.087 100.611 L
245.475 100.257 L
245.863 99.46 L
246.25 99.583 L
246.637 99.057 L
247.025 99.031 L
247.413 98.832 L
247.8 99.002 L
248.188 99.161 L
248.575 97.606 L
248.962 98.097 L
249.35 99.794 L
249.738 98.884 L
250.125 99.841 L
250.512 98.056 L
250.9 98.397 L
251.288 98.358 L
251.675 97.869 L
252.063 97.011 L
252.45 97.128 L
252.837 97.56 L
253.225 97.929 L
253.613 97.165 L
254 97.828 L
254.387 97.559 L
254.775 97.177 L
255.163 96.316 L
255.55 97.436 L
255.938 95.799 L
256.325 95.424 L
256.712 93.944 L
257.1 93.325 L
257.487 92.461 L
257.875 91.946 L
258.263 92.013 L
258.65 92.259 L
259.038 92.625 L
259.425 91.834 L
259.813 92.079 L
260.2 89.917 L
260.587 91.691 L
260.975 90.128 L
261.362 90.401 L
261.75 89.222 L
262.138 89.339 L
262.525 88.885 L
262.913 89.079 L
263.3 87.091 L
263.688 86.682 L
264.075 86.39 L
264.462 86.196 L
264.85 86.896 L
265.237 87.61 L
265.625 87.44 L
266.013 87.631 L
266.4 87.519 L
266.788 87.519 L
267.175 87.416 L
267.563 86.8 L
267.95 86.177 L
268.337 85.768 L
268.725 85.64 L
269.112 85.64 L
269.5 85.731 L
269.888 83.802 L
270.275 84.472 L
270.663 84.051 L
271.05 83.414 L
271.438 83.669 L
271.825 84.264 L
272.212 84.773 L
272.6 84.458 L
272.987 83.909 L
273.375 84.519 L
273.763 83.935 L
274.15 84.238 L
274.538 84.425 L
274.925 84.453 L
275.313 83.517 L
275.7 83.681 L
276.087 83.517 L
276.475 83.985 L
276.862 84.65 L
277.25 85.731 L
277.638 86.207 L
278.025 86.062 L
278.413 86.307 L
278.8 86.092 L
279.188 85.951 L
279.575 85.951 L
279.962 86.32 L
280.35 85.092 L
280.737 84.565 L
281.125 83.883 L
281.513 84.033 L
281.9 85.103 L
282.288 85.493 L
282.675 85.435 L
283.063 85.86 L
283.45 85.123 L
283.837 84.696 L
284.225 85.026 L
284.612 84.507 L
285 83.686 L
285.388 83.584 L
285.775 83.758 L
286.163 84.023 L
286.55 84.854 L
286.938 85.074 L
287.325 84.795 L
287.712 84.721 L
288.1 85.028 L
288.487 84.601 L
288.875 82.677 L
289.263 82.334 L
289.65 82.487 L
290.038 81.594 L
290.425 80.72 L
290.813 80.811 L
291.2 81.226 L
291.587 80.672 L
291.975 81.274 L
292.362 81.069 L
292.75 80.449 L
293.138 80.657 L
293.525 80.014 L
293.913 79.891 L
294.3 78.981 L
294.688 78.914 L
295.075 79.368 L
295.462 78.853 L
295.85 80.061 L
296.237 79.535 L
296.625 79.061 L
297.013 78.205 L
297.4 77.827 L
297.788 77.248 L
298.175 77.384 L
298.563 77.492 L
298.95 78.088 L
299.337 77.287 L
299.725 76.898 L
300.112 77.235 L
300.5 77.191 L
300.888 77.951 L
301.275 77.801 L
301.663 76.479 L
302.05 76.323 L
302.438 75.434 L
302.825 74.7 L
303.212 75.191 L
303.6 75.385 L
303.987 75.19 L
304.375 74.849 L
304.763 74.64 L
305.15 74.549 L
305.538 73.949 L
305.925 73.684 L
306.313 72.715 L
306.7 73.225 L
307.087 73.407 L
307.475 73.903 L
307.862 74.023 L
308.25 74.297 L
308.638 74.087 L
309.025 74.646 L
309.413 74.564 L
309.8 74.578 L
310.188 74.475 L
310.575 74.326 L
310.962 74.103 L
311.35 75.074 L
311.737 73.846 L
312.125 74.284 L
312.513 75.892 L
312.9 75.304 L
313.288 75.224 L
313.675 74.961 L
314.063 75.228 L
314.45 74.725 L
314.837 74.355 L
315.225 74.706 L
315.612 73.957 L
316 74.483 L
316.388 75.612 L
316.775 75.159 L
317.163 75.13 L
317.55 75.512 L
317.938 74.639 L
318.325 74.628 L
318.712 74.399 L
319.1 74.534 L
319.487 74.352 L
319.875 73.81 L
320.263 73.966 L
320.65 73.386 L
321.038 73.467 L
321.425 73.883 L
321.813 74.24 L
322.2 74.128 L
322.587 75.061 L
322.975 75.015 L
323.362 76.545 L
323.75 76.297 L
324.138 76.433 L
324.525 76.378 L
324.913 76.878 L
325.3 76.857 L
325.688 77.122 L
326.075 77.582 L
326.462 77.662 L
326.85 78.512 L
327.237 77.947 L
327.625 78.109 L
328.013 78.262 L
328.4 78.163 L
328.788 78.022 L
329.175 77.836 L
329.563 77.572 L
329.95 77.911 L
330.337 77.943 L
330.725 77.577 L
331.112 77.249 L
331.5 76.808 L
331.888 76.984 L
332.275 75.296 L
332.663 76.157 L
333.05 76.693 L
333.438 77.278 L
333.825 77.644 L
334.212 78.521 L
334.6 78.671 L
334.987 78.442 L
335.375 78.638 L
335.763 78.696 L
336.15 77.422 L
336.538 77.927 L
336.925 78.208 L
337.313 79.074 L
337.7 80.22 L
338.087 80.889 L
338.475 80.889 L
338.862 81.048 L
339.25 81.325 L
339.638 81.186 L
340.025 81.154 L
340.413 80.817 L
340.8 80.371 L
341.188 80.125 L
341.575 79.7 L
341.962 80.423 L
342.35 79.649 L
342.737 80.35 L
343.125 78.564 L
343.513 78.345 L
343.9 78.525 L
344.288 79.25 L
344.675 78.4 L
345.063 78.362 L
345.45 77.918 L
345.837 77.321 L
346.225 76.157 L
346.612 76.975 L
347 76.777 L
347.388 77.279 L
347.775 76.752 L
348.163 77.373 L
348.55 77.121 L
348.938 77.29 L
349.325 77.948 L
349.712 78.255 L
350.1 78.255 L
350.487 78.236 L
350.875 77.895 L
351.263 77.944 L
351.65 78.08 L
352.038 79.33 L
352.425 78.114 L
352.813 77.578 L
353.2 78.046 L
353.587 78.007 L
353.975 77.633 L
354.362 78.233 L
354.75 78.21 L
355.138 78.456 L
355.525 77.96 L
355.913 78.765 L
356.3 79.258 L
356.688 79.466 L
357.075 78.797 L
357.462 78.194 L
357.85 77.486 L
358.237 77.413 L
358.625 78.302 L
359.013 78.448 L
359.4 79.282 L
359.788 80.366 L
360.175 80.981 L
360.563 81.87 L
360.95 82.426 L
361.337 81.923 L
361.725 81.644 L
362.112 83.081 L
362.5 81.837 L
362.888 82.118 L
363.275 82.398 L
363.663 82.628 L
364.05 82.862 L
364.438 83.303 L
364.825 84.429 L
365.212 84.178 L
365.6 84.658 L
365.987 84.923 L
366.375 83.743 L
366.763 84.152 L
367.15 83.762 L
367.538 84.663 L
367.925 84.577 L
368.313 84.96 L
368.7 85.421 L
369.087 85.028 L
369.475 84.485 L
369.862 85.537 L
370.25 85.805 L
370.638 85.453 L
371.025 86.812 L
371.413 85.993 L
371.8 85.954 L
372.188 86.586 L
372.575 87.449 L
372.962 86.318 L
373.35 85.972 L
373.737 85.855 L
374.125 86.776 L
374.513 86.937 L
374.9 86.411 L
375.288 86.517 L
375.675 85.815 L
376.063 85.409 L
376.45 85.063 L
376.837 84.639 L
377.225 83.605 L
377.612 83.687 L
378 83.839 L
378.388 83.703 L
378.775 83.05 L
379.163 82.594 L
379.55 81.08 L
379.938 81.106 L
380.325 80.732 L
380.712 79.778 L
381.1 80.19 L
381.487 80.558 L
381.875 79.35 L
382.263 79.743 L
382.65 79.656 L
383.038 79.79 L
383.425 79.176 L
383.813 78.408 L
384.2 78.365 L
384.587 76.999 L
384.975 77.482 L
385.362 77.209 L
385.75 77.973 L
386.138 78.262 L
386.525 78.616 L
386.913 78.481 L
387.3 77.894 L
387.688 78.204 L
388.075 77.628 L
388.462 77.549 L
388.85 77.089 L
389.237 77.753 L
389.625 77.534 L
390.013 79.214 L
390.4 79.539 L
390.788 79.198 L
391.175 79.634 L
391.563 80.003 L
391.95 79.769 L
392.337 78.798 L
392.725 79.617 L
393.112 79.749 L
393.5 79.682 L
393.888 77.841 L
394.275 77.967 L
394.663 77.733 L
395.05 77.85 L
395.438 77.746 L
395.825 77.653 L
396.212 78.373 L
396.6 78.262 L
396.987 78.625 L
397.375 78.625 L
397.763 78.179 L
398.15 77.442 L
398.538 77.538 L
398.925 76.981 L
399.313 76.906 L
399.7 76.89 L
400.087 77.022 L
400.475 77.911 L
400.862 77.486 L
401.25 77.03 L
401.638 77.378 L
402.025 77.261 L
402.413 76.972 L
402.8 77.148 L
403.188 77.621 L
403.575 77.779 L
403.962 78.367 L
404.35 78.479 L
404.737 78.82 L
405.125 79.567 L
405.513 79.31 L
405.9 78.856 L
406.288 79.299 L
406.675 79.96 L
407.063 79.713 L
407.45 80.057 L
407.837 80.02 L
408.225 80.4 L
408.612 80.717 L
409 80.128 L
409.388 79.003 L
409.775 77.366 L
410.163 77.421 L
410.55 76.485 L
410.938 76.069 L
411.325 75.229 L
411.712 75.638 L
412.1 77.033 L
412.487 76.305 L
412.875 76.074 L
413.263 76.074 L
413.65 76.483 L
414.038 76.022 L
414.425 76.588 L
414.813 76.147 L
415.2 76.539 L
415.587 77.061 L
415.975 76.57 L
416.362 76.554 L
416.75 76.845 L
417.138 76.572 L
417.525 76.989 L
417.913 76.805 L
418.3 77.004 L
418.688 77.434 L
419.075 77.925 L
419.462 77.321 L
419.85 76.744 L
420.237 76.042 L
420.625 76.393 L
421.013 76.456 L
421.4 76.339 L
421.788 76.103 L
422.175 76.392 L
422.563 75.667 L
422.95 75.464 L
423.337 75.655 L
423.725 76.077 L
424.112 76.451 L
424.5 75.847 L
424.888 74.882 L
425.275 74.396 L
425.663 75.098 L
426.05 73.776 L
426.438 72.958 L
426.825 73.34 L
427.212 72.431 L
427.6 72.245 L
427.987 71.826 L
428.375 72.328 L
428.763 71.984 L
429.15 72.216 L
429.538 71.986 L
429.925 71.986 L
430.313 71.954 L
430.7 71.78 L
431.087 71.869 L
431.475 71.343 L
431.862 70.592 L
432.25 70.795 L
432.638 71.541 L
433.025 71.512 L
433.413 71.225 L
433.8 71.21 L
434.188 71.244 L
434.575 71.568 L
434.962 71.129 L
435.35 70.301 L
435.737 70.258 L
436.125 70.351 L
436.513 70.452 L
436.9 70.94 L
437.288 70.627 L
437.675 70.91 L
438.063 71.072 L
438.45 70.481 L
438.837 70.272 L
439.225 70.755 L
439.612 70.878 L
440 70.918 L
440.388 70.918 L
440.775 70.627 L
441.163 70.244 L
441.55 70.538 L
441.938 70.653 L
442.325 71.069 L
442.712 70.812 L
443.1 70.426 L
443.487 69.101 L
443.875 68.867 L
444.263 68.796 L
444.65 68.585 L
445.038 68.51 L
445.425 67.973 L
445.813 68.437 L
446.2 68.262 L
446.587 67.92 L
446.975 67.458 L
447.362 67.598 L
447.75 67.15 L
448.138 66.858 L
448.525 66.757 L
448.913 66.257 L
449.3 66.369 L
449.688 65.82 L
450.075 65.573 L
450.462 66.544 L
450.85 66.202 L
451.237 66.027 L
451.625 65.31 L
452.013 65.107 L
452.4 64.653 L
452.788 65.305 L
453.175 65.095 L
453.563 65.044 L
453.95 64.274 L
454.337 64.242 L
454.725 64.434 L
455.112 64.445 L
455.5 64.215 L
455.888 64.325 L
456.275 64.604 L
456.663 63.908 L
457.05 64.127 L
457.438 64.104 L
457.825 64.06 L
458.212 64.267 L
458.6 63.984 L
458.987 63.951 L
459.375 63.617 L
459.763 63.316 L
460.15 62.768 L
460.538 63.048 L
460.925 63.201 L
461.313 64.227 L
461.7 64.454 L
462.087 63.81 L
462.475 64.226 L
462.862 64.308 L
463.25 65.359 L
463.638 65.724 L
464.025 66.709 L
464.413 66.746 L
464.8 67.03 L
465.188 66.939 L
465.575 66.597 L
465.962 66.929 L
466.35 66.835 L
466.737 67.159 L
467.125 67.122 L
467.513 67.184 L
467.9 66.833 L
468.288 66.969 L
468.675 67.094 L
469.063 66.743 L
469.45 67.084 L
469.837 67.641 L
470.225 66.5 L
470.612 66.187 L
471 66 L
471.388 66.404 L
471.775 66.718 L
472.163 66.174 L
472.55 65.471 L
472.938 65.185 L
473.325 65.613 L
473.712 65.79 L
474.1 65.939 L
474.487 67.185 L
474.875 67.21 L
475.263 67.279 L
475.65 67.529 L
476.038 67.388 L
476.425 67.377 L
476.813 67.264 L
477.2 67.287 L
477.587 67.833 L
477.975 68.104 L
478.362 68.963 L
478.75 68.875 L
479.138 69.296 L
479.525 70.34 L
479.913 70.55 L
480.3 70.323 L
480.688 70.713 L
481.075 69.993 L
481.462 69.144 L
481.85 69.96 L
482.237 69.844 L
482.625 70.112 L
483.013 69.27 L
483.4 68.931 L
483.788 68.017 L
484.175 68.109 L
484.563 67.65 L
484.95 67.14 L
485.337 66.903 L
485.725 67.371 L
486.112 67.967 L
486.5 68.115 L
486.888 68.489 L
487.275 68.655 L
487.663 68.597 L
488.05 68.707 L
488.438 68.73 L
488.825 68.743 L
489.212 68.774 L
489.6 67.988 L
489.987 68.492 L
490.375 69.058 L
490.763 70.122 L
491.15 69.453 L
491.538 69.531 L
491.925 69.723 L
492.313 70.289 L
492.7 70.289 L
493.087 70.167 L
493.475 70.035 L
493.862 69.992 L
494.25 68.993 L
494.638 69.299 L
495.025 69.024 L
495.413 68.756 L
495.8 68.354 L
496.188 68.138 L
496.575 68.266 L
496.962 67.984 L
497.35 67.383 L
497.737 67.203 L
498.125 66.518 L
498.513 66.312 L
498.9 66.644 L
499.288 65.673 L
499.675 65.702 L
500.063 65.64 L
500.45 65.231 L
500.837 64.672 L
501.225 65.574 L
501.612 65.155 L
502 65.374 L
502.388 65.707 L
502.775 65.484 L
503.163 65.283 L
503.55 65.798 L
503.938 66.722 L
504.325 66.732 L
504.712 66.876 L
505.1 67.76 L
505.487 66.87 L
505.875 67.338 L
506.263 67.537 L
506.65 67.431 L
507.038 67.292 L
507.425 67.398 L
507.813 67.538 L
508.2 67.587 L
508.587 67.36 L
508.975 67.377 L
509.362 67.81 L
509.75 67.317 L
510.138 68.061 L
510.525 67.55 L
510.913 67.914 L
511.3 67.439 L
511.688 67.487 L
512.075 66.62 L
512.463 66.947 L
512.85 67.606 L
513.237 67.552 L
513.625 67.322 L
514.013 67.042 L
514.4 66.612 L
514.787 67.001 L
515.175 67.347 L
515.563 67.331 L
515.95 68.243 L
516.338 68.5 L
516.725 68.827 L
517.112 68.643 L
517.5 68.49 L
517.888 68.44 L
518.275 68.302 L
518.662 67.97 L
519.05 68.245 L
519.438 68.579 L
519.825 68.886 L
520.213 68.905 L
520.6 68.635 L
520.987 67.928 L
521.375 67.638 L
521.763 67.687 L
522.15 66.919 L
522.537 66.712 L
522.925 66.583 L
523.313 66.018 L
523.7 65.356 L
524.088 65.896 L
524.475 65.907 L
524.862 65.433 L
525.25 66.107 L
525.638 66.014 L
526.025 66.247 L
526.412 65.886 L
526.8 67.775 L
527.188 68.575 L
527.575 68.656 L
527.963 69.164 L
528.35 69.028 L
528.737 69.413 L
529.125 69.322 L
529.513 69.614 L
529.9 68.753 L
530.287 68.195 L
530.675 68.299 L
531.063 68.837 L
531.45 68.438 L
531.838 68.43 L
532.225 67.98 L
532.612 66.953 L
533 66.923 L
533.388 66.486 L
533.775 66.666 L
534.162 66.795 L
534.55 66.435 L
534.938 65.919 L
535.325 66.354 L
535.713 65.718 L
536.1 65.046 L
536.487 64.859 L
536.875 64.552 L
537.263 64.732 L
537.65 64.934 L
538.037 65.566 L
538.425 65.592 L
538.813 65.285 L
539.2 64.674 L
539.588 64.57 L
539.975 64.458 L
540.362 64.505 L
540.75 64.417 L
541.138 64.175 L
541.525 63.655 L
541.912 63.777 L
542.3 64.069 L
542.688 64.887 L
543.075 65.237 L
543.463 65.018 L
543.85 64.486 L
544.237 64.299 L
544.625 64.405 L
545.013 64.62 L
545.4 63.771 L
545.787 62.98 L
546.175 63.046 L
546.563 61.325 L
546.95 60.542 L
547.338 60.211 L
547.725 60.241 L
548.112 60.688 L
548.5 60.216 L
548.888 60.282 L
549.275 60.235 L
549.662 59.683 L
550.05 59.809 L
550.438 59.341 L
550.825 58.886 L
551.213 59.213 L
551.6 59.146 L
551.987 59.575 L
552.375 60.245 L
552.763 60.447 L
553.15 60.458 L
553.537 60.162 L
553.925 60.133 L
554.313 60.053 L
554.7 60.632 L
555.088 59.981 L
555.475 60.139 L
555.862 60.811 L
556.25 60.728 L
556.638 60.987 L
557.025 61.034 L
557.412 60.816 L
557.8 60.154 L
558.188 59.571 L
558.575 59.71 L
558.963 59.593 L
559.35 59.577 L
559.737 59.246 L
560.125 59.75 L
560.513 59.92 L
560.9 60.124 L
561.287 60.405 L
561.675 60.45 L
562.063 60.465 L
562.45 59.763 L
562.838 60.021 L
563.225 59.956 L
563.612 59.621 L
564 59.387 L
564.388 58.913 L
564.775 58.772 L
565.162 58.435 L
565.55 58.603 L
565.938 59.284 L
566.325 59.081 L
566.713 59.437 L
567.1 59.444 L
567.487 58.887 L
567.875 58.967 L
568.263 58.967 L
568.65 59.004 L
569.037 58.645 L
569.425 59.011 L
569.813 58.919 L
570.2 59.217 L
570.588 59.645 L
570.975 59.751 L
571.362 59.876 L
571.75 59.806 L
572.138 59.045 L
572.525 59.131 L
572.912 59.211 L
573.3 59.327 L
573.688 59.422 L
574.075 59.347 L
574.463 58.949 L
574.85 58.691 L
575.237 58.822 L
575.625 58.402 L
576.013 58.134 L
576.4 58.613 L
576.787 58.806 L
577.175 58.817 L
577.563 59.084 L
577.95 59.386 L
578.338 59.318 L
578.725 60.546 L
579.112 60.798 L
579.5 61.105 L
579.888 60.595 L
580.275 60.607 L
580.662 60.292 L
581.05 59.848 L
581.438 59.548 L
581.825 59.142 L
582.213 59.087 L
582.6 58.258 L
582.987 58.676 L
583.375 58.798 L
583.763 59.137 L
584.15 59.592 L
584.537 58.939 L
584.925 59.798 L
585.313 59.686 L
585.7 59.097 L
586.088 58.963 L
586.475 58.493 L
586.862 59.397 L
587.25 59.278 L
587.638 59.024 L
588.025 59.17 L
588.412 58.942 L
588.8 59.608 L
589.188 59.564 L
589.575 59.583 L
589.963 59.525 L
590.35 58.915 L
590.737 59.159 L
591.125 58.907 L
591.513 58.677 L
591.9 59.097 L
592.287 59.042 L
592.675 59.997 L
593.063 59.736 L
593.45 59.575 L
593.838 59.678 L
594.225 59.596 L
594.612 59.924 L
595 59.824 L
595.388 59.426 L
595.775 59.459 L
596.162 58.834 L
596.55 59.288 L
596.938 59.263 L
597.325 58.965 L
597.713 59.501 L
598.1 59.511 L
598.487 58.704 L
598.875 58.762 L
599.263 58.497 L
599.65 58.611 L
600.037 58.757 L
600.425 58.788 L
600.813 58.819 L
601.2 59.064 L
601.588 59.056 L
601.975 59.111 L
602.362 59.594 L
602.75 59.199 L
603.138 59.485 L
603.525 59.351 L
603.912 58.868 L
604.3 58.945 L
604.688 58.384 L
605.075 58.248 L
605.463 57.962 L
605.85 58.342 L
606.237 58.479 L
606.625 57.801 L
607.013 57.601 L
607.4 57.679 L
607.787 57.352 L
608.175 58.289 L
608.563 58.225 L
608.95 57.969 L
609.338 57.99 L
609.725 58.184 L
610.112 58.104 L
610.5 57.64 L
610.888 58.03 L
611.275 58.259 L
611.662 57.757 L
612.05 57.843 L
612.438 56.985 L
612.825 57.092 L
613.213 56.819 L
613.6 56.736 L
613.987 57.567 L
614.375 57.59 L
614.763 57.459 L
615.15 57.985 L
615.537 57.973 L
615.925 58.212 L
616.313 57.711 L
616.7 57.642 L
617.088 57.647 L
617.475 56.779 L
617.862 56.482 L
618.25 56.156 L
618.638 55.768 L
619.025 55.624 L
619.412 55.381 L
619.8 55.165 L
620.188 55.279 L
620.575 55.258 L
620.963 55.132 L
621.35 55.163 L
621.737 55.088 L
622.125 54.498 L
622.513 54.504 L
622.9 54.434 L
623.287 54.87 L
623.675 55.156 L
624.063 55.044 L
624.45 55.5 L
624.838 55.305 L
625.225 55.432 L
625.612 55.409 L
626 55.398 L
626.388 55.398 L
626.775 55.664 L
627.162 55.415 L
627.55 55.293 L
627.938 54.342 L
628.325 53.936 L
628.713 53.899 L
629.1 54.036 L
629.487 54.11 L
629.875 54.396 L
630.263 54.396 L
630.65 54.032 L
631.037 54.19 L
631.425 54.415 L
631.813 53.837 L
632.2 54.358 L
632.588 54.266 L
632.975 54.375 L
633.362 54.719 L
633.75 53.808 L
634.138 53.835 L
634.525 53.518 L
634.912 53.483 L
635.3 53.558 L
635.688 53.935 L
636.075 53.387 L
636.463 53.619 L
636.85 53.599 L
637.237 53.945 L
637.625 53.987 L
638.013 54.199 L
638.4 54.053 L
638.787 54.513 L
639.175 54.601 L
639.563 54.464 L
639.95 54.98 L
640.338 55.149 L
640.725 54.995 L
641.112 55.05 L
641.5 55.205 L
641.888 55.457 L
642.275 55.405 L
642.662 55.173 L
643.05 54.659 L
643.438 54.506 L
643.825 54.408 L
644.213 53.621 L
644.6 54.079 L
644.987 54.233 L
645.375 53.895 L
645.763 53.643 L
646.15 53.411 L
646.537 53.418 L
646.925 53.561 L
647.313 53.577 L
647.7 53.479 L
648.088 53.561 L
648.475 53.696 L
648.862 53.416 L
649.25 52.908 L
649.638 52.709 L
650.025 52.705 L
650.412 52.695 L
650.8 52.153 L
651.188 51.836 L
651.575 51.836 L
651.963 51.251 L
652.35 51.391 L
652.737 51.51 L
653.125 51.239 L
653.513 51.09 L
653.9 50.712 L
654.287 50.792 L
654.675 50.301 L
655.063 50.201 L
655.45 49.812 L
655.838 49.81 L
656.225 49.864 L
656.612 49.762 L
657 49.828 L
657.388 49.849 L
657.775 49.91 L
658.162 49.795 L
658.55 49.488 L
658.938 49.6 L
659.325 49.785 L
659.713 49.103 L
660.1 49.019 L
660.487 48.921 L
660.875 48.895 L
661.263 48.791 L
661.65 49.065 L
662.037 49.001 L
662.425 48.894 L
662.813 48.954 L
663.2 48.809 L
663.588 48.911 L
663.975 49.026 L
664.362 48.911 L
664.75 48.616 L
665.138 48.486 L
665.525 48.593 L
665.912 48.334 L
666.3 48.061 L
666.688 48.055 L
667.075 47.923 L
667.463 47.904 L
667.85 47.505 L
668.237 47.415 L
668.625 47.378 L
669.013 47.575 L
669.4 47.488 L
669.787 47.374 L
670.175 47.669 L
670.563 47.579 L
670.95 47.698 L
671.338 47.912 L
671.725 47.785 L
672.112 47.416 L
672.5 47.286 L
672.888 47.143 L
673.275 47.034 L
673.662 47.034 L
674.05 47.083 L
674.438 47.19 L
674.825 47.457 L
675.213 47.201 L
675.6 47.377 L
675.987 47.168 L
676.375 47.245 L
676.763 46.805 L
677.15 47.353 L
677.537 47.081 L
677.925 47.137 L
678.313 47.093 L
678.7 46.855 L
679.088 46.597 L
679.475 46.601 L
679.862 47.349 L
680.25 47.809 L
680.638 47.693 L
681.025 47.596 L
681.412 47.07 L
681.8 47.138 L
682.188 47.252 L
682.575 47.546 L
682.963 47.68 L
683.35 47.471 L
683.737 47.266 L
684.125 46.931 L
684.513 47.189 L
684.9 47.419 L
685.287 47.721 L
685.675 47.955 L
686.063 48.262 L
686.45 48.227 L
686.838 48.325 L
687.225 48.386 L
687.612 48.466 L
688 48.277 L
688.388 48.155 L
688.775 47.959 L
689.162 47.933 L
689.55 48.073 L
689.938 47.781 L
690.325 48.116 L
690.713 47.996 L
691.1 47.89 L
691.487 47.783 L
691.875 48.142 L
692.263 48.284 L
692.65 48.498 L
693.037 48.707 L
693.425 48.818 L
693.813 49.193 L
694.2 49.332 L
694.588 49.268 L
694.975 49.594 L
695.362 49.594 L
695.75 49.416 L
696.138 49.334 L
696.525 49.564 L
696.912 49.097 L
697.3 49.24 L
697.688 49.047 L
698.075 49.055 L
698.463 48.976 L
698.85 48.953 L
699.237 48.875 L
699.625 48.042 L
700.013 48.615 L
700.4 48.937 L
700.787 48.945 L
701.175 49.246 L
701.563 49.241 L
701.95 51.092 L
702.338 52.163 L
702.725 53.771 L
703.112 56.227 L
703.5 58.376 L
703.888 59.815 L
704.275 60.867 L
704.662 61.879 L
705.05 63.021 L
705.438 64.338 L
705.825 65.668 L
706.213 66.642 L
706.6 68.509 L
706.987 69.237 L
707.375 70.386 L
707.763 71.455 L
708.15 73.615 L
708.537 75.252 L
708.925 77.14 L
709.313 79.585 L
709.7 80.657 L
710.088 82.164 L
710.475 83.637 L
710.862 84.298 L
711.25 85.637 L
711.638 86.751 L
712.025 87.389 L
712.412 88.102 L
712.8 88.838 L
713.188 89.779 L
713.575 90.373 L
713.963 91.42 L
714.35 92.353 L
714.737 94.808 L
715.125 95.809 L
715.513 97.826 L
715.9 98.811 L
716.287 100.045 L
716.675 101.039 L
717.063 101.72 L
717.45 102.613 L
717.838 103.057 L
718.225 104.531 L
718.612 105.846 L
719 107.688 L
719.388 108.804 L
719.775 109.244 L
720.162 109.79 L
720.55 110.547 L
720.938 111.474 L
721.325 112.224 L
721.713 112.365 L
722.1 112.778 L
722.487 111.418 L
722.875 109.945 L
723.263 108.588 L
723.65 108.216 L
724.037 108.094 L
724.425 108.488 L
724.813 108.901 L
725.2 108.69 L
725.588 108.526 L
725.975 108.189 L
726.362 107.628 L
726.75 107.598 L
727.138 107.773 L
727.525 107.488 L
727.912 106.772 L
728.3 106.868 L
728.688 105.797 L
729.075 104.959 L
729.463 104.763 L
729.85 105.026 L
730.237 105.362 L
730.625 105.618 L
731.013 105.331 L
731.4 105.085 L
731.787 105.3 L
732.175 105.19 L
732.563 105.649 L
732.95 106.234 L
733.338 105.988 L
733.725 105.646 L
734.112 105.822 L
734.5 103.98 L
734.888 104.102 L
735.275 104.453 L
735.662 104.835 L
736.05 104.648 L
736.438 104.371 L
736.825 104.584 L
737.213 106.637 L
737.6 107.167 L
737.987 106.873 L
738.375 106.574 L
738.763 106.135 L
739.15 106.086 L
739.537 105.405 L
739.925 105.552 L
740.313 105.853 L
740.7 107.304 L
741.088 107.533 L
741.475 108.293 L
741.862 108.062 L
742.25 108.749 L
742.638 108.718 L
743.025 109.207 L
743.412 109.431 L
743.8 109.166 L
744.188 109.538 L
744.575 108.589 L
744.963 108.589 L
745.35 109.572 L
745.737 110.571 L
746.125 110.347 L
746.513 110.728 L
746.9 111.166 L
747.287 111.194 L
747.675 111.194 L
748.063 110.253 L
748.45 110.376 L
748.838 110.085 L
749.225 109.582 L
749.612 108.817 L
750 110.133 L
750.388 110.513 L
750.775 110.228 L
751.162 110.965 L
751.55 111.213 L
751.938 112.686 L
752.325 113.247 L
752.713 113.877 L
753.1 114.805 L
753.487 115.194 L
753.875 114.858 L
754.263 116.7 L
754.65 117.03 L
755.037 116.211 L
755.425 117.417 L
755.813 117.456 L
756.2 117.684 L
756.588 118.655 L
756.975 117.731 L
757.362 117.773 L
757.75 117.997 L
758.138 118.267 L
758.525 118.501 L
758.912 118.339 L
759.3 118.423 L
759.688 118.613 L
760.075 118.312 L
760.463 116.972 L
760.85 117.344 L
761.237 115.298 L
761.625 115.298 L
762.013 115.602 L
762.4 116.125 L
762.787 116.247 L
763.175 115.69 L
763.563 116.148 L
763.95 116.498 L
764.338 116.226 L
764.725 116.115 L
765.112 114.751 L
765.5 114.751 L
765.888 115.123 L
766.275 115.737 L
766.662 114.742 L
767.05 114.663 L
767.438 114.749 L
767.825 115.296 L
768.213 115.831 L
768.6 115.831 L
768.987 116.691 L
769.375 116.903 L
769.763 114.801 L
770.15 115.207 L
770.537 116.544 L
770.925 116.053 L
771.313 115.696 L
771.7 114.191 L
772.088 113.7 L
772.475 112.28 L
772.862 111.352 L
773.25 111.65 L
773.638 111.761 L
774.025 110.447 L
774.412 109.995 L
774.8 109.536 L
775.188 108.699 L
775.575 108.847 L
775.963 109.935 L
776.35 109.935 L
776.737 109.632 L
777.125 109.972 L
777.513 109.972 L
777.9 109.387 L
778.287 109.089 L
778.675 109.546 L
779.063 110.143 L
779.45 109.885 L
779.838 109.99 L
780.225 109.297 L
780.612 109.851 L
781 110.014 L
781.388 110.737 L
781.775 111.53 L
782.162 111.776 L
782.55 111.542 L
782.938 113.151 L
783.325 112.958 L
783.713 112.608 L
784.1 113.042 L
784.487 114.081 L
784.875 114.831 L
785.263 114.271 L
785.65 113.743 L
786.037 113.241 L
786.425 114.113 L
786.813 114.063 L
787.2 113.829 L
787.588 114.455 L
787.975 114.185 L
788.362 114.037 L
788.75 114.171 L
789.138 114.093 L
789.525 114.086 L
789.912 114.242 L
790.3 113.54 L
790.688 112.987 L
791.075 113.556 L
791.463 113.398 L
791.85 113.152 L
792.237 114.27 L
792.625 115.252 L
793.013 114.559 L
793.4 114.609 L
793.787 114.191 L
794.175 116.348 L
794.563 116.113 L
794.95 116.081 L
795.338 115.512 L
795.725 114.228 L
796.112 113.597 L
796.5 113.011 L
796.888 112.819 L
797.275 113.52 L
797.662 113.983 L
798.05 114.936 L
798.438 114.339 L
798.825 114.888 L
799.213 115.97 L
799.6 116.104 L
799.987 116.44 L
800.375 115.972 L
800.763 116.123 L
801.15 114.39 L
801.537 113.526 L
801.925 112.899 L
802.313 113.694 L
802.7 112.789 L
803.088 112.789 L
803.475 112.087 L
803.862 112.382 L
804.25 110.934 L
804.638 110.262 L
805.025 109.873 L
805.412 110.815 L
805.8 111.209 L
806.188 110.829 L
806.575 110.988 L
806.963 111.851 L
807.35 111.909 L
807.737 111.695 L
808.125 111.667 L
808.513 111.597 L
808.9 111.302 L
809.287 111.354 L
809.675 110.34 L
810.063 109.858 L
810.45 110.276 L
810.838 110.276 L
811.225 112.431 L
811.612 112.484 L
812 111.47 L
812.388 111.239 L
812.775 113.241 L
813.162 112.934 L
813.55 113.352 L
813.938 112.181 L
814.325 113.341 L
814.713 112.548 L
815.1 112.657 L
815.487 112.903 L
815.875 112.545 L
816.263 112.503 L
816.65 112.173 L
817.037 111.541 L
817.425 112.365 L
817.813 111.055 L
818.2 111.406 L
818.588 110.759 L
818.975 110.291 L
819.362 110.812 L
819.75 111.563 L
820.138 112.605 L
820.525 112.314 L
820.912 114.866 L
821.3 116.327 L
821.688 117.341 L
822.075 116.253 L
822.463 116.436 L
822.85 117.421 L
823.237 117.827 L
823.625 117.905 L
824.013 118.637 L
824.4 119.735 L
824.787 120.245 L
825.175 119.831 L
825.563 119.735 L
825.95 120.36 L
826.338 120.433 L
826.725 118.812 L
827.112 118.427 L
827.5 119.815 L
827.888 120.173 L
828.275 120.407 L
828.662 121.377 L
829.05 122.414 L
829.438 122.803 L
829.825 122.759 L
830.213 123.442 L
830.6 122.768 L
830.987 121 L
831.375 120.515 L
831.763 120.904 L
832.15 119.963 L
832.537 118.032 L
832.925 118.515 L
833.313 118.515 L
833.7 116.862 L
834.088 116.097 L
834.475 115.957 L
834.862 115.848 L
835.25 116.094 L
835.638 116.529 L
836.025 117.279 L
836.412 117.802 L
836.8 117.096 L
837.188 116.272 L
837.575 116.763 L
837.963 117.009 L
838.35 117.037 L
838.737 117.422 L
839.125 117.422 L
839.513 117.653 L
839.9 116.153 L
840.287 116.862 L
840.675 114.991 L
841.063 113.86 L
841.45 113.596 L
841.838 114.059 L
842.225 114.781 L
842.612 113.988 L
843 113.815 L
843.388 113.738 L
843.775 113.131 L
844.162 111.917 L
844.55 111.435 L
844.938 111.357 L
845.325 112.176 L
845.713 111.685 L
846.1 112.065 L
846.487 113.056 L
846.875 112.646 L
847.263 111.418 L
847.65 111.65 L
848.037 110.933 L
848.425 109.963 L
848.813 110.125 L
849.2 109.604 L
849.588 109.672 L
849.975 109.491 L
850.362 109.382 L
850.75 109.382 L
851.138 109.677 L
851.525 109.453 L
851.912 110.001 L
852.3 109.631 L
852.688 109.046 L
853.075 109.229 L
853.463 109.631 L
853.85 109.184 L
854.237 109.944 L
854.625 109.944 L
855.013 109.392 L
855.4 109.122 L
855.787 108.45 L
856.175 108.409 L
856.563 109.375 L
856.95 109.645 L
857.338 109.452 L
857.725 108.995 L
858.112 108.82 L
858.5 109.253 L
858.888 109.253 L
859.275 108.341 L
859.662 108.341 L
860.05 107.969 L
860.438 107.248 L
860.825 106.988 L
861.213 106.427 L
861.6 106.155 L
861.987 104.593 L
862.375 103.863 L
862.763 103.093 L
863.15 102.847 L
863.537 102.955 L
863.925 102.474 L
864.313 102.781 L
864.7 102.075 L
865.088 100.735 L
865.475 101.718 L
865.862 101.654 L
866.25 102.122 L
866.638 102.122 L
867.025 102.736 L
867.412 101.722 L
867.8 101.783 L
868.188 101.886 L
868.575 100.512 L
868.963 100.54 L
869.35 100.687 L
869.737 100.687 L
870.125 100.478 L
870.513 100.702 L
870.9 101.084 L
871.287 101.147 L
871.675 100.551 L
872.063 101.542 L
872.45 102.063 L
872.838 101.611 L
873.225 101.277 L
873.612 101.128 L
874 101.042 L
874.388 100.761 L
874.775 100.633 L
875.162 100.988 L
875.55 100.501 L
875.938 100.542 L
876.325 99.987 L
876.713 99.664 L
877.1 99.365 L
877.487 99.372 L
877.875 100.167 L
878.263 98.53 L
878.65 98.296 L
879.037 98.085 L
879.425 98.085 L
879.813 97.851 L
880.2 98.12 L
880.588 97.465 L
880.975 96.685 L
881.362 97.884 L
881.75 97.884 L
882.138 97.754 L
882.525 98.02 L
882.912 98.43 L
883.3 98.556 L
883.688 100.252 L
884.075 101.172 L
884.463 101.538 L
884.85 101.703 L
885.237 100.192 L
885.625 99.467 L
886.013 98.701 L
886.4 100.338 L
886.787 99.198 L
887.175 99.264 L
887.563 99.755 L
887.95 99.418 L
888.338 99.578 L
888.725 100.573 L
889.112 101.323 L
889.5 100.432 L
889.888 100.751 L
890.275 100.985 L
890.662 100.421 L
891.05 100.193 L
891.438 100.627 L
891.825 99.972 L
892.213 99.724 L
892.6 99.466 L
892.987 99.837 L
893.375 100.374 L
893.763 100.787 L
894.15 102.541 L
894.537 102.918 L
894.925 103 L
895.313 103.869 L
895.7 103.673 L
896.088 103.776 L
896.475 103.831 L
896.862 104.154 L
897.25 104.447 L
897.638 103.62 L
898.025 104.151 L
898.412 104.012 L
898.8 104.549 L
899.188 104.693 L
899.575 105.144 L
899.963 105.609 L
900.35 106.275 L
900.737 107.416 L
901.125 106.118 L
901.513 106.748 L
901.9 107.834 L
902.287 108.183 L
902.675 107.751 L
903.063 108.044 L
903.45 106.508 L
903.838 105.074 L
904.225 105.386 L
904.612 105.443 L
905 106.164 L
S
GR
%%Trailer
%%Pages: 1
%%EOF
